%!PS-Adobe-2.0 EPSF-2.0
%%BoundingBox:  0 0 567 396
%%Title: : histoTight_mu0_over_histoLoose_mu0
%%Creator: ROOT Version 6.20/06
%%CreationDate: Fri Apr  8 19:55:56 2022
%%DocumentNeededResources: ProcSet (FontSetInit)
%%EndComments
%%BeginProlog
80 dict begin
/s {stroke} def /l {lineto} def /m {moveto} def /t {translate} def
/r {rotate} def /rl {roll}  def /R {repeat} def
/d {rlineto} def /rm {rmoveto} def /gr {grestore} def /f {eofill} def
/c {setrgbcolor} def /black {0 setgray} def /sd {setdash} def
/cl {closepath} def /sf {scalefont setfont} def /lw {setlinewidth} def
/box {m dup 0 exch d exch 0 d 0 exch neg d cl} def
/NC{systemdict begin initclip end}def/C{NC box clip newpath}def
/bl {box s} def /bf {gsave box gsave f grestore 1 lw [] 0 sd s grestore} def /Y { 0 exch d} def /X { 0 d} def 
/K {{pop pop 0 moveto} exch kshow} bind def
/ita {/ang 15 def gsave [1 0 ang dup sin exch cos div 1 0 0] concat} def 
/mp {newpath /y exch def /x exch def} def
/side {[w .77 mul w .23 mul] .385 w mul sd w 0 l currentpoint t -144 r} def
/mr {mp x y w2 0 360 arc} def /m24 {mr s} def /m20 {mr f} def
/mb {mp x y w2 add m w2 neg 0 d 0 w neg d w 0 d 0 w d cl} def
/mt {mp x y w2 add m w2 neg w neg d w 0 d cl} def
/w4 {w 4 div} def
/w6 {w 6 div} def
/w8 {w 8 div} def
/m21 {mb f} def /m25 {mb s} def /m22 {mt f} def /m26{mt s} def
/m23 {mp x y w2 sub m w2 w d w neg 0 d cl f} def
/m27 {mp x y w2 add m w3 neg w2 neg d w3 w2 neg d w3 w2 d cl s} def
/m28 {mp x w2 sub y w2 sub w3 add m w3 0 d  0 w3 neg d w3 0 d 0 w3 d w3 0 d  0 w3 d w3 neg 0 d 0 w3 d w3 neg 0 d 0 w3 neg d w3 neg 0 d cl s } def
/m29 {mp gsave x w2 sub y w2 add w3 sub m currentpoint t 4 {side} repeat cl fill gr} def
/m30 {mp gsave x w2 sub y w2 add w3 sub m currentpoint t 4 {side} repeat cl s gr} def
/m31 {mp x y w2 sub m 0 w d x w2 sub y m w 0 d x w2 sub y w2 add m w w neg d x w2 sub y w2 sub m w w d s} def
/m32 {mp x y w2 sub m w2 w d w neg 0 d cl s} def
/m33 {mp x y w2 add m w3 neg w2 neg d w3 w2 neg d w3 w2 d cl f} def
/m34 {mp x w2 sub y w2 sub w3 add m w3 0 d  0 w3 neg d w3 0 d 0 w3 d w3 0 d  0 w3 d w3 neg 0 d 0 w3 d w3 neg 0 d 0 w3 neg d w3 neg 0 d cl f } def
/m35 {mp x y w2 add m w2 neg w2 neg d w2 w2 neg d w2 w2 d w2 neg w2 d x y w2 sub m 0 w d x w2 sub y m w 0 d s} def
/m36 {mb x w2 sub y w2 add m w w neg d x w2 sub y w2 sub m w w d s} def
/m37 {mp x y m w4 neg w2 d w4 neg w2 neg d w2 0 d  w4 neg w2 neg d w2 0 d w4 neg w2 d w2 0 d w4 neg w2 d w4 neg w2 neg d cl s} def
/m38 {mp x w4 sub y w2 add m w4 neg w4 neg d 0 w2 neg d w4 w4 neg d w2 0 d w4 w4 d 0 w2 d w4 neg w4 d w2 neg 0 d x y w2 sub m 0 w d x w2 sub y m w 0 d cl s} def
/m39 {mp x y m w4 neg w2 d w4 neg w2 neg d w2 0 d  w4 neg w2 neg d w2 0 d w4 neg w2 d w2 0 d w4 neg w2 d w4 neg w2 neg d cl f} def
/m40 {mp x y m w4 w2 d w4 w4 neg d w2 neg w4 neg d w2 w4 neg d w4 neg w4 neg d w4 neg w2 d w4 neg w2 neg d w4 neg w4 d w2 w4 d w2 neg w4 d w4 w4 d w4 w2 neg d cl s} def
/m41 {mp x y m w4 w2 d w4 w4 neg d w2 neg w4 neg d w2 w4 neg d w4 neg w4 neg d w4 neg w2 d w4 neg w2 neg d w4 neg w4 d w2 w4 d w2 neg w4 d w4 w4 d w4 w2 neg d cl f} def
/m42 {mp x y w2 add m w8 neg w2 -3 4 div mul d w2 -3 4 div mul w8 neg d w2 3 4 div mul w8 neg d w8 w2 -3 4 div mul d w8 w2 3 4 div mul d w2 3 4 div mul w8 d w2 -3 4 div mul w8 d w8 neg w2 3 4 div mul d cl s} def
/m43 {mp x y w2 add m w8 neg w2 -3 4 div mul d w2 -3 4 div mul w8 neg d w2 3 4 div mul w8 neg d w8 w2 -3 4 div mul d w8 w2 3 4 div mul d w2 3 4 div mul w8 d w2 -3 4 div mul w8 d w8 neg w2 3 4 div mul d cl f} def
/m44 {mp x y m w6 neg w2 d w2 2 3 div mul 0 d w6 neg w2 neg d w2 w6 d 0 w2 -2 3 div mul d w2 neg w6 d w6 w2 neg d w2 -2 3 div mul 0 d w6 w2 d w2 neg w6 neg d 0 w2 2 3 div mul d w2 w6 neg d cl s} def
/m45 {mp x y m w6 neg w2 d w2 2 3 div mul 0 d w6 neg w2 neg d w2 w6 d 0 w2 -2 3 div mul d w2 neg w6 d w6 w2 neg d w2 -2 3 div mul 0 d w6 w2 d w2 neg w6 neg d 0 w2 2 3 div mul d w2 w6 neg d cl f} def
/m46 {mp x y w4 add m w4 neg w4 d w4 neg w4 neg d  w4 w4 neg d w4 neg w4 neg d w4 w4 neg d w4 w4 d w4 w4 neg d w4 w4 d w4 neg w4 d w4 w4 d w4 neg w4 d w4 neg w4 neg d cl s} def
/m47 {mp x y w4 add m w4 neg w4 d w4 neg w4 neg d w4 w4 neg d w4 neg w4 neg d  w4 w4 neg d w4 w4 d w4 w4 neg d w4 w4 d w4 neg w4 d w4 w4 d w4 neg w4 d w4 neg w4 neg d cl f} def
/m48 {mp x y w4 add m w4 neg w4 d w4 neg w4 neg d w4 w4 neg d  w4 neg w4 neg d w4 w4 neg d w4 w4 d w4 w4 neg d w4 w4 d w4 neg w4 d w4 w4 d w4 neg w4 d w4 neg w4 neg d  w4 w4 neg d w4 neg w4 neg d w4 neg w4 d w4 w4 d cl f} def
/m49 {mp x w2 sub w3 add y w2 sub w3 add m  0 w3 neg d w3 0 d 0 w3 d w3 0 d 0 w3 d w3 neg 0 d 0 w3 d w3 neg 0 d 0 w3 neg d w3 neg 0 d 0 w3 neg d w3 0 d 0 w3 d w3 0 d 0 w3 neg d w3 neg 0 d cl f } def
/m2 {mp x y w2 sub m 0 w d x w2 sub y m w 0 d s} def
/m5 {mp x w2 sub y w2 sub m w w d x w2 sub y w2 add m w w neg d s} def
%%IncludeResource: ProcSet (FontSetInit)
%%IncludeResource: font Times-Roman
%%IncludeResource: font Times-Italic
%%IncludeResource: font Times-Bold
%%IncludeResource: font Times-BoldItalic
%%IncludeResource: font Helvetica
%%IncludeResource: font Helvetica-Oblique
%%IncludeResource: font Helvetica-Bold
%%IncludeResource: font Helvetica-BoldOblique
%%IncludeResource: font Courier
%%IncludeResource: font Courier-Oblique
%%IncludeResource: font Courier-Bold
%%IncludeResource: font Courier-BoldOblique
%%IncludeResource: font Symbol
%%IncludeResource: font ZapfDingbats
/reEncode {exch findfont dup length dict begin {1 index /FID eq  {pop pop} {def} ifelse } forall /Encoding exch def currentdict end dup /FontName get exch definefont pop } def [/Times-Bold /Times-Italic /Times-BoldItalic /Helvetica /Helvetica-Oblique
 /Helvetica-Bold /Helvetica-BoldOblique /Courier /Courier-Oblique /Courier-Bold /Courier-BoldOblique /Times-Roman /AvantGarde-Book /AvantGarde-BookOblique /AvantGarde-Demi /AvantGarde-DemiOblique /Bookman-Demi /Bookman-DemiItalic /Bookman-Light
 /Bookman-LightItalic /Helvetica-Narrow /Helvetica-Narrow-Bold /Helvetica-Narrow-BoldOblique /Helvetica-Narrow-Oblique /NewCenturySchlbk-Roman /NewCenturySchlbk-Bold /NewCenturySchlbk-BoldItalic /NewCenturySchlbk-Italic /Palatino-Bold
 /Palatino-BoldItalic /Palatino-Italic /Palatino-Roman ] {ISOLatin1Encoding reEncode } forall
%%EndProlog
%%BeginSetup
%%EndSetup
newpath  gsave  .25 .25 scale  gsave  0 0 t black[  ] 0 sd 3 lw 1 1 1 c 2268 1583 0 0 bf black 1 1 1 c 2268 475 0 0 bf black 1 1 1 c 1927 275 227 190 bf black 1927 275 227 190 bl 227 190 m 1927 X s 231 202 m -12 Y s
 gsave  2268 475 0 0 C 200.787 115.157 t 0 r /Helvetica findfont 53.4154 sf 0 0 m (10) show NC gr  520 196 m -6 Y s 690 196 m -6 Y s 810 196 m -6 Y s 903 196 m -6 Y s 979 196 m -6 Y s 1044 196 m -6 Y s 1099 196 m -6 Y s 1149 196 m -6 Y s 1193 202 m
 -12 Y s
 gsave  2268 475 0 0 C 1207.68 138.78 t 0 r /Helvetica findfont 35.6102 sf 0 0 m (2) show NC gr 
 gsave  2268 475 0 0 C 1148.62 115.157 t 0 r /Helvetica findfont 53.4154 sf 0 0 m (10) show NC gr  1482 196 m -6 Y s 1651 196 m -6 Y s 1772 196 m -6 Y s 1865 196 m -6 Y s 1941 196 m -6 Y s 2005 196 m -6 Y s 2061 196 m -6 Y s 2110 196 m -6 Y s 2154
 202 m -12 Y s
 gsave  2268 475 0 0 C 2170.28 141.732 t 0 r /Helvetica findfont 35.6102 sf 0 0 m (3) show NC gr 
 gsave  2268 475 0 0 C 2111.22 115.157 t 0 r /Helvetica findfont 53.4154 sf 0 0 m (10) show NC gr 
 gsave  2268 475 0 0 C 2004.92 50.1968 t 0 r /Helvetica findfont 53.4154 sf 0 0 m ( [GeV]) show NC gr 
 gsave  2268 475 0 0 C 1981.3 23.622 t 0 r /Helvetica findfont 35.6102 sf 0 0 m (T) show NC gr 
 gsave  2268 475 0 0 C 1948.82 50.1968 t 0 r /Helvetica-Oblique findfont 53.4154 sf 0 0 m (p) show NC gr 
 gsave  2268 475 0 0 C 1801.18 50.1968 t 0 r /Helvetica findfont 53.4154 sf 0 0 m (Muon ) show NC gr  227 465 m 1927 X s 231 453 m 12 Y s 520 459 m 6 Y s 690 459 m 6 Y s 810 459 m 6 Y s 903 459 m 6 Y s 979 459 m 6 Y s 1044 459 m 6 Y s 1099 459 m 6 Y
 s 1149 459 m 6 Y s 1193 453 m 12 Y s 1482 459 m 6 Y s 1651 459 m 6 Y s 1772 459 m 6 Y s 1865 459 m 6 Y s 1941 459 m 6 Y s 2005 459 m 6 Y s 2061 459 m 6 Y s 2110 459 m 6 Y s 2154 453 m 12 Y s 227 190 m 275 Y s 266 240 m -39 X s 266 303 m -39 X s 266
 365 m -39 X s 266 428 m -39 X s 266 240 m -39 X s 266 428 m -39 X s
 gsave  2268 475 0 0 C 126.969 221.457 t 0 r /Helvetica findfont 53.4154 sf 0 0 m (0.5) show NC gr 
 gsave  2268 475 0 0 C 180.118 283.465 t 0 r /Helvetica findfont 53.4154 sf 0 0 m (1) show NC gr 
 gsave  2268 475 0 0 C 126.969 345.472 t 0 r /Helvetica findfont 53.4154 sf 0 0 m (1.5) show NC gr 
 gsave  2268 475 0 0 C 171.26 407.48 t 0 r /Helvetica findfont 53.4154 sf 0 0 m (2) show NC gr 
 gsave  2268 475 0 0 C 70.8661 342.52 t 90 r /Helvetica findfont 53.4154 sf 0 0 m (Ratio) show NC gr  2154 190 m 275 Y s 2115 240 m 39 X s 2115 303 m 39 X s 2115 365 m 39 X s 2115 428 m 39 X s 2115 240 m 39 X s 2115 428 m 39 X s 0.6 0.6 0.6 c[ 20 20]
 0 sd 400 190 m 275 Y s 520 190 m 275 Y s 690 190 m 275 Y s[ 80 20] 0 sd 227 303 m 1927 X s black[  ] 0 sd 6 lw 314 282 m -87 X s 227 282 m cl s 331 282 m 69 X s 400 282 m cl s 322 291 m 9 Y s 322 300 m cl s 322 273 m -8 Y s 322 265 m cl s 456 412 m
 -56 X s 400 412 m cl s 474 412 m 46 X s 520 412 m cl s 465 421 m 43 Y s 465 464 m cl s 465 404 m -44 Y s 465 360 m cl s 605 353 m -85 X s 520 353 m cl s 623 353 m 67 X s 690 353 m cl s 614 362 m 53 Y s 614 415 m cl s 614 345 m -53 Y s 614 292 m cl s
 1868 296 m -1178 X s 690 296 m cl s 1886 296 m 268 X s 2154 296 m cl s 1877 304 m 59 Y s 1877 363 m cl s 1877 287 m -59 Y s 1877 228 m cl s 1 1 1 c black 3 lw /w 19 def /w2 {w 2 div} def /w3 {w 3 div} def 322 282 465 412 614 353 1877 296 4 { m20} R
 6 lw 3 lw 1 1 1 c 2268 1108 0 475 bf black 1 1 1 c 1927 1041 227 486 bf black 1927 1041 227 486 bl 227 486 m 1927 X s 231 514 m -28 Y s
 gsave  2268 1108 0 475 C 206.693 413.386 t 0 r /Helvetica findfont 41.3606 sf 0 0 m (10) show NC gr  520 500 m -14 Y s 690 500 m -14 Y s 810 500 m -14 Y s 903 500 m -14 Y s 979 500 m -14 Y s 1044 500 m -14 Y s 1099 500 m -14 Y s 1149 500 m -14 Y s
 1193 514 m -28 Y s
 gsave  2268 1108 0 475 C 1204.72 431.102 t 0 r /Helvetica findfont 26.589 sf 0 0 m (2) show NC gr 
 gsave  2268 1108 0 475 C 1160.43 413.386 t 0 r /Helvetica findfont 41.3606 sf 0 0 m (10) show NC gr  1482 500 m -14 Y s 1651 500 m -14 Y s 1772 500 m -14 Y s 1865 500 m -14 Y s 1941 500 m -14 Y s 2005 500 m -14 Y s 2061 500 m -14 Y s 2110 500 m -14
 Y s 2154 514 m -28 Y s
 gsave  2268 1108 0 475 C 2167.32 434.055 t 0 r /Helvetica findfont 26.589 sf 0 0 m (3) show NC gr 
 gsave  2268 1108 0 475 C 2123.03 413.386 t 0 r /Helvetica findfont 41.3606 sf 0 0 m (10) show NC gr 
 gsave  2268 1108 0 475 C 2037.4 375 t 0 r /Helvetica findfont 41.3606 sf 0 0 m ( [GeV]) show NC gr 
 gsave  2268 1108 0 475 C 2019.69 351.378 t 0 r /Helvetica findfont 26.589 sf 0 0 m (T) show NC gr 
 gsave  2268 1108 0 475 C 1993.11 375 t 0 r /Helvetica-Oblique findfont 41.3606 sf 0 0 m (p) show NC gr 
 gsave  2268 1108 0 475 C 1877.95 375 t 0 r /Helvetica findfont 41.3606 sf 0 0 m (Muon ) show NC gr  227 1527 m 1927 X s 231 1499 m 28 Y s 520 1513 m 14 Y s 690 1513 m 14 Y s 810 1513 m 14 Y s 903 1513 m 14 Y s 979 1513 m 14 Y s 1044 1513 m 14 Y s
 1099 1513 m 14 Y s 1149 1513 m 14 Y s 1193 1499 m 28 Y s 1482 1513 m 14 Y s 1651 1513 m 14 Y s 1772 1513 m 14 Y s 1865 1513 m 14 Y s 1941 1513 m 14 Y s 2005 1513 m 14 Y s 2061 1513 m 14 Y s 2110 1513 m 14 Y s 2154 1499 m 28 Y s 227 486 m 1041 Y s
 291 654 m -64 X s 259 687 m -32 X s 259 721 m -32 X s 259 754 m -32 X s 259 788 m -32 X s 291 822 m -64 X s 259 855 m -32 X s 259 889 m -32 X s 259 922 m -32 X s 259 956 m -32 X s 291 990 m -64 X s 259 1023 m -32 X s 259 1057 m -32 X s 259 1090 m
 -32 X s 259 1124 m -32 X s 291 1158 m -64 X s 259 1191 m -32 X s 259 1225 m -32 X s 259 1258 m -32 X s 259 1292 m -32 X s 291 1326 m -64 X s 259 1359 m -32 X s 259 1393 m -32 X s 259 1426 m -32 X s 259 1460 m -32 X s 291 1494 m -64 X s 291 654 m -64
 X s 259 620 m -32 X s 259 586 m -32 X s 259 553 m -32 X s 259 519 m -32 X s 291 1494 m -64 X s 259 1527 m -32 X s
 gsave  2268 1108 0 475 C 100.394 634.843 t 0 r /Helvetica findfont 53.178 sf 0 0 m (0.05) show NC gr 
 gsave  2268 1108 0 475 C 138.78 803.15 t 0 r /Helvetica findfont 53.178 sf 0 0 m (0.1) show NC gr 
 gsave  2268 1108 0 475 C 100.394 971.457 t 0 r /Helvetica findfont 53.178 sf 0 0 m (0.15) show NC gr 
 gsave  2268 1108 0 475 C 129.921 1139.76 t 0 r /Helvetica findfont 53.178 sf 0 0 m (0.2) show NC gr 
 gsave  2268 1108 0 475 C 100.394 1305.12 t 0 r /Helvetica findfont 53.178 sf 0 0 m (0.25) show NC gr 
 gsave  2268 1108 0 475 C 129.921 1473.43 t 0 r /Helvetica findfont 53.178 sf 0 0 m (0.3) show NC gr 
 gsave  2268 1108 0 475 C 59.0551 1302.17 t 90 r /Helvetica findfont 53.178 sf 0 0 m (Efficiency) show NC gr  2154 486 m 1041 Y s 2090 654 m 64 X s 2122 687 m 32 X s 2122 721 m 32 X s 2122 754 m 32 X s 2122 788 m 32 X s 2090 822 m 64 X s 2122 855 m
 32 X s 2122 889 m 32 X s 2122 922 m 32 X s 2122 956 m 32 X s 2090 990 m 64 X s 2122 1023 m 32 X s 2122 1057 m 32 X s 2122 1090 m 32 X s 2122 1124 m 32 X s 2090 1158 m 64 X s 2122 1191 m 32 X s 2122 1225 m 32 X s 2122 1258 m 32 X s 2122 1292 m 32 X s
 2090 1326 m 64 X s 2122 1359 m 32 X s 2122 1393 m 32 X s 2122 1426 m 32 X s 2122 1460 m 32 X s 2090 1494 m 64 X s 2090 654 m 64 X s 2122 620 m 32 X s 2122 586 m 32 X s 2122 553 m 32 X s 2122 519 m 32 X s 2090 1494 m 64 X s 2122 1527 m 32 X s 0.4 0.4
 1 c 6 lw 314 554 m -87 X s 227 554 m cl s 331 554 m 69 X s 400 554 m cl s 456 527 m -56 X s 400 527 m cl s 474 527 m 46 X s 520 527 m cl s 605 522 m -85 X s 520 522 m cl s 623 522 m 67 X s 690 522 m cl s 1868 547 m -1178 X s 690 547 m cl s 1886 547
 m 268 X s 2154 547 m cl s 1877 556 m 2 Y s 1877 558 m cl s 1877 538 m -2 Y s 1877 536 m cl s 1 1 1 c 0.4 0.4 1 c 3 lw 322 554 465 527 614 522 1877 547 4 { m20} R 6 lw black 314 543 m -87 X s 227 543 m cl s 331 543 m 69 X s 400 543 m cl s 322 552 m 1
 Y s 322 553 m cl s 322 534 m -1 Y s 322 533 m cl s 456 563 m -56 X s 400 563 m cl s 474 563 m 46 X s 520 563 m cl s 465 572 m 8 Y s 465 580 m cl s 465 554 m -8 Y s 465 546 m cl s 605 537 m -85 X s 520 537 m cl s 623 537 m 67 X s 690 537 m cl s 614
 546 m 9 Y s 614 555 m cl s 614 528 m -9 Y s 614 519 m cl s 1868 544 m -1178 X s 690 544 m cl s 1886 544 m 268 X s 2154 544 m cl s 1877 552 m 25 Y s 1877 577 m cl s 1877 535 m -25 Y s 1877 510 m cl s 1 1 1 c black 3 lw 322 543 465 563 614 537 1877
 544 4 { m20} R 6 lw 0.6 0.6 0.6 c[ 20 20] 0 sd 3 lw 400 486 m 1041 Y s 520 486 m 1041 Y s 690 486 m 1041 Y s black[  ] 0 sd 1 1 1 c 681 166 1315 1295 bf black 1315 1295 m 681 X s 1996 1295 m 166 Y s 1996 1461 m -681 X s 1315 1461 m -166 Y s
 gsave  2268 1108 0 475 C 1485.24 1402.56 t 0 r /Helvetica findfont 53.178 sf 0 0 m ( Rates MC) show NC gr  1 1 1 c 1341 1390 m 119 X 58 Y -119 X f 0.4 0.4 1 c 6 lw 1341 1419 m 119 X s 3 lw 1400 1419 m20 6 lw black
 gsave  2268 1108 0 475 C 1972.44 1319.88 t 0 r /Helvetica findfont 53.178 sf 0 0 m (\)) show NC gr 
 gsave  2268 1108 0 475 C 1945.87 1346.46 t 0 r /Helvetica findfont 35.452 sf 0 0 m (\2551) show NC gr 
 gsave  2268 1108 0 475 C 1485.24 1319.88 t 0 r /Helvetica findfont 53.178 sf 0 0 m ( Rates Data \(139 fb) show NC gr  1 1 1 c 3 lw 1341 1307 m 119 X 58 Y -119 X f 6 lw black 1341 1336 m 119 X s 3 lw 1400 1336 m20 6 lw 3 lw 1 1 1 c 590 200 408 1261
 bf black 408 1261 m 590 X s 998 1261 m 200 Y s 998 1461 m -590 X s 408 1461 m -200 Y s
 gsave  2268 1108 0 475 C 451.772 1284.45 t 0 r /Helvetica-Bold findfont 62.0409 sf 0 0 m (Muons) show NC gr 
 gsave  2268 1108 0 475 C 451.772 1384.84 t 0 r /Helvetica-BoldOblique findfont 62.0409 sf 0 0 m (ATLAS) show NC gr 
 gsave  2268 1108 0 475 C 702.756 1384.84 t 0 r /Helvetica findfont 62.0409 sf 0 0 m (Internal) show NC gr 
 gr  gr showpage
end
%%EOF
