%!PS-Adobe-2.0 EPSF-2.0
%%BoundingBox:  0 0 567 396
%%Title: : histo2D_Tight_mu_over_histo2D_Loose_mu_Real_MC
%%Creator: ROOT Version 6.20/06
%%CreationDate: Mon Jan  3 13:06:56 2022
%%DocumentNeededResources: ProcSet (FontSetInit)
%%EndComments
%%BeginProlog
80 dict begin
/s {stroke} def /l {lineto} def /m {moveto} def /t {translate} def
/r {rotate} def /rl {roll}  def /R {repeat} def
/d {rlineto} def /rm {rmoveto} def /gr {grestore} def /f {eofill} def
/c {setrgbcolor} def /black {0 setgray} def /sd {setdash} def
/cl {closepath} def /sf {scalefont setfont} def /lw {setlinewidth} def
/box {m dup 0 exch d exch 0 d 0 exch neg d cl} def
/NC{systemdict begin initclip end}def/C{NC box clip newpath}def
/bl {box s} def /bf {gsave box gsave f grestore 1 lw [] 0 sd s grestore} def /Y { 0 exch d} def /X { 0 d} def 
/K {{pop pop 0 moveto} exch kshow} bind def
/ita {/ang 15 def gsave [1 0 ang dup sin exch cos div 1 0 0] concat} def 
/mp {newpath /y exch def /x exch def} def
/side {[w .77 mul w .23 mul] .385 w mul sd w 0 l currentpoint t -144 r} def
/mr {mp x y w2 0 360 arc} def /m24 {mr s} def /m20 {mr f} def
/mb {mp x y w2 add m w2 neg 0 d 0 w neg d w 0 d 0 w d cl} def
/mt {mp x y w2 add m w2 neg w neg d w 0 d cl} def
/w4 {w 4 div} def
/w6 {w 6 div} def
/w8 {w 8 div} def
/m21 {mb f} def /m25 {mb s} def /m22 {mt f} def /m26{mt s} def
/m23 {mp x y w2 sub m w2 w d w neg 0 d cl f} def
/m27 {mp x y w2 add m w3 neg w2 neg d w3 w2 neg d w3 w2 d cl s} def
/m28 {mp x w2 sub y w2 sub w3 add m w3 0 d  0 w3 neg d w3 0 d 0 w3 d w3 0 d  0 w3 d w3 neg 0 d 0 w3 d w3 neg 0 d 0 w3 neg d w3 neg 0 d cl s } def
/m29 {mp gsave x w2 sub y w2 add w3 sub m currentpoint t 4 {side} repeat cl fill gr} def
/m30 {mp gsave x w2 sub y w2 add w3 sub m currentpoint t 4 {side} repeat cl s gr} def
/m31 {mp x y w2 sub m 0 w d x w2 sub y m w 0 d x w2 sub y w2 add m w w neg d x w2 sub y w2 sub m w w d s} def
/m32 {mp x y w2 sub m w2 w d w neg 0 d cl s} def
/m33 {mp x y w2 add m w3 neg w2 neg d w3 w2 neg d w3 w2 d cl f} def
/m34 {mp x w2 sub y w2 sub w3 add m w3 0 d  0 w3 neg d w3 0 d 0 w3 d w3 0 d  0 w3 d w3 neg 0 d 0 w3 d w3 neg 0 d 0 w3 neg d w3 neg 0 d cl f } def
/m35 {mp x y w2 add m w2 neg w2 neg d w2 w2 neg d w2 w2 d w2 neg w2 d x y w2 sub m 0 w d x w2 sub y m w 0 d s} def
/m36 {mb x w2 sub y w2 add m w w neg d x w2 sub y w2 sub m w w d s} def
/m37 {mp x y m w4 neg w2 d w4 neg w2 neg d w2 0 d  w4 neg w2 neg d w2 0 d w4 neg w2 d w2 0 d w4 neg w2 d w4 neg w2 neg d cl s} def
/m38 {mp x w4 sub y w2 add m w4 neg w4 neg d 0 w2 neg d w4 w4 neg d w2 0 d w4 w4 d 0 w2 d w4 neg w4 d w2 neg 0 d x y w2 sub m 0 w d x w2 sub y m w 0 d cl s} def
/m39 {mp x y m w4 neg w2 d w4 neg w2 neg d w2 0 d  w4 neg w2 neg d w2 0 d w4 neg w2 d w2 0 d w4 neg w2 d w4 neg w2 neg d cl f} def
/m40 {mp x y m w4 w2 d w4 w4 neg d w2 neg w4 neg d w2 w4 neg d w4 neg w4 neg d w4 neg w2 d w4 neg w2 neg d w4 neg w4 d w2 w4 d w2 neg w4 d w4 w4 d w4 w2 neg d cl s} def
/m41 {mp x y m w4 w2 d w4 w4 neg d w2 neg w4 neg d w2 w4 neg d w4 neg w4 neg d w4 neg w2 d w4 neg w2 neg d w4 neg w4 d w2 w4 d w2 neg w4 d w4 w4 d w4 w2 neg d cl f} def
/m42 {mp x y w2 add m w8 neg w2 -3 4 div mul d w2 -3 4 div mul w8 neg d w2 3 4 div mul w8 neg d w8 w2 -3 4 div mul d w8 w2 3 4 div mul d w2 3 4 div mul w8 d w2 -3 4 div mul w8 d w8 neg w2 3 4 div mul d cl s} def
/m43 {mp x y w2 add m w8 neg w2 -3 4 div mul d w2 -3 4 div mul w8 neg d w2 3 4 div mul w8 neg d w8 w2 -3 4 div mul d w8 w2 3 4 div mul d w2 3 4 div mul w8 d w2 -3 4 div mul w8 d w8 neg w2 3 4 div mul d cl f} def
/m44 {mp x y m w6 neg w2 d w2 2 3 div mul 0 d w6 neg w2 neg d w2 w6 d 0 w2 -2 3 div mul d w2 neg w6 d w6 w2 neg d w2 -2 3 div mul 0 d w6 w2 d w2 neg w6 neg d 0 w2 2 3 div mul d w2 w6 neg d cl s} def
/m45 {mp x y m w6 neg w2 d w2 2 3 div mul 0 d w6 neg w2 neg d w2 w6 d 0 w2 -2 3 div mul d w2 neg w6 d w6 w2 neg d w2 -2 3 div mul 0 d w6 w2 d w2 neg w6 neg d 0 w2 2 3 div mul d w2 w6 neg d cl f} def
/m46 {mp x y w4 add m w4 neg w4 d w4 neg w4 neg d  w4 w4 neg d w4 neg w4 neg d w4 w4 neg d w4 w4 d w4 w4 neg d w4 w4 d w4 neg w4 d w4 w4 d w4 neg w4 d w4 neg w4 neg d cl s} def
/m47 {mp x y w4 add m w4 neg w4 d w4 neg w4 neg d w4 w4 neg d w4 neg w4 neg d  w4 w4 neg d w4 w4 d w4 w4 neg d w4 w4 d w4 neg w4 d w4 w4 d w4 neg w4 d w4 neg w4 neg d cl f} def
/m48 {mp x y w4 add m w4 neg w4 d w4 neg w4 neg d w4 w4 neg d  w4 neg w4 neg d w4 w4 neg d w4 w4 d w4 w4 neg d w4 w4 d w4 neg w4 d w4 w4 d w4 neg w4 d w4 neg w4 neg d  w4 w4 neg d w4 neg w4 neg d w4 neg w4 d w4 w4 d cl f} def
/m49 {mp x w2 sub w3 add y w2 sub w3 add m  0 w3 neg d w3 0 d 0 w3 d w3 0 d 0 w3 d w3 neg 0 d 0 w3 d w3 neg 0 d 0 w3 neg d w3 neg 0 d 0 w3 neg d w3 0 d 0 w3 d w3 0 d 0 w3 neg d w3 neg 0 d cl f } def
/m2 {mp x y w2 sub m 0 w d x w2 sub y m w 0 d s} def
/m5 {mp x w2 sub y w2 sub m w w d x w2 sub y w2 add m w w neg d s} def
%%IncludeResource: ProcSet (FontSetInit)
%%IncludeResource: font Times-Roman
%%IncludeResource: font Times-Italic
%%IncludeResource: font Times-Bold
%%IncludeResource: font Times-BoldItalic
%%IncludeResource: font Helvetica
%%IncludeResource: font Helvetica-Oblique
%%IncludeResource: font Helvetica-Bold
%%IncludeResource: font Helvetica-BoldOblique
%%IncludeResource: font Courier
%%IncludeResource: font Courier-Oblique
%%IncludeResource: font Courier-Bold
%%IncludeResource: font Courier-BoldOblique
%%IncludeResource: font Symbol
%%IncludeResource: font ZapfDingbats
/reEncode {exch findfont dup length dict begin {1 index /FID eq  {pop pop} {def} ifelse } forall /Encoding exch def currentdict end dup /FontName get exch definefont pop } def [/Times-Bold /Times-Italic /Times-BoldItalic /Helvetica /Helvetica-Oblique
 /Helvetica-Bold /Helvetica-BoldOblique /Courier /Courier-Oblique /Courier-Bold /Courier-BoldOblique /Times-Roman /AvantGarde-Book /AvantGarde-BookOblique /AvantGarde-Demi /AvantGarde-DemiOblique /Bookman-Demi /Bookman-DemiItalic /Bookman-Light
 /Bookman-LightItalic /Helvetica-Narrow /Helvetica-Narrow-Bold /Helvetica-Narrow-BoldOblique /Helvetica-Narrow-Oblique /NewCenturySchlbk-Roman /NewCenturySchlbk-Bold /NewCenturySchlbk-BoldItalic /NewCenturySchlbk-Italic /Palatino-Bold
 /Palatino-BoldItalic /Palatino-Italic /Palatino-Roman ] {ISOLatin1Encoding reEncode } forall
%%EndProlog
%%BeginSetup
%%EndSetup
newpath  gsave  .25 .25 scale  gsave  0 0 t black[  ] 0 sd 3 lw 1 1 1 c 2268 1583 0 0 bf black 1 1 1 c 2268 1504 0 0 bf black 1 1 1 c 1701 1202 227 226 bf black 1701 1202 227 226 bl 1 1 1 c 0.821814 0.835294 0.83652 c 185 240 227 226 bf 0.882353
 0.886275 0.807843 c 175 240 412 226 bf 0.830147 0.705392 0.198284 c 191 240 587 226 bf 0.746569 0.359314 0.148775 c 123 240 778 226 bf 0.724265 0.203186 0.13125 c 1027 240 901 226 bf 0.883088 0.88848 0.737255 c 185 241 227 466 bf 0.885417 0.895466
 0.513726 c 175 241 412 466 bf 0.776593 0.505147 0.168015 c 191 241 587 466 bf 0.724265 0.203186 0.13125 c 123 241 778 466 bf 0.703676 0.0590686 0.115074 c 1027 241 901 466 bf 0.883946 0.891054 0.654902 c 185 240 227 707 bf 0.886275 0.898039 0.431373
 c 175 240 412 707 bf 0.776593 0.505147 0.168015 c 191 240 587 707 bf 0.724265 0.203186 0.13125 c 123 240 778 707 bf 0.703676 0.0590686 0.115074 c 1027 240 901 707 bf 0.854412 0.862745 0.821078 c 185 241 227 947 bf 0.883946 0.891054 0.654902 c 175
 241 412 947 bf 0.793505 0.568382 0.177574 c 191 241 587 947 bf 0.724265 0.203186 0.13125 c 123 241 778 947 bf 0.713971 0.131127 0.123162 c 1027 241 901 947 bf 0.854412 0.862745 0.821078 c 185 240 227 1188 bf 0.883946 0.891054 0.654902 c 175 240 412
 1188 bf 0.793505 0.568382 0.177574 c 191 240 587 1188 bf 0.724265 0.203186 0.13125 c 123 240 778 1188 bf 0.713971 0.131127 0.123162 c 1027 240 901 1188 bf 0.160658 0.220873 0.900949 c 102 30 1939 226 bf 0.187982 0.25351 0.88425 c 102 30 1939 256 bf
 0.219861 0.291588 0.864769 c 102 30 1939 286 bf 0.247185 0.324225 0.848071 c 102 30 1939 316 bf 0.27451 0.356863 0.831373 c 102 30 1939 346 bf 0.325123 0.404902 0.834804 c 102 30 1939 376 bf 0.368505 0.446078 0.837745 c 102 30 1939 406 bf 0.411887
 0.487255 0.840686 c 102 30 1939 436 bf 0.4625 0.535294 0.844118 c 102 30 1939 466 bf 0.505882 0.576471 0.847059 c 102 30 1939 496 bf 0.555637 0.616789 0.853922 c 102 30 1939 526 bf 0.598284 0.651348 0.859804 c 102 30 1939 556 bf 0.640931 0.685907
 0.865686 c 102 30 1939 586 bf 0.690686 0.726225 0.872549 c 102 31 1939 616 bf 0.733333 0.760784 0.878431 c 102 30 1939 647 bf 0.761275 0.784314 0.865196 c 102 30 1939 677 bf 0.793873 0.811765 0.849755 c 102 30 1939 707 bf 0.821814 0.835294 0.83652 c
 102 30 1939 737 bf 0.854412 0.862745 0.821078 c 102 30 1939 767 bf 0.882353 0.886275 0.807843 c 102 30 1939 797 bf 0.883088 0.88848 0.737255 c 102 30 1939 827 bf 0.883946 0.891054 0.654902 c 102 30 1939 857 bf 0.884681 0.89326 0.584314 c 102 30 1939
 887 bf 0.885417 0.895466 0.513726 c 102 30 1939 917 bf 0.886275 0.898039 0.431373 c 102 30 1939 947 bf 0.878922 0.873775 0.389461 c 102 30 1939 977 bf 0.870343 0.845466 0.340564 c 102 30 1939 1007 bf 0.86299 0.821201 0.298652 c 102 31 1939 1037 bf
 0.855637 0.796936 0.25674 c 102 30 1939 1068 bf 0.847059 0.768627 0.207843 c 102 30 1939 1098 bf 0.830147 0.705392 0.198284 c 102 30 1939 1128 bf 0.813235 0.642157 0.188725 c 102 30 1939 1158 bf 0.793505 0.568382 0.177574 c 102 30 1939 1188 bf
 0.776593 0.505147 0.168015 c 102 30 1939 1218 bf 0.756863 0.431373 0.156863 c 102 30 1939 1248 bf 0.746569 0.359314 0.148775 c 102 30 1939 1278 bf 0.736274 0.287255 0.140686 c 102 30 1939 1308 bf 0.724265 0.203186 0.13125 c 102 30 1939 1338 bf
 0.713971 0.131127 0.123162 c 102 30 1939 1368 bf 0.703676 0.0590686 0.115074 c 102 30 1939 1398 bf black 2041 226 m 1202 Y s 1987 226 m 54 X s 1987 347 m 54 X s 1987 469 m 54 X s 1987 590 m 54 X s 1987 712 m 54 X s 1987 833 m 54 X s 1987 955 m 54 X
 s 1987 1076 m 54 X s 1987 1198 m 54 X s 1987 1319 m 54 X s 1987 1319 m 54 X s
 gsave  2268 1504 0 0 C 2052.17 206.693 t 0 r /Helvetica findfont 56.1244 sf 0 0 m (0) show NC gr 
 gsave  2268 1504 0 0 C 2052.17 327.756 t 0 r /Helvetica findfont 56.1244 sf 0 0 m (10) show NC gr 
 gsave  2268 1504 0 0 C 2052.17 448.819 t 0 r /Helvetica findfont 56.1244 sf 0 0 m (20) show NC gr 
 gsave  2268 1504 0 0 C 2052.17 569.882 t 0 r /Helvetica findfont 56.1244 sf 0 0 m (30) show NC gr 
 gsave  2268 1504 0 0 C 2052.17 690.945 t 0 r /Helvetica findfont 56.1244 sf 0 0 m (40) show NC gr 
 gsave  2268 1504 0 0 C 2052.17 814.961 t 0 r /Helvetica findfont 56.1244 sf 0 0 m (50) show NC gr 
 gsave  2268 1504 0 0 C 2052.17 936.024 t 0 r /Helvetica findfont 56.1244 sf 0 0 m (60) show NC gr 
 gsave  2268 1504 0 0 C 2052.17 1057.09 t 0 r /Helvetica findfont 56.1244 sf 0 0 m (70) show NC gr 
 gsave  2268 1504 0 0 C 2052.17 1178.15 t 0 r /Helvetica findfont 56.1244 sf 0 0 m (80) show NC gr 
 gsave  2268 1504 0 0 C 2052.17 1299.21 t 0 r /Helvetica findfont 56.1244 sf 0 0 m (90) show NC gr 
 gsave  2268 1504 0 0 C 2199.8 1095.47 t 90 r /Helvetica findfont 56.1244 sf 0 0 m (Efficiency [%]) show NC gr  1 1 1 c black 1 1 1 c
 gsave  2268 1504 0 0 C 315.945 310.039 t 45 r /Helvetica findfont 38.4009 sf 0 0 m (42.4) show NC gr  black 1 1 1 c
 gsave  2268 1504 0 0 C 493.11 312.992 t 45 r /Helvetica findfont 38.4009 sf 0 0 m (49.2) show NC gr  black 1 1 1 c
 gsave  2268 1504 0 0 C 679.134 312.992 t 45 r /Helvetica findfont 38.4009 sf 0 0 m (74.8) show NC gr  black 1 1 1 c
 gsave  2268 1504 0 0 C 829.724 312.992 t 45 r /Helvetica findfont 38.4009 sf 0 0 m (88.5) show NC gr  black 1 1 1 c
 gsave  2268 1504 0 0 C 1688.98 312.992 t 45 r /Helvetica findfont 38.4009 sf 0 0 m (93.0) show NC gr  black 1 1 1 c
 gsave  2268 1504 0 0 C 315.945 552.165 t 45 r /Helvetica findfont 38.4009 sf 0 0 m (50.1) show NC gr  black 1 1 1 c
 gsave  2268 1504 0 0 C 493.11 552.165 t 45 r /Helvetica findfont 38.4009 sf 0 0 m (57.8) show NC gr  black 1 1 1 c
 gsave  2268 1504 0 0 C 679.134 552.165 t 45 r /Helvetica findfont 38.4009 sf 0 0 m (83.2) show NC gr  black 1 1 1 c
 gsave  2268 1504 0 0 C 829.724 552.165 t 45 r /Helvetica findfont 38.4009 sf 0 0 m (93.9) show NC gr  black 1 1 1 c
 gsave  2268 1504 0 0 C 1688.98 552.165 t 45 r /Helvetica findfont 38.4009 sf 0 0 m (96.6) show NC gr  black 1 1 1 c
 gsave  2268 1504 0 0 C 315.945 794.291 t 45 r /Helvetica findfont 38.4009 sf 0 0 m (53.1) show NC gr  black 1 1 1 c
 gsave  2268 1504 0 0 C 493.11 794.291 t 45 r /Helvetica findfont 38.4009 sf 0 0 m (61.0) show NC gr  black 1 1 1 c
 gsave  2268 1504 0 0 C 679.134 794.291 t 45 r /Helvetica findfont 38.4009 sf 0 0 m (83.7) show NC gr  black 1 1 1 c
 gsave  2268 1504 0 0 C 829.724 794.291 t 45 r /Helvetica findfont 38.4009 sf 0 0 m (93.8) show NC gr  black 1 1 1 c
 gsave  2268 1504 0 0 C 1688.98 794.291 t 45 r /Helvetica findfont 38.4009 sf 0 0 m (96.6) show NC gr  black 1 1 1 c
 gsave  2268 1504 0 0 C 315.945 1033.46 t 45 r /Helvetica findfont 38.4009 sf 0 0 m (46.1) show NC gr  black 1 1 1 c
 gsave  2268 1504 0 0 C 493.11 1033.46 t 45 r /Helvetica findfont 38.4009 sf 0 0 m (53.8) show NC gr  black 1 1 1 c
 gsave  2268 1504 0 0 C 679.134 1033.46 t 45 r /Helvetica findfont 38.4009 sf 0 0 m (79.5) show NC gr  black 1 1 1 c
 gsave  2268 1504 0 0 C 829.724 1033.46 t 45 r /Helvetica findfont 38.4009 sf 0 0 m (92.0) show NC gr  black 1 1 1 c
 gsave  2268 1504 0 0 C 1688.98 1033.46 t 45 r /Helvetica findfont 38.4009 sf 0 0 m (95.9) show NC gr  black 1 1 1 c
 gsave  2268 1504 0 0 C 315.945 1275.59 t 45 r /Helvetica findfont 38.4009 sf 0 0 m (46.1) show NC gr  black 1 1 1 c
 gsave  2268 1504 0 0 C 493.11 1275.59 t 45 r /Helvetica findfont 38.4009 sf 0 0 m (53.9) show NC gr  black 1 1 1 c
 gsave  2268 1504 0 0 C 679.134 1275.59 t 45 r /Helvetica findfont 38.4009 sf 0 0 m (80.3) show NC gr  black 1 1 1 c
 gsave  2268 1504 0 0 C 829.724 1275.59 t 45 r /Helvetica findfont 38.4009 sf 0 0 m (92.1) show NC gr  black 1 1 1 c
 gsave  2268 1504 0 0 C 1688.98 1275.59 t 45 r /Helvetica findfont 38.4009 sf 0 0 m (95.6) show NC gr  black 227 226 m 1701 X s 273 242 m -16 Y s 313 242 m -16 Y s 349 259 m -33 Y s
 gsave  2268 1504 0 0 C 315.945 141.732 t 0 r /Helvetica findfont 56.1244 sf 0 0 m (10) show NC gr  587 242 m -16 Y s 726 242 m -16 Y s 824 242 m -16 Y s 901 242 m -16 Y s 963 242 m -16 Y s 1016 242 m -16 Y s 1062 242 m -16 Y s 1102 242 m -16 Y s
 1138 259 m -33 Y s
 gsave  2268 1504 0 0 C 1157.48 168.307 t 0 r /Helvetica findfont 38.4009 sf 0 0 m (2) show NC gr 
 gsave  2268 1504 0 0 C 1095.47 141.732 t 0 r /Helvetica findfont 56.1244 sf 0 0 m (10) show NC gr  1376 242 m -16 Y s 1515 242 m -16 Y s 1613 242 m -16 Y s 1690 242 m -16 Y s 1752 242 m -16 Y s 1805 242 m -16 Y s 1851 242 m -16 Y s 1891 242 m -16 Y
 s 1928 259 m -33 Y s
 gsave  2268 1504 0 0 C 1945.87 171.26 t 0 r /Helvetica findfont 38.4009 sf 0 0 m (3) show NC gr 
 gsave  2268 1504 0 0 C 1883.86 141.732 t 0 r /Helvetica findfont 56.1244 sf 0 0 m (10) show NC gr 
 gsave  2268 1504 0 0 C 1768.7 67.9134 t 0 r /Helvetica findfont 56.1244 sf 0 0 m ( [GeV]) show NC gr 
 gsave  2268 1504 0 0 C 1745.08 35.4331 t 0 r /Helvetica findfont 38.4009 sf 0 0 m (T) show NC gr 
 gsave  2268 1504 0 0 C 1709.65 67.9134 t 0 r /Helvetica-Oblique findfont 56.1244 sf 0 0 m (p) show NC gr 
 gsave  2268 1504 0 0 C 1553.15 67.9134 t 0 r /Helvetica findfont 56.1244 sf 0 0 m (Muon ) show NC gr  227 1428 m 1701 X s 273 1411 m 17 Y s 313 1411 m 17 Y s 349 1395 m 33 Y s 587 1411 m 17 Y s 726 1411 m 17 Y s 824 1411 m 17 Y s 901 1411 m 17 Y s
 963 1411 m 17 Y s 1016 1411 m 17 Y s 1062 1411 m 17 Y s 1102 1411 m 17 Y s 1138 1395 m 33 Y s 1376 1411 m 17 Y s 1515 1411 m 17 Y s 1613 1411 m 17 Y s 1690 1411 m 17 Y s 1752 1411 m 17 Y s 1805 1411 m 17 Y s 1851 1411 m 17 Y s 1891 1411 m 17 Y s
 1928 1395 m 33 Y s 227 226 m 1202 Y s 281 226 m -54 X s 254 274 m -27 X s 254 322 m -27 X s 254 370 m -27 X s 254 418 m -27 X s 281 466 m -54 X s 254 514 m -27 X s 254 562 m -27 X s 254 610 m -27 X s 254 659 m -27 X s 281 707 m -54 X s 254 755 m -27
 X s 254 803 m -27 X s 254 851 m -27 X s 254 899 m -27 X s 281 947 m -54 X s 254 995 m -27 X s 254 1043 m -27 X s 254 1092 m -27 X s 254 1140 m -27 X s 281 1188 m -54 X s 254 1236 m -27 X s 254 1284 m -27 X s 254 1332 m -27 X s 254 1380 m -27 X s 281
 1428 m -54 X s
 gsave  2268 1504 0 0 C 174.213 206.693 t 0 r /Helvetica findfont 56.1244 sf 0 0 m (0) show NC gr 
 gsave  2268 1504 0 0 C 126.969 445.866 t 0 r /Helvetica findfont 56.1244 sf 0 0 m (0.5) show NC gr 
 gsave  2268 1504 0 0 C 183.071 685.039 t 0 r /Helvetica findfont 56.1244 sf 0 0 m (1) show NC gr 
 gsave  2268 1504 0 0 C 126.969 927.165 t 0 r /Helvetica findfont 56.1244 sf 0 0 m (1.5) show NC gr 
 gsave  2268 1504 0 0 C 174.213 1166.34 t 0 r /Helvetica findfont 56.1244 sf 0 0 m (2) show NC gr 
 gsave  2268 1504 0 0 C 126.969 1408.46 t 0 r /Helvetica findfont 56.1244 sf 0 0 m (2.5) show NC gr 
 gsave  2268 1504 0 0 C 73.8189 1417.32 t 90 r /Helvetica findfont 56.1244 sf 0 0 m (|) show NC gr 
 gsave  2268 1504 0 0 C 73.8189 1381.89 t 90 r /Symbol findfont 56.1244 sf 0 0 m ita (h) show gr NC gr 
 gsave  2268 1504 0 0 C 73.8189 1216.54 t 90 r /Helvetica findfont 56.1244 sf 0 0 m (Muon |) show NC gr  1928 226 m 1202 Y s 1873 226 m 55 X s 1900 274 m 28 X s 1900 322 m 28 X s 1900 370 m 28 X s 1900 418 m 28 X s 1873 466 m 55 X s 1900 514 m 28 X s
 1900 562 m 28 X s 1900 610 m 28 X s 1900 659 m 28 X s 1873 707 m 55 X s 1900 755 m 28 X s 1900 803 m 28 X s 1900 851 m 28 X s 1900 899 m 28 X s 1873 947 m 55 X s 1900 995 m 28 X s 1900 1043 m 28 X s 1900 1092 m 28 X s 1900 1140 m 28 X s 1873 1188 m
 55 X s 1900 1236 m 28 X s 1900 1284 m 28 X s 1900 1332 m 28 X s 1900 1380 m 28 X s 1873 1428 m 55 X s 1 1 1 c 412 226 m 1202 Y s 587 226 m 1202 Y s 778 226 m 1202 Y s 901 226 m 1202 Y s 227 466 m 1701 X s 227 707 m 1701 X s 227 947 m 1701 X s 227
 1188 m 1701 X s black
 gsave  2268 1504 0 0 C 271.654 1458.66 t 0 r /Helvetica-BoldOblique findfont 56.1244 sf 0 0 m (ATLAS) show NC gr 
 gsave  2268 1504 0 0 C 496.063 1458.66 t 0 r /Helvetica findfont 56.1244 sf 0 0 m (Internal) show NC gr 
 gsave  2268 1504 0 0 C 747.047 1458.66 t 0 r /Helvetica findfont 56.1244 sf 0 0 m (Muon real efficiencies \(MC\)) show NC gr 
 gr  gr showpage
end
%%EOF
