%!PS-Adobe-2.0 EPSF-2.0
%%BoundingBox:  0 0 567 394
%%Title: /lhome/ific/c/cardillo/tHq/Plots/Plots-30-05-22-PLIV-SF/2LSS_MC/BDTttbar_Pre.eps: BDTttbar_Pre
%%Creator: ROOT Version 6.20/06
%%CreationDate: Mon May 30 19:26:15 2022
%%DocumentNeededResources: ProcSet (FontSetInit)
%%EndComments
%%BeginProlog
80 dict begin
/s {stroke} def /l {lineto} def /m {moveto} def /t {translate} def
/r {rotate} def /rl {roll}  def /R {repeat} def
/d {rlineto} def /rm {rmoveto} def /gr {grestore} def /f {eofill} def
/c {setrgbcolor} def /black {0 setgray} def /sd {setdash} def
/cl {closepath} def /sf {scalefont setfont} def /lw {setlinewidth} def
/box {m dup 0 exch d exch 0 d 0 exch neg d cl} def
/NC{systemdict begin initclip end}def/C{NC box clip newpath}def
/bl {box s} def /bf {gsave box gsave f grestore 1 lw [] 0 sd s grestore} def /Y { 0 exch d} def /X { 0 d} def 
/K {{pop pop 0 moveto} exch kshow} bind def
/ita {/ang 15 def gsave [1 0 ang dup sin exch cos div 1 0 0] concat} def 
/mp {newpath /y exch def /x exch def} def
/side {[w .77 mul w .23 mul] .385 w mul sd w 0 l currentpoint t -144 r} def
/mr {mp x y w2 0 360 arc} def /m24 {mr s} def /m20 {mr f} def
/mb {mp x y w2 add m w2 neg 0 d 0 w neg d w 0 d 0 w d cl} def
/mt {mp x y w2 add m w2 neg w neg d w 0 d cl} def
/w4 {w 4 div} def
/w6 {w 6 div} def
/w8 {w 8 div} def
/m21 {mb f} def /m25 {mb s} def /m22 {mt f} def /m26{mt s} def
/m23 {mp x y w2 sub m w2 w d w neg 0 d cl f} def
/m27 {mp x y w2 add m w3 neg w2 neg d w3 w2 neg d w3 w2 d cl s} def
/m28 {mp x w2 sub y w2 sub w3 add m w3 0 d  0 w3 neg d w3 0 d 0 w3 d w3 0 d  0 w3 d w3 neg 0 d 0 w3 d w3 neg 0 d 0 w3 neg d w3 neg 0 d cl s } def
/m29 {mp gsave x w2 sub y w2 add w3 sub m currentpoint t 4 {side} repeat cl fill gr} def
/m30 {mp gsave x w2 sub y w2 add w3 sub m currentpoint t 4 {side} repeat cl s gr} def
/m31 {mp x y w2 sub m 0 w d x w2 sub y m w 0 d x w2 sub y w2 add m w w neg d x w2 sub y w2 sub m w w d s} def
/m32 {mp x y w2 sub m w2 w d w neg 0 d cl s} def
/m33 {mp x y w2 add m w3 neg w2 neg d w3 w2 neg d w3 w2 d cl f} def
/m34 {mp x w2 sub y w2 sub w3 add m w3 0 d  0 w3 neg d w3 0 d 0 w3 d w3 0 d  0 w3 d w3 neg 0 d 0 w3 d w3 neg 0 d 0 w3 neg d w3 neg 0 d cl f } def
/m35 {mp x y w2 add m w2 neg w2 neg d w2 w2 neg d w2 w2 d w2 neg w2 d x y w2 sub m 0 w d x w2 sub y m w 0 d s} def
/m36 {mb x w2 sub y w2 add m w w neg d x w2 sub y w2 sub m w w d s} def
/m37 {mp x y m w4 neg w2 d w4 neg w2 neg d w2 0 d  w4 neg w2 neg d w2 0 d w4 neg w2 d w2 0 d w4 neg w2 d w4 neg w2 neg d cl s} def
/m38 {mp x w4 sub y w2 add m w4 neg w4 neg d 0 w2 neg d w4 w4 neg d w2 0 d w4 w4 d 0 w2 d w4 neg w4 d w2 neg 0 d x y w2 sub m 0 w d x w2 sub y m w 0 d cl s} def
/m39 {mp x y m w4 neg w2 d w4 neg w2 neg d w2 0 d  w4 neg w2 neg d w2 0 d w4 neg w2 d w2 0 d w4 neg w2 d w4 neg w2 neg d cl f} def
/m40 {mp x y m w4 w2 d w4 w4 neg d w2 neg w4 neg d w2 w4 neg d w4 neg w4 neg d w4 neg w2 d w4 neg w2 neg d w4 neg w4 d w2 w4 d w2 neg w4 d w4 w4 d w4 w2 neg d cl s} def
/m41 {mp x y m w4 w2 d w4 w4 neg d w2 neg w4 neg d w2 w4 neg d w4 neg w4 neg d w4 neg w2 d w4 neg w2 neg d w4 neg w4 d w2 w4 d w2 neg w4 d w4 w4 d w4 w2 neg d cl f} def
/m42 {mp x y w2 add m w8 neg w2 -3 4 div mul d w2 -3 4 div mul w8 neg d w2 3 4 div mul w8 neg d w8 w2 -3 4 div mul d w8 w2 3 4 div mul d w2 3 4 div mul w8 d w2 -3 4 div mul w8 d w8 neg w2 3 4 div mul d cl s} def
/m43 {mp x y w2 add m w8 neg w2 -3 4 div mul d w2 -3 4 div mul w8 neg d w2 3 4 div mul w8 neg d w8 w2 -3 4 div mul d w8 w2 3 4 div mul d w2 3 4 div mul w8 d w2 -3 4 div mul w8 d w8 neg w2 3 4 div mul d cl f} def
/m44 {mp x y m w6 neg w2 d w2 2 3 div mul 0 d w6 neg w2 neg d w2 w6 d 0 w2 -2 3 div mul d w2 neg w6 d w6 w2 neg d w2 -2 3 div mul 0 d w6 w2 d w2 neg w6 neg d 0 w2 2 3 div mul d w2 w6 neg d cl s} def
/m45 {mp x y m w6 neg w2 d w2 2 3 div mul 0 d w6 neg w2 neg d w2 w6 d 0 w2 -2 3 div mul d w2 neg w6 d w6 w2 neg d w2 -2 3 div mul 0 d w6 w2 d w2 neg w6 neg d 0 w2 2 3 div mul d w2 w6 neg d cl f} def
/m46 {mp x y w4 add m w4 neg w4 d w4 neg w4 neg d  w4 w4 neg d w4 neg w4 neg d w4 w4 neg d w4 w4 d w4 w4 neg d w4 w4 d w4 neg w4 d w4 w4 d w4 neg w4 d w4 neg w4 neg d cl s} def
/m47 {mp x y w4 add m w4 neg w4 d w4 neg w4 neg d w4 w4 neg d w4 neg w4 neg d  w4 w4 neg d w4 w4 d w4 w4 neg d w4 w4 d w4 neg w4 d w4 w4 d w4 neg w4 d w4 neg w4 neg d cl f} def
/m48 {mp x y w4 add m w4 neg w4 d w4 neg w4 neg d w4 w4 neg d  w4 neg w4 neg d w4 w4 neg d w4 w4 d w4 w4 neg d w4 w4 d w4 neg w4 d w4 w4 d w4 neg w4 d w4 neg w4 neg d  w4 w4 neg d w4 neg w4 neg d w4 neg w4 d w4 w4 d cl f} def
/m49 {mp x w2 sub w3 add y w2 sub w3 add m  0 w3 neg d w3 0 d 0 w3 d w3 0 d 0 w3 d w3 neg 0 d 0 w3 d w3 neg 0 d 0 w3 neg d w3 neg 0 d 0 w3 neg d w3 0 d 0 w3 d w3 0 d 0 w3 neg d w3 neg 0 d cl f } def
/m2 {mp x y w2 sub m 0 w d x w2 sub y m w 0 d s} def
/m5 {mp x w2 sub y w2 sub m w w d x w2 sub y w2 add m w w neg d s} def
%%IncludeResource: ProcSet (FontSetInit)
%%IncludeResource: font Times-Roman
%%IncludeResource: font Times-Italic
%%IncludeResource: font Times-Bold
%%IncludeResource: font Times-BoldItalic
%%IncludeResource: font Helvetica
%%IncludeResource: font Helvetica-Oblique
%%IncludeResource: font Helvetica-Bold
%%IncludeResource: font Helvetica-BoldOblique
%%IncludeResource: font Courier
%%IncludeResource: font Courier-Oblique
%%IncludeResource: font Courier-Bold
%%IncludeResource: font Courier-BoldOblique
%%IncludeResource: font Symbol
%%IncludeResource: font ZapfDingbats
/reEncode {exch findfont dup length dict begin {1 index /FID eq  {pop pop} {def} ifelse } forall /Encoding exch def currentdict end dup /FontName get exch definefont pop } def [/Times-Bold /Times-Italic /Times-BoldItalic /Helvetica /Helvetica-Oblique
 /Helvetica-Bold /Helvetica-BoldOblique /Courier /Courier-Oblique /Courier-Bold /Courier-BoldOblique /Times-Roman /AvantGarde-Book /AvantGarde-BookOblique /AvantGarde-Demi /AvantGarde-DemiOblique /Bookman-Demi /Bookman-DemiItalic /Bookman-Light
 /Bookman-LightItalic /Helvetica-Narrow /Helvetica-Narrow-Bold /Helvetica-Narrow-BoldOblique /Helvetica-Narrow-Oblique /NewCenturySchlbk-Roman /NewCenturySchlbk-Bold /NewCenturySchlbk-BoldItalic /NewCenturySchlbk-Italic /Palatino-Bold
 /Palatino-BoldItalic /Palatino-Italic /Palatino-Roman ] {ISOLatin1Encoding reEncode } forall
%%EndProlog
%%BeginSetup
%%EndSetup
newpath  gsave  .25 .25 scale  gsave  0 0 t black[  ] 0 sd 3 lw 1 1 1 c 2268 1575 0 0 bf black 1 1 1 c 2268 472 0 0 bf black 1 1 1 c 1927 274 227 189 bf black 1927 274 227 189 bl 227 189 m 1927 X s 227 201 m -12 Y s 265 195 m -6 Y s 304 195 m -6 Y s
 342 195 m -6 Y s 381 195 m -6 Y s 420 201 m -12 Y s 458 195 m -6 Y s 497 195 m -6 Y s 535 195 m -6 Y s 574 195 m -6 Y s 612 201 m -12 Y s 651 195 m -6 Y s 689 195 m -6 Y s 728 195 m -6 Y s 766 195 m -6 Y s 805 201 m -12 Y s 844 195 m -6 Y s 882 195
 m -6 Y s 921 195 m -6 Y s 959 195 m -6 Y s 998 201 m -12 Y s 1036 195 m -6 Y s 1075 195 m -6 Y s 1113 195 m -6 Y s 1152 195 m -6 Y s 1191 201 m -12 Y s 1229 195 m -6 Y s 1268 195 m -6 Y s 1306 195 m -6 Y s 1345 195 m -6 Y s 1383 201 m -12 Y s 1422
 195 m -6 Y s 1460 195 m -6 Y s 1499 195 m -6 Y s 1538 195 m -6 Y s 1576 201 m -12 Y s 1615 195 m -6 Y s 1653 195 m -6 Y s 1692 195 m -6 Y s 1730 195 m -6 Y s 1769 201 m -12 Y s 1807 195 m -6 Y s 1846 195 m -6 Y s 1884 195 m -6 Y s 1923 195 m -6 Y s
 1962 201 m -12 Y s 2000 195 m -6 Y s 2039 195 m -6 Y s 2077 195 m -6 Y s 2116 195 m -6 Y s 2154 201 m -12 Y s
 gsave  2268 472 0 0 C 210.193 127.3 t 0 r /Helvetica findfont 53.4895 sf 0 0 m (0) show NC gr 
 gsave  2268 472 0 0 C 384.861 127.3 t 0 r /Helvetica findfont 53.4895 sf 0 0 m (0.1) show NC gr 
 gsave  2268 472 0 0 C 571.37 127.3 t 0 r /Helvetica findfont 53.4895 sf 0 0 m (0.2) show NC gr 
 gsave  2268 472 0 0 C 763.8 127.3 t 0 r /Helvetica findfont 53.4895 sf 0 0 m (0.3) show NC gr 
 gsave  2268 472 0 0 C 959.191 127.3 t 0 r /Helvetica findfont 53.4895 sf 0 0 m (0.4) show NC gr 
 gsave  2268 472 0 0 C 1151.62 127.3 t 0 r /Helvetica findfont 53.4895 sf 0 0 m (0.5) show NC gr 
 gsave  2268 472 0 0 C 1344.05 127.3 t 0 r /Helvetica findfont 53.4895 sf 0 0 m (0.6) show NC gr 
 gsave  2268 472 0 0 C 1536.48 127.3 t 0 r /Helvetica findfont 53.4895 sf 0 0 m (0.7) show NC gr 
 gsave  2268 472 0 0 C 1728.91 127.3 t 0 r /Helvetica findfont 53.4895 sf 0 0 m (0.8) show NC gr 
 gsave  2268 472 0 0 C 1921.34 127.3 t 0 r /Helvetica findfont 53.4895 sf 0 0 m (0.9) show NC gr 
 gsave  2268 472 0 0 C 2140.42 127.3 t 0 r /Helvetica findfont 53.4895 sf 0 0 m (1) show NC gr 
 gsave  2268 472 0 0 C 2137.46 38.4861 t 0 r /Helvetica findfont 56.4611 sf 0 0 m (\)) show NC gr 
 gsave  2268 472 0 0 C 2116.73 38.4861 t 0 r /Helvetica-Oblique findfont 56.4611 sf 0 0 m (t) show NC gr  6 lw 2117 83 m 20 X s
 gsave  2268 472 0 0 C 2096.01 38.4861 t 0 r /Helvetica-Oblique findfont 56.4611 sf 0 0 m (t) show NC gr 
 gsave  2268 472 0 0 C 1965.75 38.4861 t 0 r /Helvetica findfont 56.4611 sf 0 0 m (BDT\() show NC gr  3 lw 227 463 m 1927 X s 227 451 m 12 Y s 265 457 m 6 Y s 304 457 m 6 Y s 342 457 m 6 Y s 381 457 m 6 Y s 420 451 m 12 Y s 458 457 m 6 Y s 497 457 m
 6 Y s 535 457 m 6 Y s 574 457 m 6 Y s 612 451 m 12 Y s 651 457 m 6 Y s 689 457 m 6 Y s 728 457 m 6 Y s 766 457 m 6 Y s 805 451 m 12 Y s 844 457 m 6 Y s 882 457 m 6 Y s 921 457 m 6 Y s 959 457 m 6 Y s 998 451 m 12 Y s 1036 457 m 6 Y s 1075 457 m 6 Y
 s 1113 457 m 6 Y s 1152 457 m 6 Y s 1191 451 m 12 Y s 1229 457 m 6 Y s 1268 457 m 6 Y s 1306 457 m 6 Y s 1345 457 m 6 Y s 1383 451 m 12 Y s 1422 457 m 6 Y s 1460 457 m 6 Y s 1499 457 m 6 Y s 1538 457 m 6 Y s 1576 451 m 12 Y s 1615 457 m 6 Y s 1653
 457 m 6 Y s 1692 457 m 6 Y s 1730 457 m 6 Y s 1769 451 m 12 Y s 1807 457 m 6 Y s 1846 457 m 6 Y s 1884 457 m 6 Y s 1923 457 m 6 Y s 1962 451 m 12 Y s 2000 457 m 6 Y s 2039 457 m 6 Y s 2077 457 m 6 Y s 2116 457 m 6 Y s 2154 451 m 12 Y s 227 189 m 274
 Y s 240 240 m -13 X s 240 326 m -13 X s 240 412 m -13 X s 240 240 m -13 X s 240 412 m -13 X s
 gsave  2268 472 0 0 C 118.419 222.035 t 0 r /Helvetica findfont 53.4895 sf 0 0 m (0.5) show NC gr 
 gsave  2268 472 0 0 C 171.707 307.888 t 0 r /Helvetica findfont 53.4895 sf 0 0 m (1) show NC gr 
 gsave  2268 472 0 0 C 118.419 393.742 t 0 r /Helvetica findfont 53.4895 sf 0 0 m (1.5) show NC gr 
 gsave  2268 472 0 0 C 71.0512 230.916 t 90 r /Helvetica findfont 53.4895 sf 0 0 m (Data / SM) show NC gr  2154 189 m 274 Y s 2141 240 m 13 X s 2141 326 m 13 X s 2141 412 m 13 X s 2141 240 m 13 X s 2141 412 m 13 X s 227 189 m 1927 X s 227 463 m 1927
 X s 227 189 m 274 Y s[ 4 8] 0 sd 2154 240 m -1927 X s 2154 326 m -1927 X s 2154 412 m -1927 X s 2154 240 m -1927 X s 2154 412 m -1927 X s[  ] 0 sd 2154 189 m 274 Y s 1 1 0.6 c 193 0 227 326 bf 192 0 420 326 bf 193 0 612 326 bf 193 0 805 326 bf 193 0
 998 326 bf 192 0 1191 326 bf 193 0 1383 326 bf 193 0 1576 326 bf 193 0 1769 326 bf 192 0 1962 326 bf black 0.6 0.6 0.6 c 420 325 m -14 -14 d s 417 341 m -30 -30 d s 397 341 m -29 -30 d s 378 341 m -30 -30 d s 359 341 m -30 -30 d s 340 341 m -30 -30
 d s 320 341 m -29 -30 d s 301 341 m -30 -30 d s 282 341 m -30 -30 d s 263 341 m -30 -30 d s 243 341 m -16 -17 d s 612 325 m -3 -4 d s 599 331 m -10 -10 d s 580 331 m -10 -10 d s 560 331 m -9 -10 d s 541 331 m -9 -10 d s 522 331 m -10 -10 d s 503 331
 m -10 -10 d s 483 331 m -9 -10 d s 464 331 m -9 -10 d s 445 331 m -9 -10 d s 426 331 m -6 -6 d s 805 325 m -1 -1 d s 789 328 m -5 -4 d s 769 328 m -4 -4 d s 750 328 m -4 -4 d s 731 328 m -4 -4 d s 712 328 m -4 -4 d s 693 328 m -5 -4 d s 673 328 m -4
 -4 d s 654 328 m -4 -4 d s 635 328 m -4 -4 d s 616 328 m -4 -3 d s 998 326 m -3 -3 d s 982 329 m -6 -6 d s 963 329 m -6 -6 d s 944 329 m -6 -6 d s 924 329 m -6 -6 d s 905 329 m -6 -6 d s 886 329 m -6 -6 d s 867 329 m -6 -6 d s 847 329 m -6 -6 d s
 828 329 m -6 -6 d s 809 329 m -4 -4 d s 1191 326 m -3 -3 d s 1174 329 m -5 -6 d s 1155 329 m -6 -6 d s 1136 329 m -6 -6 d s 1117 329 m -6 -6 d s 1097 329 m -5 -6 d s 1078 329 m -6 -6 d s 1059 329 m -6 -6 d s 1040 329 m -6 -6 d s 1020 329 m -5 -6 d s
 1001 329 m -3 -3 d s 1383 326 m -3 -3 d s 1367 329 m -6 -6 d s 1348 329 m -6 -6 d s 1328 329 m -6 -6 d s 1309 329 m -6 -6 d s 1290 329 m -6 -6 d s 1271 329 m -6 -6 d s 1251 329 m -5 -6 d s 1232 329 m -6 -6 d s 1213 329 m -6 -6 d s 1194 329 m -3 -3 d
 s 1576 327 m -4 -5 d s 1560 330 m -8 -8 d s 1541 330 m -8 -8 d s 1522 330 m -8 -8 d s 1503 330 m -8 -8 d s 1483 330 m -8 -8 d s 1464 330 m -8 -8 d s 1445 330 m -8 -8 d s 1426 330 m -8 -8 d s 1406 330 m -8 -8 d s 1387 330 m -4 -4 d s 1769 327 m -7 -7
 d s 1755 332 m -12 -12 d s 1735 332 m -11 -12 d s 1716 332 m -12 -12 d s 1697 332 m -12 -12 d s 1678 332 m -12 -12 d s 1658 332 m -11 -12 d s 1639 332 m -12 -12 d s 1620 332 m -12 -12 d s 1601 332 m -12 -12 d s 1581 332 m -5 -5 d s 1962 327 m -16
 -16 d s 1956 341 m -29 -30 d s 1936 341 m -29 -30 d s 1917 341 m -29 -30 d s 1898 341 m -29 -30 d s 1879 341 m -29 -30 d s 1859 341 m -29 -30 d s 1840 341 m -29 -30 d s 1821 341 m -29 -30 d s 1802 341 m -29 -30 d s 1783 341 m -14 -14 d s 2153 326 m
 cl s 2134 326 m cl s 2114 326 m cl s 2095 326 m cl s 2076 326 m cl s 2057 326 m cl s 2037 326 m cl s 2018 326 m cl s 1999 326 m cl s 1980 326 m cl s black 1 1 1 c black 323 338 m 2 Y s 323 364 m 2 Y s /w 26 def /w2 {w 2 div} def /w3 {w 3 div} def
 323 352 m20 516 346 m20 709 354 m20 901 353 m20 1094 338 m20 1287 339 m20 1480 315 m s 1480 339 m s 1480 327 m20 1672 309 m 6 Y s 1672 338 m 5 Y s 1672 326 m20 1865 267 m 26 Y s 1865 316 m 26 Y s 1865 304 m20 227 326 m 1927 X s 227 189 m 1927 X s
 227 201 m -12 Y s 265 195 m -6 Y s 304 195 m -6 Y s 342 195 m -6 Y s 381 195 m -6 Y s 420 201 m -12 Y s 458 195 m -6 Y s 497 195 m -6 Y s 535 195 m -6 Y s 574 195 m -6 Y s 612 201 m -12 Y s 651 195 m -6 Y s 689 195 m -6 Y s 728 195 m -6 Y s 766 195
 m -6 Y s 805 201 m -12 Y s 844 195 m -6 Y s 882 195 m -6 Y s 921 195 m -6 Y s 959 195 m -6 Y s 998 201 m -12 Y s 1036 195 m -6 Y s 1075 195 m -6 Y s 1113 195 m -6 Y s 1152 195 m -6 Y s 1191 201 m -12 Y s 1229 195 m -6 Y s 1268 195 m -6 Y s 1306 195
 m -6 Y s 1345 195 m -6 Y s 1383 201 m -12 Y s 1422 195 m -6 Y s 1460 195 m -6 Y s 1499 195 m -6 Y s 1538 195 m -6 Y s 1576 201 m -12 Y s 1615 195 m -6 Y s 1653 195 m -6 Y s 1692 195 m -6 Y s 1730 195 m -6 Y s 1769 201 m -12 Y s 1807 195 m -6 Y s
 1846 195 m -6 Y s 1884 195 m -6 Y s 1923 195 m -6 Y s 1962 201 m -12 Y s 2000 195 m -6 Y s 2039 195 m -6 Y s 2077 195 m -6 Y s 2116 195 m -6 Y s 2154 201 m -12 Y s 227 463 m 1927 X s 227 451 m 12 Y s 265 457 m 6 Y s 304 457 m 6 Y s 342 457 m 6 Y s
 381 457 m 6 Y s 420 451 m 12 Y s 458 457 m 6 Y s 497 457 m 6 Y s 535 457 m 6 Y s 574 457 m 6 Y s 612 451 m 12 Y s 651 457 m 6 Y s 689 457 m 6 Y s 728 457 m 6 Y s 766 457 m 6 Y s 805 451 m 12 Y s 844 457 m 6 Y s 882 457 m 6 Y s 921 457 m 6 Y s 959
 457 m 6 Y s 998 451 m 12 Y s 1036 457 m 6 Y s 1075 457 m 6 Y s 1113 457 m 6 Y s 1152 457 m 6 Y s 1191 451 m 12 Y s 1229 457 m 6 Y s 1268 457 m 6 Y s 1306 457 m 6 Y s 1345 457 m 6 Y s 1383 451 m 12 Y s 1422 457 m 6 Y s 1460 457 m 6 Y s 1499 457 m 6 Y
 s 1538 457 m 6 Y s 1576 451 m 12 Y s 1615 457 m 6 Y s 1653 457 m 6 Y s 1692 457 m 6 Y s 1730 457 m 6 Y s 1769 451 m 12 Y s 1807 457 m 6 Y s 1846 457 m 6 Y s 1884 457 m 6 Y s 1923 457 m 6 Y s 1962 451 m 12 Y s 2000 457 m 6 Y s 2039 457 m 6 Y s 2077
 457 m 6 Y s 2116 457 m 6 Y s 2154 451 m 12 Y s 227 189 m 274 Y s 240 240 m -13 X s 240 326 m -13 X s 240 412 m -13 X s 240 240 m -13 X s 240 412 m -13 X s 2154 189 m 274 Y s 2141 240 m 13 X s 2141 326 m 13 X s 2141 412 m 13 X s 2141 240 m 13 X s
 2141 412 m 13 X s 1 1 1 c 2268 1103 0 472 bf black 1 1 1 c 1927 1036 227 484 bf black 1927 1036 227 484 bl 1 1 1 c black 3 lw 227 484 m 1927 X s 227 502 m -18 Y s 265 493 m -9 Y s 304 493 m -9 Y s 342 493 m -9 Y s 381 493 m -9 Y s 420 502 m -18 Y s
 458 493 m -9 Y s 497 493 m -9 Y s 535 493 m -9 Y s 574 493 m -9 Y s 612 502 m -18 Y s 651 493 m -9 Y s 689 493 m -9 Y s 728 493 m -9 Y s 766 493 m -9 Y s 805 502 m -18 Y s 844 493 m -9 Y s 882 493 m -9 Y s 921 493 m -9 Y s 959 493 m -9 Y s 998 502 m
 -18 Y s 1036 493 m -9 Y s 1075 493 m -9 Y s 1113 493 m -9 Y s 1152 493 m -9 Y s 1191 502 m -18 Y s 1229 493 m -9 Y s 1268 493 m -9 Y s 1306 493 m -9 Y s 1345 493 m -9 Y s 1383 502 m -18 Y s 1422 493 m -9 Y s 1460 493 m -9 Y s 1499 493 m -9 Y s 1538
 493 m -9 Y s 1576 502 m -18 Y s 1615 493 m -9 Y s 1653 493 m -9 Y s 1692 493 m -9 Y s 1730 493 m -9 Y s 1769 502 m -18 Y s 1807 493 m -9 Y s 1846 493 m -9 Y s 1884 493 m -9 Y s 1923 493 m -9 Y s 1962 502 m -18 Y s 2000 493 m -9 Y s 2039 493 m -9 Y s
 2077 493 m -9 Y s 2116 493 m -9 Y s 2154 502 m -18 Y s
 gsave  2268 1103 0 472 C 2143.38 399.663 t 0 r /Helvetica findfont 29.6365 sf 0 0 m (\)) show NC gr 
 gsave  2268 1103 0 472 C 2131.54 399.663 t 0 r /Helvetica-Oblique findfont 29.6365 sf 0 0 m (t) show NC gr  6 lw
 gsave  2268 1103 0 472 C 2119.69 399.663 t 0 r /Helvetica-Oblique findfont 29.6365 sf 0 0 m (t) show NC gr 
 gsave  2268 1103 0 472 C 2051.6 399.663 t 0 r /Helvetica findfont 29.6365 sf 0 0 m (BDT\() show NC gr  3 lw 227 1520 m 1927 X s 227 1501 m 19 Y s 265 1510 m 10 Y s 304 1510 m 10 Y s 342 1510 m 10 Y s 381 1510 m 10 Y s 420 1501 m 19 Y s 458 1510 m 10
 Y s 497 1510 m 10 Y s 535 1510 m 10 Y s 574 1510 m 10 Y s 612 1501 m 19 Y s 651 1510 m 10 Y s 689 1510 m 10 Y s 728 1510 m 10 Y s 766 1510 m 10 Y s 805 1501 m 19 Y s 844 1510 m 10 Y s 882 1510 m 10 Y s 921 1510 m 10 Y s 959 1510 m 10 Y s 998 1501 m
 19 Y s 1036 1510 m 10 Y s 1075 1510 m 10 Y s 1113 1510 m 10 Y s 1152 1510 m 10 Y s 1191 1501 m 19 Y s 1229 1510 m 10 Y s 1268 1510 m 10 Y s 1306 1510 m 10 Y s 1345 1510 m 10 Y s 1383 1501 m 19 Y s 1422 1510 m 10 Y s 1460 1510 m 10 Y s 1499 1510 m 10
 Y s 1538 1510 m 10 Y s 1576 1501 m 19 Y s 1615 1510 m 10 Y s 1653 1510 m 10 Y s 1692 1510 m 10 Y s 1730 1510 m 10 Y s 1769 1501 m 19 Y s 1807 1510 m 10 Y s 1846 1510 m 10 Y s 1884 1510 m 10 Y s 1923 1510 m 10 Y s 1962 1501 m 19 Y s 2000 1510 m 10 Y
 s 2039 1510 m 10 Y s 2077 1510 m 10 Y s 2116 1510 m 10 Y s 2154 1501 m 19 Y s 227 484 m 1036 Y s 248 625 m -21 X s 237 661 m -10 X s 237 696 m -10 X s 237 731 m -10 X s 248 767 m -21 X s 237 802 m -10 X s 237 838 m -10 X s 237 873 m -10 X s 248 908
 m -21 X s 237 944 m -10 X s 237 979 m -10 X s 237 1015 m -10 X s 248 1050 m -21 X s 237 1085 m -10 X s 237 1121 m -10 X s 237 1156 m -10 X s 248 1192 m -21 X s 237 1227 m -10 X s 237 1262 m -10 X s 237 1298 m -10 X s 248 1333 m -21 X s 237 1369 m
 -10 X s 237 1404 m -10 X s 237 1440 m -10 X s 248 1475 m -21 X s 248 625 m -21 X s 237 590 m -10 X s 237 554 m -10 X s 237 519 m -10 X s 248 1475 m -21 X s 237 1510 m -10 X s
 gsave  2268 1103 0 472 C 118.419 606.895 t 0 r /Helvetica findfont 50.382 sf 0 0 m (200) show NC gr 
 gsave  2268 1103 0 472 C 118.419 748.998 t 0 r /Helvetica findfont 50.382 sf 0 0 m (400) show NC gr 
 gsave  2268 1103 0 472 C 118.419 888.14 t 0 r /Helvetica findfont 50.382 sf 0 0 m (600) show NC gr 
 gsave  2268 1103 0 472 C 118.419 1030.24 t 0 r /Helvetica findfont 50.382 sf 0 0 m (800) show NC gr 
 gsave  2268 1103 0 472 C 91.7744 1172.34 t 0 r /Helvetica findfont 50.382 sf 0 0 m (1000) show NC gr 
 gsave  2268 1103 0 472 C 91.7744 1314.45 t 0 r /Helvetica findfont 50.382 sf 0 0 m (1200) show NC gr 
 gsave  2268 1103 0 472 C 91.7744 1456.55 t 0 r /Helvetica findfont 50.382 sf 0 0 m (1400) show NC gr 
 gsave  2268 1103 0 472 C 62.1698 1367.74 t 90 r /Helvetica findfont 50.382 sf 0 0 m (Events) show NC gr  2154 484 m 1036 Y s 2133 625 m 21 X s 2144 661 m 10 X s 2144 696 m 10 X s 2144 731 m 10 X s 2133 767 m 21 X s 2144 802 m 10 X s 2144 838 m 10 X
 s 2144 873 m 10 X s 2133 908 m 21 X s 2144 944 m 10 X s 2144 979 m 10 X s 2144 1015 m 10 X s 2133 1050 m 21 X s 2144 1085 m 10 X s 2144 1121 m 10 X s 2144 1156 m 10 X s 2133 1192 m 21 X s 2144 1227 m 10 X s 2144 1262 m 10 X s 2144 1298 m 10 X s 2133
 1333 m 21 X s 2144 1369 m 10 X s 2144 1404 m 10 X s 2144 1440 m 10 X s 2133 1475 m 21 X s 2133 625 m 21 X s 2144 590 m 10 X s 2144 554 m 10 X s 2144 519 m 10 X s 2133 1475 m 21 X s 2144 1510 m 10 X s 0.06 0.54 0.06 c black 3 lw 0.06 0.54 0.06 c 227
 484 m 123 Y 193 X 160 Y 192 X 111 Y 193 X 20 Y 193 X -53 Y 193 X -116 Y 192 X -102 Y 193 X -72 Y 193 X -59 Y 193 X -12 Y 192 X f 1 0.653333 0 c 0.999 0.999 0.999 c black 3 lw 0.999 0.999 0.999 c 227 484 m 121 Y 193 X 126 Y 192 X 43 Y 193 X -35 Y 193
 X -80 Y 193 X -89 Y 192 X -53 Y 193 X -26 Y 193 X -7 Y 385 X f 1 0.653333 0 c 0.999 0.999 0.999 c 1 0.653333 0 c 1 1 1 c black 1 0.653333 0 c black 3 lw 1 0.653333 0 c 227 484 m 121 Y 193 X 126 Y 192 X 43 Y 193 X -35 Y 193 X -80 Y 193 X -89 Y 192 X
 -53 Y 193 X -26 Y 193 X -7 Y 385 X f 0.413333 1 0 c 0.999 0.999 0.999 c black 3 lw 0.999 0.999 0.999 c 227 484 m 11 Y 193 X 171 Y 192 X 91 Y 193 X -41 Y 193 X -66 Y 193 X -81 Y 192 X -54 Y 193 X -24 Y 193 X -7 Y 385 X f 0.413333 1 0 c 0.999 0.999
 0.999 c 0.413333 1 0 c 1 1 1 c black 0.413333 1 0 c black 3 lw 0.413333 1 0 c 227 484 m 11 Y 193 X 171 Y 192 X 91 Y 193 X -41 Y 193 X -66 Y 193 X -81 Y 192 X -54 Y 193 X -24 Y 193 X -7 Y 385 X f 0.6 0.2 1 c 0.999 0.999 0.999 c black 3 lw 0.999 0.999
 0.999 c 227 484 m 7 Y 193 X 131 Y 192 X 78 Y 193 X -26 Y 193 X -54 Y 193 X -65 Y 192 X -45 Y 193 X -20 Y 193 X -6 Y 385 X f 0.6 0.2 1 c 0.999 0.999 0.999 c 0.6 0.2 1 c 1 1 1 c black 0.6 0.2 1 c black 3 lw 0.6 0.2 1 c 227 484 m 7 Y 193 X 131 Y 192 X
 78 Y 193 X -26 Y 193 X -54 Y 193 X -65 Y 192 X -45 Y 193 X -20 Y 193 X -6 Y 385 X f 0.54 0.06 0.06 c 0.999 0.999 0.999 c black 3 lw 0.999 0.999 0.999 c 227 484 m 6 Y 193 X 115 Y 192 X 65 Y 193 X -24 Y 193 X -46 Y 193 X -56 Y 192 X -38 Y 193 X -17 Y
 193 X -5 Y 385 X f 0.54 0.06 0.06 c 0.999 0.999 0.999 c 0.54 0.06 0.06 c 1 1 1 c black 0.54 0.06 0.06 c black 3 lw 0.54 0.06 0.06 c 227 484 m 6 Y 193 X 115 Y 192 X 65 Y 193 X -24 Y 193 X -46 Y 193 X -56 Y 192 X -38 Y 193 X -17 Y 193 X -5 Y 385 X f 1
 0 1 c 0.999 0.999 0.999 c black 3 lw 0.999 0.999 0.999 c 227 484 m 1 Y 193 X 27 Y 192 X 20 Y 193 X -2 Y 193 X -11 Y 193 X -19 Y 192 X -11 Y 193 X -4 Y 193 X -1 Y 385 X f 1 0 1 c 0.999 0.999 0.999 c 1 0 1 c 1 1 1 c black 1 0 1 c black 3 lw 1 0 1 c
 227 484 m 1 Y 193 X 27 Y 192 X 20 Y 193 X -2 Y 193 X -11 Y 193 X -19 Y 192 X -11 Y 193 X -4 Y 193 X -1 Y 385 X f 0 0 1 c 0.999 0.999 0.999 c black 3 lw 0.999 0.999 0.999 c 227 484 m 1 Y 193 X 21 Y 192 X 12 Y 193 X -3 Y 193 X -8 Y 193 X -13 Y 192 X
 -7 Y 193 X -3 Y 578 X f 0 0 1 c 0.999 0.999 0.999 c 0 0 1 c 1 1 1 c black 0 0 1 c black 3 lw 0 0 1 c 227 484 m 1 Y 193 X 21 Y 192 X 12 Y 193 X -3 Y 193 X -8 Y 193 X -13 Y 192 X -7 Y 193 X -3 Y 578 X f 0.2 0.8 0.8 c 0.999 0.999 0.999 c black 3 lw
 0.999 0.999 0.999 c 227 484 m 193 X 8 Y 192 X 1 Y 386 X -1 Y 193 X -5 Y 192 X -3 Y 771 X f 0.2 0.8 0.8 c 0.999 0.999 0.999 c 0.2 0.8 0.8 c 1 1 1 c black 0.2 0.8 0.8 c black 3 lw 0.2 0.8 0.8 c 227 484 m 193 X 8 Y 192 X 1 Y 386 X -1 Y 193 X -5 Y 192 X
 -3 Y 771 X f 1 0 0 c 0.999 0.999 0.999 c black 3 lw 0.999 0.999 0.999 c 227 484 m 193 X 5 Y 771 X -4 Y 192 X -1 Y 771 X f 1 0 0 c 0.999 0.999 0.999 c 1 0 0 c 1 1 1 c black 1 0 0 c black 3 lw 1 0 0 c 227 484 m 193 X 5 Y 771 X -4 Y 192 X -1 Y 771 X f
 1 0.84 0 c 0.999 0.999 0.999 c black 3 lw 0.999 0.999 0.999 c 227 484 m 193 X 4 Y 192 X -1 Y 386 X 1 Y 193 X -3 Y 192 X -1 Y 771 X f 1 0.84 0 c 0.999 0.999 0.999 c 1 0.84 0 c 1 1 1 c black 1 0.84 0 c black 3 lw 1 0.84 0 c 227 484 m 193 X 4 Y 192 X
 -1 Y 386 X 1 Y 193 X -3 Y 192 X -1 Y 771 X f black 1 1 1 c black 0.6 0.6 0.6 c 3 lw 420 603 m -8 -7 d s 414 617 m -21 -21 d s 395 617 m -21 -21 d s 376 617 m -21 -21 d s 357 617 m -22 -21 d s 338 617 m -22 -21 d s 318 617 m -21 -21 d s 299 617 m -21
 -21 d s 280 617 m -22 -21 d s 261 617 m -22 -21 d s 241 617 m -14 -14 d s 3 lw 611 775 m -16 -16 d s 591 775 m -15 -16 d s 572 775 m -16 -16 d s 553 775 m -16 -16 d s 534 775 m -16 -16 d s 514 775 m -15 -16 d s 495 775 m -16 -16 d s 476 775 m -16
 -16 d s 457 775 m -16 -16 d s 437 775 m -15 -16 d s 3 lw 796 883 m -10 -10 d s 777 883 m -10 -10 d s 757 883 m -9 -10 d s 738 883 m -10 -10 d s 719 883 m -10 -10 d s 700 883 m -10 -10 d s 680 883 m -9 -10 d s 661 883 m -10 -10 d s 642 883 m -10 -10
 d s 623 883 m -10 -10 d s 3 lw 998 892 m -2 -1 d s 992 905 m -15 -14 d s 972 905 m -14 -14 d s 953 905 m -15 -14 d s 934 905 m -15 -14 d s 915 905 m -15 -14 d s 895 905 m -14 -14 d s 876 905 m -15 -14 d s 857 905 m -15 -14 d s 838 905 m -15 -14 d s
 818 905 m -13 -13 d s 3 lw 1187 851 m -12 -12 d s 1168 851 m -12 -12 d s 1149 851 m -13 -12 d s 1129 851 m -12 -12 d s 1110 851 m -12 -12 d s 1091 851 m -12 -12 d s 1072 851 m -13 -12 d s 1052 851 m -12 -12 d s 1033 851 m -12 -12 d s 1014 851 m -12
 -12 d s 3 lw 1377 733 m -8 -8 d s 1358 733 m -9 -8 d s 1338 733 m -8 -8 d s 1319 733 m -8 -8 d s 1300 733 m -8 -8 d s 1281 733 m -9 -8 d s 1262 733 m -9 -8 d s 1242 733 m -8 -8 d s 1223 733 m -8 -8 d s 1204 733 m -9 -8 d s 3 lw 1576 624 m -1 X s
 1563 631 m -7 -7 d s 1544 631 m -7 -7 d s 1524 631 m -6 -7 d s 1505 631 m -7 -7 d s 1486 631 m -7 -7 d s 1467 631 m -7 -7 d s 1448 631 m -7 -7 d s 1428 631 m -7 -7 d s 1409 631 m -7 -7 d s 1390 631 m -7 -7 d s 3 lw 1759 557 m -5 -5 d s 1740 557 m -5
 -5 d s 1721 557 m -5 -5 d s 1701 557 m -5 -5 d s 1682 557 m -5 -5 d s 1663 557 m -5 -5 d s 1644 557 m -5 -5 d s 1624 557 m -5 -5 d s 1605 557 m -5 -5 d s 1586 557 m -5 -5 d s 3 lw 1949 498 m -2 -3 d s 1930 498 m -2 -3 d s 1911 498 m -2 -3 d s 1892
 498 m -3 -3 d s 1872 498 m -2 -3 d s 1853 498 m -2 -3 d s 1834 498 m -2 -3 d s 1815 498 m -3 -3 d s 1795 498 m -2 -3 d s 1776 498 m -2 -3 d s black 3 lw 1 1 1 c black /w 24 def /w2 {w 2 div} def /w3 {w 3 div} def 323 625 m20 516 785 m 3 Y s 516 812
 m 3 Y s 516 800 m20 709 924 m 7 Y s 709 954 m 6 Y s 709 942 m20 901 944 m 6 Y s 901 974 m 7 Y s 901 962 m20 1094 854 m 5 Y s 1094 883 m 4 Y s 1094 871 m20 1287 734 m 2 Y s 1287 759 m 2 Y s 1287 748 m20 1480 628 m20 1672 555 m20 1865 495 m20 227 484
 m 1927 X s 227 502 m -18 Y s 265 493 m -9 Y s 304 493 m -9 Y s 342 493 m -9 Y s 381 493 m -9 Y s 420 502 m -18 Y s 458 493 m -9 Y s 497 493 m -9 Y s 535 493 m -9 Y s 574 493 m -9 Y s 612 502 m -18 Y s 651 493 m -9 Y s 689 493 m -9 Y s 728 493 m -9 Y
 s 766 493 m -9 Y s 805 502 m -18 Y s 844 493 m -9 Y s 882 493 m -9 Y s 921 493 m -9 Y s 959 493 m -9 Y s 998 502 m -18 Y s 1036 493 m -9 Y s 1075 493 m -9 Y s 1113 493 m -9 Y s 1152 493 m -9 Y s 1191 502 m -18 Y s 1229 493 m -9 Y s 1268 493 m -9 Y s
 1306 493 m -9 Y s 1345 493 m -9 Y s 1383 502 m -18 Y s 1422 493 m -9 Y s 1460 493 m -9 Y s 1499 493 m -9 Y s 1538 493 m -9 Y s 1576 502 m -18 Y s 1615 493 m -9 Y s 1653 493 m -9 Y s 1692 493 m -9 Y s 1730 493 m -9 Y s 1769 502 m -18 Y s 1807 493 m
 -9 Y s 1846 493 m -9 Y s 1884 493 m -9 Y s 1923 493 m -9 Y s 1962 502 m -18 Y s 2000 493 m -9 Y s 2039 493 m -9 Y s 2077 493 m -9 Y s 2116 493 m -9 Y s 2154 502 m -18 Y s 227 1520 m 1927 X s 227 1501 m 19 Y s 265 1510 m 10 Y s 304 1510 m 10 Y s 342
 1510 m 10 Y s 381 1510 m 10 Y s 420 1501 m 19 Y s 458 1510 m 10 Y s 497 1510 m 10 Y s 535 1510 m 10 Y s 574 1510 m 10 Y s 612 1501 m 19 Y s 651 1510 m 10 Y s 689 1510 m 10 Y s 728 1510 m 10 Y s 766 1510 m 10 Y s 805 1501 m 19 Y s 844 1510 m 10 Y s
 882 1510 m 10 Y s 921 1510 m 10 Y s 959 1510 m 10 Y s 998 1501 m 19 Y s 1036 1510 m 10 Y s 1075 1510 m 10 Y s 1113 1510 m 10 Y s 1152 1510 m 10 Y s 1191 1501 m 19 Y s 1229 1510 m 10 Y s 1268 1510 m 10 Y s 1306 1510 m 10 Y s 1345 1510 m 10 Y s 1383
 1501 m 19 Y s 1422 1510 m 10 Y s 1460 1510 m 10 Y s 1499 1510 m 10 Y s 1538 1510 m 10 Y s 1576 1501 m 19 Y s 1615 1510 m 10 Y s 1653 1510 m 10 Y s 1692 1510 m 10 Y s 1730 1510 m 10 Y s 1769 1501 m 19 Y s 1807 1510 m 10 Y s 1846 1510 m 10 Y s 1884
 1510 m 10 Y s 1923 1510 m 10 Y s 1962 1501 m 19 Y s 2000 1510 m 10 Y s 2039 1510 m 10 Y s 2077 1510 m 10 Y s 2116 1510 m 10 Y s 2154 1501 m 19 Y s 227 484 m 1036 Y s 248 625 m -21 X s 237 661 m -10 X s 237 696 m -10 X s 237 731 m -10 X s 248 767 m
 -21 X s 237 802 m -10 X s 237 838 m -10 X s 237 873 m -10 X s 248 908 m -21 X s 237 944 m -10 X s 237 979 m -10 X s 237 1015 m -10 X s 248 1050 m -21 X s 237 1085 m -10 X s 237 1121 m -10 X s 237 1156 m -10 X s 248 1192 m -21 X s 237 1227 m -10 X s
 237 1262 m -10 X s 237 1298 m -10 X s 248 1333 m -21 X s 237 1369 m -10 X s 237 1404 m -10 X s 237 1440 m -10 X s 248 1475 m -21 X s 248 625 m -21 X s 237 590 m -10 X s 237 554 m -10 X s 237 519 m -10 X s 248 1475 m -21 X s 237 1510 m -10 X s 2154
 484 m 1036 Y s 2133 625 m 21 X s 2144 661 m 10 X s 2144 696 m 10 X s 2144 731 m 10 X s 2133 767 m 21 X s 2144 802 m 10 X s 2144 838 m 10 X s 2144 873 m 10 X s 2133 908 m 21 X s 2144 944 m 10 X s 2144 979 m 10 X s 2144 1015 m 10 X s 2133 1050 m 21 X
 s 2144 1085 m 10 X s 2144 1121 m 10 X s 2144 1156 m 10 X s 2133 1192 m 21 X s 2144 1227 m 10 X s 2144 1262 m 10 X s 2144 1298 m 10 X s 2133 1333 m 21 X s 2144 1369 m 10 X s 2144 1404 m 10 X s 2144 1440 m 10 X s 2133 1475 m 21 X s 2133 625 m 21 X s
 2144 590 m 10 X s 2144 554 m 10 X s 2144 519 m 10 X s 2133 1475 m 21 X s 2144 1510 m 10 X s
 gsave  2268 1103 0 472 C 1314.45 1423.98 t 0 r /Helvetica findfont 56.3093 sf 0 0 m ( Data) show NC gr  1259 1451 m 10 Y s 1259 1427 m -10 Y s 1259 1439 m20
 gsave  2268 1103 0 472 C 1808.84 1423.98 t 0 r /Helvetica findfont 56.3093 sf 0 0 m (single\255top) show NC gr 
 gsave  2268 1103 0 472 C 1779.24 1423.98 t 0 r /Helvetica-Oblique findfont 56.3093 sf 0 0 m (/) show NC gr 
 gsave  2268 1103 0 472 C 1758.52 1423.98 t 0 r /Helvetica-Oblique findfont 56.3093 sf 0 0 m (t) show NC gr  6 lw 1759 1468 m 20 X s
 gsave  2268 1103 0 472 C 1737.79 1423.98 t 0 r /Helvetica-Oblique findfont 56.3093 sf 0 0 m (t) show NC gr 
 gsave  2268 1103 0 472 C 1720.03 1423.98 t 0 r /Helvetica findfont 56.3093 sf 0 0 m ( ) show NC gr  0.06 0.54 0.06 c 3 lw 1626 1413 m 79 X 52 Y -79 X f 6 lw black
 gsave  2268 1103 0 472 C 1444.71 1349.97 t 0 r /Helvetica findfont 56.3093 sf 0 0 m (+jets) show NC gr 
 gsave  2268 1103 0 472 C 1332.21 1349.97 t 0 r /Helvetica-Oblique findfont 56.3093 sf 0 0 m (W/Z) show NC gr 
 gsave  2268 1103 0 472 C 1314.45 1349.97 t 0 r /Helvetica findfont 56.3093 sf 0 0 m ( ) show NC gr  1 0.653333 0 c 3 lw 1219 1340 m 79 X 51 Y -79 X f black
 gsave  2268 1103 0 472 C 1918.38 1349.97 t 0 r /Helvetica findfont 56.3093 sf 0 0 m (+jets) show NC gr 
 gsave  2268 1103 0 472 C 1737.79 1349.97 t 0 r /Helvetica-Oblique findfont 56.3093 sf 0 0 m (WZ/ZZ) show NC gr 
 gsave  2268 1103 0 472 C 1720.03 1349.97 t 0 r /Helvetica findfont 56.3093 sf 0 0 m ( ) show NC gr  0.413333 1 0 c 3 lw 1626 1340 m 79 X 51 Y -79 X f black
 gsave  2268 1103 0 472 C 1373.66 1275.96 t 0 r /Helvetica-Oblique findfont 56.3093 sf 0 0 m (Z) show NC gr 
 gsave  2268 1103 0 472 C 1352.93 1275.96 t 0 r /Helvetica-Oblique findfont 56.3093 sf 0 0 m (t) show NC gr  6 lw 1353 1320 m 21 X s
 gsave  2268 1103 0 472 C 1332.21 1275.96 t 0 r /Helvetica-Oblique findfont 56.3093 sf 0 0 m (t) show NC gr 
 gsave  2268 1103 0 472 C 1314.45 1275.96 t 0 r /Helvetica findfont 56.3093 sf 0 0 m ( ) show NC gr  0.6 0.2 1 c 3 lw 1219 1266 m 79 X 52 Y -79 X f 6 lw black
 gsave  2268 1103 0 472 C 1779.24 1275.96 t 0 r /Helvetica-Oblique findfont 56.3093 sf 0 0 m (W) show NC gr 
 gsave  2268 1103 0 472 C 1758.52 1275.96 t 0 r /Helvetica-Oblique findfont 56.3093 sf 0 0 m (t) show NC gr  6 lw 1759 1320 m 20 X s
 gsave  2268 1103 0 472 C 1737.79 1275.96 t 0 r /Helvetica-Oblique findfont 56.3093 sf 0 0 m (t) show NC gr 
 gsave  2268 1103 0 472 C 1720.03 1275.96 t 0 r /Helvetica findfont 56.3093 sf 0 0 m ( ) show NC gr  0.54 0.06 0.06 c 3 lw 1626 1266 m 79 X 52 Y -79 X f 6 lw black
 gsave  2268 1103 0 472 C 1332.21 1204.91 t 0 r /Helvetica-Oblique findfont 56.3093 sf 0 0 m (tZq) show NC gr 
 gsave  2268 1103 0 472 C 1314.45 1204.91 t 0 r /Helvetica findfont 56.3093 sf 0 0 m ( ) show NC gr  1 0 1 c 3 lw 1219 1193 m 79 X 51 Y -79 X f black
 gsave  2268 1103 0 472 C 1779.24 1204.91 t 0 r /Helvetica-Oblique findfont 56.3093 sf 0 0 m (H) show NC gr 
 gsave  2268 1103 0 472 C 1758.52 1204.91 t 0 r /Helvetica-Oblique findfont 56.3093 sf 0 0 m (t) show NC gr  6 lw 1759 1249 m 20 X s
 gsave  2268 1103 0 472 C 1737.79 1204.91 t 0 r /Helvetica-Oblique findfont 56.3093 sf 0 0 m (t) show NC gr 
 gsave  2268 1103 0 472 C 1720.03 1204.91 t 0 r /Helvetica findfont 56.3093 sf 0 0 m ( ) show NC gr  0 0 1 c 3 lw 1626 1193 m 79 X 51 Y -79 X f 6 lw black
 gsave  2268 1103 0 472 C 1332.21 1130.9 t 0 r /Helvetica-Oblique findfont 56.3093 sf 0 0 m (tWZ/tWH) show NC gr 
 gsave  2268 1103 0 472 C 1314.45 1130.9 t 0 r /Helvetica findfont 56.3093 sf 0 0 m ( ) show NC gr  0.2 0.8 0.8 c 3 lw 1219 1119 m 79 X 52 Y -79 X f black
 gsave  2268 1103 0 472 C 1737.79 1130.9 t 0 r /Helvetica-Oblique findfont 56.3093 sf 0 0 m (tHq) show NC gr 
 gsave  2268 1103 0 472 C 1720.03 1130.9 t 0 r /Helvetica findfont 56.3093 sf 0 0 m ( ) show NC gr  1 0 0 c 3 lw 1626 1119 m 79 X 52 Y -79 X f black
 gsave  2268 1103 0 472 C 1314.45 1056.89 t 0 r /Helvetica findfont 56.3093 sf 0 0 m ( Other) show NC gr  1 0.84 0 c 3 lw 1219 1046 m 79 X 51 Y -79 X f black
 gsave  2268 1103 0 472 C 1720.03 1056.89 t 0 r /Helvetica findfont 56.3093 sf 0 0 m ( Uncertainty) show NC gr  0.6 0.6 0.6 c 3 lw 1705 1061 m -15 -15 d s 1705 1080 m -34 -34 d s 1703 1097 m -51 -51 d s 1684 1097 m -51 -51 d s 1665 1097 m -39 -39 d s
 1646 1097 m -20 -20 d s 1626 1097 m s 1 0.84 0 c 0.6 0.6 0.6 c black
 gsave  2268 1103 0 472 C 894.061 1329.25 t 0 r /Helvetica findfont 41.4911 sf 0 0 m (\2551) show NC gr 
 gsave  2268 1103 0 472 C 399.663 1299.64 t 0 r /Helvetica findfont 62.2366 sf 0 0 m ( = 13 TeV,  139 fb) show NC gr 
 gsave  2268 1103 0 472 C 370.058 1299.64 t 0 r /Helvetica findfont 62.2366 sf 0 0 m (s) show NC gr  6 lw 349 1335 m 6 -38 d s 3 lw 355 1297 m 6 56 d s 361 1353 m 39 X s
 gsave  2268 1103 0 472 C 337.493 1201.95 t 0 r /Helvetica findfont 62.2366 sf 0 0 m ( 2L\(SS\) pre\255selection) show NC gr 
 gsave  2268 1103 0 472 C 337.493 1400.3 t 0 r /Helvetica-BoldOblique findfont 71.1276 sf 0 0 m (ATLAS) show NC gr 
 gsave  2268 1103 0 472 C 633.54 1400.3 t 0 r /Helvetica findfont 71.1276 sf 0 0 m (Internal) show NC gr 
 gr  gr showpage
end
%%EOF
