%!PS-Adobe-2.0 EPSF-2.0
%%BoundingBox:  0 0 567 394
%%Title: /lhome/ific/c/cardillo/tHq/Plots/Plots-30-05-22-PLIV-SF/2LSS_MC/BDTVV_Pre.eps: BDTVV_Pre
%%Creator: ROOT Version 6.20/06
%%CreationDate: Mon May 30 19:26:15 2022
%%DocumentNeededResources: ProcSet (FontSetInit)
%%EndComments
%%BeginProlog
80 dict begin
/s {stroke} def /l {lineto} def /m {moveto} def /t {translate} def
/r {rotate} def /rl {roll}  def /R {repeat} def
/d {rlineto} def /rm {rmoveto} def /gr {grestore} def /f {eofill} def
/c {setrgbcolor} def /black {0 setgray} def /sd {setdash} def
/cl {closepath} def /sf {scalefont setfont} def /lw {setlinewidth} def
/box {m dup 0 exch d exch 0 d 0 exch neg d cl} def
/NC{systemdict begin initclip end}def/C{NC box clip newpath}def
/bl {box s} def /bf {gsave box gsave f grestore 1 lw [] 0 sd s grestore} def /Y { 0 exch d} def /X { 0 d} def 
/K {{pop pop 0 moveto} exch kshow} bind def
/ita {/ang 15 def gsave [1 0 ang dup sin exch cos div 1 0 0] concat} def 
/mp {newpath /y exch def /x exch def} def
/side {[w .77 mul w .23 mul] .385 w mul sd w 0 l currentpoint t -144 r} def
/mr {mp x y w2 0 360 arc} def /m24 {mr s} def /m20 {mr f} def
/mb {mp x y w2 add m w2 neg 0 d 0 w neg d w 0 d 0 w d cl} def
/mt {mp x y w2 add m w2 neg w neg d w 0 d cl} def
/w4 {w 4 div} def
/w6 {w 6 div} def
/w8 {w 8 div} def
/m21 {mb f} def /m25 {mb s} def /m22 {mt f} def /m26{mt s} def
/m23 {mp x y w2 sub m w2 w d w neg 0 d cl f} def
/m27 {mp x y w2 add m w3 neg w2 neg d w3 w2 neg d w3 w2 d cl s} def
/m28 {mp x w2 sub y w2 sub w3 add m w3 0 d  0 w3 neg d w3 0 d 0 w3 d w3 0 d  0 w3 d w3 neg 0 d 0 w3 d w3 neg 0 d 0 w3 neg d w3 neg 0 d cl s } def
/m29 {mp gsave x w2 sub y w2 add w3 sub m currentpoint t 4 {side} repeat cl fill gr} def
/m30 {mp gsave x w2 sub y w2 add w3 sub m currentpoint t 4 {side} repeat cl s gr} def
/m31 {mp x y w2 sub m 0 w d x w2 sub y m w 0 d x w2 sub y w2 add m w w neg d x w2 sub y w2 sub m w w d s} def
/m32 {mp x y w2 sub m w2 w d w neg 0 d cl s} def
/m33 {mp x y w2 add m w3 neg w2 neg d w3 w2 neg d w3 w2 d cl f} def
/m34 {mp x w2 sub y w2 sub w3 add m w3 0 d  0 w3 neg d w3 0 d 0 w3 d w3 0 d  0 w3 d w3 neg 0 d 0 w3 d w3 neg 0 d 0 w3 neg d w3 neg 0 d cl f } def
/m35 {mp x y w2 add m w2 neg w2 neg d w2 w2 neg d w2 w2 d w2 neg w2 d x y w2 sub m 0 w d x w2 sub y m w 0 d s} def
/m36 {mb x w2 sub y w2 add m w w neg d x w2 sub y w2 sub m w w d s} def
/m37 {mp x y m w4 neg w2 d w4 neg w2 neg d w2 0 d  w4 neg w2 neg d w2 0 d w4 neg w2 d w2 0 d w4 neg w2 d w4 neg w2 neg d cl s} def
/m38 {mp x w4 sub y w2 add m w4 neg w4 neg d 0 w2 neg d w4 w4 neg d w2 0 d w4 w4 d 0 w2 d w4 neg w4 d w2 neg 0 d x y w2 sub m 0 w d x w2 sub y m w 0 d cl s} def
/m39 {mp x y m w4 neg w2 d w4 neg w2 neg d w2 0 d  w4 neg w2 neg d w2 0 d w4 neg w2 d w2 0 d w4 neg w2 d w4 neg w2 neg d cl f} def
/m40 {mp x y m w4 w2 d w4 w4 neg d w2 neg w4 neg d w2 w4 neg d w4 neg w4 neg d w4 neg w2 d w4 neg w2 neg d w4 neg w4 d w2 w4 d w2 neg w4 d w4 w4 d w4 w2 neg d cl s} def
/m41 {mp x y m w4 w2 d w4 w4 neg d w2 neg w4 neg d w2 w4 neg d w4 neg w4 neg d w4 neg w2 d w4 neg w2 neg d w4 neg w4 d w2 w4 d w2 neg w4 d w4 w4 d w4 w2 neg d cl f} def
/m42 {mp x y w2 add m w8 neg w2 -3 4 div mul d w2 -3 4 div mul w8 neg d w2 3 4 div mul w8 neg d w8 w2 -3 4 div mul d w8 w2 3 4 div mul d w2 3 4 div mul w8 d w2 -3 4 div mul w8 d w8 neg w2 3 4 div mul d cl s} def
/m43 {mp x y w2 add m w8 neg w2 -3 4 div mul d w2 -3 4 div mul w8 neg d w2 3 4 div mul w8 neg d w8 w2 -3 4 div mul d w8 w2 3 4 div mul d w2 3 4 div mul w8 d w2 -3 4 div mul w8 d w8 neg w2 3 4 div mul d cl f} def
/m44 {mp x y m w6 neg w2 d w2 2 3 div mul 0 d w6 neg w2 neg d w2 w6 d 0 w2 -2 3 div mul d w2 neg w6 d w6 w2 neg d w2 -2 3 div mul 0 d w6 w2 d w2 neg w6 neg d 0 w2 2 3 div mul d w2 w6 neg d cl s} def
/m45 {mp x y m w6 neg w2 d w2 2 3 div mul 0 d w6 neg w2 neg d w2 w6 d 0 w2 -2 3 div mul d w2 neg w6 d w6 w2 neg d w2 -2 3 div mul 0 d w6 w2 d w2 neg w6 neg d 0 w2 2 3 div mul d w2 w6 neg d cl f} def
/m46 {mp x y w4 add m w4 neg w4 d w4 neg w4 neg d  w4 w4 neg d w4 neg w4 neg d w4 w4 neg d w4 w4 d w4 w4 neg d w4 w4 d w4 neg w4 d w4 w4 d w4 neg w4 d w4 neg w4 neg d cl s} def
/m47 {mp x y w4 add m w4 neg w4 d w4 neg w4 neg d w4 w4 neg d w4 neg w4 neg d  w4 w4 neg d w4 w4 d w4 w4 neg d w4 w4 d w4 neg w4 d w4 w4 d w4 neg w4 d w4 neg w4 neg d cl f} def
/m48 {mp x y w4 add m w4 neg w4 d w4 neg w4 neg d w4 w4 neg d  w4 neg w4 neg d w4 w4 neg d w4 w4 d w4 w4 neg d w4 w4 d w4 neg w4 d w4 w4 d w4 neg w4 d w4 neg w4 neg d  w4 w4 neg d w4 neg w4 neg d w4 neg w4 d w4 w4 d cl f} def
/m49 {mp x w2 sub w3 add y w2 sub w3 add m  0 w3 neg d w3 0 d 0 w3 d w3 0 d 0 w3 d w3 neg 0 d 0 w3 d w3 neg 0 d 0 w3 neg d w3 neg 0 d 0 w3 neg d w3 0 d 0 w3 d w3 0 d 0 w3 neg d w3 neg 0 d cl f } def
/m2 {mp x y w2 sub m 0 w d x w2 sub y m w 0 d s} def
/m5 {mp x w2 sub y w2 sub m w w d x w2 sub y w2 add m w w neg d s} def
%%IncludeResource: ProcSet (FontSetInit)
%%IncludeResource: font Times-Roman
%%IncludeResource: font Times-Italic
%%IncludeResource: font Times-Bold
%%IncludeResource: font Times-BoldItalic
%%IncludeResource: font Helvetica
%%IncludeResource: font Helvetica-Oblique
%%IncludeResource: font Helvetica-Bold
%%IncludeResource: font Helvetica-BoldOblique
%%IncludeResource: font Courier
%%IncludeResource: font Courier-Oblique
%%IncludeResource: font Courier-Bold
%%IncludeResource: font Courier-BoldOblique
%%IncludeResource: font Symbol
%%IncludeResource: font ZapfDingbats
/reEncode {exch findfont dup length dict begin {1 index /FID eq  {pop pop} {def} ifelse } forall /Encoding exch def currentdict end dup /FontName get exch definefont pop } def [/Times-Bold /Times-Italic /Times-BoldItalic /Helvetica /Helvetica-Oblique
 /Helvetica-Bold /Helvetica-BoldOblique /Courier /Courier-Oblique /Courier-Bold /Courier-BoldOblique /Times-Roman /AvantGarde-Book /AvantGarde-BookOblique /AvantGarde-Demi /AvantGarde-DemiOblique /Bookman-Demi /Bookman-DemiItalic /Bookman-Light
 /Bookman-LightItalic /Helvetica-Narrow /Helvetica-Narrow-Bold /Helvetica-Narrow-BoldOblique /Helvetica-Narrow-Oblique /NewCenturySchlbk-Roman /NewCenturySchlbk-Bold /NewCenturySchlbk-BoldItalic /NewCenturySchlbk-Italic /Palatino-Bold
 /Palatino-BoldItalic /Palatino-Italic /Palatino-Roman ] {ISOLatin1Encoding reEncode } forall
%%EndProlog
%%BeginSetup
%%EndSetup
newpath  gsave  .25 .25 scale  gsave  0 0 t black[  ] 0 sd 3 lw 1 1 1 c 2268 1575 0 0 bf black 1 1 1 c 2268 472 0 0 bf black 1 1 1 c 1927 274 227 189 bf black 1927 274 227 189 bl 227 189 m 1927 X s 227 201 m -12 Y s 265 195 m -6 Y s 304 195 m -6 Y s
 342 195 m -6 Y s 381 195 m -6 Y s 420 201 m -12 Y s 458 195 m -6 Y s 497 195 m -6 Y s 535 195 m -6 Y s 574 195 m -6 Y s 612 201 m -12 Y s 651 195 m -6 Y s 689 195 m -6 Y s 728 195 m -6 Y s 766 195 m -6 Y s 805 201 m -12 Y s 844 195 m -6 Y s 882 195
 m -6 Y s 921 195 m -6 Y s 959 195 m -6 Y s 998 201 m -12 Y s 1036 195 m -6 Y s 1075 195 m -6 Y s 1113 195 m -6 Y s 1152 195 m -6 Y s 1191 201 m -12 Y s 1229 195 m -6 Y s 1268 195 m -6 Y s 1306 195 m -6 Y s 1345 195 m -6 Y s 1383 201 m -12 Y s 1422
 195 m -6 Y s 1460 195 m -6 Y s 1499 195 m -6 Y s 1538 195 m -6 Y s 1576 201 m -12 Y s 1615 195 m -6 Y s 1653 195 m -6 Y s 1692 195 m -6 Y s 1730 195 m -6 Y s 1769 201 m -12 Y s 1807 195 m -6 Y s 1846 195 m -6 Y s 1884 195 m -6 Y s 1923 195 m -6 Y s
 1962 201 m -12 Y s 2000 195 m -6 Y s 2039 195 m -6 Y s 2077 195 m -6 Y s 2116 195 m -6 Y s 2154 201 m -12 Y s
 gsave  2268 472 0 0 C 210.193 127.3 t 0 r /Helvetica findfont 53.4895 sf 0 0 m (0) show NC gr 
 gsave  2268 472 0 0 C 384.861 127.3 t 0 r /Helvetica findfont 53.4895 sf 0 0 m (0.1) show NC gr 
 gsave  2268 472 0 0 C 571.37 127.3 t 0 r /Helvetica findfont 53.4895 sf 0 0 m (0.2) show NC gr 
 gsave  2268 472 0 0 C 763.8 127.3 t 0 r /Helvetica findfont 53.4895 sf 0 0 m (0.3) show NC gr 
 gsave  2268 472 0 0 C 959.191 127.3 t 0 r /Helvetica findfont 53.4895 sf 0 0 m (0.4) show NC gr 
 gsave  2268 472 0 0 C 1151.62 127.3 t 0 r /Helvetica findfont 53.4895 sf 0 0 m (0.5) show NC gr 
 gsave  2268 472 0 0 C 1344.05 127.3 t 0 r /Helvetica findfont 53.4895 sf 0 0 m (0.6) show NC gr 
 gsave  2268 472 0 0 C 1536.48 127.3 t 0 r /Helvetica findfont 53.4895 sf 0 0 m (0.7) show NC gr 
 gsave  2268 472 0 0 C 1728.91 127.3 t 0 r /Helvetica findfont 53.4895 sf 0 0 m (0.8) show NC gr 
 gsave  2268 472 0 0 C 1921.34 127.3 t 0 r /Helvetica findfont 53.4895 sf 0 0 m (0.9) show NC gr 
 gsave  2268 472 0 0 C 2140.42 127.3 t 0 r /Helvetica findfont 53.4895 sf 0 0 m (1) show NC gr 
 gsave  2268 472 0 0 C 2137.46 47.3674 t 0 r /Helvetica findfont 56.4611 sf 0 0 m (\)) show NC gr 
 gsave  2268 472 0 0 C 1956.87 47.3674 t 0 r /Helvetica-Oblique findfont 56.4611 sf 0 0 m (WZ/ZZ) show NC gr 
 gsave  2268 472 0 0 C 1826.61 47.3674 t 0 r /Helvetica findfont 56.4611 sf 0 0 m (BDT\() show NC gr  227 463 m 1927 X s 227 451 m 12 Y s 265 457 m 6 Y s 304 457 m 6 Y s 342 457 m 6 Y s 381 457 m 6 Y s 420 451 m 12 Y s 458 457 m 6 Y s 497 457 m 6 Y s
 535 457 m 6 Y s 574 457 m 6 Y s 612 451 m 12 Y s 651 457 m 6 Y s 689 457 m 6 Y s 728 457 m 6 Y s 766 457 m 6 Y s 805 451 m 12 Y s 844 457 m 6 Y s 882 457 m 6 Y s 921 457 m 6 Y s 959 457 m 6 Y s 998 451 m 12 Y s 1036 457 m 6 Y s 1075 457 m 6 Y s 1113
 457 m 6 Y s 1152 457 m 6 Y s 1191 451 m 12 Y s 1229 457 m 6 Y s 1268 457 m 6 Y s 1306 457 m 6 Y s 1345 457 m 6 Y s 1383 451 m 12 Y s 1422 457 m 6 Y s 1460 457 m 6 Y s 1499 457 m 6 Y s 1538 457 m 6 Y s 1576 451 m 12 Y s 1615 457 m 6 Y s 1653 457 m 6
 Y s 1692 457 m 6 Y s 1730 457 m 6 Y s 1769 451 m 12 Y s 1807 457 m 6 Y s 1846 457 m 6 Y s 1884 457 m 6 Y s 1923 457 m 6 Y s 1962 451 m 12 Y s 2000 457 m 6 Y s 2039 457 m 6 Y s 2077 457 m 6 Y s 2116 457 m 6 Y s 2154 451 m 12 Y s 227 189 m 274 Y s 240
 240 m -13 X s 240 326 m -13 X s 240 412 m -13 X s 240 240 m -13 X s 240 412 m -13 X s
 gsave  2268 472 0 0 C 118.419 222.035 t 0 r /Helvetica findfont 53.4895 sf 0 0 m (0.5) show NC gr 
 gsave  2268 472 0 0 C 171.707 307.888 t 0 r /Helvetica findfont 53.4895 sf 0 0 m (1) show NC gr 
 gsave  2268 472 0 0 C 118.419 393.742 t 0 r /Helvetica findfont 53.4895 sf 0 0 m (1.5) show NC gr 
 gsave  2268 472 0 0 C 71.0512 230.916 t 90 r /Helvetica findfont 53.4895 sf 0 0 m (Data / SM) show NC gr  2154 189 m 274 Y s 2141 240 m 13 X s 2141 326 m 13 X s 2141 412 m 13 X s 2141 240 m 13 X s 2141 412 m 13 X s 227 189 m 1927 X s 227 463 m 1927
 X s 227 189 m 274 Y s[ 4 8] 0 sd 2154 240 m -1927 X s 2154 326 m -1927 X s 2154 412 m -1927 X s 2154 240 m -1927 X s 2154 412 m -1927 X s[  ] 0 sd 2154 189 m 274 Y s 1 1 0.6 c 193 0 227 326 bf 192 0 420 326 bf 193 0 612 326 bf 193 0 805 326 bf 193 0
 998 326 bf 192 0 1191 326 bf 193 0 1383 326 bf 193 0 1576 326 bf 193 0 1769 326 bf 192 0 1962 326 bf black 0.6 0.6 0.6 c 420 325 m -1 -1 d s 404 328 m -5 -4 d s 385 328 m -5 -4 d s 366 328 m -5 -4 d s 346 328 m -4 -4 d s 327 328 m -5 -4 d s 308 328
 m -5 -4 d s 289 328 m -5 -4 d s 269 328 m -4 -4 d s 250 328 m -5 -4 d s 231 328 m -4 -4 d s 612 325 m -2 -3 d s 598 330 m -8 -8 d s 579 330 m -8 -8 d s 559 330 m -7 -8 d s 540 330 m -7 -8 d s 521 330 m -8 -8 d s 502 330 m -8 -8 d s 482 330 m -7 -8 d
 s 463 330 m -7 -8 d s 444 330 m -7 -8 d s 425 330 m -5 -5 d s 805 325 m -4 -3 d s 791 330 m -9 -8 d s 772 330 m -9 -8 d s 753 330 m -9 -8 d s 733 330 m -9 -8 d s 714 330 m -9 -8 d s 695 330 m -9 -8 d s 676 330 m -9 -8 d s 656 330 m -9 -8 d s 637 330
 m -9 -8 d s 618 330 m -6 -5 d s 998 326 m -7 -7 d s 986 333 m -14 -14 d s 967 333 m -14 -14 d s 947 333 m -13 -14 d s 928 333 m -13 -14 d s 909 333 m -14 -14 d s 890 333 m -14 -14 d s 870 333 m -13 -14 d s 851 333 m -13 -14 d s 832 333 m -14 -14 d s
 813 333 m -8 -8 d s 1191 326 m -7 -7 d s 1179 333 m -15 -14 d s 1159 333 m -14 -14 d s 1140 333 m -14 -14 d s 1121 333 m -14 -14 d s 1102 333 m -15 -14 d s 1082 333 m -14 -14 d s 1063 333 m -14 -14 d s 1044 333 m -14 -14 d s 1025 333 m -15 -14 d s
 1005 333 m -7 -7 d s 1383 326 m -5 -5 d s 1369 331 m -10 -10 d s 1349 331 m -9 -10 d s 1330 331 m -9 -10 d s 1311 331 m -10 -10 d s 1292 331 m -10 -10 d s 1273 331 m -10 -10 d s 1253 331 m -9 -10 d s 1234 331 m -10 -10 d s 1215 331 m -10 -10 d s
 1196 331 m -5 -5 d s 1576 327 m -8 -9 d s 1564 334 m -15 -16 d s 1545 334 m -16 -16 d s 1526 334 m -16 -16 d s 1506 334 m -15 -16 d s 1487 334 m -15 -16 d s 1468 334 m -16 -16 d s 1449 334 m -16 -16 d s 1429 334 m -15 -16 d s 1410 334 m -15 -16 d s
 1391 334 m -8 -8 d s 1769 327 m -10 -10 d s 1758 335 m -19 -18 d s 1739 335 m -19 -18 d s 1720 335 m -19 -18 d s 1700 335 m -18 -18 d s 1681 335 m -19 -18 d s 1662 335 m -19 -18 d s 1643 335 m -19 -18 d s 1623 335 m -18 -18 d s 1604 335 m -19 -18 d
 s 1585 335 m -9 -8 d s 1962 327 m -8 -8 d s 1948 333 m -14 -14 d s 1929 333 m -14 -14 d s 1909 333 m -13 -14 d s 1890 333 m -13 -14 d s 1871 333 m -14 -14 d s 1852 333 m -14 -14 d s 1832 333 m -13 -14 d s 1813 333 m -13 -14 d s 1794 333 m -14 -14 d
 s 1775 333 m -6 -6 d s 2154 328 m -16 -17 d s 2148 341 m -29 -30 d s 2129 341 m -29 -30 d s 2110 341 m -29 -30 d s 2090 341 m -29 -30 d s 2071 341 m -29 -30 d s 2052 341 m -29 -30 d s 2033 341 m -29 -30 d s 2013 341 m -29 -30 d s 1994 341 m -29 -30
 d s 1975 341 m -13 -14 d s black 1 1 1 c black /w 26 def /w2 {w 2 div} def /w3 {w 3 div} def 323 330 m20 516 348 m20 709 347 m20 901 324 m20 1094 332 m 2 Y s 1094 357 m 2 Y s 1094 346 m20 1287 370 m 5 Y s 1287 399 m 6 Y s 1287 387 m20 1480 371 m 8 Y
 s 1480 402 m 7 Y s 1480 390 m20 1672 343 m 6 Y s 1672 373 m 7 Y s 1672 361 m20 1865 351 m 7 Y s 1865 382 m 7 Y s 1865 370 m20 2058 366 m 8 Y s 2058 398 m 8 Y s 2058 386 m20 227 326 m 1927 X s 227 189 m 1927 X s 227 201 m -12 Y s 265 195 m -6 Y s 304
 195 m -6 Y s 342 195 m -6 Y s 381 195 m -6 Y s 420 201 m -12 Y s 458 195 m -6 Y s 497 195 m -6 Y s 535 195 m -6 Y s 574 195 m -6 Y s 612 201 m -12 Y s 651 195 m -6 Y s 689 195 m -6 Y s 728 195 m -6 Y s 766 195 m -6 Y s 805 201 m -12 Y s 844 195 m -6
 Y s 882 195 m -6 Y s 921 195 m -6 Y s 959 195 m -6 Y s 998 201 m -12 Y s 1036 195 m -6 Y s 1075 195 m -6 Y s 1113 195 m -6 Y s 1152 195 m -6 Y s 1191 201 m -12 Y s 1229 195 m -6 Y s 1268 195 m -6 Y s 1306 195 m -6 Y s 1345 195 m -6 Y s 1383 201 m
 -12 Y s 1422 195 m -6 Y s 1460 195 m -6 Y s 1499 195 m -6 Y s 1538 195 m -6 Y s 1576 201 m -12 Y s 1615 195 m -6 Y s 1653 195 m -6 Y s 1692 195 m -6 Y s 1730 195 m -6 Y s 1769 201 m -12 Y s 1807 195 m -6 Y s 1846 195 m -6 Y s 1884 195 m -6 Y s 1923
 195 m -6 Y s 1962 201 m -12 Y s 2000 195 m -6 Y s 2039 195 m -6 Y s 2077 195 m -6 Y s 2116 195 m -6 Y s 2154 201 m -12 Y s 227 463 m 1927 X s 227 451 m 12 Y s 265 457 m 6 Y s 304 457 m 6 Y s 342 457 m 6 Y s 381 457 m 6 Y s 420 451 m 12 Y s 458 457 m
 6 Y s 497 457 m 6 Y s 535 457 m 6 Y s 574 457 m 6 Y s 612 451 m 12 Y s 651 457 m 6 Y s 689 457 m 6 Y s 728 457 m 6 Y s 766 457 m 6 Y s 805 451 m 12 Y s 844 457 m 6 Y s 882 457 m 6 Y s 921 457 m 6 Y s 959 457 m 6 Y s 998 451 m 12 Y s 1036 457 m 6 Y s
 1075 457 m 6 Y s 1113 457 m 6 Y s 1152 457 m 6 Y s 1191 451 m 12 Y s 1229 457 m 6 Y s 1268 457 m 6 Y s 1306 457 m 6 Y s 1345 457 m 6 Y s 1383 451 m 12 Y s 1422 457 m 6 Y s 1460 457 m 6 Y s 1499 457 m 6 Y s 1538 457 m 6 Y s 1576 451 m 12 Y s 1615 457
 m 6 Y s 1653 457 m 6 Y s 1692 457 m 6 Y s 1730 457 m 6 Y s 1769 451 m 12 Y s 1807 457 m 6 Y s 1846 457 m 6 Y s 1884 457 m 6 Y s 1923 457 m 6 Y s 1962 451 m 12 Y s 2000 457 m 6 Y s 2039 457 m 6 Y s 2077 457 m 6 Y s 2116 457 m 6 Y s 2154 451 m 12 Y s
 227 189 m 274 Y s 240 240 m -13 X s 240 326 m -13 X s 240 412 m -13 X s 240 240 m -13 X s 240 412 m -13 X s 2154 189 m 274 Y s 2141 240 m 13 X s 2141 326 m 13 X s 2141 412 m 13 X s 2141 240 m 13 X s 2141 412 m 13 X s 1 1 1 c 2268 1103 0 472 bf black
 1 1 1 c 1927 1036 227 484 bf black 1927 1036 227 484 bl 1 1 1 c black 3 lw 227 484 m 1927 X s 227 502 m -18 Y s 265 493 m -9 Y s 304 493 m -9 Y s 342 493 m -9 Y s 381 493 m -9 Y s 420 502 m -18 Y s 458 493 m -9 Y s 497 493 m -9 Y s 535 493 m -9 Y s
 574 493 m -9 Y s 612 502 m -18 Y s 651 493 m -9 Y s 689 493 m -9 Y s 728 493 m -9 Y s 766 493 m -9 Y s 805 502 m -18 Y s 844 493 m -9 Y s 882 493 m -9 Y s 921 493 m -9 Y s 959 493 m -9 Y s 998 502 m -18 Y s 1036 493 m -9 Y s 1075 493 m -9 Y s 1113
 493 m -9 Y s 1152 493 m -9 Y s 1191 502 m -18 Y s 1229 493 m -9 Y s 1268 493 m -9 Y s 1306 493 m -9 Y s 1345 493 m -9 Y s 1383 502 m -18 Y s 1422 493 m -9 Y s 1460 493 m -9 Y s 1499 493 m -9 Y s 1538 493 m -9 Y s 1576 502 m -18 Y s 1615 493 m -9 Y s
 1653 493 m -9 Y s 1692 493 m -9 Y s 1730 493 m -9 Y s 1769 502 m -18 Y s 1807 493 m -9 Y s 1846 493 m -9 Y s 1884 493 m -9 Y s 1923 493 m -9 Y s 1962 502 m -18 Y s 2000 493 m -9 Y s 2039 493 m -9 Y s 2077 493 m -9 Y s 2116 493 m -9 Y s 2154 502 m
 -18 Y s
 gsave  2268 1103 0 472 C 2143.38 402.623 t 0 r /Helvetica findfont 29.6365 sf 0 0 m (\)) show NC gr 
 gsave  2268 1103 0 472 C 2048.64 402.623 t 0 r /Helvetica-Oblique findfont 29.6365 sf 0 0 m (WZ/ZZ) show NC gr 
 gsave  2268 1103 0 472 C 1980.55 402.623 t 0 r /Helvetica findfont 29.6365 sf 0 0 m (BDT\() show NC gr  227 1520 m 1927 X s 227 1501 m 19 Y s 265 1510 m 10 Y s 304 1510 m 10 Y s 342 1510 m 10 Y s 381 1510 m 10 Y s 420 1501 m 19 Y s 458 1510 m 10 Y s
 497 1510 m 10 Y s 535 1510 m 10 Y s 574 1510 m 10 Y s 612 1501 m 19 Y s 651 1510 m 10 Y s 689 1510 m 10 Y s 728 1510 m 10 Y s 766 1510 m 10 Y s 805 1501 m 19 Y s 844 1510 m 10 Y s 882 1510 m 10 Y s 921 1510 m 10 Y s 959 1510 m 10 Y s 998 1501 m 19 Y
 s 1036 1510 m 10 Y s 1075 1510 m 10 Y s 1113 1510 m 10 Y s 1152 1510 m 10 Y s 1191 1501 m 19 Y s 1229 1510 m 10 Y s 1268 1510 m 10 Y s 1306 1510 m 10 Y s 1345 1510 m 10 Y s 1383 1501 m 19 Y s 1422 1510 m 10 Y s 1460 1510 m 10 Y s 1499 1510 m 10 Y s
 1538 1510 m 10 Y s 1576 1501 m 19 Y s 1615 1510 m 10 Y s 1653 1510 m 10 Y s 1692 1510 m 10 Y s 1730 1510 m 10 Y s 1769 1501 m 19 Y s 1807 1510 m 10 Y s 1846 1510 m 10 Y s 1884 1510 m 10 Y s 1923 1510 m 10 Y s 1962 1501 m 19 Y s 2000 1510 m 10 Y s
 2039 1510 m 10 Y s 2077 1510 m 10 Y s 2116 1510 m 10 Y s 2154 1501 m 19 Y s 227 484 m 1036 Y s 248 668 m -21 X s 237 705 m -10 X s 237 742 m -10 X s 237 779 m -10 X s 237 815 m -10 X s 248 852 m -21 X s 237 889 m -10 X s 237 926 m -10 X s 237 963 m
 -10 X s 237 1000 m -10 X s 248 1037 m -21 X s 237 1074 m -10 X s 237 1110 m -10 X s 237 1147 m -10 X s 237 1184 m -10 X s 248 1221 m -21 X s 237 1258 m -10 X s 237 1295 m -10 X s 237 1332 m -10 X s 237 1369 m -10 X s 248 1405 m -21 X s 248 668 m -21
 X s 237 631 m -10 X s 237 594 m -10 X s 237 557 m -10 X s 237 520 m -10 X s 248 1405 m -21 X s 237 1442 m -10 X s 237 1479 m -10 X s 237 1516 m -10 X s
 gsave  2268 1103 0 472 C 118.419 648.342 t 0 r /Helvetica findfont 50.382 sf 0 0 m (500) show NC gr 
 gsave  2268 1103 0 472 C 91.7744 831.891 t 0 r /Helvetica findfont 50.382 sf 0 0 m (1000) show NC gr 
 gsave  2268 1103 0 472 C 91.7744 1018.4 t 0 r /Helvetica findfont 50.382 sf 0 0 m (1500) show NC gr 
 gsave  2268 1103 0 472 C 91.7744 1201.95 t 0 r /Helvetica findfont 50.382 sf 0 0 m (2000) show NC gr 
 gsave  2268 1103 0 472 C 91.7744 1385.5 t 0 r /Helvetica findfont 50.382 sf 0 0 m (2500) show NC gr 
 gsave  2268 1103 0 472 C 62.1698 1367.74 t 90 r /Helvetica findfont 50.382 sf 0 0 m (Events) show NC gr  2154 484 m 1036 Y s 2133 668 m 21 X s 2144 705 m 10 X s 2144 742 m 10 X s 2144 779 m 10 X s 2144 815 m 10 X s 2133 852 m 21 X s 2144 889 m 10 X
 s 2144 926 m 10 X s 2144 963 m 10 X s 2144 1000 m 10 X s 2133 1037 m 21 X s 2144 1074 m 10 X s 2144 1110 m 10 X s 2144 1147 m 10 X s 2144 1184 m 10 X s 2133 1221 m 21 X s 2144 1258 m 10 X s 2144 1295 m 10 X s 2144 1332 m 10 X s 2144 1369 m 10 X s
 2133 1405 m 21 X s 2133 668 m 21 X s 2144 631 m 10 X s 2144 594 m 10 X s 2144 557 m 10 X s 2144 520 m 10 X s 2133 1405 m 21 X s 2144 1442 m 10 X s 2144 1479 m 10 X s 2144 1516 m 10 X s 0.06 0.54 0.06 c black 3 lw 0.06 0.54 0.06 c 227 484 m 414 Y 193
 X -225 Y 192 X -76 Y 193 X -33 Y 193 X -17 Y 193 X -15 Y 192 X -7 Y 193 X -2 Y 386 X -4 Y 192 X -35 Y f 1 0.653333 0 c 0.999 0.999 0.999 c black 3 lw 0.999 0.999 0.999 c 227 484 m 239 Y 193 X -132 Y 192 X -44 Y 193 X -16 Y 193 X -10 Y 193 X -9 Y 192
 X -4 Y 193 X 1 Y 193 X 4 Y 193 X 1 Y 192 X -30 Y f 1 0.653333 0 c 0.999 0.999 0.999 c 1 0.653333 0 c 1 1 1 c black 1 0.653333 0 c black 3 lw 1 0.653333 0 c 227 484 m 239 Y 193 X -132 Y 192 X -44 Y 193 X -16 Y 193 X -10 Y 193 X -9 Y 192 X -4 Y 193 X
 1 Y 193 X 4 Y 193 X 1 Y 192 X -30 Y f 0.413333 1 0 c 0.999 0.999 0.999 c black 3 lw 0.999 0.999 0.999 c 227 484 m 191 Y 193 X -110 Y 192 X -32 Y 193 X -12 Y 193 X -8 Y 193 X -4 Y 192 X -2 Y 193 X -1 Y 193 X 4 Y 193 X 2 Y 192 X -28 Y f 0.413333 1 0 c
 0.999 0.999 0.999 c 0.413333 1 0 c 1 1 1 c black 0.413333 1 0 c black 3 lw 0.413333 1 0 c 227 484 m 191 Y 193 X -110 Y 192 X -32 Y 193 X -12 Y 193 X -8 Y 193 X -4 Y 192 X -2 Y 193 X -1 Y 193 X 4 Y 193 X 2 Y 192 X -28 Y f 0.6 0.2 1 c 0.999 0.999
 0.999 c black 3 lw 0.999 0.999 0.999 c 227 484 m 187 Y 193 X -112 Y 192 X -32 Y 193 X -13 Y 193 X -8 Y 193 X -5 Y 192 X -4 Y 193 X -3 Y 193 X -2 Y 193 X -4 Y 192 X -4 Y f 0.6 0.2 1 c 0.999 0.999 0.999 c 0.6 0.2 1 c 1 1 1 c black 0.6 0.2 1 c black 3
 lw 0.6 0.2 1 c 227 484 m 187 Y 193 X -112 Y 192 X -32 Y 193 X -13 Y 193 X -8 Y 193 X -5 Y 192 X -4 Y 193 X -3 Y 193 X -2 Y 193 X -4 Y 192 X -4 Y f 0.54 0.06 0.06 c 0.999 0.999 0.999 c black 3 lw 0.999 0.999 0.999 c 227 484 m 159 Y 193 X -95 Y 192 X
 -27 Y 193 X -11 Y 193 X -7 Y 193 X -4 Y 192 X -4 Y 193 X -2 Y 193 X -2 Y 193 X -3 Y 192 X -4 Y f 0.54 0.06 0.06 c 0.999 0.999 0.999 c 0.54 0.06 0.06 c 1 1 1 c black 0.54 0.06 0.06 c black 3 lw 0.54 0.06 0.06 c 227 484 m 159 Y 193 X -95 Y 192 X -27 Y
 193 X -11 Y 193 X -7 Y 193 X -4 Y 192 X -4 Y 193 X -2 Y 193 X -2 Y 193 X -3 Y 192 X -4 Y f 1 0 1 c 0.999 0.999 0.999 c black 3 lw 0.999 0.999 0.999 c 227 484 m 36 Y 193 X -21 Y 192 X -6 Y 193 X -2 Y 193 X -2 Y 193 X -1 Y 192 X -1 Y 771 X -3 Y f 1 0
 1 c 0.999 0.999 0.999 c 1 0 1 c 1 1 1 c black 1 0 1 c black 3 lw 1 0 1 c 227 484 m 36 Y 193 X -21 Y 192 X -6 Y 193 X -2 Y 193 X -2 Y 193 X -1 Y 192 X -1 Y 771 X -3 Y f 0 0 1 c 0.999 0.999 0.999 c black 3 lw 0.999 0.999 0.999 c 227 484 m 30 Y 193 X
 -20 Y 192 X -5 Y 193 X -1 Y 193 X -1 Y 193 X -1 Y 192 X -1 Y 386 X 1 Y 385 X -2 Y f 0 0 1 c 0.999 0.999 0.999 c 0 0 1 c 1 1 1 c black 0 0 1 c black 3 lw 0 0 1 c 227 484 m 30 Y 193 X -20 Y 192 X -5 Y 193 X -1 Y 193 X -1 Y 193 X -1 Y 192 X -1 Y 386 X
 1 Y 385 X -2 Y f 0.2 0.8 0.8 c 0.999 0.999 0.999 c black 3 lw 0.999 0.999 0.999 c 227 484 m 4 Y 193 X -2 Y 192 X -1 Y 1157 X 1 Y 385 X -2 Y f 0.2 0.8 0.8 c 0.999 0.999 0.999 c 0.2 0.8 0.8 c 1 1 1 c black 0.2 0.8 0.8 c black 3 lw 0.2 0.8 0.8 c 227
 484 m 4 Y 193 X -2 Y 192 X -1 Y 1157 X 1 Y 385 X -2 Y f 1 0 0 c 0.999 0.999 0.999 c black 3 lw 0.999 0.999 0.999 c 227 484 m 2 Y 193 X -2 Y 578 X 1 Y 385 X -1 Y 193 X 1 Y 386 X 1 Y 192 X -2 Y f 1 0 0 c 0.999 0.999 0.999 c 1 0 0 c 1 1 1 c black 1 0 0
 c black 3 lw 1 0 0 c 227 484 m 2 Y 193 X -2 Y 578 X 1 Y 385 X -1 Y 193 X 1 Y 386 X 1 Y 192 X -2 Y f 1 0.84 0 c 0.999 0.999 0.999 c black 3 lw 0.999 0.999 0.999 c 227 484 m 1 Y 193 X -1 Y 1349 X 1 Y 193 X 1 Y 192 X -2 Y f 1 0.84 0 c 0.999 0.999 0.999
 c 1 0.84 0 c 1 1 1 c black 1 0.84 0 c black 3 lw 1 0.84 0 c 227 484 m 1 Y 193 X -1 Y 1349 X 1 Y 193 X 1 Y 192 X -2 Y f black 1 1 1 c black 0.6 0.6 0.6 c 3 lw 413 904 m -12 -12 d s 393 904 m -11 -12 d s 374 904 m -11 -12 d s 355 904 m -11 -12 d s 336
 904 m -12 -12 d s 316 904 m -11 -12 d s 297 904 m -11 -12 d s 278 904 m -11 -12 d s 259 904 m -12 -12 d s 240 904 m -12 -12 d s 3 lw 610 678 m -9 -9 d s 590 678 m -8 -9 d s 571 678 m -8 -9 d s 552 678 m -8 -9 d s 533 678 m -9 -9 d s 513 678 m -8 -9
 d s 494 678 m -8 -9 d s 475 678 m -8 -9 d s 456 678 m -9 -9 d s 436 678 m -8 -9 d s 3 lw 802 600 m -6 -6 d s 782 600 m -6 -6 d s 763 600 m -6 -6 d s 744 600 m -6 -6 d s 725 600 m -6 -6 d s 705 600 m -6 -6 d s 686 600 m -6 -6 d s 667 600 m -6 -6 d s
 648 600 m -6 -6 d s 628 600 m -5 -6 d s 3 lw 998 566 m -5 -5 d s 980 567 m -6 -6 d s 961 567 m -7 -6 d s 942 567 m -7 -6 d s 922 567 m -6 -6 d s 903 567 m -6 -6 d s 884 567 m -7 -6 d s 865 567 m -7 -6 d s 845 567 m -6 -6 d s 826 567 m -6 -6 d s 807
 567 m -2 -2 d s 3 lw 1191 547 m -3 -2 d s 1175 550 m -6 -5 d s 1155 550 m -5 -5 d s 1136 550 m -5 -5 d s 1117 550 m -6 -5 d s 1098 550 m -6 -5 d s 1078 550 m -5 -5 d s 1059 550 m -5 -5 d s 1040 550 m -6 -5 d s 1021 550 m -6 -5 d s 1001 550 m -3 -3 d
 s 3 lw 1369 533 m -3 -3 d s 1350 533 m -3 -3 d s 1331 533 m -3 -3 d s 1311 533 m -2 -3 d s 1292 533 m -3 -3 d s 1273 533 m -3 -3 d s 1254 533 m -3 -3 d s 1234 533 m -2 -3 d s 1215 533 m -3 -3 d s 1196 533 m -3 -3 d s 3 lw 1575 527 m -4 -4 d s 1556
 527 m -4 -4 d s 1536 527 m -3 -4 d s 1517 527 m -4 -4 d s 1498 527 m -4 -4 d s 1479 527 m -4 -4 d s 1460 527 m -4 -4 d s 1440 527 m -4 -4 d s 1421 527 m -4 -4 d s 1402 527 m -4 -4 d s 3 lw 1765 525 m -4 -5 d s 1746 525 m -5 -5 d s 1726 525 m -4 -5 d
 s 1707 525 m -4 -5 d s 1688 525 m -4 -5 d s 1669 525 m -5 -5 d s 1650 525 m -5 -5 d s 1630 525 m -4 -5 d s 1611 525 m -4 -5 d s 1592 525 m -5 -5 d s 3 lw 1957 524 m -3 -3 d s 1938 524 m -3 -3 d s 1918 524 m -3 -3 d s 1899 524 m -3 -3 d s 1880 524 m
 -3 -3 d s 1861 524 m -3 -3 d s 1842 524 m -4 -3 d s 1822 524 m -3 -3 d s 1803 524 m -3 -3 d s 1784 524 m -3 -3 d s 3 lw 2147 522 m -6 -6 d s 2128 522 m -6 -6 d s 2109 522 m -6 -6 d s 2090 522 m -6 -6 d s 2070 522 m -6 -6 d s 2051 522 m -6 -6 d s
 2032 522 m -6 -6 d s 2013 522 m -6 -6 d s 1993 522 m -6 -6 d s 1974 522 m -6 -6 d s black 3 lw 1 1 1 c black 323 895 m 1 Y s 323 919 m 1 Y s /w 24 def /w2 {w 2 div} def /w3 {w 3 div} def 323 908 m20 516 698 m20 709 611 m20 901 563 m20 1094 555 m20
 1287 549 m20 1480 541 m20 1672 531 m20 1865 533 m20 2058 532 m20 227 484 m 1927 X s 227 502 m -18 Y s 265 493 m -9 Y s 304 493 m -9 Y s 342 493 m -9 Y s 381 493 m -9 Y s 420 502 m -18 Y s 458 493 m -9 Y s 497 493 m -9 Y s 535 493 m -9 Y s 574 493 m
 -9 Y s 612 502 m -18 Y s 651 493 m -9 Y s 689 493 m -9 Y s 728 493 m -9 Y s 766 493 m -9 Y s 805 502 m -18 Y s 844 493 m -9 Y s 882 493 m -9 Y s 921 493 m -9 Y s 959 493 m -9 Y s 998 502 m -18 Y s 1036 493 m -9 Y s 1075 493 m -9 Y s 1113 493 m -9 Y
 s 1152 493 m -9 Y s 1191 502 m -18 Y s 1229 493 m -9 Y s 1268 493 m -9 Y s 1306 493 m -9 Y s 1345 493 m -9 Y s 1383 502 m -18 Y s 1422 493 m -9 Y s 1460 493 m -9 Y s 1499 493 m -9 Y s 1538 493 m -9 Y s 1576 502 m -18 Y s 1615 493 m -9 Y s 1653 493 m
 -9 Y s 1692 493 m -9 Y s 1730 493 m -9 Y s 1769 502 m -18 Y s 1807 493 m -9 Y s 1846 493 m -9 Y s 1884 493 m -9 Y s 1923 493 m -9 Y s 1962 502 m -18 Y s 2000 493 m -9 Y s 2039 493 m -9 Y s 2077 493 m -9 Y s 2116 493 m -9 Y s 2154 502 m -18 Y s 227
 1520 m 1927 X s 227 1501 m 19 Y s 265 1510 m 10 Y s 304 1510 m 10 Y s 342 1510 m 10 Y s 381 1510 m 10 Y s 420 1501 m 19 Y s 458 1510 m 10 Y s 497 1510 m 10 Y s 535 1510 m 10 Y s 574 1510 m 10 Y s 612 1501 m 19 Y s 651 1510 m 10 Y s 689 1510 m 10 Y s
 728 1510 m 10 Y s 766 1510 m 10 Y s 805 1501 m 19 Y s 844 1510 m 10 Y s 882 1510 m 10 Y s 921 1510 m 10 Y s 959 1510 m 10 Y s 998 1501 m 19 Y s 1036 1510 m 10 Y s 1075 1510 m 10 Y s 1113 1510 m 10 Y s 1152 1510 m 10 Y s 1191 1501 m 19 Y s 1229 1510
 m 10 Y s 1268 1510 m 10 Y s 1306 1510 m 10 Y s 1345 1510 m 10 Y s 1383 1501 m 19 Y s 1422 1510 m 10 Y s 1460 1510 m 10 Y s 1499 1510 m 10 Y s 1538 1510 m 10 Y s 1576 1501 m 19 Y s 1615 1510 m 10 Y s 1653 1510 m 10 Y s 1692 1510 m 10 Y s 1730 1510 m
 10 Y s 1769 1501 m 19 Y s 1807 1510 m 10 Y s 1846 1510 m 10 Y s 1884 1510 m 10 Y s 1923 1510 m 10 Y s 1962 1501 m 19 Y s 2000 1510 m 10 Y s 2039 1510 m 10 Y s 2077 1510 m 10 Y s 2116 1510 m 10 Y s 2154 1501 m 19 Y s 227 484 m 1036 Y s 248 668 m -21
 X s 237 705 m -10 X s 237 742 m -10 X s 237 779 m -10 X s 237 815 m -10 X s 248 852 m -21 X s 237 889 m -10 X s 237 926 m -10 X s 237 963 m -10 X s 237 1000 m -10 X s 248 1037 m -21 X s 237 1074 m -10 X s 237 1110 m -10 X s 237 1147 m -10 X s 237
 1184 m -10 X s 248 1221 m -21 X s 237 1258 m -10 X s 237 1295 m -10 X s 237 1332 m -10 X s 237 1369 m -10 X s 248 1405 m -21 X s 248 668 m -21 X s 237 631 m -10 X s 237 594 m -10 X s 237 557 m -10 X s 237 520 m -10 X s 248 1405 m -21 X s 237 1442 m
 -10 X s 237 1479 m -10 X s 237 1516 m -10 X s 2154 484 m 1036 Y s 2133 668 m 21 X s 2144 705 m 10 X s 2144 742 m 10 X s 2144 779 m 10 X s 2144 815 m 10 X s 2133 852 m 21 X s 2144 889 m 10 X s 2144 926 m 10 X s 2144 963 m 10 X s 2144 1000 m 10 X s
 2133 1037 m 21 X s 2144 1074 m 10 X s 2144 1110 m 10 X s 2144 1147 m 10 X s 2144 1184 m 10 X s 2133 1221 m 21 X s 2144 1258 m 10 X s 2144 1295 m 10 X s 2144 1332 m 10 X s 2144 1369 m 10 X s 2133 1405 m 21 X s 2133 668 m 21 X s 2144 631 m 10 X s 2144
 594 m 10 X s 2144 557 m 10 X s 2144 520 m 10 X s 2133 1405 m 21 X s 2144 1442 m 10 X s 2144 1479 m 10 X s 2144 1516 m 10 X s
 gsave  2268 1103 0 472 C 1314.45 1423.98 t 0 r /Helvetica findfont 56.3093 sf 0 0 m ( Data) show NC gr  1259 1451 m 10 Y s 1259 1427 m -10 Y s 1259 1439 m20
 gsave  2268 1103 0 472 C 1808.84 1423.98 t 0 r /Helvetica findfont 56.3093 sf 0 0 m (single\255top) show NC gr 
 gsave  2268 1103 0 472 C 1779.24 1423.98 t 0 r /Helvetica-Oblique findfont 56.3093 sf 0 0 m (/) show NC gr 
 gsave  2268 1103 0 472 C 1758.52 1423.98 t 0 r /Helvetica-Oblique findfont 56.3093 sf 0 0 m (t) show NC gr  6 lw 1759 1468 m 20 X s
 gsave  2268 1103 0 472 C 1737.79 1423.98 t 0 r /Helvetica-Oblique findfont 56.3093 sf 0 0 m (t) show NC gr 
 gsave  2268 1103 0 472 C 1720.03 1423.98 t 0 r /Helvetica findfont 56.3093 sf 0 0 m ( ) show NC gr  0.06 0.54 0.06 c 3 lw 1626 1413 m 79 X 52 Y -79 X f 6 lw black
 gsave  2268 1103 0 472 C 1444.71 1349.97 t 0 r /Helvetica findfont 56.3093 sf 0 0 m (+jets) show NC gr 
 gsave  2268 1103 0 472 C 1332.21 1349.97 t 0 r /Helvetica-Oblique findfont 56.3093 sf 0 0 m (W/Z) show NC gr 
 gsave  2268 1103 0 472 C 1314.45 1349.97 t 0 r /Helvetica findfont 56.3093 sf 0 0 m ( ) show NC gr  1 0.653333 0 c 3 lw 1219 1340 m 79 X 51 Y -79 X f black
 gsave  2268 1103 0 472 C 1918.38 1349.97 t 0 r /Helvetica findfont 56.3093 sf 0 0 m (+jets) show NC gr 
 gsave  2268 1103 0 472 C 1737.79 1349.97 t 0 r /Helvetica-Oblique findfont 56.3093 sf 0 0 m (WZ/ZZ) show NC gr 
 gsave  2268 1103 0 472 C 1720.03 1349.97 t 0 r /Helvetica findfont 56.3093 sf 0 0 m ( ) show NC gr  0.413333 1 0 c 3 lw 1626 1340 m 79 X 51 Y -79 X f black
 gsave  2268 1103 0 472 C 1373.66 1275.96 t 0 r /Helvetica-Oblique findfont 56.3093 sf 0 0 m (Z) show NC gr 
 gsave  2268 1103 0 472 C 1352.93 1275.96 t 0 r /Helvetica-Oblique findfont 56.3093 sf 0 0 m (t) show NC gr  6 lw 1353 1320 m 21 X s
 gsave  2268 1103 0 472 C 1332.21 1275.96 t 0 r /Helvetica-Oblique findfont 56.3093 sf 0 0 m (t) show NC gr 
 gsave  2268 1103 0 472 C 1314.45 1275.96 t 0 r /Helvetica findfont 56.3093 sf 0 0 m ( ) show NC gr  0.6 0.2 1 c 3 lw 1219 1266 m 79 X 52 Y -79 X f 6 lw black
 gsave  2268 1103 0 472 C 1779.24 1275.96 t 0 r /Helvetica-Oblique findfont 56.3093 sf 0 0 m (W) show NC gr 
 gsave  2268 1103 0 472 C 1758.52 1275.96 t 0 r /Helvetica-Oblique findfont 56.3093 sf 0 0 m (t) show NC gr  6 lw 1759 1320 m 20 X s
 gsave  2268 1103 0 472 C 1737.79 1275.96 t 0 r /Helvetica-Oblique findfont 56.3093 sf 0 0 m (t) show NC gr 
 gsave  2268 1103 0 472 C 1720.03 1275.96 t 0 r /Helvetica findfont 56.3093 sf 0 0 m ( ) show NC gr  0.54 0.06 0.06 c 3 lw 1626 1266 m 79 X 52 Y -79 X f 6 lw black
 gsave  2268 1103 0 472 C 1332.21 1204.91 t 0 r /Helvetica-Oblique findfont 56.3093 sf 0 0 m (tZq) show NC gr 
 gsave  2268 1103 0 472 C 1314.45 1204.91 t 0 r /Helvetica findfont 56.3093 sf 0 0 m ( ) show NC gr  1 0 1 c 3 lw 1219 1193 m 79 X 51 Y -79 X f black
 gsave  2268 1103 0 472 C 1779.24 1204.91 t 0 r /Helvetica-Oblique findfont 56.3093 sf 0 0 m (H) show NC gr 
 gsave  2268 1103 0 472 C 1758.52 1204.91 t 0 r /Helvetica-Oblique findfont 56.3093 sf 0 0 m (t) show NC gr  6 lw 1759 1249 m 20 X s
 gsave  2268 1103 0 472 C 1737.79 1204.91 t 0 r /Helvetica-Oblique findfont 56.3093 sf 0 0 m (t) show NC gr 
 gsave  2268 1103 0 472 C 1720.03 1204.91 t 0 r /Helvetica findfont 56.3093 sf 0 0 m ( ) show NC gr  0 0 1 c 3 lw 1626 1193 m 79 X 51 Y -79 X f 6 lw black
 gsave  2268 1103 0 472 C 1332.21 1130.9 t 0 r /Helvetica-Oblique findfont 56.3093 sf 0 0 m (tWZ/tWH) show NC gr 
 gsave  2268 1103 0 472 C 1314.45 1130.9 t 0 r /Helvetica findfont 56.3093 sf 0 0 m ( ) show NC gr  0.2 0.8 0.8 c 3 lw 1219 1119 m 79 X 52 Y -79 X f black
 gsave  2268 1103 0 472 C 1737.79 1130.9 t 0 r /Helvetica-Oblique findfont 56.3093 sf 0 0 m (tHq) show NC gr 
 gsave  2268 1103 0 472 C 1720.03 1130.9 t 0 r /Helvetica findfont 56.3093 sf 0 0 m ( ) show NC gr  1 0 0 c 3 lw 1626 1119 m 79 X 52 Y -79 X f black
 gsave  2268 1103 0 472 C 1314.45 1056.89 t 0 r /Helvetica findfont 56.3093 sf 0 0 m ( Other) show NC gr  1 0.84 0 c 3 lw 1219 1046 m 79 X 51 Y -79 X f black
 gsave  2268 1103 0 472 C 1720.03 1056.89 t 0 r /Helvetica findfont 56.3093 sf 0 0 m ( Uncertainty) show NC gr  0.6 0.6 0.6 c 3 lw 1705 1061 m -15 -15 d s 1705 1080 m -34 -34 d s 1703 1097 m -51 -51 d s 1684 1097 m -51 -51 d s 1665 1097 m -39 -39 d s
 1646 1097 m -20 -20 d s 1626 1097 m s 1 0.84 0 c 0.6 0.6 0.6 c black
 gsave  2268 1103 0 472 C 894.061 1329.25 t 0 r /Helvetica findfont 41.4911 sf 0 0 m (\2551) show NC gr 
 gsave  2268 1103 0 472 C 399.663 1299.64 t 0 r /Helvetica findfont 62.2366 sf 0 0 m ( = 13 TeV,  139 fb) show NC gr 
 gsave  2268 1103 0 472 C 370.058 1299.64 t 0 r /Helvetica findfont 62.2366 sf 0 0 m (s) show NC gr  6 lw 349 1335 m 6 -38 d s 3 lw 355 1297 m 6 56 d s 361 1353 m 39 X s
 gsave  2268 1103 0 472 C 337.493 1201.95 t 0 r /Helvetica findfont 62.2366 sf 0 0 m ( 2L\(SS\) pre\255selection) show NC gr 
 gsave  2268 1103 0 472 C 337.493 1400.3 t 0 r /Helvetica-BoldOblique findfont 71.1276 sf 0 0 m (ATLAS) show NC gr 
 gsave  2268 1103 0 472 C 633.54 1400.3 t 0 r /Helvetica findfont 71.1276 sf 0 0 m (Internal) show NC gr 
 gr  gr showpage
end
%%EOF
