%!PS-Adobe-2.0 EPSF-2.0
%%BoundingBox:  0 0 567 394
%%Title: /lhome/ific/c/cardillo/tHq/Plots/Plots-30-05-22-PLIV-SF/2LSS_MC/EtMiss_SRtHq.eps: EtMiss_SRtHq
%%Creator: ROOT Version 6.20/06
%%CreationDate: Mon May 30 19:26:16 2022
%%DocumentNeededResources: ProcSet (FontSetInit)
%%EndComments
%%BeginProlog
80 dict begin
/s {stroke} def /l {lineto} def /m {moveto} def /t {translate} def
/r {rotate} def /rl {roll}  def /R {repeat} def
/d {rlineto} def /rm {rmoveto} def /gr {grestore} def /f {eofill} def
/c {setrgbcolor} def /black {0 setgray} def /sd {setdash} def
/cl {closepath} def /sf {scalefont setfont} def /lw {setlinewidth} def
/box {m dup 0 exch d exch 0 d 0 exch neg d cl} def
/NC{systemdict begin initclip end}def/C{NC box clip newpath}def
/bl {box s} def /bf {gsave box gsave f grestore 1 lw [] 0 sd s grestore} def /Y { 0 exch d} def /X { 0 d} def 
/K {{pop pop 0 moveto} exch kshow} bind def
/ita {/ang 15 def gsave [1 0 ang dup sin exch cos div 1 0 0] concat} def 
/mp {newpath /y exch def /x exch def} def
/side {[w .77 mul w .23 mul] .385 w mul sd w 0 l currentpoint t -144 r} def
/mr {mp x y w2 0 360 arc} def /m24 {mr s} def /m20 {mr f} def
/mb {mp x y w2 add m w2 neg 0 d 0 w neg d w 0 d 0 w d cl} def
/mt {mp x y w2 add m w2 neg w neg d w 0 d cl} def
/w4 {w 4 div} def
/w6 {w 6 div} def
/w8 {w 8 div} def
/m21 {mb f} def /m25 {mb s} def /m22 {mt f} def /m26{mt s} def
/m23 {mp x y w2 sub m w2 w d w neg 0 d cl f} def
/m27 {mp x y w2 add m w3 neg w2 neg d w3 w2 neg d w3 w2 d cl s} def
/m28 {mp x w2 sub y w2 sub w3 add m w3 0 d  0 w3 neg d w3 0 d 0 w3 d w3 0 d  0 w3 d w3 neg 0 d 0 w3 d w3 neg 0 d 0 w3 neg d w3 neg 0 d cl s } def
/m29 {mp gsave x w2 sub y w2 add w3 sub m currentpoint t 4 {side} repeat cl fill gr} def
/m30 {mp gsave x w2 sub y w2 add w3 sub m currentpoint t 4 {side} repeat cl s gr} def
/m31 {mp x y w2 sub m 0 w d x w2 sub y m w 0 d x w2 sub y w2 add m w w neg d x w2 sub y w2 sub m w w d s} def
/m32 {mp x y w2 sub m w2 w d w neg 0 d cl s} def
/m33 {mp x y w2 add m w3 neg w2 neg d w3 w2 neg d w3 w2 d cl f} def
/m34 {mp x w2 sub y w2 sub w3 add m w3 0 d  0 w3 neg d w3 0 d 0 w3 d w3 0 d  0 w3 d w3 neg 0 d 0 w3 d w3 neg 0 d 0 w3 neg d w3 neg 0 d cl f } def
/m35 {mp x y w2 add m w2 neg w2 neg d w2 w2 neg d w2 w2 d w2 neg w2 d x y w2 sub m 0 w d x w2 sub y m w 0 d s} def
/m36 {mb x w2 sub y w2 add m w w neg d x w2 sub y w2 sub m w w d s} def
/m37 {mp x y m w4 neg w2 d w4 neg w2 neg d w2 0 d  w4 neg w2 neg d w2 0 d w4 neg w2 d w2 0 d w4 neg w2 d w4 neg w2 neg d cl s} def
/m38 {mp x w4 sub y w2 add m w4 neg w4 neg d 0 w2 neg d w4 w4 neg d w2 0 d w4 w4 d 0 w2 d w4 neg w4 d w2 neg 0 d x y w2 sub m 0 w d x w2 sub y m w 0 d cl s} def
/m39 {mp x y m w4 neg w2 d w4 neg w2 neg d w2 0 d  w4 neg w2 neg d w2 0 d w4 neg w2 d w2 0 d w4 neg w2 d w4 neg w2 neg d cl f} def
/m40 {mp x y m w4 w2 d w4 w4 neg d w2 neg w4 neg d w2 w4 neg d w4 neg w4 neg d w4 neg w2 d w4 neg w2 neg d w4 neg w4 d w2 w4 d w2 neg w4 d w4 w4 d w4 w2 neg d cl s} def
/m41 {mp x y m w4 w2 d w4 w4 neg d w2 neg w4 neg d w2 w4 neg d w4 neg w4 neg d w4 neg w2 d w4 neg w2 neg d w4 neg w4 d w2 w4 d w2 neg w4 d w4 w4 d w4 w2 neg d cl f} def
/m42 {mp x y w2 add m w8 neg w2 -3 4 div mul d w2 -3 4 div mul w8 neg d w2 3 4 div mul w8 neg d w8 w2 -3 4 div mul d w8 w2 3 4 div mul d w2 3 4 div mul w8 d w2 -3 4 div mul w8 d w8 neg w2 3 4 div mul d cl s} def
/m43 {mp x y w2 add m w8 neg w2 -3 4 div mul d w2 -3 4 div mul w8 neg d w2 3 4 div mul w8 neg d w8 w2 -3 4 div mul d w8 w2 3 4 div mul d w2 3 4 div mul w8 d w2 -3 4 div mul w8 d w8 neg w2 3 4 div mul d cl f} def
/m44 {mp x y m w6 neg w2 d w2 2 3 div mul 0 d w6 neg w2 neg d w2 w6 d 0 w2 -2 3 div mul d w2 neg w6 d w6 w2 neg d w2 -2 3 div mul 0 d w6 w2 d w2 neg w6 neg d 0 w2 2 3 div mul d w2 w6 neg d cl s} def
/m45 {mp x y m w6 neg w2 d w2 2 3 div mul 0 d w6 neg w2 neg d w2 w6 d 0 w2 -2 3 div mul d w2 neg w6 d w6 w2 neg d w2 -2 3 div mul 0 d w6 w2 d w2 neg w6 neg d 0 w2 2 3 div mul d w2 w6 neg d cl f} def
/m46 {mp x y w4 add m w4 neg w4 d w4 neg w4 neg d  w4 w4 neg d w4 neg w4 neg d w4 w4 neg d w4 w4 d w4 w4 neg d w4 w4 d w4 neg w4 d w4 w4 d w4 neg w4 d w4 neg w4 neg d cl s} def
/m47 {mp x y w4 add m w4 neg w4 d w4 neg w4 neg d w4 w4 neg d w4 neg w4 neg d  w4 w4 neg d w4 w4 d w4 w4 neg d w4 w4 d w4 neg w4 d w4 w4 d w4 neg w4 d w4 neg w4 neg d cl f} def
/m48 {mp x y w4 add m w4 neg w4 d w4 neg w4 neg d w4 w4 neg d  w4 neg w4 neg d w4 w4 neg d w4 w4 d w4 w4 neg d w4 w4 d w4 neg w4 d w4 w4 d w4 neg w4 d w4 neg w4 neg d  w4 w4 neg d w4 neg w4 neg d w4 neg w4 d w4 w4 d cl f} def
/m49 {mp x w2 sub w3 add y w2 sub w3 add m  0 w3 neg d w3 0 d 0 w3 d w3 0 d 0 w3 d w3 neg 0 d 0 w3 d w3 neg 0 d 0 w3 neg d w3 neg 0 d 0 w3 neg d w3 0 d 0 w3 d w3 0 d 0 w3 neg d w3 neg 0 d cl f } def
/m2 {mp x y w2 sub m 0 w d x w2 sub y m w 0 d s} def
/m5 {mp x w2 sub y w2 sub m w w d x w2 sub y w2 add m w w neg d s} def
%%IncludeResource: ProcSet (FontSetInit)
%%IncludeResource: font Times-Roman
%%IncludeResource: font Times-Italic
%%IncludeResource: font Times-Bold
%%IncludeResource: font Times-BoldItalic
%%IncludeResource: font Helvetica
%%IncludeResource: font Helvetica-Oblique
%%IncludeResource: font Helvetica-Bold
%%IncludeResource: font Helvetica-BoldOblique
%%IncludeResource: font Courier
%%IncludeResource: font Courier-Oblique
%%IncludeResource: font Courier-Bold
%%IncludeResource: font Courier-BoldOblique
%%IncludeResource: font Symbol
%%IncludeResource: font ZapfDingbats
/reEncode {exch findfont dup length dict begin {1 index /FID eq  {pop pop} {def} ifelse } forall /Encoding exch def currentdict end dup /FontName get exch definefont pop } def [/Times-Bold /Times-Italic /Times-BoldItalic /Helvetica /Helvetica-Oblique
 /Helvetica-Bold /Helvetica-BoldOblique /Courier /Courier-Oblique /Courier-Bold /Courier-BoldOblique /Times-Roman /AvantGarde-Book /AvantGarde-BookOblique /AvantGarde-Demi /AvantGarde-DemiOblique /Bookman-Demi /Bookman-DemiItalic /Bookman-Light
 /Bookman-LightItalic /Helvetica-Narrow /Helvetica-Narrow-Bold /Helvetica-Narrow-BoldOblique /Helvetica-Narrow-Oblique /NewCenturySchlbk-Roman /NewCenturySchlbk-Bold /NewCenturySchlbk-BoldItalic /NewCenturySchlbk-Italic /Palatino-Bold
 /Palatino-BoldItalic /Palatino-Italic /Palatino-Roman ] {ISOLatin1Encoding reEncode } forall
%%EndProlog
%%BeginSetup
%%EndSetup
newpath  gsave  .25 .25 scale  gsave  0 0 t black[  ] 0 sd 3 lw 1 1 1 c 2268 1575 0 0 bf black 1 1 1 c 2268 472 0 0 bf black 1 1 1 c 1927 274 227 189 bf black 1927 274 227 189 bl 227 189 m 1927 X s 227 201 m -12 Y s 291 195 m -6 Y s 355 195 m -6 Y s
 420 195 m -6 Y s 484 195 m -6 Y s 548 201 m -12 Y s 612 195 m -6 Y s 677 195 m -6 Y s 741 195 m -6 Y s 805 195 m -6 Y s 869 201 m -12 Y s 934 195 m -6 Y s 998 195 m -6 Y s 1062 195 m -6 Y s 1126 195 m -6 Y s 1191 201 m -12 Y s 1255 195 m -6 Y s 1319
 195 m -6 Y s 1383 195 m -6 Y s 1448 195 m -6 Y s 1512 201 m -12 Y s 1576 195 m -6 Y s 1640 195 m -6 Y s 1705 195 m -6 Y s 1769 195 m -6 Y s 1833 201 m -12 Y s 1897 195 m -6 Y s 1962 195 m -6 Y s 2026 195 m -6 Y s 2090 195 m -6 Y s 2154 201 m -12 Y s
 gsave  2268 472 0 0 C 210.193 127.3 t 0 r /Helvetica findfont 53.4895 sf 0 0 m (0) show NC gr 
 gsave  2268 472 0 0 C 518.081 127.3 t 0 r /Helvetica findfont 53.4895 sf 0 0 m (50) show NC gr 
 gsave  2268 472 0 0 C 823.009 127.3 t 0 r /Helvetica findfont 53.4895 sf 0 0 m (100) show NC gr 
 gsave  2268 472 0 0 C 1145.7 127.3 t 0 r /Helvetica findfont 53.4895 sf 0 0 m (150) show NC gr 
 gsave  2268 472 0 0 C 1465.43 127.3 t 0 r /Helvetica findfont 53.4895 sf 0 0 m (200) show NC gr 
 gsave  2268 472 0 0 C 1788.12 127.3 t 0 r /Helvetica findfont 53.4895 sf 0 0 m (250) show NC gr 
 gsave  2268 472 0 0 C 2107.85 127.3 t 0 r /Helvetica findfont 53.4895 sf 0 0 m (300) show NC gr 
 gsave  2268 472 0 0 C 1995.35 41.4465 t 0 r /Helvetica findfont 56.4611 sf 0 0 m ( [GeV]) show NC gr 
 gsave  2268 472 0 0 C 1915.42 68.0907 t 0 r /Helvetica findfont 38.6313 sf 0 0 m (miss) show NC gr 
 gsave  2268 472 0 0 C 1915.42 23.6837 t 0 r /Helvetica findfont 38.6313 sf 0 0 m (T) show NC gr 
 gsave  2268 472 0 0 C 1871.01 41.4465 t 0 r /Helvetica-Oblique findfont 56.4611 sf 0 0 m (E) show NC gr  227 463 m 1927 X s 227 451 m 12 Y s 291 457 m 6 Y s 355 457 m 6 Y s 420 457 m 6 Y s 484 457 m 6 Y s 548 451 m 12 Y s 612 457 m 6 Y s 677 457 m 6
 Y s 741 457 m 6 Y s 805 457 m 6 Y s 869 451 m 12 Y s 934 457 m 6 Y s 998 457 m 6 Y s 1062 457 m 6 Y s 1126 457 m 6 Y s 1191 451 m 12 Y s 1255 457 m 6 Y s 1319 457 m 6 Y s 1383 457 m 6 Y s 1448 457 m 6 Y s 1512 451 m 12 Y s 1576 457 m 6 Y s 1640 457
 m 6 Y s 1705 457 m 6 Y s 1769 457 m 6 Y s 1833 451 m 12 Y s 1897 457 m 6 Y s 1962 457 m 6 Y s 2026 457 m 6 Y s 2090 457 m 6 Y s 2154 451 m 12 Y s 227 189 m 274 Y s 240 240 m -13 X s 240 326 m -13 X s 240 412 m -13 X s 240 240 m -13 X s 240 412 m -13
 X s
 gsave  2268 472 0 0 C 118.419 222.035 t 0 r /Helvetica findfont 53.4895 sf 0 0 m (0.5) show NC gr 
 gsave  2268 472 0 0 C 171.707 307.888 t 0 r /Helvetica findfont 53.4895 sf 0 0 m (1) show NC gr 
 gsave  2268 472 0 0 C 118.419 393.742 t 0 r /Helvetica findfont 53.4895 sf 0 0 m (1.5) show NC gr 
 gsave  2268 472 0 0 C 71.0512 230.916 t 90 r /Helvetica findfont 53.4895 sf 0 0 m (Data / SM) show NC gr  2154 189 m 274 Y s 2141 240 m 13 X s 2141 326 m 13 X s 2141 412 m 13 X s 2141 240 m 13 X s 2141 412 m 13 X s 227 189 m 1927 X s 227 463 m 1927
 X s 227 189 m 274 Y s[ 4 8] 0 sd 2154 240 m -1927 X s 2154 326 m -1927 X s 2154 412 m -1927 X s 2154 240 m -1927 X s 2154 412 m -1927 X s[  ] 0 sd 2154 189 m 274 Y s 1 1 0.6 c 193 0 227 326 bf 192 0 420 326 bf 193 0 612 326 bf 193 0 805 326 bf 193 0
 998 326 bf 192 0 1191 326 bf 193 0 1383 326 bf 193 0 1576 326 bf 193 0 1769 326 bf 192 0 1962 326 bf black 0.6 0.6 0.6 c 420 325 m -16 -16 d s 419 343 m -35 -34 d s 400 343 m -35 -34 d s 381 343 m -35 -34 d s 361 343 m -34 -34 d s 342 343 m -35 -34
 d s 323 343 m -35 -34 d s 304 343 m -35 -34 d s 284 343 m -34 -34 d s 265 343 m -35 -34 d s 246 343 m -19 -19 d s 612 325 m -10 -11 d s 606 338 m -23 -24 d s 587 338 m -24 -24 d s 567 338 m -23 -24 d s 548 338 m -23 -24 d s 529 338 m -23 -24 d s 510
 338 m -24 -24 d s 490 338 m -23 -24 d s 471 338 m -23 -24 d s 452 338 m -23 -24 d s 433 338 m -13 -13 d s 805 325 m -11 -11 d s 798 338 m -23 -24 d s 779 338 m -24 -24 d s 760 338 m -24 -24 d s 741 338 m -24 -24 d s 722 338 m -24 -24 d s 702 338 m
 -23 -24 d s 683 338 m -24 -24 d s 664 338 m -24 -24 d s 645 338 m -24 -24 d s 625 338 m -13 -13 d s 998 326 m -15 -16 d s 995 342 m -32 -32 d s 975 342 m -31 -32 d s 956 342 m -31 -32 d s 937 342 m -31 -32 d s 918 342 m -32 -32 d s 898 342 m -31 -32
 d s 879 342 m -31 -32 d s 860 342 m -31 -32 d s 841 342 m -32 -32 d s 821 342 m -16 -17 d s 1191 326 m -12 -12 d s 1183 338 m -23 -24 d s 1164 338 m -24 -24 d s 1145 338 m -24 -24 d s 1126 338 m -24 -24 d s 1106 338 m -23 -24 d s 1087 338 m -24 -24
 d s 1068 338 m -24 -24 d s 1049 338 m -24 -24 d s 1029 338 m -23 -24 d s 1010 338 m -12 -12 d s 1383 307 m -7 -7 d s 1383 326 m -26 -26 d s 1383 346 m -45 -46 d s 1371 352 m -52 -52 d s 1351 352 m -52 -52 d s 1332 352 m -52 -52 d s 1313 352 m -52
 -52 d s 1294 352 m -52 -52 d s 1274 352 m -52 -52 d s 1255 352 m -52 -52 d s 1236 352 m -45 -45 d s 1217 352 m -26 -26 d s 1197 352 m -6 -7 d s 1576 288 m -13 -13 d s 1576 307 m -32 -32 d s 1576 327 m -51 -52 d s 1576 346 m -71 -71 d s 1576 365 m
 -90 -90 d s 1569 377 m -102 -102 d s 1549 377 m -101 -102 d s 1530 377 m -102 -102 d s 1511 377 m -102 -102 d s 1492 377 m -102 -102 d s 1473 377 m -90 -89 d s 1453 377 m -70 -70 d s 1434 377 m -51 -51 d s 1415 377 m -32 -31 d s 1396 377 m -13 -12 d
 s 1769 288 m -3 -3 d s 1769 308 m -22 -23 d s 1769 327 m -41 -42 d s 1769 346 m -61 -61 d s 1769 366 m -80 -81 d s 1751 367 m -81 -82 d s 1731 367 m -80 -82 d s 1712 367 m -81 -82 d s 1693 367 m -81 -82 d s 1674 367 m -81 -82 d s 1654 367 m -78 -79
 d s 1635 367 m -59 -60 d s 1616 367 m -40 -40 d s 1597 367 m -21 -21 d s 1577 367 m -1 -2 d s 1962 289 m -2 -2 d s 1962 308 m -21 -21 d s 1962 327 m -41 -40 d s 1962 347 m -60 -60 d s 1961 365 m -78 -78 d s 1942 365 m -78 -78 d s 1922 365 m -78 -78
 d s 1903 365 m -78 -78 d s 1884 365 m -78 -78 d s 1865 365 m -78 -78 d s 1845 365 m -76 -77 d s 1826 365 m -57 -57 d s 1807 365 m -38 -38 d s 1788 365 m -19 -19 d s 2154 308 m -6 -6 d s 2154 328 m -26 -26 d s 2154 347 m -45 -45 d s 2139 350 m -49
 -48 d s 2119 350 m -48 -48 d s 2100 350 m -48 -48 d s 2081 350 m -49 -48 d s 2062 350 m -49 -48 d s 2042 350 m -48 -48 d s 2023 350 m -48 -48 d s 2004 350 m -42 -42 d s 1985 350 m -23 -23 d s 1965 350 m -3 -3 d s black 1 1 1 c black 323 357 m 82 Y s
 323 463 m s /w 26 def /w2 {w 2 div} def /w3 {w 3 div} def 323 451 m20 516 268 m 33 Y s 516 325 m 34 Y s 516 313 m20 709 284 m 37 Y s 709 345 m 38 Y s 709 333 m20 901 282 m 58 Y s 901 364 m 58 Y s 901 352 m20 1094 209 m 121 Y s 1094 353 m 110 Y s
 1094 341 m20 1287 189 m 157 Y s 1287 370 m 93 Y s 1287 358 m20 227 326 m 1927 X s 227 189 m 1927 X s 227 201 m -12 Y s 291 195 m -6 Y s 355 195 m -6 Y s 420 195 m -6 Y s 484 195 m -6 Y s 548 201 m -12 Y s 612 195 m -6 Y s 677 195 m -6 Y s 741 195 m
 -6 Y s 805 195 m -6 Y s 869 201 m -12 Y s 934 195 m -6 Y s 998 195 m -6 Y s 1062 195 m -6 Y s 1126 195 m -6 Y s 1191 201 m -12 Y s 1255 195 m -6 Y s 1319 195 m -6 Y s 1383 195 m -6 Y s 1448 195 m -6 Y s 1512 201 m -12 Y s 1576 195 m -6 Y s 1640 195
 m -6 Y s 1705 195 m -6 Y s 1769 195 m -6 Y s 1833 201 m -12 Y s 1897 195 m -6 Y s 1962 195 m -6 Y s 2026 195 m -6 Y s 2090 195 m -6 Y s 2154 201 m -12 Y s 227 463 m 1927 X s 227 451 m 12 Y s 291 457 m 6 Y s 355 457 m 6 Y s 420 457 m 6 Y s 484 457 m
 6 Y s 548 451 m 12 Y s 612 457 m 6 Y s 677 457 m 6 Y s 741 457 m 6 Y s 805 457 m 6 Y s 869 451 m 12 Y s 934 457 m 6 Y s 998 457 m 6 Y s 1062 457 m 6 Y s 1126 457 m 6 Y s 1191 451 m 12 Y s 1255 457 m 6 Y s 1319 457 m 6 Y s 1383 457 m 6 Y s 1448 457 m
 6 Y s 1512 451 m 12 Y s 1576 457 m 6 Y s 1640 457 m 6 Y s 1705 457 m 6 Y s 1769 457 m 6 Y s 1833 451 m 12 Y s 1897 457 m 6 Y s 1962 457 m 6 Y s 2026 457 m 6 Y s 2090 457 m 6 Y s 2154 451 m 12 Y s 227 189 m 274 Y s 240 240 m -13 X s 240 326 m -13 X s
 240 412 m -13 X s 240 240 m -13 X s 240 412 m -13 X s 2154 189 m 274 Y s 2141 240 m 13 X s 2141 326 m 13 X s 2141 412 m 13 X s 2141 240 m 13 X s 2141 412 m 13 X s 1 1 1 c 2268 1103 0 472 bf black 1 1 1 c 1927 1036 227 484 bf black 1927 1036 227 484
 bl 1 1 1 c black 3 lw 227 484 m 1927 X s 227 502 m -18 Y s 291 493 m -9 Y s 355 493 m -9 Y s 420 493 m -9 Y s 484 493 m -9 Y s 548 502 m -18 Y s 612 493 m -9 Y s 677 493 m -9 Y s 741 493 m -9 Y s 805 493 m -9 Y s 869 502 m -18 Y s 934 493 m -9 Y s
 998 493 m -9 Y s 1062 493 m -9 Y s 1126 493 m -9 Y s 1191 502 m -18 Y s 1255 493 m -9 Y s 1319 493 m -9 Y s 1383 493 m -9 Y s 1448 493 m -9 Y s 1512 502 m -18 Y s 1576 493 m -9 Y s 1640 493 m -9 Y s 1705 493 m -9 Y s 1769 493 m -9 Y s 1833 502 m -18
 Y s 1897 493 m -9 Y s 1962 493 m -9 Y s 2026 493 m -9 Y s 2090 493 m -9 Y s 2154 502 m -18 Y s
 gsave  2268 1103 0 472 C 2069.37 396.702 t 0 r /Helvetica findfont 29.6365 sf 0 0 m ( [GeV]) show NC gr 
 gsave  2268 1103 0 472 C 2024.96 414.465 t 0 r /Helvetica findfont 20.7455 sf 0 0 m (miss) show NC gr 
 gsave  2268 1103 0 472 C 2024.96 387.821 t 0 r /Helvetica findfont 20.7455 sf 0 0 m (T) show NC gr 
 gsave  2268 1103 0 472 C 2001.27 396.702 t 0 r /Helvetica-Oblique findfont 29.6365 sf 0 0 m (E) show NC gr  227 1520 m 1927 X s 227 1501 m 19 Y s 291 1510 m 10 Y s 355 1510 m 10 Y s 420 1510 m 10 Y s 484 1510 m 10 Y s 548 1501 m 19 Y s 612 1510 m 10
 Y s 677 1510 m 10 Y s 741 1510 m 10 Y s 805 1510 m 10 Y s 869 1501 m 19 Y s 934 1510 m 10 Y s 998 1510 m 10 Y s 1062 1510 m 10 Y s 1126 1510 m 10 Y s 1191 1501 m 19 Y s 1255 1510 m 10 Y s 1319 1510 m 10 Y s 1383 1510 m 10 Y s 1448 1510 m 10 Y s 1512
 1501 m 19 Y s 1576 1510 m 10 Y s 1640 1510 m 10 Y s 1705 1510 m 10 Y s 1769 1510 m 10 Y s 1833 1501 m 19 Y s 1897 1510 m 10 Y s 1962 1510 m 10 Y s 2026 1510 m 10 Y s 2090 1510 m 10 Y s 2154 1501 m 19 Y s 227 484 m 1036 Y s 248 643 m -21 X s 237 675
 m -10 X s 237 707 m -10 X s 237 739 m -10 X s 237 771 m -10 X s 248 803 m -21 X s 237 835 m -10 X s 237 867 m -10 X s 237 899 m -10 X s 237 931 m -10 X s 248 963 m -21 X s 237 995 m -10 X s 237 1027 m -10 X s 237 1059 m -10 X s 237 1091 m -10 X s
 248 1123 m -21 X s 237 1155 m -10 X s 237 1187 m -10 X s 237 1219 m -10 X s 237 1251 m -10 X s 248 1283 m -21 X s 237 1315 m -10 X s 237 1347 m -10 X s 237 1379 m -10 X s 237 1411 m -10 X s 248 1443 m -21 X s 248 643 m -21 X s 237 611 m -10 X s 237
 579 m -10 X s 237 547 m -10 X s 237 515 m -10 X s 248 1443 m -21 X s 237 1475 m -10 X s 237 1507 m -10 X s
 gsave  2268 1103 0 472 C 174.667 624.658 t 0 r /Helvetica findfont 50.382 sf 0 0 m (5) show NC gr 
 gsave  2268 1103 0 472 C 145.063 784.523 t 0 r /Helvetica findfont 50.382 sf 0 0 m (10) show NC gr 
 gsave  2268 1103 0 472 C 145.063 944.388 t 0 r /Helvetica findfont 50.382 sf 0 0 m (15) show NC gr 
 gsave  2268 1103 0 472 C 145.063 1104.25 t 0 r /Helvetica findfont 50.382 sf 0 0 m (20) show NC gr 
 gsave  2268 1103 0 472 C 145.063 1264.12 t 0 r /Helvetica findfont 50.382 sf 0 0 m (25) show NC gr 
 gsave  2268 1103 0 472 C 145.063 1423.98 t 0 r /Helvetica findfont 50.382 sf 0 0 m (30) show NC gr 
 gsave  2268 1103 0 472 C 62.1698 1154.58 t 90 r /Helvetica findfont 50.382 sf 0 0 m (Events / 30 GeV) show NC gr  2154 484 m 1036 Y s 2133 643 m 21 X s 2144 675 m 10 X s 2144 707 m 10 X s 2144 739 m 10 X s 2144 771 m 10 X s 2133 803 m 21 X s 2144
 835 m 10 X s 2144 867 m 10 X s 2144 899 m 10 X s 2144 931 m 10 X s 2133 963 m 21 X s 2144 995 m 10 X s 2144 1027 m 10 X s 2144 1059 m 10 X s 2144 1091 m 10 X s 2133 1123 m 21 X s 2144 1155 m 10 X s 2144 1187 m 10 X s 2144 1219 m 10 X s 2144 1251 m
 10 X s 2133 1283 m 21 X s 2144 1315 m 10 X s 2144 1347 m 10 X s 2144 1379 m 10 X s 2144 1411 m 10 X s 2133 1443 m 21 X s 2133 643 m 21 X s 2144 611 m 10 X s 2144 579 m 10 X s 2144 547 m 10 X s 2144 515 m 10 X s 2133 1443 m 21 X s 2144 1475 m 10 X s
 2144 1507 m 10 X s 0.06 0.54 0.06 c black 3 lw 0.06 0.54 0.06 c 227 484 m 184 Y 193 X 230 Y 192 X -16 Y 193 X -177 Y 193 X -163 Y 193 X -32 Y 192 X -13 Y 193 X -8 Y 193 X -4 Y 193 X 1 Y 192 X -2 Y f 1 0.653333 0 c 0.999 0.999 0.999 c black 3 lw
 0.999 0.999 0.999 c 227 484 m 103 Y 193 X 130 Y 192 X -13 Y 193 X -86 Y 193 X -79 Y 193 X -34 Y 192 X -13 Y 193 X -3 Y 193 X -4 Y 193 X 1 Y 192 X -2 Y f 1 0.653333 0 c 0.999 0.999 0.999 c 1 0.653333 0 c 1 1 1 c black 1 0.653333 0 c black 3 lw 1
 0.653333 0 c 227 484 m 103 Y 193 X 130 Y 192 X -13 Y 193 X -86 Y 193 X -79 Y 193 X -34 Y 192 X -13 Y 193 X -3 Y 193 X -4 Y 193 X 1 Y 192 X -2 Y f 0.413333 1 0 c 0.999 0.999 0.999 c black 3 lw 0.999 0.999 0.999 c 227 484 m 100 Y 193 X 133 Y 192 X -17
 Y 193 X -84 Y 193 X -77 Y 193 X -34 Y 192 X -13 Y 193 X -3 Y 193 X -4 Y 193 X 1 Y 192 X -2 Y f 0.413333 1 0 c 0.999 0.999 0.999 c 0.413333 1 0 c 1 1 1 c black 0.413333 1 0 c black 3 lw 0.413333 1 0 c 227 484 m 100 Y 193 X 133 Y 192 X -17 Y 193 X -84
 Y 193 X -77 Y 193 X -34 Y 192 X -13 Y 193 X -3 Y 193 X -4 Y 193 X 1 Y 192 X -2 Y f 0.6 0.2 1 c 0.999 0.999 0.999 c black 3 lw 0.999 0.999 0.999 c 227 484 m 83 Y 193 X 102 Y 192 X -3 Y 193 X -70 Y 193 X -62 Y 193 X -32 Y 192 X -12 Y 193 X -2 Y 193 X
 -3 Y 193 X 1 Y 192 X -2 Y f 0.6 0.2 1 c 0.999 0.999 0.999 c 0.6 0.2 1 c 1 1 1 c black 0.6 0.2 1 c black 3 lw 0.6 0.2 1 c 227 484 m 83 Y 193 X 102 Y 192 X -3 Y 193 X -70 Y 193 X -62 Y 193 X -32 Y 192 X -12 Y 193 X -2 Y 193 X -3 Y 193 X 1 Y 192 X -2 Y
 f 0.54 0.06 0.06 c 0.999 0.999 0.999 c black 3 lw 0.999 0.999 0.999 c 227 484 m 77 Y 193 X 91 Y 192 X -2 Y 193 X -64 Y 193 X -57 Y 193 X -30 Y 192 X -9 Y 193 X -3 Y 193 X -2 Y 193 X 1 Y 192 X -2 Y f 0.54 0.06 0.06 c 0.999 0.999 0.999 c 0.54 0.06
 0.06 c 1 1 1 c black 0.54 0.06 0.06 c black 3 lw 0.54 0.06 0.06 c 227 484 m 77 Y 193 X 91 Y 192 X -2 Y 193 X -64 Y 193 X -57 Y 193 X -30 Y 192 X -9 Y 193 X -3 Y 193 X -2 Y 193 X 1 Y 192 X -2 Y f 1 0 1 c 0.999 0.999 0.999 c black 3 lw 0.999 0.999
 0.999 c 227 484 m 54 Y 193 X 68 Y 192 X -13 Y 193 X -45 Y 193 X -41 Y 193 X -14 Y 192 X -7 Y 193 X -1 Y 193 X -1 Y 385 X f 1 0 1 c 0.999 0.999 0.999 c 1 0 1 c 1 1 1 c black 1 0 1 c black 3 lw 1 0 1 c 227 484 m 54 Y 193 X 68 Y 192 X -13 Y 193 X -45 Y
 193 X -41 Y 193 X -14 Y 192 X -7 Y 193 X -1 Y 193 X -1 Y 385 X f 0 0 1 c 0.999 0.999 0.999 c black 3 lw 0.999 0.999 0.999 c 227 484 m 14 Y 193 X 20 Y 192 X -1 Y 193 X -13 Y 193 X -12 Y 193 X -5 Y 192 X -2 Y 193 X -1 Y 578 X f 0 0 1 c 0.999 0.999
 0.999 c 0 0 1 c 1 1 1 c black 0 0 1 c black 3 lw 0 0 1 c 227 484 m 14 Y 193 X 20 Y 192 X -1 Y 193 X -13 Y 193 X -12 Y 193 X -5 Y 192 X -2 Y 193 X -1 Y 578 X f 0.2 0.8 0.8 c 0.999 0.999 0.999 c black 3 lw 0.999 0.999 0.999 c 227 484 m 10 Y 193 X 14 Y
 192 X -2 Y 193 X -10 Y 193 X -8 Y 193 X -3 Y 192 X -1 Y 771 X f 0.2 0.8 0.8 c 0.999 0.999 0.999 c 0.2 0.8 0.8 c 1 1 1 c black 0.2 0.8 0.8 c black 3 lw 0.2 0.8 0.8 c 227 484 m 10 Y 193 X 14 Y 192 X -2 Y 193 X -10 Y 193 X -8 Y 193 X -3 Y 192 X -1 Y
 771 X f 1 0 0 c 0.999 0.999 0.999 c black 3 lw 0.999 0.999 0.999 c 227 484 m 9 Y 193 X 12 Y 192 X -1 Y 193 X -9 Y 193 X -7 Y 193 X -3 Y 192 X -1 Y 771 X f 1 0 0 c 0.999 0.999 0.999 c 1 0 0 c 1 1 1 c black 1 0 0 c black 3 lw 1 0 0 c 227 484 m 9 Y 193
 X 12 Y 192 X -1 Y 193 X -9 Y 193 X -7 Y 193 X -3 Y 192 X -1 Y 771 X f 1 0.84 0 c 0.999 0.999 0.999 c black 3 lw 0.999 0.999 0.999 c 227 484 m 1927 X f 1 0.84 0 c 0.999 0.999 0.999 c 1 0.84 0 c 1 1 1 c black 1 0.84 0 c black 3 lw 1 0.84 0 c 227 484 m
 1927 X f black 1 1 1 c black 0.6 0.6 0.6 c 3 lw 420 661 m -12 -12 d s 420 680 m -31 -31 d s 407 687 m -37 -38 d s 388 687 m -38 -38 d s 369 687 m -38 -38 d s 350 687 m -38 -38 d s 330 687 m -37 -38 d s 311 687 m -38 -38 d s 292 687 m -38 -38 d s 273
 687 m -38 -38 d s 253 687 m -26 -27 d s 234 687 m -7 -7 d s 3 lw 612 872 m -3 -2 d s 612 892 m -22 -22 d s 612 911 m -41 -41 d s 608 926 m -56 -56 d s 589 926 m -57 -56 d s 570 926 m -57 -56 d s 551 926 m -57 -56 d s 531 926 m -56 -56 d s 512 926 m
 -57 -56 d s 493 926 m -57 -56 d s 474 926 m -54 -54 d s 454 926 m -34 -35 d s 435 926 m -15 -15 d s 3 lw 805 873 m -18 -18 d s 805 892 m -37 -37 d s 804 910 m -56 -55 d s 785 910 m -56 -55 d s 765 910 m -55 -55 d s 746 910 m -55 -55 d s 727 910 m
 -56 -55 d s 708 910 m -56 -55 d s 689 910 m -56 -55 d s 669 910 m -55 -55 d s 650 910 m -38 -38 d s 631 910 m -19 -18 d s 3 lw 998 700 m -15 -15 d s 998 719 m -35 -34 d s 985 726 m -41 -41 d s 966 726 m -41 -41 d s 946 726 m -40 -41 d s 927 726 m
 -41 -41 d s 908 726 m -41 -41 d s 889 726 m -41 -41 d s 869 726 m -40 -41 d s 850 726 m -41 -41 d s 831 726 m -26 -26 d s 812 726 m -7 -7 d s 3 lw 1190 546 m -8 -8 d s 1170 546 m -8 -8 d s 1151 546 m -8 -8 d s 1132 546 m -8 -8 d s 1113 546 m -8 -8 d
 s 1093 546 m -8 -8 d s 1074 546 m -8 -8 d s 1055 546 m -8 -8 d s 1036 546 m -8 -8 d s 1016 546 m -8 -8 d s 3 lw 1383 509 m -2 -3 d s 1370 514 m -9 -8 d s 1350 514 m -8 -8 d s 1331 514 m -8 -8 d s 1312 514 m -8 -8 d s 1293 514 m -9 -8 d s 1273 514 m
 -8 -8 d s 1254 514 m -8 -8 d s 1235 514 m -8 -8 d s 1216 514 m -9 -8 d s 1196 514 m -5 -6 d s 3 lw 1568 501 m -8 -8 d s 1549 501 m -8 -8 d s 1530 501 m -9 -8 d s 1511 501 m -9 -8 d s 1491 501 m -8 -8 d s 1472 501 m -8 -8 d s 1453 501 m -9 -8 d s
 1434 501 m -9 -8 d s 1414 501 m -8 -8 d s 1395 501 m -8 -8 d s 3 lw 1769 490 m -3 -2 d s 1750 490 m -3 -2 d s 1730 490 m -2 -2 d s 1711 490 m -3 -2 d s 1692 490 m -3 -2 d s 1673 490 m -3 -2 d s 1653 490 m -2 -2 d s 1634 490 m -3 -2 d s 1615 490 m -3
 -2 d s 1596 490 m -3 -2 d s 1576 490 m s 3 lw 1957 486 m -1 -1 d s 1937 486 m -1 Y s 1918 486 m -1 -1 d s 1899 486 m -1 -1 d s 1880 486 m -1 -1 d s 1861 486 m -1 -1 d s 1841 486 m -1 -1 d s 1822 486 m -1 -1 d s 1803 486 m -1 -1 d s 1784 486 m -1 -1
 d s 3 lw 2150 486 m -1 X s 2130 486 m s 2111 486 m -1 X s 2092 486 m -1 X s 2073 486 m -1 X s 2054 486 m -1 X s 2034 486 m -1 X s 2015 486 m -1 X s 1996 486 m -1 X s 1977 486 m -1 X s black 3 lw 1 1 1 c black 323 702 m 89 Y s 323 815 m 89 Y s /w 24
 def /w2 {w 2 div} def /w3 {w 3 div} def 323 803 m20 516 756 m 99 Y s 516 879 m 99 Y s 516 867 m20 709 784 m 103 Y s 709 911 m 103 Y s 709 899 m20 901 649 m 78 Y s 901 751 m 79 Y s 901 739 m20 1094 502 m 33 Y s 1094 559 m 33 Y s 1094 547 m20 1287 484
 m 19 Y s 1287 527 m 20 Y s 1287 515 m20 1480 484 m 19 Y s 1480 527 m 20 Y s 1480 515 m20 227 484 m 1927 X s 227 502 m -18 Y s 291 493 m -9 Y s 355 493 m -9 Y s 420 493 m -9 Y s 484 493 m -9 Y s 548 502 m -18 Y s 612 493 m -9 Y s 677 493 m -9 Y s 741
 493 m -9 Y s 805 493 m -9 Y s 869 502 m -18 Y s 934 493 m -9 Y s 998 493 m -9 Y s 1062 493 m -9 Y s 1126 493 m -9 Y s 1191 502 m -18 Y s 1255 493 m -9 Y s 1319 493 m -9 Y s 1383 493 m -9 Y s 1448 493 m -9 Y s 1512 502 m -18 Y s 1576 493 m -9 Y s
 1640 493 m -9 Y s 1705 493 m -9 Y s 1769 493 m -9 Y s 1833 502 m -18 Y s 1897 493 m -9 Y s 1962 493 m -9 Y s 2026 493 m -9 Y s 2090 493 m -9 Y s 2154 502 m -18 Y s 227 1520 m 1927 X s 227 1501 m 19 Y s 291 1510 m 10 Y s 355 1510 m 10 Y s 420 1510 m
 10 Y s 484 1510 m 10 Y s 548 1501 m 19 Y s 612 1510 m 10 Y s 677 1510 m 10 Y s 741 1510 m 10 Y s 805 1510 m 10 Y s 869 1501 m 19 Y s 934 1510 m 10 Y s 998 1510 m 10 Y s 1062 1510 m 10 Y s 1126 1510 m 10 Y s 1191 1501 m 19 Y s 1255 1510 m 10 Y s 1319
 1510 m 10 Y s 1383 1510 m 10 Y s 1448 1510 m 10 Y s 1512 1501 m 19 Y s 1576 1510 m 10 Y s 1640 1510 m 10 Y s 1705 1510 m 10 Y s 1769 1510 m 10 Y s 1833 1501 m 19 Y s 1897 1510 m 10 Y s 1962 1510 m 10 Y s 2026 1510 m 10 Y s 2090 1510 m 10 Y s 2154
 1501 m 19 Y s 227 484 m 1036 Y s 248 643 m -21 X s 237 675 m -10 X s 237 707 m -10 X s 237 739 m -10 X s 237 771 m -10 X s 248 803 m -21 X s 237 835 m -10 X s 237 867 m -10 X s 237 899 m -10 X s 237 931 m -10 X s 248 963 m -21 X s 237 995 m -10 X s
 237 1027 m -10 X s 237 1059 m -10 X s 237 1091 m -10 X s 248 1123 m -21 X s 237 1155 m -10 X s 237 1187 m -10 X s 237 1219 m -10 X s 237 1251 m -10 X s 248 1283 m -21 X s 237 1315 m -10 X s 237 1347 m -10 X s 237 1379 m -10 X s 237 1411 m -10 X s
 248 1443 m -21 X s 248 643 m -21 X s 237 611 m -10 X s 237 579 m -10 X s 237 547 m -10 X s 237 515 m -10 X s 248 1443 m -21 X s 237 1475 m -10 X s 237 1507 m -10 X s 2154 484 m 1036 Y s 2133 643 m 21 X s 2144 675 m 10 X s 2144 707 m 10 X s 2144 739
 m 10 X s 2144 771 m 10 X s 2133 803 m 21 X s 2144 835 m 10 X s 2144 867 m 10 X s 2144 899 m 10 X s 2144 931 m 10 X s 2133 963 m 21 X s 2144 995 m 10 X s 2144 1027 m 10 X s 2144 1059 m 10 X s 2144 1091 m 10 X s 2133 1123 m 21 X s 2144 1155 m 10 X s
 2144 1187 m 10 X s 2144 1219 m 10 X s 2144 1251 m 10 X s 2133 1283 m 21 X s 2144 1315 m 10 X s 2144 1347 m 10 X s 2144 1379 m 10 X s 2144 1411 m 10 X s 2133 1443 m 21 X s 2133 643 m 21 X s 2144 611 m 10 X s 2144 579 m 10 X s 2144 547 m 10 X s 2144
 515 m 10 X s 2133 1443 m 21 X s 2144 1475 m 10 X s 2144 1507 m 10 X s
 gsave  2268 1103 0 472 C 1314.45 1423.98 t 0 r /Helvetica findfont 56.3093 sf 0 0 m ( Data) show NC gr  1259 1451 m 10 Y s 1259 1427 m -10 Y s 1259 1439 m20
 gsave  2268 1103 0 472 C 1808.84 1423.98 t 0 r /Helvetica findfont 56.3093 sf 0 0 m (single\255top) show NC gr 
 gsave  2268 1103 0 472 C 1779.24 1423.98 t 0 r /Helvetica-Oblique findfont 56.3093 sf 0 0 m (/) show NC gr 
 gsave  2268 1103 0 472 C 1758.52 1423.98 t 0 r /Helvetica-Oblique findfont 56.3093 sf 0 0 m (t) show NC gr  6 lw 1759 1468 m 20 X s
 gsave  2268 1103 0 472 C 1737.79 1423.98 t 0 r /Helvetica-Oblique findfont 56.3093 sf 0 0 m (t) show NC gr 
 gsave  2268 1103 0 472 C 1720.03 1423.98 t 0 r /Helvetica findfont 56.3093 sf 0 0 m ( ) show NC gr  0.06 0.54 0.06 c 3 lw 1626 1413 m 79 X 52 Y -79 X f 6 lw black
 gsave  2268 1103 0 472 C 1444.71 1349.97 t 0 r /Helvetica findfont 56.3093 sf 0 0 m (+jets) show NC gr 
 gsave  2268 1103 0 472 C 1332.21 1349.97 t 0 r /Helvetica-Oblique findfont 56.3093 sf 0 0 m (W/Z) show NC gr 
 gsave  2268 1103 0 472 C 1314.45 1349.97 t 0 r /Helvetica findfont 56.3093 sf 0 0 m ( ) show NC gr  1 0.653333 0 c 3 lw 1219 1340 m 79 X 51 Y -79 X f black
 gsave  2268 1103 0 472 C 1918.38 1349.97 t 0 r /Helvetica findfont 56.3093 sf 0 0 m (+jets) show NC gr 
 gsave  2268 1103 0 472 C 1737.79 1349.97 t 0 r /Helvetica-Oblique findfont 56.3093 sf 0 0 m (WZ/ZZ) show NC gr 
 gsave  2268 1103 0 472 C 1720.03 1349.97 t 0 r /Helvetica findfont 56.3093 sf 0 0 m ( ) show NC gr  0.413333 1 0 c 3 lw 1626 1340 m 79 X 51 Y -79 X f black
 gsave  2268 1103 0 472 C 1373.66 1275.96 t 0 r /Helvetica-Oblique findfont 56.3093 sf 0 0 m (Z) show NC gr 
 gsave  2268 1103 0 472 C 1352.93 1275.96 t 0 r /Helvetica-Oblique findfont 56.3093 sf 0 0 m (t) show NC gr  6 lw 1353 1320 m 21 X s
 gsave  2268 1103 0 472 C 1332.21 1275.96 t 0 r /Helvetica-Oblique findfont 56.3093 sf 0 0 m (t) show NC gr 
 gsave  2268 1103 0 472 C 1314.45 1275.96 t 0 r /Helvetica findfont 56.3093 sf 0 0 m ( ) show NC gr  0.6 0.2 1 c 3 lw 1219 1266 m 79 X 52 Y -79 X f 6 lw black
 gsave  2268 1103 0 472 C 1779.24 1275.96 t 0 r /Helvetica-Oblique findfont 56.3093 sf 0 0 m (W) show NC gr 
 gsave  2268 1103 0 472 C 1758.52 1275.96 t 0 r /Helvetica-Oblique findfont 56.3093 sf 0 0 m (t) show NC gr  6 lw 1759 1320 m 20 X s
 gsave  2268 1103 0 472 C 1737.79 1275.96 t 0 r /Helvetica-Oblique findfont 56.3093 sf 0 0 m (t) show NC gr 
 gsave  2268 1103 0 472 C 1720.03 1275.96 t 0 r /Helvetica findfont 56.3093 sf 0 0 m ( ) show NC gr  0.54 0.06 0.06 c 3 lw 1626 1266 m 79 X 52 Y -79 X f 6 lw black
 gsave  2268 1103 0 472 C 1332.21 1204.91 t 0 r /Helvetica-Oblique findfont 56.3093 sf 0 0 m (tZq) show NC gr 
 gsave  2268 1103 0 472 C 1314.45 1204.91 t 0 r /Helvetica findfont 56.3093 sf 0 0 m ( ) show NC gr  1 0 1 c 3 lw 1219 1193 m 79 X 51 Y -79 X f black
 gsave  2268 1103 0 472 C 1779.24 1204.91 t 0 r /Helvetica-Oblique findfont 56.3093 sf 0 0 m (H) show NC gr 
 gsave  2268 1103 0 472 C 1758.52 1204.91 t 0 r /Helvetica-Oblique findfont 56.3093 sf 0 0 m (t) show NC gr  6 lw 1759 1249 m 20 X s
 gsave  2268 1103 0 472 C 1737.79 1204.91 t 0 r /Helvetica-Oblique findfont 56.3093 sf 0 0 m (t) show NC gr 
 gsave  2268 1103 0 472 C 1720.03 1204.91 t 0 r /Helvetica findfont 56.3093 sf 0 0 m ( ) show NC gr  0 0 1 c 3 lw 1626 1193 m 79 X 51 Y -79 X f 6 lw black
 gsave  2268 1103 0 472 C 1332.21 1130.9 t 0 r /Helvetica-Oblique findfont 56.3093 sf 0 0 m (tWZ/tWH) show NC gr 
 gsave  2268 1103 0 472 C 1314.45 1130.9 t 0 r /Helvetica findfont 56.3093 sf 0 0 m ( ) show NC gr  0.2 0.8 0.8 c 3 lw 1219 1119 m 79 X 52 Y -79 X f black
 gsave  2268 1103 0 472 C 1737.79 1130.9 t 0 r /Helvetica-Oblique findfont 56.3093 sf 0 0 m (tHq) show NC gr 
 gsave  2268 1103 0 472 C 1720.03 1130.9 t 0 r /Helvetica findfont 56.3093 sf 0 0 m ( ) show NC gr  1 0 0 c 3 lw 1626 1119 m 79 X 52 Y -79 X f black
 gsave  2268 1103 0 472 C 1314.45 1056.89 t 0 r /Helvetica findfont 56.3093 sf 0 0 m ( Other) show NC gr  1 0.84 0 c 3 lw 1219 1046 m 79 X 51 Y -79 X f black
 gsave  2268 1103 0 472 C 1720.03 1056.89 t 0 r /Helvetica findfont 56.3093 sf 0 0 m ( Uncertainty) show NC gr  0.6 0.6 0.6 c 3 lw 1705 1061 m -15 -15 d s 1705 1080 m -34 -34 d s 1703 1097 m -51 -51 d s 1684 1097 m -51 -51 d s 1665 1097 m -39 -39 d s
 1646 1097 m -20 -20 d s 1626 1097 m s 1 0.84 0 c 0.6 0.6 0.6 c black
 gsave  2268 1103 0 472 C 894.061 1329.25 t 0 r /Helvetica findfont 41.4911 sf 0 0 m (\2551) show NC gr 
 gsave  2268 1103 0 472 C 399.663 1299.64 t 0 r /Helvetica findfont 62.2366 sf 0 0 m ( = 13 TeV,  139 fb) show NC gr 
 gsave  2268 1103 0 472 C 370.058 1299.64 t 0 r /Helvetica findfont 62.2366 sf 0 0 m (s) show NC gr  6 lw 349 1335 m 6 -38 d s 3 lw 355 1297 m 6 56 d s 361 1353 m 39 X s
 gsave  2268 1103 0 472 C 337.493 1201.95 t 0 r /Helvetica findfont 62.2366 sf 0 0 m ( 2L\(SS\), SR) show NC gr 
 gsave  2268 1103 0 472 C 337.493 1400.3 t 0 r /Helvetica-BoldOblique findfont 71.1276 sf 0 0 m (ATLAS) show NC gr 
 gsave  2268 1103 0 472 C 633.54 1400.3 t 0 r /Helvetica findfont 71.1276 sf 0 0 m (Internal) show NC gr 
 gr  gr showpage
end
%%EOF
