%!PS-Adobe-2.0 EPSF-2.0
%%BoundingBox:  0 0 567 394
%%Title: : EtMiss_CR1b3jNoZ
%%Creator: ROOT Version 6.20/06
%%CreationDate: Mon May 30 19:26:15 2022
%%DocumentNeededResources: ProcSet (FontSetInit)
%%EndComments
%%BeginProlog
80 dict begin
/s {stroke} def /l {lineto} def /m {moveto} def /t {translate} def
/r {rotate} def /rl {roll}  def /R {repeat} def
/d {rlineto} def /rm {rmoveto} def /gr {grestore} def /f {eofill} def
/c {setrgbcolor} def /black {0 setgray} def /sd {setdash} def
/cl {closepath} def /sf {scalefont setfont} def /lw {setlinewidth} def
/box {m dup 0 exch d exch 0 d 0 exch neg d cl} def
/NC{systemdict begin initclip end}def/C{NC box clip newpath}def
/bl {box s} def /bf {gsave box gsave f grestore 1 lw [] 0 sd s grestore} def /Y { 0 exch d} def /X { 0 d} def 
/K {{pop pop 0 moveto} exch kshow} bind def
/ita {/ang 15 def gsave [1 0 ang dup sin exch cos div 1 0 0] concat} def 
/mp {newpath /y exch def /x exch def} def
/side {[w .77 mul w .23 mul] .385 w mul sd w 0 l currentpoint t -144 r} def
/mr {mp x y w2 0 360 arc} def /m24 {mr s} def /m20 {mr f} def
/mb {mp x y w2 add m w2 neg 0 d 0 w neg d w 0 d 0 w d cl} def
/mt {mp x y w2 add m w2 neg w neg d w 0 d cl} def
/w4 {w 4 div} def
/w6 {w 6 div} def
/w8 {w 8 div} def
/m21 {mb f} def /m25 {mb s} def /m22 {mt f} def /m26{mt s} def
/m23 {mp x y w2 sub m w2 w d w neg 0 d cl f} def
/m27 {mp x y w2 add m w3 neg w2 neg d w3 w2 neg d w3 w2 d cl s} def
/m28 {mp x w2 sub y w2 sub w3 add m w3 0 d  0 w3 neg d w3 0 d 0 w3 d w3 0 d  0 w3 d w3 neg 0 d 0 w3 d w3 neg 0 d 0 w3 neg d w3 neg 0 d cl s } def
/m29 {mp gsave x w2 sub y w2 add w3 sub m currentpoint t 4 {side} repeat cl fill gr} def
/m30 {mp gsave x w2 sub y w2 add w3 sub m currentpoint t 4 {side} repeat cl s gr} def
/m31 {mp x y w2 sub m 0 w d x w2 sub y m w 0 d x w2 sub y w2 add m w w neg d x w2 sub y w2 sub m w w d s} def
/m32 {mp x y w2 sub m w2 w d w neg 0 d cl s} def
/m33 {mp x y w2 add m w3 neg w2 neg d w3 w2 neg d w3 w2 d cl f} def
/m34 {mp x w2 sub y w2 sub w3 add m w3 0 d  0 w3 neg d w3 0 d 0 w3 d w3 0 d  0 w3 d w3 neg 0 d 0 w3 d w3 neg 0 d 0 w3 neg d w3 neg 0 d cl f } def
/m35 {mp x y w2 add m w2 neg w2 neg d w2 w2 neg d w2 w2 d w2 neg w2 d x y w2 sub m 0 w d x w2 sub y m w 0 d s} def
/m36 {mb x w2 sub y w2 add m w w neg d x w2 sub y w2 sub m w w d s} def
/m37 {mp x y m w4 neg w2 d w4 neg w2 neg d w2 0 d  w4 neg w2 neg d w2 0 d w4 neg w2 d w2 0 d w4 neg w2 d w4 neg w2 neg d cl s} def
/m38 {mp x w4 sub y w2 add m w4 neg w4 neg d 0 w2 neg d w4 w4 neg d w2 0 d w4 w4 d 0 w2 d w4 neg w4 d w2 neg 0 d x y w2 sub m 0 w d x w2 sub y m w 0 d cl s} def
/m39 {mp x y m w4 neg w2 d w4 neg w2 neg d w2 0 d  w4 neg w2 neg d w2 0 d w4 neg w2 d w2 0 d w4 neg w2 d w4 neg w2 neg d cl f} def
/m40 {mp x y m w4 w2 d w4 w4 neg d w2 neg w4 neg d w2 w4 neg d w4 neg w4 neg d w4 neg w2 d w4 neg w2 neg d w4 neg w4 d w2 w4 d w2 neg w4 d w4 w4 d w4 w2 neg d cl s} def
/m41 {mp x y m w4 w2 d w4 w4 neg d w2 neg w4 neg d w2 w4 neg d w4 neg w4 neg d w4 neg w2 d w4 neg w2 neg d w4 neg w4 d w2 w4 d w2 neg w4 d w4 w4 d w4 w2 neg d cl f} def
/m42 {mp x y w2 add m w8 neg w2 -3 4 div mul d w2 -3 4 div mul w8 neg d w2 3 4 div mul w8 neg d w8 w2 -3 4 div mul d w8 w2 3 4 div mul d w2 3 4 div mul w8 d w2 -3 4 div mul w8 d w8 neg w2 3 4 div mul d cl s} def
/m43 {mp x y w2 add m w8 neg w2 -3 4 div mul d w2 -3 4 div mul w8 neg d w2 3 4 div mul w8 neg d w8 w2 -3 4 div mul d w8 w2 3 4 div mul d w2 3 4 div mul w8 d w2 -3 4 div mul w8 d w8 neg w2 3 4 div mul d cl f} def
/m44 {mp x y m w6 neg w2 d w2 2 3 div mul 0 d w6 neg w2 neg d w2 w6 d 0 w2 -2 3 div mul d w2 neg w6 d w6 w2 neg d w2 -2 3 div mul 0 d w6 w2 d w2 neg w6 neg d 0 w2 2 3 div mul d w2 w6 neg d cl s} def
/m45 {mp x y m w6 neg w2 d w2 2 3 div mul 0 d w6 neg w2 neg d w2 w6 d 0 w2 -2 3 div mul d w2 neg w6 d w6 w2 neg d w2 -2 3 div mul 0 d w6 w2 d w2 neg w6 neg d 0 w2 2 3 div mul d w2 w6 neg d cl f} def
/m46 {mp x y w4 add m w4 neg w4 d w4 neg w4 neg d  w4 w4 neg d w4 neg w4 neg d w4 w4 neg d w4 w4 d w4 w4 neg d w4 w4 d w4 neg w4 d w4 w4 d w4 neg w4 d w4 neg w4 neg d cl s} def
/m47 {mp x y w4 add m w4 neg w4 d w4 neg w4 neg d w4 w4 neg d w4 neg w4 neg d  w4 w4 neg d w4 w4 d w4 w4 neg d w4 w4 d w4 neg w4 d w4 w4 d w4 neg w4 d w4 neg w4 neg d cl f} def
/m48 {mp x y w4 add m w4 neg w4 d w4 neg w4 neg d w4 w4 neg d  w4 neg w4 neg d w4 w4 neg d w4 w4 d w4 w4 neg d w4 w4 d w4 neg w4 d w4 w4 d w4 neg w4 d w4 neg w4 neg d  w4 w4 neg d w4 neg w4 neg d w4 neg w4 d w4 w4 d cl f} def
/m49 {mp x w2 sub w3 add y w2 sub w3 add m  0 w3 neg d w3 0 d 0 w3 d w3 0 d 0 w3 d w3 neg 0 d 0 w3 d w3 neg 0 d 0 w3 neg d w3 neg 0 d 0 w3 neg d w3 0 d 0 w3 d w3 0 d 0 w3 neg d w3 neg 0 d cl f } def
/m2 {mp x y w2 sub m 0 w d x w2 sub y m w 0 d s} def
/m5 {mp x w2 sub y w2 sub m w w d x w2 sub y w2 add m w w neg d s} def
%%IncludeResource: ProcSet (FontSetInit)
%%IncludeResource: font Times-Roman
%%IncludeResource: font Times-Italic
%%IncludeResource: font Times-Bold
%%IncludeResource: font Times-BoldItalic
%%IncludeResource: font Helvetica
%%IncludeResource: font Helvetica-Oblique
%%IncludeResource: font Helvetica-Bold
%%IncludeResource: font Helvetica-BoldOblique
%%IncludeResource: font Courier
%%IncludeResource: font Courier-Oblique
%%IncludeResource: font Courier-Bold
%%IncludeResource: font Courier-BoldOblique
%%IncludeResource: font Symbol
%%IncludeResource: font ZapfDingbats
/reEncode {exch findfont dup length dict begin {1 index /FID eq  {pop pop} {def} ifelse } forall /Encoding exch def currentdict end dup /FontName get exch definefont pop } def [/Times-Bold /Times-Italic /Times-BoldItalic /Helvetica /Helvetica-Oblique
 /Helvetica-Bold /Helvetica-BoldOblique /Courier /Courier-Oblique /Courier-Bold /Courier-BoldOblique /Times-Roman /AvantGarde-Book /AvantGarde-BookOblique /AvantGarde-Demi /AvantGarde-DemiOblique /Bookman-Demi /Bookman-DemiItalic /Bookman-Light
 /Bookman-LightItalic /Helvetica-Narrow /Helvetica-Narrow-Bold /Helvetica-Narrow-BoldOblique /Helvetica-Narrow-Oblique /NewCenturySchlbk-Roman /NewCenturySchlbk-Bold /NewCenturySchlbk-BoldItalic /NewCenturySchlbk-Italic /Palatino-Bold
 /Palatino-BoldItalic /Palatino-Italic /Palatino-Roman ] {ISOLatin1Encoding reEncode } forall
%%EndProlog
%%BeginSetup
%%EndSetup
newpath  gsave  .25 .25 scale  gsave  0 0 t black[  ] 0 sd 3 lw 1 1 1 c 2268 1575 0 0 bf black 1 1 1 c 2268 472 0 0 bf black 1 1 1 c 1927 274 227 189 bf black 1927 274 227 189 bl 227 189 m 1927 X s 227 201 m -12 Y s 291 195 m -6 Y s 355 195 m -6 Y s
 420 195 m -6 Y s 484 195 m -6 Y s 548 201 m -12 Y s 612 195 m -6 Y s 677 195 m -6 Y s 741 195 m -6 Y s 805 195 m -6 Y s 869 201 m -12 Y s 934 195 m -6 Y s 998 195 m -6 Y s 1062 195 m -6 Y s 1126 195 m -6 Y s 1191 201 m -12 Y s 1255 195 m -6 Y s 1319
 195 m -6 Y s 1383 195 m -6 Y s 1448 195 m -6 Y s 1512 201 m -12 Y s 1576 195 m -6 Y s 1640 195 m -6 Y s 1705 195 m -6 Y s 1769 195 m -6 Y s 1833 201 m -12 Y s 1897 195 m -6 Y s 1962 195 m -6 Y s 2026 195 m -6 Y s 2090 195 m -6 Y s 2154 201 m -12 Y s
 gsave  2268 472 0 0 C 210.193 127.3 t 0 r /Helvetica findfont 53.4895 sf 0 0 m (0) show NC gr 
 gsave  2268 472 0 0 C 518.081 127.3 t 0 r /Helvetica findfont 53.4895 sf 0 0 m (50) show NC gr 
 gsave  2268 472 0 0 C 823.009 127.3 t 0 r /Helvetica findfont 53.4895 sf 0 0 m (100) show NC gr 
 gsave  2268 472 0 0 C 1145.7 127.3 t 0 r /Helvetica findfont 53.4895 sf 0 0 m (150) show NC gr 
 gsave  2268 472 0 0 C 1465.43 127.3 t 0 r /Helvetica findfont 53.4895 sf 0 0 m (200) show NC gr 
 gsave  2268 472 0 0 C 1788.12 127.3 t 0 r /Helvetica findfont 53.4895 sf 0 0 m (250) show NC gr 
 gsave  2268 472 0 0 C 2107.85 127.3 t 0 r /Helvetica findfont 53.4895 sf 0 0 m (300) show NC gr 
 gsave  2268 472 0 0 C 1995.35 41.4465 t 0 r /Helvetica findfont 56.4611 sf 0 0 m ( [GeV]) show NC gr 
 gsave  2268 472 0 0 C 1915.42 68.0907 t 0 r /Helvetica findfont 38.6313 sf 0 0 m (miss) show NC gr 
 gsave  2268 472 0 0 C 1915.42 23.6837 t 0 r /Helvetica findfont 38.6313 sf 0 0 m (T) show NC gr 
 gsave  2268 472 0 0 C 1871.01 41.4465 t 0 r /Helvetica-Oblique findfont 56.4611 sf 0 0 m (E) show NC gr  227 463 m 1927 X s 227 451 m 12 Y s 291 457 m 6 Y s 355 457 m 6 Y s 420 457 m 6 Y s 484 457 m 6 Y s 548 451 m 12 Y s 612 457 m 6 Y s 677 457 m 6
 Y s 741 457 m 6 Y s 805 457 m 6 Y s 869 451 m 12 Y s 934 457 m 6 Y s 998 457 m 6 Y s 1062 457 m 6 Y s 1126 457 m 6 Y s 1191 451 m 12 Y s 1255 457 m 6 Y s 1319 457 m 6 Y s 1383 457 m 6 Y s 1448 457 m 6 Y s 1512 451 m 12 Y s 1576 457 m 6 Y s 1640 457
 m 6 Y s 1705 457 m 6 Y s 1769 457 m 6 Y s 1833 451 m 12 Y s 1897 457 m 6 Y s 1962 457 m 6 Y s 2026 457 m 6 Y s 2090 457 m 6 Y s 2154 451 m 12 Y s 227 189 m 274 Y s 240 240 m -13 X s 240 326 m -13 X s 240 412 m -13 X s 240 240 m -13 X s 240 412 m -13
 X s
 gsave  2268 472 0 0 C 118.419 222.035 t 0 r /Helvetica findfont 53.4895 sf 0 0 m (0.5) show NC gr 
 gsave  2268 472 0 0 C 171.707 307.888 t 0 r /Helvetica findfont 53.4895 sf 0 0 m (1) show NC gr 
 gsave  2268 472 0 0 C 118.419 393.742 t 0 r /Helvetica findfont 53.4895 sf 0 0 m (1.5) show NC gr 
 gsave  2268 472 0 0 C 71.0512 230.916 t 90 r /Helvetica findfont 53.4895 sf 0 0 m (Data / SM) show NC gr  2154 189 m 274 Y s 2141 240 m 13 X s 2141 326 m 13 X s 2141 412 m 13 X s 2141 240 m 13 X s 2141 412 m 13 X s 227 189 m 1927 X s 227 463 m 1927
 X s 227 189 m 274 Y s[ 4 8] 0 sd 2154 240 m -1927 X s 2154 326 m -1927 X s 2154 412 m -1927 X s 2154 240 m -1927 X s 2154 412 m -1927 X s[  ] 0 sd 2154 189 m 274 Y s 1 1 0.6 c 193 0 227 326 bf 192 0 420 326 bf 193 0 612 326 bf 193 0 805 326 bf 193 0
 998 326 bf 192 0 1191 326 bf 193 0 1383 326 bf 193 0 1576 326 bf 193 0 1769 326 bf 192 0 1962 326 bf black 0.6 0.6 0.6 c 420 325 m -10 -10 d s 413 337 m -22 -22 d s 394 337 m -23 -22 d s 375 337 m -23 -22 d s 355 337 m -22 -22 d s 336 337 m -22 -22
 d s 317 337 m -23 -22 d s 298 337 m -23 -22 d s 278 337 m -22 -22 d s 259 337 m -22 -22 d s 240 337 m -13 -13 d s 612 325 m -5 -5 d s 600 332 m -12 -12 d s 581 332 m -12 -12 d s 562 332 m -13 -12 d s 543 332 m -13 -12 d s 524 332 m -13 -12 d s 504
 332 m -12 -12 d s 485 332 m -13 -12 d s 466 332 m -13 -12 d s 447 332 m -13 -12 d s 427 332 m -7 -7 d s 805 325 m -4 -4 d s 792 331 m -11 -10 d s 773 331 m -11 -10 d s 753 331 m -10 -10 d s 734 331 m -10 -10 d s 715 331 m -11 -10 d s 696 331 m -11
 -10 d s 676 331 m -10 -10 d s 657 331 m -10 -10 d s 638 331 m -10 -10 d s 619 331 m -7 -6 d s 998 326 m -8 -8 d s 987 334 m -16 -16 d s 968 334 m -16 -16 d s 948 334 m -15 -16 d s 929 334 m -16 -16 d s 910 334 m -16 -16 d s 891 334 m -16 -16 d s 872
 334 m -16 -16 d s 852 334 m -16 -16 d s 833 334 m -16 -16 d s 814 334 m -9 -9 d s 1191 326 m -10 -9 d s 1181 335 m -19 -18 d s 1161 335 m -18 -18 d s 1142 335 m -18 -18 d s 1123 335 m -18 -18 d s 1104 335 m -19 -18 d s 1084 335 m -18 -18 d s 1065
 335 m -18 -18 d s 1046 335 m -18 -18 d s 1027 335 m -19 -18 d s 1007 335 m -9 -9 d s 1383 326 m -12 -12 d s 1376 338 m -24 -24 d s 1357 338 m -24 -24 d s 1337 338 m -23 -24 d s 1318 338 m -24 -24 d s 1299 338 m -24 -24 d s 1280 338 m -24 -24 d s
 1260 338 m -23 -24 d s 1241 338 m -24 -24 d s 1222 338 m -24 -24 d s 1203 338 m -12 -12 d s 1576 307 m -2 -2 d s 1576 327 m -21 -22 d s 1576 346 m -41 -41 d s 1558 347 m -42 -42 d s 1539 347 m -42 -42 d s 1519 347 m -41 -42 d s 1500 347 m -41 -42 d
 s 1481 347 m -42 -42 d s 1462 347 m -42 -42 d s 1442 347 m -41 -42 d s 1423 347 m -40 -40 d s 1404 347 m -21 -21 d s 1385 347 m -2 -1 d s 1769 308 m -2 -2 d s 1769 327 m -21 -21 d s 1769 346 m -40 -40 d s 1749 346 m -39 -40 d s 1730 346 m -40 -40 d
 s 1711 346 m -40 -40 d s 1692 346 m -40 -40 d s 1672 346 m -39 -40 d s 1653 346 m -40 -40 d s 1634 346 m -40 -40 d s 1615 346 m -39 -39 d s 1595 346 m -19 -19 d s 1576 346 m s 1962 308 m -12 -11 d s 1962 327 m -31 -30 d s 1962 347 m -50 -50 d s 1951
 355 m -58 -58 d s 1932 355 m -58 -58 d s 1913 355 m -59 -58 d s 1893 355 m -58 -58 d s 1874 355 m -58 -58 d s 1855 355 m -58 -58 d s 1836 355 m -59 -58 d s 1816 355 m -47 -47 d s 1797 355 m -28 -28 d s 1778 355 m -9 -9 d s 2154 328 m -12 -13 d s
 2144 337 m -21 -22 d s 2125 337 m -22 -22 d s 2106 337 m -22 -22 d s 2087 337 m -22 -22 d s 2067 337 m -21 -22 d s 2048 337 m -22 -22 d s 2029 337 m -22 -22 d s 2010 337 m -22 -22 d s 1990 337 m -21 -22 d s 1971 337 m -9 -10 d s black 1 1 1 c black
 323 339 m 12 Y s 323 374 m 12 Y s /w 26 def /w2 {w 2 div} def /w3 {w 3 div} def 323 363 m20 516 295 m 2 Y s 516 321 m 2 Y s 516 309 m20 709 330 m 7 Y s 709 361 m 7 Y s 709 349 m20 901 364 m 17 Y s 901 404 m 17 Y s 901 392 m20 1094 315 m 25 Y s 1094
 364 m 25 Y s 1094 352 m20 1480 278 m 50 Y s 1480 352 m 50 Y s 1480 340 m20 1672 221 m 78 Y s 1672 323 m 78 Y s 1672 311 m20 1865 272 m 148 Y s 1865 444 m 19 Y s 1865 432 m20 2058 189 m 37 Y s 2058 250 m 47 Y s 2058 238 m20 227 326 m 1927 X s 227 189
 m 1927 X s 227 201 m -12 Y s 291 195 m -6 Y s 355 195 m -6 Y s 420 195 m -6 Y s 484 195 m -6 Y s 548 201 m -12 Y s 612 195 m -6 Y s 677 195 m -6 Y s 741 195 m -6 Y s 805 195 m -6 Y s 869 201 m -12 Y s 934 195 m -6 Y s 998 195 m -6 Y s 1062 195 m -6
 Y s 1126 195 m -6 Y s 1191 201 m -12 Y s 1255 195 m -6 Y s 1319 195 m -6 Y s 1383 195 m -6 Y s 1448 195 m -6 Y s 1512 201 m -12 Y s 1576 195 m -6 Y s 1640 195 m -6 Y s 1705 195 m -6 Y s 1769 195 m -6 Y s 1833 201 m -12 Y s 1897 195 m -6 Y s 1962 195
 m -6 Y s 2026 195 m -6 Y s 2090 195 m -6 Y s 2154 201 m -12 Y s 227 463 m 1927 X s 227 451 m 12 Y s 291 457 m 6 Y s 355 457 m 6 Y s 420 457 m 6 Y s 484 457 m 6 Y s 548 451 m 12 Y s 612 457 m 6 Y s 677 457 m 6 Y s 741 457 m 6 Y s 805 457 m 6 Y s 869
 451 m 12 Y s 934 457 m 6 Y s 998 457 m 6 Y s 1062 457 m 6 Y s 1126 457 m 6 Y s 1191 451 m 12 Y s 1255 457 m 6 Y s 1319 457 m 6 Y s 1383 457 m 6 Y s 1448 457 m 6 Y s 1512 451 m 12 Y s 1576 457 m 6 Y s 1640 457 m 6 Y s 1705 457 m 6 Y s 1769 457 m 6 Y
 s 1833 451 m 12 Y s 1897 457 m 6 Y s 1962 457 m 6 Y s 2026 457 m 6 Y s 2090 457 m 6 Y s 2154 451 m 12 Y s 227 189 m 274 Y s 240 240 m -13 X s 240 326 m -13 X s 240 412 m -13 X s 240 240 m -13 X s 240 412 m -13 X s 2154 189 m 274 Y s 2141 240 m 13 X
 s 2141 326 m 13 X s 2141 412 m 13 X s 2141 240 m 13 X s 2141 412 m 13 X s 1 1 1 c 2268 1103 0 472 bf black 1 1 1 c 1927 1036 227 484 bf black 1927 1036 227 484 bl 1 1 1 c black 3 lw 227 484 m 1927 X s 227 502 m -18 Y s 291 493 m -9 Y s 355 493 m -9
 Y s 420 493 m -9 Y s 484 493 m -9 Y s 548 502 m -18 Y s 612 493 m -9 Y s 677 493 m -9 Y s 741 493 m -9 Y s 805 493 m -9 Y s 869 502 m -18 Y s 934 493 m -9 Y s 998 493 m -9 Y s 1062 493 m -9 Y s 1126 493 m -9 Y s 1191 502 m -18 Y s 1255 493 m -9 Y s
 1319 493 m -9 Y s 1383 493 m -9 Y s 1448 493 m -9 Y s 1512 502 m -18 Y s 1576 493 m -9 Y s 1640 493 m -9 Y s 1705 493 m -9 Y s 1769 493 m -9 Y s 1833 502 m -18 Y s 1897 493 m -9 Y s 1962 493 m -9 Y s 2026 493 m -9 Y s 2090 493 m -9 Y s 2154 502 m
 -18 Y s
 gsave  2268 1103 0 472 C 2069.37 396.702 t 0 r /Helvetica findfont 29.6365 sf 0 0 m ( [GeV]) show NC gr 
 gsave  2268 1103 0 472 C 2024.96 414.465 t 0 r /Helvetica findfont 20.7455 sf 0 0 m (miss) show NC gr 
 gsave  2268 1103 0 472 C 2024.96 387.821 t 0 r /Helvetica findfont 20.7455 sf 0 0 m (T) show NC gr 
 gsave  2268 1103 0 472 C 2001.27 396.702 t 0 r /Helvetica-Oblique findfont 29.6365 sf 0 0 m (E) show NC gr  227 1520 m 1927 X s 227 1501 m 19 Y s 291 1510 m 10 Y s 355 1510 m 10 Y s 420 1510 m 10 Y s 484 1510 m 10 Y s 548 1501 m 19 Y s 612 1510 m 10
 Y s 677 1510 m 10 Y s 741 1510 m 10 Y s 805 1510 m 10 Y s 869 1501 m 19 Y s 934 1510 m 10 Y s 998 1510 m 10 Y s 1062 1510 m 10 Y s 1126 1510 m 10 Y s 1191 1501 m 19 Y s 1255 1510 m 10 Y s 1319 1510 m 10 Y s 1383 1510 m 10 Y s 1448 1510 m 10 Y s 1512
 1501 m 19 Y s 1576 1510 m 10 Y s 1640 1510 m 10 Y s 1705 1510 m 10 Y s 1769 1510 m 10 Y s 1833 1501 m 19 Y s 1897 1510 m 10 Y s 1962 1510 m 10 Y s 2026 1510 m 10 Y s 2090 1510 m 10 Y s 2154 1501 m 19 Y s 227 484 m 1036 Y s 248 638 m -21 X s 237 668
 m -10 X s 237 699 m -10 X s 237 730 m -10 X s 237 761 m -10 X s 248 792 m -21 X s 237 823 m -10 X s 237 853 m -10 X s 237 884 m -10 X s 237 915 m -10 X s 248 946 m -21 X s 237 977 m -10 X s 237 1008 m -10 X s 237 1038 m -10 X s 237 1069 m -10 X s
 248 1100 m -21 X s 237 1131 m -10 X s 237 1162 m -10 X s 237 1193 m -10 X s 237 1223 m -10 X s 248 1254 m -21 X s 237 1285 m -10 X s 237 1316 m -10 X s 237 1347 m -10 X s 237 1378 m -10 X s 248 1408 m -21 X s 248 638 m -21 X s 237 607 m -10 X s 237
 576 m -10 X s 237 545 m -10 X s 237 514 m -10 X s 248 1408 m -21 X s 237 1439 m -10 X s 237 1470 m -10 X s 237 1501 m -10 X s
 gsave  2268 1103 0 472 C 145.063 618.737 t 0 r /Helvetica findfont 50.382 sf 0 0 m (50) show NC gr 
 gsave  2268 1103 0 472 C 118.419 772.682 t 0 r /Helvetica findfont 50.382 sf 0 0 m (100) show NC gr 
 gsave  2268 1103 0 472 C 118.419 926.626 t 0 r /Helvetica findfont 50.382 sf 0 0 m (150) show NC gr 
 gsave  2268 1103 0 472 C 118.419 1080.57 t 0 r /Helvetica findfont 50.382 sf 0 0 m (200) show NC gr 
 gsave  2268 1103 0 472 C 118.419 1234.51 t 0 r /Helvetica findfont 50.382 sf 0 0 m (250) show NC gr 
 gsave  2268 1103 0 472 C 118.419 1388.46 t 0 r /Helvetica findfont 50.382 sf 0 0 m (300) show NC gr 
 gsave  2268 1103 0 472 C 62.1698 1154.58 t 90 r /Helvetica findfont 50.382 sf 0 0 m (Events / 30 GeV) show NC gr  2154 484 m 1036 Y s 2133 638 m 21 X s 2144 668 m 10 X s 2144 699 m 10 X s 2144 730 m 10 X s 2144 761 m 10 X s 2133 792 m 21 X s 2144
 823 m 10 X s 2144 853 m 10 X s 2144 884 m 10 X s 2144 915 m 10 X s 2133 946 m 21 X s 2144 977 m 10 X s 2144 1008 m 10 X s 2144 1038 m 10 X s 2144 1069 m 10 X s 2133 1100 m 21 X s 2144 1131 m 10 X s 2144 1162 m 10 X s 2144 1193 m 10 X s 2144 1223 m
 10 X s 2133 1254 m 21 X s 2144 1285 m 10 X s 2144 1316 m 10 X s 2144 1347 m 10 X s 2144 1378 m 10 X s 2133 1408 m 21 X s 2133 638 m 21 X s 2144 607 m 10 X s 2144 576 m 10 X s 2144 545 m 10 X s 2144 514 m 10 X s 2133 1408 m 21 X s 2144 1439 m 10 X s
 2144 1470 m 10 X s 2144 1501 m 10 X s 0.06 0.54 0.06 c black 3 lw 0.06 0.54 0.06 c 227 484 m 193 Y 193 X 221 Y 192 X -137 Y 193 X -126 Y 193 X -77 Y 193 X -37 Y 192 X -12 Y 193 X -15 Y 193 X -5 Y 193 X 7 Y 192 X -12 Y f 1 0.653333 0 c 0.999 0.999
 0.999 c black 3 lw 0.999 0.999 0.999 c 227 484 m 88 Y 193 X 101 Y 192 X -62 Y 193 X -50 Y 193 X -35 Y 193 X -21 Y 192 X -6 Y 193 X -8 Y 193 X -4 Y 193 X 5 Y 192 X -8 Y f 1 0.653333 0 c 0.999 0.999 0.999 c 1 0.653333 0 c 1 1 1 c black 1 0.653333 0 c
 black 3 lw 1 0.653333 0 c 227 484 m 88 Y 193 X 101 Y 192 X -62 Y 193 X -50 Y 193 X -35 Y 193 X -21 Y 192 X -6 Y 193 X -8 Y 193 X -4 Y 193 X 5 Y 192 X -8 Y f 0.413333 1 0 c 0.999 0.999 0.999 c black 3 lw 0.999 0.999 0.999 c 227 484 m 81 Y 193 X 80 Y
 192 X -35 Y 193 X -52 Y 193 X -32 Y 193 X -21 Y 192 X -9 Y 193 X -5 Y 193 X -4 Y 193 X 5 Y 192 X -8 Y f 0.413333 1 0 c 0.999 0.999 0.999 c 0.413333 1 0 c 1 1 1 c black 0.413333 1 0 c black 3 lw 0.413333 1 0 c 227 484 m 81 Y 193 X 80 Y 192 X -35 Y
 193 X -52 Y 193 X -32 Y 193 X -21 Y 192 X -9 Y 193 X -5 Y 193 X -4 Y 193 X 5 Y 192 X -8 Y f 0.6 0.2 1 c 0.999 0.999 0.999 c black 3 lw 0.999 0.999 0.999 c 227 484 m 42 Y 193 X 52 Y 192 X -7 Y 193 X -30 Y 193 X -24 Y 193 X -16 Y 192 X -8 Y 193 X -4 Y
 193 X -2 Y 193 X 3 Y 192 X -6 Y f 0.6 0.2 1 c 0.999 0.999 0.999 c 0.6 0.2 1 c 1 1 1 c black 0.6 0.2 1 c black 3 lw 0.6 0.2 1 c 227 484 m 42 Y 193 X 52 Y 192 X -7 Y 193 X -30 Y 193 X -24 Y 193 X -16 Y 192 X -8 Y 193 X -4 Y 193 X -2 Y 193 X 3 Y 192 X
 -6 Y f 0.54 0.06 0.06 c 0.999 0.999 0.999 c black 3 lw 0.999 0.999 0.999 c 227 484 m 38 Y 193 X 46 Y 192 X -5 Y 193 X -27 Y 193 X -22 Y 193 X -15 Y 192 X -7 Y 193 X -3 Y 193 X -3 Y 193 X 3 Y 192 X -5 Y f 0.54 0.06 0.06 c 0.999 0.999 0.999 c 0.54
 0.06 0.06 c 1 1 1 c black 0.54 0.06 0.06 c black 3 lw 0.54 0.06 0.06 c 227 484 m 38 Y 193 X 46 Y 192 X -5 Y 193 X -27 Y 193 X -22 Y 193 X -15 Y 192 X -7 Y 193 X -3 Y 193 X -3 Y 193 X 3 Y 192 X -5 Y f 1 0 1 c 0.999 0.999 0.999 c black 3 lw 0.999
 0.999 0.999 c 227 484 m 13 Y 193 X 16 Y 192 X -6 Y 193 X -8 Y 193 X -8 Y 193 X -5 Y 192 X -1 Y 193 X -1 Y 578 X f 1 0 1 c 0.999 0.999 0.999 c 1 0 1 c 1 1 1 c black 1 0 1 c black 3 lw 1 0 1 c 227 484 m 13 Y 193 X 16 Y 192 X -6 Y 193 X -8 Y 193 X -8 Y
 193 X -5 Y 192 X -1 Y 193 X -1 Y 578 X f 0 0 1 c 0.999 0.999 0.999 c black 3 lw 0.999 0.999 0.999 c 227 484 m 4 Y 193 X 7 Y 192 X -1 Y 193 X -2 Y 193 X -4 Y 193 X -3 Y 192 X -1 Y 771 X f 0 0 1 c 0.999 0.999 0.999 c 0 0 1 c 1 1 1 c black 0 0 1 c
 black 3 lw 0 0 1 c 227 484 m 4 Y 193 X 7 Y 192 X -1 Y 193 X -2 Y 193 X -4 Y 193 X -3 Y 192 X -1 Y 771 X f 0.2 0.8 0.8 c 0.999 0.999 0.999 c black 3 lw 0.999 0.999 0.999 c 227 484 m 2 Y 193 X 4 Y 192 X -1 Y 386 X -3 Y 193 X -2 Y 963 X f 0.2 0.8 0.8 c
 0.999 0.999 0.999 c 0.2 0.8 0.8 c 1 1 1 c black 0.2 0.8 0.8 c black 3 lw 0.2 0.8 0.8 c 227 484 m 2 Y 193 X 4 Y 192 X -1 Y 386 X -3 Y 193 X -2 Y 963 X f 1 0 0 c 0.999 0.999 0.999 c black 3 lw 0.999 0.999 0.999 c 227 484 m 193 X 4 Y 192 X -1 Y 386 X
 -2 Y 193 X -1 Y 963 X f 1 0 0 c 0.999 0.999 0.999 c 1 0 0 c 1 1 1 c black 1 0 0 c black 3 lw 1 0 0 c 227 484 m 193 X 4 Y 192 X -1 Y 386 X -2 Y 193 X -1 Y 963 X f 1 0.84 0 c 0.999 0.999 0.999 c black 3 lw 0.999 0.999 0.999 c 227 484 m 193 X 2 Y 385 X
 1 Y 193 X -2 Y 193 X -1 Y 963 X f 1 0.84 0 c 0.999 0.999 0.999 c 1 0.84 0 c 1 1 1 c black 1 0.84 0 c black 3 lw 1 0.84 0 c 227 484 m 193 X 2 Y 385 X 1 Y 193 X -2 Y 193 X -1 Y 963 X f black 1 1 1 c black 0.6 0.6 0.6 c 3 lw 420 680 m -17 -16 d s 410
 689 m -26 -25 d s 390 689 m -25 -25 d s 371 689 m -25 -25 d s 352 689 m -26 -25 d s 333 689 m -26 -25 d s 313 689 m -25 -25 d s 294 689 m -25 -25 d s 275 689 m -26 -25 d s 256 689 m -26 -25 d s 236 689 m -9 -9 d s 3 lw 612 892 m -9 -9 d s 612 911 m
 -28 -28 d s 596 913 m -31 -30 d s 576 913 m -30 -30 d s 557 913 m -31 -30 d s 538 913 m -31 -30 d s 519 913 m -31 -30 d s 499 913 m -30 -30 d s 480 913 m -31 -30 d s 461 913 m -31 -30 d s 442 913 m -22 -22 d s 422 913 m -2 -2 d s 3 lw 805 758 m -5
 -5 d s 798 769 m -17 -16 d s 778 769 m -16 -16 d s 759 769 m -17 -16 d s 740 769 m -17 -16 d s 721 769 m -17 -16 d s 702 769 m -17 -16 d s 682 769 m -17 -16 d s 663 769 m -17 -16 d s 644 769 m -17 -16 d s 625 769 m -13 -12 d s 3 lw 997 642 m -14 -14
 d s 978 642 m -15 -14 d s 958 642 m -14 -14 d s 939 642 m -14 -14 d s 920 642 m -14 -14 d s 901 642 m -15 -14 d s 881 642 m -14 -14 d s 862 642 m -14 -14 d s 843 642 m -14 -14 d s 824 642 m -14 -14 d s 3 lw 1187 563 m -8 -9 d s 1168 563 m -8 -9 d s
 1149 563 m -9 -9 d s 1129 563 m -8 -9 d s 1110 563 m -8 -9 d s 1091 563 m -8 -9 d s 1072 563 m -9 -9 d s 1052 563 m -8 -9 d s 1033 563 m -8 -9 d s 1014 563 m -8 -9 d s 3 lw 1379 524 m -5 -5 d s 1360 524 m -5 -5 d s 1341 524 m -5 -5 d s 1322 524 m -6
 -5 d s 1302 524 m -5 -5 d s 1283 524 m -5 -5 d s 1264 524 m -5 -5 d s 1245 524 m -6 -5 d s 1225 524 m -5 -5 d s 1206 524 m -5 -5 d s 3 lw 1576 509 m -3 -3 d s 1560 512 m -6 -6 d s 1541 512 m -7 -6 d s 1521 512 m -6 -6 d s 1502 512 m -6 -6 d s 1483
 512 m -6 -6 d s 1464 512 m -7 -6 d s 1444 512 m -6 -6 d s 1425 512 m -6 -6 d s 1406 512 m -6 -6 d s 1387 512 m -4 -3 d s 3 lw 1754 495 m -2 -3 d s 1735 495 m -2 -3 d s 1716 495 m -3 -3 d s 1696 495 m -2 -3 d s 1677 495 m -2 -3 d s 1658 495 m -2 -3 d
 s 1639 495 m -3 -3 d s 1619 495 m -2 -3 d s 1600 495 m -2 -3 d s 1581 495 m -2 -3 d s 3 lw 1961 490 m -2 -2 d s 1942 490 m -2 -2 d s 1923 490 m -2 -2 d s 1903 490 m -2 -2 d s 1884 490 m -2 -2 d s 1865 490 m -2 -2 d s 1846 490 m -2 -2 d s 1826 490 m
 -1 -2 d s 1807 490 m -2 -2 d s 1788 490 m -2 -2 d s 3 lw 2141 497 m -1 -2 d s 2122 497 m -2 -2 d s 2103 497 m -2 -2 d s 2083 497 m -1 -2 d s 2064 497 m -1 -2 d s 2045 497 m -2 -2 d s 2026 497 m -2 -2 d s 2006 497 m -1 -2 d s 1987 497 m -1 -2 d s
 1968 497 m -2 -2 d s black 3 lw 1 1 1 c black 323 691 m 15 Y s 323 730 m 15 Y s /w 24 def /w2 {w 2 div} def /w3 {w 3 div} def 323 718 m20 516 823 m 22 Y s 516 868 m 22 Y s 516 857 m20 709 767 m 19 Y s 709 810 m 19 Y s 709 798 m20 901 668 m 13 Y s
 901 705 m 14 Y s 901 693 m20 1094 553 m 5 Y s 1094 582 m 4 Y s 1094 570 m20 1287 542 m 4 Y s 1287 569 m 4 Y s 1287 557 m20 1480 511 m20 1672 493 m20 1865 493 m20 2058 490 m20 227 484 m 1927 X s 227 502 m -18 Y s 291 493 m -9 Y s 355 493 m -9 Y s 420
 493 m -9 Y s 484 493 m -9 Y s 548 502 m -18 Y s 612 493 m -9 Y s 677 493 m -9 Y s 741 493 m -9 Y s 805 493 m -9 Y s 869 502 m -18 Y s 934 493 m -9 Y s 998 493 m -9 Y s 1062 493 m -9 Y s 1126 493 m -9 Y s 1191 502 m -18 Y s 1255 493 m -9 Y s 1319 493
 m -9 Y s 1383 493 m -9 Y s 1448 493 m -9 Y s 1512 502 m -18 Y s 1576 493 m -9 Y s 1640 493 m -9 Y s 1705 493 m -9 Y s 1769 493 m -9 Y s 1833 502 m -18 Y s 1897 493 m -9 Y s 1962 493 m -9 Y s 2026 493 m -9 Y s 2090 493 m -9 Y s 2154 502 m -18 Y s 227
 1520 m 1927 X s 227 1501 m 19 Y s 291 1510 m 10 Y s 355 1510 m 10 Y s 420 1510 m 10 Y s 484 1510 m 10 Y s 548 1501 m 19 Y s 612 1510 m 10 Y s 677 1510 m 10 Y s 741 1510 m 10 Y s 805 1510 m 10 Y s 869 1501 m 19 Y s 934 1510 m 10 Y s 998 1510 m 10 Y s
 1062 1510 m 10 Y s 1126 1510 m 10 Y s 1191 1501 m 19 Y s 1255 1510 m 10 Y s 1319 1510 m 10 Y s 1383 1510 m 10 Y s 1448 1510 m 10 Y s 1512 1501 m 19 Y s 1576 1510 m 10 Y s 1640 1510 m 10 Y s 1705 1510 m 10 Y s 1769 1510 m 10 Y s 1833 1501 m 19 Y s
 1897 1510 m 10 Y s 1962 1510 m 10 Y s 2026 1510 m 10 Y s 2090 1510 m 10 Y s 2154 1501 m 19 Y s 227 484 m 1036 Y s 248 638 m -21 X s 237 668 m -10 X s 237 699 m -10 X s 237 730 m -10 X s 237 761 m -10 X s 248 792 m -21 X s 237 823 m -10 X s 237 853 m
 -10 X s 237 884 m -10 X s 237 915 m -10 X s 248 946 m -21 X s 237 977 m -10 X s 237 1008 m -10 X s 237 1038 m -10 X s 237 1069 m -10 X s 248 1100 m -21 X s 237 1131 m -10 X s 237 1162 m -10 X s 237 1193 m -10 X s 237 1223 m -10 X s 248 1254 m -21 X
 s 237 1285 m -10 X s 237 1316 m -10 X s 237 1347 m -10 X s 237 1378 m -10 X s 248 1408 m -21 X s 248 638 m -21 X s 237 607 m -10 X s 237 576 m -10 X s 237 545 m -10 X s 237 514 m -10 X s 248 1408 m -21 X s 237 1439 m -10 X s 237 1470 m -10 X s 237
 1501 m -10 X s 2154 484 m 1036 Y s 2133 638 m 21 X s 2144 668 m 10 X s 2144 699 m 10 X s 2144 730 m 10 X s 2144 761 m 10 X s 2133 792 m 21 X s 2144 823 m 10 X s 2144 853 m 10 X s 2144 884 m 10 X s 2144 915 m 10 X s 2133 946 m 21 X s 2144 977 m 10 X
 s 2144 1008 m 10 X s 2144 1038 m 10 X s 2144 1069 m 10 X s 2133 1100 m 21 X s 2144 1131 m 10 X s 2144 1162 m 10 X s 2144 1193 m 10 X s 2144 1223 m 10 X s 2133 1254 m 21 X s 2144 1285 m 10 X s 2144 1316 m 10 X s 2144 1347 m 10 X s 2144 1378 m 10 X s
 2133 1408 m 21 X s 2133 638 m 21 X s 2144 607 m 10 X s 2144 576 m 10 X s 2144 545 m 10 X s 2144 514 m 10 X s 2133 1408 m 21 X s 2144 1439 m 10 X s 2144 1470 m 10 X s 2144 1501 m 10 X s
 gsave  2268 1103 0 472 C 1314.45 1423.98 t 0 r /Helvetica findfont 56.3093 sf 0 0 m ( Data) show NC gr  1259 1451 m 10 Y s 1259 1427 m -10 Y s 1259 1439 m20
 gsave  2268 1103 0 472 C 1808.84 1423.98 t 0 r /Helvetica findfont 56.3093 sf 0 0 m (single\255top) show NC gr 
 gsave  2268 1103 0 472 C 1779.24 1423.98 t 0 r /Helvetica-Oblique findfont 56.3093 sf 0 0 m (/) show NC gr 
 gsave  2268 1103 0 472 C 1758.52 1423.98 t 0 r /Helvetica-Oblique findfont 56.3093 sf 0 0 m (t) show NC gr  6 lw 1759 1468 m 20 X s
 gsave  2268 1103 0 472 C 1737.79 1423.98 t 0 r /Helvetica-Oblique findfont 56.3093 sf 0 0 m (t) show NC gr 
 gsave  2268 1103 0 472 C 1720.03 1423.98 t 0 r /Helvetica findfont 56.3093 sf 0 0 m ( ) show NC gr  0.06 0.54 0.06 c 3 lw 1626 1413 m 79 X 52 Y -79 X f 6 lw black
 gsave  2268 1103 0 472 C 1444.71 1349.97 t 0 r /Helvetica findfont 56.3093 sf 0 0 m (+jets) show NC gr 
 gsave  2268 1103 0 472 C 1332.21 1349.97 t 0 r /Helvetica-Oblique findfont 56.3093 sf 0 0 m (W/Z) show NC gr 
 gsave  2268 1103 0 472 C 1314.45 1349.97 t 0 r /Helvetica findfont 56.3093 sf 0 0 m ( ) show NC gr  1 0.653333 0 c 3 lw 1219 1340 m 79 X 51 Y -79 X f black
 gsave  2268 1103 0 472 C 1918.38 1349.97 t 0 r /Helvetica findfont 56.3093 sf 0 0 m (+jets) show NC gr 
 gsave  2268 1103 0 472 C 1737.79 1349.97 t 0 r /Helvetica-Oblique findfont 56.3093 sf 0 0 m (WZ/ZZ) show NC gr 
 gsave  2268 1103 0 472 C 1720.03 1349.97 t 0 r /Helvetica findfont 56.3093 sf 0 0 m ( ) show NC gr  0.413333 1 0 c 3 lw 1626 1340 m 79 X 51 Y -79 X f black
 gsave  2268 1103 0 472 C 1373.66 1275.96 t 0 r /Helvetica-Oblique findfont 56.3093 sf 0 0 m (Z) show NC gr 
 gsave  2268 1103 0 472 C 1352.93 1275.96 t 0 r /Helvetica-Oblique findfont 56.3093 sf 0 0 m (t) show NC gr  6 lw 1353 1320 m 21 X s
 gsave  2268 1103 0 472 C 1332.21 1275.96 t 0 r /Helvetica-Oblique findfont 56.3093 sf 0 0 m (t) show NC gr 
 gsave  2268 1103 0 472 C 1314.45 1275.96 t 0 r /Helvetica findfont 56.3093 sf 0 0 m ( ) show NC gr  0.6 0.2 1 c 3 lw 1219 1266 m 79 X 52 Y -79 X f 6 lw black
 gsave  2268 1103 0 472 C 1779.24 1275.96 t 0 r /Helvetica-Oblique findfont 56.3093 sf 0 0 m (W) show NC gr 
 gsave  2268 1103 0 472 C 1758.52 1275.96 t 0 r /Helvetica-Oblique findfont 56.3093 sf 0 0 m (t) show NC gr  6 lw 1759 1320 m 20 X s
 gsave  2268 1103 0 472 C 1737.79 1275.96 t 0 r /Helvetica-Oblique findfont 56.3093 sf 0 0 m (t) show NC gr 
 gsave  2268 1103 0 472 C 1720.03 1275.96 t 0 r /Helvetica findfont 56.3093 sf 0 0 m ( ) show NC gr  0.54 0.06 0.06 c 3 lw 1626 1266 m 79 X 52 Y -79 X f 6 lw black
 gsave  2268 1103 0 472 C 1332.21 1204.91 t 0 r /Helvetica-Oblique findfont 56.3093 sf 0 0 m (tZq) show NC gr 
 gsave  2268 1103 0 472 C 1314.45 1204.91 t 0 r /Helvetica findfont 56.3093 sf 0 0 m ( ) show NC gr  1 0 1 c 3 lw 1219 1193 m 79 X 51 Y -79 X f black
 gsave  2268 1103 0 472 C 1779.24 1204.91 t 0 r /Helvetica-Oblique findfont 56.3093 sf 0 0 m (H) show NC gr 
 gsave  2268 1103 0 472 C 1758.52 1204.91 t 0 r /Helvetica-Oblique findfont 56.3093 sf 0 0 m (t) show NC gr  6 lw 1759 1249 m 20 X s
 gsave  2268 1103 0 472 C 1737.79 1204.91 t 0 r /Helvetica-Oblique findfont 56.3093 sf 0 0 m (t) show NC gr 
 gsave  2268 1103 0 472 C 1720.03 1204.91 t 0 r /Helvetica findfont 56.3093 sf 0 0 m ( ) show NC gr  0 0 1 c 3 lw 1626 1193 m 79 X 51 Y -79 X f 6 lw black
 gsave  2268 1103 0 472 C 1332.21 1130.9 t 0 r /Helvetica-Oblique findfont 56.3093 sf 0 0 m (tWZ/tWH) show NC gr 
 gsave  2268 1103 0 472 C 1314.45 1130.9 t 0 r /Helvetica findfont 56.3093 sf 0 0 m ( ) show NC gr  0.2 0.8 0.8 c 3 lw 1219 1119 m 79 X 52 Y -79 X f black
 gsave  2268 1103 0 472 C 1737.79 1130.9 t 0 r /Helvetica-Oblique findfont 56.3093 sf 0 0 m (tHq) show NC gr 
 gsave  2268 1103 0 472 C 1720.03 1130.9 t 0 r /Helvetica findfont 56.3093 sf 0 0 m ( ) show NC gr  1 0 0 c 3 lw 1626 1119 m 79 X 52 Y -79 X f black
 gsave  2268 1103 0 472 C 1314.45 1056.89 t 0 r /Helvetica findfont 56.3093 sf 0 0 m ( Other) show NC gr  1 0.84 0 c 3 lw 1219 1046 m 79 X 51 Y -79 X f black
 gsave  2268 1103 0 472 C 1720.03 1056.89 t 0 r /Helvetica findfont 56.3093 sf 0 0 m ( Uncertainty) show NC gr  0.6 0.6 0.6 c 3 lw 1705 1061 m -15 -15 d s 1705 1080 m -34 -34 d s 1703 1097 m -51 -51 d s 1684 1097 m -51 -51 d s 1665 1097 m -39 -39 d s
 1646 1097 m -20 -20 d s 1626 1097 m s 1 0.84 0 c 0.6 0.6 0.6 c black
 gsave  2268 1103 0 472 C 894.061 1329.25 t 0 r /Helvetica findfont 41.4911 sf 0 0 m (\2551) show NC gr 
 gsave  2268 1103 0 472 C 399.663 1299.64 t 0 r /Helvetica findfont 62.2366 sf 0 0 m ( = 13 TeV,  139 fb) show NC gr 
 gsave  2268 1103 0 472 C 370.058 1299.64 t 0 r /Helvetica findfont 62.2366 sf 0 0 m (s) show NC gr  6 lw 349 1335 m 6 -38 d s 3 lw 355 1297 m 6 56 d s 361 1353 m 39 X s
 gsave  2268 1103 0 472 C 947.349 1201.95 t 0 r /Helvetica findfont 62.2366 sf 0 0 m (\)) show NC gr 
 gsave  2268 1103 0 472 C 899.982 1201.95 t 0 r /Helvetica-Oblique findfont 62.2366 sf 0 0 m (Z) show NC gr 
 gsave  2268 1103 0 472 C 811.168 1201.95 t 0 r /Helvetica findfont 62.2366 sf 0 0 m (\255no) show NC gr 
 gsave  2268 1103 0 472 C 784.523 1201.95 t 0 r /Helvetica-Oblique findfont 62.2366 sf 0 0 m (j) show NC gr 
 gsave  2268 1103 0 472 C 751.958 1201.95 t 0 r /Helvetica findfont 62.2366 sf 0 0 m (3) show NC gr 
 gsave  2268 1103 0 472 C 713.472 1201.95 t 0 r /Helvetica-Oblique findfont 62.2366 sf 0 0 m (b) show NC gr 
 gsave  2268 1103 0 472 C 337.493 1201.95 t 0 r /Helvetica findfont 62.2366 sf 0 0 m ( 2L\(SS\), VR\(1) show NC gr 
 gsave  2268 1103 0 472 C 337.493 1400.3 t 0 r /Helvetica-BoldOblique findfont 71.1276 sf 0 0 m (ATLAS) show NC gr 
 gsave  2268 1103 0 472 C 633.54 1400.3 t 0 r /Helvetica findfont 71.1276 sf 0 0 m (Internal) show NC gr 
 gr  gr showpage
end
%%EOF
