%!PS-Adobe-2.0 EPSF-2.0
%%BoundingBox:  0 0 567 394
%%Title: : EtMiss_CRttbarEl
%%Creator: ROOT Version 6.20/06
%%CreationDate: Mon May 30 19:26:16 2022
%%DocumentNeededResources: ProcSet (FontSetInit)
%%EndComments
%%BeginProlog
80 dict begin
/s {stroke} def /l {lineto} def /m {moveto} def /t {translate} def
/r {rotate} def /rl {roll}  def /R {repeat} def
/d {rlineto} def /rm {rmoveto} def /gr {grestore} def /f {eofill} def
/c {setrgbcolor} def /black {0 setgray} def /sd {setdash} def
/cl {closepath} def /sf {scalefont setfont} def /lw {setlinewidth} def
/box {m dup 0 exch d exch 0 d 0 exch neg d cl} def
/NC{systemdict begin initclip end}def/C{NC box clip newpath}def
/bl {box s} def /bf {gsave box gsave f grestore 1 lw [] 0 sd s grestore} def /Y { 0 exch d} def /X { 0 d} def 
/K {{pop pop 0 moveto} exch kshow} bind def
/ita {/ang 15 def gsave [1 0 ang dup sin exch cos div 1 0 0] concat} def 
/mp {newpath /y exch def /x exch def} def
/side {[w .77 mul w .23 mul] .385 w mul sd w 0 l currentpoint t -144 r} def
/mr {mp x y w2 0 360 arc} def /m24 {mr s} def /m20 {mr f} def
/mb {mp x y w2 add m w2 neg 0 d 0 w neg d w 0 d 0 w d cl} def
/mt {mp x y w2 add m w2 neg w neg d w 0 d cl} def
/w4 {w 4 div} def
/w6 {w 6 div} def
/w8 {w 8 div} def
/m21 {mb f} def /m25 {mb s} def /m22 {mt f} def /m26{mt s} def
/m23 {mp x y w2 sub m w2 w d w neg 0 d cl f} def
/m27 {mp x y w2 add m w3 neg w2 neg d w3 w2 neg d w3 w2 d cl s} def
/m28 {mp x w2 sub y w2 sub w3 add m w3 0 d  0 w3 neg d w3 0 d 0 w3 d w3 0 d  0 w3 d w3 neg 0 d 0 w3 d w3 neg 0 d 0 w3 neg d w3 neg 0 d cl s } def
/m29 {mp gsave x w2 sub y w2 add w3 sub m currentpoint t 4 {side} repeat cl fill gr} def
/m30 {mp gsave x w2 sub y w2 add w3 sub m currentpoint t 4 {side} repeat cl s gr} def
/m31 {mp x y w2 sub m 0 w d x w2 sub y m w 0 d x w2 sub y w2 add m w w neg d x w2 sub y w2 sub m w w d s} def
/m32 {mp x y w2 sub m w2 w d w neg 0 d cl s} def
/m33 {mp x y w2 add m w3 neg w2 neg d w3 w2 neg d w3 w2 d cl f} def
/m34 {mp x w2 sub y w2 sub w3 add m w3 0 d  0 w3 neg d w3 0 d 0 w3 d w3 0 d  0 w3 d w3 neg 0 d 0 w3 d w3 neg 0 d 0 w3 neg d w3 neg 0 d cl f } def
/m35 {mp x y w2 add m w2 neg w2 neg d w2 w2 neg d w2 w2 d w2 neg w2 d x y w2 sub m 0 w d x w2 sub y m w 0 d s} def
/m36 {mb x w2 sub y w2 add m w w neg d x w2 sub y w2 sub m w w d s} def
/m37 {mp x y m w4 neg w2 d w4 neg w2 neg d w2 0 d  w4 neg w2 neg d w2 0 d w4 neg w2 d w2 0 d w4 neg w2 d w4 neg w2 neg d cl s} def
/m38 {mp x w4 sub y w2 add m w4 neg w4 neg d 0 w2 neg d w4 w4 neg d w2 0 d w4 w4 d 0 w2 d w4 neg w4 d w2 neg 0 d x y w2 sub m 0 w d x w2 sub y m w 0 d cl s} def
/m39 {mp x y m w4 neg w2 d w4 neg w2 neg d w2 0 d  w4 neg w2 neg d w2 0 d w4 neg w2 d w2 0 d w4 neg w2 d w4 neg w2 neg d cl f} def
/m40 {mp x y m w4 w2 d w4 w4 neg d w2 neg w4 neg d w2 w4 neg d w4 neg w4 neg d w4 neg w2 d w4 neg w2 neg d w4 neg w4 d w2 w4 d w2 neg w4 d w4 w4 d w4 w2 neg d cl s} def
/m41 {mp x y m w4 w2 d w4 w4 neg d w2 neg w4 neg d w2 w4 neg d w4 neg w4 neg d w4 neg w2 d w4 neg w2 neg d w4 neg w4 d w2 w4 d w2 neg w4 d w4 w4 d w4 w2 neg d cl f} def
/m42 {mp x y w2 add m w8 neg w2 -3 4 div mul d w2 -3 4 div mul w8 neg d w2 3 4 div mul w8 neg d w8 w2 -3 4 div mul d w8 w2 3 4 div mul d w2 3 4 div mul w8 d w2 -3 4 div mul w8 d w8 neg w2 3 4 div mul d cl s} def
/m43 {mp x y w2 add m w8 neg w2 -3 4 div mul d w2 -3 4 div mul w8 neg d w2 3 4 div mul w8 neg d w8 w2 -3 4 div mul d w8 w2 3 4 div mul d w2 3 4 div mul w8 d w2 -3 4 div mul w8 d w8 neg w2 3 4 div mul d cl f} def
/m44 {mp x y m w6 neg w2 d w2 2 3 div mul 0 d w6 neg w2 neg d w2 w6 d 0 w2 -2 3 div mul d w2 neg w6 d w6 w2 neg d w2 -2 3 div mul 0 d w6 w2 d w2 neg w6 neg d 0 w2 2 3 div mul d w2 w6 neg d cl s} def
/m45 {mp x y m w6 neg w2 d w2 2 3 div mul 0 d w6 neg w2 neg d w2 w6 d 0 w2 -2 3 div mul d w2 neg w6 d w6 w2 neg d w2 -2 3 div mul 0 d w6 w2 d w2 neg w6 neg d 0 w2 2 3 div mul d w2 w6 neg d cl f} def
/m46 {mp x y w4 add m w4 neg w4 d w4 neg w4 neg d  w4 w4 neg d w4 neg w4 neg d w4 w4 neg d w4 w4 d w4 w4 neg d w4 w4 d w4 neg w4 d w4 w4 d w4 neg w4 d w4 neg w4 neg d cl s} def
/m47 {mp x y w4 add m w4 neg w4 d w4 neg w4 neg d w4 w4 neg d w4 neg w4 neg d  w4 w4 neg d w4 w4 d w4 w4 neg d w4 w4 d w4 neg w4 d w4 w4 d w4 neg w4 d w4 neg w4 neg d cl f} def
/m48 {mp x y w4 add m w4 neg w4 d w4 neg w4 neg d w4 w4 neg d  w4 neg w4 neg d w4 w4 neg d w4 w4 d w4 w4 neg d w4 w4 d w4 neg w4 d w4 w4 d w4 neg w4 d w4 neg w4 neg d  w4 w4 neg d w4 neg w4 neg d w4 neg w4 d w4 w4 d cl f} def
/m49 {mp x w2 sub w3 add y w2 sub w3 add m  0 w3 neg d w3 0 d 0 w3 d w3 0 d 0 w3 d w3 neg 0 d 0 w3 d w3 neg 0 d 0 w3 neg d w3 neg 0 d 0 w3 neg d w3 0 d 0 w3 d w3 0 d 0 w3 neg d w3 neg 0 d cl f } def
/m2 {mp x y w2 sub m 0 w d x w2 sub y m w 0 d s} def
/m5 {mp x w2 sub y w2 sub m w w d x w2 sub y w2 add m w w neg d s} def
%%IncludeResource: ProcSet (FontSetInit)
%%IncludeResource: font Times-Roman
%%IncludeResource: font Times-Italic
%%IncludeResource: font Times-Bold
%%IncludeResource: font Times-BoldItalic
%%IncludeResource: font Helvetica
%%IncludeResource: font Helvetica-Oblique
%%IncludeResource: font Helvetica-Bold
%%IncludeResource: font Helvetica-BoldOblique
%%IncludeResource: font Courier
%%IncludeResource: font Courier-Oblique
%%IncludeResource: font Courier-Bold
%%IncludeResource: font Courier-BoldOblique
%%IncludeResource: font Symbol
%%IncludeResource: font ZapfDingbats
/reEncode {exch findfont dup length dict begin {1 index /FID eq  {pop pop} {def} ifelse } forall /Encoding exch def currentdict end dup /FontName get exch definefont pop } def [/Times-Bold /Times-Italic /Times-BoldItalic /Helvetica /Helvetica-Oblique
 /Helvetica-Bold /Helvetica-BoldOblique /Courier /Courier-Oblique /Courier-Bold /Courier-BoldOblique /Times-Roman /AvantGarde-Book /AvantGarde-BookOblique /AvantGarde-Demi /AvantGarde-DemiOblique /Bookman-Demi /Bookman-DemiItalic /Bookman-Light
 /Bookman-LightItalic /Helvetica-Narrow /Helvetica-Narrow-Bold /Helvetica-Narrow-BoldOblique /Helvetica-Narrow-Oblique /NewCenturySchlbk-Roman /NewCenturySchlbk-Bold /NewCenturySchlbk-BoldItalic /NewCenturySchlbk-Italic /Palatino-Bold
 /Palatino-BoldItalic /Palatino-Italic /Palatino-Roman ] {ISOLatin1Encoding reEncode } forall
%%EndProlog
%%BeginSetup
%%EndSetup
newpath  gsave  .25 .25 scale  gsave  0 0 t black[  ] 0 sd 3 lw 1 1 1 c 2268 1575 0 0 bf black 1 1 1 c 2268 472 0 0 bf black 1 1 1 c 1927 274 227 189 bf black 1927 274 227 189 bl 227 189 m 1927 X s 227 201 m -12 Y s 291 195 m -6 Y s 355 195 m -6 Y s
 420 195 m -6 Y s 484 195 m -6 Y s 548 201 m -12 Y s 612 195 m -6 Y s 677 195 m -6 Y s 741 195 m -6 Y s 805 195 m -6 Y s 869 201 m -12 Y s 934 195 m -6 Y s 998 195 m -6 Y s 1062 195 m -6 Y s 1126 195 m -6 Y s 1191 201 m -12 Y s 1255 195 m -6 Y s 1319
 195 m -6 Y s 1383 195 m -6 Y s 1448 195 m -6 Y s 1512 201 m -12 Y s 1576 195 m -6 Y s 1640 195 m -6 Y s 1705 195 m -6 Y s 1769 195 m -6 Y s 1833 201 m -12 Y s 1897 195 m -6 Y s 1962 195 m -6 Y s 2026 195 m -6 Y s 2090 195 m -6 Y s 2154 201 m -12 Y s
 gsave  2268 472 0 0 C 210.193 127.3 t 0 r /Helvetica findfont 53.4895 sf 0 0 m (0) show NC gr 
 gsave  2268 472 0 0 C 518.081 127.3 t 0 r /Helvetica findfont 53.4895 sf 0 0 m (50) show NC gr 
 gsave  2268 472 0 0 C 823.009 127.3 t 0 r /Helvetica findfont 53.4895 sf 0 0 m (100) show NC gr 
 gsave  2268 472 0 0 C 1145.7 127.3 t 0 r /Helvetica findfont 53.4895 sf 0 0 m (150) show NC gr 
 gsave  2268 472 0 0 C 1465.43 127.3 t 0 r /Helvetica findfont 53.4895 sf 0 0 m (200) show NC gr 
 gsave  2268 472 0 0 C 1788.12 127.3 t 0 r /Helvetica findfont 53.4895 sf 0 0 m (250) show NC gr 
 gsave  2268 472 0 0 C 2107.85 127.3 t 0 r /Helvetica findfont 53.4895 sf 0 0 m (300) show NC gr 
 gsave  2268 472 0 0 C 1995.35 41.4465 t 0 r /Helvetica findfont 56.4611 sf 0 0 m ( [GeV]) show NC gr 
 gsave  2268 472 0 0 C 1915.42 68.0907 t 0 r /Helvetica findfont 38.6313 sf 0 0 m (miss) show NC gr 
 gsave  2268 472 0 0 C 1915.42 23.6837 t 0 r /Helvetica findfont 38.6313 sf 0 0 m (T) show NC gr 
 gsave  2268 472 0 0 C 1871.01 41.4465 t 0 r /Helvetica-Oblique findfont 56.4611 sf 0 0 m (E) show NC gr  227 463 m 1927 X s 227 451 m 12 Y s 291 457 m 6 Y s 355 457 m 6 Y s 420 457 m 6 Y s 484 457 m 6 Y s 548 451 m 12 Y s 612 457 m 6 Y s 677 457 m 6
 Y s 741 457 m 6 Y s 805 457 m 6 Y s 869 451 m 12 Y s 934 457 m 6 Y s 998 457 m 6 Y s 1062 457 m 6 Y s 1126 457 m 6 Y s 1191 451 m 12 Y s 1255 457 m 6 Y s 1319 457 m 6 Y s 1383 457 m 6 Y s 1448 457 m 6 Y s 1512 451 m 12 Y s 1576 457 m 6 Y s 1640 457
 m 6 Y s 1705 457 m 6 Y s 1769 457 m 6 Y s 1833 451 m 12 Y s 1897 457 m 6 Y s 1962 457 m 6 Y s 2026 457 m 6 Y s 2090 457 m 6 Y s 2154 451 m 12 Y s 227 189 m 274 Y s 240 240 m -13 X s 240 326 m -13 X s 240 412 m -13 X s 240 240 m -13 X s 240 412 m -13
 X s
 gsave  2268 472 0 0 C 118.419 222.035 t 0 r /Helvetica findfont 53.4895 sf 0 0 m (0.5) show NC gr 
 gsave  2268 472 0 0 C 171.707 307.888 t 0 r /Helvetica findfont 53.4895 sf 0 0 m (1) show NC gr 
 gsave  2268 472 0 0 C 118.419 393.742 t 0 r /Helvetica findfont 53.4895 sf 0 0 m (1.5) show NC gr 
 gsave  2268 472 0 0 C 71.0512 230.916 t 90 r /Helvetica findfont 53.4895 sf 0 0 m (Data / SM) show NC gr  2154 189 m 274 Y s 2141 240 m 13 X s 2141 326 m 13 X s 2141 412 m 13 X s 2141 240 m 13 X s 2141 412 m 13 X s 227 189 m 1927 X s 227 463 m 1927
 X s 227 189 m 274 Y s[ 4 8] 0 sd 2154 240 m -1927 X s 2154 326 m -1927 X s 2154 412 m -1927 X s 2154 240 m -1927 X s 2154 412 m -1927 X s[  ] 0 sd 2154 189 m 274 Y s 1 1 0.6 c 193 0 227 326 bf 192 0 420 326 bf 193 0 612 326 bf 193 0 805 326 bf 193 0
 998 326 bf 192 0 1191 326 bf 193 0 1383 326 bf 193 0 1576 326 bf 193 0 1769 326 bf 192 0 1962 326 bf black 0.6 0.6 0.6 c 420 325 m -5 -5 d s 408 332 m -13 -12 d s 389 332 m -13 -12 d s 370 332 m -13 -12 d s 350 332 m -12 -12 d s 331 332 m -13 -12 d
 s 312 332 m -13 -12 d s 293 332 m -13 -12 d s 273 332 m -12 -12 d s 254 332 m -13 -12 d s 235 332 m -8 -8 d s 612 325 m -5 -5 d s 600 332 m -12 -12 d s 581 332 m -12 -12 d s 562 332 m -12 -12 d s 542 332 m -11 -12 d s 523 332 m -12 -12 d s 504 332 m
 -12 -12 d s 485 332 m -12 -12 d s 465 332 m -11 -12 d s 446 332 m -12 -12 d s 427 332 m -7 -7 d s 805 325 m -3 -3 d s 790 330 m -7 -8 d s 771 330 m -7 -8 d s 752 330 m -8 -8 d s 733 330 m -8 -8 d s 713 330 m -7 -8 d s 694 330 m -7 -8 d s 675 330 m
 -8 -8 d s 656 330 m -8 -8 d s 636 330 m -7 -8 d s 617 330 m -5 -5 d s 998 326 m -5 -6 d s 985 332 m -11 -12 d s 965 332 m -11 -12 d s 946 332 m -11 -12 d s 927 332 m -11 -12 d s 908 332 m -11 -12 d s 888 332 m -11 -12 d s 869 332 m -11 -12 d s 850
 332 m -11 -12 d s 831 332 m -11 -12 d s 811 332 m -6 -7 d s 1191 326 m -8 -8 d s 1179 334 m -15 -16 d s 1160 334 m -15 -16 d s 1140 334 m -15 -16 d s 1121 334 m -15 -16 d s 1102 334 m -15 -16 d s 1083 334 m -15 -16 d s 1063 334 m -14 -16 d s 1044
 334 m -15 -16 d s 1025 334 m -15 -16 d s 1006 334 m -8 -8 d s 1383 326 m -11 -11 d s 1375 337 m -22 -22 d s 1356 337 m -22 -22 d s 1336 337 m -22 -22 d s 1317 337 m -22 -22 d s 1298 337 m -22 -22 d s 1279 337 m -22 -22 d s 1259 337 m -22 -22 d s
 1240 337 m -22 -22 d s 1221 337 m -22 -22 d s 1202 337 m -11 -11 d s 1576 327 m -16 -16 d s 1572 341 m -31 -30 d s 1552 341 m -30 -30 d s 1533 341 m -31 -30 d s 1514 341 m -31 -30 d s 1495 341 m -31 -30 d s 1475 341 m -30 -30 d s 1456 341 m -30 -30
 d s 1437 341 m -31 -30 d s 1418 341 m -31 -30 d s 1398 341 m -15 -15 d s 1769 308 m -4 -5 d s 1769 327 m -24 -24 d s 1769 346 m -43 -43 d s 1752 349 m -45 -46 d s 1733 349 m -45 -46 d s 1714 349 m -46 -46 d s 1694 349 m -45 -46 d s 1675 349 m -45
 -46 d s 1656 349 m -45 -46 d s 1637 349 m -46 -46 d s 1617 349 m -41 -42 d s 1598 349 m -22 -22 d s 1579 349 m -3 -3 d s 1962 308 m -9 -9 d s 1962 327 m -28 -28 d s 1962 347 m -47 -48 d s 1948 353 m -53 -54 d s 1929 353 m -53 -54 d s 1910 353 m -53
 -54 d s 1891 353 m -53 -54 d s 1871 353 m -53 -54 d s 1852 353 m -53 -54 d s 1833 353 m -53 -54 d s 1814 353 m -45 -45 d s 1794 353 m -25 -26 d s 1775 353 m -6 -7 d s 2154 328 m -12 -13 d s 2145 337 m -22 -22 d s 2125 337 m -22 -22 d s 2106 337 m
 -22 -22 d s 2087 337 m -22 -22 d s 2068 337 m -22 -22 d s 2048 337 m -22 -22 d s 2029 337 m -22 -22 d s 2010 337 m -22 -22 d s 1991 337 m -22 -22 d s 1971 337 m -9 -10 d s black 1 1 1 c black 323 356 m 7 Y s 323 386 m 7 Y s /w 26 def /w2 {w 2 div}
 def /w3 {w 3 div} def 323 374 m20 516 334 m20 709 333 m 2 Y s 709 359 m 2 Y s 709 347 m20 901 298 m 6 Y s 901 328 m 6 Y s 901 316 m20 1094 336 m 19 Y s 1094 379 m 19 Y s 1094 367 m20 1287 277 m 33 Y s 1287 334 m 33 Y s 1287 322 m20 1480 271 m 47 Y s
 1480 341 m 47 Y s 1480 330 m20 1672 255 m 88 Y s 1672 367 m 89 Y s 1672 355 m20 1865 189 m 50 Y s 1865 262 m 84 Y s 1865 250 m20 2058 189 m 12 Y s 2058 225 m 46 Y s 2058 213 m20 227 326 m 1927 X s 227 189 m 1927 X s 227 201 m -12 Y s 291 195 m -6 Y
 s 355 195 m -6 Y s 420 195 m -6 Y s 484 195 m -6 Y s 548 201 m -12 Y s 612 195 m -6 Y s 677 195 m -6 Y s 741 195 m -6 Y s 805 195 m -6 Y s 869 201 m -12 Y s 934 195 m -6 Y s 998 195 m -6 Y s 1062 195 m -6 Y s 1126 195 m -6 Y s 1191 201 m -12 Y s
 1255 195 m -6 Y s 1319 195 m -6 Y s 1383 195 m -6 Y s 1448 195 m -6 Y s 1512 201 m -12 Y s 1576 195 m -6 Y s 1640 195 m -6 Y s 1705 195 m -6 Y s 1769 195 m -6 Y s 1833 201 m -12 Y s 1897 195 m -6 Y s 1962 195 m -6 Y s 2026 195 m -6 Y s 2090 195 m -6
 Y s 2154 201 m -12 Y s 227 463 m 1927 X s 227 451 m 12 Y s 291 457 m 6 Y s 355 457 m 6 Y s 420 457 m 6 Y s 484 457 m 6 Y s 548 451 m 12 Y s 612 457 m 6 Y s 677 457 m 6 Y s 741 457 m 6 Y s 805 457 m 6 Y s 869 451 m 12 Y s 934 457 m 6 Y s 998 457 m 6
 Y s 1062 457 m 6 Y s 1126 457 m 6 Y s 1191 451 m 12 Y s 1255 457 m 6 Y s 1319 457 m 6 Y s 1383 457 m 6 Y s 1448 457 m 6 Y s 1512 451 m 12 Y s 1576 457 m 6 Y s 1640 457 m 6 Y s 1705 457 m 6 Y s 1769 457 m 6 Y s 1833 451 m 12 Y s 1897 457 m 6 Y s 1962
 457 m 6 Y s 2026 457 m 6 Y s 2090 457 m 6 Y s 2154 451 m 12 Y s 227 189 m 274 Y s 240 240 m -13 X s 240 326 m -13 X s 240 412 m -13 X s 240 240 m -13 X s 240 412 m -13 X s 2154 189 m 274 Y s 2141 240 m 13 X s 2141 326 m 13 X s 2141 412 m 13 X s 2141
 240 m 13 X s 2141 412 m 13 X s 1 1 1 c 2268 1103 0 472 bf black 1 1 1 c 1927 1036 227 484 bf black 1927 1036 227 484 bl 1 1 1 c black 3 lw 227 484 m 1927 X s 227 502 m -18 Y s 291 493 m -9 Y s 355 493 m -9 Y s 420 493 m -9 Y s 484 493 m -9 Y s 548
 502 m -18 Y s 612 493 m -9 Y s 677 493 m -9 Y s 741 493 m -9 Y s 805 493 m -9 Y s 869 502 m -18 Y s 934 493 m -9 Y s 998 493 m -9 Y s 1062 493 m -9 Y s 1126 493 m -9 Y s 1191 502 m -18 Y s 1255 493 m -9 Y s 1319 493 m -9 Y s 1383 493 m -9 Y s 1448
 493 m -9 Y s 1512 502 m -18 Y s 1576 493 m -9 Y s 1640 493 m -9 Y s 1705 493 m -9 Y s 1769 493 m -9 Y s 1833 502 m -18 Y s 1897 493 m -9 Y s 1962 493 m -9 Y s 2026 493 m -9 Y s 2090 493 m -9 Y s 2154 502 m -18 Y s
 gsave  2268 1103 0 472 C 2069.37 396.702 t 0 r /Helvetica findfont 29.6365 sf 0 0 m ( [GeV]) show NC gr 
 gsave  2268 1103 0 472 C 2024.96 414.465 t 0 r /Helvetica findfont 20.7455 sf 0 0 m (miss) show NC gr 
 gsave  2268 1103 0 472 C 2024.96 387.821 t 0 r /Helvetica findfont 20.7455 sf 0 0 m (T) show NC gr 
 gsave  2268 1103 0 472 C 2001.27 396.702 t 0 r /Helvetica-Oblique findfont 29.6365 sf 0 0 m (E) show NC gr  227 1520 m 1927 X s 227 1501 m 19 Y s 291 1510 m 10 Y s 355 1510 m 10 Y s 420 1510 m 10 Y s 484 1510 m 10 Y s 548 1501 m 19 Y s 612 1510 m 10
 Y s 677 1510 m 10 Y s 741 1510 m 10 Y s 805 1510 m 10 Y s 869 1501 m 19 Y s 934 1510 m 10 Y s 998 1510 m 10 Y s 1062 1510 m 10 Y s 1126 1510 m 10 Y s 1191 1501 m 19 Y s 1255 1510 m 10 Y s 1319 1510 m 10 Y s 1383 1510 m 10 Y s 1448 1510 m 10 Y s 1512
 1501 m 19 Y s 1576 1510 m 10 Y s 1640 1510 m 10 Y s 1705 1510 m 10 Y s 1769 1510 m 10 Y s 1833 1501 m 19 Y s 1897 1510 m 10 Y s 1962 1510 m 10 Y s 2026 1510 m 10 Y s 2090 1510 m 10 Y s 2154 1501 m 19 Y s 227 484 m 1036 Y s 248 652 m -21 X s 237 685
 m -10 X s 237 719 m -10 X s 237 753 m -10 X s 237 786 m -10 X s 248 820 m -21 X s 237 854 m -10 X s 237 887 m -10 X s 237 921 m -10 X s 237 955 m -10 X s 248 988 m -21 X s 237 1022 m -10 X s 237 1056 m -10 X s 237 1089 m -10 X s 237 1123 m -10 X s
 248 1156 m -21 X s 237 1190 m -10 X s 237 1224 m -10 X s 237 1257 m -10 X s 237 1291 m -10 X s 248 1325 m -21 X s 237 1358 m -10 X s 237 1392 m -10 X s 237 1426 m -10 X s 237 1459 m -10 X s 248 1493 m -21 X s 248 652 m -21 X s 237 618 m -10 X s 237
 584 m -10 X s 237 551 m -10 X s 237 517 m -10 X s 248 1493 m -21 X s
 gsave  2268 1103 0 472 C 118.419 633.54 t 0 r /Helvetica findfont 50.382 sf 0 0 m (100) show NC gr 
 gsave  2268 1103 0 472 C 118.419 799.326 t 0 r /Helvetica findfont 50.382 sf 0 0 m (200) show NC gr 
 gsave  2268 1103 0 472 C 118.419 968.072 t 0 r /Helvetica findfont 50.382 sf 0 0 m (300) show NC gr 
 gsave  2268 1103 0 472 C 118.419 1136.82 t 0 r /Helvetica findfont 50.382 sf 0 0 m (400) show NC gr 
 gsave  2268 1103 0 472 C 118.419 1305.57 t 0 r /Helvetica findfont 50.382 sf 0 0 m (500) show NC gr 
 gsave  2268 1103 0 472 C 118.419 1474.31 t 0 r /Helvetica findfont 50.382 sf 0 0 m (600) show NC gr 
 gsave  2268 1103 0 472 C 62.1698 1154.58 t 90 r /Helvetica findfont 50.382 sf 0 0 m (Events / 30 GeV) show NC gr  2154 484 m 1036 Y s 2133 652 m 21 X s 2144 685 m 10 X s 2144 719 m 10 X s 2144 753 m 10 X s 2144 786 m 10 X s 2133 820 m 21 X s 2144
 854 m 10 X s 2144 887 m 10 X s 2144 921 m 10 X s 2144 955 m 10 X s 2133 988 m 21 X s 2144 1022 m 10 X s 2144 1056 m 10 X s 2144 1089 m 10 X s 2144 1123 m 10 X s 2133 1156 m 21 X s 2144 1190 m 10 X s 2144 1224 m 10 X s 2144 1257 m 10 X s 2144 1291 m
 10 X s 2133 1325 m 21 X s 2144 1358 m 10 X s 2144 1392 m 10 X s 2144 1426 m 10 X s 2144 1459 m 10 X s 2133 1493 m 21 X s 2133 652 m 21 X s 2144 618 m 10 X s 2144 584 m 10 X s 2144 551 m 10 X s 2144 517 m 10 X s 2133 1493 m 21 X s 0.06 0.54 0.06 c
 black 3 lw 0.06 0.54 0.06 c 227 484 m 190 Y 193 X 224 Y 192 X -116 Y 193 X -150 Y 193 X -85 Y 193 X -39 Y 192 X -10 Y 193 X -9 Y 193 X -2 Y 193 X 1 Y 192 X -4 Y f 1 0.653333 0 c 0.999 0.999 0.999 c black 3 lw 0.999 0.999 0.999 c 227 484 m 85 Y 193 X
 100 Y 192 X -59 Y 193 X -59 Y 193 X -38 Y 193 X -16 Y 192 X -6 Y 193 X -4 Y 193 X -1 Y 193 X 1 Y 192 X -3 Y f 1 0.653333 0 c 0.999 0.999 0.999 c 1 0.653333 0 c 1 1 1 c black 1 0.653333 0 c black 3 lw 1 0.653333 0 c 227 484 m 85 Y 193 X 100 Y 192 X
 -59 Y 193 X -59 Y 193 X -38 Y 193 X -16 Y 192 X -6 Y 193 X -4 Y 193 X -1 Y 193 X 1 Y 192 X -3 Y f 0.413333 1 0 c 0.999 0.999 0.999 c black 3 lw 0.999 0.999 0.999 c 227 484 m 71 Y 193 X 79 Y 192 X -28 Y 193 X -57 Y 193 X -36 Y 193 X -16 Y 192 X -6 Y
 193 X -4 Y 193 X -2 Y 193 X 2 Y 192 X -3 Y f 0.413333 1 0 c 0.999 0.999 0.999 c 0.413333 1 0 c 1 1 1 c black 0.413333 1 0 c black 3 lw 0.413333 1 0 c 227 484 m 71 Y 193 X 79 Y 192 X -28 Y 193 X -57 Y 193 X -36 Y 193 X -16 Y 192 X -6 Y 193 X -4 Y 193
 X -2 Y 193 X 2 Y 192 X -3 Y f 0.6 0.2 1 c 0.999 0.999 0.999 c black 3 lw 0.999 0.999 0.999 c 227 484 m 53 Y 193 X 65 Y 192 X -17 Y 193 X -44 Y 193 X -31 Y 193 X -15 Y 192 X -5 Y 193 X -3 Y 193 X -2 Y 193 X 1 Y 192 X -2 Y f 0.6 0.2 1 c 0.999 0.999
 0.999 c 0.6 0.2 1 c 1 1 1 c black 0.6 0.2 1 c black 3 lw 0.6 0.2 1 c 227 484 m 53 Y 193 X 65 Y 192 X -17 Y 193 X -44 Y 193 X -31 Y 193 X -15 Y 192 X -5 Y 193 X -3 Y 193 X -2 Y 193 X 1 Y 192 X -2 Y f 0.54 0.06 0.06 c 0.999 0.999 0.999 c black 3 lw
 0.999 0.999 0.999 c 227 484 m 43 Y 193 X 55 Y 192 X -12 Y 193 X -36 Y 193 X -27 Y 193 X -13 Y 192 X -5 Y 193 X -3 Y 193 X -1 Y 193 X 1 Y 192 X -2 Y f 0.54 0.06 0.06 c 0.999 0.999 0.999 c 0.54 0.06 0.06 c 1 1 1 c black 0.54 0.06 0.06 c black 3 lw
 0.54 0.06 0.06 c 227 484 m 43 Y 193 X 55 Y 192 X -12 Y 193 X -36 Y 193 X -27 Y 193 X -13 Y 192 X -5 Y 193 X -3 Y 193 X -1 Y 193 X 1 Y 192 X -2 Y f 1 0 1 c 0.999 0.999 0.999 c black 3 lw 0.999 0.999 0.999 c 227 484 m 14 Y 193 X 17 Y 192 X -4 Y 193 X
 -13 Y 193 X -9 Y 193 X -3 Y 192 X -1 Y 193 X -1 Y 578 X f 1 0 1 c 0.999 0.999 0.999 c 1 0 1 c 1 1 1 c black 1 0 1 c black 3 lw 1 0 1 c 227 484 m 14 Y 193 X 17 Y 192 X -4 Y 193 X -13 Y 193 X -9 Y 193 X -3 Y 192 X -1 Y 193 X -1 Y 578 X f 0 0 1 c 0.999
 0.999 0.999 c black 3 lw 0.999 0.999 0.999 c 227 484 m 8 Y 193 X 10 Y 192 X -1 Y 193 X -7 Y 193 X -6 Y 193 X -3 Y 192 X -1 Y 771 X f 0 0 1 c 0.999 0.999 0.999 c 0 0 1 c 1 1 1 c black 0 0 1 c black 3 lw 0 0 1 c 227 484 m 8 Y 193 X 10 Y 192 X -1 Y 193
 X -7 Y 193 X -6 Y 193 X -3 Y 192 X -1 Y 771 X f 0.2 0.8 0.8 c 0.999 0.999 0.999 c black 3 lw 0.999 0.999 0.999 c 227 484 m 1 Y 193 X 3 Y 192 X 2 Y 193 X -3 Y 193 X -3 Y 1156 X f 0.2 0.8 0.8 c 0.999 0.999 0.999 c 0.2 0.8 0.8 c 1 1 1 c black 0.2 0.8
 0.8 c black 3 lw 0.2 0.8 0.8 c 227 484 m 1 Y 193 X 3 Y 192 X 2 Y 193 X -3 Y 193 X -3 Y 1156 X f 1 0 0 c 0.999 0.999 0.999 c black 3 lw 0.999 0.999 0.999 c 227 484 m 193 X 2 Y 192 X 2 Y 193 X -2 Y 193 X -2 Y 1156 X f 1 0 0 c 0.999 0.999 0.999 c 1 0 0
 c 1 1 1 c black 1 0 0 c black 3 lw 1 0 0 c 227 484 m 193 X 2 Y 192 X 2 Y 193 X -2 Y 193 X -2 Y 1156 X f 1 0.84 0 c 0.999 0.999 0.999 c black 3 lw 0.999 0.999 0.999 c 227 484 m 385 X 3 Y 193 X -2 Y 193 X -1 Y 1156 X f 1 0.84 0 c 0.999 0.999 0.999 c 1
 0.84 0 c 1 1 1 c black 1 0.84 0 c black 3 lw 1 0.84 0 c 227 484 m 385 X 3 Y 193 X -2 Y 193 X -1 Y 1156 X f black 1 1 1 c black 0.6 0.6 0.6 c 3 lw 420 680 m -14 -13 d s 401 681 m -14 -14 d s 382 681 m -14 -14 d s 363 681 m -15 -14 d s 343 681 m -14
 -14 d s 324 681 m -14 -14 d s 305 681 m -14 -14 d s 286 681 m -15 -14 d s 266 681 m -14 -14 d s 247 681 m -14 -14 d s 228 681 m -1 -1 d s 3 lw 612 892 m -8 -8 d s 612 911 m -27 -27 d s 595 912 m -29 -28 d s 575 912 m -29 -28 d s 556 912 m -29 -28 d
 s 537 912 m -29 -28 d s 518 912 m -29 -28 d s 498 912 m -28 -28 d s 479 912 m -29 -28 d s 460 912 m -29 -28 d s 441 912 m -21 -21 d s 421 912 m -1 -1 d s 3 lw 805 777 m -2 -2 d s 797 788 m -13 -13 d s 778 788 m -13 -13 d s 759 788 m -13 -13 d s 739
 788 m -13 -13 d s 720 788 m -13 -13 d s 701 788 m -13 -13 d s 682 788 m -13 -13 d s 662 788 m -13 -13 d s 643 788 m -13 -13 d s 624 788 m -12 -12 d s 3 lw 992 637 m -10 -10 d s 973 637 m -10 -10 d s 953 637 m -9 -10 d s 934 637 m -9 -10 d s 915 637
 m -10 -10 d s 896 637 m -10 -10 d s 876 637 m -9 -10 d s 857 637 m -9 -10 d s 838 637 m -10 -10 d s 819 637 m -10 -10 d s 3 lw 1191 547 m -3 -2 d s 1175 550 m -6 -5 d s 1155 550 m -5 -5 d s 1136 550 m -6 -5 d s 1117 550 m -6 -5 d s 1098 550 m -6 -5
 d s 1078 550 m -5 -5 d s 1059 550 m -5 -5 d s 1040 550 m -6 -5 d s 1021 550 m -6 -5 d s 1001 550 m -3 -3 d s 3 lw 1383 509 m -2 -3 d s 1364 509 m -3 -3 d s 1345 509 m -3 -3 d s 1326 509 m -3 -3 d s 1307 509 m -3 -3 d s 1288 509 m -4 -3 d s 1268 509
 m -3 -3 d s 1249 509 m -3 -3 d s 1230 509 m -3 -3 d s 1211 509 m -4 -3 d s 1191 509 m -1 Y s 3 lw 1567 500 m -3 -3 d s 1547 500 m -2 -3 d s 1528 500 m -3 -3 d s 1509 500 m -3 -3 d s 1490 500 m -3 -3 d s 1470 500 m -2 -3 d s 1451 500 m -3 -3 d s 1432
 500 m -3 -3 d s 1413 500 m -3 -3 d s 1393 500 m -2 -3 d s 3 lw 1769 490 m -2 -2 d s 1749 490 m -1 -2 d s 1730 490 m -1 -2 d s 1711 490 m -2 -2 d s 1692 490 m -2 -2 d s 1672 490 m -1 -2 d s 1653 490 m -1 -2 d s 1634 490 m -2 -2 d s 1615 490 m -2 -2 d
 s 1595 490 m -1 -2 d s 1576 490 m s 3 lw 1958 487 m -1 -1 d s 1939 487 m -1 -1 d s 1919 487 m -1 Y s 1900 487 m -1 -1 d s 1881 487 m -1 -1 d s 1862 487 m -1 -1 d s 1843 487 m -1 -1 d s 1823 487 m -1 -1 d s 1804 487 m -1 -1 d s 1785 487 m -1 -1 d s 3
 lw 2152 489 m -1 Y s 2133 489 m -1 -1 d s 2114 489 m -1 -1 d s 2094 489 m -1 Y s 2075 489 m -1 Y s 2056 489 m -1 -1 d s 2037 489 m -1 -1 d s 2018 489 m -1 -1 d s 1998 489 m -1 Y s 1979 489 m -1 -1 d s black 3 lw 1 1 1 c black 323 707 m 9 Y s 323 739
 m 9 Y s /w 24 def /w2 {w 2 div} def /w3 {w 3 div} def 323 727 m20 516 891 m 15 Y s 516 929 m 16 Y s 516 918 m20 709 795 m 11 Y s 709 830 m 12 Y s 709 818 m20 901 608 m 3 Y s 901 635 m 3 Y s 901 623 m20 1094 563 m20 1287 507 m20 1480 499 m20 1672 490
 m20 1865 485 m20 2058 485 m20 227 484 m 1927 X s 227 502 m -18 Y s 291 493 m -9 Y s 355 493 m -9 Y s 420 493 m -9 Y s 484 493 m -9 Y s 548 502 m -18 Y s 612 493 m -9 Y s 677 493 m -9 Y s 741 493 m -9 Y s 805 493 m -9 Y s 869 502 m -18 Y s 934 493 m
 -9 Y s 998 493 m -9 Y s 1062 493 m -9 Y s 1126 493 m -9 Y s 1191 502 m -18 Y s 1255 493 m -9 Y s 1319 493 m -9 Y s 1383 493 m -9 Y s 1448 493 m -9 Y s 1512 502 m -18 Y s 1576 493 m -9 Y s 1640 493 m -9 Y s 1705 493 m -9 Y s 1769 493 m -9 Y s 1833
 502 m -18 Y s 1897 493 m -9 Y s 1962 493 m -9 Y s 2026 493 m -9 Y s 2090 493 m -9 Y s 2154 502 m -18 Y s 227 1520 m 1927 X s 227 1501 m 19 Y s 291 1510 m 10 Y s 355 1510 m 10 Y s 420 1510 m 10 Y s 484 1510 m 10 Y s 548 1501 m 19 Y s 612 1510 m 10 Y
 s 677 1510 m 10 Y s 741 1510 m 10 Y s 805 1510 m 10 Y s 869 1501 m 19 Y s 934 1510 m 10 Y s 998 1510 m 10 Y s 1062 1510 m 10 Y s 1126 1510 m 10 Y s 1191 1501 m 19 Y s 1255 1510 m 10 Y s 1319 1510 m 10 Y s 1383 1510 m 10 Y s 1448 1510 m 10 Y s 1512
 1501 m 19 Y s 1576 1510 m 10 Y s 1640 1510 m 10 Y s 1705 1510 m 10 Y s 1769 1510 m 10 Y s 1833 1501 m 19 Y s 1897 1510 m 10 Y s 1962 1510 m 10 Y s 2026 1510 m 10 Y s 2090 1510 m 10 Y s 2154 1501 m 19 Y s 227 484 m 1036 Y s 248 652 m -21 X s 237 685
 m -10 X s 237 719 m -10 X s 237 753 m -10 X s 237 786 m -10 X s 248 820 m -21 X s 237 854 m -10 X s 237 887 m -10 X s 237 921 m -10 X s 237 955 m -10 X s 248 988 m -21 X s 237 1022 m -10 X s 237 1056 m -10 X s 237 1089 m -10 X s 237 1123 m -10 X s
 248 1156 m -21 X s 237 1190 m -10 X s 237 1224 m -10 X s 237 1257 m -10 X s 237 1291 m -10 X s 248 1325 m -21 X s 237 1358 m -10 X s 237 1392 m -10 X s 237 1426 m -10 X s 237 1459 m -10 X s 248 1493 m -21 X s 248 652 m -21 X s 237 618 m -10 X s 237
 584 m -10 X s 237 551 m -10 X s 237 517 m -10 X s 248 1493 m -21 X s 2154 484 m 1036 Y s 2133 652 m 21 X s 2144 685 m 10 X s 2144 719 m 10 X s 2144 753 m 10 X s 2144 786 m 10 X s 2133 820 m 21 X s 2144 854 m 10 X s 2144 887 m 10 X s 2144 921 m 10 X
 s 2144 955 m 10 X s 2133 988 m 21 X s 2144 1022 m 10 X s 2144 1056 m 10 X s 2144 1089 m 10 X s 2144 1123 m 10 X s 2133 1156 m 21 X s 2144 1190 m 10 X s 2144 1224 m 10 X s 2144 1257 m 10 X s 2144 1291 m 10 X s 2133 1325 m 21 X s 2144 1358 m 10 X s
 2144 1392 m 10 X s 2144 1426 m 10 X s 2144 1459 m 10 X s 2133 1493 m 21 X s 2133 652 m 21 X s 2144 618 m 10 X s 2144 584 m 10 X s 2144 551 m 10 X s 2144 517 m 10 X s 2133 1493 m 21 X s
 gsave  2268 1103 0 472 C 1314.45 1423.98 t 0 r /Helvetica findfont 56.3093 sf 0 0 m ( Data) show NC gr  1259 1451 m 10 Y s 1259 1427 m -10 Y s 1259 1439 m20
 gsave  2268 1103 0 472 C 1808.84 1423.98 t 0 r /Helvetica findfont 56.3093 sf 0 0 m (single\255top) show NC gr 
 gsave  2268 1103 0 472 C 1779.24 1423.98 t 0 r /Helvetica-Oblique findfont 56.3093 sf 0 0 m (/) show NC gr 
 gsave  2268 1103 0 472 C 1758.52 1423.98 t 0 r /Helvetica-Oblique findfont 56.3093 sf 0 0 m (t) show NC gr  6 lw 1759 1468 m 20 X s
 gsave  2268 1103 0 472 C 1737.79 1423.98 t 0 r /Helvetica-Oblique findfont 56.3093 sf 0 0 m (t) show NC gr 
 gsave  2268 1103 0 472 C 1720.03 1423.98 t 0 r /Helvetica findfont 56.3093 sf 0 0 m ( ) show NC gr  0.06 0.54 0.06 c 3 lw 1626 1413 m 79 X 52 Y -79 X f 6 lw black
 gsave  2268 1103 0 472 C 1444.71 1349.97 t 0 r /Helvetica findfont 56.3093 sf 0 0 m (+jets) show NC gr 
 gsave  2268 1103 0 472 C 1332.21 1349.97 t 0 r /Helvetica-Oblique findfont 56.3093 sf 0 0 m (W/Z) show NC gr 
 gsave  2268 1103 0 472 C 1314.45 1349.97 t 0 r /Helvetica findfont 56.3093 sf 0 0 m ( ) show NC gr  1 0.653333 0 c 3 lw 1219 1340 m 79 X 51 Y -79 X f black
 gsave  2268 1103 0 472 C 1918.38 1349.97 t 0 r /Helvetica findfont 56.3093 sf 0 0 m (+jets) show NC gr 
 gsave  2268 1103 0 472 C 1737.79 1349.97 t 0 r /Helvetica-Oblique findfont 56.3093 sf 0 0 m (WZ/ZZ) show NC gr 
 gsave  2268 1103 0 472 C 1720.03 1349.97 t 0 r /Helvetica findfont 56.3093 sf 0 0 m ( ) show NC gr  0.413333 1 0 c 3 lw 1626 1340 m 79 X 51 Y -79 X f black
 gsave  2268 1103 0 472 C 1373.66 1275.96 t 0 r /Helvetica-Oblique findfont 56.3093 sf 0 0 m (Z) show NC gr 
 gsave  2268 1103 0 472 C 1352.93 1275.96 t 0 r /Helvetica-Oblique findfont 56.3093 sf 0 0 m (t) show NC gr  6 lw 1353 1320 m 21 X s
 gsave  2268 1103 0 472 C 1332.21 1275.96 t 0 r /Helvetica-Oblique findfont 56.3093 sf 0 0 m (t) show NC gr 
 gsave  2268 1103 0 472 C 1314.45 1275.96 t 0 r /Helvetica findfont 56.3093 sf 0 0 m ( ) show NC gr  0.6 0.2 1 c 3 lw 1219 1266 m 79 X 52 Y -79 X f 6 lw black
 gsave  2268 1103 0 472 C 1779.24 1275.96 t 0 r /Helvetica-Oblique findfont 56.3093 sf 0 0 m (W) show NC gr 
 gsave  2268 1103 0 472 C 1758.52 1275.96 t 0 r /Helvetica-Oblique findfont 56.3093 sf 0 0 m (t) show NC gr  6 lw 1759 1320 m 20 X s
 gsave  2268 1103 0 472 C 1737.79 1275.96 t 0 r /Helvetica-Oblique findfont 56.3093 sf 0 0 m (t) show NC gr 
 gsave  2268 1103 0 472 C 1720.03 1275.96 t 0 r /Helvetica findfont 56.3093 sf 0 0 m ( ) show NC gr  0.54 0.06 0.06 c 3 lw 1626 1266 m 79 X 52 Y -79 X f 6 lw black
 gsave  2268 1103 0 472 C 1332.21 1204.91 t 0 r /Helvetica-Oblique findfont 56.3093 sf 0 0 m (tZq) show NC gr 
 gsave  2268 1103 0 472 C 1314.45 1204.91 t 0 r /Helvetica findfont 56.3093 sf 0 0 m ( ) show NC gr  1 0 1 c 3 lw 1219 1193 m 79 X 51 Y -79 X f black
 gsave  2268 1103 0 472 C 1779.24 1204.91 t 0 r /Helvetica-Oblique findfont 56.3093 sf 0 0 m (H) show NC gr 
 gsave  2268 1103 0 472 C 1758.52 1204.91 t 0 r /Helvetica-Oblique findfont 56.3093 sf 0 0 m (t) show NC gr  6 lw 1759 1249 m 20 X s
 gsave  2268 1103 0 472 C 1737.79 1204.91 t 0 r /Helvetica-Oblique findfont 56.3093 sf 0 0 m (t) show NC gr 
 gsave  2268 1103 0 472 C 1720.03 1204.91 t 0 r /Helvetica findfont 56.3093 sf 0 0 m ( ) show NC gr  0 0 1 c 3 lw 1626 1193 m 79 X 51 Y -79 X f 6 lw black
 gsave  2268 1103 0 472 C 1332.21 1130.9 t 0 r /Helvetica-Oblique findfont 56.3093 sf 0 0 m (tWZ/tWH) show NC gr 
 gsave  2268 1103 0 472 C 1314.45 1130.9 t 0 r /Helvetica findfont 56.3093 sf 0 0 m ( ) show NC gr  0.2 0.8 0.8 c 3 lw 1219 1119 m 79 X 52 Y -79 X f black
 gsave  2268 1103 0 472 C 1737.79 1130.9 t 0 r /Helvetica-Oblique findfont 56.3093 sf 0 0 m (tHq) show NC gr 
 gsave  2268 1103 0 472 C 1720.03 1130.9 t 0 r /Helvetica findfont 56.3093 sf 0 0 m ( ) show NC gr  1 0 0 c 3 lw 1626 1119 m 79 X 52 Y -79 X f black
 gsave  2268 1103 0 472 C 1314.45 1056.89 t 0 r /Helvetica findfont 56.3093 sf 0 0 m ( Other) show NC gr  1 0.84 0 c 3 lw 1219 1046 m 79 X 51 Y -79 X f black
 gsave  2268 1103 0 472 C 1720.03 1056.89 t 0 r /Helvetica findfont 56.3093 sf 0 0 m ( Uncertainty) show NC gr  0.6 0.6 0.6 c 3 lw 1705 1061 m -15 -15 d s 1705 1080 m -34 -34 d s 1703 1097 m -51 -51 d s 1684 1097 m -51 -51 d s 1665 1097 m -39 -39 d s
 1646 1097 m -20 -20 d s 1626 1097 m s 1 0.84 0 c 0.6 0.6 0.6 c black
 gsave  2268 1103 0 472 C 894.061 1329.25 t 0 r /Helvetica findfont 41.4911 sf 0 0 m (\2551) show NC gr 
 gsave  2268 1103 0 472 C 399.663 1299.64 t 0 r /Helvetica findfont 62.2366 sf 0 0 m ( = 13 TeV,  139 fb) show NC gr 
 gsave  2268 1103 0 472 C 370.058 1299.64 t 0 r /Helvetica findfont 62.2366 sf 0 0 m (s) show NC gr  6 lw 349 1335 m 6 -38 d s 3 lw 355 1297 m 6 56 d s 361 1353 m 39 X s
 gsave  2268 1103 0 472 C 793.405 1201.95 t 0 r /Helvetica findfont 62.2366 sf 0 0 m (\)) show NC gr 
 gsave  2268 1103 0 472 C 737.156 1169.38 t 0 r /Helvetica findfont 41.4911 sf 0 0 m (HF) show NC gr 
 gsave  2268 1103 0 472 C 337.493 1201.95 t 0 r /Helvetica findfont 62.2366 sf 0 0 m ( 2L\(SS\), CR\(el) show NC gr 
 gsave  2268 1103 0 472 C 337.493 1400.3 t 0 r /Helvetica-BoldOblique findfont 71.1276 sf 0 0 m (ATLAS) show NC gr 
 gsave  2268 1103 0 472 C 633.54 1400.3 t 0 r /Helvetica findfont 71.1276 sf 0 0 m (Internal) show NC gr 
 gr  gr showpage
end
%%EOF
