%!PS-Adobe-2.0 EPSF-2.0
%%BoundingBox:  0 0 567 394
%%Title: : EtMiss_CRttbar
%%Creator: ROOT Version 6.20/06
%%CreationDate: Mon May 30 19:26:16 2022
%%DocumentNeededResources: ProcSet (FontSetInit)
%%EndComments
%%BeginProlog
80 dict begin
/s {stroke} def /l {lineto} def /m {moveto} def /t {translate} def
/r {rotate} def /rl {roll}  def /R {repeat} def
/d {rlineto} def /rm {rmoveto} def /gr {grestore} def /f {eofill} def
/c {setrgbcolor} def /black {0 setgray} def /sd {setdash} def
/cl {closepath} def /sf {scalefont setfont} def /lw {setlinewidth} def
/box {m dup 0 exch d exch 0 d 0 exch neg d cl} def
/NC{systemdict begin initclip end}def/C{NC box clip newpath}def
/bl {box s} def /bf {gsave box gsave f grestore 1 lw [] 0 sd s grestore} def /Y { 0 exch d} def /X { 0 d} def 
/K {{pop pop 0 moveto} exch kshow} bind def
/ita {/ang 15 def gsave [1 0 ang dup sin exch cos div 1 0 0] concat} def 
/mp {newpath /y exch def /x exch def} def
/side {[w .77 mul w .23 mul] .385 w mul sd w 0 l currentpoint t -144 r} def
/mr {mp x y w2 0 360 arc} def /m24 {mr s} def /m20 {mr f} def
/mb {mp x y w2 add m w2 neg 0 d 0 w neg d w 0 d 0 w d cl} def
/mt {mp x y w2 add m w2 neg w neg d w 0 d cl} def
/w4 {w 4 div} def
/w6 {w 6 div} def
/w8 {w 8 div} def
/m21 {mb f} def /m25 {mb s} def /m22 {mt f} def /m26{mt s} def
/m23 {mp x y w2 sub m w2 w d w neg 0 d cl f} def
/m27 {mp x y w2 add m w3 neg w2 neg d w3 w2 neg d w3 w2 d cl s} def
/m28 {mp x w2 sub y w2 sub w3 add m w3 0 d  0 w3 neg d w3 0 d 0 w3 d w3 0 d  0 w3 d w3 neg 0 d 0 w3 d w3 neg 0 d 0 w3 neg d w3 neg 0 d cl s } def
/m29 {mp gsave x w2 sub y w2 add w3 sub m currentpoint t 4 {side} repeat cl fill gr} def
/m30 {mp gsave x w2 sub y w2 add w3 sub m currentpoint t 4 {side} repeat cl s gr} def
/m31 {mp x y w2 sub m 0 w d x w2 sub y m w 0 d x w2 sub y w2 add m w w neg d x w2 sub y w2 sub m w w d s} def
/m32 {mp x y w2 sub m w2 w d w neg 0 d cl s} def
/m33 {mp x y w2 add m w3 neg w2 neg d w3 w2 neg d w3 w2 d cl f} def
/m34 {mp x w2 sub y w2 sub w3 add m w3 0 d  0 w3 neg d w3 0 d 0 w3 d w3 0 d  0 w3 d w3 neg 0 d 0 w3 d w3 neg 0 d 0 w3 neg d w3 neg 0 d cl f } def
/m35 {mp x y w2 add m w2 neg w2 neg d w2 w2 neg d w2 w2 d w2 neg w2 d x y w2 sub m 0 w d x w2 sub y m w 0 d s} def
/m36 {mb x w2 sub y w2 add m w w neg d x w2 sub y w2 sub m w w d s} def
/m37 {mp x y m w4 neg w2 d w4 neg w2 neg d w2 0 d  w4 neg w2 neg d w2 0 d w4 neg w2 d w2 0 d w4 neg w2 d w4 neg w2 neg d cl s} def
/m38 {mp x w4 sub y w2 add m w4 neg w4 neg d 0 w2 neg d w4 w4 neg d w2 0 d w4 w4 d 0 w2 d w4 neg w4 d w2 neg 0 d x y w2 sub m 0 w d x w2 sub y m w 0 d cl s} def
/m39 {mp x y m w4 neg w2 d w4 neg w2 neg d w2 0 d  w4 neg w2 neg d w2 0 d w4 neg w2 d w2 0 d w4 neg w2 d w4 neg w2 neg d cl f} def
/m40 {mp x y m w4 w2 d w4 w4 neg d w2 neg w4 neg d w2 w4 neg d w4 neg w4 neg d w4 neg w2 d w4 neg w2 neg d w4 neg w4 d w2 w4 d w2 neg w4 d w4 w4 d w4 w2 neg d cl s} def
/m41 {mp x y m w4 w2 d w4 w4 neg d w2 neg w4 neg d w2 w4 neg d w4 neg w4 neg d w4 neg w2 d w4 neg w2 neg d w4 neg w4 d w2 w4 d w2 neg w4 d w4 w4 d w4 w2 neg d cl f} def
/m42 {mp x y w2 add m w8 neg w2 -3 4 div mul d w2 -3 4 div mul w8 neg d w2 3 4 div mul w8 neg d w8 w2 -3 4 div mul d w8 w2 3 4 div mul d w2 3 4 div mul w8 d w2 -3 4 div mul w8 d w8 neg w2 3 4 div mul d cl s} def
/m43 {mp x y w2 add m w8 neg w2 -3 4 div mul d w2 -3 4 div mul w8 neg d w2 3 4 div mul w8 neg d w8 w2 -3 4 div mul d w8 w2 3 4 div mul d w2 3 4 div mul w8 d w2 -3 4 div mul w8 d w8 neg w2 3 4 div mul d cl f} def
/m44 {mp x y m w6 neg w2 d w2 2 3 div mul 0 d w6 neg w2 neg d w2 w6 d 0 w2 -2 3 div mul d w2 neg w6 d w6 w2 neg d w2 -2 3 div mul 0 d w6 w2 d w2 neg w6 neg d 0 w2 2 3 div mul d w2 w6 neg d cl s} def
/m45 {mp x y m w6 neg w2 d w2 2 3 div mul 0 d w6 neg w2 neg d w2 w6 d 0 w2 -2 3 div mul d w2 neg w6 d w6 w2 neg d w2 -2 3 div mul 0 d w6 w2 d w2 neg w6 neg d 0 w2 2 3 div mul d w2 w6 neg d cl f} def
/m46 {mp x y w4 add m w4 neg w4 d w4 neg w4 neg d  w4 w4 neg d w4 neg w4 neg d w4 w4 neg d w4 w4 d w4 w4 neg d w4 w4 d w4 neg w4 d w4 w4 d w4 neg w4 d w4 neg w4 neg d cl s} def
/m47 {mp x y w4 add m w4 neg w4 d w4 neg w4 neg d w4 w4 neg d w4 neg w4 neg d  w4 w4 neg d w4 w4 d w4 w4 neg d w4 w4 d w4 neg w4 d w4 w4 d w4 neg w4 d w4 neg w4 neg d cl f} def
/m48 {mp x y w4 add m w4 neg w4 d w4 neg w4 neg d w4 w4 neg d  w4 neg w4 neg d w4 w4 neg d w4 w4 d w4 w4 neg d w4 w4 d w4 neg w4 d w4 w4 d w4 neg w4 d w4 neg w4 neg d  w4 w4 neg d w4 neg w4 neg d w4 neg w4 d w4 w4 d cl f} def
/m49 {mp x w2 sub w3 add y w2 sub w3 add m  0 w3 neg d w3 0 d 0 w3 d w3 0 d 0 w3 d w3 neg 0 d 0 w3 d w3 neg 0 d 0 w3 neg d w3 neg 0 d 0 w3 neg d w3 0 d 0 w3 d w3 0 d 0 w3 neg d w3 neg 0 d cl f } def
/m2 {mp x y w2 sub m 0 w d x w2 sub y m w 0 d s} def
/m5 {mp x w2 sub y w2 sub m w w d x w2 sub y w2 add m w w neg d s} def
%%IncludeResource: ProcSet (FontSetInit)
%%IncludeResource: font Times-Roman
%%IncludeResource: font Times-Italic
%%IncludeResource: font Times-Bold
%%IncludeResource: font Times-BoldItalic
%%IncludeResource: font Helvetica
%%IncludeResource: font Helvetica-Oblique
%%IncludeResource: font Helvetica-Bold
%%IncludeResource: font Helvetica-BoldOblique
%%IncludeResource: font Courier
%%IncludeResource: font Courier-Oblique
%%IncludeResource: font Courier-Bold
%%IncludeResource: font Courier-BoldOblique
%%IncludeResource: font Symbol
%%IncludeResource: font ZapfDingbats
/reEncode {exch findfont dup length dict begin {1 index /FID eq  {pop pop} {def} ifelse } forall /Encoding exch def currentdict end dup /FontName get exch definefont pop } def [/Times-Bold /Times-Italic /Times-BoldItalic /Helvetica /Helvetica-Oblique
 /Helvetica-Bold /Helvetica-BoldOblique /Courier /Courier-Oblique /Courier-Bold /Courier-BoldOblique /Times-Roman /AvantGarde-Book /AvantGarde-BookOblique /AvantGarde-Demi /AvantGarde-DemiOblique /Bookman-Demi /Bookman-DemiItalic /Bookman-Light
 /Bookman-LightItalic /Helvetica-Narrow /Helvetica-Narrow-Bold /Helvetica-Narrow-BoldOblique /Helvetica-Narrow-Oblique /NewCenturySchlbk-Roman /NewCenturySchlbk-Bold /NewCenturySchlbk-BoldItalic /NewCenturySchlbk-Italic /Palatino-Bold
 /Palatino-BoldItalic /Palatino-Italic /Palatino-Roman ] {ISOLatin1Encoding reEncode } forall
%%EndProlog
%%BeginSetup
%%EndSetup
newpath  gsave  .25 .25 scale  gsave  0 0 t black[  ] 0 sd 3 lw 1 1 1 c 2268 1575 0 0 bf black 1 1 1 c 2268 472 0 0 bf black 1 1 1 c 1927 274 227 189 bf black 1927 274 227 189 bl 227 189 m 1927 X s 227 201 m -12 Y s 291 195 m -6 Y s 355 195 m -6 Y s
 420 195 m -6 Y s 484 195 m -6 Y s 548 201 m -12 Y s 612 195 m -6 Y s 677 195 m -6 Y s 741 195 m -6 Y s 805 195 m -6 Y s 869 201 m -12 Y s 934 195 m -6 Y s 998 195 m -6 Y s 1062 195 m -6 Y s 1126 195 m -6 Y s 1191 201 m -12 Y s 1255 195 m -6 Y s 1319
 195 m -6 Y s 1383 195 m -6 Y s 1448 195 m -6 Y s 1512 201 m -12 Y s 1576 195 m -6 Y s 1640 195 m -6 Y s 1705 195 m -6 Y s 1769 195 m -6 Y s 1833 201 m -12 Y s 1897 195 m -6 Y s 1962 195 m -6 Y s 2026 195 m -6 Y s 2090 195 m -6 Y s 2154 201 m -12 Y s
 gsave  2268 472 0 0 C 210.193 127.3 t 0 r /Helvetica findfont 53.4895 sf 0 0 m (0) show NC gr 
 gsave  2268 472 0 0 C 518.081 127.3 t 0 r /Helvetica findfont 53.4895 sf 0 0 m (50) show NC gr 
 gsave  2268 472 0 0 C 823.009 127.3 t 0 r /Helvetica findfont 53.4895 sf 0 0 m (100) show NC gr 
 gsave  2268 472 0 0 C 1145.7 127.3 t 0 r /Helvetica findfont 53.4895 sf 0 0 m (150) show NC gr 
 gsave  2268 472 0 0 C 1465.43 127.3 t 0 r /Helvetica findfont 53.4895 sf 0 0 m (200) show NC gr 
 gsave  2268 472 0 0 C 1788.12 127.3 t 0 r /Helvetica findfont 53.4895 sf 0 0 m (250) show NC gr 
 gsave  2268 472 0 0 C 2107.85 127.3 t 0 r /Helvetica findfont 53.4895 sf 0 0 m (300) show NC gr 
 gsave  2268 472 0 0 C 1995.35 41.4465 t 0 r /Helvetica findfont 56.4611 sf 0 0 m ( [GeV]) show NC gr 
 gsave  2268 472 0 0 C 1915.42 68.0907 t 0 r /Helvetica findfont 38.6313 sf 0 0 m (miss) show NC gr 
 gsave  2268 472 0 0 C 1915.42 23.6837 t 0 r /Helvetica findfont 38.6313 sf 0 0 m (T) show NC gr 
 gsave  2268 472 0 0 C 1871.01 41.4465 t 0 r /Helvetica-Oblique findfont 56.4611 sf 0 0 m (E) show NC gr  227 463 m 1927 X s 227 451 m 12 Y s 291 457 m 6 Y s 355 457 m 6 Y s 420 457 m 6 Y s 484 457 m 6 Y s 548 451 m 12 Y s 612 457 m 6 Y s 677 457 m 6
 Y s 741 457 m 6 Y s 805 457 m 6 Y s 869 451 m 12 Y s 934 457 m 6 Y s 998 457 m 6 Y s 1062 457 m 6 Y s 1126 457 m 6 Y s 1191 451 m 12 Y s 1255 457 m 6 Y s 1319 457 m 6 Y s 1383 457 m 6 Y s 1448 457 m 6 Y s 1512 451 m 12 Y s 1576 457 m 6 Y s 1640 457
 m 6 Y s 1705 457 m 6 Y s 1769 457 m 6 Y s 1833 451 m 12 Y s 1897 457 m 6 Y s 1962 457 m 6 Y s 2026 457 m 6 Y s 2090 457 m 6 Y s 2154 451 m 12 Y s 227 189 m 274 Y s 240 240 m -13 X s 240 326 m -13 X s 240 412 m -13 X s 240 240 m -13 X s 240 412 m -13
 X s
 gsave  2268 472 0 0 C 118.419 222.035 t 0 r /Helvetica findfont 53.4895 sf 0 0 m (0.5) show NC gr 
 gsave  2268 472 0 0 C 171.707 307.888 t 0 r /Helvetica findfont 53.4895 sf 0 0 m (1) show NC gr 
 gsave  2268 472 0 0 C 118.419 393.742 t 0 r /Helvetica findfont 53.4895 sf 0 0 m (1.5) show NC gr 
 gsave  2268 472 0 0 C 71.0512 230.916 t 90 r /Helvetica findfont 53.4895 sf 0 0 m (Data / SM) show NC gr  2154 189 m 274 Y s 2141 240 m 13 X s 2141 326 m 13 X s 2141 412 m 13 X s 2141 240 m 13 X s 2141 412 m 13 X s 227 189 m 1927 X s 227 463 m 1927
 X s 227 189 m 274 Y s[ 4 8] 0 sd 2154 240 m -1927 X s 2154 326 m -1927 X s 2154 412 m -1927 X s 2154 240 m -1927 X s 2154 412 m -1927 X s[  ] 0 sd 2154 189 m 274 Y s 1 1 0.6 c 193 0 227 326 bf 192 0 420 326 bf 193 0 612 326 bf 193 0 805 326 bf 193 0
 998 326 bf 192 0 1191 326 bf 193 0 1383 326 bf 193 0 1576 326 bf 193 0 1769 326 bf 192 0 1962 326 bf black 0.6 0.6 0.6 c 420 325 m -5 -5 d s 407 332 m -11 -12 d s 388 332 m -11 -12 d s 369 332 m -11 -12 d s 350 332 m -12 -12 d s 330 332 m -11 -12 d
 s 311 332 m -11 -12 d s 292 332 m -11 -12 d s 273 332 m -12 -12 d s 253 332 m -11 -12 d s 234 332 m -7 -8 d s 612 325 m -4 -4 d s 599 331 m -10 -10 d s 580 331 m -10 -10 d s 561 331 m -10 -10 d s 542 331 m -11 -10 d s 522 331 m -10 -10 d s 503 331 m
 -10 -10 d s 484 331 m -10 -10 d s 465 331 m -11 -10 d s 445 331 m -10 -10 d s 426 331 m -6 -6 d s 805 325 m -3 -2 d s 790 329 m -7 -6 d s 771 329 m -7 -6 d s 752 329 m -7 -6 d s 732 329 m -7 -6 d s 713 329 m -7 -6 d s 694 329 m -7 -6 d s 675 329 m
 -7 -6 d s 655 329 m -6 -6 d s 636 329 m -7 -6 d s 617 329 m -5 -4 d s 998 326 m -5 -5 d s 984 331 m -10 -10 d s 965 331 m -10 -10 d s 945 331 m -9 -10 d s 926 331 m -10 -10 d s 907 331 m -10 -10 d s 888 331 m -10 -10 d s 869 331 m -10 -10 d s 849
 331 m -10 -10 d s 830 331 m -10 -10 d s 811 331 m -6 -6 d s 1191 326 m -8 -8 d s 1179 334 m -15 -16 d s 1160 334 m -16 -16 d s 1141 334 m -16 -16 d s 1121 334 m -15 -16 d s 1102 334 m -15 -16 d s 1083 334 m -15 -16 d s 1064 334 m -16 -16 d s 1044
 334 m -15 -16 d s 1025 334 m -15 -16 d s 1006 334 m -8 -8 d s 1383 326 m -10 -10 d s 1374 336 m -20 -20 d s 1355 336 m -21 -20 d s 1336 336 m -21 -20 d s 1316 336 m -20 -20 d s 1297 336 m -20 -20 d s 1278 336 m -21 -20 d s 1259 336 m -21 -20 d s
 1239 336 m -20 -20 d s 1220 336 m -20 -20 d s 1201 336 m -10 -10 d s 1576 327 m -18 -18 d s 1573 343 m -34 -34 d s 1554 343 m -34 -34 d s 1535 343 m -34 -34 d s 1516 343 m -34 -34 d s 1496 343 m -34 -34 d s 1477 343 m -34 -34 d s 1458 343 m -34 -34
 d s 1439 343 m -34 -34 d s 1419 343 m -34 -34 d s 1400 343 m -17 -17 d s 1769 308 m -3 -3 d s 1769 327 m -22 -22 d s 1769 346 m -41 -41 d s 1751 347 m -43 -42 d s 1731 347 m -42 -42 d s 1712 347 m -42 -42 d s 1693 347 m -42 -42 d s 1674 347 m -43
 -42 d s 1654 347 m -42 -42 d s 1635 347 m -42 -42 d s 1616 347 m -40 -40 d s 1597 347 m -21 -20 d s 1577 347 m -1 -1 d s 1962 308 m -9 -9 d s 1962 327 m -29 -28 d s 1962 347 m -48 -48 d s 1949 353 m -54 -54 d s 1930 353 m -54 -54 d s 1910 353 m -54
 -54 d s 1891 353 m -54 -54 d s 1872 353 m -54 -54 d s 1853 353 m -54 -54 d s 1833 353 m -54 -54 d s 1814 353 m -45 -45 d s 1795 353 m -26 -26 d s 1776 353 m -7 -7 d s 2154 328 m -12 -13 d s 2144 337 m -21 -22 d s 2125 337 m -21 -22 d s 2106 337 m
 -22 -22 d s 2086 337 m -21 -22 d s 2067 337 m -21 -22 d s 2048 337 m -21 -22 d s 2029 337 m -21 -22 d s 2009 337 m -21 -22 d s 1990 337 m -21 -22 d s 1971 337 m -9 -10 d s black 1 1 1 c black 323 350 m 4 Y s 323 378 m 4 Y s /w 26 def /w2 {w 2 div}
 def /w3 {w 3 div} def 323 366 m20 516 336 m20 709 330 m s 709 354 m s 709 342 m20 901 301 m 5 Y s 901 329 m 5 Y s 901 317 m20 1094 331 m 16 Y s 1094 371 m 17 Y s 1094 359 m20 1287 302 m 32 Y s 1287 358 m 32 Y s 1287 346 m20 1480 282 m 42 Y s 1480
 348 m 43 Y s 1480 336 m20 1672 248 m 81 Y s 1672 353 m 81 Y s 1672 341 m20 1865 189 m 38 Y s 1865 250 m 72 Y s 1865 238 m20 2058 189 m 10 Y s 2058 222 m 44 Y s 2058 211 m20 227 326 m 1927 X s 227 189 m 1927 X s 227 201 m -12 Y s 291 195 m -6 Y s 355
 195 m -6 Y s 420 195 m -6 Y s 484 195 m -6 Y s 548 201 m -12 Y s 612 195 m -6 Y s 677 195 m -6 Y s 741 195 m -6 Y s 805 195 m -6 Y s 869 201 m -12 Y s 934 195 m -6 Y s 998 195 m -6 Y s 1062 195 m -6 Y s 1126 195 m -6 Y s 1191 201 m -12 Y s 1255 195
 m -6 Y s 1319 195 m -6 Y s 1383 195 m -6 Y s 1448 195 m -6 Y s 1512 201 m -12 Y s 1576 195 m -6 Y s 1640 195 m -6 Y s 1705 195 m -6 Y s 1769 195 m -6 Y s 1833 201 m -12 Y s 1897 195 m -6 Y s 1962 195 m -6 Y s 2026 195 m -6 Y s 2090 195 m -6 Y s 2154
 201 m -12 Y s 227 463 m 1927 X s 227 451 m 12 Y s 291 457 m 6 Y s 355 457 m 6 Y s 420 457 m 6 Y s 484 457 m 6 Y s 548 451 m 12 Y s 612 457 m 6 Y s 677 457 m 6 Y s 741 457 m 6 Y s 805 457 m 6 Y s 869 451 m 12 Y s 934 457 m 6 Y s 998 457 m 6 Y s 1062
 457 m 6 Y s 1126 457 m 6 Y s 1191 451 m 12 Y s 1255 457 m 6 Y s 1319 457 m 6 Y s 1383 457 m 6 Y s 1448 457 m 6 Y s 1512 451 m 12 Y s 1576 457 m 6 Y s 1640 457 m 6 Y s 1705 457 m 6 Y s 1769 457 m 6 Y s 1833 451 m 12 Y s 1897 457 m 6 Y s 1962 457 m 6
 Y s 2026 457 m 6 Y s 2090 457 m 6 Y s 2154 451 m 12 Y s 227 189 m 274 Y s 240 240 m -13 X s 240 326 m -13 X s 240 412 m -13 X s 240 240 m -13 X s 240 412 m -13 X s 2154 189 m 274 Y s 2141 240 m 13 X s 2141 326 m 13 X s 2141 412 m 13 X s 2141 240 m
 13 X s 2141 412 m 13 X s 1 1 1 c 2268 1103 0 472 bf black 1 1 1 c 1927 1036 227 484 bf black 1927 1036 227 484 bl 1 1 1 c black 3 lw 227 484 m 1927 X s 227 502 m -18 Y s 291 493 m -9 Y s 355 493 m -9 Y s 420 493 m -9 Y s 484 493 m -9 Y s 548 502 m
 -18 Y s 612 493 m -9 Y s 677 493 m -9 Y s 741 493 m -9 Y s 805 493 m -9 Y s 869 502 m -18 Y s 934 493 m -9 Y s 998 493 m -9 Y s 1062 493 m -9 Y s 1126 493 m -9 Y s 1191 502 m -18 Y s 1255 493 m -9 Y s 1319 493 m -9 Y s 1383 493 m -9 Y s 1448 493 m
 -9 Y s 1512 502 m -18 Y s 1576 493 m -9 Y s 1640 493 m -9 Y s 1705 493 m -9 Y s 1769 493 m -9 Y s 1833 502 m -18 Y s 1897 493 m -9 Y s 1962 493 m -9 Y s 2026 493 m -9 Y s 2090 493 m -9 Y s 2154 502 m -18 Y s
 gsave  2268 1103 0 472 C 2069.37 396.702 t 0 r /Helvetica findfont 29.6365 sf 0 0 m ( [GeV]) show NC gr 
 gsave  2268 1103 0 472 C 2024.96 414.465 t 0 r /Helvetica findfont 20.7455 sf 0 0 m (miss) show NC gr 
 gsave  2268 1103 0 472 C 2024.96 387.821 t 0 r /Helvetica findfont 20.7455 sf 0 0 m (T) show NC gr 
 gsave  2268 1103 0 472 C 2001.27 396.702 t 0 r /Helvetica-Oblique findfont 29.6365 sf 0 0 m (E) show NC gr  227 1520 m 1927 X s 227 1501 m 19 Y s 291 1510 m 10 Y s 355 1510 m 10 Y s 420 1510 m 10 Y s 484 1510 m 10 Y s 548 1501 m 19 Y s 612 1510 m 10
 Y s 677 1510 m 10 Y s 741 1510 m 10 Y s 805 1510 m 10 Y s 869 1501 m 19 Y s 934 1510 m 10 Y s 998 1510 m 10 Y s 1062 1510 m 10 Y s 1126 1510 m 10 Y s 1191 1501 m 19 Y s 1255 1510 m 10 Y s 1319 1510 m 10 Y s 1383 1510 m 10 Y s 1448 1510 m 10 Y s 1512
 1501 m 19 Y s 1576 1510 m 10 Y s 1640 1510 m 10 Y s 1705 1510 m 10 Y s 1769 1510 m 10 Y s 1833 1501 m 19 Y s 1897 1510 m 10 Y s 1962 1510 m 10 Y s 2026 1510 m 10 Y s 2090 1510 m 10 Y s 2154 1501 m 19 Y s 227 484 m 1036 Y s 248 624 m -21 X s 237 652
 m -10 X s 237 680 m -10 X s 237 708 m -10 X s 237 736 m -10 X s 248 765 m -21 X s 237 793 m -10 X s 237 821 m -10 X s 237 849 m -10 X s 237 877 m -10 X s 248 905 m -21 X s 237 933 m -10 X s 237 961 m -10 X s 237 989 m -10 X s 237 1017 m -10 X s 248
 1046 m -21 X s 237 1074 m -10 X s 237 1102 m -10 X s 237 1130 m -10 X s 237 1158 m -10 X s 248 1186 m -21 X s 237 1214 m -10 X s 237 1242 m -10 X s 237 1270 m -10 X s 237 1299 m -10 X s 248 1327 m -21 X s 237 1355 m -10 X s 237 1383 m -10 X s 237
 1411 m -10 X s 237 1439 m -10 X s 248 1467 m -21 X s 248 624 m -21 X s 237 596 m -10 X s 237 568 m -10 X s 237 540 m -10 X s 237 512 m -10 X s 248 1467 m -21 X s 237 1495 m -10 X s
 gsave  2268 1103 0 472 C 118.419 603.935 t 0 r /Helvetica findfont 50.382 sf 0 0 m (100) show NC gr 
 gsave  2268 1103 0 472 C 118.419 746.037 t 0 r /Helvetica findfont 50.382 sf 0 0 m (200) show NC gr 
 gsave  2268 1103 0 472 C 118.419 885.179 t 0 r /Helvetica findfont 50.382 sf 0 0 m (300) show NC gr 
 gsave  2268 1103 0 472 C 118.419 1027.28 t 0 r /Helvetica findfont 50.382 sf 0 0 m (400) show NC gr 
 gsave  2268 1103 0 472 C 118.419 1166.42 t 0 r /Helvetica findfont 50.382 sf 0 0 m (500) show NC gr 
 gsave  2268 1103 0 472 C 118.419 1308.53 t 0 r /Helvetica findfont 50.382 sf 0 0 m (600) show NC gr 
 gsave  2268 1103 0 472 C 118.419 1447.67 t 0 r /Helvetica findfont 50.382 sf 0 0 m (700) show NC gr 
 gsave  2268 1103 0 472 C 62.1698 1154.58 t 90 r /Helvetica findfont 50.382 sf 0 0 m (Events / 30 GeV) show NC gr  2154 484 m 1036 Y s 2133 624 m 21 X s 2144 652 m 10 X s 2144 680 m 10 X s 2144 708 m 10 X s 2144 736 m 10 X s 2133 765 m 21 X s 2144
 793 m 10 X s 2144 821 m 10 X s 2144 849 m 10 X s 2144 877 m 10 X s 2133 905 m 21 X s 2144 933 m 10 X s 2144 961 m 10 X s 2144 989 m 10 X s 2144 1017 m 10 X s 2133 1046 m 21 X s 2144 1074 m 10 X s 2144 1102 m 10 X s 2144 1130 m 10 X s 2144 1158 m 10
 X s 2133 1186 m 21 X s 2144 1214 m 10 X s 2144 1242 m 10 X s 2144 1270 m 10 X s 2144 1299 m 10 X s 2133 1327 m 21 X s 2144 1355 m 10 X s 2144 1383 m 10 X s 2144 1411 m 10 X s 2144 1439 m 10 X s 2133 1467 m 21 X s 2133 624 m 21 X s 2144 596 m 10 X s
 2144 568 m 10 X s 2144 540 m 10 X s 2144 512 m 10 X s 2133 1467 m 21 X s 2144 1495 m 10 X s 0.06 0.54 0.06 c black 3 lw 0.06 0.54 0.06 c 227 484 m 188 Y 193 X 226 Y 192 X -107 Y 193 X -160 Y 193 X -86 Y 193 X -38 Y 192 X -9 Y 193 X -9 Y 193 X -3 Y
 193 X 2 Y 192 X -4 Y f 1 0.653333 0 c 0.999 0.999 0.999 c black 3 lw 0.999 0.999 0.999 c 227 484 m 83 Y 193 X 100 Y 192 X -51 Y 193 X -64 Y 193 X -38 Y 193 X -17 Y 192 X -6 Y 193 X -4 Y 193 X -2 Y 193 X 1 Y 192 X -2 Y f 1 0.653333 0 c 0.999 0.999
 0.999 c 1 0.653333 0 c 1 1 1 c black 1 0.653333 0 c black 3 lw 1 0.653333 0 c 227 484 m 83 Y 193 X 100 Y 192 X -51 Y 193 X -64 Y 193 X -38 Y 193 X -17 Y 192 X -6 Y 193 X -4 Y 193 X -2 Y 193 X 1 Y 192 X -2 Y f 0.413333 1 0 c 0.999 0.999 0.999 c black
 3 lw 0.999 0.999 0.999 c 227 484 m 71 Y 193 X 83 Y 192 X -27 Y 193 X -61 Y 193 X -37 Y 193 X -16 Y 192 X -7 Y 193 X -3 Y 193 X -2 Y 193 X 1 Y 192 X -2 Y f 0.413333 1 0 c 0.999 0.999 0.999 c 0.413333 1 0 c 1 1 1 c black 0.413333 1 0 c black 3 lw
 0.413333 1 0 c 227 484 m 71 Y 193 X 83 Y 192 X -27 Y 193 X -61 Y 193 X -37 Y 193 X -16 Y 192 X -7 Y 193 X -3 Y 193 X -2 Y 193 X 1 Y 192 X -2 Y f 0.6 0.2 1 c 0.999 0.999 0.999 c black 3 lw 0.999 0.999 0.999 c 227 484 m 54 Y 193 X 69 Y 192 X -18 Y 193
 X -47 Y 193 X -32 Y 193 X -15 Y 192 X -5 Y 193 X -4 Y 193 X -1 Y 193 X 1 Y 192 X -2 Y f 0.6 0.2 1 c 0.999 0.999 0.999 c 0.6 0.2 1 c 1 1 1 c black 0.6 0.2 1 c black 3 lw 0.6 0.2 1 c 227 484 m 54 Y 193 X 69 Y 192 X -18 Y 193 X -47 Y 193 X -32 Y 193 X
 -15 Y 192 X -5 Y 193 X -4 Y 193 X -1 Y 193 X 1 Y 192 X -2 Y f 0.54 0.06 0.06 c 0.999 0.999 0.999 c black 3 lw 0.999 0.999 0.999 c 227 484 m 44 Y 193 X 58 Y 192 X -12 Y 193 X -40 Y 193 X -28 Y 193 X -12 Y 192 X -5 Y 193 X -3 Y 193 X -1 Y 193 X 1 Y
 192 X -2 Y f 0.54 0.06 0.06 c 0.999 0.999 0.999 c 0.54 0.06 0.06 c 1 1 1 c black 0.54 0.06 0.06 c black 3 lw 0.54 0.06 0.06 c 227 484 m 44 Y 193 X 58 Y 192 X -12 Y 193 X -40 Y 193 X -28 Y 193 X -12 Y 192 X -5 Y 193 X -3 Y 193 X -1 Y 193 X 1 Y 192 X
 -2 Y f 1 0 1 c 0.999 0.999 0.999 c black 3 lw 0.999 0.999 0.999 c 227 484 m 14 Y 193 X 18 Y 192 X -5 Y 193 X -13 Y 193 X -9 Y 193 X -3 Y 192 X -1 Y 193 X -1 Y 578 X f 1 0 1 c 0.999 0.999 0.999 c 1 0 1 c 1 1 1 c black 1 0 1 c black 3 lw 1 0 1 c 227
 484 m 14 Y 193 X 18 Y 192 X -5 Y 193 X -13 Y 193 X -9 Y 193 X -3 Y 192 X -1 Y 193 X -1 Y 578 X f 0 0 1 c 0.999 0.999 0.999 c black 3 lw 0.999 0.999 0.999 c 227 484 m 8 Y 193 X 11 Y 192 X -1 Y 193 X -8 Y 193 X -6 Y 193 X -3 Y 192 X -1 Y 771 X f 0 0 1
 c 0.999 0.999 0.999 c 0 0 1 c 1 1 1 c black 0 0 1 c black 3 lw 0 0 1 c 227 484 m 8 Y 193 X 11 Y 192 X -1 Y 193 X -8 Y 193 X -6 Y 193 X -3 Y 192 X -1 Y 771 X f 0.2 0.8 0.8 c 0.999 0.999 0.999 c black 3 lw 0.999 0.999 0.999 c 227 484 m 1 Y 193 X 3 Y
 192 X 1 Y 193 X -2 Y 193 X -3 Y 1156 X f 0.2 0.8 0.8 c 0.999 0.999 0.999 c 0.2 0.8 0.8 c 1 1 1 c black 0.2 0.8 0.8 c black 3 lw 0.2 0.8 0.8 c 227 484 m 1 Y 193 X 3 Y 192 X 1 Y 193 X -2 Y 193 X -3 Y 1156 X f 1 0 0 c 0.999 0.999 0.999 c black 3 lw
 0.999 0.999 0.999 c 227 484 m 193 X 2 Y 192 X 1 Y 193 X -1 Y 193 X -2 Y 1156 X f 1 0 0 c 0.999 0.999 0.999 c 1 0 0 c 1 1 1 c black 1 0 0 c black 3 lw 1 0 0 c 227 484 m 193 X 2 Y 192 X 1 Y 193 X -1 Y 193 X -2 Y 1156 X f 1 0.84 0 c 0.999 0.999 0.999 c
 black 3 lw 0.999 0.999 0.999 c 227 484 m 385 X 2 Y 193 X -1 Y 193 X -1 Y 1156 X f 1 0.84 0 c 0.999 0.999 0.999 c 1 0.84 0 c 1 1 1 c black 1 0.84 0 c black 3 lw 1 0.84 0 c 227 484 m 385 X 2 Y 193 X -1 Y 193 X -1 Y 1156 X f black 1 1 1 c black 0.6 0.6
 0.6 c 3 lw 417 678 m -12 -13 d s 398 678 m -12 -13 d s 379 678 m -13 -13 d s 360 678 m -13 -13 d s 340 678 m -12 -13 d s 321 678 m -12 -13 d s 302 678 m -13 -13 d s 283 678 m -13 -13 d s 263 678 m -12 -13 d s 244 678 m -12 -13 d s 3 lw 612 892 m -6
 -6 d s 612 910 m -25 -24 d s 593 910 m -25 -24 d s 573 910 m -24 -24 d s 554 910 m -25 -24 d s 535 910 m -25 -24 d s 516 910 m -25 -24 d s 496 910 m -24 -24 d s 477 910 m -25 -24 d s 458 910 m -25 -24 d s 439 910 m -19 -19 d s 3 lw 805 796 m -11 -11
 d s 787 797 m -12 -12 d s 768 797 m -13 -12 d s 749 797 m -13 -12 d s 729 797 m -12 -12 d s 710 797 m -12 -12 d s 691 797 m -13 -12 d s 672 797 m -13 -12 d s 652 797 m -12 -12 d s 633 797 m -12 -12 d s 614 797 m -2 -1 d s 3 lw 991 636 m -9 -9 d s
 972 636 m -9 -9 d s 952 636 m -8 -9 d s 933 636 m -8 -9 d s 914 636 m -9 -9 d s 895 636 m -9 -9 d s 875 636 m -8 -9 d s 856 636 m -8 -9 d s 837 636 m -9 -9 d s 818 636 m -9 -9 d s 3 lw 1191 547 m -5 -5 d s 1172 547 m -6 -5 d s 1153 547 m -6 -5 d s
 1133 547 m -5 -5 d s 1114 547 m -5 -5 d s 1095 547 m -6 -5 d s 1076 547 m -6 -5 d s 1056 547 m -5 -5 d s 1037 547 m -5 -5 d s 1018 547 m -6 -5 d s 999 547 m -1 X s 3 lw 1383 509 m -3 -3 d s 1364 509 m -3 -3 d s 1345 509 m -3 -3 d s 1326 509 m -3 -3
 d s 1306 509 m -2 -3 d s 1287 509 m -3 -3 d s 1268 509 m -3 -3 d s 1249 509 m -3 -3 d s 1229 509 m -2 -3 d s 1210 509 m -3 -3 d s 1191 509 m -1 Y s 3 lw 1566 500 m -2 -3 d s 1547 500 m -3 -3 d s 1528 500 m -3 -3 d s 1509 500 m -3 -3 d s 1490 500 m
 -3 -3 d s 1470 500 m -3 -3 d s 1451 500 m -3 -3 d s 1432 500 m -3 -3 d s 1413 500 m -3 -3 d s 1393 500 m -3 -3 d s 3 lw 1768 489 m -1 -1 d s 1749 489 m -2 -1 d s 1729 489 m -1 -1 d s 1710 489 m -1 -1 d s 1691 489 m -1 -1 d s 1672 489 m -2 -1 d s
 1652 489 m -1 -1 d s 1633 489 m -1 -1 d s 1614 489 m -1 -1 d s 1595 489 m -2 -1 d s 3 lw 1958 487 m -1 -1 d s 1939 487 m -1 -1 d s 1919 487 m -1 -1 d s 1900 487 m -1 -1 d s 1881 487 m -1 -1 d s 1862 487 m -1 -1 d s 1842 487 m -1 -1 d s 1823 487 m -1
 -1 d s 1804 487 m -1 -1 d s 1785 487 m -1 -1 d s 3 lw 2152 488 m -1 X s 2132 488 m s 2113 488 m -1 X s 2094 488 m -1 X s 2075 488 m -1 X s 2055 488 m s 2036 488 m s 2017 488 m -1 X s 1998 488 m -1 X s 1978 488 m s black 3 lw 1 1 1 c black 323 697 m
 7 Y s 323 727 m 6 Y s /w 24 def /w2 {w 2 div} def /w3 {w 3 div} def 323 715 m20 516 897 m 13 Y s 516 934 m 13 Y s 516 922 m20 709 798 m 10 Y s 709 831 m 10 Y s 709 819 m20 901 610 m 2 Y s 901 636 m 2 Y s 901 624 m20 1094 557 m20 1287 510 m20 1480
 499 m20 1672 489 m20 1865 485 m20 2058 485 m20 227 484 m 1927 X s 227 502 m -18 Y s 291 493 m -9 Y s 355 493 m -9 Y s 420 493 m -9 Y s 484 493 m -9 Y s 548 502 m -18 Y s 612 493 m -9 Y s 677 493 m -9 Y s 741 493 m -9 Y s 805 493 m -9 Y s 869 502 m
 -18 Y s 934 493 m -9 Y s 998 493 m -9 Y s 1062 493 m -9 Y s 1126 493 m -9 Y s 1191 502 m -18 Y s 1255 493 m -9 Y s 1319 493 m -9 Y s 1383 493 m -9 Y s 1448 493 m -9 Y s 1512 502 m -18 Y s 1576 493 m -9 Y s 1640 493 m -9 Y s 1705 493 m -9 Y s 1769
 493 m -9 Y s 1833 502 m -18 Y s 1897 493 m -9 Y s 1962 493 m -9 Y s 2026 493 m -9 Y s 2090 493 m -9 Y s 2154 502 m -18 Y s 227 1520 m 1927 X s 227 1501 m 19 Y s 291 1510 m 10 Y s 355 1510 m 10 Y s 420 1510 m 10 Y s 484 1510 m 10 Y s 548 1501 m 19 Y
 s 612 1510 m 10 Y s 677 1510 m 10 Y s 741 1510 m 10 Y s 805 1510 m 10 Y s 869 1501 m 19 Y s 934 1510 m 10 Y s 998 1510 m 10 Y s 1062 1510 m 10 Y s 1126 1510 m 10 Y s 1191 1501 m 19 Y s 1255 1510 m 10 Y s 1319 1510 m 10 Y s 1383 1510 m 10 Y s 1448
 1510 m 10 Y s 1512 1501 m 19 Y s 1576 1510 m 10 Y s 1640 1510 m 10 Y s 1705 1510 m 10 Y s 1769 1510 m 10 Y s 1833 1501 m 19 Y s 1897 1510 m 10 Y s 1962 1510 m 10 Y s 2026 1510 m 10 Y s 2090 1510 m 10 Y s 2154 1501 m 19 Y s 227 484 m 1036 Y s 248 624
 m -21 X s 237 652 m -10 X s 237 680 m -10 X s 237 708 m -10 X s 237 736 m -10 X s 248 765 m -21 X s 237 793 m -10 X s 237 821 m -10 X s 237 849 m -10 X s 237 877 m -10 X s 248 905 m -21 X s 237 933 m -10 X s 237 961 m -10 X s 237 989 m -10 X s 237
 1017 m -10 X s 248 1046 m -21 X s 237 1074 m -10 X s 237 1102 m -10 X s 237 1130 m -10 X s 237 1158 m -10 X s 248 1186 m -21 X s 237 1214 m -10 X s 237 1242 m -10 X s 237 1270 m -10 X s 237 1299 m -10 X s 248 1327 m -21 X s 237 1355 m -10 X s 237
 1383 m -10 X s 237 1411 m -10 X s 237 1439 m -10 X s 248 1467 m -21 X s 248 624 m -21 X s 237 596 m -10 X s 237 568 m -10 X s 237 540 m -10 X s 237 512 m -10 X s 248 1467 m -21 X s 237 1495 m -10 X s 2154 484 m 1036 Y s 2133 624 m 21 X s 2144 652 m
 10 X s 2144 680 m 10 X s 2144 708 m 10 X s 2144 736 m 10 X s 2133 765 m 21 X s 2144 793 m 10 X s 2144 821 m 10 X s 2144 849 m 10 X s 2144 877 m 10 X s 2133 905 m 21 X s 2144 933 m 10 X s 2144 961 m 10 X s 2144 989 m 10 X s 2144 1017 m 10 X s 2133
 1046 m 21 X s 2144 1074 m 10 X s 2144 1102 m 10 X s 2144 1130 m 10 X s 2144 1158 m 10 X s 2133 1186 m 21 X s 2144 1214 m 10 X s 2144 1242 m 10 X s 2144 1270 m 10 X s 2144 1299 m 10 X s 2133 1327 m 21 X s 2144 1355 m 10 X s 2144 1383 m 10 X s 2144
 1411 m 10 X s 2144 1439 m 10 X s 2133 1467 m 21 X s 2133 624 m 21 X s 2144 596 m 10 X s 2144 568 m 10 X s 2144 540 m 10 X s 2144 512 m 10 X s 2133 1467 m 21 X s 2144 1495 m 10 X s
 gsave  2268 1103 0 472 C 1314.45 1423.98 t 0 r /Helvetica findfont 56.3093 sf 0 0 m ( Data) show NC gr  1259 1451 m 10 Y s 1259 1427 m -10 Y s 1259 1439 m20
 gsave  2268 1103 0 472 C 1808.84 1423.98 t 0 r /Helvetica findfont 56.3093 sf 0 0 m (single\255top) show NC gr 
 gsave  2268 1103 0 472 C 1779.24 1423.98 t 0 r /Helvetica-Oblique findfont 56.3093 sf 0 0 m (/) show NC gr 
 gsave  2268 1103 0 472 C 1758.52 1423.98 t 0 r /Helvetica-Oblique findfont 56.3093 sf 0 0 m (t) show NC gr  6 lw 1759 1468 m 20 X s
 gsave  2268 1103 0 472 C 1737.79 1423.98 t 0 r /Helvetica-Oblique findfont 56.3093 sf 0 0 m (t) show NC gr 
 gsave  2268 1103 0 472 C 1720.03 1423.98 t 0 r /Helvetica findfont 56.3093 sf 0 0 m ( ) show NC gr  0.06 0.54 0.06 c 3 lw 1626 1413 m 79 X 52 Y -79 X f 6 lw black
 gsave  2268 1103 0 472 C 1444.71 1349.97 t 0 r /Helvetica findfont 56.3093 sf 0 0 m (+jets) show NC gr 
 gsave  2268 1103 0 472 C 1332.21 1349.97 t 0 r /Helvetica-Oblique findfont 56.3093 sf 0 0 m (W/Z) show NC gr 
 gsave  2268 1103 0 472 C 1314.45 1349.97 t 0 r /Helvetica findfont 56.3093 sf 0 0 m ( ) show NC gr  1 0.653333 0 c 3 lw 1219 1340 m 79 X 51 Y -79 X f black
 gsave  2268 1103 0 472 C 1918.38 1349.97 t 0 r /Helvetica findfont 56.3093 sf 0 0 m (+jets) show NC gr 
 gsave  2268 1103 0 472 C 1737.79 1349.97 t 0 r /Helvetica-Oblique findfont 56.3093 sf 0 0 m (WZ/ZZ) show NC gr 
 gsave  2268 1103 0 472 C 1720.03 1349.97 t 0 r /Helvetica findfont 56.3093 sf 0 0 m ( ) show NC gr  0.413333 1 0 c 3 lw 1626 1340 m 79 X 51 Y -79 X f black
 gsave  2268 1103 0 472 C 1373.66 1275.96 t 0 r /Helvetica-Oblique findfont 56.3093 sf 0 0 m (Z) show NC gr 
 gsave  2268 1103 0 472 C 1352.93 1275.96 t 0 r /Helvetica-Oblique findfont 56.3093 sf 0 0 m (t) show NC gr  6 lw 1353 1320 m 21 X s
 gsave  2268 1103 0 472 C 1332.21 1275.96 t 0 r /Helvetica-Oblique findfont 56.3093 sf 0 0 m (t) show NC gr 
 gsave  2268 1103 0 472 C 1314.45 1275.96 t 0 r /Helvetica findfont 56.3093 sf 0 0 m ( ) show NC gr  0.6 0.2 1 c 3 lw 1219 1266 m 79 X 52 Y -79 X f 6 lw black
 gsave  2268 1103 0 472 C 1779.24 1275.96 t 0 r /Helvetica-Oblique findfont 56.3093 sf 0 0 m (W) show NC gr 
 gsave  2268 1103 0 472 C 1758.52 1275.96 t 0 r /Helvetica-Oblique findfont 56.3093 sf 0 0 m (t) show NC gr  6 lw 1759 1320 m 20 X s
 gsave  2268 1103 0 472 C 1737.79 1275.96 t 0 r /Helvetica-Oblique findfont 56.3093 sf 0 0 m (t) show NC gr 
 gsave  2268 1103 0 472 C 1720.03 1275.96 t 0 r /Helvetica findfont 56.3093 sf 0 0 m ( ) show NC gr  0.54 0.06 0.06 c 3 lw 1626 1266 m 79 X 52 Y -79 X f 6 lw black
 gsave  2268 1103 0 472 C 1332.21 1204.91 t 0 r /Helvetica-Oblique findfont 56.3093 sf 0 0 m (tZq) show NC gr 
 gsave  2268 1103 0 472 C 1314.45 1204.91 t 0 r /Helvetica findfont 56.3093 sf 0 0 m ( ) show NC gr  1 0 1 c 3 lw 1219 1193 m 79 X 51 Y -79 X f black
 gsave  2268 1103 0 472 C 1779.24 1204.91 t 0 r /Helvetica-Oblique findfont 56.3093 sf 0 0 m (H) show NC gr 
 gsave  2268 1103 0 472 C 1758.52 1204.91 t 0 r /Helvetica-Oblique findfont 56.3093 sf 0 0 m (t) show NC gr  6 lw 1759 1249 m 20 X s
 gsave  2268 1103 0 472 C 1737.79 1204.91 t 0 r /Helvetica-Oblique findfont 56.3093 sf 0 0 m (t) show NC gr 
 gsave  2268 1103 0 472 C 1720.03 1204.91 t 0 r /Helvetica findfont 56.3093 sf 0 0 m ( ) show NC gr  0 0 1 c 3 lw 1626 1193 m 79 X 51 Y -79 X f 6 lw black
 gsave  2268 1103 0 472 C 1332.21 1130.9 t 0 r /Helvetica-Oblique findfont 56.3093 sf 0 0 m (tWZ/tWH) show NC gr 
 gsave  2268 1103 0 472 C 1314.45 1130.9 t 0 r /Helvetica findfont 56.3093 sf 0 0 m ( ) show NC gr  0.2 0.8 0.8 c 3 lw 1219 1119 m 79 X 52 Y -79 X f black
 gsave  2268 1103 0 472 C 1737.79 1130.9 t 0 r /Helvetica-Oblique findfont 56.3093 sf 0 0 m (tHq) show NC gr 
 gsave  2268 1103 0 472 C 1720.03 1130.9 t 0 r /Helvetica findfont 56.3093 sf 0 0 m ( ) show NC gr  1 0 0 c 3 lw 1626 1119 m 79 X 52 Y -79 X f black
 gsave  2268 1103 0 472 C 1314.45 1056.89 t 0 r /Helvetica findfont 56.3093 sf 0 0 m ( Other) show NC gr  1 0.84 0 c 3 lw 1219 1046 m 79 X 51 Y -79 X f black
 gsave  2268 1103 0 472 C 1720.03 1056.89 t 0 r /Helvetica findfont 56.3093 sf 0 0 m ( Uncertainty) show NC gr  0.6 0.6 0.6 c 3 lw 1705 1061 m -15 -15 d s 1705 1080 m -34 -34 d s 1703 1097 m -51 -51 d s 1684 1097 m -51 -51 d s 1665 1097 m -39 -39 d s
 1646 1097 m -20 -20 d s 1626 1097 m s 1 0.84 0 c 0.6 0.6 0.6 c black
 gsave  2268 1103 0 472 C 894.061 1329.25 t 0 r /Helvetica findfont 41.4911 sf 0 0 m (\2551) show NC gr 
 gsave  2268 1103 0 472 C 399.663 1299.64 t 0 r /Helvetica findfont 62.2366 sf 0 0 m ( = 13 TeV,  139 fb) show NC gr 
 gsave  2268 1103 0 472 C 370.058 1299.64 t 0 r /Helvetica findfont 62.2366 sf 0 0 m (s) show NC gr  6 lw 349 1335 m 6 -38 d s 3 lw 355 1297 m 6 56 d s 361 1353 m 39 X s
 gsave  2268 1103 0 472 C 899.982 1201.95 t 0 r /Helvetica findfont 62.2366 sf 0 0 m (\)) show NC gr 
 gsave  2268 1103 0 472 C 843.733 1169.38 t 0 r /Helvetica findfont 41.4911 sf 0 0 m (HF) show NC gr 
 gsave  2268 1103 0 472 C 337.493 1201.95 t 0 r /Helvetica findfont 62.2366 sf 0 0 m ( 2L\(SS\), CR\(el/mu) show NC gr 
 gsave  2268 1103 0 472 C 337.493 1400.3 t 0 r /Helvetica-BoldOblique findfont 71.1276 sf 0 0 m (ATLAS) show NC gr 
 gsave  2268 1103 0 472 C 633.54 1400.3 t 0 r /Helvetica findfont 71.1276 sf 0 0 m (Internal) show NC gr 
 gr  gr showpage
end
%%EOF
