%!PS-Adobe-2.0 EPSF-2.0
%%BoundingBox:  0 0 567 394
%%Title: : EtMiss_CRttbarMu
%%Creator: ROOT Version 6.20/06
%%CreationDate: Mon May 30 19:26:17 2022
%%DocumentNeededResources: ProcSet (FontSetInit)
%%EndComments
%%BeginProlog
80 dict begin
/s {stroke} def /l {lineto} def /m {moveto} def /t {translate} def
/r {rotate} def /rl {roll}  def /R {repeat} def
/d {rlineto} def /rm {rmoveto} def /gr {grestore} def /f {eofill} def
/c {setrgbcolor} def /black {0 setgray} def /sd {setdash} def
/cl {closepath} def /sf {scalefont setfont} def /lw {setlinewidth} def
/box {m dup 0 exch d exch 0 d 0 exch neg d cl} def
/NC{systemdict begin initclip end}def/C{NC box clip newpath}def
/bl {box s} def /bf {gsave box gsave f grestore 1 lw [] 0 sd s grestore} def /Y { 0 exch d} def /X { 0 d} def 
/K {{pop pop 0 moveto} exch kshow} bind def
/ita {/ang 15 def gsave [1 0 ang dup sin exch cos div 1 0 0] concat} def 
/mp {newpath /y exch def /x exch def} def
/side {[w .77 mul w .23 mul] .385 w mul sd w 0 l currentpoint t -144 r} def
/mr {mp x y w2 0 360 arc} def /m24 {mr s} def /m20 {mr f} def
/mb {mp x y w2 add m w2 neg 0 d 0 w neg d w 0 d 0 w d cl} def
/mt {mp x y w2 add m w2 neg w neg d w 0 d cl} def
/w4 {w 4 div} def
/w6 {w 6 div} def
/w8 {w 8 div} def
/m21 {mb f} def /m25 {mb s} def /m22 {mt f} def /m26{mt s} def
/m23 {mp x y w2 sub m w2 w d w neg 0 d cl f} def
/m27 {mp x y w2 add m w3 neg w2 neg d w3 w2 neg d w3 w2 d cl s} def
/m28 {mp x w2 sub y w2 sub w3 add m w3 0 d  0 w3 neg d w3 0 d 0 w3 d w3 0 d  0 w3 d w3 neg 0 d 0 w3 d w3 neg 0 d 0 w3 neg d w3 neg 0 d cl s } def
/m29 {mp gsave x w2 sub y w2 add w3 sub m currentpoint t 4 {side} repeat cl fill gr} def
/m30 {mp gsave x w2 sub y w2 add w3 sub m currentpoint t 4 {side} repeat cl s gr} def
/m31 {mp x y w2 sub m 0 w d x w2 sub y m w 0 d x w2 sub y w2 add m w w neg d x w2 sub y w2 sub m w w d s} def
/m32 {mp x y w2 sub m w2 w d w neg 0 d cl s} def
/m33 {mp x y w2 add m w3 neg w2 neg d w3 w2 neg d w3 w2 d cl f} def
/m34 {mp x w2 sub y w2 sub w3 add m w3 0 d  0 w3 neg d w3 0 d 0 w3 d w3 0 d  0 w3 d w3 neg 0 d 0 w3 d w3 neg 0 d 0 w3 neg d w3 neg 0 d cl f } def
/m35 {mp x y w2 add m w2 neg w2 neg d w2 w2 neg d w2 w2 d w2 neg w2 d x y w2 sub m 0 w d x w2 sub y m w 0 d s} def
/m36 {mb x w2 sub y w2 add m w w neg d x w2 sub y w2 sub m w w d s} def
/m37 {mp x y m w4 neg w2 d w4 neg w2 neg d w2 0 d  w4 neg w2 neg d w2 0 d w4 neg w2 d w2 0 d w4 neg w2 d w4 neg w2 neg d cl s} def
/m38 {mp x w4 sub y w2 add m w4 neg w4 neg d 0 w2 neg d w4 w4 neg d w2 0 d w4 w4 d 0 w2 d w4 neg w4 d w2 neg 0 d x y w2 sub m 0 w d x w2 sub y m w 0 d cl s} def
/m39 {mp x y m w4 neg w2 d w4 neg w2 neg d w2 0 d  w4 neg w2 neg d w2 0 d w4 neg w2 d w2 0 d w4 neg w2 d w4 neg w2 neg d cl f} def
/m40 {mp x y m w4 w2 d w4 w4 neg d w2 neg w4 neg d w2 w4 neg d w4 neg w4 neg d w4 neg w2 d w4 neg w2 neg d w4 neg w4 d w2 w4 d w2 neg w4 d w4 w4 d w4 w2 neg d cl s} def
/m41 {mp x y m w4 w2 d w4 w4 neg d w2 neg w4 neg d w2 w4 neg d w4 neg w4 neg d w4 neg w2 d w4 neg w2 neg d w4 neg w4 d w2 w4 d w2 neg w4 d w4 w4 d w4 w2 neg d cl f} def
/m42 {mp x y w2 add m w8 neg w2 -3 4 div mul d w2 -3 4 div mul w8 neg d w2 3 4 div mul w8 neg d w8 w2 -3 4 div mul d w8 w2 3 4 div mul d w2 3 4 div mul w8 d w2 -3 4 div mul w8 d w8 neg w2 3 4 div mul d cl s} def
/m43 {mp x y w2 add m w8 neg w2 -3 4 div mul d w2 -3 4 div mul w8 neg d w2 3 4 div mul w8 neg d w8 w2 -3 4 div mul d w8 w2 3 4 div mul d w2 3 4 div mul w8 d w2 -3 4 div mul w8 d w8 neg w2 3 4 div mul d cl f} def
/m44 {mp x y m w6 neg w2 d w2 2 3 div mul 0 d w6 neg w2 neg d w2 w6 d 0 w2 -2 3 div mul d w2 neg w6 d w6 w2 neg d w2 -2 3 div mul 0 d w6 w2 d w2 neg w6 neg d 0 w2 2 3 div mul d w2 w6 neg d cl s} def
/m45 {mp x y m w6 neg w2 d w2 2 3 div mul 0 d w6 neg w2 neg d w2 w6 d 0 w2 -2 3 div mul d w2 neg w6 d w6 w2 neg d w2 -2 3 div mul 0 d w6 w2 d w2 neg w6 neg d 0 w2 2 3 div mul d w2 w6 neg d cl f} def
/m46 {mp x y w4 add m w4 neg w4 d w4 neg w4 neg d  w4 w4 neg d w4 neg w4 neg d w4 w4 neg d w4 w4 d w4 w4 neg d w4 w4 d w4 neg w4 d w4 w4 d w4 neg w4 d w4 neg w4 neg d cl s} def
/m47 {mp x y w4 add m w4 neg w4 d w4 neg w4 neg d w4 w4 neg d w4 neg w4 neg d  w4 w4 neg d w4 w4 d w4 w4 neg d w4 w4 d w4 neg w4 d w4 w4 d w4 neg w4 d w4 neg w4 neg d cl f} def
/m48 {mp x y w4 add m w4 neg w4 d w4 neg w4 neg d w4 w4 neg d  w4 neg w4 neg d w4 w4 neg d w4 w4 d w4 w4 neg d w4 w4 d w4 neg w4 d w4 w4 d w4 neg w4 d w4 neg w4 neg d  w4 w4 neg d w4 neg w4 neg d w4 neg w4 d w4 w4 d cl f} def
/m49 {mp x w2 sub w3 add y w2 sub w3 add m  0 w3 neg d w3 0 d 0 w3 d w3 0 d 0 w3 d w3 neg 0 d 0 w3 d w3 neg 0 d 0 w3 neg d w3 neg 0 d 0 w3 neg d w3 0 d 0 w3 d w3 0 d 0 w3 neg d w3 neg 0 d cl f } def
/m2 {mp x y w2 sub m 0 w d x w2 sub y m w 0 d s} def
/m5 {mp x w2 sub y w2 sub m w w d x w2 sub y w2 add m w w neg d s} def
%%IncludeResource: ProcSet (FontSetInit)
%%IncludeResource: font Times-Roman
%%IncludeResource: font Times-Italic
%%IncludeResource: font Times-Bold
%%IncludeResource: font Times-BoldItalic
%%IncludeResource: font Helvetica
%%IncludeResource: font Helvetica-Oblique
%%IncludeResource: font Helvetica-Bold
%%IncludeResource: font Helvetica-BoldOblique
%%IncludeResource: font Courier
%%IncludeResource: font Courier-Oblique
%%IncludeResource: font Courier-Bold
%%IncludeResource: font Courier-BoldOblique
%%IncludeResource: font Symbol
%%IncludeResource: font ZapfDingbats
/reEncode {exch findfont dup length dict begin {1 index /FID eq  {pop pop} {def} ifelse } forall /Encoding exch def currentdict end dup /FontName get exch definefont pop } def [/Times-Bold /Times-Italic /Times-BoldItalic /Helvetica /Helvetica-Oblique
 /Helvetica-Bold /Helvetica-BoldOblique /Courier /Courier-Oblique /Courier-Bold /Courier-BoldOblique /Times-Roman /AvantGarde-Book /AvantGarde-BookOblique /AvantGarde-Demi /AvantGarde-DemiOblique /Bookman-Demi /Bookman-DemiItalic /Bookman-Light
 /Bookman-LightItalic /Helvetica-Narrow /Helvetica-Narrow-Bold /Helvetica-Narrow-BoldOblique /Helvetica-Narrow-Oblique /NewCenturySchlbk-Roman /NewCenturySchlbk-Bold /NewCenturySchlbk-BoldItalic /NewCenturySchlbk-Italic /Palatino-Bold
 /Palatino-BoldItalic /Palatino-Italic /Palatino-Roman ] {ISOLatin1Encoding reEncode } forall
%%EndProlog
%%BeginSetup
%%EndSetup
newpath  gsave  .25 .25 scale  gsave  0 0 t black[  ] 0 sd 3 lw 1 1 1 c 2268 1575 0 0 bf black 1 1 1 c 2268 472 0 0 bf black 1 1 1 c 1927 274 227 189 bf black 1927 274 227 189 bl 227 189 m 1927 X s 227 201 m -12 Y s 291 195 m -6 Y s 355 195 m -6 Y s
 420 195 m -6 Y s 484 195 m -6 Y s 548 201 m -12 Y s 612 195 m -6 Y s 677 195 m -6 Y s 741 195 m -6 Y s 805 195 m -6 Y s 869 201 m -12 Y s 934 195 m -6 Y s 998 195 m -6 Y s 1062 195 m -6 Y s 1126 195 m -6 Y s 1191 201 m -12 Y s 1255 195 m -6 Y s 1319
 195 m -6 Y s 1383 195 m -6 Y s 1448 195 m -6 Y s 1512 201 m -12 Y s 1576 195 m -6 Y s 1640 195 m -6 Y s 1705 195 m -6 Y s 1769 195 m -6 Y s 1833 201 m -12 Y s 1897 195 m -6 Y s 1962 195 m -6 Y s 2026 195 m -6 Y s 2090 195 m -6 Y s 2154 201 m -12 Y s
 gsave  2268 472 0 0 C 210.193 127.3 t 0 r /Helvetica findfont 53.4895 sf 0 0 m (0) show NC gr 
 gsave  2268 472 0 0 C 518.081 127.3 t 0 r /Helvetica findfont 53.4895 sf 0 0 m (50) show NC gr 
 gsave  2268 472 0 0 C 823.009 127.3 t 0 r /Helvetica findfont 53.4895 sf 0 0 m (100) show NC gr 
 gsave  2268 472 0 0 C 1145.7 127.3 t 0 r /Helvetica findfont 53.4895 sf 0 0 m (150) show NC gr 
 gsave  2268 472 0 0 C 1465.43 127.3 t 0 r /Helvetica findfont 53.4895 sf 0 0 m (200) show NC gr 
 gsave  2268 472 0 0 C 1788.12 127.3 t 0 r /Helvetica findfont 53.4895 sf 0 0 m (250) show NC gr 
 gsave  2268 472 0 0 C 2107.85 127.3 t 0 r /Helvetica findfont 53.4895 sf 0 0 m (300) show NC gr 
 gsave  2268 472 0 0 C 1995.35 41.4465 t 0 r /Helvetica findfont 56.4611 sf 0 0 m ( [GeV]) show NC gr 
 gsave  2268 472 0 0 C 1915.42 68.0907 t 0 r /Helvetica findfont 38.6313 sf 0 0 m (miss) show NC gr 
 gsave  2268 472 0 0 C 1915.42 23.6837 t 0 r /Helvetica findfont 38.6313 sf 0 0 m (T) show NC gr 
 gsave  2268 472 0 0 C 1871.01 41.4465 t 0 r /Helvetica-Oblique findfont 56.4611 sf 0 0 m (E) show NC gr  227 463 m 1927 X s 227 451 m 12 Y s 291 457 m 6 Y s 355 457 m 6 Y s 420 457 m 6 Y s 484 457 m 6 Y s 548 451 m 12 Y s 612 457 m 6 Y s 677 457 m 6
 Y s 741 457 m 6 Y s 805 457 m 6 Y s 869 451 m 12 Y s 934 457 m 6 Y s 998 457 m 6 Y s 1062 457 m 6 Y s 1126 457 m 6 Y s 1191 451 m 12 Y s 1255 457 m 6 Y s 1319 457 m 6 Y s 1383 457 m 6 Y s 1448 457 m 6 Y s 1512 451 m 12 Y s 1576 457 m 6 Y s 1640 457
 m 6 Y s 1705 457 m 6 Y s 1769 457 m 6 Y s 1833 451 m 12 Y s 1897 457 m 6 Y s 1962 457 m 6 Y s 2026 457 m 6 Y s 2090 457 m 6 Y s 2154 451 m 12 Y s 227 189 m 274 Y s 240 240 m -13 X s 240 326 m -13 X s 240 412 m -13 X s 240 240 m -13 X s 240 412 m -13
 X s
 gsave  2268 472 0 0 C 118.419 222.035 t 0 r /Helvetica findfont 53.4895 sf 0 0 m (0.5) show NC gr 
 gsave  2268 472 0 0 C 171.707 307.888 t 0 r /Helvetica findfont 53.4895 sf 0 0 m (1) show NC gr 
 gsave  2268 472 0 0 C 118.419 393.742 t 0 r /Helvetica findfont 53.4895 sf 0 0 m (1.5) show NC gr 
 gsave  2268 472 0 0 C 71.0512 230.916 t 90 r /Helvetica findfont 53.4895 sf 0 0 m (Data / SM) show NC gr  2154 189 m 274 Y s 2141 240 m 13 X s 2141 326 m 13 X s 2141 412 m 13 X s 2141 240 m 13 X s 2141 412 m 13 X s 227 189 m 1927 X s 227 463 m 1927
 X s 227 189 m 274 Y s[ 4 8] 0 sd 2154 240 m -1927 X s 2154 326 m -1927 X s 2154 412 m -1927 X s 2154 240 m -1927 X s 2154 412 m -1927 X s[  ] 0 sd 2154 189 m 274 Y s 1 1 0.6 c 193 0 227 326 bf 192 0 420 326 bf 193 0 612 326 bf 193 0 805 326 bf 193 0
 998 326 bf 192 0 1191 326 bf 193 0 1383 326 bf 193 0 1576 326 bf 193 0 1769 326 bf 192 0 1962 326 bf black 0.6 0.6 0.6 c 420 325 m -10 -10 d s 412 337 m -21 -22 d s 393 337 m -21 -22 d s 374 337 m -21 -22 d s 355 337 m -22 -22 d s 335 337 m -21 -22
 d s 316 337 m -21 -22 d s 297 337 m -21 -22 d s 278 337 m -22 -22 d s 258 337 m -21 -22 d s 239 337 m -12 -13 d s 612 325 m -5 -6 d s 601 333 m -14 -14 d s 582 333 m -14 -14 d s 562 333 m -13 -14 d s 543 333 m -13 -14 d s 524 333 m -14 -14 d s 505
 333 m -14 -14 d s 485 333 m -13 -14 d s 466 333 m -13 -14 d s 447 333 m -14 -14 d s 428 333 m -8 -8 d s 805 325 m -7 -7 d s 795 334 m -17 -16 d s 775 334 m -16 -16 d s 756 334 m -16 -16 d s 737 334 m -16 -16 d s 718 334 m -16 -16 d s 699 334 m -17
 -16 d s 679 334 m -16 -16 d s 660 334 m -16 -16 d s 641 334 m -16 -16 d s 622 334 m -10 -9 d s 998 326 m -11 -11 d s 990 337 m -22 -22 d s 971 337 m -22 -22 d s 951 337 m -21 -22 d s 932 337 m -22 -22 d s 913 337 m -22 -22 d s 894 337 m -22 -22 d s
 874 337 m -21 -22 d s 855 337 m -22 -22 d s 836 337 m -22 -22 d s 817 337 m -12 -12 d s 1191 307 m -13 -13 d s 1191 326 m -33 -32 d s 1191 345 m -52 -51 d s 1184 358 m -64 -64 d s 1165 358 m -64 -64 d s 1146 358 m -64 -64 d s 1127 358 m -65 -64 d s
 1107 358 m -64 -64 d s 1088 358 m -64 -64 d s 1069 358 m -64 -64 d s 1050 358 m -52 -52 d s 1030 358 m -32 -32 d s 1011 358 m -13 -13 d s 1383 307 m -8 -9 d s 1383 326 m -27 -28 d s 1383 346 m -47 -48 d s 1372 354 m -55 -56 d s 1353 354 m -55 -56 d
 s 1334 354 m -55 -56 d s 1314 354 m -55 -56 d s 1295 354 m -55 -56 d s 1276 354 m -55 -56 d s 1257 354 m -55 -56 d s 1237 354 m -46 -47 d s 1218 354 m -27 -28 d s 1199 354 m -8 -9 d s 1576 269 m -16 -16 d s 1576 288 m -35 -35 d s 1576 307 m -54 -54
 d s 1576 327 m -74 -74 d s 1576 346 m -93 -93 d s 1576 365 m -112 -112 d s 1576 384 m -131 -131 d s 1572 399 m -147 -146 d s 1553 399 m -147 -146 d s 1533 399 m -146 -146 d s 1514 399 m -131 -131 d s 1495 399 m -112 -111 d s 1476 399 m -93 -92 d s
 1456 399 m -73 -73 d s 1437 399 m -54 -53 d s 1418 399 m -35 -34 d s 1399 399 m -16 -15 d s 1769 308 m -9 -9 d s 1769 327 m -28 -28 d s 1769 346 m -47 -47 d s 1757 353 m -55 -54 d s 1737 353 m -54 -54 d s 1718 353 m -54 -54 d s 1699 353 m -54 -54 d
 s 1680 353 m -55 -54 d s 1660 353 m -54 -54 d s 1641 353 m -54 -54 d s 1622 353 m -46 -46 d s 1603 353 m -27 -26 d s 1583 353 m -7 -7 d s 1962 231 m -13 -13 d s 1962 250 m -33 -32 d s 1962 269 m -52 -51 d s 1962 289 m -71 -71 d s 1962 308 m -90 -90
 d s 1962 327 m -110 -109 d s 1962 347 m -129 -129 d s 1962 366 m -148 -148 d s 1962 385 m -167 -167 d s 1962 404 m -187 -186 d s 1962 424 m -193 -194 d s 1953 435 m -184 -185 d s 1934 435 m -165 -166 d s 1915 435 m -146 -147 d s 1895 435 m -126 -127
 d s 1876 435 m -107 -108 d s 1857 435 m -88 -89 d s 1838 435 m -69 -69 d s 1818 435 m -49 -50 d s 1799 435 m -30 -31 d s 1780 435 m -11 -12 d s 2154 308 m -3 -3 d s 2154 328 m -23 -23 d s 2154 347 m -42 -42 d s 2136 348 m -43 -43 d s 2116 348 m -42
 -43 d s 2097 348 m -43 -43 d s 2078 348 m -43 -43 d s 2059 348 m -43 -43 d s 2040 348 m -43 -43 d s 2020 348 m -43 -43 d s 2001 348 m -39 -40 d s 1982 348 m -20 -21 d s 1963 348 m -1 -1 d s black 1 1 1 c black 323 283 m 25 Y s 323 331 m 25 Y s /w 26
 def /w2 {w 2 div} def /w3 {w 3 div} def 323 320 m20 516 318 m 14 Y s 516 355 m 14 Y s 516 344 m20 709 293 m 14 Y s 709 331 m 14 Y s 709 319 m20 901 284 m 30 Y s 901 337 m 30 Y s 901 326 m20 1094 239 m 57 Y s 1094 319 m 57 Y s 1094 307 m20 1480 219 m
 143 Y s 1480 386 m 77 Y s 1480 374 m20 227 326 m 1927 X s 227 189 m 1927 X s 227 201 m -12 Y s 291 195 m -6 Y s 355 195 m -6 Y s 420 195 m -6 Y s 484 195 m -6 Y s 548 201 m -12 Y s 612 195 m -6 Y s 677 195 m -6 Y s 741 195 m -6 Y s 805 195 m -6 Y s
 869 201 m -12 Y s 934 195 m -6 Y s 998 195 m -6 Y s 1062 195 m -6 Y s 1126 195 m -6 Y s 1191 201 m -12 Y s 1255 195 m -6 Y s 1319 195 m -6 Y s 1383 195 m -6 Y s 1448 195 m -6 Y s 1512 201 m -12 Y s 1576 195 m -6 Y s 1640 195 m -6 Y s 1705 195 m -6 Y
 s 1769 195 m -6 Y s 1833 201 m -12 Y s 1897 195 m -6 Y s 1962 195 m -6 Y s 2026 195 m -6 Y s 2090 195 m -6 Y s 2154 201 m -12 Y s 227 463 m 1927 X s 227 451 m 12 Y s 291 457 m 6 Y s 355 457 m 6 Y s 420 457 m 6 Y s 484 457 m 6 Y s 548 451 m 12 Y s
 612 457 m 6 Y s 677 457 m 6 Y s 741 457 m 6 Y s 805 457 m 6 Y s 869 451 m 12 Y s 934 457 m 6 Y s 998 457 m 6 Y s 1062 457 m 6 Y s 1126 457 m 6 Y s 1191 451 m 12 Y s 1255 457 m 6 Y s 1319 457 m 6 Y s 1383 457 m 6 Y s 1448 457 m 6 Y s 1512 451 m 12 Y
 s 1576 457 m 6 Y s 1640 457 m 6 Y s 1705 457 m 6 Y s 1769 457 m 6 Y s 1833 451 m 12 Y s 1897 457 m 6 Y s 1962 457 m 6 Y s 2026 457 m 6 Y s 2090 457 m 6 Y s 2154 451 m 12 Y s 227 189 m 274 Y s 240 240 m -13 X s 240 326 m -13 X s 240 412 m -13 X s 240
 240 m -13 X s 240 412 m -13 X s 2154 189 m 274 Y s 2141 240 m 13 X s 2141 326 m 13 X s 2141 412 m 13 X s 2141 240 m 13 X s 2141 412 m 13 X s 1 1 1 c 2268 1103 0 472 bf black 1 1 1 c 1927 1036 227 484 bf black 1927 1036 227 484 bl 1 1 1 c black 3 lw
 227 484 m 1927 X s 227 502 m -18 Y s 291 493 m -9 Y s 355 493 m -9 Y s 420 493 m -9 Y s 484 493 m -9 Y s 548 502 m -18 Y s 612 493 m -9 Y s 677 493 m -9 Y s 741 493 m -9 Y s 805 493 m -9 Y s 869 502 m -18 Y s 934 493 m -9 Y s 998 493 m -9 Y s 1062
 493 m -9 Y s 1126 493 m -9 Y s 1191 502 m -18 Y s 1255 493 m -9 Y s 1319 493 m -9 Y s 1383 493 m -9 Y s 1448 493 m -9 Y s 1512 502 m -18 Y s 1576 493 m -9 Y s 1640 493 m -9 Y s 1705 493 m -9 Y s 1769 493 m -9 Y s 1833 502 m -18 Y s 1897 493 m -9 Y s
 1962 493 m -9 Y s 2026 493 m -9 Y s 2090 493 m -9 Y s 2154 502 m -18 Y s
 gsave  2268 1103 0 472 C 2069.37 396.702 t 0 r /Helvetica findfont 29.6365 sf 0 0 m ( [GeV]) show NC gr 
 gsave  2268 1103 0 472 C 2024.96 414.465 t 0 r /Helvetica findfont 20.7455 sf 0 0 m (miss) show NC gr 
 gsave  2268 1103 0 472 C 2024.96 387.821 t 0 r /Helvetica findfont 20.7455 sf 0 0 m (T) show NC gr 
 gsave  2268 1103 0 472 C 2001.27 396.702 t 0 r /Helvetica-Oblique findfont 29.6365 sf 0 0 m (E) show NC gr  227 1520 m 1927 X s 227 1501 m 19 Y s 291 1510 m 10 Y s 355 1510 m 10 Y s 420 1510 m 10 Y s 484 1510 m 10 Y s 548 1501 m 19 Y s 612 1510 m 10
 Y s 677 1510 m 10 Y s 741 1510 m 10 Y s 805 1510 m 10 Y s 869 1501 m 19 Y s 934 1510 m 10 Y s 998 1510 m 10 Y s 1062 1510 m 10 Y s 1126 1510 m 10 Y s 1191 1501 m 19 Y s 1255 1510 m 10 Y s 1319 1510 m 10 Y s 1383 1510 m 10 Y s 1448 1510 m 10 Y s 1512
 1501 m 19 Y s 1576 1510 m 10 Y s 1640 1510 m 10 Y s 1705 1510 m 10 Y s 1769 1510 m 10 Y s 1833 1501 m 19 Y s 1897 1510 m 10 Y s 1962 1510 m 10 Y s 2026 1510 m 10 Y s 2090 1510 m 10 Y s 2154 1501 m 19 Y s 227 484 m 1036 Y s 248 653 m -21 X s 237 695
 m -10 X s 237 737 m -10 X s 237 780 m -10 X s 248 822 m -21 X s 237 864 m -10 X s 237 907 m -10 X s 237 949 m -10 X s 248 991 m -21 X s 237 1034 m -10 X s 237 1076 m -10 X s 237 1118 m -10 X s 248 1161 m -21 X s 237 1203 m -10 X s 237 1245 m -10 X s
 237 1288 m -10 X s 248 1330 m -21 X s 237 1372 m -10 X s 237 1415 m -10 X s 237 1457 m -10 X s 248 1499 m -21 X s 248 653 m -21 X s 237 610 m -10 X s 237 568 m -10 X s 237 526 m -10 X s 248 1499 m -21 X s
 gsave  2268 1103 0 472 C 145.063 633.54 t 0 r /Helvetica findfont 50.382 sf 0 0 m (20) show NC gr 
 gsave  2268 1103 0 472 C 145.063 802.286 t 0 r /Helvetica findfont 50.382 sf 0 0 m (40) show NC gr 
 gsave  2268 1103 0 472 C 145.063 971.033 t 0 r /Helvetica findfont 50.382 sf 0 0 m (60) show NC gr 
 gsave  2268 1103 0 472 C 145.063 1142.74 t 0 r /Helvetica findfont 50.382 sf 0 0 m (80) show NC gr 
 gsave  2268 1103 0 472 C 118.419 1311.49 t 0 r /Helvetica findfont 50.382 sf 0 0 m (100) show NC gr 
 gsave  2268 1103 0 472 C 118.419 1480.23 t 0 r /Helvetica findfont 50.382 sf 0 0 m (120) show NC gr 
 gsave  2268 1103 0 472 C 62.1698 1154.58 t 90 r /Helvetica findfont 50.382 sf 0 0 m (Events / 30 GeV) show NC gr  2154 484 m 1036 Y s 2133 653 m 21 X s 2144 695 m 10 X s 2144 737 m 10 X s 2144 780 m 10 X s 2133 822 m 21 X s 2144 864 m 10 X s 2144
 907 m 10 X s 2144 949 m 10 X s 2133 991 m 21 X s 2144 1034 m 10 X s 2144 1076 m 10 X s 2144 1118 m 10 X s 2133 1161 m 21 X s 2144 1203 m 10 X s 2144 1245 m 10 X s 2144 1288 m 10 X s 2133 1330 m 21 X s 2144 1372 m 10 X s 2144 1415 m 10 X s 2144 1457
 m 10 X s 2133 1499 m 21 X s 2133 653 m 21 X s 2144 610 m 10 X s 2144 568 m 10 X s 2144 526 m 10 X s 2133 1499 m 21 X s 0.06 0.54 0.06 c black 3 lw 0.06 0.54 0.06 c 227 484 m 175 Y 193 X 239 Y 192 X -62 Y 193 X -208 Y 193 X -97 Y 193 X -25 Y 192 X -9
 Y 193 X -11 Y 386 X -2 Y 192 X f 1 0.653333 0 c 0.999 0.999 0.999 c black 3 lw 0.999 0.999 0.999 c 227 484 m 73 Y 193 X 103 Y 192 X -16 Y 193 X -90 Y 193 X -35 Y 193 X -24 Y 192 X -3 Y 193 X -6 Y 193 X -2 Y 385 X f 1 0.653333 0 c 0.999 0.999 0.999 c
 1 0.653333 0 c 1 1 1 c black 1 0.653333 0 c black 3 lw 1 0.653333 0 c 227 484 m 73 Y 193 X 103 Y 192 X -16 Y 193 X -90 Y 193 X -35 Y 193 X -24 Y 192 X -3 Y 193 X -6 Y 193 X -2 Y 385 X f 0.413333 1 0 c 0.999 0.999 0.999 c black 3 lw 0.999 0.999 0.999
 c 227 484 m 70 Y 193 X 106 Y 192 X -26 Y 193 X -81 Y 193 X -42 Y 193 X -16 Y 192 X -8 Y 193 X -1 Y 193 X -2 Y 385 X f 0.413333 1 0 c 0.999 0.999 0.999 c 0.413333 1 0 c 1 1 1 c black 0.413333 1 0 c black 3 lw 0.413333 1 0 c 227 484 m 70 Y 193 X 106 Y
 192 X -26 Y 193 X -81 Y 193 X -42 Y 193 X -16 Y 192 X -8 Y 193 X -1 Y 193 X -2 Y 385 X f 0.6 0.2 1 c 0.999 0.999 0.999 c black 3 lw 0.999 0.999 0.999 c 227 484 m 59 Y 193 X 86 Y 192 X -20 Y 193 X -63 Y 193 X -38 Y 193 X -14 Y 192 X -7 Y 193 X -2 Y
 193 X -1 Y 385 X f 0.6 0.2 1 c 0.999 0.999 0.999 c 0.6 0.2 1 c 1 1 1 c black 0.6 0.2 1 c black 3 lw 0.6 0.2 1 c 227 484 m 59 Y 193 X 86 Y 192 X -20 Y 193 X -63 Y 193 X -38 Y 193 X -14 Y 192 X -7 Y 193 X -2 Y 193 X -1 Y 385 X f 0.54 0.06 0.06 c 0.999
 0.999 0.999 c black 3 lw 0.999 0.999 0.999 c 227 484 m 50 Y 193 X 71 Y 192 X -15 Y 193 X -53 Y 193 X -32 Y 193 X -12 Y 192 X -6 Y 193 X -2 Y 193 X -1 Y 385 X f 0.54 0.06 0.06 c 0.999 0.999 0.999 c 0.54 0.06 0.06 c 1 1 1 c black 0.54 0.06 0.06 c
 black 3 lw 0.54 0.06 0.06 c 227 484 m 50 Y 193 X 71 Y 192 X -15 Y 193 X -53 Y 193 X -32 Y 193 X -12 Y 192 X -6 Y 193 X -2 Y 193 X -1 Y 385 X f 1 0 1 c 0.999 0.999 0.999 c black 3 lw 0.999 0.999 0.999 c 227 484 m 14 Y 193 X 21 Y 192 X -6 Y 193 X -15
 Y 193 X -9 Y 193 X -4 Y 192 X -1 Y 771 X f 1 0 1 c 0.999 0.999 0.999 c 1 0 1 c 1 1 1 c black 1 0 1 c black 3 lw 1 0 1 c 227 484 m 14 Y 193 X 21 Y 192 X -6 Y 193 X -15 Y 193 X -9 Y 193 X -4 Y 192 X -1 Y 771 X f 0 0 1 c 0.999 0.999 0.999 c black 3 lw
 0.999 0.999 0.999 c 227 484 m 11 Y 193 X 12 Y 192 X -4 Y 193 X -10 Y 193 X -5 Y 193 X -3 Y 192 X -1 Y 771 X f 0 0 1 c 0.999 0.999 0.999 c 0 0 1 c 1 1 1 c black 0 0 1 c black 3 lw 0 0 1 c 227 484 m 11 Y 193 X 12 Y 192 X -4 Y 193 X -10 Y 193 X -5 Y
 193 X -3 Y 192 X -1 Y 771 X f 0.2 0.8 0.8 c 0.999 0.999 0.999 c black 3 lw 0.999 0.999 0.999 c 227 484 m 1 Y 193 X 3 Y 385 X -3 Y 193 X -1 Y 1156 X f 0.2 0.8 0.8 c 0.999 0.999 0.999 c 0.2 0.8 0.8 c 1 1 1 c black 0.2 0.8 0.8 c black 3 lw 0.2 0.8 0.8
 c 227 484 m 1 Y 193 X 3 Y 385 X -3 Y 193 X -1 Y 1156 X f 1 0 0 c 0.999 0.999 0.999 c black 3 lw 0.999 0.999 0.999 c 227 484 m 193 X 1 Y 385 X -1 Y 1349 X f 1 0 0 c 0.999 0.999 0.999 c 1 0 0 c 1 1 1 c black 1 0 0 c black 3 lw 1 0 0 c 227 484 m 193 X
 1 Y 385 X -1 Y 1349 X f 1 0.84 0 c 0.999 0.999 0.999 c black 3 lw 0.999 0.999 0.999 c 227 484 m 1927 X f 1 0.84 0 c 0.999 0.999 0.999 c 1 0.84 0 c 1 1 1 c black 1 0.84 0 c black 3 lw 1 0.84 0 c 227 484 m 1927 X f black 1 1 1 c black 0.6 0.6 0.6 c 3
 lw 420 661 m -13 -13 d s 410 670 m -22 -22 d s 390 670 m -21 -22 d s 371 670 m -22 -22 d s 352 670 m -22 -22 d s 333 670 m -22 -22 d s 314 670 m -22 -22 d s 294 670 m -22 -22 d s 275 670 m -22 -22 d s 256 670 m -22 -22 d s 237 670 m -10 -10 d s 3 lw
 612 892 m -10 -10 d s 612 911 m -29 -29 d s 597 914 m -33 -32 d s 577 914 m -33 -32 d s 558 914 m -33 -32 d s 539 914 m -33 -32 d s 520 914 m -33 -32 d s 500 914 m -33 -32 d s 481 914 m -33 -32 d s 462 914 m -33 -32 d s 443 914 m -23 -23 d s 423 914
 m -3 -3 d s 3 lw 805 834 m -15 -15 d s 804 853 m -33 -34 d s 785 853 m -33 -34 d s 766 853 m -34 -34 d s 747 853 m -34 -34 d s 727 853 m -33 -34 d s 708 853 m -33 -34 d s 689 853 m -34 -34 d s 670 853 m -34 -34 d s 650 853 m -33 -34 d s 631 853 m
 -19 -19 d s 3 lw 998 623 m -5 -4 d s 992 637 m -18 -18 d s 973 637 m -18 -18 d s 954 637 m -19 -18 d s 934 637 m -18 -18 d s 915 637 m -18 -18 d s 896 637 m -18 -18 d s 877 637 m -19 -18 d s 857 637 m -18 -18 d s 838 637 m -18 -18 d s 819 637 m -14
 -14 d s 3 lw 1191 528 m -6 -6 d s 1184 540 m -18 -18 d s 1164 540 m -18 -18 d s 1145 540 m -18 -18 d s 1126 540 m -18 -18 d s 1107 540 m -18 -18 d s 1087 540 m -18 -18 d s 1068 540 m -18 -18 d s 1049 540 m -18 -18 d s 1030 540 m -18 -18 d s 1010 540
 m -12 -13 d s 3 lw 1383 509 m -6 -7 d s 1365 510 m -7 -8 d s 1346 510 m -8 -8 d s 1326 510 m -7 -8 d s 1307 510 m -7 -8 d s 1288 510 m -7 -8 d s 1269 510 m -8 -8 d s 1249 510 m -7 -8 d s 1230 510 m -7 -8 d s 1211 510 m -7 -8 d s 1192 510 m -1 -2 d s
 3 lw 1569 502 m -11 -11 d s 1550 502 m -11 -11 d s 1531 502 m -12 -11 d s 1512 502 m -12 -11 d s 1492 502 m -11 -11 d s 1473 502 m -11 -11 d s 1454 502 m -12 -11 d s 1435 502 m -12 -11 d s 1415 502 m -11 -11 d s 1396 502 m -11 -11 d s 3 lw 1765 486
 m -1 -1 d s 1745 486 m -1 Y s 1726 486 m -1 -1 d s 1707 486 m -1 -1 d s 1688 486 m -1 -1 d s 1668 486 m -1 Y s 1649 486 m -1 -1 d s 1630 486 m -1 -1 d s 1611 486 m -1 -1 d s 1591 486 m -1 Y s 3 lw 1958 487 m -3 -3 d s 1939 487 m -3 -3 d s 1920 487 m
 -3 -3 d s 1900 487 m -2 -3 d s 1881 487 m -3 -3 d s 1862 487 m -3 -3 d s 1843 487 m -3 -3 d s 1823 487 m -2 -3 d s 1804 487 m -3 -3 d s 1785 487 m -3 -3 d s 3 lw 2148 485 m -1 Y s 2129 485 m -1 -1 d s 2109 485 m -1 Y s 2090 485 m -1 Y s 2071 485 m
 -1 Y s 2052 485 m -1 -1 d s 2032 485 m -1 Y s 2013 485 m -1 Y s 1994 485 m -1 Y s 1975 485 m -1 Y s black 3 lw 1 1 1 c black 323 615 m 26 Y s 323 665 m 26 Y s /w 24 def /w2 {w 2 div} def /w3 {w 3 div} def 323 653 m20 516 878 m 51 Y s 516 952 m 51 Y
 s 516 941 m20 709 769 m 41 Y s 709 834 m 42 Y s 709 822 m20 901 592 m 24 Y s 901 639 m 23 Y s 901 627 m20 1094 507 m 7 Y s 1094 538 m 7 Y s 1094 526 m20 1287 507 m 7 Y s 1287 538 m 7 Y s 1287 526 m20 1480 488 m 1 Y s 1480 512 m s 1480 500 m20 227
 484 m 1927 X s 227 502 m -18 Y s 291 493 m -9 Y s 355 493 m -9 Y s 420 493 m -9 Y s 484 493 m -9 Y s 548 502 m -18 Y s 612 493 m -9 Y s 677 493 m -9 Y s 741 493 m -9 Y s 805 493 m -9 Y s 869 502 m -18 Y s 934 493 m -9 Y s 998 493 m -9 Y s 1062 493 m
 -9 Y s 1126 493 m -9 Y s 1191 502 m -18 Y s 1255 493 m -9 Y s 1319 493 m -9 Y s 1383 493 m -9 Y s 1448 493 m -9 Y s 1512 502 m -18 Y s 1576 493 m -9 Y s 1640 493 m -9 Y s 1705 493 m -9 Y s 1769 493 m -9 Y s 1833 502 m -18 Y s 1897 493 m -9 Y s 1962
 493 m -9 Y s 2026 493 m -9 Y s 2090 493 m -9 Y s 2154 502 m -18 Y s 227 1520 m 1927 X s 227 1501 m 19 Y s 291 1510 m 10 Y s 355 1510 m 10 Y s 420 1510 m 10 Y s 484 1510 m 10 Y s 548 1501 m 19 Y s 612 1510 m 10 Y s 677 1510 m 10 Y s 741 1510 m 10 Y s
 805 1510 m 10 Y s 869 1501 m 19 Y s 934 1510 m 10 Y s 998 1510 m 10 Y s 1062 1510 m 10 Y s 1126 1510 m 10 Y s 1191 1501 m 19 Y s 1255 1510 m 10 Y s 1319 1510 m 10 Y s 1383 1510 m 10 Y s 1448 1510 m 10 Y s 1512 1501 m 19 Y s 1576 1510 m 10 Y s 1640
 1510 m 10 Y s 1705 1510 m 10 Y s 1769 1510 m 10 Y s 1833 1501 m 19 Y s 1897 1510 m 10 Y s 1962 1510 m 10 Y s 2026 1510 m 10 Y s 2090 1510 m 10 Y s 2154 1501 m 19 Y s 227 484 m 1036 Y s 248 653 m -21 X s 237 695 m -10 X s 237 737 m -10 X s 237 780 m
 -10 X s 248 822 m -21 X s 237 864 m -10 X s 237 907 m -10 X s 237 949 m -10 X s 248 991 m -21 X s 237 1034 m -10 X s 237 1076 m -10 X s 237 1118 m -10 X s 248 1161 m -21 X s 237 1203 m -10 X s 237 1245 m -10 X s 237 1288 m -10 X s 248 1330 m -21 X s
 237 1372 m -10 X s 237 1415 m -10 X s 237 1457 m -10 X s 248 1499 m -21 X s 248 653 m -21 X s 237 610 m -10 X s 237 568 m -10 X s 237 526 m -10 X s 248 1499 m -21 X s 2154 484 m 1036 Y s 2133 653 m 21 X s 2144 695 m 10 X s 2144 737 m 10 X s 2144 780
 m 10 X s 2133 822 m 21 X s 2144 864 m 10 X s 2144 907 m 10 X s 2144 949 m 10 X s 2133 991 m 21 X s 2144 1034 m 10 X s 2144 1076 m 10 X s 2144 1118 m 10 X s 2133 1161 m 21 X s 2144 1203 m 10 X s 2144 1245 m 10 X s 2144 1288 m 10 X s 2133 1330 m 21 X
 s 2144 1372 m 10 X s 2144 1415 m 10 X s 2144 1457 m 10 X s 2133 1499 m 21 X s 2133 653 m 21 X s 2144 610 m 10 X s 2144 568 m 10 X s 2144 526 m 10 X s 2133 1499 m 21 X s
 gsave  2268 1103 0 472 C 1314.45 1423.98 t 0 r /Helvetica findfont 56.3093 sf 0 0 m ( Data) show NC gr  1259 1451 m 10 Y s 1259 1427 m -10 Y s 1259 1439 m20
 gsave  2268 1103 0 472 C 1808.84 1423.98 t 0 r /Helvetica findfont 56.3093 sf 0 0 m (single\255top) show NC gr 
 gsave  2268 1103 0 472 C 1779.24 1423.98 t 0 r /Helvetica-Oblique findfont 56.3093 sf 0 0 m (/) show NC gr 
 gsave  2268 1103 0 472 C 1758.52 1423.98 t 0 r /Helvetica-Oblique findfont 56.3093 sf 0 0 m (t) show NC gr  6 lw 1759 1468 m 20 X s
 gsave  2268 1103 0 472 C 1737.79 1423.98 t 0 r /Helvetica-Oblique findfont 56.3093 sf 0 0 m (t) show NC gr 
 gsave  2268 1103 0 472 C 1720.03 1423.98 t 0 r /Helvetica findfont 56.3093 sf 0 0 m ( ) show NC gr  0.06 0.54 0.06 c 3 lw 1626 1413 m 79 X 52 Y -79 X f 6 lw black
 gsave  2268 1103 0 472 C 1444.71 1349.97 t 0 r /Helvetica findfont 56.3093 sf 0 0 m (+jets) show NC gr 
 gsave  2268 1103 0 472 C 1332.21 1349.97 t 0 r /Helvetica-Oblique findfont 56.3093 sf 0 0 m (W/Z) show NC gr 
 gsave  2268 1103 0 472 C 1314.45 1349.97 t 0 r /Helvetica findfont 56.3093 sf 0 0 m ( ) show NC gr  1 0.653333 0 c 3 lw 1219 1340 m 79 X 51 Y -79 X f black
 gsave  2268 1103 0 472 C 1918.38 1349.97 t 0 r /Helvetica findfont 56.3093 sf 0 0 m (+jets) show NC gr 
 gsave  2268 1103 0 472 C 1737.79 1349.97 t 0 r /Helvetica-Oblique findfont 56.3093 sf 0 0 m (WZ/ZZ) show NC gr 
 gsave  2268 1103 0 472 C 1720.03 1349.97 t 0 r /Helvetica findfont 56.3093 sf 0 0 m ( ) show NC gr  0.413333 1 0 c 3 lw 1626 1340 m 79 X 51 Y -79 X f black
 gsave  2268 1103 0 472 C 1373.66 1275.96 t 0 r /Helvetica-Oblique findfont 56.3093 sf 0 0 m (Z) show NC gr 
 gsave  2268 1103 0 472 C 1352.93 1275.96 t 0 r /Helvetica-Oblique findfont 56.3093 sf 0 0 m (t) show NC gr  6 lw 1353 1320 m 21 X s
 gsave  2268 1103 0 472 C 1332.21 1275.96 t 0 r /Helvetica-Oblique findfont 56.3093 sf 0 0 m (t) show NC gr 
 gsave  2268 1103 0 472 C 1314.45 1275.96 t 0 r /Helvetica findfont 56.3093 sf 0 0 m ( ) show NC gr  0.6 0.2 1 c 3 lw 1219 1266 m 79 X 52 Y -79 X f 6 lw black
 gsave  2268 1103 0 472 C 1779.24 1275.96 t 0 r /Helvetica-Oblique findfont 56.3093 sf 0 0 m (W) show NC gr 
 gsave  2268 1103 0 472 C 1758.52 1275.96 t 0 r /Helvetica-Oblique findfont 56.3093 sf 0 0 m (t) show NC gr  6 lw 1759 1320 m 20 X s
 gsave  2268 1103 0 472 C 1737.79 1275.96 t 0 r /Helvetica-Oblique findfont 56.3093 sf 0 0 m (t) show NC gr 
 gsave  2268 1103 0 472 C 1720.03 1275.96 t 0 r /Helvetica findfont 56.3093 sf 0 0 m ( ) show NC gr  0.54 0.06 0.06 c 3 lw 1626 1266 m 79 X 52 Y -79 X f 6 lw black
 gsave  2268 1103 0 472 C 1332.21 1204.91 t 0 r /Helvetica-Oblique findfont 56.3093 sf 0 0 m (tZq) show NC gr 
 gsave  2268 1103 0 472 C 1314.45 1204.91 t 0 r /Helvetica findfont 56.3093 sf 0 0 m ( ) show NC gr  1 0 1 c 3 lw 1219 1193 m 79 X 51 Y -79 X f black
 gsave  2268 1103 0 472 C 1779.24 1204.91 t 0 r /Helvetica-Oblique findfont 56.3093 sf 0 0 m (H) show NC gr 
 gsave  2268 1103 0 472 C 1758.52 1204.91 t 0 r /Helvetica-Oblique findfont 56.3093 sf 0 0 m (t) show NC gr  6 lw 1759 1249 m 20 X s
 gsave  2268 1103 0 472 C 1737.79 1204.91 t 0 r /Helvetica-Oblique findfont 56.3093 sf 0 0 m (t) show NC gr 
 gsave  2268 1103 0 472 C 1720.03 1204.91 t 0 r /Helvetica findfont 56.3093 sf 0 0 m ( ) show NC gr  0 0 1 c 3 lw 1626 1193 m 79 X 51 Y -79 X f 6 lw black
 gsave  2268 1103 0 472 C 1332.21 1130.9 t 0 r /Helvetica-Oblique findfont 56.3093 sf 0 0 m (tWZ/tWH) show NC gr 
 gsave  2268 1103 0 472 C 1314.45 1130.9 t 0 r /Helvetica findfont 56.3093 sf 0 0 m ( ) show NC gr  0.2 0.8 0.8 c 3 lw 1219 1119 m 79 X 52 Y -79 X f black
 gsave  2268 1103 0 472 C 1737.79 1130.9 t 0 r /Helvetica-Oblique findfont 56.3093 sf 0 0 m (tHq) show NC gr 
 gsave  2268 1103 0 472 C 1720.03 1130.9 t 0 r /Helvetica findfont 56.3093 sf 0 0 m ( ) show NC gr  1 0 0 c 3 lw 1626 1119 m 79 X 52 Y -79 X f black
 gsave  2268 1103 0 472 C 1314.45 1056.89 t 0 r /Helvetica findfont 56.3093 sf 0 0 m ( Other) show NC gr  1 0.84 0 c 3 lw 1219 1046 m 79 X 51 Y -79 X f black
 gsave  2268 1103 0 472 C 1720.03 1056.89 t 0 r /Helvetica findfont 56.3093 sf 0 0 m ( Uncertainty) show NC gr  0.6 0.6 0.6 c 3 lw 1705 1061 m -15 -15 d s 1705 1080 m -34 -34 d s 1703 1097 m -51 -51 d s 1684 1097 m -51 -51 d s 1665 1097 m -39 -39 d s
 1646 1097 m -20 -20 d s 1626 1097 m s 1 0.84 0 c 0.6 0.6 0.6 c black
 gsave  2268 1103 0 472 C 894.061 1329.25 t 0 r /Helvetica findfont 41.4911 sf 0 0 m (\2551) show NC gr 
 gsave  2268 1103 0 472 C 399.663 1299.64 t 0 r /Helvetica findfont 62.2366 sf 0 0 m ( = 13 TeV,  139 fb) show NC gr 
 gsave  2268 1103 0 472 C 370.058 1299.64 t 0 r /Helvetica findfont 62.2366 sf 0 0 m (s) show NC gr  6 lw 349 1335 m 6 -38 d s 3 lw 355 1297 m 6 56 d s 361 1353 m 39 X s
 gsave  2268 1103 0 472 C 831.891 1201.95 t 0 r /Helvetica findfont 62.2366 sf 0 0 m (\)) show NC gr 
 gsave  2268 1103 0 472 C 775.642 1169.38 t 0 r /Helvetica findfont 41.4911 sf 0 0 m (HF) show NC gr 
 gsave  2268 1103 0 472 C 337.493 1201.95 t 0 r /Helvetica findfont 62.2366 sf 0 0 m ( 2L\(SS\), CR\(mu) show NC gr 
 gsave  2268 1103 0 472 C 337.493 1400.3 t 0 r /Helvetica-BoldOblique findfont 71.1276 sf 0 0 m (ATLAS) show NC gr 
 gsave  2268 1103 0 472 C 633.54 1400.3 t 0 r /Helvetica findfont 71.1276 sf 0 0 m (Internal) show NC gr 
 gr  gr showpage
end
%%EOF
