%!PS-Adobe-2.0 EPSF-2.0
%%BoundingBox:  0 0 567 394
%%Title: : EtMiss_CRfakes
%%Creator: ROOT Version 6.20/06
%%CreationDate: Mon May 30 19:26:15 2022
%%DocumentNeededResources: ProcSet (FontSetInit)
%%EndComments
%%BeginProlog
80 dict begin
/s {stroke} def /l {lineto} def /m {moveto} def /t {translate} def
/r {rotate} def /rl {roll}  def /R {repeat} def
/d {rlineto} def /rm {rmoveto} def /gr {grestore} def /f {eofill} def
/c {setrgbcolor} def /black {0 setgray} def /sd {setdash} def
/cl {closepath} def /sf {scalefont setfont} def /lw {setlinewidth} def
/box {m dup 0 exch d exch 0 d 0 exch neg d cl} def
/NC{systemdict begin initclip end}def/C{NC box clip newpath}def
/bl {box s} def /bf {gsave box gsave f grestore 1 lw [] 0 sd s grestore} def /Y { 0 exch d} def /X { 0 d} def 
/K {{pop pop 0 moveto} exch kshow} bind def
/ita {/ang 15 def gsave [1 0 ang dup sin exch cos div 1 0 0] concat} def 
/mp {newpath /y exch def /x exch def} def
/side {[w .77 mul w .23 mul] .385 w mul sd w 0 l currentpoint t -144 r} def
/mr {mp x y w2 0 360 arc} def /m24 {mr s} def /m20 {mr f} def
/mb {mp x y w2 add m w2 neg 0 d 0 w neg d w 0 d 0 w d cl} def
/mt {mp x y w2 add m w2 neg w neg d w 0 d cl} def
/w4 {w 4 div} def
/w6 {w 6 div} def
/w8 {w 8 div} def
/m21 {mb f} def /m25 {mb s} def /m22 {mt f} def /m26{mt s} def
/m23 {mp x y w2 sub m w2 w d w neg 0 d cl f} def
/m27 {mp x y w2 add m w3 neg w2 neg d w3 w2 neg d w3 w2 d cl s} def
/m28 {mp x w2 sub y w2 sub w3 add m w3 0 d  0 w3 neg d w3 0 d 0 w3 d w3 0 d  0 w3 d w3 neg 0 d 0 w3 d w3 neg 0 d 0 w3 neg d w3 neg 0 d cl s } def
/m29 {mp gsave x w2 sub y w2 add w3 sub m currentpoint t 4 {side} repeat cl fill gr} def
/m30 {mp gsave x w2 sub y w2 add w3 sub m currentpoint t 4 {side} repeat cl s gr} def
/m31 {mp x y w2 sub m 0 w d x w2 sub y m w 0 d x w2 sub y w2 add m w w neg d x w2 sub y w2 sub m w w d s} def
/m32 {mp x y w2 sub m w2 w d w neg 0 d cl s} def
/m33 {mp x y w2 add m w3 neg w2 neg d w3 w2 neg d w3 w2 d cl f} def
/m34 {mp x w2 sub y w2 sub w3 add m w3 0 d  0 w3 neg d w3 0 d 0 w3 d w3 0 d  0 w3 d w3 neg 0 d 0 w3 d w3 neg 0 d 0 w3 neg d w3 neg 0 d cl f } def
/m35 {mp x y w2 add m w2 neg w2 neg d w2 w2 neg d w2 w2 d w2 neg w2 d x y w2 sub m 0 w d x w2 sub y m w 0 d s} def
/m36 {mb x w2 sub y w2 add m w w neg d x w2 sub y w2 sub m w w d s} def
/m37 {mp x y m w4 neg w2 d w4 neg w2 neg d w2 0 d  w4 neg w2 neg d w2 0 d w4 neg w2 d w2 0 d w4 neg w2 d w4 neg w2 neg d cl s} def
/m38 {mp x w4 sub y w2 add m w4 neg w4 neg d 0 w2 neg d w4 w4 neg d w2 0 d w4 w4 d 0 w2 d w4 neg w4 d w2 neg 0 d x y w2 sub m 0 w d x w2 sub y m w 0 d cl s} def
/m39 {mp x y m w4 neg w2 d w4 neg w2 neg d w2 0 d  w4 neg w2 neg d w2 0 d w4 neg w2 d w2 0 d w4 neg w2 d w4 neg w2 neg d cl f} def
/m40 {mp x y m w4 w2 d w4 w4 neg d w2 neg w4 neg d w2 w4 neg d w4 neg w4 neg d w4 neg w2 d w4 neg w2 neg d w4 neg w4 d w2 w4 d w2 neg w4 d w4 w4 d w4 w2 neg d cl s} def
/m41 {mp x y m w4 w2 d w4 w4 neg d w2 neg w4 neg d w2 w4 neg d w4 neg w4 neg d w4 neg w2 d w4 neg w2 neg d w4 neg w4 d w2 w4 d w2 neg w4 d w4 w4 d w4 w2 neg d cl f} def
/m42 {mp x y w2 add m w8 neg w2 -3 4 div mul d w2 -3 4 div mul w8 neg d w2 3 4 div mul w8 neg d w8 w2 -3 4 div mul d w8 w2 3 4 div mul d w2 3 4 div mul w8 d w2 -3 4 div mul w8 d w8 neg w2 3 4 div mul d cl s} def
/m43 {mp x y w2 add m w8 neg w2 -3 4 div mul d w2 -3 4 div mul w8 neg d w2 3 4 div mul w8 neg d w8 w2 -3 4 div mul d w8 w2 3 4 div mul d w2 3 4 div mul w8 d w2 -3 4 div mul w8 d w8 neg w2 3 4 div mul d cl f} def
/m44 {mp x y m w6 neg w2 d w2 2 3 div mul 0 d w6 neg w2 neg d w2 w6 d 0 w2 -2 3 div mul d w2 neg w6 d w6 w2 neg d w2 -2 3 div mul 0 d w6 w2 d w2 neg w6 neg d 0 w2 2 3 div mul d w2 w6 neg d cl s} def
/m45 {mp x y m w6 neg w2 d w2 2 3 div mul 0 d w6 neg w2 neg d w2 w6 d 0 w2 -2 3 div mul d w2 neg w6 d w6 w2 neg d w2 -2 3 div mul 0 d w6 w2 d w2 neg w6 neg d 0 w2 2 3 div mul d w2 w6 neg d cl f} def
/m46 {mp x y w4 add m w4 neg w4 d w4 neg w4 neg d  w4 w4 neg d w4 neg w4 neg d w4 w4 neg d w4 w4 d w4 w4 neg d w4 w4 d w4 neg w4 d w4 w4 d w4 neg w4 d w4 neg w4 neg d cl s} def
/m47 {mp x y w4 add m w4 neg w4 d w4 neg w4 neg d w4 w4 neg d w4 neg w4 neg d  w4 w4 neg d w4 w4 d w4 w4 neg d w4 w4 d w4 neg w4 d w4 w4 d w4 neg w4 d w4 neg w4 neg d cl f} def
/m48 {mp x y w4 add m w4 neg w4 d w4 neg w4 neg d w4 w4 neg d  w4 neg w4 neg d w4 w4 neg d w4 w4 d w4 w4 neg d w4 w4 d w4 neg w4 d w4 w4 d w4 neg w4 d w4 neg w4 neg d  w4 w4 neg d w4 neg w4 neg d w4 neg w4 d w4 w4 d cl f} def
/m49 {mp x w2 sub w3 add y w2 sub w3 add m  0 w3 neg d w3 0 d 0 w3 d w3 0 d 0 w3 d w3 neg 0 d 0 w3 d w3 neg 0 d 0 w3 neg d w3 neg 0 d 0 w3 neg d w3 0 d 0 w3 d w3 0 d 0 w3 neg d w3 neg 0 d cl f } def
/m2 {mp x y w2 sub m 0 w d x w2 sub y m w 0 d s} def
/m5 {mp x w2 sub y w2 sub m w w d x w2 sub y w2 add m w w neg d s} def
%%IncludeResource: ProcSet (FontSetInit)
%%IncludeResource: font Times-Roman
%%IncludeResource: font Times-Italic
%%IncludeResource: font Times-Bold
%%IncludeResource: font Times-BoldItalic
%%IncludeResource: font Helvetica
%%IncludeResource: font Helvetica-Oblique
%%IncludeResource: font Helvetica-Bold
%%IncludeResource: font Helvetica-BoldOblique
%%IncludeResource: font Courier
%%IncludeResource: font Courier-Oblique
%%IncludeResource: font Courier-Bold
%%IncludeResource: font Courier-BoldOblique
%%IncludeResource: font Symbol
%%IncludeResource: font ZapfDingbats
/reEncode {exch findfont dup length dict begin {1 index /FID eq  {pop pop} {def} ifelse } forall /Encoding exch def currentdict end dup /FontName get exch definefont pop } def [/Times-Bold /Times-Italic /Times-BoldItalic /Helvetica /Helvetica-Oblique
 /Helvetica-Bold /Helvetica-BoldOblique /Courier /Courier-Oblique /Courier-Bold /Courier-BoldOblique /Times-Roman /AvantGarde-Book /AvantGarde-BookOblique /AvantGarde-Demi /AvantGarde-DemiOblique /Bookman-Demi /Bookman-DemiItalic /Bookman-Light
 /Bookman-LightItalic /Helvetica-Narrow /Helvetica-Narrow-Bold /Helvetica-Narrow-BoldOblique /Helvetica-Narrow-Oblique /NewCenturySchlbk-Roman /NewCenturySchlbk-Bold /NewCenturySchlbk-BoldItalic /NewCenturySchlbk-Italic /Palatino-Bold
 /Palatino-BoldItalic /Palatino-Italic /Palatino-Roman ] {ISOLatin1Encoding reEncode } forall
%%EndProlog
%%BeginSetup
%%EndSetup
newpath  gsave  .25 .25 scale  gsave  0 0 t black[  ] 0 sd 3 lw 1 1 1 c 2268 1575 0 0 bf black 1 1 1 c 2268 472 0 0 bf black 1 1 1 c 1927 274 227 189 bf black 1927 274 227 189 bl 227 189 m 1927 X s 227 201 m -12 Y s 291 195 m -6 Y s 355 195 m -6 Y s
 420 195 m -6 Y s 484 195 m -6 Y s 548 201 m -12 Y s 612 195 m -6 Y s 677 195 m -6 Y s 741 195 m -6 Y s 805 195 m -6 Y s 869 201 m -12 Y s 934 195 m -6 Y s 998 195 m -6 Y s 1062 195 m -6 Y s 1126 195 m -6 Y s 1191 201 m -12 Y s 1255 195 m -6 Y s 1319
 195 m -6 Y s 1383 195 m -6 Y s 1448 195 m -6 Y s 1512 201 m -12 Y s 1576 195 m -6 Y s 1640 195 m -6 Y s 1705 195 m -6 Y s 1769 195 m -6 Y s 1833 201 m -12 Y s 1897 195 m -6 Y s 1962 195 m -6 Y s 2026 195 m -6 Y s 2090 195 m -6 Y s 2154 201 m -12 Y s
 gsave  2268 472 0 0 C 210.193 127.3 t 0 r /Helvetica findfont 53.4895 sf 0 0 m (0) show NC gr 
 gsave  2268 472 0 0 C 518.081 127.3 t 0 r /Helvetica findfont 53.4895 sf 0 0 m (50) show NC gr 
 gsave  2268 472 0 0 C 823.009 127.3 t 0 r /Helvetica findfont 53.4895 sf 0 0 m (100) show NC gr 
 gsave  2268 472 0 0 C 1145.7 127.3 t 0 r /Helvetica findfont 53.4895 sf 0 0 m (150) show NC gr 
 gsave  2268 472 0 0 C 1465.43 127.3 t 0 r /Helvetica findfont 53.4895 sf 0 0 m (200) show NC gr 
 gsave  2268 472 0 0 C 1788.12 127.3 t 0 r /Helvetica findfont 53.4895 sf 0 0 m (250) show NC gr 
 gsave  2268 472 0 0 C 2107.85 127.3 t 0 r /Helvetica findfont 53.4895 sf 0 0 m (300) show NC gr 
 gsave  2268 472 0 0 C 1995.35 41.4465 t 0 r /Helvetica findfont 56.4611 sf 0 0 m ( [GeV]) show NC gr 
 gsave  2268 472 0 0 C 1915.42 68.0907 t 0 r /Helvetica findfont 38.6313 sf 0 0 m (miss) show NC gr 
 gsave  2268 472 0 0 C 1915.42 23.6837 t 0 r /Helvetica findfont 38.6313 sf 0 0 m (T) show NC gr 
 gsave  2268 472 0 0 C 1871.01 41.4465 t 0 r /Helvetica-Oblique findfont 56.4611 sf 0 0 m (E) show NC gr  227 463 m 1927 X s 227 451 m 12 Y s 291 457 m 6 Y s 355 457 m 6 Y s 420 457 m 6 Y s 484 457 m 6 Y s 548 451 m 12 Y s 612 457 m 6 Y s 677 457 m 6
 Y s 741 457 m 6 Y s 805 457 m 6 Y s 869 451 m 12 Y s 934 457 m 6 Y s 998 457 m 6 Y s 1062 457 m 6 Y s 1126 457 m 6 Y s 1191 451 m 12 Y s 1255 457 m 6 Y s 1319 457 m 6 Y s 1383 457 m 6 Y s 1448 457 m 6 Y s 1512 451 m 12 Y s 1576 457 m 6 Y s 1640 457
 m 6 Y s 1705 457 m 6 Y s 1769 457 m 6 Y s 1833 451 m 12 Y s 1897 457 m 6 Y s 1962 457 m 6 Y s 2026 457 m 6 Y s 2090 457 m 6 Y s 2154 451 m 12 Y s 227 189 m 274 Y s 240 240 m -13 X s 240 326 m -13 X s 240 412 m -13 X s 240 240 m -13 X s 240 412 m -13
 X s
 gsave  2268 472 0 0 C 118.419 222.035 t 0 r /Helvetica findfont 53.4895 sf 0 0 m (0.5) show NC gr 
 gsave  2268 472 0 0 C 171.707 307.888 t 0 r /Helvetica findfont 53.4895 sf 0 0 m (1) show NC gr 
 gsave  2268 472 0 0 C 118.419 393.742 t 0 r /Helvetica findfont 53.4895 sf 0 0 m (1.5) show NC gr 
 gsave  2268 472 0 0 C 71.0512 230.916 t 90 r /Helvetica findfont 53.4895 sf 0 0 m (Data / SM) show NC gr  2154 189 m 274 Y s 2141 240 m 13 X s 2141 326 m 13 X s 2141 412 m 13 X s 2141 240 m 13 X s 2141 412 m 13 X s 227 189 m 1927 X s 227 463 m 1927
 X s 227 189 m 274 Y s[ 4 8] 0 sd 2154 240 m -1927 X s 2154 326 m -1927 X s 2154 412 m -1927 X s 2154 240 m -1927 X s 2154 412 m -1927 X s[  ] 0 sd 2154 189 m 274 Y s 1 1 0.6 c 193 0 227 326 bf 192 0 420 326 bf 193 0 612 326 bf 193 0 805 326 bf 193 0
 998 326 bf 192 0 1191 326 bf 193 0 1383 326 bf 193 0 1576 326 bf 193 0 1769 326 bf 192 0 1962 326 bf black 0.6 0.6 0.6 c 420 325 m -6 -6 d s 409 333 m -14 -14 d s 389 333 m -13 -14 d s 370 333 m -14 -14 d s 351 333 m -14 -14 d s 332 333 m -14 -14 d
 s 312 333 m -13 -14 d s 293 333 m -14 -14 d s 274 333 m -14 -14 d s 255 333 m -14 -14 d s 236 333 m -9 -9 d s 612 325 m -3 -3 d s 598 330 m -8 -8 d s 579 330 m -8 -8 d s 560 330 m -8 -8 d s 541 330 m -9 -8 d s 521 330 m -8 -8 d s 502 330 m -8 -8 d s
 483 330 m -8 -8 d s 464 330 m -9 -8 d s 444 330 m -8 -8 d s 425 330 m -5 -5 d s 805 325 m -2 -2 d s 789 329 m -5 -6 d s 770 329 m -5 -6 d s 751 329 m -5 -6 d s 731 329 m -5 -6 d s 712 329 m -5 -6 d s 693 329 m -5 -6 d s 674 329 m -5 -6 d s 654 329 m
 -5 -6 d s 635 329 m -5 -6 d s 616 329 m -4 -4 d s 998 326 m -3 -3 d s 982 329 m -6 -6 d s 963 329 m -6 -6 d s 944 329 m -6 -6 d s 924 329 m -6 -6 d s 905 329 m -6 -6 d s 886 329 m -6 -6 d s 867 329 m -6 -6 d s 847 329 m -6 -6 d s 828 329 m -6 -6 d s
 809 329 m -4 -4 d s 1191 326 m -4 -4 d s 1175 330 m -7 -8 d s 1156 330 m -8 -8 d s 1137 330 m -8 -8 d s 1118 330 m -8 -8 d s 1098 330 m -7 -8 d s 1079 330 m -8 -8 d s 1060 330 m -8 -8 d s 1041 330 m -8 -8 d s 1021 330 m -7 -8 d s 1002 330 m -4 -4 d
 s 1383 326 m -4 -5 d s 1368 331 m -9 -10 d s 1349 331 m -9 -10 d s 1330 331 m -9 -10 d s 1311 331 m -9 -10 d s 1292 331 m -10 -10 d s 1272 331 m -9 -10 d s 1253 331 m -9 -10 d s 1234 331 m -9 -10 d s 1215 331 m -10 -10 d s 1195 331 m -4 -5 d s 1576
 327 m -7 -8 d s 1563 333 m -14 -14 d s 1544 333 m -14 -14 d s 1525 333 m -14 -14 d s 1505 333 m -13 -14 d s 1486 333 m -13 -14 d s 1467 333 m -14 -14 d s 1448 333 m -14 -14 d s 1428 333 m -13 -14 d s 1409 333 m -13 -14 d s 1390 333 m -7 -7 d s 1769
 327 m -9 -8 d s 1756 334 m -15 -15 d s 1737 334 m -15 -15 d s 1718 334 m -15 -15 d s 1698 334 m -14 -15 d s 1679 334 m -15 -15 d s 1660 334 m -15 -15 d s 1641 334 m -15 -15 d s 1621 334 m -14 -15 d s 1602 334 m -15 -15 d s 1583 334 m -7 -7 d s 1962
 327 m -10 -10 d s 1950 335 m -18 -18 d s 1931 335 m -18 -18 d s 1912 335 m -18 -18 d s 1892 335 m -17 -18 d s 1873 335 m -18 -18 d s 1854 335 m -18 -18 d s 1835 335 m -18 -18 d s 1815 335 m -17 -18 d s 1796 335 m -18 -18 d s 1777 335 m -8 -8 d s
 2154 328 m -5 -6 d s 2138 330 m -9 -8 d s 2119 330 m -9 -8 d s 2099 330 m -8 -8 d s 2080 330 m -8 -8 d s 2061 330 m -9 -8 d s 2042 330 m -9 -8 d s 2022 330 m -8 -8 d s 2003 330 m -8 -8 d s 1984 330 m -9 -8 d s 1965 330 m -3 -3 d s black 1 1 1 c
 black /w 26 def /w2 {w 2 div} def /w3 {w 3 div} def 323 347 m20 516 346 m20 709 326 m20 901 328 m20 1094 313 m 4 Y s 1094 341 m 4 Y s 1094 329 m20 1287 342 m 11 Y s 1287 377 m 11 Y s 1287 365 m20 1480 354 m 19 Y s 1480 397 m 20 Y s 1480 385 m20 1672
 341 m 32 Y s 1672 397 m 31 Y s 1672 385 m20 1865 255 m 31 Y s 1865 310 m 31 Y s 1865 298 m20 2058 373 m 29 Y s 2058 425 m 29 Y s 2058 413 m20 227 326 m 1927 X s 227 189 m 1927 X s 227 201 m -12 Y s 291 195 m -6 Y s 355 195 m -6 Y s 420 195 m -6 Y s
 484 195 m -6 Y s 548 201 m -12 Y s 612 195 m -6 Y s 677 195 m -6 Y s 741 195 m -6 Y s 805 195 m -6 Y s 869 201 m -12 Y s 934 195 m -6 Y s 998 195 m -6 Y s 1062 195 m -6 Y s 1126 195 m -6 Y s 1191 201 m -12 Y s 1255 195 m -6 Y s 1319 195 m -6 Y s
 1383 195 m -6 Y s 1448 195 m -6 Y s 1512 201 m -12 Y s 1576 195 m -6 Y s 1640 195 m -6 Y s 1705 195 m -6 Y s 1769 195 m -6 Y s 1833 201 m -12 Y s 1897 195 m -6 Y s 1962 195 m -6 Y s 2026 195 m -6 Y s 2090 195 m -6 Y s 2154 201 m -12 Y s 227 463 m
 1927 X s 227 451 m 12 Y s 291 457 m 6 Y s 355 457 m 6 Y s 420 457 m 6 Y s 484 457 m 6 Y s 548 451 m 12 Y s 612 457 m 6 Y s 677 457 m 6 Y s 741 457 m 6 Y s 805 457 m 6 Y s 869 451 m 12 Y s 934 457 m 6 Y s 998 457 m 6 Y s 1062 457 m 6 Y s 1126 457 m 6
 Y s 1191 451 m 12 Y s 1255 457 m 6 Y s 1319 457 m 6 Y s 1383 457 m 6 Y s 1448 457 m 6 Y s 1512 451 m 12 Y s 1576 457 m 6 Y s 1640 457 m 6 Y s 1705 457 m 6 Y s 1769 457 m 6 Y s 1833 451 m 12 Y s 1897 457 m 6 Y s 1962 457 m 6 Y s 2026 457 m 6 Y s 2090
 457 m 6 Y s 2154 451 m 12 Y s 227 189 m 274 Y s 240 240 m -13 X s 240 326 m -13 X s 240 412 m -13 X s 240 240 m -13 X s 240 412 m -13 X s 2154 189 m 274 Y s 2141 240 m 13 X s 2141 326 m 13 X s 2141 412 m 13 X s 2141 240 m 13 X s 2141 412 m 13 X s 1
 1 1 c 2268 1103 0 472 bf black 1 1 1 c 1927 1036 227 484 bf black 1927 1036 227 484 bl 1 1 1 c black 3 lw 227 484 m 1927 X s 227 502 m -18 Y s 291 493 m -9 Y s 355 493 m -9 Y s 420 493 m -9 Y s 484 493 m -9 Y s 548 502 m -18 Y s 612 493 m -9 Y s 677
 493 m -9 Y s 741 493 m -9 Y s 805 493 m -9 Y s 869 502 m -18 Y s 934 493 m -9 Y s 998 493 m -9 Y s 1062 493 m -9 Y s 1126 493 m -9 Y s 1191 502 m -18 Y s 1255 493 m -9 Y s 1319 493 m -9 Y s 1383 493 m -9 Y s 1448 493 m -9 Y s 1512 502 m -18 Y s 1576
 493 m -9 Y s 1640 493 m -9 Y s 1705 493 m -9 Y s 1769 493 m -9 Y s 1833 502 m -18 Y s 1897 493 m -9 Y s 1962 493 m -9 Y s 2026 493 m -9 Y s 2090 493 m -9 Y s 2154 502 m -18 Y s
 gsave  2268 1103 0 472 C 2069.37 396.702 t 0 r /Helvetica findfont 29.6365 sf 0 0 m ( [GeV]) show NC gr 
 gsave  2268 1103 0 472 C 2024.96 414.465 t 0 r /Helvetica findfont 20.7455 sf 0 0 m (miss) show NC gr 
 gsave  2268 1103 0 472 C 2024.96 387.821 t 0 r /Helvetica findfont 20.7455 sf 0 0 m (T) show NC gr 
 gsave  2268 1103 0 472 C 2001.27 396.702 t 0 r /Helvetica-Oblique findfont 29.6365 sf 0 0 m (E) show NC gr  227 1520 m 1927 X s 227 1501 m 19 Y s 291 1510 m 10 Y s 355 1510 m 10 Y s 420 1510 m 10 Y s 484 1510 m 10 Y s 548 1501 m 19 Y s 612 1510 m 10
 Y s 677 1510 m 10 Y s 741 1510 m 10 Y s 805 1510 m 10 Y s 869 1501 m 19 Y s 934 1510 m 10 Y s 998 1510 m 10 Y s 1062 1510 m 10 Y s 1126 1510 m 10 Y s 1191 1501 m 19 Y s 1255 1510 m 10 Y s 1319 1510 m 10 Y s 1383 1510 m 10 Y s 1448 1510 m 10 Y s 1512
 1501 m 19 Y s 1576 1510 m 10 Y s 1640 1510 m 10 Y s 1705 1510 m 10 Y s 1769 1510 m 10 Y s 1833 1501 m 19 Y s 1897 1510 m 10 Y s 1962 1510 m 10 Y s 2026 1510 m 10 Y s 2090 1510 m 10 Y s 2154 1501 m 19 Y s 227 484 m 1036 Y s 248 634 m -21 X s 237 671
 m -10 X s 237 709 m -10 X s 237 746 m -10 X s 248 784 m -21 X s 237 821 m -10 X s 237 859 m -10 X s 237 896 m -10 X s 248 934 m -21 X s 237 972 m -10 X s 237 1009 m -10 X s 237 1047 m -10 X s 248 1084 m -21 X s 237 1122 m -10 X s 237 1159 m -10 X s
 237 1197 m -10 X s 248 1234 m -21 X s 237 1272 m -10 X s 237 1309 m -10 X s 237 1347 m -10 X s 248 1385 m -21 X s 248 634 m -21 X s 237 596 m -10 X s 237 559 m -10 X s 237 521 m -10 X s 248 1385 m -21 X s 237 1422 m -10 X s 237 1460 m -10 X s 237
 1497 m -10 X s
 gsave  2268 1103 0 472 C 118.419 615.777 t 0 r /Helvetica findfont 50.382 sf 0 0 m (200) show NC gr 
 gsave  2268 1103 0 472 C 118.419 763.8 t 0 r /Helvetica findfont 50.382 sf 0 0 m (400) show NC gr 
 gsave  2268 1103 0 472 C 118.419 914.784 t 0 r /Helvetica findfont 50.382 sf 0 0 m (600) show NC gr 
 gsave  2268 1103 0 472 C 118.419 1065.77 t 0 r /Helvetica findfont 50.382 sf 0 0 m (800) show NC gr 
 gsave  2268 1103 0 472 C 91.7744 1213.79 t 0 r /Helvetica findfont 50.382 sf 0 0 m (1000) show NC gr 
 gsave  2268 1103 0 472 C 91.7744 1364.77 t 0 r /Helvetica findfont 50.382 sf 0 0 m (1200) show NC gr 
 gsave  2268 1103 0 472 C 62.1698 1154.58 t 90 r /Helvetica findfont 50.382 sf 0 0 m (Events / 30 GeV) show NC gr  2154 484 m 1036 Y s 2133 634 m 21 X s 2144 671 m 10 X s 2144 709 m 10 X s 2144 746 m 10 X s 2133 784 m 21 X s 2144 821 m 10 X s 2144
 859 m 10 X s 2144 896 m 10 X s 2133 934 m 21 X s 2144 972 m 10 X s 2144 1009 m 10 X s 2144 1047 m 10 X s 2133 1084 m 21 X s 2144 1122 m 10 X s 2144 1159 m 10 X s 2144 1197 m 10 X s 2133 1234 m 21 X s 2144 1272 m 10 X s 2144 1309 m 10 X s 2144 1347 m
 10 X s 2133 1385 m 21 X s 2133 634 m 21 X s 2144 596 m 10 X s 2144 559 m 10 X s 2144 521 m 10 X s 2133 1385 m 21 X s 2144 1422 m 10 X s 2144 1460 m 10 X s 2144 1497 m 10 X s 0.06 0.54 0.06 c black 3 lw 0.06 0.54 0.06 c 227 484 m 296 Y 193 X 118 Y
 192 X -110 Y 193 X -137 Y 193 X -77 Y 193 X -41 Y 192 X -19 Y 193 X -15 Y 193 X -6 Y 193 X 10 Y 192 X -19 Y f 1 0.653333 0 c 0.999 0.999 0.999 c black 3 lw 0.999 0.999 0.999 c 227 484 m 203 Y 193 X 28 Y 192 X -67 Y 193 X -64 Y 193 X -41 Y 193 X -26
 Y 192 X -13 Y 193 X -9 Y 193 X -4 Y 193 X 8 Y 192 X -15 Y f 1 0.653333 0 c 0.999 0.999 0.999 c 1 0.653333 0 c 1 1 1 c black 1 0.653333 0 c black 3 lw 1 0.653333 0 c 227 484 m 203 Y 193 X 28 Y 192 X -67 Y 193 X -64 Y 193 X -41 Y 193 X -26 Y 192 X -13
 Y 193 X -9 Y 193 X -4 Y 193 X 8 Y 192 X -15 Y f 0.413333 1 0 c 0.999 0.999 0.999 c black 3 lw 0.999 0.999 0.999 c 227 484 m 94 Y 193 X 93 Y 192 X -32 Y 193 X -57 Y 193 X -40 Y 193 X -25 Y 192 X -14 Y 193 X -8 Y 193 X -4 Y 193 X 7 Y 192 X -14 Y f
 0.413333 1 0 c 0.999 0.999 0.999 c 0.413333 1 0 c 1 1 1 c black 0.413333 1 0 c black 3 lw 0.413333 1 0 c 227 484 m 94 Y 193 X 93 Y 192 X -32 Y 193 X -57 Y 193 X -40 Y 193 X -25 Y 192 X -14 Y 193 X -8 Y 193 X -4 Y 193 X 7 Y 192 X -14 Y f 0.6 0.2 1 c
 0.999 0.999 0.999 c black 3 lw 0.999 0.999 0.999 c 227 484 m 61 Y 193 X 76 Y 192 X -9 Y 193 X -42 Y 193 X -34 Y 193 X -23 Y 192 X -12 Y 193 X -7 Y 193 X -4 Y 193 X 6 Y 192 X -12 Y f 0.6 0.2 1 c 0.999 0.999 0.999 c 0.6 0.2 1 c 1 1 1 c black 0.6 0.2 1
 c black 3 lw 0.6 0.2 1 c 227 484 m 61 Y 193 X 76 Y 192 X -9 Y 193 X -42 Y 193 X -34 Y 193 X -23 Y 192 X -12 Y 193 X -7 Y 193 X -4 Y 193 X 6 Y 192 X -12 Y f 0.54 0.06 0.06 c 0.999 0.999 0.999 c black 3 lw 0.999 0.999 0.999 c 227 484 m 51 Y 193 X 64 Y
 192 X -4 Y 193 X -35 Y 193 X -30 Y 193 X -20 Y 192 X -11 Y 193 X -6 Y 193 X -4 Y 193 X 6 Y 192 X -11 Y f 0.54 0.06 0.06 c 0.999 0.999 0.999 c 0.54 0.06 0.06 c 1 1 1 c black 0.54 0.06 0.06 c black 3 lw 0.54 0.06 0.06 c 227 484 m 51 Y 193 X 64 Y 192 X
 -4 Y 193 X -35 Y 193 X -30 Y 193 X -20 Y 192 X -11 Y 193 X -6 Y 193 X -4 Y 193 X 6 Y 192 X -11 Y f 1 0 1 c 0.999 0.999 0.999 c black 3 lw 0.999 0.999 0.999 c 227 484 m 14 Y 193 X 16 Y 192 X -4 Y 193 X -10 Y 193 X -7 Y 193 X -5 Y 192 X -2 Y 193 X -1
 Y 193 X -1 Y 193 X 1 Y 192 X -1 Y f 1 0 1 c 0.999 0.999 0.999 c 1 0 1 c 1 1 1 c black 1 0 1 c black 3 lw 1 0 1 c 227 484 m 14 Y 193 X 16 Y 192 X -4 Y 193 X -10 Y 193 X -7 Y 193 X -5 Y 192 X -2 Y 193 X -1 Y 193 X -1 Y 193 X 1 Y 192 X -1 Y f 0 0 1 c
 0.999 0.999 0.999 c black 3 lw 0.999 0.999 0.999 c 227 484 m 10 Y 193 X 13 Y 192 X -2 Y 193 X -7 Y 193 X -6 Y 193 X -4 Y 192 X -2 Y 193 X -1 Y 193 X -1 Y 193 X 1 Y 192 X -1 Y f 0 0 1 c 0.999 0.999 0.999 c 0 0 1 c 1 1 1 c black 0 0 1 c black 3 lw 0 0
 1 c 227 484 m 10 Y 193 X 13 Y 192 X -2 Y 193 X -7 Y 193 X -6 Y 193 X -4 Y 192 X -2 Y 193 X -1 Y 193 X -1 Y 193 X 1 Y 192 X -1 Y f 0.2 0.8 0.8 c 0.999 0.999 0.999 c black 3 lw 0.999 0.999 0.999 c 227 484 m 4 Y 193 X 4 Y 192 X -2 Y 193 X -3 Y 193 X -1
 Y 193 X -2 Y 963 X f 0.2 0.8 0.8 c 0.999 0.999 0.999 c 0.2 0.8 0.8 c 1 1 1 c black 0.2 0.8 0.8 c black 3 lw 0.2 0.8 0.8 c 227 484 m 4 Y 193 X 4 Y 192 X -2 Y 193 X -3 Y 193 X -1 Y 193 X -2 Y 963 X f 1 0 0 c 0.999 0.999 0.999 c black 3 lw 0.999 0.999
 0.999 c 227 484 m 2 Y 193 X 3 Y 192 X -2 Y 193 X -1 Y 193 X -1 Y 193 X -1 Y 963 X f 1 0 0 c 0.999 0.999 0.999 c 1 0 0 c 1 1 1 c black 1 0 0 c black 3 lw 1 0 0 c 227 484 m 2 Y 193 X 3 Y 192 X -2 Y 193 X -1 Y 193 X -1 Y 193 X -1 Y 963 X f 1 0.84 0 c
 0.999 0.999 0.999 c black 3 lw 0.999 0.999 0.999 c 227 484 m 2 Y 193 X 2 Y 192 X -1 Y 193 X -2 Y 386 X -1 Y 963 X f 1 0.84 0 c 0.999 0.999 0.999 c 1 0.84 0 c 1 1 1 c black 1 0.84 0 c black 3 lw 1 0.84 0 c 227 484 m 2 Y 193 X 2 Y 192 X -1 Y 193 X -2
 Y 386 X -1 Y 963 X f black 1 1 1 c black 0.6 0.6 0.6 c 3 lw 420 776 m -9 -8 d s 416 792 m -24 -24 d s 397 792 m -24 -24 d s 378 792 m -24 -24 d s 358 792 m -24 -24 d s 339 792 m -24 -24 d s 320 792 m -24 -24 d s 301 792 m -24 -24 d s 281 792 m -24
 -24 d s 262 792 m -24 -24 d s 243 792 m -16 -16 d s 3 lw 612 892 m -4 -4 d s 610 908 m -21 -20 d s 590 908 m -20 -20 d s 571 908 m -20 -20 d s 552 908 m -20 -20 d s 533 908 m -21 -20 d s 513 908 m -20 -20 d s 494 908 m -20 -20 d s 475 908 m -20 -20
 d s 456 908 m -21 -20 d s 436 908 m -16 -17 d s 3 lw 801 792 m -9 -9 d s 782 792 m -9 -9 d s 763 792 m -9 -9 d s 743 792 m -9 -9 d s 724 792 m -9 -9 d s 705 792 m -9 -9 d s 686 792 m -9 -9 d s 667 792 m -10 -9 d s 647 792 m -9 -9 d s 628 792 m -9 -9
 d s 3 lw 990 654 m -6 -6 d s 971 654 m -6 -6 d s 951 654 m -6 -6 d s 932 654 m -6 -6 d s 913 654 m -6 -6 d s 894 654 m -6 -6 d s 874 654 m -6 -6 d s 855 654 m -6 -6 d s 836 654 m -6 -6 d s 817 654 m -6 -6 d s 3 lw 1181 576 m -4 -4 d s 1162 576 m -4
 -4 d s 1142 576 m -4 -4 d s 1123 576 m -4 -4 d s 1104 576 m -4 -4 d s 1085 576 m -4 -4 d s 1065 576 m -4 -4 d s 1046 576 m -4 -4 d s 1027 576 m -4 -4 d s 1008 576 m -4 -4 d s 3 lw 1370 534 m -2 -2 d s 1351 534 m -2 -2 d s 1332 534 m -3 -2 d s 1313
 534 m -3 -2 d s 1293 534 m -2 -2 d s 1274 534 m -2 -2 d s 1255 534 m -3 -2 d s 1236 534 m -3 -2 d s 1217 534 m -3 -2 d s 1197 534 m -2 -2 d s 3 lw 1563 515 m -3 -3 d s 1543 515 m -2 -3 d s 1524 515 m -2 -3 d s 1505 515 m -3 -3 d s 1486 515 m -3 -3 d
 s 1466 515 m -2 -3 d s 1447 515 m -2 -3 d s 1428 515 m -3 -3 d s 1409 515 m -3 -3 d s 1389 515 m -2 -3 d s 3 lw 1759 500 m -1 -2 d s 1740 500 m -1 -2 d s 1721 500 m -2 -2 d s 1701 500 m -1 -2 d s 1682 500 m -1 -2 d s 1663 500 m -1 -2 d s 1644 500 m
 -2 -2 d s 1625 500 m -2 -2 d s 1605 500 m -1 -2 d s 1586 500 m -1 -2 d s 3 lw 1946 494 m -1 -1 d s 1926 494 m -1 -1 d s 1907 494 m -1 -1 d s 1888 494 m -1 -1 d s 1869 494 m -1 -1 d s 1849 494 m -1 -1 d s 1830 494 m -1 -1 d s 1811 494 m -1 -1 d s
 1792 494 m -1 -1 d s 1772 494 m -1 -1 d s 3 lw 2148 504 m -1 -1 d s 2129 504 m -1 -1 d s 2110 504 m -1 -1 d s 2090 504 m -1 -1 d s 2071 504 m -1 -1 d s 2052 504 m -1 -1 d s 2033 504 m -1 -1 d s 2013 504 m -1 -1 d s 1994 504 m -1 -1 d s 1975 504 m -1
 -1 d s black 3 lw 1 1 1 c black 323 800 m 4 Y s 323 827 m 4 Y s /w 24 def /w2 {w 2 div} def /w3 {w 3 div} def 323 815 m20 516 929 m 7 Y s 516 959 m 7 Y s 516 948 m20 709 772 m 3 Y s 709 799 m 3 Y s 709 787 m20 901 653 m20 1094 575 m20 1287 544 m20
 1480 524 m20 1672 505 m20 1865 492 m20 2058 514 m20 227 484 m 1927 X s 227 502 m -18 Y s 291 493 m -9 Y s 355 493 m -9 Y s 420 493 m -9 Y s 484 493 m -9 Y s 548 502 m -18 Y s 612 493 m -9 Y s 677 493 m -9 Y s 741 493 m -9 Y s 805 493 m -9 Y s 869
 502 m -18 Y s 934 493 m -9 Y s 998 493 m -9 Y s 1062 493 m -9 Y s 1126 493 m -9 Y s 1191 502 m -18 Y s 1255 493 m -9 Y s 1319 493 m -9 Y s 1383 493 m -9 Y s 1448 493 m -9 Y s 1512 502 m -18 Y s 1576 493 m -9 Y s 1640 493 m -9 Y s 1705 493 m -9 Y s
 1769 493 m -9 Y s 1833 502 m -18 Y s 1897 493 m -9 Y s 1962 493 m -9 Y s 2026 493 m -9 Y s 2090 493 m -9 Y s 2154 502 m -18 Y s 227 1520 m 1927 X s 227 1501 m 19 Y s 291 1510 m 10 Y s 355 1510 m 10 Y s 420 1510 m 10 Y s 484 1510 m 10 Y s 548 1501 m
 19 Y s 612 1510 m 10 Y s 677 1510 m 10 Y s 741 1510 m 10 Y s 805 1510 m 10 Y s 869 1501 m 19 Y s 934 1510 m 10 Y s 998 1510 m 10 Y s 1062 1510 m 10 Y s 1126 1510 m 10 Y s 1191 1501 m 19 Y s 1255 1510 m 10 Y s 1319 1510 m 10 Y s 1383 1510 m 10 Y s
 1448 1510 m 10 Y s 1512 1501 m 19 Y s 1576 1510 m 10 Y s 1640 1510 m 10 Y s 1705 1510 m 10 Y s 1769 1510 m 10 Y s 1833 1501 m 19 Y s 1897 1510 m 10 Y s 1962 1510 m 10 Y s 2026 1510 m 10 Y s 2090 1510 m 10 Y s 2154 1501 m 19 Y s 227 484 m 1036 Y s
 248 634 m -21 X s 237 671 m -10 X s 237 709 m -10 X s 237 746 m -10 X s 248 784 m -21 X s 237 821 m -10 X s 237 859 m -10 X s 237 896 m -10 X s 248 934 m -21 X s 237 972 m -10 X s 237 1009 m -10 X s 237 1047 m -10 X s 248 1084 m -21 X s 237 1122 m
 -10 X s 237 1159 m -10 X s 237 1197 m -10 X s 248 1234 m -21 X s 237 1272 m -10 X s 237 1309 m -10 X s 237 1347 m -10 X s 248 1385 m -21 X s 248 634 m -21 X s 237 596 m -10 X s 237 559 m -10 X s 237 521 m -10 X s 248 1385 m -21 X s 237 1422 m -10 X
 s 237 1460 m -10 X s 237 1497 m -10 X s 2154 484 m 1036 Y s 2133 634 m 21 X s 2144 671 m 10 X s 2144 709 m 10 X s 2144 746 m 10 X s 2133 784 m 21 X s 2144 821 m 10 X s 2144 859 m 10 X s 2144 896 m 10 X s 2133 934 m 21 X s 2144 972 m 10 X s 2144 1009
 m 10 X s 2144 1047 m 10 X s 2133 1084 m 21 X s 2144 1122 m 10 X s 2144 1159 m 10 X s 2144 1197 m 10 X s 2133 1234 m 21 X s 2144 1272 m 10 X s 2144 1309 m 10 X s 2144 1347 m 10 X s 2133 1385 m 21 X s 2133 634 m 21 X s 2144 596 m 10 X s 2144 559 m 10
 X s 2144 521 m 10 X s 2133 1385 m 21 X s 2144 1422 m 10 X s 2144 1460 m 10 X s 2144 1497 m 10 X s
 gsave  2268 1103 0 472 C 1314.45 1423.98 t 0 r /Helvetica findfont 56.3093 sf 0 0 m ( Data) show NC gr  1259 1451 m 10 Y s 1259 1427 m -10 Y s 1259 1439 m20
 gsave  2268 1103 0 472 C 1808.84 1423.98 t 0 r /Helvetica findfont 56.3093 sf 0 0 m (single\255top) show NC gr 
 gsave  2268 1103 0 472 C 1779.24 1423.98 t 0 r /Helvetica-Oblique findfont 56.3093 sf 0 0 m (/) show NC gr 
 gsave  2268 1103 0 472 C 1758.52 1423.98 t 0 r /Helvetica-Oblique findfont 56.3093 sf 0 0 m (t) show NC gr  6 lw 1759 1468 m 20 X s
 gsave  2268 1103 0 472 C 1737.79 1423.98 t 0 r /Helvetica-Oblique findfont 56.3093 sf 0 0 m (t) show NC gr 
 gsave  2268 1103 0 472 C 1720.03 1423.98 t 0 r /Helvetica findfont 56.3093 sf 0 0 m ( ) show NC gr  0.06 0.54 0.06 c 3 lw 1626 1413 m 79 X 52 Y -79 X f 6 lw black
 gsave  2268 1103 0 472 C 1444.71 1349.97 t 0 r /Helvetica findfont 56.3093 sf 0 0 m (+jets) show NC gr 
 gsave  2268 1103 0 472 C 1332.21 1349.97 t 0 r /Helvetica-Oblique findfont 56.3093 sf 0 0 m (W/Z) show NC gr 
 gsave  2268 1103 0 472 C 1314.45 1349.97 t 0 r /Helvetica findfont 56.3093 sf 0 0 m ( ) show NC gr  1 0.653333 0 c 3 lw 1219 1340 m 79 X 51 Y -79 X f black
 gsave  2268 1103 0 472 C 1918.38 1349.97 t 0 r /Helvetica findfont 56.3093 sf 0 0 m (+jets) show NC gr 
 gsave  2268 1103 0 472 C 1737.79 1349.97 t 0 r /Helvetica-Oblique findfont 56.3093 sf 0 0 m (WZ/ZZ) show NC gr 
 gsave  2268 1103 0 472 C 1720.03 1349.97 t 0 r /Helvetica findfont 56.3093 sf 0 0 m ( ) show NC gr  0.413333 1 0 c 3 lw 1626 1340 m 79 X 51 Y -79 X f black
 gsave  2268 1103 0 472 C 1373.66 1275.96 t 0 r /Helvetica-Oblique findfont 56.3093 sf 0 0 m (Z) show NC gr 
 gsave  2268 1103 0 472 C 1352.93 1275.96 t 0 r /Helvetica-Oblique findfont 56.3093 sf 0 0 m (t) show NC gr  6 lw 1353 1320 m 21 X s
 gsave  2268 1103 0 472 C 1332.21 1275.96 t 0 r /Helvetica-Oblique findfont 56.3093 sf 0 0 m (t) show NC gr 
 gsave  2268 1103 0 472 C 1314.45 1275.96 t 0 r /Helvetica findfont 56.3093 sf 0 0 m ( ) show NC gr  0.6 0.2 1 c 3 lw 1219 1266 m 79 X 52 Y -79 X f 6 lw black
 gsave  2268 1103 0 472 C 1779.24 1275.96 t 0 r /Helvetica-Oblique findfont 56.3093 sf 0 0 m (W) show NC gr 
 gsave  2268 1103 0 472 C 1758.52 1275.96 t 0 r /Helvetica-Oblique findfont 56.3093 sf 0 0 m (t) show NC gr  6 lw 1759 1320 m 20 X s
 gsave  2268 1103 0 472 C 1737.79 1275.96 t 0 r /Helvetica-Oblique findfont 56.3093 sf 0 0 m (t) show NC gr 
 gsave  2268 1103 0 472 C 1720.03 1275.96 t 0 r /Helvetica findfont 56.3093 sf 0 0 m ( ) show NC gr  0.54 0.06 0.06 c 3 lw 1626 1266 m 79 X 52 Y -79 X f 6 lw black
 gsave  2268 1103 0 472 C 1332.21 1204.91 t 0 r /Helvetica-Oblique findfont 56.3093 sf 0 0 m (tZq) show NC gr 
 gsave  2268 1103 0 472 C 1314.45 1204.91 t 0 r /Helvetica findfont 56.3093 sf 0 0 m ( ) show NC gr  1 0 1 c 3 lw 1219 1193 m 79 X 51 Y -79 X f black
 gsave  2268 1103 0 472 C 1779.24 1204.91 t 0 r /Helvetica-Oblique findfont 56.3093 sf 0 0 m (H) show NC gr 
 gsave  2268 1103 0 472 C 1758.52 1204.91 t 0 r /Helvetica-Oblique findfont 56.3093 sf 0 0 m (t) show NC gr  6 lw 1759 1249 m 20 X s
 gsave  2268 1103 0 472 C 1737.79 1204.91 t 0 r /Helvetica-Oblique findfont 56.3093 sf 0 0 m (t) show NC gr 
 gsave  2268 1103 0 472 C 1720.03 1204.91 t 0 r /Helvetica findfont 56.3093 sf 0 0 m ( ) show NC gr  0 0 1 c 3 lw 1626 1193 m 79 X 51 Y -79 X f 6 lw black
 gsave  2268 1103 0 472 C 1332.21 1130.9 t 0 r /Helvetica-Oblique findfont 56.3093 sf 0 0 m (tWZ/tWH) show NC gr 
 gsave  2268 1103 0 472 C 1314.45 1130.9 t 0 r /Helvetica findfont 56.3093 sf 0 0 m ( ) show NC gr  0.2 0.8 0.8 c 3 lw 1219 1119 m 79 X 52 Y -79 X f black
 gsave  2268 1103 0 472 C 1737.79 1130.9 t 0 r /Helvetica-Oblique findfont 56.3093 sf 0 0 m (tHq) show NC gr 
 gsave  2268 1103 0 472 C 1720.03 1130.9 t 0 r /Helvetica findfont 56.3093 sf 0 0 m ( ) show NC gr  1 0 0 c 3 lw 1626 1119 m 79 X 52 Y -79 X f black
 gsave  2268 1103 0 472 C 1314.45 1056.89 t 0 r /Helvetica findfont 56.3093 sf 0 0 m ( Other) show NC gr  1 0.84 0 c 3 lw 1219 1046 m 79 X 51 Y -79 X f black
 gsave  2268 1103 0 472 C 1720.03 1056.89 t 0 r /Helvetica findfont 56.3093 sf 0 0 m ( Uncertainty) show NC gr  0.6 0.6 0.6 c 3 lw 1705 1061 m -15 -15 d s 1705 1080 m -34 -34 d s 1703 1097 m -51 -51 d s 1684 1097 m -51 -51 d s 1665 1097 m -39 -39 d s
 1646 1097 m -20 -20 d s 1626 1097 m s 1 0.84 0 c 0.6 0.6 0.6 c black
 gsave  2268 1103 0 472 C 894.061 1329.25 t 0 r /Helvetica findfont 41.4911 sf 0 0 m (\2551) show NC gr 
 gsave  2268 1103 0 472 C 399.663 1299.64 t 0 r /Helvetica findfont 62.2366 sf 0 0 m ( = 13 TeV,  139 fb) show NC gr 
 gsave  2268 1103 0 472 C 370.058 1299.64 t 0 r /Helvetica findfont 62.2366 sf 0 0 m (s) show NC gr  6 lw 349 1335 m 6 -38 d s 3 lw 355 1297 m 6 56 d s 361 1353 m 39 X s
 gsave  2268 1103 0 472 C 337.493 1201.95 t 0 r /Helvetica findfont 62.2366 sf 0 0 m ( 2L\(SS\), CR\(fake\255el/mu\)) show NC gr 
 gsave  2268 1103 0 472 C 337.493 1400.3 t 0 r /Helvetica-BoldOblique findfont 71.1276 sf 0 0 m (ATLAS) show NC gr 
 gsave  2268 1103 0 472 C 633.54 1400.3 t 0 r /Helvetica findfont 71.1276 sf 0 0 m (Internal) show NC gr 
 gr  gr showpage
end
%%EOF
