%!PS-Adobe-2.0 EPSF-2.0
%%BoundingBox:  0 0 567 394
%%Title: : EtMiss_CR1b3j
%%Creator: ROOT Version 6.20/06
%%CreationDate: Mon May 30 19:26:15 2022
%%DocumentNeededResources: ProcSet (FontSetInit)
%%EndComments
%%BeginProlog
80 dict begin
/s {stroke} def /l {lineto} def /m {moveto} def /t {translate} def
/r {rotate} def /rl {roll}  def /R {repeat} def
/d {rlineto} def /rm {rmoveto} def /gr {grestore} def /f {eofill} def
/c {setrgbcolor} def /black {0 setgray} def /sd {setdash} def
/cl {closepath} def /sf {scalefont setfont} def /lw {setlinewidth} def
/box {m dup 0 exch d exch 0 d 0 exch neg d cl} def
/NC{systemdict begin initclip end}def/C{NC box clip newpath}def
/bl {box s} def /bf {gsave box gsave f grestore 1 lw [] 0 sd s grestore} def /Y { 0 exch d} def /X { 0 d} def 
/K {{pop pop 0 moveto} exch kshow} bind def
/ita {/ang 15 def gsave [1 0 ang dup sin exch cos div 1 0 0] concat} def 
/mp {newpath /y exch def /x exch def} def
/side {[w .77 mul w .23 mul] .385 w mul sd w 0 l currentpoint t -144 r} def
/mr {mp x y w2 0 360 arc} def /m24 {mr s} def /m20 {mr f} def
/mb {mp x y w2 add m w2 neg 0 d 0 w neg d w 0 d 0 w d cl} def
/mt {mp x y w2 add m w2 neg w neg d w 0 d cl} def
/w4 {w 4 div} def
/w6 {w 6 div} def
/w8 {w 8 div} def
/m21 {mb f} def /m25 {mb s} def /m22 {mt f} def /m26{mt s} def
/m23 {mp x y w2 sub m w2 w d w neg 0 d cl f} def
/m27 {mp x y w2 add m w3 neg w2 neg d w3 w2 neg d w3 w2 d cl s} def
/m28 {mp x w2 sub y w2 sub w3 add m w3 0 d  0 w3 neg d w3 0 d 0 w3 d w3 0 d  0 w3 d w3 neg 0 d 0 w3 d w3 neg 0 d 0 w3 neg d w3 neg 0 d cl s } def
/m29 {mp gsave x w2 sub y w2 add w3 sub m currentpoint t 4 {side} repeat cl fill gr} def
/m30 {mp gsave x w2 sub y w2 add w3 sub m currentpoint t 4 {side} repeat cl s gr} def
/m31 {mp x y w2 sub m 0 w d x w2 sub y m w 0 d x w2 sub y w2 add m w w neg d x w2 sub y w2 sub m w w d s} def
/m32 {mp x y w2 sub m w2 w d w neg 0 d cl s} def
/m33 {mp x y w2 add m w3 neg w2 neg d w3 w2 neg d w3 w2 d cl f} def
/m34 {mp x w2 sub y w2 sub w3 add m w3 0 d  0 w3 neg d w3 0 d 0 w3 d w3 0 d  0 w3 d w3 neg 0 d 0 w3 d w3 neg 0 d 0 w3 neg d w3 neg 0 d cl f } def
/m35 {mp x y w2 add m w2 neg w2 neg d w2 w2 neg d w2 w2 d w2 neg w2 d x y w2 sub m 0 w d x w2 sub y m w 0 d s} def
/m36 {mb x w2 sub y w2 add m w w neg d x w2 sub y w2 sub m w w d s} def
/m37 {mp x y m w4 neg w2 d w4 neg w2 neg d w2 0 d  w4 neg w2 neg d w2 0 d w4 neg w2 d w2 0 d w4 neg w2 d w4 neg w2 neg d cl s} def
/m38 {mp x w4 sub y w2 add m w4 neg w4 neg d 0 w2 neg d w4 w4 neg d w2 0 d w4 w4 d 0 w2 d w4 neg w4 d w2 neg 0 d x y w2 sub m 0 w d x w2 sub y m w 0 d cl s} def
/m39 {mp x y m w4 neg w2 d w4 neg w2 neg d w2 0 d  w4 neg w2 neg d w2 0 d w4 neg w2 d w2 0 d w4 neg w2 d w4 neg w2 neg d cl f} def
/m40 {mp x y m w4 w2 d w4 w4 neg d w2 neg w4 neg d w2 w4 neg d w4 neg w4 neg d w4 neg w2 d w4 neg w2 neg d w4 neg w4 d w2 w4 d w2 neg w4 d w4 w4 d w4 w2 neg d cl s} def
/m41 {mp x y m w4 w2 d w4 w4 neg d w2 neg w4 neg d w2 w4 neg d w4 neg w4 neg d w4 neg w2 d w4 neg w2 neg d w4 neg w4 d w2 w4 d w2 neg w4 d w4 w4 d w4 w2 neg d cl f} def
/m42 {mp x y w2 add m w8 neg w2 -3 4 div mul d w2 -3 4 div mul w8 neg d w2 3 4 div mul w8 neg d w8 w2 -3 4 div mul d w8 w2 3 4 div mul d w2 3 4 div mul w8 d w2 -3 4 div mul w8 d w8 neg w2 3 4 div mul d cl s} def
/m43 {mp x y w2 add m w8 neg w2 -3 4 div mul d w2 -3 4 div mul w8 neg d w2 3 4 div mul w8 neg d w8 w2 -3 4 div mul d w8 w2 3 4 div mul d w2 3 4 div mul w8 d w2 -3 4 div mul w8 d w8 neg w2 3 4 div mul d cl f} def
/m44 {mp x y m w6 neg w2 d w2 2 3 div mul 0 d w6 neg w2 neg d w2 w6 d 0 w2 -2 3 div mul d w2 neg w6 d w6 w2 neg d w2 -2 3 div mul 0 d w6 w2 d w2 neg w6 neg d 0 w2 2 3 div mul d w2 w6 neg d cl s} def
/m45 {mp x y m w6 neg w2 d w2 2 3 div mul 0 d w6 neg w2 neg d w2 w6 d 0 w2 -2 3 div mul d w2 neg w6 d w6 w2 neg d w2 -2 3 div mul 0 d w6 w2 d w2 neg w6 neg d 0 w2 2 3 div mul d w2 w6 neg d cl f} def
/m46 {mp x y w4 add m w4 neg w4 d w4 neg w4 neg d  w4 w4 neg d w4 neg w4 neg d w4 w4 neg d w4 w4 d w4 w4 neg d w4 w4 d w4 neg w4 d w4 w4 d w4 neg w4 d w4 neg w4 neg d cl s} def
/m47 {mp x y w4 add m w4 neg w4 d w4 neg w4 neg d w4 w4 neg d w4 neg w4 neg d  w4 w4 neg d w4 w4 d w4 w4 neg d w4 w4 d w4 neg w4 d w4 w4 d w4 neg w4 d w4 neg w4 neg d cl f} def
/m48 {mp x y w4 add m w4 neg w4 d w4 neg w4 neg d w4 w4 neg d  w4 neg w4 neg d w4 w4 neg d w4 w4 d w4 w4 neg d w4 w4 d w4 neg w4 d w4 w4 d w4 neg w4 d w4 neg w4 neg d  w4 w4 neg d w4 neg w4 neg d w4 neg w4 d w4 w4 d cl f} def
/m49 {mp x w2 sub w3 add y w2 sub w3 add m  0 w3 neg d w3 0 d 0 w3 d w3 0 d 0 w3 d w3 neg 0 d 0 w3 d w3 neg 0 d 0 w3 neg d w3 neg 0 d 0 w3 neg d w3 0 d 0 w3 d w3 0 d 0 w3 neg d w3 neg 0 d cl f } def
/m2 {mp x y w2 sub m 0 w d x w2 sub y m w 0 d s} def
/m5 {mp x w2 sub y w2 sub m w w d x w2 sub y w2 add m w w neg d s} def
%%IncludeResource: ProcSet (FontSetInit)
%%IncludeResource: font Times-Roman
%%IncludeResource: font Times-Italic
%%IncludeResource: font Times-Bold
%%IncludeResource: font Times-BoldItalic
%%IncludeResource: font Helvetica
%%IncludeResource: font Helvetica-Oblique
%%IncludeResource: font Helvetica-Bold
%%IncludeResource: font Helvetica-BoldOblique
%%IncludeResource: font Courier
%%IncludeResource: font Courier-Oblique
%%IncludeResource: font Courier-Bold
%%IncludeResource: font Courier-BoldOblique
%%IncludeResource: font Symbol
%%IncludeResource: font ZapfDingbats
/reEncode {exch findfont dup length dict begin {1 index /FID eq  {pop pop} {def} ifelse } forall /Encoding exch def currentdict end dup /FontName get exch definefont pop } def [/Times-Bold /Times-Italic /Times-BoldItalic /Helvetica /Helvetica-Oblique
 /Helvetica-Bold /Helvetica-BoldOblique /Courier /Courier-Oblique /Courier-Bold /Courier-BoldOblique /Times-Roman /AvantGarde-Book /AvantGarde-BookOblique /AvantGarde-Demi /AvantGarde-DemiOblique /Bookman-Demi /Bookman-DemiItalic /Bookman-Light
 /Bookman-LightItalic /Helvetica-Narrow /Helvetica-Narrow-Bold /Helvetica-Narrow-BoldOblique /Helvetica-Narrow-Oblique /NewCenturySchlbk-Roman /NewCenturySchlbk-Bold /NewCenturySchlbk-BoldItalic /NewCenturySchlbk-Italic /Palatino-Bold
 /Palatino-BoldItalic /Palatino-Italic /Palatino-Roman ] {ISOLatin1Encoding reEncode } forall
%%EndProlog
%%BeginSetup
%%EndSetup
newpath  gsave  .25 .25 scale  gsave  0 0 t black[  ] 0 sd 3 lw 1 1 1 c 2268 1575 0 0 bf black 1 1 1 c 2268 472 0 0 bf black 1 1 1 c 1927 274 227 189 bf black 1927 274 227 189 bl 227 189 m 1927 X s 227 201 m -12 Y s 291 195 m -6 Y s 355 195 m -6 Y s
 420 195 m -6 Y s 484 195 m -6 Y s 548 201 m -12 Y s 612 195 m -6 Y s 677 195 m -6 Y s 741 195 m -6 Y s 805 195 m -6 Y s 869 201 m -12 Y s 934 195 m -6 Y s 998 195 m -6 Y s 1062 195 m -6 Y s 1126 195 m -6 Y s 1191 201 m -12 Y s 1255 195 m -6 Y s 1319
 195 m -6 Y s 1383 195 m -6 Y s 1448 195 m -6 Y s 1512 201 m -12 Y s 1576 195 m -6 Y s 1640 195 m -6 Y s 1705 195 m -6 Y s 1769 195 m -6 Y s 1833 201 m -12 Y s 1897 195 m -6 Y s 1962 195 m -6 Y s 2026 195 m -6 Y s 2090 195 m -6 Y s 2154 201 m -12 Y s
 gsave  2268 472 0 0 C 210.193 127.3 t 0 r /Helvetica findfont 53.4895 sf 0 0 m (0) show NC gr 
 gsave  2268 472 0 0 C 518.081 127.3 t 0 r /Helvetica findfont 53.4895 sf 0 0 m (50) show NC gr 
 gsave  2268 472 0 0 C 823.009 127.3 t 0 r /Helvetica findfont 53.4895 sf 0 0 m (100) show NC gr 
 gsave  2268 472 0 0 C 1145.7 127.3 t 0 r /Helvetica findfont 53.4895 sf 0 0 m (150) show NC gr 
 gsave  2268 472 0 0 C 1465.43 127.3 t 0 r /Helvetica findfont 53.4895 sf 0 0 m (200) show NC gr 
 gsave  2268 472 0 0 C 1788.12 127.3 t 0 r /Helvetica findfont 53.4895 sf 0 0 m (250) show NC gr 
 gsave  2268 472 0 0 C 2107.85 127.3 t 0 r /Helvetica findfont 53.4895 sf 0 0 m (300) show NC gr 
 gsave  2268 472 0 0 C 1995.35 41.4465 t 0 r /Helvetica findfont 56.4611 sf 0 0 m ( [GeV]) show NC gr 
 gsave  2268 472 0 0 C 1915.42 68.0907 t 0 r /Helvetica findfont 38.6313 sf 0 0 m (miss) show NC gr 
 gsave  2268 472 0 0 C 1915.42 23.6837 t 0 r /Helvetica findfont 38.6313 sf 0 0 m (T) show NC gr 
 gsave  2268 472 0 0 C 1871.01 41.4465 t 0 r /Helvetica-Oblique findfont 56.4611 sf 0 0 m (E) show NC gr  227 463 m 1927 X s 227 451 m 12 Y s 291 457 m 6 Y s 355 457 m 6 Y s 420 457 m 6 Y s 484 457 m 6 Y s 548 451 m 12 Y s 612 457 m 6 Y s 677 457 m 6
 Y s 741 457 m 6 Y s 805 457 m 6 Y s 869 451 m 12 Y s 934 457 m 6 Y s 998 457 m 6 Y s 1062 457 m 6 Y s 1126 457 m 6 Y s 1191 451 m 12 Y s 1255 457 m 6 Y s 1319 457 m 6 Y s 1383 457 m 6 Y s 1448 457 m 6 Y s 1512 451 m 12 Y s 1576 457 m 6 Y s 1640 457
 m 6 Y s 1705 457 m 6 Y s 1769 457 m 6 Y s 1833 451 m 12 Y s 1897 457 m 6 Y s 1962 457 m 6 Y s 2026 457 m 6 Y s 2090 457 m 6 Y s 2154 451 m 12 Y s 227 189 m 274 Y s 240 240 m -13 X s 240 326 m -13 X s 240 412 m -13 X s 240 240 m -13 X s 240 412 m -13
 X s
 gsave  2268 472 0 0 C 118.419 222.035 t 0 r /Helvetica findfont 53.4895 sf 0 0 m (0.5) show NC gr 
 gsave  2268 472 0 0 C 171.707 307.888 t 0 r /Helvetica findfont 53.4895 sf 0 0 m (1) show NC gr 
 gsave  2268 472 0 0 C 118.419 393.742 t 0 r /Helvetica findfont 53.4895 sf 0 0 m (1.5) show NC gr 
 gsave  2268 472 0 0 C 71.0512 230.916 t 90 r /Helvetica findfont 53.4895 sf 0 0 m (Data / SM) show NC gr  2154 189 m 274 Y s 2141 240 m 13 X s 2141 326 m 13 X s 2141 412 m 13 X s 2141 240 m 13 X s 2141 412 m 13 X s 227 189 m 1927 X s 227 463 m 1927
 X s 227 189 m 274 Y s[ 4 8] 0 sd 2154 240 m -1927 X s 2154 326 m -1927 X s 2154 412 m -1927 X s 2154 240 m -1927 X s 2154 412 m -1927 X s[  ] 0 sd 2154 189 m 274 Y s 1 1 0.6 c 193 0 227 326 bf 192 0 420 326 bf 193 0 612 326 bf 193 0 805 326 bf 193 0
 998 326 bf 192 0 1191 326 bf 193 0 1383 326 bf 193 0 1576 326 bf 193 0 1769 326 bf 192 0 1962 326 bf black 0.6 0.6 0.6 c 420 325 m -9 -9 d s 412 336 m -21 -20 d s 393 336 m -21 -20 d s 374 336 m -21 -20 d s 354 336 m -20 -20 d s 335 336 m -21 -20 d
 s 316 336 m -21 -20 d s 297 336 m -21 -20 d s 277 336 m -20 -20 d s 258 336 m -21 -20 d s 239 336 m -12 -12 d s 612 325 m -4 -5 d s 600 332 m -11 -12 d s 581 332 m -12 -12 d s 561 332 m -11 -12 d s 542 332 m -11 -12 d s 523 332 m -11 -12 d s 504 332
 m -12 -12 d s 484 332 m -11 -12 d s 465 332 m -11 -12 d s 446 332 m -11 -12 d s 427 332 m -7 -7 d s 805 325 m -4 -4 d s 792 331 m -11 -10 d s 773 331 m -11 -10 d s 753 331 m -10 -10 d s 734 331 m -10 -10 d s 715 331 m -11 -10 d s 696 331 m -11 -10 d
 s 676 331 m -10 -10 d s 657 331 m -10 -10 d s 638 331 m -11 -10 d s 619 331 m -7 -6 d s 998 326 m -7 -7 d s 986 333 m -14 -14 d s 967 333 m -14 -14 d s 948 333 m -15 -14 d s 928 333 m -14 -14 d s 909 333 m -14 -14 d s 890 333 m -14 -14 d s 871 333 m
 -15 -14 d s 851 333 m -14 -14 d s 832 333 m -14 -14 d s 813 333 m -8 -8 d s 1191 326 m -9 -9 d s 1180 335 m -17 -18 d s 1161 335 m -17 -18 d s 1142 335 m -18 -18 d s 1122 335 m -17 -18 d s 1103 335 m -17 -18 d s 1084 335 m -17 -18 d s 1065 335 m -18
 -18 d s 1045 335 m -17 -18 d s 1026 335 m -17 -18 d s 1007 335 m -9 -9 d s 1383 326 m -11 -11 d s 1375 337 m -22 -22 d s 1356 337 m -22 -22 d s 1336 337 m -22 -22 d s 1317 337 m -22 -22 d s 1298 337 m -22 -22 d s 1279 337 m -22 -22 d s 1259 337 m
 -22 -22 d s 1240 337 m -22 -22 d s 1221 337 m -22 -22 d s 1202 337 m -11 -11 d s 1576 307 m -1 -1 d s 1576 327 m -20 -21 d s 1576 346 m -39 -40 d s 1557 346 m -40 -40 d s 1537 346 m -39 -40 d s 1518 346 m -39 -40 d s 1499 346 m -39 -40 d s 1480 346
 m -40 -40 d s 1460 346 m -39 -40 d s 1441 346 m -39 -40 d s 1422 346 m -39 -39 d s 1403 346 m -20 -20 d s 1384 346 m -1 X s 1769 327 m -19 -19 d s 1767 344 m -36 -36 d s 1748 344 m -37 -36 d s 1728 344 m -36 -36 d s 1709 344 m -36 -36 d s 1690 344 m
 -36 -36 d s 1671 344 m -37 -36 d s 1651 344 m -36 -36 d s 1632 344 m -36 -36 d s 1613 344 m -36 -36 d s 1594 344 m -18 -17 d s 1962 308 m -9 -8 d s 1962 327 m -28 -27 d s 1962 347 m -47 -47 d s 1948 352 m -52 -52 d s 1929 352 m -52 -52 d s 1910 352
 m -53 -52 d s 1890 352 m -52 -52 d s 1871 352 m -52 -52 d s 1852 352 m -52 -52 d s 1833 352 m -53 -52 d s 1813 352 m -44 -44 d s 1794 352 m -25 -25 d s 1775 352 m -6 -6 d s 2154 328 m -13 -13 d s 2145 338 m -23 -23 d s 2126 338 m -23 -23 d s 2107
 338 m -23 -23 d s 2087 338 m -23 -23 d s 2068 338 m -23 -23 d s 2049 338 m -23 -23 d s 2030 338 m -23 -23 d s 2010 338 m -23 -23 d s 1991 338 m -23 -23 d s 1972 338 m -10 -11 d s black 1 1 1 c black 323 345 m 8 Y s 323 376 m 8 Y s /w 26 def /w2 {w 2
 div} def /w3 {w 3 div} def 323 365 m20 516 307 m 2 Y s 516 332 m 2 Y s 516 320 m20 709 329 m 5 Y s 709 358 m 5 Y s 709 346 m20 901 359 m 15 Y s 901 397 m 15 Y s 901 385 m20 1094 304 m 22 Y s 1094 349 m 22 Y s 1094 337 m20 1287 391 m 49 Y s 1287 452
 m20 1480 286 m 49 Y s 1480 358 m 49 Y s 1480 347 m20 1672 215 m 70 Y s 1672 309 m 70 Y s 1672 297 m20 2058 200 m 51 Y s 2058 274 m 51 Y s 2058 262 m20 227 326 m 1927 X s 227 189 m 1927 X s 227 201 m -12 Y s 291 195 m -6 Y s 355 195 m -6 Y s 420 195
 m -6 Y s 484 195 m -6 Y s 548 201 m -12 Y s 612 195 m -6 Y s 677 195 m -6 Y s 741 195 m -6 Y s 805 195 m -6 Y s 869 201 m -12 Y s 934 195 m -6 Y s 998 195 m -6 Y s 1062 195 m -6 Y s 1126 195 m -6 Y s 1191 201 m -12 Y s 1255 195 m -6 Y s 1319 195 m
 -6 Y s 1383 195 m -6 Y s 1448 195 m -6 Y s 1512 201 m -12 Y s 1576 195 m -6 Y s 1640 195 m -6 Y s 1705 195 m -6 Y s 1769 195 m -6 Y s 1833 201 m -12 Y s 1897 195 m -6 Y s 1962 195 m -6 Y s 2026 195 m -6 Y s 2090 195 m -6 Y s 2154 201 m -12 Y s 227
 463 m 1927 X s 227 451 m 12 Y s 291 457 m 6 Y s 355 457 m 6 Y s 420 457 m 6 Y s 484 457 m 6 Y s 548 451 m 12 Y s 612 457 m 6 Y s 677 457 m 6 Y s 741 457 m 6 Y s 805 457 m 6 Y s 869 451 m 12 Y s 934 457 m 6 Y s 998 457 m 6 Y s 1062 457 m 6 Y s 1126
 457 m 6 Y s 1191 451 m 12 Y s 1255 457 m 6 Y s 1319 457 m 6 Y s 1383 457 m 6 Y s 1448 457 m 6 Y s 1512 451 m 12 Y s 1576 457 m 6 Y s 1640 457 m 6 Y s 1705 457 m 6 Y s 1769 457 m 6 Y s 1833 451 m 12 Y s 1897 457 m 6 Y s 1962 457 m 6 Y s 2026 457 m 6
 Y s 2090 457 m 6 Y s 2154 451 m 12 Y s 227 189 m 274 Y s 240 240 m -13 X s 240 326 m -13 X s 240 412 m -13 X s 240 240 m -13 X s 240 412 m -13 X s 2154 189 m 274 Y s 2141 240 m 13 X s 2141 326 m 13 X s 2141 412 m 13 X s 2141 240 m 13 X s 2141 412 m
 13 X s 1 1 1 c 2268 1103 0 472 bf black 1 1 1 c 1927 1036 227 484 bf black 1927 1036 227 484 bl 1 1 1 c black 3 lw 227 484 m 1927 X s 227 502 m -18 Y s 291 493 m -9 Y s 355 493 m -9 Y s 420 493 m -9 Y s 484 493 m -9 Y s 548 502 m -18 Y s 612 493 m
 -9 Y s 677 493 m -9 Y s 741 493 m -9 Y s 805 493 m -9 Y s 869 502 m -18 Y s 934 493 m -9 Y s 998 493 m -9 Y s 1062 493 m -9 Y s 1126 493 m -9 Y s 1191 502 m -18 Y s 1255 493 m -9 Y s 1319 493 m -9 Y s 1383 493 m -9 Y s 1448 493 m -9 Y s 1512 502 m
 -18 Y s 1576 493 m -9 Y s 1640 493 m -9 Y s 1705 493 m -9 Y s 1769 493 m -9 Y s 1833 502 m -18 Y s 1897 493 m -9 Y s 1962 493 m -9 Y s 2026 493 m -9 Y s 2090 493 m -9 Y s 2154 502 m -18 Y s
 gsave  2268 1103 0 472 C 2069.37 396.702 t 0 r /Helvetica findfont 29.6365 sf 0 0 m ( [GeV]) show NC gr 
 gsave  2268 1103 0 472 C 2024.96 414.465 t 0 r /Helvetica findfont 20.7455 sf 0 0 m (miss) show NC gr 
 gsave  2268 1103 0 472 C 2024.96 387.821 t 0 r /Helvetica findfont 20.7455 sf 0 0 m (T) show NC gr 
 gsave  2268 1103 0 472 C 2001.27 396.702 t 0 r /Helvetica-Oblique findfont 29.6365 sf 0 0 m (E) show NC gr  227 1520 m 1927 X s 227 1501 m 19 Y s 291 1510 m 10 Y s 355 1510 m 10 Y s 420 1510 m 10 Y s 484 1510 m 10 Y s 548 1501 m 19 Y s 612 1510 m 10
 Y s 677 1510 m 10 Y s 741 1510 m 10 Y s 805 1510 m 10 Y s 869 1501 m 19 Y s 934 1510 m 10 Y s 998 1510 m 10 Y s 1062 1510 m 10 Y s 1126 1510 m 10 Y s 1191 1501 m 19 Y s 1255 1510 m 10 Y s 1319 1510 m 10 Y s 1383 1510 m 10 Y s 1448 1510 m 10 Y s 1512
 1501 m 19 Y s 1576 1510 m 10 Y s 1640 1510 m 10 Y s 1705 1510 m 10 Y s 1769 1510 m 10 Y s 1833 1501 m 19 Y s 1897 1510 m 10 Y s 1962 1510 m 10 Y s 2026 1510 m 10 Y s 2090 1510 m 10 Y s 2154 1501 m 19 Y s 227 484 m 1036 Y s 248 609 m -21 X s 237 634
 m -10 X s 237 659 m -10 X s 237 684 m -10 X s 237 709 m -10 X s 248 734 m -21 X s 237 759 m -10 X s 237 784 m -10 X s 237 809 m -10 X s 237 834 m -10 X s 248 860 m -21 X s 237 885 m -10 X s 237 910 m -10 X s 237 935 m -10 X s 237 960 m -10 X s 248
 985 m -21 X s 237 1010 m -10 X s 237 1035 m -10 X s 237 1060 m -10 X s 237 1085 m -10 X s 248 1110 m -21 X s 237 1135 m -10 X s 237 1160 m -10 X s 237 1185 m -10 X s 237 1210 m -10 X s 248 1236 m -21 X s 237 1261 m -10 X s 237 1286 m -10 X s 237
 1311 m -10 X s 237 1336 m -10 X s 248 1361 m -21 X s 237 1386 m -10 X s 237 1411 m -10 X s 237 1436 m -10 X s 237 1461 m -10 X s 248 1486 m -21 X s 248 609 m -21 X s 237 584 m -10 X s 237 559 m -10 X s 237 534 m -10 X s 237 509 m -10 X s 248 1486 m
 -21 X s 237 1511 m -10 X s
 gsave  2268 1103 0 472 C 145.063 589.133 t 0 r /Helvetica findfont 50.382 sf 0 0 m (50) show NC gr 
 gsave  2268 1103 0 472 C 118.419 713.472 t 0 r /Helvetica findfont 50.382 sf 0 0 m (100) show NC gr 
 gsave  2268 1103 0 472 C 118.419 840.772 t 0 r /Helvetica findfont 50.382 sf 0 0 m (150) show NC gr 
 gsave  2268 1103 0 472 C 118.419 965.112 t 0 r /Helvetica findfont 50.382 sf 0 0 m (200) show NC gr 
 gsave  2268 1103 0 472 C 118.419 1092.41 t 0 r /Helvetica findfont 50.382 sf 0 0 m (250) show NC gr 
 gsave  2268 1103 0 472 C 118.419 1216.75 t 0 r /Helvetica findfont 50.382 sf 0 0 m (300) show NC gr 
 gsave  2268 1103 0 472 C 118.419 1341.09 t 0 r /Helvetica findfont 50.382 sf 0 0 m (350) show NC gr 
 gsave  2268 1103 0 472 C 118.419 1468.39 t 0 r /Helvetica findfont 50.382 sf 0 0 m (400) show NC gr 
 gsave  2268 1103 0 472 C 62.1698 1154.58 t 90 r /Helvetica findfont 50.382 sf 0 0 m (Events / 30 GeV) show NC gr  2154 484 m 1036 Y s 2133 609 m 21 X s 2144 634 m 10 X s 2144 659 m 10 X s 2144 684 m 10 X s 2144 709 m 10 X s 2133 734 m 21 X s 2144
 759 m 10 X s 2144 784 m 10 X s 2144 809 m 10 X s 2144 834 m 10 X s 2133 860 m 21 X s 2144 885 m 10 X s 2144 910 m 10 X s 2144 935 m 10 X s 2144 960 m 10 X s 2133 985 m 21 X s 2144 1010 m 10 X s 2144 1035 m 10 X s 2144 1060 m 10 X s 2144 1085 m 10 X
 s 2133 1110 m 21 X s 2144 1135 m 10 X s 2144 1160 m 10 X s 2144 1185 m 10 X s 2144 1210 m 10 X s 2133 1236 m 21 X s 2144 1261 m 10 X s 2144 1286 m 10 X s 2144 1311 m 10 X s 2144 1336 m 10 X s 2133 1361 m 21 X s 2144 1386 m 10 X s 2144 1411 m 10 X s
 2144 1436 m 10 X s 2144 1461 m 10 X s 2133 1486 m 21 X s 2133 609 m 21 X s 2144 584 m 10 X s 2144 559 m 10 X s 2144 534 m 10 X s 2144 509 m 10 X s 2133 1486 m 21 X s 2144 1511 m 10 X s 0.06 0.54 0.06 c black 3 lw 0.06 0.54 0.06 c 227 484 m 241 Y 193
 X 173 Y 192 X -143 Y 193 X -128 Y 193 X -75 Y 193 X -34 Y 192 X -12 Y 193 X -13 Y 193 X -4 Y 193 X 6 Y 192 X -11 Y f 1 0.653333 0 c 0.999 0.999 0.999 c black 3 lw 0.999 0.999 0.999 c 227 484 m 143 Y 193 X 61 Y 192 X -77 Y 193 X -54 Y 193 X -34 Y 193
 X -19 Y 192 X -7 Y 193 X -7 Y 193 X -3 Y 193 X 5 Y 192 X -8 Y f 1 0.653333 0 c 0.999 0.999 0.999 c 1 0.653333 0 c 1 1 1 c black 1 0.653333 0 c black 3 lw 1 0.653333 0 c 227 484 m 143 Y 193 X 61 Y 192 X -77 Y 193 X -54 Y 193 X -34 Y 193 X -19 Y 192 X
 -7 Y 193 X -7 Y 193 X -3 Y 193 X 5 Y 192 X -8 Y f 0.413333 1 0 c 0.999 0.999 0.999 c black 3 lw 0.999 0.999 0.999 c 227 484 m 78 Y 193 X 73 Y 192 X -32 Y 193 X -49 Y 193 X -32 Y 193 X -19 Y 192 X -9 Y 193 X -4 Y 193 X -3 Y 193 X 5 Y 192 X -8 Y f
 0.413333 1 0 c 0.999 0.999 0.999 c 0.413333 1 0 c 1 1 1 c black 0.413333 1 0 c black 3 lw 0.413333 1 0 c 227 484 m 78 Y 193 X 73 Y 192 X -32 Y 193 X -49 Y 193 X -32 Y 193 X -19 Y 192 X -9 Y 193 X -4 Y 193 X -3 Y 193 X 5 Y 192 X -8 Y f 0.6 0.2 1 c
 0.999 0.999 0.999 c black 3 lw 0.999 0.999 0.999 c 227 484 m 39 Y 193 X 49 Y 192 X -5 Y 193 X -29 Y 193 X -24 Y 193 X -14 Y 192 X -8 Y 193 X -3 Y 193 X -3 Y 193 X 3 Y 192 X -5 Y f 0.6 0.2 1 c 0.999 0.999 0.999 c 0.6 0.2 1 c 1 1 1 c black 0.6 0.2 1 c
 black 3 lw 0.6 0.2 1 c 227 484 m 39 Y 193 X 49 Y 192 X -5 Y 193 X -29 Y 193 X -24 Y 193 X -14 Y 192 X -8 Y 193 X -3 Y 193 X -3 Y 193 X 3 Y 192 X -5 Y f 0.54 0.06 0.06 c 0.999 0.999 0.999 c black 3 lw 0.999 0.999 0.999 c 227 484 m 35 Y 193 X 43 Y 192
 X -3 Y 193 X -26 Y 193 X -22 Y 193 X -13 Y 192 X -7 Y 193 X -3 Y 193 X -2 Y 193 X 3 Y 192 X -5 Y f 0.54 0.06 0.06 c 0.999 0.999 0.999 c 0.54 0.06 0.06 c 1 1 1 c black 0.54 0.06 0.06 c black 3 lw 0.54 0.06 0.06 c 227 484 m 35 Y 193 X 43 Y 192 X -3 Y
 193 X -26 Y 193 X -22 Y 193 X -13 Y 192 X -7 Y 193 X -3 Y 193 X -2 Y 193 X 3 Y 192 X -5 Y f 1 0 1 c 0.999 0.999 0.999 c black 3 lw 0.999 0.999 0.999 c 227 484 m 12 Y 193 X 15 Y 192 X -4 Y 193 X -9 Y 193 X -8 Y 193 X -4 Y 192 X -1 Y 193 X -1 Y 578 X
 f 1 0 1 c 0.999 0.999 0.999 c 1 0 1 c 1 1 1 c black 1 0 1 c black 3 lw 1 0 1 c 227 484 m 12 Y 193 X 15 Y 192 X -4 Y 193 X -9 Y 193 X -8 Y 193 X -4 Y 192 X -1 Y 193 X -1 Y 578 X f 0 0 1 c 0.999 0.999 0.999 c black 3 lw 0.999 0.999 0.999 c 227 484 m 4
 Y 193 X 6 Y 192 X 1 Y 193 X -3 Y 193 X -4 Y 193 X -3 Y 192 X -1 Y 771 X f 0 0 1 c 0.999 0.999 0.999 c 0 0 1 c 1 1 1 c black 0 0 1 c black 3 lw 0 0 1 c 227 484 m 4 Y 193 X 6 Y 192 X 1 Y 193 X -3 Y 193 X -4 Y 193 X -3 Y 192 X -1 Y 771 X f 0.2 0.8 0.8
 c 0.999 0.999 0.999 c black 3 lw 0.999 0.999 0.999 c 227 484 m 2 Y 193 X 4 Y 385 X -2 Y 193 X -2 Y 193 X -2 Y 963 X f 0.2 0.8 0.8 c 0.999 0.999 0.999 c 0.2 0.8 0.8 c 1 1 1 c black 0.2 0.8 0.8 c black 3 lw 0.2 0.8 0.8 c 227 484 m 2 Y 193 X 4 Y 385 X
 -2 Y 193 X -2 Y 193 X -2 Y 963 X f 1 0 0 c 0.999 0.999 0.999 c black 3 lw 0.999 0.999 0.999 c 227 484 m 193 X 3 Y 192 X 1 Y 193 X -1 Y 193 X -2 Y 193 X -1 Y 963 X f 1 0 0 c 0.999 0.999 0.999 c 1 0 0 c 1 1 1 c black 1 0 0 c black 3 lw 1 0 0 c 227 484
 m 193 X 3 Y 192 X 1 Y 193 X -1 Y 193 X -2 Y 193 X -1 Y 963 X f 1 0.84 0 c 0.999 0.999 0.999 c black 3 lw 0.999 0.999 0.999 c 227 484 m 193 X 2 Y 192 X 1 Y 193 X -1 Y 193 X -1 Y 193 X -1 Y 963 X f 1 0.84 0 c 0.999 0.999 0.999 c 1 0.84 0 c 1 1 1 c
 black 1 0.84 0 c black 3 lw 1 0.84 0 c 227 484 m 193 X 2 Y 192 X 1 Y 193 X -1 Y 193 X -1 Y 193 X -1 Y 963 X f black 1 1 1 c black 0.6 0.6 0.6 c 3 lw 420 718 m -9 -8 d s 420 738 m -28 -28 d s 402 740 m -29 -30 d s 383 740 m -29 -30 d s 364 740 m -30
 -30 d s 345 740 m -30 -30 d s 325 740 m -29 -30 d s 306 740 m -29 -30 d s 287 740 m -30 -30 d s 268 740 m -30 -30 d s 248 740 m -21 -22 d s 229 740 m -2 -3 d s 3 lw 612 892 m -7 -8 d s 612 911 m -26 -27 d s 594 912 m -28 -28 d s 575 912 m -28 -28 d
 s 555 912 m -27 -28 d s 536 912 m -27 -28 d s 517 912 m -28 -28 d s 498 912 m -28 -28 d s 478 912 m -27 -28 d s 459 912 m -27 -28 d s 440 912 m -20 -21 d s 421 912 m -1 -1 d s 3 lw 805 758 m -11 -11 d s 792 764 m -17 -17 d s 773 764 m -17 -17 d s
 753 764 m -16 -17 d s 734 764 m -17 -17 d s 715 764 m -17 -17 d s 696 764 m -17 -17 d s 676 764 m -16 -17 d s 657 764 m -17 -17 d s 638 764 m -17 -17 d s 619 764 m -7 -7 d s 3 lw 998 623 m -3 -2 d s 988 633 m -12 -12 d s 969 633 m -12 -12 d s 950
 633 m -12 -12 d s 930 633 m -12 -12 d s 911 633 m -12 -12 d s 892 633 m -12 -12 d s 873 633 m -12 -12 d s 853 633 m -12 -12 d s 834 633 m -12 -12 d s 815 633 m -10 -10 d s 3 lw 1180 555 m -7 -7 d s 1160 555 m -7 -7 d s 1141 555 m -7 -7 d s 1122 555
 m -7 -7 d s 1103 555 m -7 -7 d s 1083 555 m -7 -7 d s 1064 555 m -7 -7 d s 1045 555 m -7 -7 d s 1026 555 m -7 -7 d s 1006 555 m -7 -7 d s 3 lw 1376 520 m -5 -4 d s 1357 520 m -5 -4 d s 1337 520 m -4 -4 d s 1318 520 m -4 -4 d s 1299 520 m -5 -4 d s
 1280 520 m -5 -4 d s 1260 520 m -4 -4 d s 1241 520 m -4 -4 d s 1222 520 m -5 -4 d s 1203 520 m -5 -4 d s 3 lw 1575 508 m -5 -5 d s 1556 508 m -5 -5 d s 1537 508 m -5 -5 d s 1518 508 m -5 -5 d s 1498 508 m -5 -5 d s 1479 508 m -5 -5 d s 1460 508 m -5
 -5 d s 1441 508 m -5 -5 d s 1421 508 m -5 -5 d s 1402 508 m -5 -5 d s 3 lw 1753 494 m -2 -2 d s 1734 494 m -2 -2 d s 1714 494 m -2 -2 d s 1695 494 m -2 -2 d s 1676 494 m -2 -2 d s 1657 494 m -2 -2 d s 1637 494 m -2 -2 d s 1618 494 m -2 -2 d s 1599
 494 m -2 -2 d s 1580 494 m -2 -2 d s 3 lw 1960 489 m -1 -1 d s 1941 489 m -1 -1 d s 1922 489 m -2 -1 d s 1903 489 m -2 -1 d s 1884 489 m -2 -1 d s 1864 489 m -1 -1 d s 1845 489 m -2 -1 d s 1826 489 m -2 -1 d s 1807 489 m -2 -1 d s 1787 489 m -1 -1 d
 s 3 lw 2140 496 m -1 -1 d s 2121 496 m -1 -1 d s 2102 496 m -2 -1 d s 2083 496 m -2 -1 d s 2063 496 m -1 -1 d s 2044 496 m -1 -1 d s 2025 496 m -2 -1 d s 2006 496 m -2 -1 d s 1987 496 m -2 -1 d s 1967 496 m -1 -1 d s black 3 lw 1 1 1 c black 323 752
 m 15 Y s 323 791 m 16 Y s /w 24 def /w2 {w 2 div} def /w3 {w 3 div} def 323 779 m20 516 853 m 20 Y s 516 896 m 20 Y s 516 885 m20 709 759 m 16 Y s 709 799 m 15 Y s 709 787 m20 901 655 m 10 Y s 901 688 m 11 Y s 901 677 m20 1094 543 m 1 Y s 1094 568 m
 2 Y s 1094 556 m20 1287 531 m 1 Y s 1287 555 m 1 Y s 1287 544 m20 1480 509 m20 1672 491 m20 1865 494 m20 2058 491 m20 227 484 m 1927 X s 227 502 m -18 Y s 291 493 m -9 Y s 355 493 m -9 Y s 420 493 m -9 Y s 484 493 m -9 Y s 548 502 m -18 Y s 612 493
 m -9 Y s 677 493 m -9 Y s 741 493 m -9 Y s 805 493 m -9 Y s 869 502 m -18 Y s 934 493 m -9 Y s 998 493 m -9 Y s 1062 493 m -9 Y s 1126 493 m -9 Y s 1191 502 m -18 Y s 1255 493 m -9 Y s 1319 493 m -9 Y s 1383 493 m -9 Y s 1448 493 m -9 Y s 1512 502 m
 -18 Y s 1576 493 m -9 Y s 1640 493 m -9 Y s 1705 493 m -9 Y s 1769 493 m -9 Y s 1833 502 m -18 Y s 1897 493 m -9 Y s 1962 493 m -9 Y s 2026 493 m -9 Y s 2090 493 m -9 Y s 2154 502 m -18 Y s 227 1520 m 1927 X s 227 1501 m 19 Y s 291 1510 m 10 Y s 355
 1510 m 10 Y s 420 1510 m 10 Y s 484 1510 m 10 Y s 548 1501 m 19 Y s 612 1510 m 10 Y s 677 1510 m 10 Y s 741 1510 m 10 Y s 805 1510 m 10 Y s 869 1501 m 19 Y s 934 1510 m 10 Y s 998 1510 m 10 Y s 1062 1510 m 10 Y s 1126 1510 m 10 Y s 1191 1501 m 19 Y
 s 1255 1510 m 10 Y s 1319 1510 m 10 Y s 1383 1510 m 10 Y s 1448 1510 m 10 Y s 1512 1501 m 19 Y s 1576 1510 m 10 Y s 1640 1510 m 10 Y s 1705 1510 m 10 Y s 1769 1510 m 10 Y s 1833 1501 m 19 Y s 1897 1510 m 10 Y s 1962 1510 m 10 Y s 2026 1510 m 10 Y s
 2090 1510 m 10 Y s 2154 1501 m 19 Y s 227 484 m 1036 Y s 248 609 m -21 X s 237 634 m -10 X s 237 659 m -10 X s 237 684 m -10 X s 237 709 m -10 X s 248 734 m -21 X s 237 759 m -10 X s 237 784 m -10 X s 237 809 m -10 X s 237 834 m -10 X s 248 860 m
 -21 X s 237 885 m -10 X s 237 910 m -10 X s 237 935 m -10 X s 237 960 m -10 X s 248 985 m -21 X s 237 1010 m -10 X s 237 1035 m -10 X s 237 1060 m -10 X s 237 1085 m -10 X s 248 1110 m -21 X s 237 1135 m -10 X s 237 1160 m -10 X s 237 1185 m -10 X s
 237 1210 m -10 X s 248 1236 m -21 X s 237 1261 m -10 X s 237 1286 m -10 X s 237 1311 m -10 X s 237 1336 m -10 X s 248 1361 m -21 X s 237 1386 m -10 X s 237 1411 m -10 X s 237 1436 m -10 X s 237 1461 m -10 X s 248 1486 m -21 X s 248 609 m -21 X s 237
 584 m -10 X s 237 559 m -10 X s 237 534 m -10 X s 237 509 m -10 X s 248 1486 m -21 X s 237 1511 m -10 X s 2154 484 m 1036 Y s 2133 609 m 21 X s 2144 634 m 10 X s 2144 659 m 10 X s 2144 684 m 10 X s 2144 709 m 10 X s 2133 734 m 21 X s 2144 759 m 10 X
 s 2144 784 m 10 X s 2144 809 m 10 X s 2144 834 m 10 X s 2133 860 m 21 X s 2144 885 m 10 X s 2144 910 m 10 X s 2144 935 m 10 X s 2144 960 m 10 X s 2133 985 m 21 X s 2144 1010 m 10 X s 2144 1035 m 10 X s 2144 1060 m 10 X s 2144 1085 m 10 X s 2133 1110
 m 21 X s 2144 1135 m 10 X s 2144 1160 m 10 X s 2144 1185 m 10 X s 2144 1210 m 10 X s 2133 1236 m 21 X s 2144 1261 m 10 X s 2144 1286 m 10 X s 2144 1311 m 10 X s 2144 1336 m 10 X s 2133 1361 m 21 X s 2144 1386 m 10 X s 2144 1411 m 10 X s 2144 1436 m
 10 X s 2144 1461 m 10 X s 2133 1486 m 21 X s 2133 609 m 21 X s 2144 584 m 10 X s 2144 559 m 10 X s 2144 534 m 10 X s 2144 509 m 10 X s 2133 1486 m 21 X s 2144 1511 m 10 X s
 gsave  2268 1103 0 472 C 1314.45 1423.98 t 0 r /Helvetica findfont 56.3093 sf 0 0 m ( Data) show NC gr  1259 1451 m 10 Y s 1259 1427 m -10 Y s 1259 1439 m20
 gsave  2268 1103 0 472 C 1808.84 1423.98 t 0 r /Helvetica findfont 56.3093 sf 0 0 m (single\255top) show NC gr 
 gsave  2268 1103 0 472 C 1779.24 1423.98 t 0 r /Helvetica-Oblique findfont 56.3093 sf 0 0 m (/) show NC gr 
 gsave  2268 1103 0 472 C 1758.52 1423.98 t 0 r /Helvetica-Oblique findfont 56.3093 sf 0 0 m (t) show NC gr  6 lw 1759 1468 m 20 X s
 gsave  2268 1103 0 472 C 1737.79 1423.98 t 0 r /Helvetica-Oblique findfont 56.3093 sf 0 0 m (t) show NC gr 
 gsave  2268 1103 0 472 C 1720.03 1423.98 t 0 r /Helvetica findfont 56.3093 sf 0 0 m ( ) show NC gr  0.06 0.54 0.06 c 3 lw 1626 1413 m 79 X 52 Y -79 X f 6 lw black
 gsave  2268 1103 0 472 C 1444.71 1349.97 t 0 r /Helvetica findfont 56.3093 sf 0 0 m (+jets) show NC gr 
 gsave  2268 1103 0 472 C 1332.21 1349.97 t 0 r /Helvetica-Oblique findfont 56.3093 sf 0 0 m (W/Z) show NC gr 
 gsave  2268 1103 0 472 C 1314.45 1349.97 t 0 r /Helvetica findfont 56.3093 sf 0 0 m ( ) show NC gr  1 0.653333 0 c 3 lw 1219 1340 m 79 X 51 Y -79 X f black
 gsave  2268 1103 0 472 C 1918.38 1349.97 t 0 r /Helvetica findfont 56.3093 sf 0 0 m (+jets) show NC gr 
 gsave  2268 1103 0 472 C 1737.79 1349.97 t 0 r /Helvetica-Oblique findfont 56.3093 sf 0 0 m (WZ/ZZ) show NC gr 
 gsave  2268 1103 0 472 C 1720.03 1349.97 t 0 r /Helvetica findfont 56.3093 sf 0 0 m ( ) show NC gr  0.413333 1 0 c 3 lw 1626 1340 m 79 X 51 Y -79 X f black
 gsave  2268 1103 0 472 C 1373.66 1275.96 t 0 r /Helvetica-Oblique findfont 56.3093 sf 0 0 m (Z) show NC gr 
 gsave  2268 1103 0 472 C 1352.93 1275.96 t 0 r /Helvetica-Oblique findfont 56.3093 sf 0 0 m (t) show NC gr  6 lw 1353 1320 m 21 X s
 gsave  2268 1103 0 472 C 1332.21 1275.96 t 0 r /Helvetica-Oblique findfont 56.3093 sf 0 0 m (t) show NC gr 
 gsave  2268 1103 0 472 C 1314.45 1275.96 t 0 r /Helvetica findfont 56.3093 sf 0 0 m ( ) show NC gr  0.6 0.2 1 c 3 lw 1219 1266 m 79 X 52 Y -79 X f 6 lw black
 gsave  2268 1103 0 472 C 1779.24 1275.96 t 0 r /Helvetica-Oblique findfont 56.3093 sf 0 0 m (W) show NC gr 
 gsave  2268 1103 0 472 C 1758.52 1275.96 t 0 r /Helvetica-Oblique findfont 56.3093 sf 0 0 m (t) show NC gr  6 lw 1759 1320 m 20 X s
 gsave  2268 1103 0 472 C 1737.79 1275.96 t 0 r /Helvetica-Oblique findfont 56.3093 sf 0 0 m (t) show NC gr 
 gsave  2268 1103 0 472 C 1720.03 1275.96 t 0 r /Helvetica findfont 56.3093 sf 0 0 m ( ) show NC gr  0.54 0.06 0.06 c 3 lw 1626 1266 m 79 X 52 Y -79 X f 6 lw black
 gsave  2268 1103 0 472 C 1332.21 1204.91 t 0 r /Helvetica-Oblique findfont 56.3093 sf 0 0 m (tZq) show NC gr 
 gsave  2268 1103 0 472 C 1314.45 1204.91 t 0 r /Helvetica findfont 56.3093 sf 0 0 m ( ) show NC gr  1 0 1 c 3 lw 1219 1193 m 79 X 51 Y -79 X f black
 gsave  2268 1103 0 472 C 1779.24 1204.91 t 0 r /Helvetica-Oblique findfont 56.3093 sf 0 0 m (H) show NC gr 
 gsave  2268 1103 0 472 C 1758.52 1204.91 t 0 r /Helvetica-Oblique findfont 56.3093 sf 0 0 m (t) show NC gr  6 lw 1759 1249 m 20 X s
 gsave  2268 1103 0 472 C 1737.79 1204.91 t 0 r /Helvetica-Oblique findfont 56.3093 sf 0 0 m (t) show NC gr 
 gsave  2268 1103 0 472 C 1720.03 1204.91 t 0 r /Helvetica findfont 56.3093 sf 0 0 m ( ) show NC gr  0 0 1 c 3 lw 1626 1193 m 79 X 51 Y -79 X f 6 lw black
 gsave  2268 1103 0 472 C 1332.21 1130.9 t 0 r /Helvetica-Oblique findfont 56.3093 sf 0 0 m (tWZ/tWH) show NC gr 
 gsave  2268 1103 0 472 C 1314.45 1130.9 t 0 r /Helvetica findfont 56.3093 sf 0 0 m ( ) show NC gr  0.2 0.8 0.8 c 3 lw 1219 1119 m 79 X 52 Y -79 X f black
 gsave  2268 1103 0 472 C 1737.79 1130.9 t 0 r /Helvetica-Oblique findfont 56.3093 sf 0 0 m (tHq) show NC gr 
 gsave  2268 1103 0 472 C 1720.03 1130.9 t 0 r /Helvetica findfont 56.3093 sf 0 0 m ( ) show NC gr  1 0 0 c 3 lw 1626 1119 m 79 X 52 Y -79 X f black
 gsave  2268 1103 0 472 C 1314.45 1056.89 t 0 r /Helvetica findfont 56.3093 sf 0 0 m ( Other) show NC gr  1 0.84 0 c 3 lw 1219 1046 m 79 X 51 Y -79 X f black
 gsave  2268 1103 0 472 C 1720.03 1056.89 t 0 r /Helvetica findfont 56.3093 sf 0 0 m ( Uncertainty) show NC gr  0.6 0.6 0.6 c 3 lw 1705 1061 m -15 -15 d s 1705 1080 m -34 -34 d s 1703 1097 m -51 -51 d s 1684 1097 m -51 -51 d s 1665 1097 m -39 -39 d s
 1646 1097 m -20 -20 d s 1626 1097 m s 1 0.84 0 c 0.6 0.6 0.6 c black
 gsave  2268 1103 0 472 C 894.061 1329.25 t 0 r /Helvetica findfont 41.4911 sf 0 0 m (\2551) show NC gr 
 gsave  2268 1103 0 472 C 399.663 1299.64 t 0 r /Helvetica findfont 62.2366 sf 0 0 m ( = 13 TeV,  139 fb) show NC gr 
 gsave  2268 1103 0 472 C 370.058 1299.64 t 0 r /Helvetica findfont 62.2366 sf 0 0 m (s) show NC gr  6 lw 349 1335 m 6 -38 d s 3 lw 355 1297 m 6 56 d s 361 1353 m 39 X s
 gsave  2268 1103 0 472 C 811.168 1201.95 t 0 r /Helvetica findfont 62.2366 sf 0 0 m (\)) show NC gr 
 gsave  2268 1103 0 472 C 784.523 1201.95 t 0 r /Helvetica-Oblique findfont 62.2366 sf 0 0 m (j) show NC gr 
 gsave  2268 1103 0 472 C 751.958 1201.95 t 0 r /Helvetica findfont 62.2366 sf 0 0 m (3) show NC gr 
 gsave  2268 1103 0 472 C 713.472 1201.95 t 0 r /Helvetica-Oblique findfont 62.2366 sf 0 0 m (b) show NC gr 
 gsave  2268 1103 0 472 C 337.493 1201.95 t 0 r /Helvetica findfont 62.2366 sf 0 0 m ( 2L\(SS\), VR\(1) show NC gr 
 gsave  2268 1103 0 472 C 337.493 1400.3 t 0 r /Helvetica-BoldOblique findfont 71.1276 sf 0 0 m (ATLAS) show NC gr 
 gsave  2268 1103 0 472 C 633.54 1400.3 t 0 r /Helvetica findfont 71.1276 sf 0 0 m (Internal) show NC gr 
 gr  gr showpage
end
%%EOF
