%!PS-Adobe-2.0 EPSF-2.0
%%BoundingBox:  0 0 567 394
%%Title: /lhome/ific/c/cardillo/tHq/Plots/Plots-30-05-22-PLIV-SF/2LSS_MC/EtMiss_CRVV.eps: EtMiss_CRVV
%%Creator: ROOT Version 6.20/06
%%CreationDate: Mon May 30 19:26:17 2022
%%DocumentNeededResources: ProcSet (FontSetInit)
%%EndComments
%%BeginProlog
80 dict begin
/s {stroke} def /l {lineto} def /m {moveto} def /t {translate} def
/r {rotate} def /rl {roll}  def /R {repeat} def
/d {rlineto} def /rm {rmoveto} def /gr {grestore} def /f {eofill} def
/c {setrgbcolor} def /black {0 setgray} def /sd {setdash} def
/cl {closepath} def /sf {scalefont setfont} def /lw {setlinewidth} def
/box {m dup 0 exch d exch 0 d 0 exch neg d cl} def
/NC{systemdict begin initclip end}def/C{NC box clip newpath}def
/bl {box s} def /bf {gsave box gsave f grestore 1 lw [] 0 sd s grestore} def /Y { 0 exch d} def /X { 0 d} def 
/K {{pop pop 0 moveto} exch kshow} bind def
/ita {/ang 15 def gsave [1 0 ang dup sin exch cos div 1 0 0] concat} def 
/mp {newpath /y exch def /x exch def} def
/side {[w .77 mul w .23 mul] .385 w mul sd w 0 l currentpoint t -144 r} def
/mr {mp x y w2 0 360 arc} def /m24 {mr s} def /m20 {mr f} def
/mb {mp x y w2 add m w2 neg 0 d 0 w neg d w 0 d 0 w d cl} def
/mt {mp x y w2 add m w2 neg w neg d w 0 d cl} def
/w4 {w 4 div} def
/w6 {w 6 div} def
/w8 {w 8 div} def
/m21 {mb f} def /m25 {mb s} def /m22 {mt f} def /m26{mt s} def
/m23 {mp x y w2 sub m w2 w d w neg 0 d cl f} def
/m27 {mp x y w2 add m w3 neg w2 neg d w3 w2 neg d w3 w2 d cl s} def
/m28 {mp x w2 sub y w2 sub w3 add m w3 0 d  0 w3 neg d w3 0 d 0 w3 d w3 0 d  0 w3 d w3 neg 0 d 0 w3 d w3 neg 0 d 0 w3 neg d w3 neg 0 d cl s } def
/m29 {mp gsave x w2 sub y w2 add w3 sub m currentpoint t 4 {side} repeat cl fill gr} def
/m30 {mp gsave x w2 sub y w2 add w3 sub m currentpoint t 4 {side} repeat cl s gr} def
/m31 {mp x y w2 sub m 0 w d x w2 sub y m w 0 d x w2 sub y w2 add m w w neg d x w2 sub y w2 sub m w w d s} def
/m32 {mp x y w2 sub m w2 w d w neg 0 d cl s} def
/m33 {mp x y w2 add m w3 neg w2 neg d w3 w2 neg d w3 w2 d cl f} def
/m34 {mp x w2 sub y w2 sub w3 add m w3 0 d  0 w3 neg d w3 0 d 0 w3 d w3 0 d  0 w3 d w3 neg 0 d 0 w3 d w3 neg 0 d 0 w3 neg d w3 neg 0 d cl f } def
/m35 {mp x y w2 add m w2 neg w2 neg d w2 w2 neg d w2 w2 d w2 neg w2 d x y w2 sub m 0 w d x w2 sub y m w 0 d s} def
/m36 {mb x w2 sub y w2 add m w w neg d x w2 sub y w2 sub m w w d s} def
/m37 {mp x y m w4 neg w2 d w4 neg w2 neg d w2 0 d  w4 neg w2 neg d w2 0 d w4 neg w2 d w2 0 d w4 neg w2 d w4 neg w2 neg d cl s} def
/m38 {mp x w4 sub y w2 add m w4 neg w4 neg d 0 w2 neg d w4 w4 neg d w2 0 d w4 w4 d 0 w2 d w4 neg w4 d w2 neg 0 d x y w2 sub m 0 w d x w2 sub y m w 0 d cl s} def
/m39 {mp x y m w4 neg w2 d w4 neg w2 neg d w2 0 d  w4 neg w2 neg d w2 0 d w4 neg w2 d w2 0 d w4 neg w2 d w4 neg w2 neg d cl f} def
/m40 {mp x y m w4 w2 d w4 w4 neg d w2 neg w4 neg d w2 w4 neg d w4 neg w4 neg d w4 neg w2 d w4 neg w2 neg d w4 neg w4 d w2 w4 d w2 neg w4 d w4 w4 d w4 w2 neg d cl s} def
/m41 {mp x y m w4 w2 d w4 w4 neg d w2 neg w4 neg d w2 w4 neg d w4 neg w4 neg d w4 neg w2 d w4 neg w2 neg d w4 neg w4 d w2 w4 d w2 neg w4 d w4 w4 d w4 w2 neg d cl f} def
/m42 {mp x y w2 add m w8 neg w2 -3 4 div mul d w2 -3 4 div mul w8 neg d w2 3 4 div mul w8 neg d w8 w2 -3 4 div mul d w8 w2 3 4 div mul d w2 3 4 div mul w8 d w2 -3 4 div mul w8 d w8 neg w2 3 4 div mul d cl s} def
/m43 {mp x y w2 add m w8 neg w2 -3 4 div mul d w2 -3 4 div mul w8 neg d w2 3 4 div mul w8 neg d w8 w2 -3 4 div mul d w8 w2 3 4 div mul d w2 3 4 div mul w8 d w2 -3 4 div mul w8 d w8 neg w2 3 4 div mul d cl f} def
/m44 {mp x y m w6 neg w2 d w2 2 3 div mul 0 d w6 neg w2 neg d w2 w6 d 0 w2 -2 3 div mul d w2 neg w6 d w6 w2 neg d w2 -2 3 div mul 0 d w6 w2 d w2 neg w6 neg d 0 w2 2 3 div mul d w2 w6 neg d cl s} def
/m45 {mp x y m w6 neg w2 d w2 2 3 div mul 0 d w6 neg w2 neg d w2 w6 d 0 w2 -2 3 div mul d w2 neg w6 d w6 w2 neg d w2 -2 3 div mul 0 d w6 w2 d w2 neg w6 neg d 0 w2 2 3 div mul d w2 w6 neg d cl f} def
/m46 {mp x y w4 add m w4 neg w4 d w4 neg w4 neg d  w4 w4 neg d w4 neg w4 neg d w4 w4 neg d w4 w4 d w4 w4 neg d w4 w4 d w4 neg w4 d w4 w4 d w4 neg w4 d w4 neg w4 neg d cl s} def
/m47 {mp x y w4 add m w4 neg w4 d w4 neg w4 neg d w4 w4 neg d w4 neg w4 neg d  w4 w4 neg d w4 w4 d w4 w4 neg d w4 w4 d w4 neg w4 d w4 w4 d w4 neg w4 d w4 neg w4 neg d cl f} def
/m48 {mp x y w4 add m w4 neg w4 d w4 neg w4 neg d w4 w4 neg d  w4 neg w4 neg d w4 w4 neg d w4 w4 d w4 w4 neg d w4 w4 d w4 neg w4 d w4 w4 d w4 neg w4 d w4 neg w4 neg d  w4 w4 neg d w4 neg w4 neg d w4 neg w4 d w4 w4 d cl f} def
/m49 {mp x w2 sub w3 add y w2 sub w3 add m  0 w3 neg d w3 0 d 0 w3 d w3 0 d 0 w3 d w3 neg 0 d 0 w3 d w3 neg 0 d 0 w3 neg d w3 neg 0 d 0 w3 neg d w3 0 d 0 w3 d w3 0 d 0 w3 neg d w3 neg 0 d cl f } def
/m2 {mp x y w2 sub m 0 w d x w2 sub y m w 0 d s} def
/m5 {mp x w2 sub y w2 sub m w w d x w2 sub y w2 add m w w neg d s} def
%%IncludeResource: ProcSet (FontSetInit)
%%IncludeResource: font Times-Roman
%%IncludeResource: font Times-Italic
%%IncludeResource: font Times-Bold
%%IncludeResource: font Times-BoldItalic
%%IncludeResource: font Helvetica
%%IncludeResource: font Helvetica-Oblique
%%IncludeResource: font Helvetica-Bold
%%IncludeResource: font Helvetica-BoldOblique
%%IncludeResource: font Courier
%%IncludeResource: font Courier-Oblique
%%IncludeResource: font Courier-Bold
%%IncludeResource: font Courier-BoldOblique
%%IncludeResource: font Symbol
%%IncludeResource: font ZapfDingbats
/reEncode {exch findfont dup length dict begin {1 index /FID eq  {pop pop} {def} ifelse } forall /Encoding exch def currentdict end dup /FontName get exch definefont pop } def [/Times-Bold /Times-Italic /Times-BoldItalic /Helvetica /Helvetica-Oblique
 /Helvetica-Bold /Helvetica-BoldOblique /Courier /Courier-Oblique /Courier-Bold /Courier-BoldOblique /Times-Roman /AvantGarde-Book /AvantGarde-BookOblique /AvantGarde-Demi /AvantGarde-DemiOblique /Bookman-Demi /Bookman-DemiItalic /Bookman-Light
 /Bookman-LightItalic /Helvetica-Narrow /Helvetica-Narrow-Bold /Helvetica-Narrow-BoldOblique /Helvetica-Narrow-Oblique /NewCenturySchlbk-Roman /NewCenturySchlbk-Bold /NewCenturySchlbk-BoldItalic /NewCenturySchlbk-Italic /Palatino-Bold
 /Palatino-BoldItalic /Palatino-Italic /Palatino-Roman ] {ISOLatin1Encoding reEncode } forall
%%EndProlog
%%BeginSetup
%%EndSetup
newpath  gsave  .25 .25 scale  gsave  0 0 t black[  ] 0 sd 3 lw 1 1 1 c 2268 1575 0 0 bf black 1 1 1 c 2268 472 0 0 bf black 1 1 1 c 1927 274 227 189 bf black 1927 274 227 189 bl 227 189 m 1927 X s 227 201 m -12 Y s 291 195 m -6 Y s 355 195 m -6 Y s
 420 195 m -6 Y s 484 195 m -6 Y s 548 201 m -12 Y s 612 195 m -6 Y s 677 195 m -6 Y s 741 195 m -6 Y s 805 195 m -6 Y s 869 201 m -12 Y s 934 195 m -6 Y s 998 195 m -6 Y s 1062 195 m -6 Y s 1126 195 m -6 Y s 1191 201 m -12 Y s 1255 195 m -6 Y s 1319
 195 m -6 Y s 1383 195 m -6 Y s 1448 195 m -6 Y s 1512 201 m -12 Y s 1576 195 m -6 Y s 1640 195 m -6 Y s 1705 195 m -6 Y s 1769 195 m -6 Y s 1833 201 m -12 Y s 1897 195 m -6 Y s 1962 195 m -6 Y s 2026 195 m -6 Y s 2090 195 m -6 Y s 2154 201 m -12 Y s
 gsave  2268 472 0 0 C 210.193 127.3 t 0 r /Helvetica findfont 53.4895 sf 0 0 m (0) show NC gr 
 gsave  2268 472 0 0 C 518.081 127.3 t 0 r /Helvetica findfont 53.4895 sf 0 0 m (50) show NC gr 
 gsave  2268 472 0 0 C 823.009 127.3 t 0 r /Helvetica findfont 53.4895 sf 0 0 m (100) show NC gr 
 gsave  2268 472 0 0 C 1145.7 127.3 t 0 r /Helvetica findfont 53.4895 sf 0 0 m (150) show NC gr 
 gsave  2268 472 0 0 C 1465.43 127.3 t 0 r /Helvetica findfont 53.4895 sf 0 0 m (200) show NC gr 
 gsave  2268 472 0 0 C 1788.12 127.3 t 0 r /Helvetica findfont 53.4895 sf 0 0 m (250) show NC gr 
 gsave  2268 472 0 0 C 2107.85 127.3 t 0 r /Helvetica findfont 53.4895 sf 0 0 m (300) show NC gr 
 gsave  2268 472 0 0 C 1995.35 41.4465 t 0 r /Helvetica findfont 56.4611 sf 0 0 m ( [GeV]) show NC gr 
 gsave  2268 472 0 0 C 1915.42 68.0907 t 0 r /Helvetica findfont 38.6313 sf 0 0 m (miss) show NC gr 
 gsave  2268 472 0 0 C 1915.42 23.6837 t 0 r /Helvetica findfont 38.6313 sf 0 0 m (T) show NC gr 
 gsave  2268 472 0 0 C 1871.01 41.4465 t 0 r /Helvetica-Oblique findfont 56.4611 sf 0 0 m (E) show NC gr  227 463 m 1927 X s 227 451 m 12 Y s 291 457 m 6 Y s 355 457 m 6 Y s 420 457 m 6 Y s 484 457 m 6 Y s 548 451 m 12 Y s 612 457 m 6 Y s 677 457 m 6
 Y s 741 457 m 6 Y s 805 457 m 6 Y s 869 451 m 12 Y s 934 457 m 6 Y s 998 457 m 6 Y s 1062 457 m 6 Y s 1126 457 m 6 Y s 1191 451 m 12 Y s 1255 457 m 6 Y s 1319 457 m 6 Y s 1383 457 m 6 Y s 1448 457 m 6 Y s 1512 451 m 12 Y s 1576 457 m 6 Y s 1640 457
 m 6 Y s 1705 457 m 6 Y s 1769 457 m 6 Y s 1833 451 m 12 Y s 1897 457 m 6 Y s 1962 457 m 6 Y s 2026 457 m 6 Y s 2090 457 m 6 Y s 2154 451 m 12 Y s 227 189 m 274 Y s 240 240 m -13 X s 240 326 m -13 X s 240 412 m -13 X s 240 240 m -13 X s 240 412 m -13
 X s
 gsave  2268 472 0 0 C 118.419 222.035 t 0 r /Helvetica findfont 53.4895 sf 0 0 m (0.5) show NC gr 
 gsave  2268 472 0 0 C 171.707 307.888 t 0 r /Helvetica findfont 53.4895 sf 0 0 m (1) show NC gr 
 gsave  2268 472 0 0 C 118.419 393.742 t 0 r /Helvetica findfont 53.4895 sf 0 0 m (1.5) show NC gr 
 gsave  2268 472 0 0 C 71.0512 230.916 t 90 r /Helvetica findfont 53.4895 sf 0 0 m (Data / SM) show NC gr  2154 189 m 274 Y s 2141 240 m 13 X s 2141 326 m 13 X s 2141 412 m 13 X s 2141 240 m 13 X s 2141 412 m 13 X s 227 189 m 1927 X s 227 463 m 1927
 X s 227 189 m 274 Y s[ 4 8] 0 sd 2154 240 m -1927 X s 2154 326 m -1927 X s 2154 412 m -1927 X s 2154 240 m -1927 X s 2154 412 m -1927 X s[  ] 0 sd 2154 189 m 274 Y s 1 1 0.6 c 193 0 227 326 bf 192 0 420 326 bf 193 0 612 326 bf 193 0 805 326 bf 193 0
 998 326 bf 192 0 1191 326 bf 193 0 1383 326 bf 193 0 1576 326 bf 193 0 1769 326 bf 192 0 1962 326 bf black 0.6 0.6 0.6 c 420 325 m -12 -12 d s 415 339 m -27 -26 d s 396 339 m -27 -26 d s 377 339 m -27 -26 d s 357 339 m -26 -26 d s 338 339 m -27 -26
 d s 319 339 m -27 -26 d s 300 339 m -27 -26 d s 280 339 m -26 -26 d s 261 339 m -27 -26 d s 242 339 m -15 -15 d s 612 306 m -7 -8 d s 612 325 m -27 -27 d s 612 344 m -46 -46 d s 603 354 m -56 -56 d s 584 354 m -56 -56 d s 565 354 m -57 -56 d s 545
 354 m -56 -56 d s 526 354 m -56 -56 d s 507 354 m -56 -56 d s 488 354 m -57 -56 d s 468 354 m -48 -49 d s 449 354 m -29 -29 d s 430 354 m -10 -10 d s 805 306 m -10 -10 d s 805 325 m -29 -29 d s 805 345 m -49 -49 d s 798 356 m -61 -60 d s 778 356 m
 -60 -60 d s 759 356 m -60 -60 d s 740 356 m -61 -60 d s 721 356 m -61 -60 d s 701 356 m -60 -60 d s 682 356 m -60 -60 d s 663 356 m -51 -50 d s 644 356 m -32 -31 d s 624 356 m -12 -12 d s 998 326 m -14 -14 d s 993 340 m -28 -28 d s 974 340 m -28 -28
 d s 955 340 m -29 -28 d s 936 340 m -29 -28 d s 916 340 m -28 -28 d s 897 340 m -28 -28 d s 878 340 m -29 -28 d s 859 340 m -29 -28 d s 839 340 m -28 -28 d s 820 340 m -15 -15 d s 1191 307 m -6 -6 d s 1191 326 m -25 -25 d s 1191 345 m -44 -44 d s
 1177 351 m -49 -50 d s 1157 351 m -49 -50 d s 1138 351 m -49 -50 d s 1119 351 m -49 -50 d s 1100 351 m -49 -50 d s 1080 351 m -48 -50 d s 1061 351 m -49 -50 d s 1042 351 m -44 -45 d s 1023 351 m -25 -25 d s 1004 351 m -6 -6 d s 1383 326 m -17 -17 d
 s 1381 343 m -34 -34 d s 1362 343 m -35 -34 d s 1343 343 m -35 -34 d s 1323 343 m -34 -34 d s 1304 343 m -34 -34 d s 1285 343 m -35 -34 d s 1266 343 m -35 -34 d s 1246 343 m -34 -34 d s 1227 343 m -34 -34 d s 1208 343 m -17 -17 d s 1576 307 m -3 -3
 d s 1576 327 m -23 -23 d s 1576 346 m -42 -42 d s 1559 348 m -44 -44 d s 1540 348 m -44 -44 d s 1521 348 m -44 -44 d s 1501 348 m -44 -44 d s 1482 348 m -44 -44 d s 1463 348 m -44 -44 d s 1444 348 m -44 -44 d s 1424 348 m -41 -41 d s 1405 348 m -22
 -22 d s 1386 348 m -3 -2 d s 1769 308 m -5 -5 d s 1769 327 m -24 -24 d s 1769 346 m -43 -43 d s 1753 349 m -47 -46 d s 1733 349 m -46 -46 d s 1714 349 m -46 -46 d s 1695 349 m -46 -46 d s 1676 349 m -47 -46 d s 1656 349 m -46 -46 d s 1637 349 m -46
 -46 d s 1618 349 m -42 -42 d s 1599 349 m -23 -22 d s 1579 349 m -3 -3 d s 1962 289 m -16 -16 d s 1962 308 m -35 -35 d s 1962 327 m -55 -54 d s 1962 347 m -74 -74 d s 1962 366 m -93 -93 d s 1956 379 m -106 -106 d s 1936 379 m -106 -106 d s 1917 379
 m -106 -106 d s 1898 379 m -106 -106 d s 1879 379 m -106 -106 d s 1860 379 m -91 -91 d s 1840 379 m -71 -71 d s 1821 379 m -52 -52 d s 1802 379 m -33 -33 d s 1783 379 m -14 -13 d s 2154 328 m -9 -10 d s 2141 334 m -15 -16 d s 2122 334 m -15 -16 d s
 2103 334 m -16 -16 d s 2084 334 m -16 -16 d s 2064 334 m -15 -16 d s 2045 334 m -15 -16 d s 2026 334 m -16 -16 d s 2007 334 m -16 -16 d s 1987 334 m -15 -16 d s 1968 334 m -6 -7 d s black 1 1 1 c black 323 345 m 26 Y s 323 395 m 25 Y s /w 26 def /w2
 {w 2 div} def /w3 {w 3 div} def 323 383 m20 516 395 m 22 Y s 516 441 m 22 Y s 516 429 m20 709 296 m 32 Y s 709 352 m 32 Y s 709 340 m20 901 254 m 68 Y s 901 345 m 68 Y s 901 333 m20 1094 189 m 38 Y s 1094 251 m 72 Y s 1094 239 m20 227 326 m 1927 X s
 227 189 m 1927 X s 227 201 m -12 Y s 291 195 m -6 Y s 355 195 m -6 Y s 420 195 m -6 Y s 484 195 m -6 Y s 548 201 m -12 Y s 612 195 m -6 Y s 677 195 m -6 Y s 741 195 m -6 Y s 805 195 m -6 Y s 869 201 m -12 Y s 934 195 m -6 Y s 998 195 m -6 Y s 1062
 195 m -6 Y s 1126 195 m -6 Y s 1191 201 m -12 Y s 1255 195 m -6 Y s 1319 195 m -6 Y s 1383 195 m -6 Y s 1448 195 m -6 Y s 1512 201 m -12 Y s 1576 195 m -6 Y s 1640 195 m -6 Y s 1705 195 m -6 Y s 1769 195 m -6 Y s 1833 201 m -12 Y s 1897 195 m -6 Y s
 1962 195 m -6 Y s 2026 195 m -6 Y s 2090 195 m -6 Y s 2154 201 m -12 Y s 227 463 m 1927 X s 227 451 m 12 Y s 291 457 m 6 Y s 355 457 m 6 Y s 420 457 m 6 Y s 484 457 m 6 Y s 548 451 m 12 Y s 612 457 m 6 Y s 677 457 m 6 Y s 741 457 m 6 Y s 805 457 m 6
 Y s 869 451 m 12 Y s 934 457 m 6 Y s 998 457 m 6 Y s 1062 457 m 6 Y s 1126 457 m 6 Y s 1191 451 m 12 Y s 1255 457 m 6 Y s 1319 457 m 6 Y s 1383 457 m 6 Y s 1448 457 m 6 Y s 1512 451 m 12 Y s 1576 457 m 6 Y s 1640 457 m 6 Y s 1705 457 m 6 Y s 1769
 457 m 6 Y s 1833 451 m 12 Y s 1897 457 m 6 Y s 1962 457 m 6 Y s 2026 457 m 6 Y s 2090 457 m 6 Y s 2154 451 m 12 Y s 227 189 m 274 Y s 240 240 m -13 X s 240 326 m -13 X s 240 412 m -13 X s 240 240 m -13 X s 240 412 m -13 X s 2154 189 m 274 Y s 2141
 240 m 13 X s 2141 326 m 13 X s 2141 412 m 13 X s 2141 240 m 13 X s 2141 412 m 13 X s 1 1 1 c 2268 1103 0 472 bf black 1 1 1 c 1927 1036 227 484 bf black 1927 1036 227 484 bl 1 1 1 c black 3 lw 227 484 m 1927 X s 227 502 m -18 Y s 291 493 m -9 Y s
 355 493 m -9 Y s 420 493 m -9 Y s 484 493 m -9 Y s 548 502 m -18 Y s 612 493 m -9 Y s 677 493 m -9 Y s 741 493 m -9 Y s 805 493 m -9 Y s 869 502 m -18 Y s 934 493 m -9 Y s 998 493 m -9 Y s 1062 493 m -9 Y s 1126 493 m -9 Y s 1191 502 m -18 Y s 1255
 493 m -9 Y s 1319 493 m -9 Y s 1383 493 m -9 Y s 1448 493 m -9 Y s 1512 502 m -18 Y s 1576 493 m -9 Y s 1640 493 m -9 Y s 1705 493 m -9 Y s 1769 493 m -9 Y s 1833 502 m -18 Y s 1897 493 m -9 Y s 1962 493 m -9 Y s 2026 493 m -9 Y s 2090 493 m -9 Y s
 2154 502 m -18 Y s
 gsave  2268 1103 0 472 C 2069.37 396.702 t 0 r /Helvetica findfont 29.6365 sf 0 0 m ( [GeV]) show NC gr 
 gsave  2268 1103 0 472 C 2024.96 414.465 t 0 r /Helvetica findfont 20.7455 sf 0 0 m (miss) show NC gr 
 gsave  2268 1103 0 472 C 2024.96 387.821 t 0 r /Helvetica findfont 20.7455 sf 0 0 m (T) show NC gr 
 gsave  2268 1103 0 472 C 2001.27 396.702 t 0 r /Helvetica-Oblique findfont 29.6365 sf 0 0 m (E) show NC gr  227 1520 m 1927 X s 227 1501 m 19 Y s 291 1510 m 10 Y s 355 1510 m 10 Y s 420 1510 m 10 Y s 484 1510 m 10 Y s 548 1501 m 19 Y s 612 1510 m 10
 Y s 677 1510 m 10 Y s 741 1510 m 10 Y s 805 1510 m 10 Y s 869 1501 m 19 Y s 934 1510 m 10 Y s 998 1510 m 10 Y s 1062 1510 m 10 Y s 1126 1510 m 10 Y s 1191 1501 m 19 Y s 1255 1510 m 10 Y s 1319 1510 m 10 Y s 1383 1510 m 10 Y s 1448 1510 m 10 Y s 1512
 1501 m 19 Y s 1576 1510 m 10 Y s 1640 1510 m 10 Y s 1705 1510 m 10 Y s 1769 1510 m 10 Y s 1833 1501 m 19 Y s 1897 1510 m 10 Y s 1962 1510 m 10 Y s 2026 1510 m 10 Y s 2090 1510 m 10 Y s 2154 1501 m 19 Y s 227 484 m 1036 Y s 248 589 m -21 X s 237 610
 m -10 X s 237 631 m -10 X s 237 652 m -10 X s 237 673 m -10 X s 248 694 m -21 X s 237 715 m -10 X s 237 736 m -10 X s 237 757 m -10 X s 237 779 m -10 X s 248 800 m -21 X s 237 821 m -10 X s 237 842 m -10 X s 237 863 m -10 X s 237 884 m -10 X s 248
 905 m -21 X s 237 926 m -10 X s 237 947 m -10 X s 237 968 m -10 X s 237 989 m -10 X s 248 1010 m -21 X s 237 1031 m -10 X s 237 1053 m -10 X s 237 1074 m -10 X s 237 1095 m -10 X s 248 1116 m -21 X s 237 1137 m -10 X s 237 1158 m -10 X s 237 1179 m
 -10 X s 237 1200 m -10 X s 248 1221 m -21 X s 237 1242 m -10 X s 237 1263 m -10 X s 237 1284 m -10 X s 237 1306 m -10 X s 248 1327 m -21 X s 237 1348 m -10 X s 237 1369 m -10 X s 237 1390 m -10 X s 237 1411 m -10 X s 248 1432 m -21 X s 248 589 m -21
 X s 237 568 m -10 X s 237 547 m -10 X s 237 526 m -10 X s 237 504 m -10 X s 248 1432 m -21 X s 237 1453 m -10 X s 237 1474 m -10 X s 237 1495 m -10 X s 237 1516 m -10 X s
 gsave  2268 1103 0 472 C 145.063 568.409 t 0 r /Helvetica findfont 50.382 sf 0 0 m (10) show NC gr 
 gsave  2268 1103 0 472 C 145.063 674.986 t 0 r /Helvetica findfont 50.382 sf 0 0 m (20) show NC gr 
 gsave  2268 1103 0 472 C 145.063 781.563 t 0 r /Helvetica findfont 50.382 sf 0 0 m (30) show NC gr 
 gsave  2268 1103 0 472 C 145.063 885.179 t 0 r /Helvetica findfont 50.382 sf 0 0 m (40) show NC gr 
 gsave  2268 1103 0 472 C 145.063 991.756 t 0 r /Helvetica findfont 50.382 sf 0 0 m (50) show NC gr 
 gsave  2268 1103 0 472 C 145.063 1095.37 t 0 r /Helvetica findfont 50.382 sf 0 0 m (60) show NC gr 
 gsave  2268 1103 0 472 C 145.063 1201.95 t 0 r /Helvetica findfont 50.382 sf 0 0 m (70) show NC gr 
 gsave  2268 1103 0 472 C 145.063 1308.53 t 0 r /Helvetica findfont 50.382 sf 0 0 m (80) show NC gr 
 gsave  2268 1103 0 472 C 145.063 1412.14 t 0 r /Helvetica findfont 50.382 sf 0 0 m (90) show NC gr 
 gsave  2268 1103 0 472 C 62.1698 1154.58 t 90 r /Helvetica findfont 50.382 sf 0 0 m (Events / 30 GeV) show NC gr  2154 484 m 1036 Y s 2133 589 m 21 X s 2144 610 m 10 X s 2144 631 m 10 X s 2144 652 m 10 X s 2144 673 m 10 X s 2133 694 m 21 X s 2144
 715 m 10 X s 2144 736 m 10 X s 2144 757 m 10 X s 2144 779 m 10 X s 2133 800 m 21 X s 2144 821 m 10 X s 2144 842 m 10 X s 2144 863 m 10 X s 2144 884 m 10 X s 2133 905 m 21 X s 2144 926 m 10 X s 2144 947 m 10 X s 2144 968 m 10 X s 2144 989 m 10 X s
 2133 1010 m 21 X s 2144 1031 m 10 X s 2144 1053 m 10 X s 2144 1074 m 10 X s 2144 1095 m 10 X s 2133 1116 m 21 X s 2144 1137 m 10 X s 2144 1158 m 10 X s 2144 1179 m 10 X s 2144 1200 m 10 X s 2133 1221 m 21 X s 2144 1242 m 10 X s 2144 1263 m 10 X s
 2144 1284 m 10 X s 2144 1306 m 10 X s 2133 1327 m 21 X s 2144 1348 m 10 X s 2144 1369 m 10 X s 2144 1390 m 10 X s 2144 1411 m 10 X s 2133 1432 m 21 X s 2133 589 m 21 X s 2144 568 m 10 X s 2144 547 m 10 X s 2144 526 m 10 X s 2144 504 m 10 X s 2133
 1432 m 21 X s 2144 1453 m 10 X s 2144 1474 m 10 X s 2144 1495 m 10 X s 2144 1516 m 10 X s 0.06 0.54 0.06 c black 3 lw 0.06 0.54 0.06 c 227 484 m 292 Y 193 X 122 Y 192 X -239 Y 193 X -125 Y 193 X -29 Y 193 X -11 Y 192 X -3 Y 193 X -3 Y 193 X 1 Y 193
 X 4 Y 192 X -9 Y f 1 0.653333 0 c 0.999 0.999 0.999 c black 3 lw 0.999 0.999 0.999 c 227 484 m 254 Y 193 X 99 Y 192 X -204 Y 193 X -106 Y 193 X -26 Y 193 X -7 Y 192 X -3 Y 193 X -3 Y 193 X -1 Y 193 X 4 Y 192 X -7 Y f 1 0.653333 0 c 0.999 0.999 0.999
 c 1 0.653333 0 c 1 1 1 c black 1 0.653333 0 c black 3 lw 1 0.653333 0 c 227 484 m 254 Y 193 X 99 Y 192 X -204 Y 193 X -106 Y 193 X -26 Y 193 X -7 Y 192 X -3 Y 193 X -3 Y 193 X -1 Y 193 X 4 Y 192 X -7 Y f 0.413333 1 0 c 0.999 0.999 0.999 c black 3 lw
 0.999 0.999 0.999 c 227 484 m 220 Y 193 X 115 Y 192 X -215 Y 193 X -78 Y 193 X -27 Y 193 X -5 Y 192 X -3 Y 193 X -3 Y 193 X -1 Y 193 X 4 Y 192 X -7 Y f 0.413333 1 0 c 0.999 0.999 0.999 c 0.413333 1 0 c 1 1 1 c black 0.413333 1 0 c black 3 lw
 0.413333 1 0 c 227 484 m 220 Y 193 X 115 Y 192 X -215 Y 193 X -78 Y 193 X -27 Y 193 X -5 Y 192 X -3 Y 193 X -3 Y 193 X -1 Y 193 X 4 Y 192 X -7 Y f 0.6 0.2 1 c 0.999 0.999 0.999 c black 3 lw 0.999 0.999 0.999 c 227 484 m 23 Y 193 X 33 Y 192 X -24 Y
 193 X -26 Y 193 X -3 Y 193 X -1 Y 192 X -2 Y 193 X 1 Y 193 X -1 Y 193 X 1 Y 192 X -1 Y f 0.6 0.2 1 c 0.999 0.999 0.999 c 0.6 0.2 1 c 1 1 1 c black 0.6 0.2 1 c black 3 lw 0.6 0.2 1 c 227 484 m 23 Y 193 X 33 Y 192 X -24 Y 193 X -26 Y 193 X -3 Y 193 X
 -1 Y 192 X -2 Y 193 X 1 Y 193 X -1 Y 193 X 1 Y 192 X -1 Y f 0.54 0.06 0.06 c 0.999 0.999 0.999 c black 3 lw 0.999 0.999 0.999 c 227 484 m 22 Y 193 X 31 Y 192 X -23 Y 193 X -25 Y 193 X -3 Y 385 X -2 Y 193 X 1 Y 193 X -1 Y 193 X 1 Y 192 X -1 Y f 0.54
 0.06 0.06 c 0.999 0.999 0.999 c 0.54 0.06 0.06 c 1 1 1 c black 0.54 0.06 0.06 c black 3 lw 0.54 0.06 0.06 c 227 484 m 22 Y 193 X 31 Y 192 X -23 Y 193 X -25 Y 193 X -3 Y 385 X -2 Y 193 X 1 Y 193 X -1 Y 193 X 1 Y 192 X -1 Y f 1 0 1 c 0.999 0.999 0.999
 c black 3 lw 0.999 0.999 0.999 c 227 484 m 14 Y 193 X 29 Y 192 X -20 Y 193 X -21 Y 193 X -1 Y 193 X -1 Y 963 X f 1 0 1 c 0.999 0.999 0.999 c 1 0 1 c 1 1 1 c black 1 0 1 c black 3 lw 1 0 1 c 227 484 m 14 Y 193 X 29 Y 192 X -20 Y 193 X -21 Y 193 X -1
 Y 193 X -1 Y 963 X f 0 0 1 c 0.999 0.999 0.999 c black 3 lw 0.999 0.999 0.999 c 227 484 m 11 Y 193 X 25 Y 192 X -17 Y 193 X -19 Y 1349 X f 0 0 1 c 0.999 0.999 0.999 c 0 0 1 c 1 1 1 c black 0 0 1 c black 3 lw 0 0 1 c 227 484 m 11 Y 193 X 25 Y 192 X
 -17 Y 193 X -19 Y 1349 X f 0.2 0.8 0.8 c 0.999 0.999 0.999 c black 3 lw 0.999 0.999 0.999 c 227 484 m 10 Y 193 X 25 Y 192 X -16 Y 193 X -19 Y 1349 X f 0.2 0.8 0.8 c 0.999 0.999 0.999 c 0.2 0.8 0.8 c 1 1 1 c black 0.2 0.8 0.8 c black 3 lw 0.2 0.8 0.8
 c 227 484 m 10 Y 193 X 25 Y 192 X -16 Y 193 X -19 Y 1349 X f 1 0 0 c 0.999 0.999 0.999 c black 3 lw 0.999 0.999 0.999 c 227 484 m 10 Y 193 X 24 Y 192 X -16 Y 193 X -18 Y 1349 X f 1 0 0 c 0.999 0.999 0.999 c 1 0 0 c 1 1 1 c black 1 0 0 c black 3 lw 1
 0 0 c 227 484 m 10 Y 193 X 24 Y 192 X -16 Y 193 X -18 Y 1349 X f 1 0.84 0 c 0.999 0.999 0.999 c black 3 lw 0.999 0.999 0.999 c 227 484 m 10 Y 193 X 23 Y 192 X -15 Y 193 X -18 Y 1349 X f 1 0.84 0 c 0.999 0.999 0.999 c 1 0.84 0 c 1 1 1 c black 1 0.84
 0 c black 3 lw 1 0.84 0 c 227 484 m 10 Y 193 X 23 Y 192 X -15 Y 193 X -18 Y 1349 X f black 1 1 1 c black 0.6 0.6 0.6 c 3 lw 420 757 m -4 -4 d s 420 776 m -23 -23 d s 420 795 m -43 -42 d s 404 799 m -46 -46 d s 385 799 m -46 -46 d s 366 799 m -46 -46
 d s 347 799 m -46 -46 d s 327 799 m -46 -46 d s 308 799 m -46 -46 d s 289 799 m -46 -46 d s 270 799 m -43 -42 d s 250 799 m -23 -23 d s 231 799 m -4 -4 d s 3 lw 612 834 m -4 -4 d s 612 853 m -23 -23 d s 612 872 m -42 -42 d s 612 892 m -62 -62 d s
 612 911 m -81 -81 d s 612 930 m -100 -100 d s 612 949 m -119 -119 d s 610 966 m -137 -136 d s 591 966 m -137 -136 d s 571 966 m -136 -136 d s 552 966 m -132 -132 d s 533 966 m -113 -113 d s 514 966 m -94 -94 d s 494 966 m -74 -75 d s 475 966 m -55
 -55 d s 456 966 m -36 -36 d s 437 966 m -17 -17 d s 3 lw 805 642 m -15 -14 d s 805 661 m -34 -33 d s 805 681 m -53 -53 d s 795 690 m -62 -62 d s 776 690 m -62 -62 d s 756 690 m -62 -62 d s 737 690 m -62 -62 d s 718 690 m -62 -62 d s 699 690 m -62
 -62 d s 679 690 m -62 -62 d s 660 690 m -48 -48 d s 641 690 m -29 -29 d s 622 690 m -10 -10 d s 3 lw 989 538 m -8 -8 d s 970 538 m -8 -8 d s 951 538 m -9 -8 d s 932 538 m -9 -8 d s 912 538 m -8 -8 d s 893 538 m -8 -8 d s 874 538 m -9 -8 d s 855 538
 m -9 -8 d s 835 538 m -8 -8 d s 816 538 m -8 -8 d s 3 lw 1190 508 m -6 -6 d s 1171 508 m -6 -6 d s 1152 508 m -7 -6 d s 1132 508 m -6 -6 d s 1113 508 m -6 -6 d s 1094 508 m -6 -6 d s 1075 508 m -7 -6 d s 1055 508 m -6 -6 d s 1036 508 m -6 -6 d s
 1017 508 m -6 -6 d s 3 lw 1370 495 m -2 -2 d s 1351 495 m -3 -2 d s 1331 495 m -2 -2 d s 1312 495 m -2 -2 d s 1293 495 m -2 -2 d s 1274 495 m -3 -2 d s 1254 495 m -2 -2 d s 1235 495 m -2 -2 d s 1216 495 m -2 -2 d s 1197 495 m -3 -2 d s 3 lw 1559 492
 m -2 -2 d s 1540 492 m -2 -2 d s 1520 492 m -2 -2 d s 1501 492 m -2 -2 d s 1482 492 m -2 -2 d s 1463 492 m -2 -2 d s 1443 492 m -2 -2 d s 1424 492 m -2 -2 d s 1405 492 m -2 -2 d s 1386 492 m -2 -2 d s 3 lw 1767 489 m -1 -2 d s 1748 489 m -1 -2 d s
 1729 489 m -1 -2 d s 1710 489 m -2 -2 d s 1690 489 m -1 -2 d s 1671 489 m -1 -2 d s 1652 489 m -1 -2 d s 1633 489 m -2 -2 d s 1613 489 m -1 -2 d s 1594 489 m -1 -2 d s 3 lw 1961 490 m -3 -3 d s 1942 490 m -3 -3 d s 1923 490 m -4 -3 d s 1903 490 m -3
 -3 d s 1884 490 m -3 -3 d s 1865 490 m -3 -3 d s 1846 490 m -3 -3 d s 1826 490 m -3 -3 d s 1807 490 m -3 -3 d s 1788 490 m -3 -3 d s 3 lw 2138 493 m -1 X s 2118 493 m s 2099 493 m -1 X s 2080 493 m -1 X s 2061 493 m -1 X s 2041 493 m s 2022 493 m -1
 X s 2003 493 m -1 X s 1984 493 m -1 X s 1964 493 m s black 3 lw 1 1 1 c black 323 809 m 53 Y s 323 885 m 52 Y s /w 24 def /w2 {w 2 div} def /w3 {w 3 div} def 323 873 m20 516 1064 m 72 Y s 516 1159 m 72 Y s 516 1147 m20 709 628 m 33 Y s 709 685 m 33
 Y s 709 673 m20 901 513 m 11 Y s 901 548 m 12 Y s 901 536 m20 1094 494 m20 1480 497 m 6 Y s 1480 527 m 6 Y s 1480 515 m20 2058 490 m 3 Y s 2058 516 m 3 Y s 2058 504 m20 227 484 m 1927 X s 227 502 m -18 Y s 291 493 m -9 Y s 355 493 m -9 Y s 420 493 m
 -9 Y s 484 493 m -9 Y s 548 502 m -18 Y s 612 493 m -9 Y s 677 493 m -9 Y s 741 493 m -9 Y s 805 493 m -9 Y s 869 502 m -18 Y s 934 493 m -9 Y s 998 493 m -9 Y s 1062 493 m -9 Y s 1126 493 m -9 Y s 1191 502 m -18 Y s 1255 493 m -9 Y s 1319 493 m -9
 Y s 1383 493 m -9 Y s 1448 493 m -9 Y s 1512 502 m -18 Y s 1576 493 m -9 Y s 1640 493 m -9 Y s 1705 493 m -9 Y s 1769 493 m -9 Y s 1833 502 m -18 Y s 1897 493 m -9 Y s 1962 493 m -9 Y s 2026 493 m -9 Y s 2090 493 m -9 Y s 2154 502 m -18 Y s 227 1520
 m 1927 X s 227 1501 m 19 Y s 291 1510 m 10 Y s 355 1510 m 10 Y s 420 1510 m 10 Y s 484 1510 m 10 Y s 548 1501 m 19 Y s 612 1510 m 10 Y s 677 1510 m 10 Y s 741 1510 m 10 Y s 805 1510 m 10 Y s 869 1501 m 19 Y s 934 1510 m 10 Y s 998 1510 m 10 Y s 1062
 1510 m 10 Y s 1126 1510 m 10 Y s 1191 1501 m 19 Y s 1255 1510 m 10 Y s 1319 1510 m 10 Y s 1383 1510 m 10 Y s 1448 1510 m 10 Y s 1512 1501 m 19 Y s 1576 1510 m 10 Y s 1640 1510 m 10 Y s 1705 1510 m 10 Y s 1769 1510 m 10 Y s 1833 1501 m 19 Y s 1897
 1510 m 10 Y s 1962 1510 m 10 Y s 2026 1510 m 10 Y s 2090 1510 m 10 Y s 2154 1501 m 19 Y s 227 484 m 1036 Y s 248 589 m -21 X s 237 610 m -10 X s 237 631 m -10 X s 237 652 m -10 X s 237 673 m -10 X s 248 694 m -21 X s 237 715 m -10 X s 237 736 m -10
 X s 237 757 m -10 X s 237 779 m -10 X s 248 800 m -21 X s 237 821 m -10 X s 237 842 m -10 X s 237 863 m -10 X s 237 884 m -10 X s 248 905 m -21 X s 237 926 m -10 X s 237 947 m -10 X s 237 968 m -10 X s 237 989 m -10 X s 248 1010 m -21 X s 237 1031 m
 -10 X s 237 1053 m -10 X s 237 1074 m -10 X s 237 1095 m -10 X s 248 1116 m -21 X s 237 1137 m -10 X s 237 1158 m -10 X s 237 1179 m -10 X s 237 1200 m -10 X s 248 1221 m -21 X s 237 1242 m -10 X s 237 1263 m -10 X s 237 1284 m -10 X s 237 1306 m
 -10 X s 248 1327 m -21 X s 237 1348 m -10 X s 237 1369 m -10 X s 237 1390 m -10 X s 237 1411 m -10 X s 248 1432 m -21 X s 248 589 m -21 X s 237 568 m -10 X s 237 547 m -10 X s 237 526 m -10 X s 237 504 m -10 X s 248 1432 m -21 X s 237 1453 m -10 X s
 237 1474 m -10 X s 237 1495 m -10 X s 237 1516 m -10 X s 2154 484 m 1036 Y s 2133 589 m 21 X s 2144 610 m 10 X s 2144 631 m 10 X s 2144 652 m 10 X s 2144 673 m 10 X s 2133 694 m 21 X s 2144 715 m 10 X s 2144 736 m 10 X s 2144 757 m 10 X s 2144 779 m
 10 X s 2133 800 m 21 X s 2144 821 m 10 X s 2144 842 m 10 X s 2144 863 m 10 X s 2144 884 m 10 X s 2133 905 m 21 X s 2144 926 m 10 X s 2144 947 m 10 X s 2144 968 m 10 X s 2144 989 m 10 X s 2133 1010 m 21 X s 2144 1031 m 10 X s 2144 1053 m 10 X s 2144
 1074 m 10 X s 2144 1095 m 10 X s 2133 1116 m 21 X s 2144 1137 m 10 X s 2144 1158 m 10 X s 2144 1179 m 10 X s 2144 1200 m 10 X s 2133 1221 m 21 X s 2144 1242 m 10 X s 2144 1263 m 10 X s 2144 1284 m 10 X s 2144 1306 m 10 X s 2133 1327 m 21 X s 2144
 1348 m 10 X s 2144 1369 m 10 X s 2144 1390 m 10 X s 2144 1411 m 10 X s 2133 1432 m 21 X s 2133 589 m 21 X s 2144 568 m 10 X s 2144 547 m 10 X s 2144 526 m 10 X s 2144 504 m 10 X s 2133 1432 m 21 X s 2144 1453 m 10 X s 2144 1474 m 10 X s 2144 1495 m
 10 X s 2144 1516 m 10 X s
 gsave  2268 1103 0 472 C 1314.45 1423.98 t 0 r /Helvetica findfont 56.3093 sf 0 0 m ( Data) show NC gr  1259 1451 m 10 Y s 1259 1427 m -10 Y s 1259 1439 m20
 gsave  2268 1103 0 472 C 1808.84 1423.98 t 0 r /Helvetica findfont 56.3093 sf 0 0 m (single\255top) show NC gr 
 gsave  2268 1103 0 472 C 1779.24 1423.98 t 0 r /Helvetica-Oblique findfont 56.3093 sf 0 0 m (/) show NC gr 
 gsave  2268 1103 0 472 C 1758.52 1423.98 t 0 r /Helvetica-Oblique findfont 56.3093 sf 0 0 m (t) show NC gr  6 lw 1759 1468 m 20 X s
 gsave  2268 1103 0 472 C 1737.79 1423.98 t 0 r /Helvetica-Oblique findfont 56.3093 sf 0 0 m (t) show NC gr 
 gsave  2268 1103 0 472 C 1720.03 1423.98 t 0 r /Helvetica findfont 56.3093 sf 0 0 m ( ) show NC gr  0.06 0.54 0.06 c 3 lw 1626 1413 m 79 X 52 Y -79 X f 6 lw black
 gsave  2268 1103 0 472 C 1444.71 1349.97 t 0 r /Helvetica findfont 56.3093 sf 0 0 m (+jets) show NC gr 
 gsave  2268 1103 0 472 C 1332.21 1349.97 t 0 r /Helvetica-Oblique findfont 56.3093 sf 0 0 m (W/Z) show NC gr 
 gsave  2268 1103 0 472 C 1314.45 1349.97 t 0 r /Helvetica findfont 56.3093 sf 0 0 m ( ) show NC gr  1 0.653333 0 c 3 lw 1219 1340 m 79 X 51 Y -79 X f black
 gsave  2268 1103 0 472 C 1918.38 1349.97 t 0 r /Helvetica findfont 56.3093 sf 0 0 m (+jets) show NC gr 
 gsave  2268 1103 0 472 C 1737.79 1349.97 t 0 r /Helvetica-Oblique findfont 56.3093 sf 0 0 m (WZ/ZZ) show NC gr 
 gsave  2268 1103 0 472 C 1720.03 1349.97 t 0 r /Helvetica findfont 56.3093 sf 0 0 m ( ) show NC gr  0.413333 1 0 c 3 lw 1626 1340 m 79 X 51 Y -79 X f black
 gsave  2268 1103 0 472 C 1373.66 1275.96 t 0 r /Helvetica-Oblique findfont 56.3093 sf 0 0 m (Z) show NC gr 
 gsave  2268 1103 0 472 C 1352.93 1275.96 t 0 r /Helvetica-Oblique findfont 56.3093 sf 0 0 m (t) show NC gr  6 lw 1353 1320 m 21 X s
 gsave  2268 1103 0 472 C 1332.21 1275.96 t 0 r /Helvetica-Oblique findfont 56.3093 sf 0 0 m (t) show NC gr 
 gsave  2268 1103 0 472 C 1314.45 1275.96 t 0 r /Helvetica findfont 56.3093 sf 0 0 m ( ) show NC gr  0.6 0.2 1 c 3 lw 1219 1266 m 79 X 52 Y -79 X f 6 lw black
 gsave  2268 1103 0 472 C 1779.24 1275.96 t 0 r /Helvetica-Oblique findfont 56.3093 sf 0 0 m (W) show NC gr 
 gsave  2268 1103 0 472 C 1758.52 1275.96 t 0 r /Helvetica-Oblique findfont 56.3093 sf 0 0 m (t) show NC gr  6 lw 1759 1320 m 20 X s
 gsave  2268 1103 0 472 C 1737.79 1275.96 t 0 r /Helvetica-Oblique findfont 56.3093 sf 0 0 m (t) show NC gr 
 gsave  2268 1103 0 472 C 1720.03 1275.96 t 0 r /Helvetica findfont 56.3093 sf 0 0 m ( ) show NC gr  0.54 0.06 0.06 c 3 lw 1626 1266 m 79 X 52 Y -79 X f 6 lw black
 gsave  2268 1103 0 472 C 1332.21 1204.91 t 0 r /Helvetica-Oblique findfont 56.3093 sf 0 0 m (tZq) show NC gr 
 gsave  2268 1103 0 472 C 1314.45 1204.91 t 0 r /Helvetica findfont 56.3093 sf 0 0 m ( ) show NC gr  1 0 1 c 3 lw 1219 1193 m 79 X 51 Y -79 X f black
 gsave  2268 1103 0 472 C 1779.24 1204.91 t 0 r /Helvetica-Oblique findfont 56.3093 sf 0 0 m (H) show NC gr 
 gsave  2268 1103 0 472 C 1758.52 1204.91 t 0 r /Helvetica-Oblique findfont 56.3093 sf 0 0 m (t) show NC gr  6 lw 1759 1249 m 20 X s
 gsave  2268 1103 0 472 C 1737.79 1204.91 t 0 r /Helvetica-Oblique findfont 56.3093 sf 0 0 m (t) show NC gr 
 gsave  2268 1103 0 472 C 1720.03 1204.91 t 0 r /Helvetica findfont 56.3093 sf 0 0 m ( ) show NC gr  0 0 1 c 3 lw 1626 1193 m 79 X 51 Y -79 X f 6 lw black
 gsave  2268 1103 0 472 C 1332.21 1130.9 t 0 r /Helvetica-Oblique findfont 56.3093 sf 0 0 m (tWZ/tWH) show NC gr 
 gsave  2268 1103 0 472 C 1314.45 1130.9 t 0 r /Helvetica findfont 56.3093 sf 0 0 m ( ) show NC gr  0.2 0.8 0.8 c 3 lw 1219 1119 m 79 X 52 Y -79 X f black
 gsave  2268 1103 0 472 C 1737.79 1130.9 t 0 r /Helvetica-Oblique findfont 56.3093 sf 0 0 m (tHq) show NC gr 
 gsave  2268 1103 0 472 C 1720.03 1130.9 t 0 r /Helvetica findfont 56.3093 sf 0 0 m ( ) show NC gr  1 0 0 c 3 lw 1626 1119 m 79 X 52 Y -79 X f black
 gsave  2268 1103 0 472 C 1314.45 1056.89 t 0 r /Helvetica findfont 56.3093 sf 0 0 m ( Other) show NC gr  1 0.84 0 c 3 lw 1219 1046 m 79 X 51 Y -79 X f black
 gsave  2268 1103 0 472 C 1720.03 1056.89 t 0 r /Helvetica findfont 56.3093 sf 0 0 m ( Uncertainty) show NC gr  0.6 0.6 0.6 c 3 lw 1705 1061 m -15 -15 d s 1705 1080 m -34 -34 d s 1703 1097 m -51 -51 d s 1684 1097 m -51 -51 d s 1665 1097 m -39 -39 d s
 1646 1097 m -20 -20 d s 1626 1097 m s 1 0.84 0 c 0.6 0.6 0.6 c black
 gsave  2268 1103 0 472 C 894.061 1329.25 t 0 r /Helvetica findfont 41.4911 sf 0 0 m (\2551) show NC gr 
 gsave  2268 1103 0 472 C 399.663 1299.64 t 0 r /Helvetica findfont 62.2366 sf 0 0 m ( = 13 TeV,  139 fb) show NC gr 
 gsave  2268 1103 0 472 C 370.058 1299.64 t 0 r /Helvetica findfont 62.2366 sf 0 0 m (s) show NC gr  6 lw 349 1335 m 6 -38 d s 3 lw 355 1297 m 6 56 d s 361 1353 m 39 X s
 gsave  2268 1103 0 472 C 337.493 1201.95 t 0 r /Helvetica findfont 62.2366 sf 0 0 m ( 2L\(SS\), VR\(di\255boson\)) show NC gr 
 gsave  2268 1103 0 472 C 337.493 1400.3 t 0 r /Helvetica-BoldOblique findfont 71.1276 sf 0 0 m (ATLAS) show NC gr 
 gsave  2268 1103 0 472 C 633.54 1400.3 t 0 r /Helvetica findfont 71.1276 sf 0 0 m (Internal) show NC gr 
 gr  gr showpage
end
%%EOF
