%!PS-Adobe-2.0 EPSF-2.0
%%BoundingBox:  0 0 567 394
%%Title: /lhome/ific/c/cardillo/tHq/Plots/Plots-30-05-22-PLIV-SF/2LSS_MC/EtMiss_CRttW.eps: EtMiss_CRttW
%%Creator: ROOT Version 6.20/06
%%CreationDate: Mon May 30 19:26:17 2022
%%DocumentNeededResources: ProcSet (FontSetInit)
%%EndComments
%%BeginProlog
80 dict begin
/s {stroke} def /l {lineto} def /m {moveto} def /t {translate} def
/r {rotate} def /rl {roll}  def /R {repeat} def
/d {rlineto} def /rm {rmoveto} def /gr {grestore} def /f {eofill} def
/c {setrgbcolor} def /black {0 setgray} def /sd {setdash} def
/cl {closepath} def /sf {scalefont setfont} def /lw {setlinewidth} def
/box {m dup 0 exch d exch 0 d 0 exch neg d cl} def
/NC{systemdict begin initclip end}def/C{NC box clip newpath}def
/bl {box s} def /bf {gsave box gsave f grestore 1 lw [] 0 sd s grestore} def /Y { 0 exch d} def /X { 0 d} def 
/K {{pop pop 0 moveto} exch kshow} bind def
/ita {/ang 15 def gsave [1 0 ang dup sin exch cos div 1 0 0] concat} def 
/mp {newpath /y exch def /x exch def} def
/side {[w .77 mul w .23 mul] .385 w mul sd w 0 l currentpoint t -144 r} def
/mr {mp x y w2 0 360 arc} def /m24 {mr s} def /m20 {mr f} def
/mb {mp x y w2 add m w2 neg 0 d 0 w neg d w 0 d 0 w d cl} def
/mt {mp x y w2 add m w2 neg w neg d w 0 d cl} def
/w4 {w 4 div} def
/w6 {w 6 div} def
/w8 {w 8 div} def
/m21 {mb f} def /m25 {mb s} def /m22 {mt f} def /m26{mt s} def
/m23 {mp x y w2 sub m w2 w d w neg 0 d cl f} def
/m27 {mp x y w2 add m w3 neg w2 neg d w3 w2 neg d w3 w2 d cl s} def
/m28 {mp x w2 sub y w2 sub w3 add m w3 0 d  0 w3 neg d w3 0 d 0 w3 d w3 0 d  0 w3 d w3 neg 0 d 0 w3 d w3 neg 0 d 0 w3 neg d w3 neg 0 d cl s } def
/m29 {mp gsave x w2 sub y w2 add w3 sub m currentpoint t 4 {side} repeat cl fill gr} def
/m30 {mp gsave x w2 sub y w2 add w3 sub m currentpoint t 4 {side} repeat cl s gr} def
/m31 {mp x y w2 sub m 0 w d x w2 sub y m w 0 d x w2 sub y w2 add m w w neg d x w2 sub y w2 sub m w w d s} def
/m32 {mp x y w2 sub m w2 w d w neg 0 d cl s} def
/m33 {mp x y w2 add m w3 neg w2 neg d w3 w2 neg d w3 w2 d cl f} def
/m34 {mp x w2 sub y w2 sub w3 add m w3 0 d  0 w3 neg d w3 0 d 0 w3 d w3 0 d  0 w3 d w3 neg 0 d 0 w3 d w3 neg 0 d 0 w3 neg d w3 neg 0 d cl f } def
/m35 {mp x y w2 add m w2 neg w2 neg d w2 w2 neg d w2 w2 d w2 neg w2 d x y w2 sub m 0 w d x w2 sub y m w 0 d s} def
/m36 {mb x w2 sub y w2 add m w w neg d x w2 sub y w2 sub m w w d s} def
/m37 {mp x y m w4 neg w2 d w4 neg w2 neg d w2 0 d  w4 neg w2 neg d w2 0 d w4 neg w2 d w2 0 d w4 neg w2 d w4 neg w2 neg d cl s} def
/m38 {mp x w4 sub y w2 add m w4 neg w4 neg d 0 w2 neg d w4 w4 neg d w2 0 d w4 w4 d 0 w2 d w4 neg w4 d w2 neg 0 d x y w2 sub m 0 w d x w2 sub y m w 0 d cl s} def
/m39 {mp x y m w4 neg w2 d w4 neg w2 neg d w2 0 d  w4 neg w2 neg d w2 0 d w4 neg w2 d w2 0 d w4 neg w2 d w4 neg w2 neg d cl f} def
/m40 {mp x y m w4 w2 d w4 w4 neg d w2 neg w4 neg d w2 w4 neg d w4 neg w4 neg d w4 neg w2 d w4 neg w2 neg d w4 neg w4 d w2 w4 d w2 neg w4 d w4 w4 d w4 w2 neg d cl s} def
/m41 {mp x y m w4 w2 d w4 w4 neg d w2 neg w4 neg d w2 w4 neg d w4 neg w4 neg d w4 neg w2 d w4 neg w2 neg d w4 neg w4 d w2 w4 d w2 neg w4 d w4 w4 d w4 w2 neg d cl f} def
/m42 {mp x y w2 add m w8 neg w2 -3 4 div mul d w2 -3 4 div mul w8 neg d w2 3 4 div mul w8 neg d w8 w2 -3 4 div mul d w8 w2 3 4 div mul d w2 3 4 div mul w8 d w2 -3 4 div mul w8 d w8 neg w2 3 4 div mul d cl s} def
/m43 {mp x y w2 add m w8 neg w2 -3 4 div mul d w2 -3 4 div mul w8 neg d w2 3 4 div mul w8 neg d w8 w2 -3 4 div mul d w8 w2 3 4 div mul d w2 3 4 div mul w8 d w2 -3 4 div mul w8 d w8 neg w2 3 4 div mul d cl f} def
/m44 {mp x y m w6 neg w2 d w2 2 3 div mul 0 d w6 neg w2 neg d w2 w6 d 0 w2 -2 3 div mul d w2 neg w6 d w6 w2 neg d w2 -2 3 div mul 0 d w6 w2 d w2 neg w6 neg d 0 w2 2 3 div mul d w2 w6 neg d cl s} def
/m45 {mp x y m w6 neg w2 d w2 2 3 div mul 0 d w6 neg w2 neg d w2 w6 d 0 w2 -2 3 div mul d w2 neg w6 d w6 w2 neg d w2 -2 3 div mul 0 d w6 w2 d w2 neg w6 neg d 0 w2 2 3 div mul d w2 w6 neg d cl f} def
/m46 {mp x y w4 add m w4 neg w4 d w4 neg w4 neg d  w4 w4 neg d w4 neg w4 neg d w4 w4 neg d w4 w4 d w4 w4 neg d w4 w4 d w4 neg w4 d w4 w4 d w4 neg w4 d w4 neg w4 neg d cl s} def
/m47 {mp x y w4 add m w4 neg w4 d w4 neg w4 neg d w4 w4 neg d w4 neg w4 neg d  w4 w4 neg d w4 w4 d w4 w4 neg d w4 w4 d w4 neg w4 d w4 w4 d w4 neg w4 d w4 neg w4 neg d cl f} def
/m48 {mp x y w4 add m w4 neg w4 d w4 neg w4 neg d w4 w4 neg d  w4 neg w4 neg d w4 w4 neg d w4 w4 d w4 w4 neg d w4 w4 d w4 neg w4 d w4 w4 d w4 neg w4 d w4 neg w4 neg d  w4 w4 neg d w4 neg w4 neg d w4 neg w4 d w4 w4 d cl f} def
/m49 {mp x w2 sub w3 add y w2 sub w3 add m  0 w3 neg d w3 0 d 0 w3 d w3 0 d 0 w3 d w3 neg 0 d 0 w3 d w3 neg 0 d 0 w3 neg d w3 neg 0 d 0 w3 neg d w3 0 d 0 w3 d w3 0 d 0 w3 neg d w3 neg 0 d cl f } def
/m2 {mp x y w2 sub m 0 w d x w2 sub y m w 0 d s} def
/m5 {mp x w2 sub y w2 sub m w w d x w2 sub y w2 add m w w neg d s} def
%%IncludeResource: ProcSet (FontSetInit)
%%IncludeResource: font Times-Roman
%%IncludeResource: font Times-Italic
%%IncludeResource: font Times-Bold
%%IncludeResource: font Times-BoldItalic
%%IncludeResource: font Helvetica
%%IncludeResource: font Helvetica-Oblique
%%IncludeResource: font Helvetica-Bold
%%IncludeResource: font Helvetica-BoldOblique
%%IncludeResource: font Courier
%%IncludeResource: font Courier-Oblique
%%IncludeResource: font Courier-Bold
%%IncludeResource: font Courier-BoldOblique
%%IncludeResource: font Symbol
%%IncludeResource: font ZapfDingbats
/reEncode {exch findfont dup length dict begin {1 index /FID eq  {pop pop} {def} ifelse } forall /Encoding exch def currentdict end dup /FontName get exch definefont pop } def [/Times-Bold /Times-Italic /Times-BoldItalic /Helvetica /Helvetica-Oblique
 /Helvetica-Bold /Helvetica-BoldOblique /Courier /Courier-Oblique /Courier-Bold /Courier-BoldOblique /Times-Roman /AvantGarde-Book /AvantGarde-BookOblique /AvantGarde-Demi /AvantGarde-DemiOblique /Bookman-Demi /Bookman-DemiItalic /Bookman-Light
 /Bookman-LightItalic /Helvetica-Narrow /Helvetica-Narrow-Bold /Helvetica-Narrow-BoldOblique /Helvetica-Narrow-Oblique /NewCenturySchlbk-Roman /NewCenturySchlbk-Bold /NewCenturySchlbk-BoldItalic /NewCenturySchlbk-Italic /Palatino-Bold
 /Palatino-BoldItalic /Palatino-Italic /Palatino-Roman ] {ISOLatin1Encoding reEncode } forall
%%EndProlog
%%BeginSetup
%%EndSetup
newpath  gsave  .25 .25 scale  gsave  0 0 t black[  ] 0 sd 3 lw 1 1 1 c 2268 1575 0 0 bf black 1 1 1 c 2268 472 0 0 bf black 1 1 1 c 1927 274 227 189 bf black 1927 274 227 189 bl 227 189 m 1927 X s 227 201 m -12 Y s 291 195 m -6 Y s 355 195 m -6 Y s
 420 195 m -6 Y s 484 195 m -6 Y s 548 201 m -12 Y s 612 195 m -6 Y s 677 195 m -6 Y s 741 195 m -6 Y s 805 195 m -6 Y s 869 201 m -12 Y s 934 195 m -6 Y s 998 195 m -6 Y s 1062 195 m -6 Y s 1126 195 m -6 Y s 1191 201 m -12 Y s 1255 195 m -6 Y s 1319
 195 m -6 Y s 1383 195 m -6 Y s 1448 195 m -6 Y s 1512 201 m -12 Y s 1576 195 m -6 Y s 1640 195 m -6 Y s 1705 195 m -6 Y s 1769 195 m -6 Y s 1833 201 m -12 Y s 1897 195 m -6 Y s 1962 195 m -6 Y s 2026 195 m -6 Y s 2090 195 m -6 Y s 2154 201 m -12 Y s
 gsave  2268 472 0 0 C 210.193 127.3 t 0 r /Helvetica findfont 53.4895 sf 0 0 m (0) show NC gr 
 gsave  2268 472 0 0 C 518.081 127.3 t 0 r /Helvetica findfont 53.4895 sf 0 0 m (50) show NC gr 
 gsave  2268 472 0 0 C 823.009 127.3 t 0 r /Helvetica findfont 53.4895 sf 0 0 m (100) show NC gr 
 gsave  2268 472 0 0 C 1145.7 127.3 t 0 r /Helvetica findfont 53.4895 sf 0 0 m (150) show NC gr 
 gsave  2268 472 0 0 C 1465.43 127.3 t 0 r /Helvetica findfont 53.4895 sf 0 0 m (200) show NC gr 
 gsave  2268 472 0 0 C 1788.12 127.3 t 0 r /Helvetica findfont 53.4895 sf 0 0 m (250) show NC gr 
 gsave  2268 472 0 0 C 2107.85 127.3 t 0 r /Helvetica findfont 53.4895 sf 0 0 m (300) show NC gr 
 gsave  2268 472 0 0 C 1995.35 41.4465 t 0 r /Helvetica findfont 56.4611 sf 0 0 m ( [GeV]) show NC gr 
 gsave  2268 472 0 0 C 1915.42 68.0907 t 0 r /Helvetica findfont 38.6313 sf 0 0 m (miss) show NC gr 
 gsave  2268 472 0 0 C 1915.42 23.6837 t 0 r /Helvetica findfont 38.6313 sf 0 0 m (T) show NC gr 
 gsave  2268 472 0 0 C 1871.01 41.4465 t 0 r /Helvetica-Oblique findfont 56.4611 sf 0 0 m (E) show NC gr  227 463 m 1927 X s 227 451 m 12 Y s 291 457 m 6 Y s 355 457 m 6 Y s 420 457 m 6 Y s 484 457 m 6 Y s 548 451 m 12 Y s 612 457 m 6 Y s 677 457 m 6
 Y s 741 457 m 6 Y s 805 457 m 6 Y s 869 451 m 12 Y s 934 457 m 6 Y s 998 457 m 6 Y s 1062 457 m 6 Y s 1126 457 m 6 Y s 1191 451 m 12 Y s 1255 457 m 6 Y s 1319 457 m 6 Y s 1383 457 m 6 Y s 1448 457 m 6 Y s 1512 451 m 12 Y s 1576 457 m 6 Y s 1640 457
 m 6 Y s 1705 457 m 6 Y s 1769 457 m 6 Y s 1833 451 m 12 Y s 1897 457 m 6 Y s 1962 457 m 6 Y s 2026 457 m 6 Y s 2090 457 m 6 Y s 2154 451 m 12 Y s 227 189 m 274 Y s 240 240 m -13 X s 240 326 m -13 X s 240 412 m -13 X s 240 240 m -13 X s 240 412 m -13
 X s
 gsave  2268 472 0 0 C 118.419 222.035 t 0 r /Helvetica findfont 53.4895 sf 0 0 m (0.5) show NC gr 
 gsave  2268 472 0 0 C 171.707 307.888 t 0 r /Helvetica findfont 53.4895 sf 0 0 m (1) show NC gr 
 gsave  2268 472 0 0 C 118.419 393.742 t 0 r /Helvetica findfont 53.4895 sf 0 0 m (1.5) show NC gr 
 gsave  2268 472 0 0 C 71.0512 230.916 t 90 r /Helvetica findfont 53.4895 sf 0 0 m (Data / SM) show NC gr  2154 189 m 274 Y s 2141 240 m 13 X s 2141 326 m 13 X s 2141 412 m 13 X s 2141 240 m 13 X s 2141 412 m 13 X s 227 189 m 1927 X s 227 463 m 1927
 X s 227 189 m 274 Y s[ 4 8] 0 sd 2154 240 m -1927 X s 2154 326 m -1927 X s 2154 412 m -1927 X s 2154 240 m -1927 X s 2154 412 m -1927 X s[  ] 0 sd 2154 189 m 274 Y s 1 1 0.6 c 193 0 227 326 bf 192 0 420 326 bf 193 0 612 326 bf 193 0 805 326 bf 193 0
 998 326 bf 192 0 1191 326 bf 193 0 1383 326 bf 193 0 1576 326 bf 193 0 1769 326 bf 192 0 1962 326 bf black 0.6 0.6 0.6 c 420 325 m -8 -8 d s 410 335 m -17 -18 d s 391 335 m -17 -18 d s 372 335 m -17 -18 d s 353 335 m -18 -18 d s 333 335 m -17 -18 d
 s 314 335 m -17 -18 d s 295 335 m -17 -18 d s 276 335 m -18 -18 d s 256 335 m -17 -18 d s 237 335 m -10 -11 d s 612 325 m -3 -3 d s 599 331 m -9 -9 d s 579 331 m -9 -9 d s 560 331 m -9 -9 d s 541 331 m -9 -9 d s 522 331 m -9 -9 d s 502 331 m -9 -9 d
 s 483 331 m -9 -9 d s 464 331 m -9 -9 d s 445 331 m -9 -9 d s 425 331 m -5 -6 d s 805 325 m -3 -3 d s 790 330 m -7 -8 d s 771 330 m -7 -8 d s 752 330 m -7 -8 d s 732 330 m -7 -8 d s 713 330 m -7 -8 d s 694 330 m -7 -8 d s 675 330 m -7 -8 d s 656 330
 m -8 -8 d s 636 330 m -7 -8 d s 617 330 m -5 -5 d s 998 326 m -3 -4 d s 983 330 m -8 -8 d s 964 330 m -8 -8 d s 944 330 m -7 -8 d s 925 330 m -7 -8 d s 906 330 m -8 -8 d s 887 330 m -8 -8 d s 867 330 m -7 -8 d s 848 330 m -7 -8 d s 829 330 m -8 -8 d
 s 810 330 m -5 -5 d s 1191 326 m -4 -4 d s 1176 330 m -9 -8 d s 1156 330 m -8 -8 d s 1137 330 m -8 -8 d s 1118 330 m -8 -8 d s 1099 330 m -9 -8 d s 1079 330 m -8 -8 d s 1060 330 m -8 -8 d s 1041 330 m -8 -8 d s 1022 330 m -9 -8 d s 1002 330 m -4 -4
 d s 1383 326 m -5 -5 d s 1369 331 m -10 -10 d s 1350 331 m -10 -10 d s 1330 331 m -10 -10 d s 1311 331 m -10 -10 d s 1292 331 m -10 -10 d s 1273 331 m -10 -10 d s 1253 331 m -10 -10 d s 1234 331 m -10 -10 d s 1215 331 m -10 -10 d s 1196 331 m -5 -5
 d s 1576 327 m -8 -8 d s 1564 333 m -15 -14 d s 1544 333 m -14 -14 d s 1525 333 m -15 -14 d s 1506 333 m -15 -14 d s 1487 333 m -15 -14 d s 1467 333 m -14 -14 d s 1448 333 m -15 -14 d s 1429 333 m -15 -14 d s 1410 333 m -15 -14 d s 1390 333 m -7 -7
 d s 1769 327 m -8 -8 d s 1756 333 m -14 -14 d s 1737 333 m -15 -14 d s 1717 333 m -14 -14 d s 1698 333 m -14 -14 d s 1679 333 m -14 -14 d s 1660 333 m -15 -14 d s 1640 333 m -14 -14 d s 1621 333 m -14 -14 d s 1602 333 m -14 -14 d s 1583 333 m -7 -6
 d s 1962 327 m -11 -10 d s 1950 335 m -18 -18 d s 1931 335 m -18 -18 d s 1912 335 m -18 -18 d s 1892 335 m -18 -18 d s 1873 335 m -18 -18 d s 1854 335 m -18 -18 d s 1835 335 m -18 -18 d s 1815 335 m -18 -18 d s 1796 335 m -18 -18 d s 1777 335 m -8
 -8 d s 2154 328 m -5 -5 d s 2137 329 m -7 -6 d s 2118 329 m -7 -6 d s 2099 329 m -7 -6 d s 2079 329 m -7 -6 d s 2060 329 m -7 -6 d s 2041 329 m -7 -6 d s 2022 329 m -7 -6 d s 2002 329 m -7 -6 d s 1983 329 m -7 -6 d s 1964 329 m -2 -2 d s black 1 1 1
 c black 323 278 m 42 Y s 323 344 m 41 Y s /w 26 def /w2 {w 2 div} def /w3 {w 3 div} def 323 332 m20 516 265 m 13 Y s 516 302 m 13 Y s 516 290 m20 709 329 m 12 Y s 709 365 m 12 Y s 709 353 m20 901 304 m 12 Y s 901 340 m 12 Y s 901 328 m20 1094 263 m
 13 Y s 1094 299 m 13 Y s 1094 288 m20 1287 322 m 24 Y s 1287 370 m 25 Y s 1287 358 m20 1480 350 m 39 Y s 1480 412 m 39 Y s 1480 400 m20 1865 248 m 52 Y s 1865 324 m 52 Y s 1865 312 m20 2058 334 m 43 Y s 2058 401 m 44 Y s 2058 389 m20 227 326 m 1927
 X s 227 189 m 1927 X s 227 201 m -12 Y s 291 195 m -6 Y s 355 195 m -6 Y s 420 195 m -6 Y s 484 195 m -6 Y s 548 201 m -12 Y s 612 195 m -6 Y s 677 195 m -6 Y s 741 195 m -6 Y s 805 195 m -6 Y s 869 201 m -12 Y s 934 195 m -6 Y s 998 195 m -6 Y s
 1062 195 m -6 Y s 1126 195 m -6 Y s 1191 201 m -12 Y s 1255 195 m -6 Y s 1319 195 m -6 Y s 1383 195 m -6 Y s 1448 195 m -6 Y s 1512 201 m -12 Y s 1576 195 m -6 Y s 1640 195 m -6 Y s 1705 195 m -6 Y s 1769 195 m -6 Y s 1833 201 m -12 Y s 1897 195 m
 -6 Y s 1962 195 m -6 Y s 2026 195 m -6 Y s 2090 195 m -6 Y s 2154 201 m -12 Y s 227 463 m 1927 X s 227 451 m 12 Y s 291 457 m 6 Y s 355 457 m 6 Y s 420 457 m 6 Y s 484 457 m 6 Y s 548 451 m 12 Y s 612 457 m 6 Y s 677 457 m 6 Y s 741 457 m 6 Y s 805
 457 m 6 Y s 869 451 m 12 Y s 934 457 m 6 Y s 998 457 m 6 Y s 1062 457 m 6 Y s 1126 457 m 6 Y s 1191 451 m 12 Y s 1255 457 m 6 Y s 1319 457 m 6 Y s 1383 457 m 6 Y s 1448 457 m 6 Y s 1512 451 m 12 Y s 1576 457 m 6 Y s 1640 457 m 6 Y s 1705 457 m 6 Y s
 1769 457 m 6 Y s 1833 451 m 12 Y s 1897 457 m 6 Y s 1962 457 m 6 Y s 2026 457 m 6 Y s 2090 457 m 6 Y s 2154 451 m 12 Y s 227 189 m 274 Y s 240 240 m -13 X s 240 326 m -13 X s 240 412 m -13 X s 240 240 m -13 X s 240 412 m -13 X s 2154 189 m 274 Y s
 2141 240 m 13 X s 2141 326 m 13 X s 2141 412 m 13 X s 2141 240 m 13 X s 2141 412 m 13 X s 1 1 1 c 2268 1103 0 472 bf black 1 1 1 c 1927 1036 227 484 bf black 1927 1036 227 484 bl 1 1 1 c black 3 lw 227 484 m 1927 X s 227 502 m -18 Y s 291 493 m -9 Y
 s 355 493 m -9 Y s 420 493 m -9 Y s 484 493 m -9 Y s 548 502 m -18 Y s 612 493 m -9 Y s 677 493 m -9 Y s 741 493 m -9 Y s 805 493 m -9 Y s 869 502 m -18 Y s 934 493 m -9 Y s 998 493 m -9 Y s 1062 493 m -9 Y s 1126 493 m -9 Y s 1191 502 m -18 Y s
 1255 493 m -9 Y s 1319 493 m -9 Y s 1383 493 m -9 Y s 1448 493 m -9 Y s 1512 502 m -18 Y s 1576 493 m -9 Y s 1640 493 m -9 Y s 1705 493 m -9 Y s 1769 493 m -9 Y s 1833 502 m -18 Y s 1897 493 m -9 Y s 1962 493 m -9 Y s 2026 493 m -9 Y s 2090 493 m -9
 Y s 2154 502 m -18 Y s
 gsave  2268 1103 0 472 C 2069.37 396.702 t 0 r /Helvetica findfont 29.6365 sf 0 0 m ( [GeV]) show NC gr 
 gsave  2268 1103 0 472 C 2024.96 414.465 t 0 r /Helvetica findfont 20.7455 sf 0 0 m (miss) show NC gr 
 gsave  2268 1103 0 472 C 2024.96 387.821 t 0 r /Helvetica findfont 20.7455 sf 0 0 m (T) show NC gr 
 gsave  2268 1103 0 472 C 2001.27 396.702 t 0 r /Helvetica-Oblique findfont 29.6365 sf 0 0 m (E) show NC gr  227 1520 m 1927 X s 227 1501 m 19 Y s 291 1510 m 10 Y s 355 1510 m 10 Y s 420 1510 m 10 Y s 484 1510 m 10 Y s 548 1501 m 19 Y s 612 1510 m 10
 Y s 677 1510 m 10 Y s 741 1510 m 10 Y s 805 1510 m 10 Y s 869 1501 m 19 Y s 934 1510 m 10 Y s 998 1510 m 10 Y s 1062 1510 m 10 Y s 1126 1510 m 10 Y s 1191 1501 m 19 Y s 1255 1510 m 10 Y s 1319 1510 m 10 Y s 1383 1510 m 10 Y s 1448 1510 m 10 Y s 1512
 1501 m 19 Y s 1576 1510 m 10 Y s 1640 1510 m 10 Y s 1705 1510 m 10 Y s 1769 1510 m 10 Y s 1833 1501 m 19 Y s 1897 1510 m 10 Y s 1962 1510 m 10 Y s 2026 1510 m 10 Y s 2090 1510 m 10 Y s 2154 1501 m 19 Y s 227 484 m 1036 Y s 248 626 m -21 X s 237 662
 m -10 X s 237 698 m -10 X s 237 734 m -10 X s 248 770 m -21 X s 237 805 m -10 X s 237 841 m -10 X s 237 877 m -10 X s 248 913 m -21 X s 237 948 m -10 X s 237 984 m -10 X s 237 1020 m -10 X s 248 1056 m -21 X s 237 1091 m -10 X s 237 1127 m -10 X s
 237 1163 m -10 X s 248 1199 m -21 X s 237 1234 m -10 X s 237 1270 m -10 X s 237 1306 m -10 X s 248 1342 m -21 X s 237 1377 m -10 X s 237 1413 m -10 X s 237 1449 m -10 X s 248 1485 m -21 X s 248 626 m -21 X s 237 591 m -10 X s 237 555 m -10 X s 237
 519 m -10 X s 248 1485 m -21 X s
 gsave  2268 1103 0 472 C 145.063 606.895 t 0 r /Helvetica findfont 50.382 sf 0 0 m (20) show NC gr 
 gsave  2268 1103 0 472 C 145.063 748.998 t 0 r /Helvetica findfont 50.382 sf 0 0 m (40) show NC gr 
 gsave  2268 1103 0 472 C 145.063 894.061 t 0 r /Helvetica findfont 50.382 sf 0 0 m (60) show NC gr 
 gsave  2268 1103 0 472 C 145.063 1036.16 t 0 r /Helvetica findfont 50.382 sf 0 0 m (80) show NC gr 
 gsave  2268 1103 0 472 C 118.419 1178.27 t 0 r /Helvetica findfont 50.382 sf 0 0 m (100) show NC gr 
 gsave  2268 1103 0 472 C 118.419 1323.33 t 0 r /Helvetica findfont 50.382 sf 0 0 m (120) show NC gr 
 gsave  2268 1103 0 472 C 118.419 1465.43 t 0 r /Helvetica findfont 50.382 sf 0 0 m (140) show NC gr 
 gsave  2268 1103 0 472 C 62.1698 1154.58 t 90 r /Helvetica findfont 50.382 sf 0 0 m (Events / 30 GeV) show NC gr  2154 484 m 1036 Y s 2133 626 m 21 X s 2144 662 m 10 X s 2144 698 m 10 X s 2144 734 m 10 X s 2133 770 m 21 X s 2144 805 m 10 X s 2144
 841 m 10 X s 2144 877 m 10 X s 2133 913 m 21 X s 2144 948 m 10 X s 2144 984 m 10 X s 2144 1020 m 10 X s 2133 1056 m 21 X s 2144 1091 m 10 X s 2144 1127 m 10 X s 2144 1163 m 10 X s 2133 1199 m 21 X s 2144 1234 m 10 X s 2144 1270 m 10 X s 2144 1306 m
 10 X s 2133 1342 m 21 X s 2144 1377 m 10 X s 2144 1413 m 10 X s 2144 1449 m 10 X s 2133 1485 m 21 X s 2133 626 m 21 X s 2144 591 m 10 X s 2144 555 m 10 X s 2144 519 m 10 X s 2133 1485 m 21 X s 0.06 0.54 0.06 c black 3 lw 0.06 0.54 0.06 c 227 484 m
 75 Y 193 X 196 Y 192 X 143 Y 193 X -40 Y 193 X -98 Y 193 X -90 Y 192 X -67 Y 193 X -44 Y 193 X -29 Y 193 X 47 Y 192 X -93 Y f 1 0.653333 0 c 0.999 0.999 0.999 c black 3 lw 0.999 0.999 0.999 c 227 484 m 66 Y 193 X 163 Y 192 X 124 Y 193 X -36 Y 193 X
 -75 Y 193 X -80 Y 192 X -55 Y 193 X -39 Y 193 X -26 Y 193 X 49 Y 192 X -91 Y f 1 0.653333 0 c 0.999 0.999 0.999 c 1 0.653333 0 c 1 1 1 c black 1 0.653333 0 c black 3 lw 1 0.653333 0 c 227 484 m 66 Y 193 X 163 Y 192 X 124 Y 193 X -36 Y 193 X -75 Y
 193 X -80 Y 192 X -55 Y 193 X -39 Y 193 X -26 Y 193 X 49 Y 192 X -91 Y f 0.413333 1 0 c 0.999 0.999 0.999 c black 3 lw 0.999 0.999 0.999 c 227 484 m 66 Y 193 X 163 Y 192 X 123 Y 193 X -35 Y 193 X -75 Y 193 X -80 Y 192 X -58 Y 193 X -36 Y 193 X -26 Y
 193 X 47 Y 192 X -89 Y f 0.413333 1 0 c 0.999 0.999 0.999 c 0.413333 1 0 c 1 1 1 c black 0.413333 1 0 c black 3 lw 0.413333 1 0 c 227 484 m 66 Y 193 X 163 Y 192 X 123 Y 193 X -35 Y 193 X -75 Y 193 X -80 Y 192 X -58 Y 193 X -36 Y 193 X -26 Y 193 X 47
 Y 192 X -89 Y f 0.6 0.2 1 c 0.999 0.999 0.999 c black 3 lw 0.999 0.999 0.999 c 227 484 m 62 Y 193 X 157 Y 192 X 116 Y 193 X -34 Y 193 X -74 Y 193 X -74 Y 192 X -55 Y 193 X -34 Y 193 X -25 Y 193 X 39 Y 192 X -78 Y f 0.6 0.2 1 c 0.999 0.999 0.999 c
 0.6 0.2 1 c 1 1 1 c black 0.6 0.2 1 c black 3 lw 0.6 0.2 1 c 227 484 m 62 Y 193 X 157 Y 192 X 116 Y 193 X -34 Y 193 X -74 Y 193 X -74 Y 192 X -55 Y 193 X -34 Y 193 X -25 Y 193 X 39 Y 192 X -78 Y f 0.54 0.06 0.06 c 0.999 0.999 0.999 c black 3 lw
 0.999 0.999 0.999 c 227 484 m 54 Y 193 X 134 Y 192 X 104 Y 193 X -25 Y 193 X -64 Y 193 X -64 Y 192 X -51 Y 193 X -30 Y 193 X -23 Y 193 X 36 Y 192 X -71 Y f 0.54 0.06 0.06 c 0.999 0.999 0.999 c 0.54 0.06 0.06 c 1 1 1 c black 0.54 0.06 0.06 c black 3
 lw 0.54 0.06 0.06 c 227 484 m 54 Y 193 X 134 Y 192 X 104 Y 193 X -25 Y 193 X -64 Y 193 X -64 Y 192 X -51 Y 193 X -30 Y 193 X -23 Y 193 X 36 Y 192 X -71 Y f 1 0 1 c 0.999 0.999 0.999 c black 3 lw 0.999 0.999 0.999 c 227 484 m 8 Y 193 X 23 Y 192 X 22
 Y 193 X -6 Y 193 X -12 Y 193 X -12 Y 192 X -9 Y 193 X -6 Y 193 X -3 Y 193 X 4 Y 192 X -9 Y f 1 0 1 c 0.999 0.999 0.999 c 1 0 1 c 1 1 1 c black 1 0 1 c black 3 lw 1 0 1 c 227 484 m 8 Y 193 X 23 Y 192 X 22 Y 193 X -6 Y 193 X -12 Y 193 X -12 Y 192 X -9
 Y 193 X -6 Y 193 X -3 Y 193 X 4 Y 192 X -9 Y f 0 0 1 c 0.999 0.999 0.999 c black 3 lw 0.999 0.999 0.999 c 227 484 m 7 Y 193 X 22 Y 192 X 20 Y 193 X -5 Y 193 X -12 Y 193 X -11 Y 192 X -9 Y 193 X -4 Y 193 X -4 Y 193 X 4 Y 192 X -8 Y f 0 0 1 c 0.999
 0.999 0.999 c 0 0 1 c 1 1 1 c black 0 0 1 c black 3 lw 0 0 1 c 227 484 m 7 Y 193 X 22 Y 192 X 20 Y 193 X -5 Y 193 X -12 Y 193 X -11 Y 192 X -9 Y 193 X -4 Y 193 X -4 Y 193 X 4 Y 192 X -8 Y f 0.2 0.8 0.8 c 0.999 0.999 0.999 c black 3 lw 0.999 0.999
 0.999 c 227 484 m 1 Y 193 X 3 Y 192 X 3 Y 193 X -1 Y 193 X -1 Y 193 X -2 Y 192 X -1 Y 193 X -1 Y 193 X -1 Y 193 X 2 Y 192 X -2 Y f 0.2 0.8 0.8 c 0.999 0.999 0.999 c 0.2 0.8 0.8 c 1 1 1 c black 0.2 0.8 0.8 c black 3 lw 0.2 0.8 0.8 c 227 484 m 1 Y 193
 X 3 Y 192 X 3 Y 193 X -1 Y 193 X -1 Y 193 X -2 Y 192 X -1 Y 193 X -1 Y 193 X -1 Y 193 X 2 Y 192 X -2 Y f 1 0 0 c 0.999 0.999 0.999 c black 3 lw 0.999 0.999 0.999 c 227 484 m 193 X 1 Y 192 X 1 Y 579 X -1 Y 385 X -1 Y 386 X 1 Y 192 X -1 Y f 1 0 0 c
 0.999 0.999 0.999 c 1 0 0 c 1 1 1 c black 1 0 0 c black 3 lw 1 0 0 c 227 484 m 193 X 1 Y 192 X 1 Y 579 X -1 Y 385 X -1 Y 386 X 1 Y 192 X -1 Y f 1 0.84 0 c 0.999 0.999 0.999 c black 3 lw 0.999 0.999 0.999 c 227 484 m 385 X 1 Y 193 X 1 Y 193 X -1 Y
 578 X -1 Y 578 X f 1 0.84 0 c 0.999 0.999 0.999 c 1 0.84 0 c 1 1 1 c black 1 0.84 0 c black 3 lw 1 0.84 0 c 227 484 m 385 X 1 Y 193 X 1 Y 193 X -1 Y 578 X -1 Y 578 X f black 1 1 1 c black 0.6 0.6 0.6 c 3 lw 418 563 m -8 -7 d s 399 563 m -8 -7 d s
 380 563 m -8 -7 d s 360 563 m -7 -7 d s 341 563 m -8 -7 d s 322 563 m -8 -7 d s 303 563 m -8 -7 d s 283 563 m -7 -7 d s 264 563 m -8 -7 d s 245 563 m -8 -7 d s 3 lw 612 757 m -9 -9 d s 598 762 m -14 -14 d s 579 762 m -15 -14 d s 559 762 m -14 -14 d
 s 540 762 m -14 -14 d s 521 762 m -14 -14 d s 502 762 m -15 -14 d s 482 762 m -14 -14 d s 463 762 m -14 -14 d s 444 762 m -14 -14 d s 425 762 m -5 -5 d s 3 lw 805 892 m -3 -3 d s 801 907 m -18 -18 d s 781 907 m -17 -18 d s 762 907 m -17 -18 d s 743
 907 m -18 -18 d s 724 907 m -18 -18 d s 704 907 m -17 -18 d s 685 907 m -17 -18 d s 666 907 m -18 -18 d s 647 907 m -18 -18 d s 627 907 m -15 -15 d s 3 lw 998 854 m -5 -5 d s 990 866 m -16 -17 d s 971 866 m -16 -17 d s 952 866 m -17 -17 d s 933 866
 m -17 -17 d s 913 866 m -16 -17 d s 894 866 m -16 -17 d s 875 866 m -17 -17 d s 856 866 m -17 -17 d s 836 866 m -16 -17 d s 817 866 m -12 -12 d s 3 lw 1191 758 m -5 -5 d s 1180 767 m -14 -14 d s 1161 767 m -14 -14 d s 1141 767 m -13 -14 d s 1122 767
 m -13 -14 d s 1103 767 m -14 -14 d s 1084 767 m -14 -14 d s 1064 767 m -13 -14 d s 1045 767 m -13 -14 d s 1026 767 m -14 -14 d s 1007 767 m -9 -9 d s 3 lw 1377 675 m -11 -11 d s 1358 675 m -11 -11 d s 1339 675 m -11 -11 d s 1319 675 m -11 -11 d s
 1300 675 m -11 -11 d s 1281 675 m -11 -11 d s 1262 675 m -11 -11 d s 1242 675 m -11 -11 d s 1223 675 m -11 -11 d s 1204 675 m -11 -11 d s 3 lw 1576 605 m -7 -7 d s 1560 608 m -10 -10 d s 1541 608 m -11 -10 d s 1521 608 m -10 -10 d s 1502 608 m -10
 -10 d s 1483 608 m -10 -10 d s 1464 608 m -11 -10 d s 1444 608 m -10 -10 d s 1425 608 m -10 -10 d s 1406 608 m -10 -10 d s 1387 608 m -4 -3 d s 3 lw 1764 562 m -6 -6 d s 1745 562 m -7 -6 d s 1725 562 m -6 -6 d s 1706 562 m -6 -6 d s 1687 562 m -6 -6
 d s 1668 562 m -7 -6 d s 1648 562 m -6 -6 d s 1629 562 m -6 -6 d s 1610 562 m -6 -6 d s 1591 562 m -7 -6 d s 3 lw 1962 529 m -2 -1 d s 1946 533 m -5 -5 d s 1927 533 m -5 -5 d s 1908 533 m -5 -5 d s 1888 533 m -5 -5 d s 1869 533 m -5 -5 d s 1850 533
 m -5 -5 d s 1831 533 m -5 -5 d s 1811 533 m -5 -5 d s 1792 533 m -5 -5 d s 1773 533 m -4 -4 d s 3 lw 2147 579 m -4 -3 d s 2127 579 m -3 -3 d s 2108 579 m -4 -3 d s 2089 579 m -4 -3 d s 2070 579 m -4 -3 d s 2050 579 m -3 -3 d s 2031 579 m -4 -3 d s
 2012 579 m -4 -3 d s 1993 579 m -4 -3 d s 1974 579 m -4 -3 d s black 3 lw 1 1 1 c black 323 538 m 12 Y s 323 574 m 12 Y s /w 24 def /w2 {w 2 div} def /w3 {w 3 div} def 323 562 m20 516 659 m 27 Y s 516 710 m 27 Y s 516 698 m20 709 904 m 47 Y s 709
 974 m 47 Y s 709 963 m20 901 810 m 41 Y s 901 874 m 41 Y s 901 862 m20 1094 659 m 27 Y s 1094 710 m 27 Y s 1094 698 m20 1287 665 m 28 Y s 1287 717 m 28 Y s 1287 705 m20 1480 620 m 23 Y s 1480 667 m 23 Y s 1480 655 m20 1672 594 m 21 Y s 1672 638 m 20
 Y s 1672 626 m20 1865 509 m 6 Y s 1865 538 m 6 Y s 1865 526 m20 2058 582 m 18 Y s 2058 624 m 19 Y s 2058 612 m20 227 484 m 1927 X s 227 502 m -18 Y s 291 493 m -9 Y s 355 493 m -9 Y s 420 493 m -9 Y s 484 493 m -9 Y s 548 502 m -18 Y s 612 493 m -9
 Y s 677 493 m -9 Y s 741 493 m -9 Y s 805 493 m -9 Y s 869 502 m -18 Y s 934 493 m -9 Y s 998 493 m -9 Y s 1062 493 m -9 Y s 1126 493 m -9 Y s 1191 502 m -18 Y s 1255 493 m -9 Y s 1319 493 m -9 Y s 1383 493 m -9 Y s 1448 493 m -9 Y s 1512 502 m -18
 Y s 1576 493 m -9 Y s 1640 493 m -9 Y s 1705 493 m -9 Y s 1769 493 m -9 Y s 1833 502 m -18 Y s 1897 493 m -9 Y s 1962 493 m -9 Y s 2026 493 m -9 Y s 2090 493 m -9 Y s 2154 502 m -18 Y s 227 1520 m 1927 X s 227 1501 m 19 Y s 291 1510 m 10 Y s 355
 1510 m 10 Y s 420 1510 m 10 Y s 484 1510 m 10 Y s 548 1501 m 19 Y s 612 1510 m 10 Y s 677 1510 m 10 Y s 741 1510 m 10 Y s 805 1510 m 10 Y s 869 1501 m 19 Y s 934 1510 m 10 Y s 998 1510 m 10 Y s 1062 1510 m 10 Y s 1126 1510 m 10 Y s 1191 1501 m 19 Y
 s 1255 1510 m 10 Y s 1319 1510 m 10 Y s 1383 1510 m 10 Y s 1448 1510 m 10 Y s 1512 1501 m 19 Y s 1576 1510 m 10 Y s 1640 1510 m 10 Y s 1705 1510 m 10 Y s 1769 1510 m 10 Y s 1833 1501 m 19 Y s 1897 1510 m 10 Y s 1962 1510 m 10 Y s 2026 1510 m 10 Y s
 2090 1510 m 10 Y s 2154 1501 m 19 Y s 227 484 m 1036 Y s 248 626 m -21 X s 237 662 m -10 X s 237 698 m -10 X s 237 734 m -10 X s 248 770 m -21 X s 237 805 m -10 X s 237 841 m -10 X s 237 877 m -10 X s 248 913 m -21 X s 237 948 m -10 X s 237 984 m
 -10 X s 237 1020 m -10 X s 248 1056 m -21 X s 237 1091 m -10 X s 237 1127 m -10 X s 237 1163 m -10 X s 248 1199 m -21 X s 237 1234 m -10 X s 237 1270 m -10 X s 237 1306 m -10 X s 248 1342 m -21 X s 237 1377 m -10 X s 237 1413 m -10 X s 237 1449 m
 -10 X s 248 1485 m -21 X s 248 626 m -21 X s 237 591 m -10 X s 237 555 m -10 X s 237 519 m -10 X s 248 1485 m -21 X s 2154 484 m 1036 Y s 2133 626 m 21 X s 2144 662 m 10 X s 2144 698 m 10 X s 2144 734 m 10 X s 2133 770 m 21 X s 2144 805 m 10 X s
 2144 841 m 10 X s 2144 877 m 10 X s 2133 913 m 21 X s 2144 948 m 10 X s 2144 984 m 10 X s 2144 1020 m 10 X s 2133 1056 m 21 X s 2144 1091 m 10 X s 2144 1127 m 10 X s 2144 1163 m 10 X s 2133 1199 m 21 X s 2144 1234 m 10 X s 2144 1270 m 10 X s 2144
 1306 m 10 X s 2133 1342 m 21 X s 2144 1377 m 10 X s 2144 1413 m 10 X s 2144 1449 m 10 X s 2133 1485 m 21 X s 2133 626 m 21 X s 2144 591 m 10 X s 2144 555 m 10 X s 2144 519 m 10 X s 2133 1485 m 21 X s
 gsave  2268 1103 0 472 C 1314.45 1423.98 t 0 r /Helvetica findfont 56.3093 sf 0 0 m ( Data) show NC gr  1259 1451 m 10 Y s 1259 1427 m -10 Y s 1259 1439 m20
 gsave  2268 1103 0 472 C 1808.84 1423.98 t 0 r /Helvetica findfont 56.3093 sf 0 0 m (single\255top) show NC gr 
 gsave  2268 1103 0 472 C 1779.24 1423.98 t 0 r /Helvetica-Oblique findfont 56.3093 sf 0 0 m (/) show NC gr 
 gsave  2268 1103 0 472 C 1758.52 1423.98 t 0 r /Helvetica-Oblique findfont 56.3093 sf 0 0 m (t) show NC gr  6 lw 1759 1468 m 20 X s
 gsave  2268 1103 0 472 C 1737.79 1423.98 t 0 r /Helvetica-Oblique findfont 56.3093 sf 0 0 m (t) show NC gr 
 gsave  2268 1103 0 472 C 1720.03 1423.98 t 0 r /Helvetica findfont 56.3093 sf 0 0 m ( ) show NC gr  0.06 0.54 0.06 c 3 lw 1626 1413 m 79 X 52 Y -79 X f 6 lw black
 gsave  2268 1103 0 472 C 1444.71 1349.97 t 0 r /Helvetica findfont 56.3093 sf 0 0 m (+jets) show NC gr 
 gsave  2268 1103 0 472 C 1332.21 1349.97 t 0 r /Helvetica-Oblique findfont 56.3093 sf 0 0 m (W/Z) show NC gr 
 gsave  2268 1103 0 472 C 1314.45 1349.97 t 0 r /Helvetica findfont 56.3093 sf 0 0 m ( ) show NC gr  1 0.653333 0 c 3 lw 1219 1340 m 79 X 51 Y -79 X f black
 gsave  2268 1103 0 472 C 1918.38 1349.97 t 0 r /Helvetica findfont 56.3093 sf 0 0 m (+jets) show NC gr 
 gsave  2268 1103 0 472 C 1737.79 1349.97 t 0 r /Helvetica-Oblique findfont 56.3093 sf 0 0 m (WZ/ZZ) show NC gr 
 gsave  2268 1103 0 472 C 1720.03 1349.97 t 0 r /Helvetica findfont 56.3093 sf 0 0 m ( ) show NC gr  0.413333 1 0 c 3 lw 1626 1340 m 79 X 51 Y -79 X f black
 gsave  2268 1103 0 472 C 1373.66 1275.96 t 0 r /Helvetica-Oblique findfont 56.3093 sf 0 0 m (Z) show NC gr 
 gsave  2268 1103 0 472 C 1352.93 1275.96 t 0 r /Helvetica-Oblique findfont 56.3093 sf 0 0 m (t) show NC gr  6 lw 1353 1320 m 21 X s
 gsave  2268 1103 0 472 C 1332.21 1275.96 t 0 r /Helvetica-Oblique findfont 56.3093 sf 0 0 m (t) show NC gr 
 gsave  2268 1103 0 472 C 1314.45 1275.96 t 0 r /Helvetica findfont 56.3093 sf 0 0 m ( ) show NC gr  0.6 0.2 1 c 3 lw 1219 1266 m 79 X 52 Y -79 X f 6 lw black
 gsave  2268 1103 0 472 C 1779.24 1275.96 t 0 r /Helvetica-Oblique findfont 56.3093 sf 0 0 m (W) show NC gr 
 gsave  2268 1103 0 472 C 1758.52 1275.96 t 0 r /Helvetica-Oblique findfont 56.3093 sf 0 0 m (t) show NC gr  6 lw 1759 1320 m 20 X s
 gsave  2268 1103 0 472 C 1737.79 1275.96 t 0 r /Helvetica-Oblique findfont 56.3093 sf 0 0 m (t) show NC gr 
 gsave  2268 1103 0 472 C 1720.03 1275.96 t 0 r /Helvetica findfont 56.3093 sf 0 0 m ( ) show NC gr  0.54 0.06 0.06 c 3 lw 1626 1266 m 79 X 52 Y -79 X f 6 lw black
 gsave  2268 1103 0 472 C 1332.21 1204.91 t 0 r /Helvetica-Oblique findfont 56.3093 sf 0 0 m (tZq) show NC gr 
 gsave  2268 1103 0 472 C 1314.45 1204.91 t 0 r /Helvetica findfont 56.3093 sf 0 0 m ( ) show NC gr  1 0 1 c 3 lw 1219 1193 m 79 X 51 Y -79 X f black
 gsave  2268 1103 0 472 C 1779.24 1204.91 t 0 r /Helvetica-Oblique findfont 56.3093 sf 0 0 m (H) show NC gr 
 gsave  2268 1103 0 472 C 1758.52 1204.91 t 0 r /Helvetica-Oblique findfont 56.3093 sf 0 0 m (t) show NC gr  6 lw 1759 1249 m 20 X s
 gsave  2268 1103 0 472 C 1737.79 1204.91 t 0 r /Helvetica-Oblique findfont 56.3093 sf 0 0 m (t) show NC gr 
 gsave  2268 1103 0 472 C 1720.03 1204.91 t 0 r /Helvetica findfont 56.3093 sf 0 0 m ( ) show NC gr  0 0 1 c 3 lw 1626 1193 m 79 X 51 Y -79 X f 6 lw black
 gsave  2268 1103 0 472 C 1332.21 1130.9 t 0 r /Helvetica-Oblique findfont 56.3093 sf 0 0 m (tWZ/tWH) show NC gr 
 gsave  2268 1103 0 472 C 1314.45 1130.9 t 0 r /Helvetica findfont 56.3093 sf 0 0 m ( ) show NC gr  0.2 0.8 0.8 c 3 lw 1219 1119 m 79 X 52 Y -79 X f black
 gsave  2268 1103 0 472 C 1737.79 1130.9 t 0 r /Helvetica-Oblique findfont 56.3093 sf 0 0 m (tHq) show NC gr 
 gsave  2268 1103 0 472 C 1720.03 1130.9 t 0 r /Helvetica findfont 56.3093 sf 0 0 m ( ) show NC gr  1 0 0 c 3 lw 1626 1119 m 79 X 52 Y -79 X f black
 gsave  2268 1103 0 472 C 1314.45 1056.89 t 0 r /Helvetica findfont 56.3093 sf 0 0 m ( Other) show NC gr  1 0.84 0 c 3 lw 1219 1046 m 79 X 51 Y -79 X f black
 gsave  2268 1103 0 472 C 1720.03 1056.89 t 0 r /Helvetica findfont 56.3093 sf 0 0 m ( Uncertainty) show NC gr  0.6 0.6 0.6 c 3 lw 1705 1061 m -15 -15 d s 1705 1080 m -34 -34 d s 1703 1097 m -51 -51 d s 1684 1097 m -51 -51 d s 1665 1097 m -39 -39 d s
 1646 1097 m -20 -20 d s 1626 1097 m s 1 0.84 0 c 0.6 0.6 0.6 c black
 gsave  2268 1103 0 472 C 894.061 1329.25 t 0 r /Helvetica findfont 41.4911 sf 0 0 m (\2551) show NC gr 
 gsave  2268 1103 0 472 C 399.663 1299.64 t 0 r /Helvetica findfont 62.2366 sf 0 0 m ( = 13 TeV,  139 fb) show NC gr 
 gsave  2268 1103 0 472 C 370.058 1299.64 t 0 r /Helvetica findfont 62.2366 sf 0 0 m (s) show NC gr  6 lw 349 1335 m 6 -38 d s 3 lw 355 1297 m 6 56 d s 361 1353 m 39 X s
 gsave  2268 1103 0 472 C 808.207 1201.95 t 0 r /Helvetica findfont 62.2366 sf 0 0 m (\)) show NC gr 
 gsave  2268 1103 0 472 C 740.116 1201.95 t 0 r /Helvetica-Oblique findfont 62.2366 sf 0 0 m (W) show NC gr 
 gsave  2268 1103 0 472 C 716.433 1201.95 t 0 r /Helvetica-Oblique findfont 62.2366 sf 0 0 m (t) show NC gr  6 lw 716 1252 m 24 X s
 gsave  2268 1103 0 472 C 692.749 1201.95 t 0 r /Helvetica-Oblique findfont 62.2366 sf 0 0 m (t) show NC gr 
 gsave  2268 1103 0 472 C 337.493 1201.95 t 0 r /Helvetica findfont 62.2366 sf 0 0 m ( 2L\(SS\), CR\() show NC gr 
 gsave  2268 1103 0 472 C 337.493 1400.3 t 0 r /Helvetica-BoldOblique findfont 71.1276 sf 0 0 m (ATLAS) show NC gr 
 gsave  2268 1103 0 472 C 633.54 1400.3 t 0 r /Helvetica findfont 71.1276 sf 0 0 m (Internal) show NC gr 
 gr  gr showpage
end
%%EOF
