%!PS-Adobe-2.0 EPSF-2.0
%%BoundingBox:  0 0 567 394
%%Title: /lhome/ific/c/cardillo/tHq/Plots/Plots-30-05-22-PLIV-SF/2LSS_MC/EtMiss_Pre.eps: EtMiss_Pre
%%Creator: ROOT Version 6.20/06
%%CreationDate: Mon May 30 19:26:15 2022
%%DocumentNeededResources: ProcSet (FontSetInit)
%%EndComments
%%BeginProlog
80 dict begin
/s {stroke} def /l {lineto} def /m {moveto} def /t {translate} def
/r {rotate} def /rl {roll}  def /R {repeat} def
/d {rlineto} def /rm {rmoveto} def /gr {grestore} def /f {eofill} def
/c {setrgbcolor} def /black {0 setgray} def /sd {setdash} def
/cl {closepath} def /sf {scalefont setfont} def /lw {setlinewidth} def
/box {m dup 0 exch d exch 0 d 0 exch neg d cl} def
/NC{systemdict begin initclip end}def/C{NC box clip newpath}def
/bl {box s} def /bf {gsave box gsave f grestore 1 lw [] 0 sd s grestore} def /Y { 0 exch d} def /X { 0 d} def 
/K {{pop pop 0 moveto} exch kshow} bind def
/ita {/ang 15 def gsave [1 0 ang dup sin exch cos div 1 0 0] concat} def 
/mp {newpath /y exch def /x exch def} def
/side {[w .77 mul w .23 mul] .385 w mul sd w 0 l currentpoint t -144 r} def
/mr {mp x y w2 0 360 arc} def /m24 {mr s} def /m20 {mr f} def
/mb {mp x y w2 add m w2 neg 0 d 0 w neg d w 0 d 0 w d cl} def
/mt {mp x y w2 add m w2 neg w neg d w 0 d cl} def
/w4 {w 4 div} def
/w6 {w 6 div} def
/w8 {w 8 div} def
/m21 {mb f} def /m25 {mb s} def /m22 {mt f} def /m26{mt s} def
/m23 {mp x y w2 sub m w2 w d w neg 0 d cl f} def
/m27 {mp x y w2 add m w3 neg w2 neg d w3 w2 neg d w3 w2 d cl s} def
/m28 {mp x w2 sub y w2 sub w3 add m w3 0 d  0 w3 neg d w3 0 d 0 w3 d w3 0 d  0 w3 d w3 neg 0 d 0 w3 d w3 neg 0 d 0 w3 neg d w3 neg 0 d cl s } def
/m29 {mp gsave x w2 sub y w2 add w3 sub m currentpoint t 4 {side} repeat cl fill gr} def
/m30 {mp gsave x w2 sub y w2 add w3 sub m currentpoint t 4 {side} repeat cl s gr} def
/m31 {mp x y w2 sub m 0 w d x w2 sub y m w 0 d x w2 sub y w2 add m w w neg d x w2 sub y w2 sub m w w d s} def
/m32 {mp x y w2 sub m w2 w d w neg 0 d cl s} def
/m33 {mp x y w2 add m w3 neg w2 neg d w3 w2 neg d w3 w2 d cl f} def
/m34 {mp x w2 sub y w2 sub w3 add m w3 0 d  0 w3 neg d w3 0 d 0 w3 d w3 0 d  0 w3 d w3 neg 0 d 0 w3 d w3 neg 0 d 0 w3 neg d w3 neg 0 d cl f } def
/m35 {mp x y w2 add m w2 neg w2 neg d w2 w2 neg d w2 w2 d w2 neg w2 d x y w2 sub m 0 w d x w2 sub y m w 0 d s} def
/m36 {mb x w2 sub y w2 add m w w neg d x w2 sub y w2 sub m w w d s} def
/m37 {mp x y m w4 neg w2 d w4 neg w2 neg d w2 0 d  w4 neg w2 neg d w2 0 d w4 neg w2 d w2 0 d w4 neg w2 d w4 neg w2 neg d cl s} def
/m38 {mp x w4 sub y w2 add m w4 neg w4 neg d 0 w2 neg d w4 w4 neg d w2 0 d w4 w4 d 0 w2 d w4 neg w4 d w2 neg 0 d x y w2 sub m 0 w d x w2 sub y m w 0 d cl s} def
/m39 {mp x y m w4 neg w2 d w4 neg w2 neg d w2 0 d  w4 neg w2 neg d w2 0 d w4 neg w2 d w2 0 d w4 neg w2 d w4 neg w2 neg d cl f} def
/m40 {mp x y m w4 w2 d w4 w4 neg d w2 neg w4 neg d w2 w4 neg d w4 neg w4 neg d w4 neg w2 d w4 neg w2 neg d w4 neg w4 d w2 w4 d w2 neg w4 d w4 w4 d w4 w2 neg d cl s} def
/m41 {mp x y m w4 w2 d w4 w4 neg d w2 neg w4 neg d w2 w4 neg d w4 neg w4 neg d w4 neg w2 d w4 neg w2 neg d w4 neg w4 d w2 w4 d w2 neg w4 d w4 w4 d w4 w2 neg d cl f} def
/m42 {mp x y w2 add m w8 neg w2 -3 4 div mul d w2 -3 4 div mul w8 neg d w2 3 4 div mul w8 neg d w8 w2 -3 4 div mul d w8 w2 3 4 div mul d w2 3 4 div mul w8 d w2 -3 4 div mul w8 d w8 neg w2 3 4 div mul d cl s} def
/m43 {mp x y w2 add m w8 neg w2 -3 4 div mul d w2 -3 4 div mul w8 neg d w2 3 4 div mul w8 neg d w8 w2 -3 4 div mul d w8 w2 3 4 div mul d w2 3 4 div mul w8 d w2 -3 4 div mul w8 d w8 neg w2 3 4 div mul d cl f} def
/m44 {mp x y m w6 neg w2 d w2 2 3 div mul 0 d w6 neg w2 neg d w2 w6 d 0 w2 -2 3 div mul d w2 neg w6 d w6 w2 neg d w2 -2 3 div mul 0 d w6 w2 d w2 neg w6 neg d 0 w2 2 3 div mul d w2 w6 neg d cl s} def
/m45 {mp x y m w6 neg w2 d w2 2 3 div mul 0 d w6 neg w2 neg d w2 w6 d 0 w2 -2 3 div mul d w2 neg w6 d w6 w2 neg d w2 -2 3 div mul 0 d w6 w2 d w2 neg w6 neg d 0 w2 2 3 div mul d w2 w6 neg d cl f} def
/m46 {mp x y w4 add m w4 neg w4 d w4 neg w4 neg d  w4 w4 neg d w4 neg w4 neg d w4 w4 neg d w4 w4 d w4 w4 neg d w4 w4 d w4 neg w4 d w4 w4 d w4 neg w4 d w4 neg w4 neg d cl s} def
/m47 {mp x y w4 add m w4 neg w4 d w4 neg w4 neg d w4 w4 neg d w4 neg w4 neg d  w4 w4 neg d w4 w4 d w4 w4 neg d w4 w4 d w4 neg w4 d w4 w4 d w4 neg w4 d w4 neg w4 neg d cl f} def
/m48 {mp x y w4 add m w4 neg w4 d w4 neg w4 neg d w4 w4 neg d  w4 neg w4 neg d w4 w4 neg d w4 w4 d w4 w4 neg d w4 w4 d w4 neg w4 d w4 w4 d w4 neg w4 d w4 neg w4 neg d  w4 w4 neg d w4 neg w4 neg d w4 neg w4 d w4 w4 d cl f} def
/m49 {mp x w2 sub w3 add y w2 sub w3 add m  0 w3 neg d w3 0 d 0 w3 d w3 0 d 0 w3 d w3 neg 0 d 0 w3 d w3 neg 0 d 0 w3 neg d w3 neg 0 d 0 w3 neg d w3 0 d 0 w3 d w3 0 d 0 w3 neg d w3 neg 0 d cl f } def
/m2 {mp x y w2 sub m 0 w d x w2 sub y m w 0 d s} def
/m5 {mp x w2 sub y w2 sub m w w d x w2 sub y w2 add m w w neg d s} def
%%IncludeResource: ProcSet (FontSetInit)
%%IncludeResource: font Times-Roman
%%IncludeResource: font Times-Italic
%%IncludeResource: font Times-Bold
%%IncludeResource: font Times-BoldItalic
%%IncludeResource: font Helvetica
%%IncludeResource: font Helvetica-Oblique
%%IncludeResource: font Helvetica-Bold
%%IncludeResource: font Helvetica-BoldOblique
%%IncludeResource: font Courier
%%IncludeResource: font Courier-Oblique
%%IncludeResource: font Courier-Bold
%%IncludeResource: font Courier-BoldOblique
%%IncludeResource: font Symbol
%%IncludeResource: font ZapfDingbats
/reEncode {exch findfont dup length dict begin {1 index /FID eq  {pop pop} {def} ifelse } forall /Encoding exch def currentdict end dup /FontName get exch definefont pop } def [/Times-Bold /Times-Italic /Times-BoldItalic /Helvetica /Helvetica-Oblique
 /Helvetica-Bold /Helvetica-BoldOblique /Courier /Courier-Oblique /Courier-Bold /Courier-BoldOblique /Times-Roman /AvantGarde-Book /AvantGarde-BookOblique /AvantGarde-Demi /AvantGarde-DemiOblique /Bookman-Demi /Bookman-DemiItalic /Bookman-Light
 /Bookman-LightItalic /Helvetica-Narrow /Helvetica-Narrow-Bold /Helvetica-Narrow-BoldOblique /Helvetica-Narrow-Oblique /NewCenturySchlbk-Roman /NewCenturySchlbk-Bold /NewCenturySchlbk-BoldItalic /NewCenturySchlbk-Italic /Palatino-Bold
 /Palatino-BoldItalic /Palatino-Italic /Palatino-Roman ] {ISOLatin1Encoding reEncode } forall
%%EndProlog
%%BeginSetup
%%EndSetup
newpath  gsave  .25 .25 scale  gsave  0 0 t black[  ] 0 sd 3 lw 1 1 1 c 2268 1575 0 0 bf black 1 1 1 c 2268 472 0 0 bf black 1 1 1 c 1927 274 227 189 bf black 1927 274 227 189 bl 227 189 m 1927 X s 227 201 m -12 Y s 291 195 m -6 Y s 355 195 m -6 Y s
 420 195 m -6 Y s 484 195 m -6 Y s 548 201 m -12 Y s 612 195 m -6 Y s 677 195 m -6 Y s 741 195 m -6 Y s 805 195 m -6 Y s 869 201 m -12 Y s 934 195 m -6 Y s 998 195 m -6 Y s 1062 195 m -6 Y s 1126 195 m -6 Y s 1191 201 m -12 Y s 1255 195 m -6 Y s 1319
 195 m -6 Y s 1383 195 m -6 Y s 1448 195 m -6 Y s 1512 201 m -12 Y s 1576 195 m -6 Y s 1640 195 m -6 Y s 1705 195 m -6 Y s 1769 195 m -6 Y s 1833 201 m -12 Y s 1897 195 m -6 Y s 1962 195 m -6 Y s 2026 195 m -6 Y s 2090 195 m -6 Y s 2154 201 m -12 Y s
 gsave  2268 472 0 0 C 210.193 127.3 t 0 r /Helvetica findfont 53.4895 sf 0 0 m (0) show NC gr 
 gsave  2268 472 0 0 C 518.081 127.3 t 0 r /Helvetica findfont 53.4895 sf 0 0 m (50) show NC gr 
 gsave  2268 472 0 0 C 823.009 127.3 t 0 r /Helvetica findfont 53.4895 sf 0 0 m (100) show NC gr 
 gsave  2268 472 0 0 C 1145.7 127.3 t 0 r /Helvetica findfont 53.4895 sf 0 0 m (150) show NC gr 
 gsave  2268 472 0 0 C 1465.43 127.3 t 0 r /Helvetica findfont 53.4895 sf 0 0 m (200) show NC gr 
 gsave  2268 472 0 0 C 1788.12 127.3 t 0 r /Helvetica findfont 53.4895 sf 0 0 m (250) show NC gr 
 gsave  2268 472 0 0 C 2107.85 127.3 t 0 r /Helvetica findfont 53.4895 sf 0 0 m (300) show NC gr 
 gsave  2268 472 0 0 C 1995.35 41.4465 t 0 r /Helvetica findfont 56.4611 sf 0 0 m ( [GeV]) show NC gr 
 gsave  2268 472 0 0 C 1915.42 68.0907 t 0 r /Helvetica findfont 38.6313 sf 0 0 m (miss) show NC gr 
 gsave  2268 472 0 0 C 1915.42 23.6837 t 0 r /Helvetica findfont 38.6313 sf 0 0 m (T) show NC gr 
 gsave  2268 472 0 0 C 1871.01 41.4465 t 0 r /Helvetica-Oblique findfont 56.4611 sf 0 0 m (E) show NC gr  227 463 m 1927 X s 227 451 m 12 Y s 291 457 m 6 Y s 355 457 m 6 Y s 420 457 m 6 Y s 484 457 m 6 Y s 548 451 m 12 Y s 612 457 m 6 Y s 677 457 m 6
 Y s 741 457 m 6 Y s 805 457 m 6 Y s 869 451 m 12 Y s 934 457 m 6 Y s 998 457 m 6 Y s 1062 457 m 6 Y s 1126 457 m 6 Y s 1191 451 m 12 Y s 1255 457 m 6 Y s 1319 457 m 6 Y s 1383 457 m 6 Y s 1448 457 m 6 Y s 1512 451 m 12 Y s 1576 457 m 6 Y s 1640 457
 m 6 Y s 1705 457 m 6 Y s 1769 457 m 6 Y s 1833 451 m 12 Y s 1897 457 m 6 Y s 1962 457 m 6 Y s 2026 457 m 6 Y s 2090 457 m 6 Y s 2154 451 m 12 Y s 227 189 m 274 Y s 240 240 m -13 X s 240 326 m -13 X s 240 412 m -13 X s 240 240 m -13 X s 240 412 m -13
 X s
 gsave  2268 472 0 0 C 118.419 222.035 t 0 r /Helvetica findfont 53.4895 sf 0 0 m (0.5) show NC gr 
 gsave  2268 472 0 0 C 171.707 307.888 t 0 r /Helvetica findfont 53.4895 sf 0 0 m (1) show NC gr 
 gsave  2268 472 0 0 C 118.419 393.742 t 0 r /Helvetica findfont 53.4895 sf 0 0 m (1.5) show NC gr 
 gsave  2268 472 0 0 C 71.0512 230.916 t 90 r /Helvetica findfont 53.4895 sf 0 0 m (Data / SM) show NC gr  2154 189 m 274 Y s 2141 240 m 13 X s 2141 326 m 13 X s 2141 412 m 13 X s 2141 240 m 13 X s 2141 412 m 13 X s 227 189 m 1927 X s 227 463 m 1927
 X s 227 189 m 274 Y s[ 4 8] 0 sd 2154 240 m -1927 X s 2154 326 m -1927 X s 2154 412 m -1927 X s 2154 240 m -1927 X s 2154 412 m -1927 X s[  ] 0 sd 2154 189 m 274 Y s 1 1 0.6 c 193 0 227 326 bf 192 0 420 326 bf 193 0 612 326 bf 193 0 805 326 bf 193 0
 998 326 bf 192 0 1191 326 bf 193 0 1383 326 bf 193 0 1576 326 bf 193 0 1769 326 bf 192 0 1962 326 bf black 0.6 0.6 0.6 c 420 325 m -5 -5 d s 407 332 m -11 -12 d s 388 332 m -11 -12 d s 369 332 m -11 -12 d s 350 332 m -12 -12 d s 330 332 m -11 -12 d
 s 311 332 m -11 -12 d s 292 332 m -11 -12 d s 273 332 m -12 -12 d s 253 332 m -11 -12 d s 234 332 m -7 -8 d s 612 325 m -2 -2 d s 597 329 m -6 -6 d s 578 329 m -6 -6 d s 559 329 m -6 -6 d s 540 329 m -7 -6 d s 520 329 m -6 -6 d s 501 329 m -6 -6 d s
 482 329 m -6 -6 d s 463 329 m -7 -6 d s 443 329 m -6 -6 d s 424 329 m -4 -4 d s 805 325 m -1 -1 d s 789 328 m -5 -4 d s 770 328 m -5 -4 d s 750 328 m -4 -4 d s 731 328 m -4 -4 d s 712 328 m -5 -4 d s 693 328 m -5 -4 d s 673 328 m -4 -4 d s 654 328 m
 -4 -4 d s 635 328 m -5 -4 d s 616 328 m -4 -3 d s 998 326 m -2 -2 d s 981 328 m -4 -4 d s 962 328 m -5 -4 d s 943 328 m -5 -4 d s 924 328 m -5 -4 d s 904 328 m -4 -4 d s 885 328 m -5 -4 d s 866 328 m -5 -4 d s 847 328 m -5 -4 d s 827 328 m -4 -4 d s
 808 328 m -3 -3 d s 1191 326 m -3 -3 d s 1174 329 m -6 -6 d s 1155 329 m -6 -6 d s 1136 329 m -6 -6 d s 1117 329 m -6 -6 d s 1098 329 m -7 -6 d s 1078 329 m -6 -6 d s 1059 329 m -6 -6 d s 1040 329 m -6 -6 d s 1021 329 m -7 -6 d s 1001 329 m -3 -3 d
 s 1383 326 m -4 -4 d s 1368 330 m -8 -8 d s 1348 330 m -7 -8 d s 1329 330 m -7 -8 d s 1310 330 m -8 -8 d s 1291 330 m -8 -8 d s 1271 330 m -7 -8 d s 1252 330 m -7 -8 d s 1233 330 m -8 -8 d s 1214 330 m -8 -8 d s 1194 330 m -3 -4 d s 1576 327 m -6 -6
 d s 1562 331 m -11 -10 d s 1542 331 m -10 -10 d s 1523 331 m -11 -10 d s 1504 331 m -11 -10 d s 1485 331 m -11 -10 d s 1465 331 m -10 -10 d s 1446 331 m -11 -10 d s 1427 331 m -11 -10 d s 1408 331 m -11 -10 d s 1388 331 m -5 -5 d s 1769 327 m -7 -7
 d s 1755 332 m -13 -12 d s 1736 332 m -13 -12 d s 1717 332 m -13 -12 d s 1697 332 m -12 -12 d s 1678 332 m -13 -12 d s 1659 332 m -13 -12 d s 1640 332 m -13 -12 d s 1620 332 m -12 -12 d s 1601 332 m -13 -12 d s 1582 332 m -6 -5 d s 1962 327 m -9 -9
 d s 1949 334 m -16 -16 d s 1930 334 m -16 -16 d s 1910 334 m -15 -16 d s 1891 334 m -15 -16 d s 1872 334 m -15 -16 d s 1853 334 m -16 -16 d s 1833 334 m -15 -16 d s 1814 334 m -15 -16 d s 1795 334 m -15 -16 d s 1776 334 m -7 -7 d s 2154 328 m -5 -6
 d s 2137 330 m -7 -8 d s 2118 330 m -7 -8 d s 2099 330 m -7 -8 d s 2079 330 m -7 -8 d s 2060 330 m -7 -8 d s 2041 330 m -7 -8 d s 2022 330 m -7 -8 d s 2002 330 m -7 -8 d s 1983 330 m -7 -8 d s 1964 330 m -2 -3 d s black 1 1 1 c black /w 26 def /w2
 {w 2 div} def /w3 {w 3 div} def 323 354 m20 516 342 m20 709 335 m20 901 348 m20 1094 331 m 1 Y s 1094 356 m 1 Y s 1094 344 m20 1287 339 m 7 Y s 1287 369 m 7 Y s 1287 357 m20 1480 342 m 12 Y s 1480 378 m 13 Y s 1480 366 m20 1672 334 m 22 Y s 1672 380
 m 22 Y s 1672 368 m20 1865 253 m 22 Y s 1865 299 m 22 Y s 1865 287 m20 2058 339 m 19 Y s 2058 382 m 19 Y s 2058 370 m20 227 326 m 1927 X s 227 189 m 1927 X s 227 201 m -12 Y s 291 195 m -6 Y s 355 195 m -6 Y s 420 195 m -6 Y s 484 195 m -6 Y s 548
 201 m -12 Y s 612 195 m -6 Y s 677 195 m -6 Y s 741 195 m -6 Y s 805 195 m -6 Y s 869 201 m -12 Y s 934 195 m -6 Y s 998 195 m -6 Y s 1062 195 m -6 Y s 1126 195 m -6 Y s 1191 201 m -12 Y s 1255 195 m -6 Y s 1319 195 m -6 Y s 1383 195 m -6 Y s 1448
 195 m -6 Y s 1512 201 m -12 Y s 1576 195 m -6 Y s 1640 195 m -6 Y s 1705 195 m -6 Y s 1769 195 m -6 Y s 1833 201 m -12 Y s 1897 195 m -6 Y s 1962 195 m -6 Y s 2026 195 m -6 Y s 2090 195 m -6 Y s 2154 201 m -12 Y s 227 463 m 1927 X s 227 451 m 12 Y s
 291 457 m 6 Y s 355 457 m 6 Y s 420 457 m 6 Y s 484 457 m 6 Y s 548 451 m 12 Y s 612 457 m 6 Y s 677 457 m 6 Y s 741 457 m 6 Y s 805 457 m 6 Y s 869 451 m 12 Y s 934 457 m 6 Y s 998 457 m 6 Y s 1062 457 m 6 Y s 1126 457 m 6 Y s 1191 451 m 12 Y s
 1255 457 m 6 Y s 1319 457 m 6 Y s 1383 457 m 6 Y s 1448 457 m 6 Y s 1512 451 m 12 Y s 1576 457 m 6 Y s 1640 457 m 6 Y s 1705 457 m 6 Y s 1769 457 m 6 Y s 1833 451 m 12 Y s 1897 457 m 6 Y s 1962 457 m 6 Y s 2026 457 m 6 Y s 2090 457 m 6 Y s 2154 451
 m 12 Y s 227 189 m 274 Y s 240 240 m -13 X s 240 326 m -13 X s 240 412 m -13 X s 240 240 m -13 X s 240 412 m -13 X s 2154 189 m 274 Y s 2141 240 m 13 X s 2141 326 m 13 X s 2141 412 m 13 X s 2141 240 m 13 X s 2141 412 m 13 X s 1 1 1 c 2268 1103 0 472
 bf black 1 1 1 c 1927 1036 227 484 bf black 1927 1036 227 484 bl 1 1 1 c black 3 lw 227 484 m 1927 X s 227 502 m -18 Y s 291 493 m -9 Y s 355 493 m -9 Y s 420 493 m -9 Y s 484 493 m -9 Y s 548 502 m -18 Y s 612 493 m -9 Y s 677 493 m -9 Y s 741 493
 m -9 Y s 805 493 m -9 Y s 869 502 m -18 Y s 934 493 m -9 Y s 998 493 m -9 Y s 1062 493 m -9 Y s 1126 493 m -9 Y s 1191 502 m -18 Y s 1255 493 m -9 Y s 1319 493 m -9 Y s 1383 493 m -9 Y s 1448 493 m -9 Y s 1512 502 m -18 Y s 1576 493 m -9 Y s 1640
 493 m -9 Y s 1705 493 m -9 Y s 1769 493 m -9 Y s 1833 502 m -18 Y s 1897 493 m -9 Y s 1962 493 m -9 Y s 2026 493 m -9 Y s 2090 493 m -9 Y s 2154 502 m -18 Y s
 gsave  2268 1103 0 472 C 2069.37 396.702 t 0 r /Helvetica findfont 29.6365 sf 0 0 m ( [GeV]) show NC gr 
 gsave  2268 1103 0 472 C 2024.96 414.465 t 0 r /Helvetica findfont 20.7455 sf 0 0 m (miss) show NC gr 
 gsave  2268 1103 0 472 C 2024.96 387.821 t 0 r /Helvetica findfont 20.7455 sf 0 0 m (T) show NC gr 
 gsave  2268 1103 0 472 C 2001.27 396.702 t 0 r /Helvetica-Oblique findfont 29.6365 sf 0 0 m (E) show NC gr  227 1520 m 1927 X s 227 1501 m 19 Y s 291 1510 m 10 Y s 355 1510 m 10 Y s 420 1510 m 10 Y s 484 1510 m 10 Y s 548 1501 m 19 Y s 612 1510 m 10
 Y s 677 1510 m 10 Y s 741 1510 m 10 Y s 805 1510 m 10 Y s 869 1501 m 19 Y s 934 1510 m 10 Y s 998 1510 m 10 Y s 1062 1510 m 10 Y s 1126 1510 m 10 Y s 1191 1501 m 19 Y s 1255 1510 m 10 Y s 1319 1510 m 10 Y s 1383 1510 m 10 Y s 1448 1510 m 10 Y s 1512
 1501 m 19 Y s 1576 1510 m 10 Y s 1640 1510 m 10 Y s 1705 1510 m 10 Y s 1769 1510 m 10 Y s 1833 1501 m 19 Y s 1897 1510 m 10 Y s 1962 1510 m 10 Y s 2026 1510 m 10 Y s 2090 1510 m 10 Y s 2154 1501 m 19 Y s 227 484 m 1036 Y s 248 579 m -21 X s 237 602
 m -10 X s 237 626 m -10 X s 237 650 m -10 X s 248 674 m -21 X s 237 698 m -10 X s 237 721 m -10 X s 237 745 m -10 X s 248 769 m -21 X s 237 793 m -10 X s 237 817 m -10 X s 237 840 m -10 X s 248 864 m -21 X s 237 888 m -10 X s 237 912 m -10 X s 237
 935 m -10 X s 248 959 m -21 X s 237 983 m -10 X s 237 1007 m -10 X s 237 1031 m -10 X s 248 1054 m -21 X s 237 1078 m -10 X s 237 1102 m -10 X s 237 1126 m -10 X s 248 1150 m -21 X s 237 1173 m -10 X s 237 1197 m -10 X s 237 1221 m -10 X s 248 1245
 m -21 X s 237 1268 m -10 X s 237 1292 m -10 X s 237 1316 m -10 X s 248 1340 m -21 X s 237 1364 m -10 X s 237 1387 m -10 X s 237 1411 m -10 X s 248 1435 m -21 X s 248 579 m -21 X s 237 555 m -10 X s 237 531 m -10 X s 237 507 m -10 X s 248 1435 m -21
 X s 237 1459 m -10 X s 237 1483 m -10 X s 237 1506 m -10 X s
 gsave  2268 1103 0 472 C 118.419 559.528 t 0 r /Helvetica findfont 50.382 sf 0 0 m (200) show NC gr 
 gsave  2268 1103 0 472 C 118.419 654.263 t 0 r /Helvetica findfont 50.382 sf 0 0 m (400) show NC gr 
 gsave  2268 1103 0 472 C 118.419 748.998 t 0 r /Helvetica findfont 50.382 sf 0 0 m (600) show NC gr 
 gsave  2268 1103 0 472 C 118.419 843.733 t 0 r /Helvetica findfont 50.382 sf 0 0 m (800) show NC gr 
 gsave  2268 1103 0 472 C 91.7744 941.428 t 0 r /Helvetica findfont 50.382 sf 0 0 m (1000) show NC gr 
 gsave  2268 1103 0 472 C 91.7744 1036.16 t 0 r /Helvetica findfont 50.382 sf 0 0 m (1200) show NC gr 
 gsave  2268 1103 0 472 C 91.7744 1130.9 t 0 r /Helvetica findfont 50.382 sf 0 0 m (1400) show NC gr 
 gsave  2268 1103 0 472 C 91.7744 1225.63 t 0 r /Helvetica findfont 50.382 sf 0 0 m (1600) show NC gr 
 gsave  2268 1103 0 472 C 91.7744 1320.37 t 0 r /Helvetica findfont 50.382 sf 0 0 m (1800) show NC gr 
 gsave  2268 1103 0 472 C 91.7744 1415.1 t 0 r /Helvetica findfont 50.382 sf 0 0 m (2000) show NC gr 
 gsave  2268 1103 0 472 C 62.1698 1154.58 t 90 r /Helvetica findfont 50.382 sf 0 0 m (Events / 30 GeV) show NC gr  2154 484 m 1036 Y s 2133 579 m 21 X s 2144 602 m 10 X s 2144 626 m 10 X s 2144 650 m 10 X s 2133 674 m 21 X s 2144 698 m 10 X s 2144
 721 m 10 X s 2144 745 m 10 X s 2133 769 m 21 X s 2144 793 m 10 X s 2144 817 m 10 X s 2144 840 m 10 X s 2133 864 m 21 X s 2144 888 m 10 X s 2144 912 m 10 X s 2144 935 m 10 X s 2133 959 m 21 X s 2144 983 m 10 X s 2144 1007 m 10 X s 2144 1031 m 10 X s
 2133 1054 m 21 X s 2144 1078 m 10 X s 2144 1102 m 10 X s 2144 1126 m 10 X s 2133 1150 m 21 X s 2144 1173 m 10 X s 2144 1197 m 10 X s 2144 1221 m 10 X s 2133 1245 m 21 X s 2144 1268 m 10 X s 2144 1292 m 10 X s 2144 1316 m 10 X s 2133 1340 m 21 X s
 2144 1364 m 10 X s 2144 1387 m 10 X s 2144 1411 m 10 X s 2133 1435 m 21 X s 2133 579 m 21 X s 2144 555 m 10 X s 2144 531 m 10 X s 2144 507 m 10 X s 2133 1435 m 21 X s 2144 1459 m 10 X s 2144 1483 m 10 X s 2144 1506 m 10 X s 0.06 0.54 0.06 c black 3
 lw 0.06 0.54 0.06 c 227 484 m 271 Y 193 X 143 Y 192 X -108 Y 193 X -134 Y 193 X -81 Y 193 X -44 Y 192 X -19 Y 193 X -13 Y 193 X -6 Y 193 X 9 Y 192 X -18 Y f 1 0.653333 0 c 0.999 0.999 0.999 c black 3 lw 0.999 0.999 0.999 c 227 484 m 182 Y 193 X 49 Y
 192 X -69 Y 193 X -63 Y 193 X -42 Y 193 X -26 Y 192 X -13 Y 193 X -7 Y 193 X -5 Y 193 X 7 Y 192 X -13 Y f 1 0.653333 0 c 0.999 0.999 0.999 c 1 0.653333 0 c 1 1 1 c black 1 0.653333 0 c black 3 lw 1 0.653333 0 c 227 484 m 182 Y 193 X 49 Y 192 X -69 Y
 193 X -63 Y 193 X -42 Y 193 X -26 Y 192 X -13 Y 193 X -7 Y 193 X -5 Y 193 X 7 Y 192 X -13 Y f 0.413333 1 0 c 0.999 0.999 0.999 c black 3 lw 0.999 0.999 0.999 c 227 484 m 91 Y 193 X 93 Y 192 X -30 Y 193 X -57 Y 193 X -41 Y 193 X -25 Y 192 X -13 Y 193
 X -7 Y 193 X -5 Y 193 X 7 Y 192 X -13 Y f 0.413333 1 0 c 0.999 0.999 0.999 c 0.413333 1 0 c 1 1 1 c black 0.413333 1 0 c black 3 lw 0.413333 1 0 c 227 484 m 91 Y 193 X 93 Y 192 X -30 Y 193 X -57 Y 193 X -41 Y 193 X -25 Y 192 X -13 Y 193 X -7 Y 193 X
 -5 Y 193 X 7 Y 192 X -13 Y f 0.6 0.2 1 c 0.999 0.999 0.999 c black 3 lw 0.999 0.999 0.999 c 227 484 m 60 Y 193 X 76 Y 192 X -9 Y 193 X -42 Y 193 X -35 Y 193 X -22 Y 192 X -12 Y 193 X -7 Y 193 X -3 Y 193 X 5 Y 192 X -11 Y f 0.6 0.2 1 c 0.999 0.999
 0.999 c 0.6 0.2 1 c 1 1 1 c black 0.6 0.2 1 c black 3 lw 0.6 0.2 1 c 227 484 m 60 Y 193 X 76 Y 192 X -9 Y 193 X -42 Y 193 X -35 Y 193 X -22 Y 192 X -12 Y 193 X -7 Y 193 X -3 Y 193 X 5 Y 192 X -11 Y f 0.54 0.06 0.06 c 0.999 0.999 0.999 c black 3 lw
 0.999 0.999 0.999 c 227 484 m 50 Y 193 X 64 Y 192 X -5 Y 193 X -35 Y 193 X -30 Y 193 X -20 Y 192 X -10 Y 193 X -6 Y 193 X -3 Y 193 X 5 Y 192 X -10 Y f 0.54 0.06 0.06 c 0.999 0.999 0.999 c 0.54 0.06 0.06 c 1 1 1 c black 0.54 0.06 0.06 c black 3 lw
 0.54 0.06 0.06 c 227 484 m 50 Y 193 X 64 Y 192 X -5 Y 193 X -35 Y 193 X -30 Y 193 X -20 Y 192 X -10 Y 193 X -6 Y 193 X -3 Y 193 X 5 Y 192 X -10 Y f 1 0 1 c 0.999 0.999 0.999 c black 3 lw 0.999 0.999 0.999 c 227 484 m 16 Y 193 X 19 Y 192 X -5 Y 193 X
 -12 Y 193 X -8 Y 193 X -5 Y 192 X -3 Y 193 X -1 Y 193 X -1 Y 193 X 1 Y 192 X -1 Y f 1 0 1 c 0.999 0.999 0.999 c 1 0 1 c 1 1 1 c black 1 0 1 c black 3 lw 1 0 1 c 227 484 m 16 Y 193 X 19 Y 192 X -5 Y 193 X -12 Y 193 X -8 Y 193 X -5 Y 192 X -3 Y 193 X
 -1 Y 193 X -1 Y 193 X 1 Y 192 X -1 Y f 0 0 1 c 0.999 0.999 0.999 c black 3 lw 0.999 0.999 0.999 c 227 484 m 10 Y 193 X 12 Y 192 X -2 Y 193 X -7 Y 193 X -6 Y 193 X -3 Y 192 X -2 Y 193 X -1 Y 193 X -1 Y 193 X 1 Y 192 X -1 Y f 0 0 1 c 0.999 0.999 0.999
 c 0 0 1 c 1 1 1 c black 0 0 1 c black 3 lw 0 0 1 c 227 484 m 10 Y 193 X 12 Y 192 X -2 Y 193 X -7 Y 193 X -6 Y 193 X -3 Y 192 X -2 Y 193 X -1 Y 193 X -1 Y 193 X 1 Y 192 X -1 Y f 0.2 0.8 0.8 c 0.999 0.999 0.999 c black 3 lw 0.999 0.999 0.999 c 227 484
 m 3 Y 193 X 5 Y 192 X -2 Y 193 X -3 Y 193 X -2 Y 193 X -1 Y 963 X f 0.2 0.8 0.8 c 0.999 0.999 0.999 c 0.2 0.8 0.8 c 1 1 1 c black 0.2 0.8 0.8 c black 3 lw 0.2 0.8 0.8 c 227 484 m 3 Y 193 X 5 Y 192 X -2 Y 193 X -3 Y 193 X -2 Y 193 X -1 Y 963 X f 1 0
 0 c 0.999 0.999 0.999 c black 3 lw 0.999 0.999 0.999 c 227 484 m 2 Y 193 X 3 Y 192 X -1 Y 193 X -2 Y 193 X -1 Y 193 X -1 Y 963 X f 1 0 0 c 0.999 0.999 0.999 c 1 0 0 c 1 1 1 c black 1 0 0 c black 3 lw 1 0 0 c 227 484 m 2 Y 193 X 3 Y 192 X -1 Y 193 X
 -2 Y 193 X -1 Y 193 X -1 Y 963 X f 1 0.84 0 c 0.999 0.999 0.999 c black 3 lw 0.999 0.999 0.999 c 227 484 m 1 Y 193 X 2 Y 192 X -1 Y 193 X -1 Y 193 X -1 Y 1156 X f 1 0.84 0 c 0.999 0.999 0.999 c 1 0.84 0 c 1 1 1 c black 1 0.84 0 c black 3 lw 1 0.84 0
 c 227 484 m 1 Y 193 X 2 Y 192 X -1 Y 193 X -1 Y 193 X -1 Y 1156 X f black 1 1 1 c black 0.6 0.6 0.6 c 3 lw 420 757 m -11 -11 d s 408 764 m -18 -18 d s 388 764 m -17 -18 d s 369 764 m -18 -18 d s 350 764 m -18 -18 d s 331 764 m -18 -18 d s 311 764 m
 -17 -18 d s 292 764 m -18 -18 d s 273 764 m -18 -18 d s 254 764 m -18 -18 d s 234 764 m -7 -7 d s 3 lw 612 892 m -1 -2 d s 607 906 m -15 -16 d s 588 906 m -16 -16 d s 569 906 m -16 -16 d s 549 906 m -15 -16 d s 530 906 m -15 -16 d s 511 906 m -16
 -16 d s 492 906 m -16 -16 d s 472 906 m -15 -16 d s 453 906 m -15 -16 d s 434 906 m -14 -15 d s 3 lw 803 794 m -8 -8 d s 784 794 m -8 -8 d s 764 794 m -7 -8 d s 745 794 m -8 -8 d s 726 794 m -8 -8 d s 707 794 m -8 -8 d s 688 794 m -8 -8 d s 668 794
 m -8 -8 d s 649 794 m -8 -8 d s 630 794 m -8 -8 d s 3 lw 994 658 m -5 -5 d s 975 658 m -5 -5 d s 956 658 m -5 -5 d s 936 658 m -4 -5 d s 917 658 m -5 -5 d s 898 658 m -5 -5 d s 879 658 m -5 -5 d s 859 658 m -4 -5 d s 840 658 m -5 -5 d s 821 658 m -5
 -5 d s 3 lw 1182 576 m -4 -3 d s 1162 576 m -3 -3 d s 1143 576 m -3 -3 d s 1124 576 m -3 -3 d s 1105 576 m -4 -3 d s 1085 576 m -3 -3 d s 1066 576 m -3 -3 d s 1047 576 m -3 -3 d s 1028 576 m -4 -3 d s 1008 576 m -3 -3 d s 3 lw 1368 532 m -2 -2 d s
 1349 532 m -2 -2 d s 1330 532 m -2 -2 d s 1311 532 m -2 -2 d s 1292 532 m -3 -2 d s 1272 532 m -2 -2 d s 1253 532 m -2 -2 d s 1234 532 m -2 -2 d s 1215 532 m -3 -2 d s 1195 532 m -2 -2 d s 3 lw 1561 513 m -2 -2 d s 1541 513 m -1 -2 d s 1522 513 m -2
 -2 d s 1503 513 m -2 -2 d s 1484 513 m -2 -2 d s 1464 513 m -1 -2 d s 1445 513 m -2 -2 d s 1426 513 m -2 -2 d s 1407 513 m -2 -2 d s 1387 513 m -1 -2 d s 3 lw 1759 499 m -1 -1 d s 1739 499 m -1 -1 d s 1720 499 m -1 -1 d s 1701 499 m -1 -1 d s 1682
 499 m -1 -1 d s 1662 499 m -1 -1 d s 1643 499 m -1 -1 d s 1624 499 m -1 -1 d s 1605 499 m -1 -1 d s 1586 499 m -2 -1 d s 3 lw 1945 493 m -1 -1 d s 1926 493 m -1 -1 d s 1906 493 m -1 Y s 1887 493 m -1 -1 d s 1868 493 m -1 -1 d s 1849 493 m -1 -1 d s
 1829 493 m -1 Y s 1810 493 m -1 -1 d s 1791 493 m -1 -1 d s 1772 493 m -1 -1 d s 3 lw 2146 502 m -1 -1 d s 2127 502 m -1 -1 d s 2108 502 m -1 -1 d s 2089 502 m -1 -1 d s 2069 502 m -1 Y s 2050 502 m -1 -1 d s 2031 502 m -1 -1 d s 2012 502 m -1 -1 d
 s 1992 502 m -1 Y s 1973 502 m -1 -1 d s black 3 lw 1 1 1 c black 323 788 m s 323 812 m s /w 24 def /w2 {w 2 div} def /w3 {w 3 div} def 323 800 m20 516 921 m 3 Y s 516 948 m 3 Y s 516 936 m20 709 794 m 1 Y s 709 818 m 1 Y s 709 807 m20 901 678 m20
 1094 584 m20 1287 540 m20 1480 519 m20 1672 503 m20 1865 491 m20 2058 506 m20 227 484 m 1927 X s 227 502 m -18 Y s 291 493 m -9 Y s 355 493 m -9 Y s 420 493 m -9 Y s 484 493 m -9 Y s 548 502 m -18 Y s 612 493 m -9 Y s 677 493 m -9 Y s 741 493 m -9 Y
 s 805 493 m -9 Y s 869 502 m -18 Y s 934 493 m -9 Y s 998 493 m -9 Y s 1062 493 m -9 Y s 1126 493 m -9 Y s 1191 502 m -18 Y s 1255 493 m -9 Y s 1319 493 m -9 Y s 1383 493 m -9 Y s 1448 493 m -9 Y s 1512 502 m -18 Y s 1576 493 m -9 Y s 1640 493 m -9
 Y s 1705 493 m -9 Y s 1769 493 m -9 Y s 1833 502 m -18 Y s 1897 493 m -9 Y s 1962 493 m -9 Y s 2026 493 m -9 Y s 2090 493 m -9 Y s 2154 502 m -18 Y s 227 1520 m 1927 X s 227 1501 m 19 Y s 291 1510 m 10 Y s 355 1510 m 10 Y s 420 1510 m 10 Y s 484
 1510 m 10 Y s 548 1501 m 19 Y s 612 1510 m 10 Y s 677 1510 m 10 Y s 741 1510 m 10 Y s 805 1510 m 10 Y s 869 1501 m 19 Y s 934 1510 m 10 Y s 998 1510 m 10 Y s 1062 1510 m 10 Y s 1126 1510 m 10 Y s 1191 1501 m 19 Y s 1255 1510 m 10 Y s 1319 1510 m 10
 Y s 1383 1510 m 10 Y s 1448 1510 m 10 Y s 1512 1501 m 19 Y s 1576 1510 m 10 Y s 1640 1510 m 10 Y s 1705 1510 m 10 Y s 1769 1510 m 10 Y s 1833 1501 m 19 Y s 1897 1510 m 10 Y s 1962 1510 m 10 Y s 2026 1510 m 10 Y s 2090 1510 m 10 Y s 2154 1501 m 19 Y
 s 227 484 m 1036 Y s 248 579 m -21 X s 237 602 m -10 X s 237 626 m -10 X s 237 650 m -10 X s 248 674 m -21 X s 237 698 m -10 X s 237 721 m -10 X s 237 745 m -10 X s 248 769 m -21 X s 237 793 m -10 X s 237 817 m -10 X s 237 840 m -10 X s 248 864 m
 -21 X s 237 888 m -10 X s 237 912 m -10 X s 237 935 m -10 X s 248 959 m -21 X s 237 983 m -10 X s 237 1007 m -10 X s 237 1031 m -10 X s 248 1054 m -21 X s 237 1078 m -10 X s 237 1102 m -10 X s 237 1126 m -10 X s 248 1150 m -21 X s 237 1173 m -10 X s
 237 1197 m -10 X s 237 1221 m -10 X s 248 1245 m -21 X s 237 1268 m -10 X s 237 1292 m -10 X s 237 1316 m -10 X s 248 1340 m -21 X s 237 1364 m -10 X s 237 1387 m -10 X s 237 1411 m -10 X s 248 1435 m -21 X s 248 579 m -21 X s 237 555 m -10 X s 237
 531 m -10 X s 237 507 m -10 X s 248 1435 m -21 X s 237 1459 m -10 X s 237 1483 m -10 X s 237 1506 m -10 X s 2154 484 m 1036 Y s 2133 579 m 21 X s 2144 602 m 10 X s 2144 626 m 10 X s 2144 650 m 10 X s 2133 674 m 21 X s 2144 698 m 10 X s 2144 721 m 10
 X s 2144 745 m 10 X s 2133 769 m 21 X s 2144 793 m 10 X s 2144 817 m 10 X s 2144 840 m 10 X s 2133 864 m 21 X s 2144 888 m 10 X s 2144 912 m 10 X s 2144 935 m 10 X s 2133 959 m 21 X s 2144 983 m 10 X s 2144 1007 m 10 X s 2144 1031 m 10 X s 2133 1054
 m 21 X s 2144 1078 m 10 X s 2144 1102 m 10 X s 2144 1126 m 10 X s 2133 1150 m 21 X s 2144 1173 m 10 X s 2144 1197 m 10 X s 2144 1221 m 10 X s 2133 1245 m 21 X s 2144 1268 m 10 X s 2144 1292 m 10 X s 2144 1316 m 10 X s 2133 1340 m 21 X s 2144 1364 m
 10 X s 2144 1387 m 10 X s 2144 1411 m 10 X s 2133 1435 m 21 X s 2133 579 m 21 X s 2144 555 m 10 X s 2144 531 m 10 X s 2144 507 m 10 X s 2133 1435 m 21 X s 2144 1459 m 10 X s 2144 1483 m 10 X s 2144 1506 m 10 X s
 gsave  2268 1103 0 472 C 1314.45 1423.98 t 0 r /Helvetica findfont 56.3093 sf 0 0 m ( Data) show NC gr  1259 1451 m 10 Y s 1259 1427 m -10 Y s 1259 1439 m20
 gsave  2268 1103 0 472 C 1808.84 1423.98 t 0 r /Helvetica findfont 56.3093 sf 0 0 m (single\255top) show NC gr 
 gsave  2268 1103 0 472 C 1779.24 1423.98 t 0 r /Helvetica-Oblique findfont 56.3093 sf 0 0 m (/) show NC gr 
 gsave  2268 1103 0 472 C 1758.52 1423.98 t 0 r /Helvetica-Oblique findfont 56.3093 sf 0 0 m (t) show NC gr  6 lw 1759 1468 m 20 X s
 gsave  2268 1103 0 472 C 1737.79 1423.98 t 0 r /Helvetica-Oblique findfont 56.3093 sf 0 0 m (t) show NC gr 
 gsave  2268 1103 0 472 C 1720.03 1423.98 t 0 r /Helvetica findfont 56.3093 sf 0 0 m ( ) show NC gr  0.06 0.54 0.06 c 3 lw 1626 1413 m 79 X 52 Y -79 X f 6 lw black
 gsave  2268 1103 0 472 C 1444.71 1349.97 t 0 r /Helvetica findfont 56.3093 sf 0 0 m (+jets) show NC gr 
 gsave  2268 1103 0 472 C 1332.21 1349.97 t 0 r /Helvetica-Oblique findfont 56.3093 sf 0 0 m (W/Z) show NC gr 
 gsave  2268 1103 0 472 C 1314.45 1349.97 t 0 r /Helvetica findfont 56.3093 sf 0 0 m ( ) show NC gr  1 0.653333 0 c 3 lw 1219 1340 m 79 X 51 Y -79 X f black
 gsave  2268 1103 0 472 C 1918.38 1349.97 t 0 r /Helvetica findfont 56.3093 sf 0 0 m (+jets) show NC gr 
 gsave  2268 1103 0 472 C 1737.79 1349.97 t 0 r /Helvetica-Oblique findfont 56.3093 sf 0 0 m (WZ/ZZ) show NC gr 
 gsave  2268 1103 0 472 C 1720.03 1349.97 t 0 r /Helvetica findfont 56.3093 sf 0 0 m ( ) show NC gr  0.413333 1 0 c 3 lw 1626 1340 m 79 X 51 Y -79 X f black
 gsave  2268 1103 0 472 C 1373.66 1275.96 t 0 r /Helvetica-Oblique findfont 56.3093 sf 0 0 m (Z) show NC gr 
 gsave  2268 1103 0 472 C 1352.93 1275.96 t 0 r /Helvetica-Oblique findfont 56.3093 sf 0 0 m (t) show NC gr  6 lw 1353 1320 m 21 X s
 gsave  2268 1103 0 472 C 1332.21 1275.96 t 0 r /Helvetica-Oblique findfont 56.3093 sf 0 0 m (t) show NC gr 
 gsave  2268 1103 0 472 C 1314.45 1275.96 t 0 r /Helvetica findfont 56.3093 sf 0 0 m ( ) show NC gr  0.6 0.2 1 c 3 lw 1219 1266 m 79 X 52 Y -79 X f 6 lw black
 gsave  2268 1103 0 472 C 1779.24 1275.96 t 0 r /Helvetica-Oblique findfont 56.3093 sf 0 0 m (W) show NC gr 
 gsave  2268 1103 0 472 C 1758.52 1275.96 t 0 r /Helvetica-Oblique findfont 56.3093 sf 0 0 m (t) show NC gr  6 lw 1759 1320 m 20 X s
 gsave  2268 1103 0 472 C 1737.79 1275.96 t 0 r /Helvetica-Oblique findfont 56.3093 sf 0 0 m (t) show NC gr 
 gsave  2268 1103 0 472 C 1720.03 1275.96 t 0 r /Helvetica findfont 56.3093 sf 0 0 m ( ) show NC gr  0.54 0.06 0.06 c 3 lw 1626 1266 m 79 X 52 Y -79 X f 6 lw black
 gsave  2268 1103 0 472 C 1332.21 1204.91 t 0 r /Helvetica-Oblique findfont 56.3093 sf 0 0 m (tZq) show NC gr 
 gsave  2268 1103 0 472 C 1314.45 1204.91 t 0 r /Helvetica findfont 56.3093 sf 0 0 m ( ) show NC gr  1 0 1 c 3 lw 1219 1193 m 79 X 51 Y -79 X f black
 gsave  2268 1103 0 472 C 1779.24 1204.91 t 0 r /Helvetica-Oblique findfont 56.3093 sf 0 0 m (H) show NC gr 
 gsave  2268 1103 0 472 C 1758.52 1204.91 t 0 r /Helvetica-Oblique findfont 56.3093 sf 0 0 m (t) show NC gr  6 lw 1759 1249 m 20 X s
 gsave  2268 1103 0 472 C 1737.79 1204.91 t 0 r /Helvetica-Oblique findfont 56.3093 sf 0 0 m (t) show NC gr 
 gsave  2268 1103 0 472 C 1720.03 1204.91 t 0 r /Helvetica findfont 56.3093 sf 0 0 m ( ) show NC gr  0 0 1 c 3 lw 1626 1193 m 79 X 51 Y -79 X f 6 lw black
 gsave  2268 1103 0 472 C 1332.21 1130.9 t 0 r /Helvetica-Oblique findfont 56.3093 sf 0 0 m (tWZ/tWH) show NC gr 
 gsave  2268 1103 0 472 C 1314.45 1130.9 t 0 r /Helvetica findfont 56.3093 sf 0 0 m ( ) show NC gr  0.2 0.8 0.8 c 3 lw 1219 1119 m 79 X 52 Y -79 X f black
 gsave  2268 1103 0 472 C 1737.79 1130.9 t 0 r /Helvetica-Oblique findfont 56.3093 sf 0 0 m (tHq) show NC gr 
 gsave  2268 1103 0 472 C 1720.03 1130.9 t 0 r /Helvetica findfont 56.3093 sf 0 0 m ( ) show NC gr  1 0 0 c 3 lw 1626 1119 m 79 X 52 Y -79 X f black
 gsave  2268 1103 0 472 C 1314.45 1056.89 t 0 r /Helvetica findfont 56.3093 sf 0 0 m ( Other) show NC gr  1 0.84 0 c 3 lw 1219 1046 m 79 X 51 Y -79 X f black
 gsave  2268 1103 0 472 C 1720.03 1056.89 t 0 r /Helvetica findfont 56.3093 sf 0 0 m ( Uncertainty) show NC gr  0.6 0.6 0.6 c 3 lw 1705 1061 m -15 -15 d s 1705 1080 m -34 -34 d s 1703 1097 m -51 -51 d s 1684 1097 m -51 -51 d s 1665 1097 m -39 -39 d s
 1646 1097 m -20 -20 d s 1626 1097 m s 1 0.84 0 c 0.6 0.6 0.6 c black
 gsave  2268 1103 0 472 C 894.061 1329.25 t 0 r /Helvetica findfont 41.4911 sf 0 0 m (\2551) show NC gr 
 gsave  2268 1103 0 472 C 399.663 1299.64 t 0 r /Helvetica findfont 62.2366 sf 0 0 m ( = 13 TeV,  139 fb) show NC gr 
 gsave  2268 1103 0 472 C 370.058 1299.64 t 0 r /Helvetica findfont 62.2366 sf 0 0 m (s) show NC gr  6 lw 349 1335 m 6 -38 d s 3 lw 355 1297 m 6 56 d s 361 1353 m 39 X s
 gsave  2268 1103 0 472 C 337.493 1201.95 t 0 r /Helvetica findfont 62.2366 sf 0 0 m ( 2L\(SS\) pre\255selection) show NC gr 
 gsave  2268 1103 0 472 C 337.493 1400.3 t 0 r /Helvetica-BoldOblique findfont 71.1276 sf 0 0 m (ATLAS) show NC gr 
 gsave  2268 1103 0 472 C 633.54 1400.3 t 0 r /Helvetica findfont 71.1276 sf 0 0 m (Internal) show NC gr 
 gr  gr showpage
end
%%EOF
