%!PS-Adobe-2.0 EPSF-2.0
%%BoundingBox:  0 0 567 396
%%Title: /lhome/ific/c/cardillo/tHq/Plots/Plots-30-05-22-PLIV-SF/2LSS_MC/Ht_CR1b3jNoZ.eps: Ht_CR1b3jNoZ
%%Creator: ROOT Version 6.20/06
%%CreationDate: Tue May 31 15:03:56 2022
%%DocumentNeededResources: ProcSet (FontSetInit)
%%EndComments
%%BeginProlog
80 dict begin
/s {stroke} def /l {lineto} def /m {moveto} def /t {translate} def
/r {rotate} def /rl {roll}  def /R {repeat} def
/d {rlineto} def /rm {rmoveto} def /gr {grestore} def /f {eofill} def
/c {setrgbcolor} def /black {0 setgray} def /sd {setdash} def
/cl {closepath} def /sf {scalefont setfont} def /lw {setlinewidth} def
/box {m dup 0 exch d exch 0 d 0 exch neg d cl} def
/NC{systemdict begin initclip end}def/C{NC box clip newpath}def
/bl {box s} def /bf {gsave box gsave f grestore 1 lw [] 0 sd s grestore} def /Y { 0 exch d} def /X { 0 d} def 
/K {{pop pop 0 moveto} exch kshow} bind def
/ita {/ang 15 def gsave [1 0 ang dup sin exch cos div 1 0 0] concat} def 
/mp {newpath /y exch def /x exch def} def
/side {[w .77 mul w .23 mul] .385 w mul sd w 0 l currentpoint t -144 r} def
/mr {mp x y w2 0 360 arc} def /m24 {mr s} def /m20 {mr f} def
/mb {mp x y w2 add m w2 neg 0 d 0 w neg d w 0 d 0 w d cl} def
/mt {mp x y w2 add m w2 neg w neg d w 0 d cl} def
/w4 {w 4 div} def
/w6 {w 6 div} def
/w8 {w 8 div} def
/m21 {mb f} def /m25 {mb s} def /m22 {mt f} def /m26{mt s} def
/m23 {mp x y w2 sub m w2 w d w neg 0 d cl f} def
/m27 {mp x y w2 add m w3 neg w2 neg d w3 w2 neg d w3 w2 d cl s} def
/m28 {mp x w2 sub y w2 sub w3 add m w3 0 d  0 w3 neg d w3 0 d 0 w3 d w3 0 d  0 w3 d w3 neg 0 d 0 w3 d w3 neg 0 d 0 w3 neg d w3 neg 0 d cl s } def
/m29 {mp gsave x w2 sub y w2 add w3 sub m currentpoint t 4 {side} repeat cl fill gr} def
/m30 {mp gsave x w2 sub y w2 add w3 sub m currentpoint t 4 {side} repeat cl s gr} def
/m31 {mp x y w2 sub m 0 w d x w2 sub y m w 0 d x w2 sub y w2 add m w w neg d x w2 sub y w2 sub m w w d s} def
/m32 {mp x y w2 sub m w2 w d w neg 0 d cl s} def
/m33 {mp x y w2 add m w3 neg w2 neg d w3 w2 neg d w3 w2 d cl f} def
/m34 {mp x w2 sub y w2 sub w3 add m w3 0 d  0 w3 neg d w3 0 d 0 w3 d w3 0 d  0 w3 d w3 neg 0 d 0 w3 d w3 neg 0 d 0 w3 neg d w3 neg 0 d cl f } def
/m35 {mp x y w2 add m w2 neg w2 neg d w2 w2 neg d w2 w2 d w2 neg w2 d x y w2 sub m 0 w d x w2 sub y m w 0 d s} def
/m36 {mb x w2 sub y w2 add m w w neg d x w2 sub y w2 sub m w w d s} def
/m37 {mp x y m w4 neg w2 d w4 neg w2 neg d w2 0 d  w4 neg w2 neg d w2 0 d w4 neg w2 d w2 0 d w4 neg w2 d w4 neg w2 neg d cl s} def
/m38 {mp x w4 sub y w2 add m w4 neg w4 neg d 0 w2 neg d w4 w4 neg d w2 0 d w4 w4 d 0 w2 d w4 neg w4 d w2 neg 0 d x y w2 sub m 0 w d x w2 sub y m w 0 d cl s} def
/m39 {mp x y m w4 neg w2 d w4 neg w2 neg d w2 0 d  w4 neg w2 neg d w2 0 d w4 neg w2 d w2 0 d w4 neg w2 d w4 neg w2 neg d cl f} def
/m40 {mp x y m w4 w2 d w4 w4 neg d w2 neg w4 neg d w2 w4 neg d w4 neg w4 neg d w4 neg w2 d w4 neg w2 neg d w4 neg w4 d w2 w4 d w2 neg w4 d w4 w4 d w4 w2 neg d cl s} def
/m41 {mp x y m w4 w2 d w4 w4 neg d w2 neg w4 neg d w2 w4 neg d w4 neg w4 neg d w4 neg w2 d w4 neg w2 neg d w4 neg w4 d w2 w4 d w2 neg w4 d w4 w4 d w4 w2 neg d cl f} def
/m42 {mp x y w2 add m w8 neg w2 -3 4 div mul d w2 -3 4 div mul w8 neg d w2 3 4 div mul w8 neg d w8 w2 -3 4 div mul d w8 w2 3 4 div mul d w2 3 4 div mul w8 d w2 -3 4 div mul w8 d w8 neg w2 3 4 div mul d cl s} def
/m43 {mp x y w2 add m w8 neg w2 -3 4 div mul d w2 -3 4 div mul w8 neg d w2 3 4 div mul w8 neg d w8 w2 -3 4 div mul d w8 w2 3 4 div mul d w2 3 4 div mul w8 d w2 -3 4 div mul w8 d w8 neg w2 3 4 div mul d cl f} def
/m44 {mp x y m w6 neg w2 d w2 2 3 div mul 0 d w6 neg w2 neg d w2 w6 d 0 w2 -2 3 div mul d w2 neg w6 d w6 w2 neg d w2 -2 3 div mul 0 d w6 w2 d w2 neg w6 neg d 0 w2 2 3 div mul d w2 w6 neg d cl s} def
/m45 {mp x y m w6 neg w2 d w2 2 3 div mul 0 d w6 neg w2 neg d w2 w6 d 0 w2 -2 3 div mul d w2 neg w6 d w6 w2 neg d w2 -2 3 div mul 0 d w6 w2 d w2 neg w6 neg d 0 w2 2 3 div mul d w2 w6 neg d cl f} def
/m46 {mp x y w4 add m w4 neg w4 d w4 neg w4 neg d  w4 w4 neg d w4 neg w4 neg d w4 w4 neg d w4 w4 d w4 w4 neg d w4 w4 d w4 neg w4 d w4 w4 d w4 neg w4 d w4 neg w4 neg d cl s} def
/m47 {mp x y w4 add m w4 neg w4 d w4 neg w4 neg d w4 w4 neg d w4 neg w4 neg d  w4 w4 neg d w4 w4 d w4 w4 neg d w4 w4 d w4 neg w4 d w4 w4 d w4 neg w4 d w4 neg w4 neg d cl f} def
/m48 {mp x y w4 add m w4 neg w4 d w4 neg w4 neg d w4 w4 neg d  w4 neg w4 neg d w4 w4 neg d w4 w4 d w4 w4 neg d w4 w4 d w4 neg w4 d w4 w4 d w4 neg w4 d w4 neg w4 neg d  w4 w4 neg d w4 neg w4 neg d w4 neg w4 d w4 w4 d cl f} def
/m49 {mp x w2 sub w3 add y w2 sub w3 add m  0 w3 neg d w3 0 d 0 w3 d w3 0 d 0 w3 d w3 neg 0 d 0 w3 d w3 neg 0 d 0 w3 neg d w3 neg 0 d 0 w3 neg d w3 0 d 0 w3 d w3 0 d 0 w3 neg d w3 neg 0 d cl f } def
/m2 {mp x y w2 sub m 0 w d x w2 sub y m w 0 d s} def
/m5 {mp x w2 sub y w2 sub m w w d x w2 sub y w2 add m w w neg d s} def
%%IncludeResource: ProcSet (FontSetInit)
%%IncludeResource: font Times-Roman
%%IncludeResource: font Times-Italic
%%IncludeResource: font Times-Bold
%%IncludeResource: font Times-BoldItalic
%%IncludeResource: font Helvetica
%%IncludeResource: font Helvetica-Oblique
%%IncludeResource: font Helvetica-Bold
%%IncludeResource: font Helvetica-BoldOblique
%%IncludeResource: font Courier
%%IncludeResource: font Courier-Oblique
%%IncludeResource: font Courier-Bold
%%IncludeResource: font Courier-BoldOblique
%%IncludeResource: font Symbol
%%IncludeResource: font ZapfDingbats
/reEncode {exch findfont dup length dict begin {1 index /FID eq  {pop pop} {def} ifelse } forall /Encoding exch def currentdict end dup /FontName get exch definefont pop } def [/Times-Bold /Times-Italic /Times-BoldItalic /Helvetica /Helvetica-Oblique
 /Helvetica-Bold /Helvetica-BoldOblique /Courier /Courier-Oblique /Courier-Bold /Courier-BoldOblique /Times-Roman /AvantGarde-Book /AvantGarde-BookOblique /AvantGarde-Demi /AvantGarde-DemiOblique /Bookman-Demi /Bookman-DemiItalic /Bookman-Light
 /Bookman-LightItalic /Helvetica-Narrow /Helvetica-Narrow-Bold /Helvetica-Narrow-BoldOblique /Helvetica-Narrow-Oblique /NewCenturySchlbk-Roman /NewCenturySchlbk-Bold /NewCenturySchlbk-BoldItalic /NewCenturySchlbk-Italic /Palatino-Bold
 /Palatino-BoldItalic /Palatino-Italic /Palatino-Roman ] {ISOLatin1Encoding reEncode } forall
%%EndProlog
%%BeginSetup
%%EndSetup
newpath  gsave  .25 .25 scale  gsave  0 0 t black[  ] 0 sd 3 lw 1 1 1 c 2268 1583 0 0 bf black 1 1 1 c 2268 475 0 0 bf black 1 1 1 c 1927 275 227 190 bf black 1927 275 227 190 bl 227 190 m 1927 X s 227 202 m -12 Y s 282 196 m -6 Y s 337 196 m -6 Y s
 392 196 m -6 Y s 447 196 m -6 Y s 502 202 m -12 Y s 557 196 m -6 Y s 612 196 m -6 Y s 667 196 m -6 Y s 722 196 m -6 Y s 778 202 m -12 Y s 833 196 m -6 Y s 888 196 m -6 Y s 943 196 m -6 Y s 998 196 m -6 Y s 1053 202 m -12 Y s 1108 196 m -6 Y s 1163
 196 m -6 Y s 1218 196 m -6 Y s 1273 196 m -6 Y s 1328 202 m -12 Y s 1383 196 m -6 Y s 1438 196 m -6 Y s 1493 196 m -6 Y s 1549 196 m -6 Y s 1604 202 m -12 Y s 1659 196 m -6 Y s 1714 196 m -6 Y s 1769 196 m -6 Y s 1824 196 m -6 Y s 1879 202 m -12 Y s
 1934 196 m -6 Y s 1989 196 m -6 Y s 2044 196 m -6 Y s 2099 196 m -6 Y s 2154 202 m -12 Y s
 gsave  2268 475 0 0 C 180.118 126.968 t 0 r /Helvetica findfont 53.4154 sf 0 0 m (300) show NC gr 
 gsave  2268 475 0 0 C 457.677 126.968 t 0 r /Helvetica findfont 53.4154 sf 0 0 m (400) show NC gr 
 gsave  2268 475 0 0 C 732.283 126.968 t 0 r /Helvetica findfont 53.4154 sf 0 0 m (500) show NC gr 
 gsave  2268 475 0 0 C 1006.89 126.968 t 0 r /Helvetica findfont 53.4154 sf 0 0 m (600) show NC gr 
 gsave  2268 475 0 0 C 1281.5 126.968 t 0 r /Helvetica findfont 53.4154 sf 0 0 m (700) show NC gr 
 gsave  2268 475 0 0 C 1559.06 126.968 t 0 r /Helvetica findfont 53.4154 sf 0 0 m (800) show NC gr 
 gsave  2268 475 0 0 C 1833.66 126.968 t 0 r /Helvetica findfont 53.4154 sf 0 0 m (900) show NC gr 
 gsave  2268 475 0 0 C 2093.5 126.968 t 0 r /Helvetica findfont 53.4154 sf 0 0 m (1000) show NC gr 
 gsave  2268 475 0 0 C 1996.06 47.2441 t 0 r /Helvetica findfont 56.3829 sf 0 0 m ( [GeV]) show NC gr 
 gsave  2268 475 0 0 C 1972.44 29.5276 t 0 r /Helvetica findfont 38.5778 sf 0 0 m (T) show NC gr 
 gsave  2268 475 0 0 C 1925.2 47.2441 t 0 r /Helvetica-Oblique findfont 56.3829 sf 0 0 m (H) show NC gr  227 465 m 1927 X s 227 453 m 12 Y s 282 459 m 6 Y s 337 459 m 6 Y s 392 459 m 6 Y s 447 459 m 6 Y s 502 453 m 12 Y s 557 459 m 6 Y s 612 459 m 6
 Y s 667 459 m 6 Y s 722 459 m 6 Y s 778 453 m 12 Y s 833 459 m 6 Y s 888 459 m 6 Y s 943 459 m 6 Y s 998 459 m 6 Y s 1053 453 m 12 Y s 1108 459 m 6 Y s 1163 459 m 6 Y s 1218 459 m 6 Y s 1273 459 m 6 Y s 1328 453 m 12 Y s 1383 459 m 6 Y s 1438 459 m
 6 Y s 1493 459 m 6 Y s 1549 459 m 6 Y s 1604 453 m 12 Y s 1659 459 m 6 Y s 1714 459 m 6 Y s 1769 459 m 6 Y s 1824 459 m 6 Y s 1879 453 m 12 Y s 1934 459 m 6 Y s 1989 459 m 6 Y s 2044 459 m 6 Y s 2099 459 m 6 Y s 2154 453 m 12 Y s 227 190 m 275 Y s
 240 242 m -13 X s 240 328 m -13 X s 240 414 m -13 X s 240 242 m -13 X s 240 414 m -13 X s
 gsave  2268 475 0 0 C 118.11 221.457 t 0 r /Helvetica findfont 53.4154 sf 0 0 m (0.5) show NC gr 
 gsave  2268 475 0 0 C 171.26 307.087 t 0 r /Helvetica findfont 53.4154 sf 0 0 m (1) show NC gr 
 gsave  2268 475 0 0 C 118.11 395.669 t 0 r /Helvetica findfont 53.4154 sf 0 0 m (1.5) show NC gr 
 gsave  2268 475 0 0 C 70.8661 233.268 t 90 r /Helvetica findfont 53.4154 sf 0 0 m (Data / SM) show NC gr  2154 190 m 275 Y s 2141 242 m 13 X s 2141 328 m 13 X s 2141 414 m 13 X s 2141 242 m 13 X s 2141 414 m 13 X s 227 190 m 1927 X s 227 465 m 1927
 X s 227 190 m 275 Y s[ 4 8] 0 sd 2154 242 m -1927 X s 2154 328 m -1927 X s 2154 414 m -1927 X s 2154 242 m -1927 X s 2154 414 m -1927 X s[  ] 0 sd 2154 190 m 275 Y s 1 1 0.6 c 137 0 227 328 bf 138 0 364 328 bf 138 0 502 328 bf 138 0 640 328 bf 137 0
 778 328 bf 138 0 915 328 bf 138 0 1053 328 bf 137 0 1191 328 bf 138 0 1328 328 bf 138 0 1466 328 bf 137 0 1604 328 bf 138 0 1741 328 bf 138 0 1879 328 bf 137 0 2017 328 bf black 0.6 0.6 0.6 c 364 328 m -9 -10 d s 355 337 m -19 -19 d s 336 337 m -20
 -19 d s 316 337 m -19 -19 d s 297 337 m -19 -19 d s 278 337 m -19 -19 d s 259 337 m -20 -19 d s 239 337 m -12 -12 d s 502 331 m -12 -13 d s 489 337 m -19 -19 d s 470 337 m -19 -19 d s 451 337 m -19 -19 d s 432 337 m -19 -19 d s 412 337 m -19 -19 d s
 393 337 m -19 -19 d s 374 337 m -10 -9 d s 640 334 m -18 -18 d s 626 339 m -23 -23 d s 607 339 m -23 -23 d s 588 339 m -23 -23 d s 568 339 m -23 -23 d s 549 339 m -23 -23 d s 530 339 m -23 -23 d s 511 339 m -9 -8 d s 778 317 m -3 -3 d s 778 337 m
 -23 -23 d s 762 341 m -26 -27 d s 743 341 m -26 -27 d s 724 341 m -26 -27 d s 705 341 m -27 -27 d s 685 341 m -26 -27 d s 666 341 m -26 -27 d s 647 341 m -7 -7 d s 915 320 m -13 -12 d s 915 340 m -32 -32 d s 904 348 m -40 -40 d s 885 348 m -40 -40 d
 s 866 348 m -40 -40 d s 846 348 m -40 -40 d s 827 348 m -40 -40 d s 808 348 m -30 -31 d s 789 348 m -11 -11 d s 1053 323 m -14 -13 d s 1053 343 m -33 -33 d s 1037 346 m -36 -36 d s 1017 346 m -35 -36 d s 998 346 m -36 -36 d s 979 346 m -36 -36 d s
 960 346 m -36 -36 d s 940 346 m -25 -26 d s 921 346 m -6 -6 d s 1191 326 m -19 -19 d s 1191 346 m -38 -39 d s 1173 348 m -40 -41 d s 1154 348 m -40 -41 d s 1135 348 m -40 -41 d s 1116 348 m -40 -41 d s 1096 348 m -40 -41 d s 1077 348 m -24 -25 d s
 1058 348 m -5 -5 d s 1328 310 m -4 -4 d s 1328 329 m -23 -23 d s 1328 349 m -42 -43 d s 1310 349 m -43 -43 d s 1290 349 m -43 -43 d s 1271 349 m -43 -43 d s 1252 349 m -43 -43 d s 1233 349 m -42 -42 d s 1213 349 m -22 -23 d s 1194 349 m -3 -3 d s
 1466 313 m -13 -13 d s 1466 332 m -32 -32 d s 1466 352 m -51 -52 d s 1450 355 m -54 -55 d s 1431 355 m -55 -55 d s 1411 355 m -54 -55 d s 1392 355 m -54 -55 d s 1373 355 m -45 -45 d s 1354 355 m -26 -26 d s 1334 355 m -6 -6 d s 1604 316 m -12 -11 d
 s 1604 335 m -31 -30 d s 1600 351 m -46 -46 d s 1580 351 m -45 -46 d s 1561 351 m -46 -46 d s 1542 351 m -46 -46 d s 1523 351 m -46 -46 d s 1503 351 m -37 -38 d s 1484 351 m -18 -19 d s 1741 300 m -7 -7 d s 1741 319 m -26 -26 d s 1741 338 m -45 -45
 d s 1741 358 m -64 -65 d s 1727 363 m -70 -70 d s 1708 363 m -70 -70 d s 1688 363 m -69 -70 d s 1669 363 m -65 -66 d s 1650 363 m -46 -47 d s 1631 363 m -27 -28 d s 1612 363 m -8 -8 d s 1879 303 m -11 -11 d s 1879 322 m -30 -30 d s 1879 341 m -49
 -49 d s 1879 361 m -68 -69 d s 1862 363 m -71 -71 d s 1843 363 m -71 -71 d s 1824 363 m -71 -71 d s 1805 363 m -64 -63 d s 1786 363 m -45 -44 d s 1766 363 m -25 -25 d s 1747 363 m -6 -5 d s 2017 306 m -19 -19 d s 2017 325 m -38 -38 d s 2017 344 m
 -57 -57 d s 2017 364 m -76 -77 d s 2002 368 m -81 -81 d s 1983 368 m -81 -81 d s 1963 368 m -80 -81 d s 1944 368 m -65 -65 d s 1925 368 m -46 -46 d s 1906 368 m -27 -27 d s 1886 368 m -7 -7 d s 2154 328 m -7 -7 d s 2142 335 m -14 -14 d s 2122 335 m
 -13 -14 d s 2103 335 m -14 -14 d s 2084 335 m -14 -14 d s 2065 335 m -14 -14 d s 2045 335 m -13 -14 d s 2026 335 m -9 -10 d s black 1 1 1 c black 296 357 m 23 Y s 296 404 m 24 Y s /w 26 def /w2 {w 2 div} def /w3 {w 3 div} def 296 392 m20 433 308 m
 24 Y s 433 355 m 24 Y s 433 344 m20 571 326 m 38 Y s 571 388 m 39 Y s 571 376 m20 709 341 m 53 Y s 709 418 m 47 Y s 709 406 m20 846 250 m 40 Y s 846 314 m 40 Y s 846 302 m20 984 232 m 50 Y s 984 306 m 50 Y s 984 294 m20 1122 277 m 87 Y s 1122 388 m
 77 Y s 1122 376 m20 1259 236 m 99 Y s 1259 359 m 99 Y s 1259 347 m20 1397 229 m 89 Y s 1397 341 m 89 Y s 1397 330 m20 1535 234 m 179 Y s 1535 436 m 29 Y s 1535 425 m20 1672 190 m 76 Y s 1672 290 m 111 Y s 1672 278 m20 1948 190 m 113 Y s 1948 327 m
 138 Y s 1948 315 m20 2085 247 m 80 Y s 2085 351 m 80 Y s 2085 339 m20 227 328 m 1927 X s 227 190 m 1927 X s 227 202 m -12 Y s 282 196 m -6 Y s 337 196 m -6 Y s 392 196 m -6 Y s 447 196 m -6 Y s 502 202 m -12 Y s 557 196 m -6 Y s 612 196 m -6 Y s 667
 196 m -6 Y s 722 196 m -6 Y s 778 202 m -12 Y s 833 196 m -6 Y s 888 196 m -6 Y s 943 196 m -6 Y s 998 196 m -6 Y s 1053 202 m -12 Y s 1108 196 m -6 Y s 1163 196 m -6 Y s 1218 196 m -6 Y s 1273 196 m -6 Y s 1328 202 m -12 Y s 1383 196 m -6 Y s 1438
 196 m -6 Y s 1493 196 m -6 Y s 1549 196 m -6 Y s 1604 202 m -12 Y s 1659 196 m -6 Y s 1714 196 m -6 Y s 1769 196 m -6 Y s 1824 196 m -6 Y s 1879 202 m -12 Y s 1934 196 m -6 Y s 1989 196 m -6 Y s 2044 196 m -6 Y s 2099 196 m -6 Y s 2154 202 m -12 Y s
 227 465 m 1927 X s 227 453 m 12 Y s 282 459 m 6 Y s 337 459 m 6 Y s 392 459 m 6 Y s 447 459 m 6 Y s 502 453 m 12 Y s 557 459 m 6 Y s 612 459 m 6 Y s 667 459 m 6 Y s 722 459 m 6 Y s 778 453 m 12 Y s 833 459 m 6 Y s 888 459 m 6 Y s 943 459 m 6 Y s 998
 459 m 6 Y s 1053 453 m 12 Y s 1108 459 m 6 Y s 1163 459 m 6 Y s 1218 459 m 6 Y s 1273 459 m 6 Y s 1328 453 m 12 Y s 1383 459 m 6 Y s 1438 459 m 6 Y s 1493 459 m 6 Y s 1549 459 m 6 Y s 1604 453 m 12 Y s 1659 459 m 6 Y s 1714 459 m 6 Y s 1769 459 m 6
 Y s 1824 459 m 6 Y s 1879 453 m 12 Y s 1934 459 m 6 Y s 1989 459 m 6 Y s 2044 459 m 6 Y s 2099 459 m 6 Y s 2154 453 m 12 Y s 227 190 m 275 Y s 240 242 m -13 X s 240 328 m -13 X s 240 414 m -13 X s 240 242 m -13 X s 240 414 m -13 X s 2154 190 m 275 Y
 s 2141 242 m 13 X s 2141 328 m 13 X s 2141 414 m 13 X s 2141 242 m 13 X s 2141 414 m 13 X s 1 1 1 c 2268 1108 0 475 bf black 1 1 1 c 1927 1041 227 486 bf black 1927 1041 227 486 bl 1 1 1 c black 3 lw 227 486 m 1927 X s 227 505 m -19 Y s 282 495 m -9
 Y s 337 495 m -9 Y s 392 495 m -9 Y s 447 495 m -9 Y s 502 505 m -19 Y s 557 495 m -9 Y s 612 495 m -9 Y s 667 495 m -9 Y s 722 495 m -9 Y s 778 505 m -19 Y s 833 495 m -9 Y s 888 495 m -9 Y s 943 495 m -9 Y s 998 495 m -9 Y s 1053 505 m -19 Y s
 1108 495 m -9 Y s 1163 495 m -9 Y s 1218 495 m -9 Y s 1273 495 m -9 Y s 1328 505 m -19 Y s 1383 495 m -9 Y s 1438 495 m -9 Y s 1493 495 m -9 Y s 1549 495 m -9 Y s 1604 505 m -19 Y s 1659 495 m -9 Y s 1714 495 m -9 Y s 1769 495 m -9 Y s 1824 495 m -9
 Y s 1879 505 m -19 Y s 1934 495 m -9 Y s 1989 495 m -9 Y s 2044 495 m -9 Y s 2099 495 m -9 Y s 2154 505 m -19 Y s
 gsave  2268 1108 0 475 C 2061.02 404.528 t 0 r /Helvetica findfont 32.4976 sf 0 0 m ( [GeV]) show NC gr 
 gsave  2268 1108 0 475 C 2046.26 392.717 t 0 r /Helvetica findfont 20.6803 sf 0 0 m (T) show NC gr 
 gsave  2268 1108 0 475 C 2019.69 404.528 t 0 r /Helvetica-Oblique findfont 32.4976 sf 0 0 m (H) show NC gr  227 1527 m 1927 X s 227 1508 m 19 Y s 282 1518 m 9 Y s 337 1518 m 9 Y s 392 1518 m 9 Y s 447 1518 m 9 Y s 502 1508 m 19 Y s 557 1518 m 9 Y s
 612 1518 m 9 Y s 667 1518 m 9 Y s 722 1518 m 9 Y s 778 1508 m 19 Y s 833 1518 m 9 Y s 888 1518 m 9 Y s 943 1518 m 9 Y s 998 1518 m 9 Y s 1053 1508 m 19 Y s 1108 1518 m 9 Y s 1163 1518 m 9 Y s 1218 1518 m 9 Y s 1273 1518 m 9 Y s 1328 1508 m 19 Y s
 1383 1518 m 9 Y s 1438 1518 m 9 Y s 1493 1518 m 9 Y s 1549 1518 m 9 Y s 1604 1508 m 19 Y s 1659 1518 m 9 Y s 1714 1518 m 9 Y s 1769 1518 m 9 Y s 1824 1518 m 9 Y s 1879 1508 m 19 Y s 1934 1518 m 9 Y s 1989 1518 m 9 Y s 2044 1518 m 9 Y s 2099 1518 m 9
 Y s 2154 1508 m 19 Y s 227 486 m 1041 Y s 248 653 m -21 X s 237 687 m -10 X s 237 720 m -10 X s 237 754 m -10 X s 237 787 m -10 X s 248 821 m -21 X s 237 854 m -10 X s 237 888 m -10 X s 237 921 m -10 X s 237 955 m -10 X s 248 988 m -21 X s 237 1022
 m -10 X s 237 1055 m -10 X s 237 1089 m -10 X s 237 1122 m -10 X s 248 1156 m -21 X s 237 1189 m -10 X s 237 1223 m -10 X s 237 1257 m -10 X s 237 1290 m -10 X s 248 1324 m -21 X s 237 1357 m -10 X s 237 1391 m -10 X s 237 1424 m -10 X s 237 1458 m
 -10 X s 248 1491 m -21 X s 248 653 m -21 X s 237 620 m -10 X s 237 586 m -10 X s 237 553 m -10 X s 237 519 m -10 X s 248 1491 m -21 X s 237 1525 m -10 X s
 gsave  2268 1108 0 475 C 141.732 634.843 t 0 r /Helvetica findfont 53.178 sf 0 0 m (10) show NC gr 
 gsave  2268 1108 0 475 C 141.732 800.197 t 0 r /Helvetica findfont 53.178 sf 0 0 m (20) show NC gr 
 gsave  2268 1108 0 475 C 141.732 968.504 t 0 r /Helvetica findfont 53.178 sf 0 0 m (30) show NC gr 
 gsave  2268 1108 0 475 C 141.732 1136.81 t 0 r /Helvetica findfont 53.178 sf 0 0 m (40) show NC gr 
 gsave  2268 1108 0 475 C 141.732 1305.12 t 0 r /Helvetica findfont 53.178 sf 0 0 m (50) show NC gr 
 gsave  2268 1108 0 475 C 141.732 1470.47 t 0 r /Helvetica findfont 53.178 sf 0 0 m (60) show NC gr 
 gsave  2268 1108 0 475 C 64.9606 1142.72 t 90 r /Helvetica findfont 53.178 sf 0 0 m (Events / 50 GeV) show NC gr  2154 486 m 1041 Y s 2133 653 m 21 X s 2144 687 m 10 X s 2144 720 m 10 X s 2144 754 m 10 X s 2144 787 m 10 X s 2133 821 m 21 X s 2144
 854 m 10 X s 2144 888 m 10 X s 2144 921 m 10 X s 2144 955 m 10 X s 2133 988 m 21 X s 2144 1022 m 10 X s 2144 1055 m 10 X s 2144 1089 m 10 X s 2144 1122 m 10 X s 2133 1156 m 21 X s 2144 1189 m 10 X s 2144 1223 m 10 X s 2144 1257 m 10 X s 2144 1290 m
 10 X s 2133 1324 m 21 X s 2144 1357 m 10 X s 2144 1391 m 10 X s 2144 1424 m 10 X s 2144 1458 m 10 X s 2133 1491 m 21 X s 2133 653 m 21 X s 2144 620 m 10 X s 2144 586 m 10 X s 2144 553 m 10 X s 2144 519 m 10 X s 2133 1491 m 21 X s 2144 1525 m 10 X s
 0.06 0.54 0.06 c black 3 lw 0.06 0.54 0.06 c 227 486 m 548 Y 137 X -119 Y 138 X -181 Y 138 X -75 Y 138 X -16 Y 137 X -53 Y 138 X -39 Y 138 X -20 Y 137 X 4 Y 138 X -28 Y 138 X 2 Y 137 X -3 Y 138 X -2 Y 138 X 44 Y 137 X -62 Y f 1 0.653333 0 c 0.999
 0.999 0.999 c black 3 lw 0.999 0.999 0.999 c 227 486 m 302 Y 137 X -93 Y 138 X -72 Y 138 X -37 Y 138 X -4 Y 137 X -43 Y 138 X -11 Y 138 X -9 Y 137 X -8 Y 138 X -7 Y 138 X -4 Y 137 X -1 Y 138 X 3 Y 138 X 31 Y 137 X -47 Y f 1 0.653333 0 c 0.999 0.999
 0.999 c 1 0.653333 0 c 1 1 1 c black 1 0.653333 0 c black 3 lw 1 0.653333 0 c 227 486 m 302 Y 137 X -93 Y 138 X -72 Y 138 X -37 Y 138 X -4 Y 137 X -43 Y 138 X -11 Y 138 X -9 Y 137 X -8 Y 138 X -7 Y 138 X -4 Y 137 X -1 Y 138 X 3 Y 138 X 31 Y 137 X
 -47 Y f 0.413333 1 0 c 0.999 0.999 0.999 c black 3 lw 0.999 0.999 0.999 c 227 486 m 266 Y 137 X -80 Y 138 X -55 Y 138 X -34 Y 138 X -23 Y 137 X -21 Y 138 X -12 Y 138 X -11 Y 137 X -7 Y 138 X -5 Y 138 X -4 Y 137 X -2 Y 138 X -1 Y 138 X 31 Y 137 X -42
 Y f 0.413333 1 0 c 0.999 0.999 0.999 c 0.413333 1 0 c 1 1 1 c black 0.413333 1 0 c black 3 lw 0.413333 1 0 c 227 486 m 266 Y 137 X -80 Y 138 X -55 Y 138 X -34 Y 138 X -23 Y 137 X -21 Y 138 X -12 Y 138 X -11 Y 137 X -7 Y 138 X -5 Y 138 X -4 Y 137 X
 -2 Y 138 X -1 Y 138 X 31 Y 137 X -42 Y f 0.6 0.2 1 c 0.999 0.999 0.999 c black 3 lw 0.999 0.999 0.999 c 227 486 m 198 Y 137 X -64 Y 138 X -41 Y 138 X -24 Y 138 X -21 Y 137 X -14 Y 138 X -8 Y 138 X -7 Y 137 X -4 Y 138 X -4 Y 138 X -3 Y 275 X -2 Y 138
 X 17 Y 137 X -23 Y f 0.6 0.2 1 c 0.999 0.999 0.999 c 0.6 0.2 1 c 1 1 1 c black 0.6 0.2 1 c black 3 lw 0.6 0.2 1 c 227 486 m 198 Y 137 X -64 Y 138 X -41 Y 138 X -24 Y 138 X -21 Y 137 X -14 Y 138 X -8 Y 138 X -7 Y 137 X -4 Y 138 X -4 Y 138 X -3 Y 275
 X -2 Y 138 X 17 Y 137 X -23 Y f 0.54 0.06 0.06 c 0.999 0.999 0.999 c black 3 lw 0.999 0.999 0.999 c 227 486 m 177 Y 137 X -56 Y 138 X -39 Y 138 X -22 Y 138 X -16 Y 137 X -14 Y 138 X -6 Y 138 X -7 Y 137 X -4 Y 138 X -3 Y 138 X -2 Y 137 X -1 Y 138 X
 -1 Y 138 X 15 Y 137 X -21 Y f 0.54 0.06 0.06 c 0.999 0.999 0.999 c 0.54 0.06 0.06 c 1 1 1 c black 0.54 0.06 0.06 c black 3 lw 0.54 0.06 0.06 c 227 486 m 177 Y 137 X -56 Y 138 X -39 Y 138 X -22 Y 138 X -16 Y 137 X -14 Y 138 X -6 Y 138 X -7 Y 137 X -4
 Y 138 X -3 Y 138 X -2 Y 137 X -1 Y 138 X -1 Y 138 X 15 Y 137 X -21 Y f 1 0 1 c 0.999 0.999 0.999 c black 3 lw 0.999 0.999 0.999 c 227 486 m 46 Y 137 X -16 Y 138 X -10 Y 138 X -6 Y 138 X -4 Y 137 X -4 Y 138 X -2 Y 138 X -1 Y 275 X -2 Y 551 X 1 Y 137
 X -2 Y f 1 0 1 c 0.999 0.999 0.999 c 1 0 1 c 1 1 1 c black 1 0 1 c black 3 lw 1 0 1 c 227 486 m 46 Y 137 X -16 Y 138 X -10 Y 138 X -6 Y 138 X -4 Y 137 X -4 Y 138 X -2 Y 138 X -1 Y 275 X -2 Y 551 X 1 Y 137 X -2 Y f 0 0 1 c 0.999 0.999 0.999 c black 3
 lw 0.999 0.999 0.999 c 227 486 m 19 Y 137 X -7 Y 138 X -4 Y 138 X -2 Y 138 X -2 Y 137 X -2 Y 276 X -1 Y 275 X -1 Y 551 X 2 Y 137 X -2 Y f 0 0 1 c 0.999 0.999 0.999 c 0 0 1 c 1 1 1 c black 0 0 1 c black 3 lw 0 0 1 c 227 486 m 19 Y 137 X -7 Y 138 X -4
 Y 138 X -2 Y 138 X -2 Y 137 X -2 Y 276 X -1 Y 275 X -1 Y 551 X 2 Y 137 X -2 Y f 0.2 0.8 0.8 c 0.999 0.999 0.999 c black 3 lw 0.999 0.999 0.999 c 227 486 m 7 Y 137 X -2 Y 138 X -2 Y 276 X -1 Y 137 X -1 Y 413 X -1 Y 689 X 1 Y 137 X -1 Y f 0.2 0.8 0.8
 c 0.999 0.999 0.999 c 0.2 0.8 0.8 c 1 1 1 c black 0.2 0.8 0.8 c black 3 lw 0.2 0.8 0.8 c 227 486 m 7 Y 137 X -2 Y 138 X -2 Y 276 X -1 Y 137 X -1 Y 413 X -1 Y 689 X 1 Y 137 X -1 Y f 1 0 0 c 0.999 0.999 0.999 c black 3 lw 0.999 0.999 0.999 c 227 486 m
 2 Y 137 X -1 Y 276 X -1 Y 1514 X f 1 0 0 c 0.999 0.999 0.999 c 1 0 0 c 1 1 1 c black 1 0 0 c black 3 lw 1 0 0 c 227 486 m 2 Y 137 X -1 Y 276 X -1 Y 1514 X f 1 0.84 0 c 0.999 0.999 0.999 c black 3 lw 0.999 0.999 0.999 c 227 486 m 1927 X f 1 0.84 0 c
 0.999 0.999 0.999 c 1 0.84 0 c 1 1 1 c black 1 0.84 0 c black 3 lw 1 0.84 0 c 227 486 m 1927 X f black 1 1 1 c black 0.6 0.6 0.6 c 3 lw 364 1011 m -8 -8 d s 364 1030 m -27 -27 d s 364 1050 m -46 -47 d s 360 1065 m -62 -62 d s 341 1065 m -62 -62 d s
 322 1065 m -62 -62 d s 303 1065 m -62 -62 d s 283 1065 m -56 -57 d s 264 1065 m -37 -37 d s 245 1065 m -18 -18 d s 3 lw 502 899 m -8 -8 d s 502 918 m -27 -27 d s 502 937 m -46 -46 d s 484 939 m -48 -48 d s 465 939 m -48 -48 d s 446 939 m -48 -48 d s
 427 939 m -48 -48 d s 407 939 m -43 -43 d s 388 939 m -24 -24 d s 369 939 m -5 -5 d s 3 lw 640 729 m -12 -12 d s 640 748 m -31 -31 d s 623 751 m -34 -34 d s 604 751 m -34 -34 d s 584 751 m -33 -34 d s 565 751 m -33 -34 d s 546 751 m -34 -34 d s 527
 751 m -25 -25 d s 507 751 m -5 -6 d s 3 lw 778 655 m -11 -10 d s 775 672 m -27 -27 d s 755 672 m -26 -27 d s 736 672 m -26 -27 d s 717 672 m -27 -27 d s 698 672 m -27 -27 d s 678 672 m -26 -27 d s 659 672 m -19 -20 d s 640 672 m s 3 lw 915 639 m -14
 -14 d s 915 658 m -33 -33 d s 899 662 m -37 -37 d s 880 662 m -37 -37 d s 861 662 m -37 -37 d s 842 662 m -37 -37 d s 822 662 m -37 -37 d s 803 662 m -25 -26 d s 784 662 m -6 -7 d s 3 lw 1053 585 m -6 -6 d s 1050 601 m -22 -22 d s 1031 601 m -22 -22
 d s 1011 601 m -21 -22 d s 992 601 m -22 -22 d s 973 601 m -22 -22 d s 954 601 m -22 -22 d s 934 601 m -19 -19 d s 915 601 m s 3 lw 1191 549 m -6 -5 d s 1181 559 m -15 -15 d s 1162 559 m -16 -15 d s 1143 559 m -16 -15 d s 1123 559 m -15 -15 d s 1104
 559 m -15 -15 d s 1085 559 m -16 -15 d s 1066 559 m -13 -13 d s 3 lw 1328 533 m -7 -8 d s 1313 537 m -12 -12 d s 1293 537 m -11 -12 d s 1274 537 m -11 -12 d s 1255 537 m -11 -12 d s 1236 537 m -12 -12 d s 1216 537 m -11 -12 d s 1197 537 m -6 -7 d s
 3 lw 1466 536 m -8 -8 d s 1454 543 m -16 -15 d s 1435 543 m -16 -15 d s 1416 543 m -16 -15 d s 1396 543 m -15 -15 d s 1377 543 m -16 -15 d s 1358 543 m -16 -15 d s 1339 543 m -11 -10 d s 3 lw 1594 510 m -6 -6 d s 1575 510 m -6 -6 d s 1555 510 m -5
 -6 d s 1536 510 m -6 -6 d s 1517 510 m -6 -6 d s 1498 510 m -6 -6 d s 1478 510 m -5 -6 d s 3 lw 1733 514 m -10 -10 d s 1713 514 m -9 -10 d s 1694 514 m -9 -10 d s 1675 514 m -10 -10 d s 1656 514 m -10 -10 d s 1636 514 m -9 -10 d s 1617 514 m -9 -10
 d s 3 lw 1879 506 m -5 -4 d s 1863 510 m -8 -8 d s 1844 510 m -8 -8 d s 1825 510 m -9 -8 d s 1805 510 m -8 -8 d s 1786 510 m -8 -8 d s 1767 510 m -8 -8 d s 1748 510 m -7 -7 d s 3 lw 2015 508 m -8 -8 d s 1996 508 m -9 -8 d s 1977 508 m -9 -8 d s 1958
 508 m -9 -8 d s 1938 508 m -8 -8 d s 1919 508 m -8 -8 d s 1900 508 m -9 -8 d s 1881 508 m -2 -2 d s 3 lw 2154 551 m -5 -5 d s 2135 551 m -5 -5 d s 2116 551 m -5 -5 d s 2097 551 m -5 -5 d s 2078 551 m -6 -5 d s 2058 551 m -5 -5 d s 2039 551 m -5 -5 d
 s 2020 551 m -3 -3 d s black 3 lw 1 1 1 c black 296 1127 m 101 Y s 296 1252 m 100 Y s /w 24 def /w2 {w 2 div} def /w3 {w 3 div} def 296 1240 m20 433 866 m 77 Y s 433 967 m 77 Y s 433 955 m20 571 731 m 61 Y s 571 816 m 61 Y s 571 804 m20 709 672 m 53
 Y s 709 749 m 53 Y s 709 737 m20 846 572 m 36 Y s 846 632 m 35 Y s 846 620 m20 984 532 m 26 Y s 984 581 m 26 Y s 984 569 m20 1122 532 m 26 Y s 1122 581 m 26 Y s 1122 569 m20 1259 507 m 17 Y s 1259 548 m 17 Y s 1259 536 m20 1397 507 m 17 Y s 1397 548
 m 17 Y s 1397 536 m20 1535 496 m 11 Y s 1535 531 m 12 Y s 1535 519 m20 1672 486 m 5 Y s 1672 514 m 5 Y s 1672 502 m20 1948 486 m 5 Y s 1948 514 m 5 Y s 1948 502 m20 2085 519 m 22 Y s 2085 565 m 21 Y s 2085 553 m20 227 486 m 1927 X s 227 505 m -19 Y
 s 282 495 m -9 Y s 337 495 m -9 Y s 392 495 m -9 Y s 447 495 m -9 Y s 502 505 m -19 Y s 557 495 m -9 Y s 612 495 m -9 Y s 667 495 m -9 Y s 722 495 m -9 Y s 778 505 m -19 Y s 833 495 m -9 Y s 888 495 m -9 Y s 943 495 m -9 Y s 998 495 m -9 Y s 1053
 505 m -19 Y s 1108 495 m -9 Y s 1163 495 m -9 Y s 1218 495 m -9 Y s 1273 495 m -9 Y s 1328 505 m -19 Y s 1383 495 m -9 Y s 1438 495 m -9 Y s 1493 495 m -9 Y s 1549 495 m -9 Y s 1604 505 m -19 Y s 1659 495 m -9 Y s 1714 495 m -9 Y s 1769 495 m -9 Y s
 1824 495 m -9 Y s 1879 505 m -19 Y s 1934 495 m -9 Y s 1989 495 m -9 Y s 2044 495 m -9 Y s 2099 495 m -9 Y s 2154 505 m -19 Y s 227 1527 m 1927 X s 227 1508 m 19 Y s 282 1518 m 9 Y s 337 1518 m 9 Y s 392 1518 m 9 Y s 447 1518 m 9 Y s 502 1508 m 19 Y
 s 557 1518 m 9 Y s 612 1518 m 9 Y s 667 1518 m 9 Y s 722 1518 m 9 Y s 778 1508 m 19 Y s 833 1518 m 9 Y s 888 1518 m 9 Y s 943 1518 m 9 Y s 998 1518 m 9 Y s 1053 1508 m 19 Y s 1108 1518 m 9 Y s 1163 1518 m 9 Y s 1218 1518 m 9 Y s 1273 1518 m 9 Y s
 1328 1508 m 19 Y s 1383 1518 m 9 Y s 1438 1518 m 9 Y s 1493 1518 m 9 Y s 1549 1518 m 9 Y s 1604 1508 m 19 Y s 1659 1518 m 9 Y s 1714 1518 m 9 Y s 1769 1518 m 9 Y s 1824 1518 m 9 Y s 1879 1508 m 19 Y s 1934 1518 m 9 Y s 1989 1518 m 9 Y s 2044 1518 m
 9 Y s 2099 1518 m 9 Y s 2154 1508 m 19 Y s 227 486 m 1041 Y s 248 653 m -21 X s 237 687 m -10 X s 237 720 m -10 X s 237 754 m -10 X s 237 787 m -10 X s 248 821 m -21 X s 237 854 m -10 X s 237 888 m -10 X s 237 921 m -10 X s 237 955 m -10 X s 248 988
 m -21 X s 237 1022 m -10 X s 237 1055 m -10 X s 237 1089 m -10 X s 237 1122 m -10 X s 248 1156 m -21 X s 237 1189 m -10 X s 237 1223 m -10 X s 237 1257 m -10 X s 237 1290 m -10 X s 248 1324 m -21 X s 237 1357 m -10 X s 237 1391 m -10 X s 237 1424 m
 -10 X s 237 1458 m -10 X s 248 1491 m -21 X s 248 653 m -21 X s 237 620 m -10 X s 237 586 m -10 X s 237 553 m -10 X s 237 519 m -10 X s 248 1491 m -21 X s 237 1525 m -10 X s 2154 486 m 1041 Y s 2133 653 m 21 X s 2144 687 m 10 X s 2144 720 m 10 X s
 2144 754 m 10 X s 2144 787 m 10 X s 2133 821 m 21 X s 2144 854 m 10 X s 2144 888 m 10 X s 2144 921 m 10 X s 2144 955 m 10 X s 2133 988 m 21 X s 2144 1022 m 10 X s 2144 1055 m 10 X s 2144 1089 m 10 X s 2144 1122 m 10 X s 2133 1156 m 21 X s 2144 1189
 m 10 X s 2144 1223 m 10 X s 2144 1257 m 10 X s 2144 1290 m 10 X s 2133 1324 m 21 X s 2144 1357 m 10 X s 2144 1391 m 10 X s 2144 1424 m 10 X s 2144 1458 m 10 X s 2133 1491 m 21 X s 2133 653 m 21 X s 2144 620 m 10 X s 2144 586 m 10 X s 2144 553 m 10 X
 s 2144 519 m 10 X s 2133 1491 m 21 X s 2144 1525 m 10 X s
 gsave  2268 1108 0 475 C 1313.98 1432.09 t 0 r /Helvetica findfont 56.1323 sf 0 0 m ( Data) show NC gr  1259 1458 m 10 Y s 1259 1434 m -10 Y s 1259 1446 m20
 gsave  2268 1108 0 475 C 1810.04 1432.09 t 0 r /Helvetica findfont 56.1323 sf 0 0 m (single\255top) show NC gr 
 gsave  2268 1108 0 475 C 1780.51 1432.09 t 0 r /Helvetica-Oblique findfont 56.1323 sf 0 0 m (/) show NC gr 
 gsave  2268 1108 0 475 C 1759.84 1432.09 t 0 r /Helvetica-Oblique findfont 56.1323 sf 0 0 m (t) show NC gr  6 lw 1760 1476 m 21 X s
 gsave  2268 1108 0 475 C 1739.17 1432.09 t 0 r /Helvetica-Oblique findfont 56.1323 sf 0 0 m (t) show NC gr 
 gsave  2268 1108 0 475 C 1721.46 1432.09 t 0 r /Helvetica findfont 56.1323 sf 0 0 m ( ) show NC gr  0.06 0.54 0.06 c 3 lw 1626 1420 m 79 X 52 Y -79 X f 6 lw black
 gsave  2268 1108 0 475 C 1443.9 1358.27 t 0 r /Helvetica findfont 56.1323 sf 0 0 m (+jets) show NC gr 
 gsave  2268 1108 0 475 C 1331.69 1358.27 t 0 r /Helvetica-Oblique findfont 56.1323 sf 0 0 m (W/Z) show NC gr 
 gsave  2268 1108 0 475 C 1313.98 1358.27 t 0 r /Helvetica findfont 56.1323 sf 0 0 m ( ) show NC gr  1 0.653333 0 c 3 lw 1219 1346 m 79 X 52 Y -79 X f black
 gsave  2268 1108 0 475 C 1919.29 1358.27 t 0 r /Helvetica findfont 56.1323 sf 0 0 m (+jets) show NC gr 
 gsave  2268 1108 0 475 C 1739.17 1358.27 t 0 r /Helvetica-Oblique findfont 56.1323 sf 0 0 m (WZ/ZZ) show NC gr 
 gsave  2268 1108 0 475 C 1721.46 1358.27 t 0 r /Helvetica findfont 56.1323 sf 0 0 m ( ) show NC gr  0.413333 1 0 c 3 lw 1626 1346 m 79 X 52 Y -79 X f black
 gsave  2268 1108 0 475 C 1373.03 1284.45 t 0 r /Helvetica-Oblique findfont 56.1323 sf 0 0 m (Z) show NC gr 
 gsave  2268 1108 0 475 C 1352.36 1284.45 t 0 r /Helvetica-Oblique findfont 56.1323 sf 0 0 m (t) show NC gr  6 lw 1352 1329 m 21 X s
 gsave  2268 1108 0 475 C 1331.69 1284.45 t 0 r /Helvetica-Oblique findfont 56.1323 sf 0 0 m (t) show NC gr 
 gsave  2268 1108 0 475 C 1313.98 1284.45 t 0 r /Helvetica findfont 56.1323 sf 0 0 m ( ) show NC gr  0.6 0.2 1 c 3 lw 1219 1272 m 79 X 52 Y -79 X f 6 lw black
 gsave  2268 1108 0 475 C 1780.51 1284.45 t 0 r /Helvetica-Oblique findfont 56.1323 sf 0 0 m (W) show NC gr 
 gsave  2268 1108 0 475 C 1759.84 1284.45 t 0 r /Helvetica-Oblique findfont 56.1323 sf 0 0 m (t) show NC gr  6 lw 1760 1329 m 21 X s
 gsave  2268 1108 0 475 C 1739.17 1284.45 t 0 r /Helvetica-Oblique findfont 56.1323 sf 0 0 m (t) show NC gr 
 gsave  2268 1108 0 475 C 1721.46 1284.45 t 0 r /Helvetica findfont 56.1323 sf 0 0 m ( ) show NC gr  0.54 0.06 0.06 c 3 lw 1626 1272 m 79 X 52 Y -79 X f 6 lw black
 gsave  2268 1108 0 475 C 1331.69 1210.63 t 0 r /Helvetica-Oblique findfont 56.1323 sf 0 0 m (tZq) show NC gr 
 gsave  2268 1108 0 475 C 1313.98 1210.63 t 0 r /Helvetica findfont 56.1323 sf 0 0 m ( ) show NC gr  1 0 1 c 3 lw 1219 1199 m 79 X 51 Y -79 X f black
 gsave  2268 1108 0 475 C 1780.51 1210.63 t 0 r /Helvetica-Oblique findfont 56.1323 sf 0 0 m (H) show NC gr 
 gsave  2268 1108 0 475 C 1759.84 1210.63 t 0 r /Helvetica-Oblique findfont 56.1323 sf 0 0 m (t) show NC gr  6 lw 1760 1255 m 21 X s
 gsave  2268 1108 0 475 C 1739.17 1210.63 t 0 r /Helvetica-Oblique findfont 56.1323 sf 0 0 m (t) show NC gr 
 gsave  2268 1108 0 475 C 1721.46 1210.63 t 0 r /Helvetica findfont 56.1323 sf 0 0 m ( ) show NC gr  0 0 1 c 3 lw 1626 1199 m 79 X 51 Y -79 X f 6 lw black
 gsave  2268 1108 0 475 C 1331.69 1136.81 t 0 r /Helvetica-Oblique findfont 56.1323 sf 0 0 m (tWZ/tWH) show NC gr 
 gsave  2268 1108 0 475 C 1313.98 1136.81 t 0 r /Helvetica findfont 56.1323 sf 0 0 m ( ) show NC gr  0.2 0.8 0.8 c 3 lw 1219 1125 m 79 X 51 Y -79 X f black
 gsave  2268 1108 0 475 C 1739.17 1136.81 t 0 r /Helvetica-Oblique findfont 56.1323 sf 0 0 m (tHq) show NC gr 
 gsave  2268 1108 0 475 C 1721.46 1136.81 t 0 r /Helvetica findfont 56.1323 sf 0 0 m ( ) show NC gr  1 0 0 c 3 lw 1626 1125 m 79 X 51 Y -79 X f black
 gsave  2268 1108 0 475 C 1313.98 1062.99 t 0 r /Helvetica findfont 56.1323 sf 0 0 m ( Other) show NC gr  1 0.84 0 c 3 lw 1219 1051 m 79 X 52 Y -79 X f black
 gsave  2268 1108 0 475 C 1721.46 1062.99 t 0 r /Helvetica findfont 56.1323 sf 0 0 m ( Uncertainty) show NC gr  0.6 0.6 0.6 c 3 lw 1705 1063 m -12 -12 d s 1705 1082 m -31 -31 d s 1705 1101 m -50 -50 d s 1687 1103 m -51 -52 d s 1668 1103 m -42 -43 d s
 1649 1103 m -23 -24 d s 1630 1103 m -4 -4 d s 1 0.84 0 c 0.6 0.6 0.6 c black
 gsave  2268 1108 0 475 C 894.685 1337.6 t 0 r /Helvetica findfont 41.3606 sf 0 0 m (\2551) show NC gr 
 gsave  2268 1108 0 475 C 401.575 1308.07 t 0 r /Helvetica findfont 62.0409 sf 0 0 m ( = 13 TeV,  139 fb) show NC gr 
 gsave  2268 1108 0 475 C 372.047 1308.07 t 0 r /Helvetica findfont 62.0409 sf 0 0 m (s) show NC gr  6 lw 351 1344 m 6 -39 d s 3 lw 357 1305 m 9 56 d s 366 1361 m 36 X s
 gsave  2268 1108 0 475 C 947.835 1207.68 t 0 r /Helvetica findfont 62.0409 sf 0 0 m (\)) show NC gr 
 gsave  2268 1108 0 475 C 900.591 1207.68 t 0 r /Helvetica-Oblique findfont 62.0409 sf 0 0 m (Z) show NC gr 
 gsave  2268 1108 0 475 C 812.008 1207.68 t 0 r /Helvetica findfont 62.0409 sf 0 0 m (\255no) show NC gr 
 gsave  2268 1108 0 475 C 785.433 1207.68 t 0 r /Helvetica-Oblique findfont 62.0409 sf 0 0 m (j) show NC gr 
 gsave  2268 1108 0 475 C 752.953 1207.68 t 0 r /Helvetica findfont 62.0409 sf 0 0 m (3) show NC gr 
 gsave  2268 1108 0 475 C 714.567 1207.68 t 0 r /Helvetica-Oblique findfont 62.0409 sf 0 0 m (b) show NC gr 
 gsave  2268 1108 0 475 C 339.567 1207.68 t 0 r /Helvetica findfont 62.0409 sf 0 0 m ( 2L\(SS\), VR\(1) show NC gr 
 gsave  2268 1108 0 475 C 339.567 1405.51 t 0 r /Helvetica-BoldOblique findfont 73.8583 sf 0 0 m (ATLAS) show NC gr 
 gsave  2268 1108 0 475 C 634.843 1405.51 t 0 r /Helvetica findfont 73.8583 sf 0 0 m (Internal) show NC gr 
 gr  gr showpage
end
%%EOF
