%!PS-Adobe-2.0 EPSF-2.0
%%BoundingBox:  0 0 567 396
%%Title: /lhome/ific/c/cardillo/tHq/Plots/Plots-30-05-22-PLIV-SF/2LSS_MC/Ht_CRttbarEl.eps: Ht_CRttbarEl
%%Creator: ROOT Version 6.20/06
%%CreationDate: Tue May 31 15:03:57 2022
%%DocumentNeededResources: ProcSet (FontSetInit)
%%EndComments
%%BeginProlog
80 dict begin
/s {stroke} def /l {lineto} def /m {moveto} def /t {translate} def
/r {rotate} def /rl {roll}  def /R {repeat} def
/d {rlineto} def /rm {rmoveto} def /gr {grestore} def /f {eofill} def
/c {setrgbcolor} def /black {0 setgray} def /sd {setdash} def
/cl {closepath} def /sf {scalefont setfont} def /lw {setlinewidth} def
/box {m dup 0 exch d exch 0 d 0 exch neg d cl} def
/NC{systemdict begin initclip end}def/C{NC box clip newpath}def
/bl {box s} def /bf {gsave box gsave f grestore 1 lw [] 0 sd s grestore} def /Y { 0 exch d} def /X { 0 d} def 
/K {{pop pop 0 moveto} exch kshow} bind def
/ita {/ang 15 def gsave [1 0 ang dup sin exch cos div 1 0 0] concat} def 
/mp {newpath /y exch def /x exch def} def
/side {[w .77 mul w .23 mul] .385 w mul sd w 0 l currentpoint t -144 r} def
/mr {mp x y w2 0 360 arc} def /m24 {mr s} def /m20 {mr f} def
/mb {mp x y w2 add m w2 neg 0 d 0 w neg d w 0 d 0 w d cl} def
/mt {mp x y w2 add m w2 neg w neg d w 0 d cl} def
/w4 {w 4 div} def
/w6 {w 6 div} def
/w8 {w 8 div} def
/m21 {mb f} def /m25 {mb s} def /m22 {mt f} def /m26{mt s} def
/m23 {mp x y w2 sub m w2 w d w neg 0 d cl f} def
/m27 {mp x y w2 add m w3 neg w2 neg d w3 w2 neg d w3 w2 d cl s} def
/m28 {mp x w2 sub y w2 sub w3 add m w3 0 d  0 w3 neg d w3 0 d 0 w3 d w3 0 d  0 w3 d w3 neg 0 d 0 w3 d w3 neg 0 d 0 w3 neg d w3 neg 0 d cl s } def
/m29 {mp gsave x w2 sub y w2 add w3 sub m currentpoint t 4 {side} repeat cl fill gr} def
/m30 {mp gsave x w2 sub y w2 add w3 sub m currentpoint t 4 {side} repeat cl s gr} def
/m31 {mp x y w2 sub m 0 w d x w2 sub y m w 0 d x w2 sub y w2 add m w w neg d x w2 sub y w2 sub m w w d s} def
/m32 {mp x y w2 sub m w2 w d w neg 0 d cl s} def
/m33 {mp x y w2 add m w3 neg w2 neg d w3 w2 neg d w3 w2 d cl f} def
/m34 {mp x w2 sub y w2 sub w3 add m w3 0 d  0 w3 neg d w3 0 d 0 w3 d w3 0 d  0 w3 d w3 neg 0 d 0 w3 d w3 neg 0 d 0 w3 neg d w3 neg 0 d cl f } def
/m35 {mp x y w2 add m w2 neg w2 neg d w2 w2 neg d w2 w2 d w2 neg w2 d x y w2 sub m 0 w d x w2 sub y m w 0 d s} def
/m36 {mb x w2 sub y w2 add m w w neg d x w2 sub y w2 sub m w w d s} def
/m37 {mp x y m w4 neg w2 d w4 neg w2 neg d w2 0 d  w4 neg w2 neg d w2 0 d w4 neg w2 d w2 0 d w4 neg w2 d w4 neg w2 neg d cl s} def
/m38 {mp x w4 sub y w2 add m w4 neg w4 neg d 0 w2 neg d w4 w4 neg d w2 0 d w4 w4 d 0 w2 d w4 neg w4 d w2 neg 0 d x y w2 sub m 0 w d x w2 sub y m w 0 d cl s} def
/m39 {mp x y m w4 neg w2 d w4 neg w2 neg d w2 0 d  w4 neg w2 neg d w2 0 d w4 neg w2 d w2 0 d w4 neg w2 d w4 neg w2 neg d cl f} def
/m40 {mp x y m w4 w2 d w4 w4 neg d w2 neg w4 neg d w2 w4 neg d w4 neg w4 neg d w4 neg w2 d w4 neg w2 neg d w4 neg w4 d w2 w4 d w2 neg w4 d w4 w4 d w4 w2 neg d cl s} def
/m41 {mp x y m w4 w2 d w4 w4 neg d w2 neg w4 neg d w2 w4 neg d w4 neg w4 neg d w4 neg w2 d w4 neg w2 neg d w4 neg w4 d w2 w4 d w2 neg w4 d w4 w4 d w4 w2 neg d cl f} def
/m42 {mp x y w2 add m w8 neg w2 -3 4 div mul d w2 -3 4 div mul w8 neg d w2 3 4 div mul w8 neg d w8 w2 -3 4 div mul d w8 w2 3 4 div mul d w2 3 4 div mul w8 d w2 -3 4 div mul w8 d w8 neg w2 3 4 div mul d cl s} def
/m43 {mp x y w2 add m w8 neg w2 -3 4 div mul d w2 -3 4 div mul w8 neg d w2 3 4 div mul w8 neg d w8 w2 -3 4 div mul d w8 w2 3 4 div mul d w2 3 4 div mul w8 d w2 -3 4 div mul w8 d w8 neg w2 3 4 div mul d cl f} def
/m44 {mp x y m w6 neg w2 d w2 2 3 div mul 0 d w6 neg w2 neg d w2 w6 d 0 w2 -2 3 div mul d w2 neg w6 d w6 w2 neg d w2 -2 3 div mul 0 d w6 w2 d w2 neg w6 neg d 0 w2 2 3 div mul d w2 w6 neg d cl s} def
/m45 {mp x y m w6 neg w2 d w2 2 3 div mul 0 d w6 neg w2 neg d w2 w6 d 0 w2 -2 3 div mul d w2 neg w6 d w6 w2 neg d w2 -2 3 div mul 0 d w6 w2 d w2 neg w6 neg d 0 w2 2 3 div mul d w2 w6 neg d cl f} def
/m46 {mp x y w4 add m w4 neg w4 d w4 neg w4 neg d  w4 w4 neg d w4 neg w4 neg d w4 w4 neg d w4 w4 d w4 w4 neg d w4 w4 d w4 neg w4 d w4 w4 d w4 neg w4 d w4 neg w4 neg d cl s} def
/m47 {mp x y w4 add m w4 neg w4 d w4 neg w4 neg d w4 w4 neg d w4 neg w4 neg d  w4 w4 neg d w4 w4 d w4 w4 neg d w4 w4 d w4 neg w4 d w4 w4 d w4 neg w4 d w4 neg w4 neg d cl f} def
/m48 {mp x y w4 add m w4 neg w4 d w4 neg w4 neg d w4 w4 neg d  w4 neg w4 neg d w4 w4 neg d w4 w4 d w4 w4 neg d w4 w4 d w4 neg w4 d w4 w4 d w4 neg w4 d w4 neg w4 neg d  w4 w4 neg d w4 neg w4 neg d w4 neg w4 d w4 w4 d cl f} def
/m49 {mp x w2 sub w3 add y w2 sub w3 add m  0 w3 neg d w3 0 d 0 w3 d w3 0 d 0 w3 d w3 neg 0 d 0 w3 d w3 neg 0 d 0 w3 neg d w3 neg 0 d 0 w3 neg d w3 0 d 0 w3 d w3 0 d 0 w3 neg d w3 neg 0 d cl f } def
/m2 {mp x y w2 sub m 0 w d x w2 sub y m w 0 d s} def
/m5 {mp x w2 sub y w2 sub m w w d x w2 sub y w2 add m w w neg d s} def
%%IncludeResource: ProcSet (FontSetInit)
%%IncludeResource: font Times-Roman
%%IncludeResource: font Times-Italic
%%IncludeResource: font Times-Bold
%%IncludeResource: font Times-BoldItalic
%%IncludeResource: font Helvetica
%%IncludeResource: font Helvetica-Oblique
%%IncludeResource: font Helvetica-Bold
%%IncludeResource: font Helvetica-BoldOblique
%%IncludeResource: font Courier
%%IncludeResource: font Courier-Oblique
%%IncludeResource: font Courier-Bold
%%IncludeResource: font Courier-BoldOblique
%%IncludeResource: font Symbol
%%IncludeResource: font ZapfDingbats
/reEncode {exch findfont dup length dict begin {1 index /FID eq  {pop pop} {def} ifelse } forall /Encoding exch def currentdict end dup /FontName get exch definefont pop } def [/Times-Bold /Times-Italic /Times-BoldItalic /Helvetica /Helvetica-Oblique
 /Helvetica-Bold /Helvetica-BoldOblique /Courier /Courier-Oblique /Courier-Bold /Courier-BoldOblique /Times-Roman /AvantGarde-Book /AvantGarde-BookOblique /AvantGarde-Demi /AvantGarde-DemiOblique /Bookman-Demi /Bookman-DemiItalic /Bookman-Light
 /Bookman-LightItalic /Helvetica-Narrow /Helvetica-Narrow-Bold /Helvetica-Narrow-BoldOblique /Helvetica-Narrow-Oblique /NewCenturySchlbk-Roman /NewCenturySchlbk-Bold /NewCenturySchlbk-BoldItalic /NewCenturySchlbk-Italic /Palatino-Bold
 /Palatino-BoldItalic /Palatino-Italic /Palatino-Roman ] {ISOLatin1Encoding reEncode } forall
%%EndProlog
%%BeginSetup
%%EndSetup
newpath  gsave  .25 .25 scale  gsave  0 0 t black[  ] 0 sd 3 lw 1 1 1 c 2268 1583 0 0 bf black 1 1 1 c 2268 475 0 0 bf black 1 1 1 c 1927 275 227 190 bf black 1927 275 227 190 bl 227 190 m 1927 X s 227 202 m -12 Y s 282 196 m -6 Y s 337 196 m -6 Y s
 392 196 m -6 Y s 447 196 m -6 Y s 502 202 m -12 Y s 557 196 m -6 Y s 612 196 m -6 Y s 667 196 m -6 Y s 722 196 m -6 Y s 778 202 m -12 Y s 833 196 m -6 Y s 888 196 m -6 Y s 943 196 m -6 Y s 998 196 m -6 Y s 1053 202 m -12 Y s 1108 196 m -6 Y s 1163
 196 m -6 Y s 1218 196 m -6 Y s 1273 196 m -6 Y s 1328 202 m -12 Y s 1383 196 m -6 Y s 1438 196 m -6 Y s 1493 196 m -6 Y s 1549 196 m -6 Y s 1604 202 m -12 Y s 1659 196 m -6 Y s 1714 196 m -6 Y s 1769 196 m -6 Y s 1824 196 m -6 Y s 1879 202 m -12 Y s
 1934 196 m -6 Y s 1989 196 m -6 Y s 2044 196 m -6 Y s 2099 196 m -6 Y s 2154 202 m -12 Y s
 gsave  2268 475 0 0 C 180.118 126.968 t 0 r /Helvetica findfont 53.4154 sf 0 0 m (300) show NC gr 
 gsave  2268 475 0 0 C 457.677 126.968 t 0 r /Helvetica findfont 53.4154 sf 0 0 m (400) show NC gr 
 gsave  2268 475 0 0 C 732.283 126.968 t 0 r /Helvetica findfont 53.4154 sf 0 0 m (500) show NC gr 
 gsave  2268 475 0 0 C 1006.89 126.968 t 0 r /Helvetica findfont 53.4154 sf 0 0 m (600) show NC gr 
 gsave  2268 475 0 0 C 1281.5 126.968 t 0 r /Helvetica findfont 53.4154 sf 0 0 m (700) show NC gr 
 gsave  2268 475 0 0 C 1559.06 126.968 t 0 r /Helvetica findfont 53.4154 sf 0 0 m (800) show NC gr 
 gsave  2268 475 0 0 C 1833.66 126.968 t 0 r /Helvetica findfont 53.4154 sf 0 0 m (900) show NC gr 
 gsave  2268 475 0 0 C 2093.5 126.968 t 0 r /Helvetica findfont 53.4154 sf 0 0 m (1000) show NC gr 
 gsave  2268 475 0 0 C 1996.06 47.2441 t 0 r /Helvetica findfont 56.3829 sf 0 0 m ( [GeV]) show NC gr 
 gsave  2268 475 0 0 C 1972.44 29.5276 t 0 r /Helvetica findfont 38.5778 sf 0 0 m (T) show NC gr 
 gsave  2268 475 0 0 C 1925.2 47.2441 t 0 r /Helvetica-Oblique findfont 56.3829 sf 0 0 m (H) show NC gr  227 465 m 1927 X s 227 453 m 12 Y s 282 459 m 6 Y s 337 459 m 6 Y s 392 459 m 6 Y s 447 459 m 6 Y s 502 453 m 12 Y s 557 459 m 6 Y s 612 459 m 6
 Y s 667 459 m 6 Y s 722 459 m 6 Y s 778 453 m 12 Y s 833 459 m 6 Y s 888 459 m 6 Y s 943 459 m 6 Y s 998 459 m 6 Y s 1053 453 m 12 Y s 1108 459 m 6 Y s 1163 459 m 6 Y s 1218 459 m 6 Y s 1273 459 m 6 Y s 1328 453 m 12 Y s 1383 459 m 6 Y s 1438 459 m
 6 Y s 1493 459 m 6 Y s 1549 459 m 6 Y s 1604 453 m 12 Y s 1659 459 m 6 Y s 1714 459 m 6 Y s 1769 459 m 6 Y s 1824 459 m 6 Y s 1879 453 m 12 Y s 1934 459 m 6 Y s 1989 459 m 6 Y s 2044 459 m 6 Y s 2099 459 m 6 Y s 2154 453 m 12 Y s 227 190 m 275 Y s
 240 242 m -13 X s 240 328 m -13 X s 240 414 m -13 X s 240 242 m -13 X s 240 414 m -13 X s
 gsave  2268 475 0 0 C 118.11 221.457 t 0 r /Helvetica findfont 53.4154 sf 0 0 m (0.5) show NC gr 
 gsave  2268 475 0 0 C 171.26 307.087 t 0 r /Helvetica findfont 53.4154 sf 0 0 m (1) show NC gr 
 gsave  2268 475 0 0 C 118.11 395.669 t 0 r /Helvetica findfont 53.4154 sf 0 0 m (1.5) show NC gr 
 gsave  2268 475 0 0 C 70.8661 233.268 t 90 r /Helvetica findfont 53.4154 sf 0 0 m (Data / SM) show NC gr  2154 190 m 275 Y s 2141 242 m 13 X s 2141 328 m 13 X s 2141 414 m 13 X s 2141 242 m 13 X s 2141 414 m 13 X s 227 190 m 1927 X s 227 465 m 1927
 X s 227 190 m 275 Y s[ 4 8] 0 sd 2154 242 m -1927 X s 2154 328 m -1927 X s 2154 414 m -1927 X s 2154 242 m -1927 X s 2154 414 m -1927 X s[  ] 0 sd 2154 190 m 275 Y s 1 1 0.6 c 137 0 227 328 bf 138 0 364 328 bf 138 0 502 328 bf 138 0 640 328 bf 137 0
 778 328 bf 138 0 915 328 bf 138 0 1053 328 bf 137 0 1191 328 bf 138 0 1328 328 bf 138 0 1466 328 bf 137 0 1604 328 bf 138 0 1741 328 bf 138 0 1879 328 bf 137 0 2017 328 bf black 0.6 0.6 0.6 c 364 328 m -5 -6 d s 351 334 m -12 -12 d s 332 334 m -12
 -12 d s 313 334 m -12 -12 d s 293 334 m -11 -12 d s 274 334 m -12 -12 d s 255 334 m -12 -12 d s 236 334 m -9 -9 d s 502 331 m -9 -10 d s 486 334 m -13 -13 d s 467 334 m -13 -13 d s 448 334 m -13 -13 d s 429 334 m -13 -13 d s 409 334 m -13 -13 d s
 390 334 m -13 -13 d s 371 334 m -7 -6 d s 640 334 m -14 -14 d s 623 336 m -16 -16 d s 603 336 m -16 -16 d s 584 336 m -16 -16 d s 565 336 m -16 -16 d s 546 336 m -16 -16 d s 526 336 m -16 -16 d s 507 336 m -5 -5 d s 778 317 m -1 X s 778 337 m -20
 -20 d s 760 338 m -21 -21 d s 740 338 m -20 -21 d s 721 338 m -21 -21 d s 702 338 m -21 -21 d s 683 338 m -21 -21 d s 664 338 m -21 -21 d s 644 338 m -4 -4 d s 915 320 m -3 -3 d s 914 339 m -22 -22 d s 895 339 m -22 -22 d s 876 339 m -22 -22 d s 856
 339 m -21 -22 d s 837 339 m -22 -22 d s 818 339 m -22 -22 d s 799 339 m -21 -22 d s 779 339 m -1 -2 d s 1053 323 m -9 -9 d s 1051 341 m -26 -27 d s 1032 341 m -27 -27 d s 1013 341 m -27 -27 d s 994 341 m -27 -27 d s 974 341 m -26 -27 d s 955 341 m
 -27 -27 d s 936 341 m -21 -21 d s 917 341 m -2 -1 d s 1191 326 m -15 -14 d s 1188 343 m -31 -31 d s 1169 343 m -31 -31 d s 1150 343 m -32 -31 d s 1131 343 m -32 -31 d s 1111 343 m -31 -31 d s 1092 343 m -31 -31 d s 1073 343 m -20 -20 d s 1054 343 m
 -1 X s 1328 329 m -19 -19 d s 1325 345 m -35 -35 d s 1305 345 m -34 -35 d s 1286 345 m -35 -35 d s 1267 345 m -35 -35 d s 1248 345 m -35 -35 d s 1229 345 m -35 -35 d s 1209 345 m -18 -19 d s 1466 313 m -8 -8 d s 1466 332 m -27 -27 d s 1464 350 m -44
 -45 d s 1445 350 m -45 -45 d s 1426 350 m -45 -45 d s 1407 350 m -45 -45 d s 1388 350 m -45 -45 d s 1368 350 m -40 -40 d s 1349 350 m -21 -21 d s 1330 350 m -2 -1 d s 1604 316 m -13 -13 d s 1604 335 m -32 -32 d s 1601 352 m -48 -49 d s 1582 352 m
 -49 -49 d s 1562 352 m -48 -49 d s 1543 352 m -48 -49 d s 1524 352 m -48 -49 d s 1505 352 m -39 -39 d s 1485 352 m -19 -20 d s 1466 352 m s 1741 300 m -1 -2 d s 1741 319 m -20 -21 d s 1741 338 m -40 -40 d s 1741 357 m -59 -59 d s 1722 357 m -59 -59
 d s 1702 357 m -58 -59 d s 1683 357 m -59 -59 d s 1664 357 m -59 -59 d s 1645 357 m -41 -41 d s 1625 357 m -21 -22 d s 1606 357 m -2 -2 d s 1879 303 m -4 -4 d s 1879 322 m -23 -23 d s 1879 341 m -42 -42 d s 1875 357 m -58 -58 d s 1856 357 m -58 -58
 d s 1836 357 m -57 -58 d s 1817 357 m -57 -58 d s 1798 357 m -57 -57 d s 1779 357 m -38 -38 d s 1759 357 m -18 -19 d s 2017 286 m -3 -2 d s 2017 306 m -22 -22 d s 2017 325 m -41 -41 d s 2017 344 m -61 -60 d s 2017 364 m -80 -80 d s 2005 371 m -87
 -87 d s 1986 371 m -87 -87 d s 1967 371 m -88 -87 d s 1947 371 m -68 -68 d s 1928 371 m -49 -49 d s 1909 371 m -30 -30 d s 1890 371 m -11 -10 d s 2154 328 m -13 -14 d s 2148 341 m -27 -27 d s 2129 341 m -27 -27 d s 2110 341 m -27 -27 d s 2090 341 m
 -26 -27 d s 2071 341 m -27 -27 d s 2052 341 m -27 -27 d s 2033 341 m -16 -16 d s black 1 1 1 c black 296 327 m 10 Y s 296 360 m 10 Y s /w 26 def /w2 {w 2 div} def /w3 {w 3 div} def 296 349 m20 433 320 m 14 Y s 433 357 m 14 Y s 433 346 m20 571 321 m
 22 Y s 571 367 m 21 Y s 571 355 m20 709 311 m 27 Y s 709 362 m 28 Y s 709 350 m20 846 298 m 40 Y s 846 362 m 40 Y s 846 350 m20 984 245 m 37 Y s 984 305 m 37 Y s 984 294 m20 1122 237 m 45 Y s 1122 305 m 45 Y s 1122 294 m20 1259 318 m 86 Y s 1259 428
 m 37 Y s 1259 416 m20 1397 190 m 46 Y s 1397 259 m 53 Y s 1397 247 m20 1535 206 m 112 Y s 1535 341 m 111 Y s 1535 329 m20 1672 229 m 165 Y s 1672 417 m 48 Y s 1672 405 m20 2085 190 m 16 Y s 2085 230 m 51 Y s 2085 218 m20 227 328 m 1927 X s 227 190 m
 1927 X s 227 202 m -12 Y s 282 196 m -6 Y s 337 196 m -6 Y s 392 196 m -6 Y s 447 196 m -6 Y s 502 202 m -12 Y s 557 196 m -6 Y s 612 196 m -6 Y s 667 196 m -6 Y s 722 196 m -6 Y s 778 202 m -12 Y s 833 196 m -6 Y s 888 196 m -6 Y s 943 196 m -6 Y s
 998 196 m -6 Y s 1053 202 m -12 Y s 1108 196 m -6 Y s 1163 196 m -6 Y s 1218 196 m -6 Y s 1273 196 m -6 Y s 1328 202 m -12 Y s 1383 196 m -6 Y s 1438 196 m -6 Y s 1493 196 m -6 Y s 1549 196 m -6 Y s 1604 202 m -12 Y s 1659 196 m -6 Y s 1714 196 m -6
 Y s 1769 196 m -6 Y s 1824 196 m -6 Y s 1879 202 m -12 Y s 1934 196 m -6 Y s 1989 196 m -6 Y s 2044 196 m -6 Y s 2099 196 m -6 Y s 2154 202 m -12 Y s 227 465 m 1927 X s 227 453 m 12 Y s 282 459 m 6 Y s 337 459 m 6 Y s 392 459 m 6 Y s 447 459 m 6 Y s
 502 453 m 12 Y s 557 459 m 6 Y s 612 459 m 6 Y s 667 459 m 6 Y s 722 459 m 6 Y s 778 453 m 12 Y s 833 459 m 6 Y s 888 459 m 6 Y s 943 459 m 6 Y s 998 459 m 6 Y s 1053 453 m 12 Y s 1108 459 m 6 Y s 1163 459 m 6 Y s 1218 459 m 6 Y s 1273 459 m 6 Y s
 1328 453 m 12 Y s 1383 459 m 6 Y s 1438 459 m 6 Y s 1493 459 m 6 Y s 1549 459 m 6 Y s 1604 453 m 12 Y s 1659 459 m 6 Y s 1714 459 m 6 Y s 1769 459 m 6 Y s 1824 459 m 6 Y s 1879 453 m 12 Y s 1934 459 m 6 Y s 1989 459 m 6 Y s 2044 459 m 6 Y s 2099 459
 m 6 Y s 2154 453 m 12 Y s 227 190 m 275 Y s 240 242 m -13 X s 240 328 m -13 X s 240 414 m -13 X s 240 242 m -13 X s 240 414 m -13 X s 2154 190 m 275 Y s 2141 242 m 13 X s 2141 328 m 13 X s 2141 414 m 13 X s 2141 242 m 13 X s 2141 414 m 13 X s 1 1 1
 c 2268 1108 0 475 bf black 1 1 1 c 1927 1041 227 486 bf black 1927 1041 227 486 bl 1 1 1 c black 3 lw 227 486 m 1927 X s 227 505 m -19 Y s 282 495 m -9 Y s 337 495 m -9 Y s 392 495 m -9 Y s 447 495 m -9 Y s 502 505 m -19 Y s 557 495 m -9 Y s 612 495
 m -9 Y s 667 495 m -9 Y s 722 495 m -9 Y s 778 505 m -19 Y s 833 495 m -9 Y s 888 495 m -9 Y s 943 495 m -9 Y s 998 495 m -9 Y s 1053 505 m -19 Y s 1108 495 m -9 Y s 1163 495 m -9 Y s 1218 495 m -9 Y s 1273 495 m -9 Y s 1328 505 m -19 Y s 1383 495 m
 -9 Y s 1438 495 m -9 Y s 1493 495 m -9 Y s 1549 495 m -9 Y s 1604 505 m -19 Y s 1659 495 m -9 Y s 1714 495 m -9 Y s 1769 495 m -9 Y s 1824 495 m -9 Y s 1879 505 m -19 Y s 1934 495 m -9 Y s 1989 495 m -9 Y s 2044 495 m -9 Y s 2099 495 m -9 Y s 2154
 505 m -19 Y s
 gsave  2268 1108 0 475 C 2061.02 404.528 t 0 r /Helvetica findfont 32.4976 sf 0 0 m ( [GeV]) show NC gr 
 gsave  2268 1108 0 475 C 2046.26 392.717 t 0 r /Helvetica findfont 20.6803 sf 0 0 m (T) show NC gr 
 gsave  2268 1108 0 475 C 2019.69 404.528 t 0 r /Helvetica-Oblique findfont 32.4976 sf 0 0 m (H) show NC gr  227 1527 m 1927 X s 227 1508 m 19 Y s 282 1518 m 9 Y s 337 1518 m 9 Y s 392 1518 m 9 Y s 447 1518 m 9 Y s 502 1508 m 19 Y s 557 1518 m 9 Y s
 612 1518 m 9 Y s 667 1518 m 9 Y s 722 1518 m 9 Y s 778 1508 m 19 Y s 833 1518 m 9 Y s 888 1518 m 9 Y s 943 1518 m 9 Y s 998 1518 m 9 Y s 1053 1508 m 19 Y s 1108 1518 m 9 Y s 1163 1518 m 9 Y s 1218 1518 m 9 Y s 1273 1518 m 9 Y s 1328 1508 m 19 Y s
 1383 1518 m 9 Y s 1438 1518 m 9 Y s 1493 1518 m 9 Y s 1549 1518 m 9 Y s 1604 1508 m 19 Y s 1659 1518 m 9 Y s 1714 1518 m 9 Y s 1769 1518 m 9 Y s 1824 1518 m 9 Y s 1879 1508 m 19 Y s 1934 1518 m 9 Y s 1989 1518 m 9 Y s 2044 1518 m 9 Y s 2099 1518 m 9
 Y s 2154 1508 m 19 Y s 227 486 m 1041 Y s 248 636 m -21 X s 237 673 m -10 X s 237 711 m -10 X s 237 748 m -10 X s 248 786 m -21 X s 237 823 m -10 X s 237 861 m -10 X s 237 898 m -10 X s 248 936 m -21 X s 237 973 m -10 X s 237 1011 m -10 X s 237 1048
 m -10 X s 248 1086 m -21 X s 237 1123 m -10 X s 237 1161 m -10 X s 237 1198 m -10 X s 248 1236 m -21 X s 237 1273 m -10 X s 237 1311 m -10 X s 237 1348 m -10 X s 248 1386 m -21 X s 248 636 m -21 X s 237 598 m -10 X s 237 561 m -10 X s 237 523 m -10
 X s 248 1386 m -21 X s 237 1424 m -10 X s 237 1461 m -10 X s 237 1499 m -10 X s
 gsave  2268 1108 0 475 C 141.732 617.126 t 0 r /Helvetica findfont 53.178 sf 0 0 m (20) show NC gr 
 gsave  2268 1108 0 475 C 141.732 767.716 t 0 r /Helvetica findfont 53.178 sf 0 0 m (40) show NC gr 
 gsave  2268 1108 0 475 C 141.732 915.354 t 0 r /Helvetica findfont 53.178 sf 0 0 m (60) show NC gr 
 gsave  2268 1108 0 475 C 141.732 1065.94 t 0 r /Helvetica findfont 53.178 sf 0 0 m (80) show NC gr 
 gsave  2268 1108 0 475 C 112.205 1216.54 t 0 r /Helvetica findfont 53.178 sf 0 0 m (100) show NC gr 
 gsave  2268 1108 0 475 C 112.205 1367.13 t 0 r /Helvetica findfont 53.178 sf 0 0 m (120) show NC gr 
 gsave  2268 1108 0 475 C 64.9606 1142.72 t 90 r /Helvetica findfont 53.178 sf 0 0 m (Events / 50 GeV) show NC gr  2154 486 m 1041 Y s 2133 636 m 21 X s 2144 673 m 10 X s 2144 711 m 10 X s 2144 748 m 10 X s 2133 786 m 21 X s 2144 823 m 10 X s 2144
 861 m 10 X s 2144 898 m 10 X s 2133 936 m 21 X s 2144 973 m 10 X s 2144 1011 m 10 X s 2144 1048 m 10 X s 2133 1086 m 21 X s 2144 1123 m 10 X s 2144 1161 m 10 X s 2144 1198 m 10 X s 2133 1236 m 21 X s 2144 1273 m 10 X s 2144 1311 m 10 X s 2144 1348 m
 10 X s 2133 1386 m 21 X s 2133 636 m 21 X s 2144 598 m 10 X s 2144 561 m 10 X s 2144 523 m 10 X s 2133 1386 m 21 X s 2144 1424 m 10 X s 2144 1461 m 10 X s 2144 1499 m 10 X s 0.06 0.54 0.06 c black 3 lw 0.06 0.54 0.06 c 227 486 m 548 Y 137 X -168 Y
 138 X -153 Y 138 X -68 Y 138 X -66 Y 137 X -18 Y 138 X -19 Y 138 X -22 Y 137 X -6 Y 138 X -13 Y 138 X -5 Y 137 X -3 Y 138 X 1 Y 138 X 12 Y 137 X -20 Y f 1 0.653333 0 c 0.999 0.999 0.999 c black 3 lw 0.999 0.999 0.999 c 227 486 m 265 Y 137 X -81 Y
 138 X -60 Y 138 X -36 Y 138 X -31 Y 137 X -16 Y 138 X -11 Y 138 X -7 Y 137 X -8 Y 138 X -5 Y 138 X -3 Y 137 X -1 Y 138 X -2 Y 138 X 12 Y 137 X -16 Y f 1 0.653333 0 c 0.999 0.999 0.999 c 1 0.653333 0 c 1 1 1 c black 1 0.653333 0 c black 3 lw 1
 0.653333 0 c 227 486 m 265 Y 137 X -81 Y 138 X -60 Y 138 X -36 Y 138 X -31 Y 137 X -16 Y 138 X -11 Y 138 X -7 Y 137 X -8 Y 138 X -5 Y 138 X -3 Y 137 X -1 Y 138 X -2 Y 138 X 12 Y 137 X -16 Y f 0.413333 1 0 c 0.999 0.999 0.999 c black 3 lw 0.999 0.999
 0.999 c 227 486 m 250 Y 137 X -74 Y 138 X -54 Y 138 X -36 Y 138 X -29 Y 137 X -17 Y 138 X -10 Y 138 X -7 Y 137 X -8 Y 138 X -5 Y 138 X -3 Y 137 X -1 Y 138 X -2 Y 138 X 11 Y 137 X -15 Y f 0.413333 1 0 c 0.999 0.999 0.999 c 0.413333 1 0 c 1 1 1 c
 black 0.413333 1 0 c black 3 lw 0.413333 1 0 c 227 486 m 250 Y 137 X -74 Y 138 X -54 Y 138 X -36 Y 138 X -29 Y 137 X -17 Y 138 X -10 Y 138 X -7 Y 137 X -8 Y 138 X -5 Y 138 X -3 Y 137 X -1 Y 138 X -2 Y 138 X 11 Y 137 X -15 Y f 0.6 0.2 1 c 0.999 0.999
 0.999 c black 3 lw 0.999 0.999 0.999 c 227 486 m 221 Y 137 X -63 Y 138 X -46 Y 138 X -32 Y 138 X -27 Y 137 X -15 Y 138 X -11 Y 138 X -6 Y 137 X -7 Y 138 X -5 Y 138 X -2 Y 137 X -2 Y 138 X -1 Y 138 X 9 Y 137 X -13 Y f 0.6 0.2 1 c 0.999 0.999 0.999 c
 0.6 0.2 1 c 1 1 1 c black 0.6 0.2 1 c black 3 lw 0.6 0.2 1 c 227 486 m 221 Y 137 X -63 Y 138 X -46 Y 138 X -32 Y 138 X -27 Y 137 X -15 Y 138 X -11 Y 138 X -6 Y 137 X -7 Y 138 X -5 Y 138 X -2 Y 137 X -2 Y 138 X -1 Y 138 X 9 Y 137 X -13 Y f 0.54 0.06
 0.06 c 0.999 0.999 0.999 c black 3 lw 0.999 0.999 0.999 c 227 486 m 183 Y 137 X -56 Y 138 X -36 Y 138 X -26 Y 138 X -23 Y 137 X -12 Y 138 X -10 Y 138 X -3 Y 137 X -6 Y 138 X -4 Y 138 X -2 Y 137 X -1 Y 138 X -1 Y 138 X 8 Y 137 X -11 Y f 0.54 0.06
 0.06 c 0.999 0.999 0.999 c 0.54 0.06 0.06 c 1 1 1 c black 0.54 0.06 0.06 c black 3 lw 0.54 0.06 0.06 c 227 486 m 183 Y 137 X -56 Y 138 X -36 Y 138 X -26 Y 138 X -23 Y 137 X -12 Y 138 X -10 Y 138 X -3 Y 137 X -6 Y 138 X -4 Y 138 X -2 Y 137 X -1 Y 138
 X -1 Y 138 X 8 Y 137 X -11 Y f 1 0 1 c 0.999 0.999 0.999 c black 3 lw 0.999 0.999 0.999 c 227 486 m 56 Y 137 X -15 Y 138 X -13 Y 138 X -3 Y 138 X -12 Y 137 X -4 Y 138 X -3 Y 138 X -1 Y 137 X -2 Y 138 X -1 Y 275 X -1 Y 276 X 2 Y 137 X -3 Y f 1 0 1 c
 0.999 0.999 0.999 c 1 0 1 c 1 1 1 c black 1 0 1 c black 3 lw 1 0 1 c 227 486 m 56 Y 137 X -15 Y 138 X -13 Y 138 X -3 Y 138 X -12 Y 137 X -4 Y 138 X -3 Y 138 X -1 Y 137 X -2 Y 138 X -1 Y 275 X -1 Y 276 X 2 Y 137 X -3 Y f 0 0 1 c 0.999 0.999 0.999 c
 black 3 lw 0.999 0.999 0.999 c 227 486 m 36 Y 137 X -8 Y 138 X -9 Y 138 X -1 Y 138 X -9 Y 137 X -3 Y 138 X -2 Y 138 X -1 Y 137 X -1 Y 276 X -1 Y 413 X 1 Y 137 X -2 Y f 0 0 1 c 0.999 0.999 0.999 c 0 0 1 c 1 1 1 c black 0 0 1 c black 3 lw 0 0 1 c 227
 486 m 36 Y 137 X -8 Y 138 X -9 Y 138 X -1 Y 138 X -9 Y 137 X -3 Y 138 X -2 Y 138 X -1 Y 137 X -1 Y 276 X -1 Y 413 X 1 Y 137 X -2 Y f 0.2 0.8 0.8 c 0.999 0.999 0.999 c black 3 lw 0.999 0.999 0.999 c 227 486 m 7 Y 137 X -2 Y 138 X -2 Y 138 X 3 Y 138 X
 -4 Y 137 X -1 Y 413 X -1 Y 689 X 1 Y 137 X -1 Y f 0.2 0.8 0.8 c 0.999 0.999 0.999 c 0.2 0.8 0.8 c 1 1 1 c black 0.2 0.8 0.8 c black 3 lw 0.2 0.8 0.8 c 227 486 m 7 Y 137 X -2 Y 138 X -2 Y 138 X 3 Y 138 X -4 Y 137 X -1 Y 413 X -1 Y 689 X 1 Y 137 X -1
 Y f 1 0 0 c 0.999 0.999 0.999 c black 3 lw 0.999 0.999 0.999 c 227 486 m 2 Y 137 X -1 Y 276 X 4 Y 138 X -4 Y 137 X -1 Y 1239 X f 1 0 0 c 0.999 0.999 0.999 c 1 0 0 c 1 1 1 c black 1 0 0 c black 3 lw 1 0 0 c 227 486 m 2 Y 137 X -1 Y 276 X 4 Y 138 X -4
 Y 137 X -1 Y 1239 X f 1 0.84 0 c 0.999 0.999 0.999 c black 3 lw 0.999 0.999 0.999 c 227 486 m 413 X 5 Y 138 X -5 Y 1376 X f 1 0.84 0 c 0.999 0.999 0.999 c 1 0.84 0 c 1 1 1 c black 1 0.84 0 c black 3 lw 1 0.84 0 c 227 486 m 413 X 5 Y 138 X -5 Y 1376
 X f black 1 1 1 c black 0.6 0.6 0.6 c 3 lw 364 1030 m -15 -15 d s 364 1050 m -34 -35 d s 348 1053 m -37 -38 d s 329 1053 m -38 -38 d s 310 1053 m -38 -38 d s 291 1053 m -38 -38 d s 271 1053 m -37 -38 d s 252 1053 m -25 -25 d s 233 1053 m -6 -6 d s 3
 lw 502 861 m -9 -9 d s 502 880 m -28 -28 d s 484 881 m -29 -29 d s 465 881 m -30 -29 d s 445 881 m -29 -29 d s 426 881 m -29 -29 d s 407 881 m -29 -29 d s 388 881 m -24 -23 d s 368 881 m -4 -4 d s 3 lw 640 710 m -8 -8 d s 634 723 m -21 -21 d s 614
 723 m -21 -21 d s 595 723 m -21 -21 d s 576 723 m -21 -21 d s 557 723 m -21 -21 d s 538 723 m -22 -21 d s 518 723 m -16 -16 d s 3 lw 778 636 m -1 -1 d s 777 655 m -20 -20 d s 757 655 m -19 -20 d s 738 655 m -19 -20 d s 719 655 m -19 -20 d s 700 655
 m -20 -20 d s 680 655 m -19 -20 d s 661 655 m -19 -20 d s 642 655 m -2 -3 d s 3 lw 915 582 m -9 -9 d s 899 585 m -12 -12 d s 880 585 m -12 -12 d s 860 585 m -11 -12 d s 841 585 m -12 -12 d s 822 585 m -12 -12 d s 803 585 m -12 -12 d s 783 585 m -5
 -6 d s 3 lw 1053 565 m -11 -10 d s 1035 567 m -12 -12 d s 1016 567 m -12 -12 d s 996 567 m -11 -12 d s 977 567 m -12 -12 d s 958 567 m -12 -12 d s 939 567 m -12 -12 d s 919 567 m -4 -5 d s 3 lw 1188 547 m -10 -10 d s 1169 547 m -10 -10 d s 1150 547
 m -10 -10 d s 1131 547 m -11 -10 d s 1111 547 m -10 -10 d s 1092 547 m -10 -10 d s 1073 547 m -10 -10 d s 1054 547 m -1 -1 d s 3 lw 1319 524 m -7 -7 d s 1300 524 m -7 -7 d s 1281 524 m -7 -7 d s 1262 524 m -8 -7 d s 1242 524 m -7 -7 d s 1223 524 m
 -7 -7 d s 1204 524 m -7 -7 d s 3 lw 1466 517 m -7 -7 d s 1448 518 m -8 -8 d s 1428 518 m -7 -8 d s 1409 518 m -7 -8 d s 1390 518 m -8 -8 d s 1371 518 m -8 -8 d s 1351 518 m -7 -8 d s 1332 518 m -4 -4 d s 3 lw 1604 500 m -2 -1 d s 1587 503 m -5 -4 d
 s 1567 503 m -4 -4 d s 1548 503 m -4 -4 d s 1529 503 m -4 -4 d s 1510 503 m -5 -4 d s 1490 503 m -4 -4 d s 1471 503 m -4 -4 d s 3 lw 1736 498 m -4 -4 d s 1716 498 m -3 -4 d s 1697 498 m -3 -4 d s 1678 498 m -4 -4 d s 1659 498 m -4 -4 d s 1640 498 m
 -4 -4 d s 1620 498 m -3 -4 d s 3 lw 1866 494 m -2 -2 d s 1847 494 m -2 -2 d s 1828 494 m -2 -2 d s 1809 494 m -3 -2 d s 1789 494 m -2 -2 d s 1770 494 m -2 -2 d s 1751 494 m -2 -2 d s 3 lw 2003 496 m -4 -4 d s 1983 496 m -3 -4 d s 1964 496 m -4 -4 d
 s 1945 496 m -4 -4 d s 1926 496 m -4 -4 d s 1906 496 m -3 -4 d s 1887 496 m -4 -4 d s 3 lw 2150 508 m -3 -3 d s 2131 508 m -4 -3 d s 2111 508 m -3 -3 d s 2092 508 m -3 -3 d s 2073 508 m -3 -3 d s 2054 508 m -4 -3 d s 2034 508 m -3 -3 d s black 3 lw
 1 1 1 c black 296 1033 m 56 Y s 296 1113 m 56 Y s /w 24 def /w2 {w 2 div} def /w3 {w 3 div} def 296 1101 m20 433 850 m 44 Y s 433 918 m 44 Y s 433 906 m20 571 704 m 33 Y s 571 760 m 33 Y s 571 748 m20 709 629 m 25 Y s 709 678 m 25 Y s 709 666 m20
 846 563 m 16 Y s 846 603 m 16 Y s 846 591 m20 984 525 m 9 Y s 984 558 m 9 Y s 984 546 m20 1122 512 m 7 Y s 1122 543 m 6 Y s 1122 531 m20 1259 518 m 9 Y s 1259 550 m 8 Y s 1259 538 m20 1397 501 m20 1535 501 m20 1672 501 m20 1948 501 m20 2085 493 m20
 227 486 m 1927 X s 227 505 m -19 Y s 282 495 m -9 Y s 337 495 m -9 Y s 392 495 m -9 Y s 447 495 m -9 Y s 502 505 m -19 Y s 557 495 m -9 Y s 612 495 m -9 Y s 667 495 m -9 Y s 722 495 m -9 Y s 778 505 m -19 Y s 833 495 m -9 Y s 888 495 m -9 Y s 943
 495 m -9 Y s 998 495 m -9 Y s 1053 505 m -19 Y s 1108 495 m -9 Y s 1163 495 m -9 Y s 1218 495 m -9 Y s 1273 495 m -9 Y s 1328 505 m -19 Y s 1383 495 m -9 Y s 1438 495 m -9 Y s 1493 495 m -9 Y s 1549 495 m -9 Y s 1604 505 m -19 Y s 1659 495 m -9 Y s
 1714 495 m -9 Y s 1769 495 m -9 Y s 1824 495 m -9 Y s 1879 505 m -19 Y s 1934 495 m -9 Y s 1989 495 m -9 Y s 2044 495 m -9 Y s 2099 495 m -9 Y s 2154 505 m -19 Y s 227 1527 m 1927 X s 227 1508 m 19 Y s 282 1518 m 9 Y s 337 1518 m 9 Y s 392 1518 m 9
 Y s 447 1518 m 9 Y s 502 1508 m 19 Y s 557 1518 m 9 Y s 612 1518 m 9 Y s 667 1518 m 9 Y s 722 1518 m 9 Y s 778 1508 m 19 Y s 833 1518 m 9 Y s 888 1518 m 9 Y s 943 1518 m 9 Y s 998 1518 m 9 Y s 1053 1508 m 19 Y s 1108 1518 m 9 Y s 1163 1518 m 9 Y s
 1218 1518 m 9 Y s 1273 1518 m 9 Y s 1328 1508 m 19 Y s 1383 1518 m 9 Y s 1438 1518 m 9 Y s 1493 1518 m 9 Y s 1549 1518 m 9 Y s 1604 1508 m 19 Y s 1659 1518 m 9 Y s 1714 1518 m 9 Y s 1769 1518 m 9 Y s 1824 1518 m 9 Y s 1879 1508 m 19 Y s 1934 1518 m
 9 Y s 1989 1518 m 9 Y s 2044 1518 m 9 Y s 2099 1518 m 9 Y s 2154 1508 m 19 Y s 227 486 m 1041 Y s 248 636 m -21 X s 237 673 m -10 X s 237 711 m -10 X s 237 748 m -10 X s 248 786 m -21 X s 237 823 m -10 X s 237 861 m -10 X s 237 898 m -10 X s 248 936
 m -21 X s 237 973 m -10 X s 237 1011 m -10 X s 237 1048 m -10 X s 248 1086 m -21 X s 237 1123 m -10 X s 237 1161 m -10 X s 237 1198 m -10 X s 248 1236 m -21 X s 237 1273 m -10 X s 237 1311 m -10 X s 237 1348 m -10 X s 248 1386 m -21 X s 248 636 m
 -21 X s 237 598 m -10 X s 237 561 m -10 X s 237 523 m -10 X s 248 1386 m -21 X s 237 1424 m -10 X s 237 1461 m -10 X s 237 1499 m -10 X s 2154 486 m 1041 Y s 2133 636 m 21 X s 2144 673 m 10 X s 2144 711 m 10 X s 2144 748 m 10 X s 2133 786 m 21 X s
 2144 823 m 10 X s 2144 861 m 10 X s 2144 898 m 10 X s 2133 936 m 21 X s 2144 973 m 10 X s 2144 1011 m 10 X s 2144 1048 m 10 X s 2133 1086 m 21 X s 2144 1123 m 10 X s 2144 1161 m 10 X s 2144 1198 m 10 X s 2133 1236 m 21 X s 2144 1273 m 10 X s 2144
 1311 m 10 X s 2144 1348 m 10 X s 2133 1386 m 21 X s 2133 636 m 21 X s 2144 598 m 10 X s 2144 561 m 10 X s 2144 523 m 10 X s 2133 1386 m 21 X s 2144 1424 m 10 X s 2144 1461 m 10 X s 2144 1499 m 10 X s
 gsave  2268 1108 0 475 C 1313.98 1432.09 t 0 r /Helvetica findfont 56.1323 sf 0 0 m ( Data) show NC gr  1259 1458 m 10 Y s 1259 1434 m -10 Y s 1259 1446 m20
 gsave  2268 1108 0 475 C 1810.04 1432.09 t 0 r /Helvetica findfont 56.1323 sf 0 0 m (single\255top) show NC gr 
 gsave  2268 1108 0 475 C 1780.51 1432.09 t 0 r /Helvetica-Oblique findfont 56.1323 sf 0 0 m (/) show NC gr 
 gsave  2268 1108 0 475 C 1759.84 1432.09 t 0 r /Helvetica-Oblique findfont 56.1323 sf 0 0 m (t) show NC gr  6 lw 1760 1476 m 21 X s
 gsave  2268 1108 0 475 C 1739.17 1432.09 t 0 r /Helvetica-Oblique findfont 56.1323 sf 0 0 m (t) show NC gr 
 gsave  2268 1108 0 475 C 1721.46 1432.09 t 0 r /Helvetica findfont 56.1323 sf 0 0 m ( ) show NC gr  0.06 0.54 0.06 c 3 lw 1626 1420 m 79 X 52 Y -79 X f 6 lw black
 gsave  2268 1108 0 475 C 1443.9 1358.27 t 0 r /Helvetica findfont 56.1323 sf 0 0 m (+jets) show NC gr 
 gsave  2268 1108 0 475 C 1331.69 1358.27 t 0 r /Helvetica-Oblique findfont 56.1323 sf 0 0 m (W/Z) show NC gr 
 gsave  2268 1108 0 475 C 1313.98 1358.27 t 0 r /Helvetica findfont 56.1323 sf 0 0 m ( ) show NC gr  1 0.653333 0 c 3 lw 1219 1346 m 79 X 52 Y -79 X f black
 gsave  2268 1108 0 475 C 1919.29 1358.27 t 0 r /Helvetica findfont 56.1323 sf 0 0 m (+jets) show NC gr 
 gsave  2268 1108 0 475 C 1739.17 1358.27 t 0 r /Helvetica-Oblique findfont 56.1323 sf 0 0 m (WZ/ZZ) show NC gr 
 gsave  2268 1108 0 475 C 1721.46 1358.27 t 0 r /Helvetica findfont 56.1323 sf 0 0 m ( ) show NC gr  0.413333 1 0 c 3 lw 1626 1346 m 79 X 52 Y -79 X f black
 gsave  2268 1108 0 475 C 1373.03 1284.45 t 0 r /Helvetica-Oblique findfont 56.1323 sf 0 0 m (Z) show NC gr 
 gsave  2268 1108 0 475 C 1352.36 1284.45 t 0 r /Helvetica-Oblique findfont 56.1323 sf 0 0 m (t) show NC gr  6 lw 1352 1329 m 21 X s
 gsave  2268 1108 0 475 C 1331.69 1284.45 t 0 r /Helvetica-Oblique findfont 56.1323 sf 0 0 m (t) show NC gr 
 gsave  2268 1108 0 475 C 1313.98 1284.45 t 0 r /Helvetica findfont 56.1323 sf 0 0 m ( ) show NC gr  0.6 0.2 1 c 3 lw 1219 1272 m 79 X 52 Y -79 X f 6 lw black
 gsave  2268 1108 0 475 C 1780.51 1284.45 t 0 r /Helvetica-Oblique findfont 56.1323 sf 0 0 m (W) show NC gr 
 gsave  2268 1108 0 475 C 1759.84 1284.45 t 0 r /Helvetica-Oblique findfont 56.1323 sf 0 0 m (t) show NC gr  6 lw 1760 1329 m 21 X s
 gsave  2268 1108 0 475 C 1739.17 1284.45 t 0 r /Helvetica-Oblique findfont 56.1323 sf 0 0 m (t) show NC gr 
 gsave  2268 1108 0 475 C 1721.46 1284.45 t 0 r /Helvetica findfont 56.1323 sf 0 0 m ( ) show NC gr  0.54 0.06 0.06 c 3 lw 1626 1272 m 79 X 52 Y -79 X f 6 lw black
 gsave  2268 1108 0 475 C 1331.69 1210.63 t 0 r /Helvetica-Oblique findfont 56.1323 sf 0 0 m (tZq) show NC gr 
 gsave  2268 1108 0 475 C 1313.98 1210.63 t 0 r /Helvetica findfont 56.1323 sf 0 0 m ( ) show NC gr  1 0 1 c 3 lw 1219 1199 m 79 X 51 Y -79 X f black
 gsave  2268 1108 0 475 C 1780.51 1210.63 t 0 r /Helvetica-Oblique findfont 56.1323 sf 0 0 m (H) show NC gr 
 gsave  2268 1108 0 475 C 1759.84 1210.63 t 0 r /Helvetica-Oblique findfont 56.1323 sf 0 0 m (t) show NC gr  6 lw 1760 1255 m 21 X s
 gsave  2268 1108 0 475 C 1739.17 1210.63 t 0 r /Helvetica-Oblique findfont 56.1323 sf 0 0 m (t) show NC gr 
 gsave  2268 1108 0 475 C 1721.46 1210.63 t 0 r /Helvetica findfont 56.1323 sf 0 0 m ( ) show NC gr  0 0 1 c 3 lw 1626 1199 m 79 X 51 Y -79 X f 6 lw black
 gsave  2268 1108 0 475 C 1331.69 1136.81 t 0 r /Helvetica-Oblique findfont 56.1323 sf 0 0 m (tWZ/tWH) show NC gr 
 gsave  2268 1108 0 475 C 1313.98 1136.81 t 0 r /Helvetica findfont 56.1323 sf 0 0 m ( ) show NC gr  0.2 0.8 0.8 c 3 lw 1219 1125 m 79 X 51 Y -79 X f black
 gsave  2268 1108 0 475 C 1739.17 1136.81 t 0 r /Helvetica-Oblique findfont 56.1323 sf 0 0 m (tHq) show NC gr 
 gsave  2268 1108 0 475 C 1721.46 1136.81 t 0 r /Helvetica findfont 56.1323 sf 0 0 m ( ) show NC gr  1 0 0 c 3 lw 1626 1125 m 79 X 51 Y -79 X f black
 gsave  2268 1108 0 475 C 1313.98 1062.99 t 0 r /Helvetica findfont 56.1323 sf 0 0 m ( Other) show NC gr  1 0.84 0 c 3 lw 1219 1051 m 79 X 52 Y -79 X f black
 gsave  2268 1108 0 475 C 1721.46 1062.99 t 0 r /Helvetica findfont 56.1323 sf 0 0 m ( Uncertainty) show NC gr  0.6 0.6 0.6 c 3 lw 1705 1063 m -12 -12 d s 1705 1082 m -31 -31 d s 1705 1101 m -50 -50 d s 1687 1103 m -51 -52 d s 1668 1103 m -42 -43 d s
 1649 1103 m -23 -24 d s 1630 1103 m -4 -4 d s 1 0.84 0 c 0.6 0.6 0.6 c black
 gsave  2268 1108 0 475 C 894.685 1337.6 t 0 r /Helvetica findfont 41.3606 sf 0 0 m (\2551) show NC gr 
 gsave  2268 1108 0 475 C 401.575 1308.07 t 0 r /Helvetica findfont 62.0409 sf 0 0 m ( = 13 TeV,  139 fb) show NC gr 
 gsave  2268 1108 0 475 C 372.047 1308.07 t 0 r /Helvetica findfont 62.0409 sf 0 0 m (s) show NC gr  6 lw 351 1344 m 6 -39 d s 3 lw 357 1305 m 9 56 d s 366 1361 m 36 X s
 gsave  2268 1108 0 475 C 794.291 1207.68 t 0 r /Helvetica findfont 62.0409 sf 0 0 m (\)) show NC gr 
 gsave  2268 1108 0 475 C 738.189 1175.2 t 0 r /Helvetica findfont 41.3606 sf 0 0 m (HF) show NC gr 
 gsave  2268 1108 0 475 C 339.567 1207.68 t 0 r /Helvetica findfont 62.0409 sf 0 0 m ( 2L\(SS\), CR\(el) show NC gr 
 gsave  2268 1108 0 475 C 339.567 1405.51 t 0 r /Helvetica-BoldOblique findfont 73.8583 sf 0 0 m (ATLAS) show NC gr 
 gsave  2268 1108 0 475 C 634.843 1405.51 t 0 r /Helvetica findfont 73.8583 sf 0 0 m (Internal) show NC gr 
 gr  gr showpage
end
%%EOF
