%!PS-Adobe-2.0 EPSF-2.0
%%BoundingBox:  0 0 567 394
%%Title: /lhome/ific/c/cardillo/tHq/Plots/Plots-30-05-22-PLIV-SF/2LSS_MC/Ht_CRttbar.eps: Ht_CRttbar
%%Creator: ROOT Version 6.20/06
%%CreationDate: Mon May 30 19:26:16 2022
%%DocumentNeededResources: ProcSet (FontSetInit)
%%EndComments
%%BeginProlog
80 dict begin
/s {stroke} def /l {lineto} def /m {moveto} def /t {translate} def
/r {rotate} def /rl {roll}  def /R {repeat} def
/d {rlineto} def /rm {rmoveto} def /gr {grestore} def /f {eofill} def
/c {setrgbcolor} def /black {0 setgray} def /sd {setdash} def
/cl {closepath} def /sf {scalefont setfont} def /lw {setlinewidth} def
/box {m dup 0 exch d exch 0 d 0 exch neg d cl} def
/NC{systemdict begin initclip end}def/C{NC box clip newpath}def
/bl {box s} def /bf {gsave box gsave f grestore 1 lw [] 0 sd s grestore} def /Y { 0 exch d} def /X { 0 d} def 
/K {{pop pop 0 moveto} exch kshow} bind def
/ita {/ang 15 def gsave [1 0 ang dup sin exch cos div 1 0 0] concat} def 
/mp {newpath /y exch def /x exch def} def
/side {[w .77 mul w .23 mul] .385 w mul sd w 0 l currentpoint t -144 r} def
/mr {mp x y w2 0 360 arc} def /m24 {mr s} def /m20 {mr f} def
/mb {mp x y w2 add m w2 neg 0 d 0 w neg d w 0 d 0 w d cl} def
/mt {mp x y w2 add m w2 neg w neg d w 0 d cl} def
/w4 {w 4 div} def
/w6 {w 6 div} def
/w8 {w 8 div} def
/m21 {mb f} def /m25 {mb s} def /m22 {mt f} def /m26{mt s} def
/m23 {mp x y w2 sub m w2 w d w neg 0 d cl f} def
/m27 {mp x y w2 add m w3 neg w2 neg d w3 w2 neg d w3 w2 d cl s} def
/m28 {mp x w2 sub y w2 sub w3 add m w3 0 d  0 w3 neg d w3 0 d 0 w3 d w3 0 d  0 w3 d w3 neg 0 d 0 w3 d w3 neg 0 d 0 w3 neg d w3 neg 0 d cl s } def
/m29 {mp gsave x w2 sub y w2 add w3 sub m currentpoint t 4 {side} repeat cl fill gr} def
/m30 {mp gsave x w2 sub y w2 add w3 sub m currentpoint t 4 {side} repeat cl s gr} def
/m31 {mp x y w2 sub m 0 w d x w2 sub y m w 0 d x w2 sub y w2 add m w w neg d x w2 sub y w2 sub m w w d s} def
/m32 {mp x y w2 sub m w2 w d w neg 0 d cl s} def
/m33 {mp x y w2 add m w3 neg w2 neg d w3 w2 neg d w3 w2 d cl f} def
/m34 {mp x w2 sub y w2 sub w3 add m w3 0 d  0 w3 neg d w3 0 d 0 w3 d w3 0 d  0 w3 d w3 neg 0 d 0 w3 d w3 neg 0 d 0 w3 neg d w3 neg 0 d cl f } def
/m35 {mp x y w2 add m w2 neg w2 neg d w2 w2 neg d w2 w2 d w2 neg w2 d x y w2 sub m 0 w d x w2 sub y m w 0 d s} def
/m36 {mb x w2 sub y w2 add m w w neg d x w2 sub y w2 sub m w w d s} def
/m37 {mp x y m w4 neg w2 d w4 neg w2 neg d w2 0 d  w4 neg w2 neg d w2 0 d w4 neg w2 d w2 0 d w4 neg w2 d w4 neg w2 neg d cl s} def
/m38 {mp x w4 sub y w2 add m w4 neg w4 neg d 0 w2 neg d w4 w4 neg d w2 0 d w4 w4 d 0 w2 d w4 neg w4 d w2 neg 0 d x y w2 sub m 0 w d x w2 sub y m w 0 d cl s} def
/m39 {mp x y m w4 neg w2 d w4 neg w2 neg d w2 0 d  w4 neg w2 neg d w2 0 d w4 neg w2 d w2 0 d w4 neg w2 d w4 neg w2 neg d cl f} def
/m40 {mp x y m w4 w2 d w4 w4 neg d w2 neg w4 neg d w2 w4 neg d w4 neg w4 neg d w4 neg w2 d w4 neg w2 neg d w4 neg w4 d w2 w4 d w2 neg w4 d w4 w4 d w4 w2 neg d cl s} def
/m41 {mp x y m w4 w2 d w4 w4 neg d w2 neg w4 neg d w2 w4 neg d w4 neg w4 neg d w4 neg w2 d w4 neg w2 neg d w4 neg w4 d w2 w4 d w2 neg w4 d w4 w4 d w4 w2 neg d cl f} def
/m42 {mp x y w2 add m w8 neg w2 -3 4 div mul d w2 -3 4 div mul w8 neg d w2 3 4 div mul w8 neg d w8 w2 -3 4 div mul d w8 w2 3 4 div mul d w2 3 4 div mul w8 d w2 -3 4 div mul w8 d w8 neg w2 3 4 div mul d cl s} def
/m43 {mp x y w2 add m w8 neg w2 -3 4 div mul d w2 -3 4 div mul w8 neg d w2 3 4 div mul w8 neg d w8 w2 -3 4 div mul d w8 w2 3 4 div mul d w2 3 4 div mul w8 d w2 -3 4 div mul w8 d w8 neg w2 3 4 div mul d cl f} def
/m44 {mp x y m w6 neg w2 d w2 2 3 div mul 0 d w6 neg w2 neg d w2 w6 d 0 w2 -2 3 div mul d w2 neg w6 d w6 w2 neg d w2 -2 3 div mul 0 d w6 w2 d w2 neg w6 neg d 0 w2 2 3 div mul d w2 w6 neg d cl s} def
/m45 {mp x y m w6 neg w2 d w2 2 3 div mul 0 d w6 neg w2 neg d w2 w6 d 0 w2 -2 3 div mul d w2 neg w6 d w6 w2 neg d w2 -2 3 div mul 0 d w6 w2 d w2 neg w6 neg d 0 w2 2 3 div mul d w2 w6 neg d cl f} def
/m46 {mp x y w4 add m w4 neg w4 d w4 neg w4 neg d  w4 w4 neg d w4 neg w4 neg d w4 w4 neg d w4 w4 d w4 w4 neg d w4 w4 d w4 neg w4 d w4 w4 d w4 neg w4 d w4 neg w4 neg d cl s} def
/m47 {mp x y w4 add m w4 neg w4 d w4 neg w4 neg d w4 w4 neg d w4 neg w4 neg d  w4 w4 neg d w4 w4 d w4 w4 neg d w4 w4 d w4 neg w4 d w4 w4 d w4 neg w4 d w4 neg w4 neg d cl f} def
/m48 {mp x y w4 add m w4 neg w4 d w4 neg w4 neg d w4 w4 neg d  w4 neg w4 neg d w4 w4 neg d w4 w4 d w4 w4 neg d w4 w4 d w4 neg w4 d w4 w4 d w4 neg w4 d w4 neg w4 neg d  w4 w4 neg d w4 neg w4 neg d w4 neg w4 d w4 w4 d cl f} def
/m49 {mp x w2 sub w3 add y w2 sub w3 add m  0 w3 neg d w3 0 d 0 w3 d w3 0 d 0 w3 d w3 neg 0 d 0 w3 d w3 neg 0 d 0 w3 neg d w3 neg 0 d 0 w3 neg d w3 0 d 0 w3 d w3 0 d 0 w3 neg d w3 neg 0 d cl f } def
/m2 {mp x y w2 sub m 0 w d x w2 sub y m w 0 d s} def
/m5 {mp x w2 sub y w2 sub m w w d x w2 sub y w2 add m w w neg d s} def
%%IncludeResource: ProcSet (FontSetInit)
%%IncludeResource: font Times-Roman
%%IncludeResource: font Times-Italic
%%IncludeResource: font Times-Bold
%%IncludeResource: font Times-BoldItalic
%%IncludeResource: font Helvetica
%%IncludeResource: font Helvetica-Oblique
%%IncludeResource: font Helvetica-Bold
%%IncludeResource: font Helvetica-BoldOblique
%%IncludeResource: font Courier
%%IncludeResource: font Courier-Oblique
%%IncludeResource: font Courier-Bold
%%IncludeResource: font Courier-BoldOblique
%%IncludeResource: font Symbol
%%IncludeResource: font ZapfDingbats
/reEncode {exch findfont dup length dict begin {1 index /FID eq  {pop pop} {def} ifelse } forall /Encoding exch def currentdict end dup /FontName get exch definefont pop } def [/Times-Bold /Times-Italic /Times-BoldItalic /Helvetica /Helvetica-Oblique
 /Helvetica-Bold /Helvetica-BoldOblique /Courier /Courier-Oblique /Courier-Bold /Courier-BoldOblique /Times-Roman /AvantGarde-Book /AvantGarde-BookOblique /AvantGarde-Demi /AvantGarde-DemiOblique /Bookman-Demi /Bookman-DemiItalic /Bookman-Light
 /Bookman-LightItalic /Helvetica-Narrow /Helvetica-Narrow-Bold /Helvetica-Narrow-BoldOblique /Helvetica-Narrow-Oblique /NewCenturySchlbk-Roman /NewCenturySchlbk-Bold /NewCenturySchlbk-BoldItalic /NewCenturySchlbk-Italic /Palatino-Bold
 /Palatino-BoldItalic /Palatino-Italic /Palatino-Roman ] {ISOLatin1Encoding reEncode } forall
%%EndProlog
%%BeginSetup
%%EndSetup
newpath  gsave  .25 .25 scale  gsave  0 0 t black[  ] 0 sd 3 lw 1 1 1 c 2268 1575 0 0 bf black 1 1 1 c 2268 472 0 0 bf black 1 1 1 c 1927 274 227 189 bf black 1927 274 227 189 bl 227 189 m 1927 X s 227 201 m -12 Y s 282 195 m -6 Y s 337 195 m -6 Y s
 392 195 m -6 Y s 447 195 m -6 Y s 502 201 m -12 Y s 557 195 m -6 Y s 612 195 m -6 Y s 667 195 m -6 Y s 722 195 m -6 Y s 778 201 m -12 Y s 833 195 m -6 Y s 888 195 m -6 Y s 943 195 m -6 Y s 998 195 m -6 Y s 1053 201 m -12 Y s 1108 195 m -6 Y s 1163
 195 m -6 Y s 1218 195 m -6 Y s 1273 195 m -6 Y s 1328 201 m -12 Y s 1383 195 m -6 Y s 1438 195 m -6 Y s 1493 195 m -6 Y s 1549 195 m -6 Y s 1604 201 m -12 Y s 1659 195 m -6 Y s 1714 195 m -6 Y s 1769 195 m -6 Y s 1824 195 m -6 Y s 1879 201 m -12 Y s
 1934 195 m -6 Y s 1989 195 m -6 Y s 2044 195 m -6 Y s 2099 195 m -6 Y s 2154 201 m -12 Y s
 gsave  2268 472 0 0 C 180.588 127.3 t 0 r /Helvetica findfont 53.4895 sf 0 0 m (300) show NC gr 
 gsave  2268 472 0 0 C 455.912 127.3 t 0 r /Helvetica findfont 53.4895 sf 0 0 m (400) show NC gr 
 gsave  2268 472 0 0 C 731.235 127.3 t 0 r /Helvetica findfont 53.4895 sf 0 0 m (500) show NC gr 
 gsave  2268 472 0 0 C 1006.56 127.3 t 0 r /Helvetica findfont 53.4895 sf 0 0 m (600) show NC gr 
 gsave  2268 472 0 0 C 1281.88 127.3 t 0 r /Helvetica findfont 53.4895 sf 0 0 m (700) show NC gr 
 gsave  2268 472 0 0 C 1557.2 127.3 t 0 r /Helvetica findfont 53.4895 sf 0 0 m (800) show NC gr 
 gsave  2268 472 0 0 C 1832.53 127.3 t 0 r /Helvetica findfont 53.4895 sf 0 0 m (900) show NC gr 
 gsave  2268 472 0 0 C 2093.05 127.3 t 0 r /Helvetica findfont 53.4895 sf 0 0 m (1000) show NC gr 
 gsave  2268 472 0 0 C 1995.35 47.3674 t 0 r /Helvetica findfont 56.4611 sf 0 0 m ( [GeV]) show NC gr 
 gsave  2268 472 0 0 C 1971.67 29.6047 t 0 r /Helvetica findfont 38.6313 sf 0 0 m (T) show NC gr 
 gsave  2268 472 0 0 C 1924.3 47.3674 t 0 r /Helvetica-Oblique findfont 56.4611 sf 0 0 m (H) show NC gr  227 463 m 1927 X s 227 451 m 12 Y s 282 457 m 6 Y s 337 457 m 6 Y s 392 457 m 6 Y s 447 457 m 6 Y s 502 451 m 12 Y s 557 457 m 6 Y s 612 457 m 6
 Y s 667 457 m 6 Y s 722 457 m 6 Y s 778 451 m 12 Y s 833 457 m 6 Y s 888 457 m 6 Y s 943 457 m 6 Y s 998 457 m 6 Y s 1053 451 m 12 Y s 1108 457 m 6 Y s 1163 457 m 6 Y s 1218 457 m 6 Y s 1273 457 m 6 Y s 1328 451 m 12 Y s 1383 457 m 6 Y s 1438 457 m
 6 Y s 1493 457 m 6 Y s 1549 457 m 6 Y s 1604 451 m 12 Y s 1659 457 m 6 Y s 1714 457 m 6 Y s 1769 457 m 6 Y s 1824 457 m 6 Y s 1879 451 m 12 Y s 1934 457 m 6 Y s 1989 457 m 6 Y s 2044 457 m 6 Y s 2099 457 m 6 Y s 2154 451 m 12 Y s 227 189 m 274 Y s
 240 240 m -13 X s 240 326 m -13 X s 240 412 m -13 X s 240 240 m -13 X s 240 412 m -13 X s
 gsave  2268 472 0 0 C 118.419 222.035 t 0 r /Helvetica findfont 53.4895 sf 0 0 m (0.5) show NC gr 
 gsave  2268 472 0 0 C 171.707 307.888 t 0 r /Helvetica findfont 53.4895 sf 0 0 m (1) show NC gr 
 gsave  2268 472 0 0 C 118.419 393.742 t 0 r /Helvetica findfont 53.4895 sf 0 0 m (1.5) show NC gr 
 gsave  2268 472 0 0 C 71.0512 230.916 t 90 r /Helvetica findfont 53.4895 sf 0 0 m (Data / SM) show NC gr  2154 189 m 274 Y s 2141 240 m 13 X s 2141 326 m 13 X s 2141 412 m 13 X s 2141 240 m 13 X s 2141 412 m 13 X s 227 189 m 1927 X s 227 463 m 1927
 X s 227 189 m 274 Y s[ 4 8] 0 sd 2154 240 m -1927 X s 2154 326 m -1927 X s 2154 412 m -1927 X s 2154 240 m -1927 X s 2154 412 m -1927 X s[  ] 0 sd 2154 189 m 274 Y s 1 1 0.6 c 137 0 227 326 bf 138 0 364 326 bf 138 0 502 326 bf 138 0 640 326 bf 137 0
 778 326 bf 138 0 915 326 bf 138 0 1053 326 bf 137 0 1191 326 bf 138 0 1328 326 bf 138 0 1466 326 bf 137 0 1604 326 bf 138 0 1741 326 bf 138 0 1879 326 bf 137 0 2017 326 bf black 0.6 0.6 0.6 c 364 327 m -6 -6 d s 350 332 m -11 -11 d s 330 332 m -11
 -11 d s 311 332 m -11 -11 d s 292 332 m -11 -11 d s 273 332 m -11 -11 d s 253 332 m -11 -11 d s 234 332 m -7 -8 d s 502 330 m -10 -10 d s 485 332 m -12 -12 d s 466 332 m -13 -12 d s 446 332 m -12 -12 d s 427 332 m -12 -12 d s 408 332 m -12 -12 d s
 389 332 m -13 -12 d s 369 332 m -5 -5 d s 640 333 m -15 -15 d s 621 334 m -15 -16 d s 602 334 m -15 -16 d s 583 334 m -16 -16 d s 563 334 m -15 -16 d s 544 334 m -15 -16 d s 525 334 m -15 -16 d s 506 334 m -4 -4 d s 778 317 m -1 -1 d s 777 336 m -20
 -20 d s 758 336 m -20 -20 d s 739 336 m -20 -20 d s 720 336 m -20 -20 d s 700 336 m -20 -20 d s 681 336 m -20 -20 d s 662 336 m -20 -20 d s 643 336 m -3 -3 d s 915 320 m -4 -5 d s 913 337 m -22 -22 d s 894 337 m -22 -22 d s 874 337 m -21 -22 d s 855
 337 m -21 -22 d s 836 337 m -22 -22 d s 817 337 m -22 -22 d s 797 337 m -19 -20 d s 778 337 m -1 Y s 1053 323 m -10 -10 d s 1050 339 m -26 -26 d s 1030 339 m -25 -26 d s 1011 339 m -26 -26 d s 992 339 m -26 -26 d s 973 339 m -26 -26 d s 953 339 m
 -25 -26 d s 934 339 m -19 -19 d s 1191 326 m -16 -15 d s 1187 341 m -31 -30 d s 1167 341 m -30 -30 d s 1148 341 m -30 -30 d s 1129 341 m -30 -30 d s 1110 341 m -31 -30 d s 1090 341 m -30 -30 d s 1071 341 m -18 -18 d s 1328 310 m -1 Y s 1328 329 m
 -19 -20 d s 1323 343 m -34 -34 d s 1304 343 m -34 -34 d s 1284 343 m -33 -34 d s 1265 343 m -33 -34 d s 1246 343 m -34 -34 d s 1227 343 m -34 -34 d s 1207 343 m -16 -17 d s 1466 313 m -8 -9 d s 1466 332 m -28 -28 d s 1463 348 m -44 -44 d s 1443 348
 m -43 -44 d s 1424 348 m -43 -44 d s 1405 348 m -44 -44 d s 1386 348 m -44 -44 d s 1366 348 m -38 -38 d s 1347 348 m -19 -19 d s 1604 316 m -13 -13 d s 1604 335 m -32 -32 d s 1599 349 m -47 -46 d s 1579 349 m -46 -46 d s 1560 349 m -46 -46 d s 1541
 349 m -46 -46 d s 1522 349 m -47 -46 d s 1502 349 m -36 -36 d s 1483 349 m -17 -17 d s 1741 299 m -2 -2 d s 1741 319 m -21 -22 d s 1741 338 m -40 -41 d s 1739 355 m -57 -58 d s 1720 355 m -58 -58 d s 1700 355 m -57 -58 d s 1681 355 m -57 -58 d s
 1662 355 m -57 -58 d s 1643 355 m -39 -39 d s 1623 355 m -19 -20 d s 1604 355 m -1 Y s 1879 302 m -4 -4 d s 1879 322 m -24 -24 d s 1879 341 m -43 -43 d s 1873 354 m -56 -56 d s 1854 354 m -56 -56 d s 1834 354 m -56 -56 d s 1815 354 m -56 -56 d s
 1796 354 m -55 -55 d s 1777 354 m -36 -35 d s 1757 354 m -16 -16 d s 2017 286 m -4 -3 d s 2017 305 m -23 -22 d s 2017 325 m -42 -42 d s 2017 344 m -61 -61 d s 2017 363 m -81 -80 d s 2004 369 m -87 -86 d s 1984 369 m -86 -86 d s 1965 369 m -86 -86 d
 s 1946 369 m -67 -67 d s 1927 369 m -48 -47 d s 1907 369 m -28 -28 d s 1888 369 m -9 -9 d s 2154 328 m -14 -15 d s 2147 339 m -26 -26 d s 2127 339 m -26 -26 d s 2108 339 m -26 -26 d s 2089 339 m -26 -26 d s 2070 339 m -26 -26 d s 2050 339 m -26 -26
 d s 2031 339 m -14 -14 d s black 1 1 1 c black 296 321 m 8 Y s 296 353 m 8 Y s /w 26 def /w2 {w 2 div} def /w3 {w 3 div} def 296 341 m20 433 317 m 12 Y s 433 353 m 12 Y s 433 341 m20 571 313 m 20 Y s 571 357 m 19 Y s 571 345 m20 709 314 m 27 Y s 709
 365 m 27 Y s 709 353 m20 846 299 m 38 Y s 846 360 m 39 Y s 846 349 m20 984 238 m 34 Y s 984 296 m 34 Y s 984 284 m20 1122 234 m 42 Y s 1122 300 m 42 Y s 1122 288 m20 1259 306 m 80 Y s 1259 410 m 53 Y s 1259 398 m20 1397 189 m 42 Y s 1397 255 m 51 Y
 s 1397 243 m20 1535 203 m 106 Y s 1535 332 m 106 Y s 1535 321 m20 1672 226 m 160 Y s 1672 410 m 53 Y s 1672 398 m20 2085 190 m 74 Y s 2085 288 m 73 Y s 2085 276 m20 227 326 m 1927 X s 227 189 m 1927 X s 227 201 m -12 Y s 282 195 m -6 Y s 337 195 m
 -6 Y s 392 195 m -6 Y s 447 195 m -6 Y s 502 201 m -12 Y s 557 195 m -6 Y s 612 195 m -6 Y s 667 195 m -6 Y s 722 195 m -6 Y s 778 201 m -12 Y s 833 195 m -6 Y s 888 195 m -6 Y s 943 195 m -6 Y s 998 195 m -6 Y s 1053 201 m -12 Y s 1108 195 m -6 Y s
 1163 195 m -6 Y s 1218 195 m -6 Y s 1273 195 m -6 Y s 1328 201 m -12 Y s 1383 195 m -6 Y s 1438 195 m -6 Y s 1493 195 m -6 Y s 1549 195 m -6 Y s 1604 201 m -12 Y s 1659 195 m -6 Y s 1714 195 m -6 Y s 1769 195 m -6 Y s 1824 195 m -6 Y s 1879 201 m
 -12 Y s 1934 195 m -6 Y s 1989 195 m -6 Y s 2044 195 m -6 Y s 2099 195 m -6 Y s 2154 201 m -12 Y s 227 463 m 1927 X s 227 451 m 12 Y s 282 457 m 6 Y s 337 457 m 6 Y s 392 457 m 6 Y s 447 457 m 6 Y s 502 451 m 12 Y s 557 457 m 6 Y s 612 457 m 6 Y s
 667 457 m 6 Y s 722 457 m 6 Y s 778 451 m 12 Y s 833 457 m 6 Y s 888 457 m 6 Y s 943 457 m 6 Y s 998 457 m 6 Y s 1053 451 m 12 Y s 1108 457 m 6 Y s 1163 457 m 6 Y s 1218 457 m 6 Y s 1273 457 m 6 Y s 1328 451 m 12 Y s 1383 457 m 6 Y s 1438 457 m 6 Y
 s 1493 457 m 6 Y s 1549 457 m 6 Y s 1604 451 m 12 Y s 1659 457 m 6 Y s 1714 457 m 6 Y s 1769 457 m 6 Y s 1824 457 m 6 Y s 1879 451 m 12 Y s 1934 457 m 6 Y s 1989 457 m 6 Y s 2044 457 m 6 Y s 2099 457 m 6 Y s 2154 451 m 12 Y s 227 189 m 274 Y s 240
 240 m -13 X s 240 326 m -13 X s 240 412 m -13 X s 240 240 m -13 X s 240 412 m -13 X s 2154 189 m 274 Y s 2141 240 m 13 X s 2141 326 m 13 X s 2141 412 m 13 X s 2141 240 m 13 X s 2141 412 m 13 X s 1 1 1 c 2268 1103 0 472 bf black 1 1 1 c 1927 1036 227
 484 bf black 1927 1036 227 484 bl 1 1 1 c black 3 lw 227 484 m 1927 X s 227 502 m -18 Y s 282 493 m -9 Y s 337 493 m -9 Y s 392 493 m -9 Y s 447 493 m -9 Y s 502 502 m -18 Y s 557 493 m -9 Y s 612 493 m -9 Y s 667 493 m -9 Y s 722 493 m -9 Y s 778
 502 m -18 Y s 833 493 m -9 Y s 888 493 m -9 Y s 943 493 m -9 Y s 998 493 m -9 Y s 1053 502 m -18 Y s 1108 493 m -9 Y s 1163 493 m -9 Y s 1218 493 m -9 Y s 1273 493 m -9 Y s 1328 502 m -18 Y s 1383 493 m -9 Y s 1438 493 m -9 Y s 1493 493 m -9 Y s
 1549 493 m -9 Y s 1604 502 m -18 Y s 1659 493 m -9 Y s 1714 493 m -9 Y s 1769 493 m -9 Y s 1824 493 m -9 Y s 1879 502 m -18 Y s 1934 493 m -9 Y s 1989 493 m -9 Y s 2044 493 m -9 Y s 2099 493 m -9 Y s 2154 502 m -18 Y s
 gsave  2268 1103 0 472 C 2069.37 402.623 t 0 r /Helvetica findfont 29.6365 sf 0 0 m ( [GeV]) show NC gr 
 gsave  2268 1103 0 472 C 2054.56 393.742 t 0 r /Helvetica findfont 20.7455 sf 0 0 m (T) show NC gr 
 gsave  2268 1103 0 472 C 2030.88 402.623 t 0 r /Helvetica-Oblique findfont 29.6365 sf 0 0 m (H) show NC gr  227 1520 m 1927 X s 227 1501 m 19 Y s 282 1510 m 10 Y s 337 1510 m 10 Y s 392 1510 m 10 Y s 447 1510 m 10 Y s 502 1501 m 19 Y s 557 1510 m 10
 Y s 612 1510 m 10 Y s 667 1510 m 10 Y s 722 1510 m 10 Y s 778 1501 m 19 Y s 833 1510 m 10 Y s 888 1510 m 10 Y s 943 1510 m 10 Y s 998 1510 m 10 Y s 1053 1501 m 19 Y s 1108 1510 m 10 Y s 1163 1510 m 10 Y s 1218 1510 m 10 Y s 1273 1510 m 10 Y s 1328
 1501 m 19 Y s 1383 1510 m 10 Y s 1438 1510 m 10 Y s 1493 1510 m 10 Y s 1549 1510 m 10 Y s 1604 1501 m 19 Y s 1659 1510 m 10 Y s 1714 1510 m 10 Y s 1769 1510 m 10 Y s 1824 1510 m 10 Y s 1879 1501 m 19 Y s 1934 1510 m 10 Y s 1989 1510 m 10 Y s 2044
 1510 m 10 Y s 2099 1510 m 10 Y s 2154 1501 m 19 Y s 227 484 m 1036 Y s 248 585 m -21 X s 237 610 m -10 X s 237 636 m -10 X s 237 661 m -10 X s 248 686 m -21 X s 237 712 m -10 X s 237 737 m -10 X s 237 762 m -10 X s 248 788 m -21 X s 237 813 m -10 X
 s 237 838 m -10 X s 237 864 m -10 X s 248 889 m -21 X s 237 914 m -10 X s 237 940 m -10 X s 237 965 m -10 X s 248 990 m -21 X s 237 1016 m -10 X s 237 1041 m -10 X s 237 1066 m -10 X s 248 1092 m -21 X s 237 1117 m -10 X s 237 1142 m -10 X s 237
 1168 m -10 X s 248 1193 m -21 X s 237 1218 m -10 X s 237 1244 m -10 X s 237 1269 m -10 X s 248 1294 m -21 X s 237 1320 m -10 X s 237 1345 m -10 X s 237 1370 m -10 X s 248 1396 m -21 X s 237 1421 m -10 X s 237 1446 m -10 X s 237 1472 m -10 X s 248
 1497 m -21 X s 248 585 m -21 X s 237 559 m -10 X s 237 534 m -10 X s 237 509 m -10 X s 248 1497 m -21 X s
 gsave  2268 1103 0 472 C 145.063 565.449 t 0 r /Helvetica findfont 50.382 sf 0 0 m (20) show NC gr 
 gsave  2268 1103 0 472 C 145.063 666.105 t 0 r /Helvetica findfont 50.382 sf 0 0 m (40) show NC gr 
 gsave  2268 1103 0 472 C 145.063 769.721 t 0 r /Helvetica findfont 50.382 sf 0 0 m (60) show NC gr 
 gsave  2268 1103 0 472 C 145.063 870.377 t 0 r /Helvetica findfont 50.382 sf 0 0 m (80) show NC gr 
 gsave  2268 1103 0 472 C 118.419 971.033 t 0 r /Helvetica findfont 50.382 sf 0 0 m (100) show NC gr 
 gsave  2268 1103 0 472 C 118.419 1071.69 t 0 r /Helvetica findfont 50.382 sf 0 0 m (120) show NC gr 
 gsave  2268 1103 0 472 C 118.419 1172.34 t 0 r /Helvetica findfont 50.382 sf 0 0 m (140) show NC gr 
 gsave  2268 1103 0 472 C 118.419 1275.96 t 0 r /Helvetica findfont 50.382 sf 0 0 m (160) show NC gr 
 gsave  2268 1103 0 472 C 118.419 1376.62 t 0 r /Helvetica findfont 50.382 sf 0 0 m (180) show NC gr 
 gsave  2268 1103 0 472 C 118.419 1477.27 t 0 r /Helvetica findfont 50.382 sf 0 0 m (200) show NC gr 
 gsave  2268 1103 0 472 C 62.1698 1154.58 t 90 r /Helvetica findfont 50.382 sf 0 0 m (Events / 50 GeV) show NC gr  2154 484 m 1036 Y s 2133 585 m 21 X s 2144 610 m 10 X s 2144 636 m 10 X s 2144 661 m 10 X s 2133 686 m 21 X s 2144 712 m 10 X s 2144
 737 m 10 X s 2144 762 m 10 X s 2133 788 m 21 X s 2144 813 m 10 X s 2144 838 m 10 X s 2144 864 m 10 X s 2133 889 m 21 X s 2144 914 m 10 X s 2144 940 m 10 X s 2144 965 m 10 X s 2133 990 m 21 X s 2144 1016 m 10 X s 2144 1041 m 10 X s 2144 1066 m 10 X s
 2133 1092 m 21 X s 2144 1117 m 10 X s 2144 1142 m 10 X s 2144 1168 m 10 X s 2133 1193 m 21 X s 2144 1218 m 10 X s 2144 1244 m 10 X s 2144 1269 m 10 X s 2133 1294 m 21 X s 2144 1320 m 10 X s 2144 1345 m 10 X s 2144 1370 m 10 X s 2133 1396 m 21 X s
 2144 1421 m 10 X s 2144 1446 m 10 X s 2144 1472 m 10 X s 2133 1497 m 21 X s 2133 585 m 21 X s 2144 559 m 10 X s 2144 534 m 10 X s 2144 509 m 10 X s 2133 1497 m 21 X s 0.06 0.54 0.06 c black 3 lw 0.06 0.54 0.06 c 227 484 m 414 Y 137 X -135 Y 138 X
 -110 Y 138 X -56 Y 138 X -46 Y 137 X -14 Y 138 X -14 Y 138 X -15 Y 137 X -5 Y 138 X -9 Y 138 X -3 Y 137 X -3 Y 138 X 1 Y 138 X 9 Y 137 X -14 Y f 1 0.653333 0 c 0.999 0.999 0.999 c black 3 lw 0.999 0.999 0.999 c 227 484 m 202 Y 137 X -64 Y 138 X -47
 Y 138 X -27 Y 138 X -24 Y 137 X -11 Y 138 X -8 Y 138 X -5 Y 137 X -6 Y 138 X -3 Y 138 X -2 Y 137 X -1 Y 138 X -2 Y 138 X 9 Y 137 X -11 Y f 1 0.653333 0 c 0.999 0.999 0.999 c 1 0.653333 0 c 1 1 1 c black 1 0.653333 0 c black 3 lw 1 0.653333 0 c 227
 484 m 202 Y 137 X -64 Y 138 X -47 Y 138 X -27 Y 138 X -24 Y 137 X -11 Y 138 X -8 Y 138 X -5 Y 137 X -6 Y 138 X -3 Y 138 X -2 Y 137 X -1 Y 138 X -2 Y 138 X 9 Y 137 X -11 Y f 0.413333 1 0 c 0.999 0.999 0.999 c black 3 lw 0.999 0.999 0.999 c 227 484 m
 191 Y 137 X -59 Y 138 X -43 Y 138 X -27 Y 138 X -22 Y 137 X -11 Y 138 X -8 Y 138 X -5 Y 137 X -6 Y 138 X -3 Y 138 X -2 Y 137 X -2 Y 138 X -1 Y 138 X 8 Y 137 X -10 Y f 0.413333 1 0 c 0.999 0.999 0.999 c 0.413333 1 0 c 1 1 1 c black 0.413333 1 0 c
 black 3 lw 0.413333 1 0 c 227 484 m 191 Y 137 X -59 Y 138 X -43 Y 138 X -27 Y 138 X -22 Y 137 X -11 Y 138 X -8 Y 138 X -5 Y 137 X -6 Y 138 X -3 Y 138 X -2 Y 137 X -2 Y 138 X -1 Y 138 X 8 Y 137 X -10 Y f 0.6 0.2 1 c 0.999 0.999 0.999 c black 3 lw
 0.999 0.999 0.999 c 227 484 m 170 Y 137 X -50 Y 138 X -38 Y 138 X -24 Y 138 X -21 Y 137 X -10 Y 138 X -8 Y 138 X -4 Y 137 X -6 Y 138 X -3 Y 138 X -2 Y 137 X -1 Y 138 X -1 Y 138 X 7 Y 137 X -9 Y f 0.6 0.2 1 c 0.999 0.999 0.999 c 0.6 0.2 1 c 1 1 1 c
 black 0.6 0.2 1 c black 3 lw 0.6 0.2 1 c 227 484 m 170 Y 137 X -50 Y 138 X -38 Y 138 X -24 Y 138 X -21 Y 137 X -10 Y 138 X -8 Y 138 X -4 Y 137 X -6 Y 138 X -3 Y 138 X -2 Y 137 X -1 Y 138 X -1 Y 138 X 7 Y 137 X -9 Y f 0.54 0.06 0.06 c 0.999 0.999
 0.999 c black 3 lw 0.999 0.999 0.999 c 227 484 m 140 Y 137 X -44 Y 138 X -30 Y 138 X -19 Y 138 X -18 Y 137 X -8 Y 138 X -7 Y 138 X -2 Y 137 X -4 Y 138 X -3 Y 138 X -2 Y 275 X -1 Y 138 X 5 Y 137 X -7 Y f 0.54 0.06 0.06 c 0.999 0.999 0.999 c 0.54 0.06
 0.06 c 1 1 1 c black 0.54 0.06 0.06 c black 3 lw 0.54 0.06 0.06 c 227 484 m 140 Y 137 X -44 Y 138 X -30 Y 138 X -19 Y 138 X -18 Y 137 X -8 Y 138 X -7 Y 138 X -2 Y 137 X -4 Y 138 X -3 Y 138 X -2 Y 275 X -1 Y 138 X 5 Y 137 X -7 Y f 1 0 1 c 0.999 0.999
 0.999 c black 3 lw 0.999 0.999 0.999 c 227 484 m 43 Y 137 X -12 Y 138 X -11 Y 138 X -3 Y 138 X -8 Y 137 X -3 Y 138 X -2 Y 138 X -1 Y 137 X -1 Y 138 X -1 Y 275 X -1 Y 276 X 2 Y 137 X -2 Y f 1 0 1 c 0.999 0.999 0.999 c 1 0 1 c 1 1 1 c black 1 0 1 c
 black 3 lw 1 0 1 c 227 484 m 43 Y 137 X -12 Y 138 X -11 Y 138 X -3 Y 138 X -8 Y 137 X -3 Y 138 X -2 Y 138 X -1 Y 137 X -1 Y 138 X -1 Y 275 X -1 Y 276 X 2 Y 137 X -2 Y f 0 0 1 c 0.999 0.999 0.999 c black 3 lw 0.999 0.999 0.999 c 227 484 m 29 Y 137 X
 -8 Y 138 X -7 Y 138 X -1 Y 138 X -7 Y 137 X -2 Y 138 X -1 Y 138 X -1 Y 137 X -1 Y 276 X -1 Y 413 X 1 Y 137 X -1 Y f 0 0 1 c 0.999 0.999 0.999 c 0 0 1 c 1 1 1 c black 0 0 1 c black 3 lw 0 0 1 c 227 484 m 29 Y 137 X -8 Y 138 X -7 Y 138 X -1 Y 138 X -7
 Y 137 X -2 Y 138 X -1 Y 138 X -1 Y 137 X -1 Y 276 X -1 Y 413 X 1 Y 137 X -1 Y f 0.2 0.8 0.8 c 0.999 0.999 0.999 c black 3 lw 0.999 0.999 0.999 c 227 484 m 5 Y 137 X -2 Y 138 X -1 Y 138 X 2 Y 138 X -3 Y 137 X -1 Y 1239 X f 0.2 0.8 0.8 c 0.999 0.999
 0.999 c 0.2 0.8 0.8 c 1 1 1 c black 0.2 0.8 0.8 c black 3 lw 0.2 0.8 0.8 c 227 484 m 5 Y 137 X -2 Y 138 X -1 Y 138 X 2 Y 138 X -3 Y 137 X -1 Y 1239 X f 1 0 0 c 0.999 0.999 0.999 c black 3 lw 0.999 0.999 0.999 c 227 484 m 1 Y 275 X -1 Y 138 X 3 Y 138
 X -3 Y 1376 X f 1 0 0 c 0.999 0.999 0.999 c 1 0 0 c 1 1 1 c black 1 0 0 c black 3 lw 1 0 0 c 227 484 m 1 Y 275 X -1 Y 138 X 3 Y 138 X -3 Y 1376 X f 1 0.84 0 c 0.999 0.999 0.999 c black 3 lw 0.999 0.999 0.999 c 227 484 m 413 X 3 Y 138 X -3 Y 1376 X f
 1 0.84 0 c 0.999 0.999 0.999 c 1 0.84 0 c 1 1 1 c black 1 0.84 0 c black 3 lw 1 0.84 0 c 227 484 m 413 X 3 Y 138 X -3 Y 1376 X f black 1 1 1 c black 0.6 0.6 0.6 c 3 lw 364 894 m -9 -9 d s 363 911 m -27 -26 d s 343 911 m -26 -26 d s 324 911 m -27 -26
 d s 305 911 m -27 -26 d s 286 911 m -27 -26 d s 266 911 m -26 -26 d s 247 911 m -20 -20 d s 228 911 m -1 -1 d s 3 lw 502 762 m -10 -9 d s 493 773 m -20 -20 d s 474 773 m -20 -20 d s 455 773 m -20 -20 d s 436 773 m -21 -20 d s 416 773 m -20 -20 d s
 397 773 m -20 -20 d s 378 773 m -14 -13 d s 3 lw 640 650 m -5 -5 d s 630 660 m -15 -15 d s 611 660 m -15 -15 d s 592 660 m -15 -15 d s 573 660 m -15 -15 d s 554 660 m -16 -15 d s 534 660 m -15 -15 d s 515 660 m -13 -13 d s 3 lw 778 596 m -5 -5 d s
 767 604 m -14 -13 d s 747 604 m -13 -13 d s 728 604 m -13 -13 d s 709 604 m -13 -13 d s 690 604 m -14 -13 d s 670 604 m -13 -13 d s 651 604 m -11 -11 d s 3 lw 910 555 m -9 -9 d s 891 555 m -9 -9 d s 871 555 m -8 -9 d s 852 555 m -8 -9 d s 833 555 m
 -9 -9 d s 814 555 m -9 -9 d s 794 555 m -8 -9 d s 3 lw 1050 541 m -8 -8 d s 1031 541 m -8 -8 d s 1012 541 m -8 -8 d s 992 541 m -8 -8 d s 973 541 m -8 -8 d s 954 541 m -8 -8 d s 935 541 m -8 -8 d s 916 541 m -1 X s 3 lw 1189 526 m -7 -7 d s 1170 526
 m -7 -7 d s 1150 526 m -7 -7 d s 1131 526 m -7 -7 d s 1112 526 m -7 -7 d s 1093 526 m -7 -7 d s 1074 526 m -7 -7 d s 1054 526 m -1 -1 d s 3 lw 1328 511 m -5 -5 d s 1308 511 m -4 -5 d s 1289 511 m -5 -5 d s 1270 511 m -5 -5 d s 1251 511 m -5 -5 d s
 1232 511 m -5 -5 d s 1212 511 m -5 -5 d s 1193 511 m -2 -3 d s 3 lw 1457 506 m -5 -5 d s 1438 506 m -5 -5 d s 1419 506 m -5 -5 d s 1399 506 m -5 -5 d s 1380 506 m -5 -5 d s 1361 506 m -5 -5 d s 1342 506 m -5 -5 d s 3 lw 1601 495 m -3 -2 d s 1582 495
 m -3 -2 d s 1562 495 m -3 -2 d s 1543 495 m -3 -2 d s 1524 495 m -3 -2 d s 1505 495 m -3 -2 d s 1485 495 m -3 -2 d s 1466 495 m s 3 lw 1732 492 m -2 -3 d s 1713 492 m -3 -3 d s 1693 492 m -2 -3 d s 1674 492 m -2 -3 d s 1655 492 m -2 -3 d s 1636 492
 m -3 -3 d s 1616 492 m -2 -3 d s 3 lw 1864 489 m -2 -2 d s 1845 489 m -2 -2 d s 1825 489 m -1 -2 d s 1806 489 m -1 -2 d s 1787 489 m -2 -2 d s 1768 489 m -2 -2 d s 1748 489 m -1 -2 d s 3 lw 2017 488 m -1 -1 d s 2000 490 m -3 -3 d s 1980 490 m -2 -3
 d s 1961 490 m -3 -3 d s 1942 490 m -3 -3 d s 1923 490 m -3 -3 d s 1903 490 m -2 -3 d s 1884 490 m -3 -3 d s 3 lw 2143 499 m -2 -2 d s 2124 499 m -2 -2 d s 2105 499 m -3 -2 d s 2085 499 m -2 -2 d s 2066 499 m -2 -2 d s 2047 499 m -2 -2 d s 2028 499
 m -3 -2 d s black 3 lw 1 1 1 c black 296 887 m 36 Y s 296 946 m 36 Y s /w 24 def /w2 {w 2 div} def /w3 {w 3 div} def 296 935 m20 433 748 m 28 Y s 433 799 m 28 Y s 433 788 m20 571 640 m 19 Y s 571 683 m 19 Y s 571 671 m20 709 589 m 14 Y s 709 627 m
 14 Y s 709 615 m20 846 540 m 8 Y s 846 571 m 8 Y s 846 559 m20 984 510 m 2 Y s 984 536 m 2 Y s 984 524 m20 1122 501 m 1 Y s 1122 526 m s 1122 514 m20 1259 506 m 1 Y s 1259 531 m 1 Y s 1259 519 m20 1397 494 m20 1535 494 m20 1672 494 m20 1948 494 m20
 2085 494 m20 227 484 m 1927 X s 227 502 m -18 Y s 282 493 m -9 Y s 337 493 m -9 Y s 392 493 m -9 Y s 447 493 m -9 Y s 502 502 m -18 Y s 557 493 m -9 Y s 612 493 m -9 Y s 667 493 m -9 Y s 722 493 m -9 Y s 778 502 m -18 Y s 833 493 m -9 Y s 888 493 m
 -9 Y s 943 493 m -9 Y s 998 493 m -9 Y s 1053 502 m -18 Y s 1108 493 m -9 Y s 1163 493 m -9 Y s 1218 493 m -9 Y s 1273 493 m -9 Y s 1328 502 m -18 Y s 1383 493 m -9 Y s 1438 493 m -9 Y s 1493 493 m -9 Y s 1549 493 m -9 Y s 1604 502 m -18 Y s 1659
 493 m -9 Y s 1714 493 m -9 Y s 1769 493 m -9 Y s 1824 493 m -9 Y s 1879 502 m -18 Y s 1934 493 m -9 Y s 1989 493 m -9 Y s 2044 493 m -9 Y s 2099 493 m -9 Y s 2154 502 m -18 Y s 227 1520 m 1927 X s 227 1501 m 19 Y s 282 1510 m 10 Y s 337 1510 m 10 Y
 s 392 1510 m 10 Y s 447 1510 m 10 Y s 502 1501 m 19 Y s 557 1510 m 10 Y s 612 1510 m 10 Y s 667 1510 m 10 Y s 722 1510 m 10 Y s 778 1501 m 19 Y s 833 1510 m 10 Y s 888 1510 m 10 Y s 943 1510 m 10 Y s 998 1510 m 10 Y s 1053 1501 m 19 Y s 1108 1510 m
 10 Y s 1163 1510 m 10 Y s 1218 1510 m 10 Y s 1273 1510 m 10 Y s 1328 1501 m 19 Y s 1383 1510 m 10 Y s 1438 1510 m 10 Y s 1493 1510 m 10 Y s 1549 1510 m 10 Y s 1604 1501 m 19 Y s 1659 1510 m 10 Y s 1714 1510 m 10 Y s 1769 1510 m 10 Y s 1824 1510 m 10
 Y s 1879 1501 m 19 Y s 1934 1510 m 10 Y s 1989 1510 m 10 Y s 2044 1510 m 10 Y s 2099 1510 m 10 Y s 2154 1501 m 19 Y s 227 484 m 1036 Y s 248 585 m -21 X s 237 610 m -10 X s 237 636 m -10 X s 237 661 m -10 X s 248 686 m -21 X s 237 712 m -10 X s 237
 737 m -10 X s 237 762 m -10 X s 248 788 m -21 X s 237 813 m -10 X s 237 838 m -10 X s 237 864 m -10 X s 248 889 m -21 X s 237 914 m -10 X s 237 940 m -10 X s 237 965 m -10 X s 248 990 m -21 X s 237 1016 m -10 X s 237 1041 m -10 X s 237 1066 m -10 X
 s 248 1092 m -21 X s 237 1117 m -10 X s 237 1142 m -10 X s 237 1168 m -10 X s 248 1193 m -21 X s 237 1218 m -10 X s 237 1244 m -10 X s 237 1269 m -10 X s 248 1294 m -21 X s 237 1320 m -10 X s 237 1345 m -10 X s 237 1370 m -10 X s 248 1396 m -21 X s
 237 1421 m -10 X s 237 1446 m -10 X s 237 1472 m -10 X s 248 1497 m -21 X s 248 585 m -21 X s 237 559 m -10 X s 237 534 m -10 X s 237 509 m -10 X s 248 1497 m -21 X s 2154 484 m 1036 Y s 2133 585 m 21 X s 2144 610 m 10 X s 2144 636 m 10 X s 2144 661
 m 10 X s 2133 686 m 21 X s 2144 712 m 10 X s 2144 737 m 10 X s 2144 762 m 10 X s 2133 788 m 21 X s 2144 813 m 10 X s 2144 838 m 10 X s 2144 864 m 10 X s 2133 889 m 21 X s 2144 914 m 10 X s 2144 940 m 10 X s 2144 965 m 10 X s 2133 990 m 21 X s 2144
 1016 m 10 X s 2144 1041 m 10 X s 2144 1066 m 10 X s 2133 1092 m 21 X s 2144 1117 m 10 X s 2144 1142 m 10 X s 2144 1168 m 10 X s 2133 1193 m 21 X s 2144 1218 m 10 X s 2144 1244 m 10 X s 2144 1269 m 10 X s 2133 1294 m 21 X s 2144 1320 m 10 X s 2144
 1345 m 10 X s 2144 1370 m 10 X s 2133 1396 m 21 X s 2144 1421 m 10 X s 2144 1446 m 10 X s 2144 1472 m 10 X s 2133 1497 m 21 X s 2133 585 m 21 X s 2144 559 m 10 X s 2144 534 m 10 X s 2144 509 m 10 X s 2133 1497 m 21 X s
 gsave  2268 1103 0 472 C 1314.45 1423.98 t 0 r /Helvetica findfont 56.3093 sf 0 0 m ( Data) show NC gr  1259 1451 m 10 Y s 1259 1427 m -10 Y s 1259 1439 m20
 gsave  2268 1103 0 472 C 1808.84 1423.98 t 0 r /Helvetica findfont 56.3093 sf 0 0 m (single\255top) show NC gr 
 gsave  2268 1103 0 472 C 1779.24 1423.98 t 0 r /Helvetica-Oblique findfont 56.3093 sf 0 0 m (/) show NC gr 
 gsave  2268 1103 0 472 C 1758.52 1423.98 t 0 r /Helvetica-Oblique findfont 56.3093 sf 0 0 m (t) show NC gr  6 lw 1759 1468 m 20 X s
 gsave  2268 1103 0 472 C 1737.79 1423.98 t 0 r /Helvetica-Oblique findfont 56.3093 sf 0 0 m (t) show NC gr 
 gsave  2268 1103 0 472 C 1720.03 1423.98 t 0 r /Helvetica findfont 56.3093 sf 0 0 m ( ) show NC gr  0.06 0.54 0.06 c 3 lw 1626 1413 m 79 X 52 Y -79 X f 6 lw black
 gsave  2268 1103 0 472 C 1444.71 1349.97 t 0 r /Helvetica findfont 56.3093 sf 0 0 m (+jets) show NC gr 
 gsave  2268 1103 0 472 C 1332.21 1349.97 t 0 r /Helvetica-Oblique findfont 56.3093 sf 0 0 m (W/Z) show NC gr 
 gsave  2268 1103 0 472 C 1314.45 1349.97 t 0 r /Helvetica findfont 56.3093 sf 0 0 m ( ) show NC gr  1 0.653333 0 c 3 lw 1219 1340 m 79 X 51 Y -79 X f black
 gsave  2268 1103 0 472 C 1918.38 1349.97 t 0 r /Helvetica findfont 56.3093 sf 0 0 m (+jets) show NC gr 
 gsave  2268 1103 0 472 C 1737.79 1349.97 t 0 r /Helvetica-Oblique findfont 56.3093 sf 0 0 m (WZ/ZZ) show NC gr 
 gsave  2268 1103 0 472 C 1720.03 1349.97 t 0 r /Helvetica findfont 56.3093 sf 0 0 m ( ) show NC gr  0.413333 1 0 c 3 lw 1626 1340 m 79 X 51 Y -79 X f black
 gsave  2268 1103 0 472 C 1373.66 1275.96 t 0 r /Helvetica-Oblique findfont 56.3093 sf 0 0 m (Z) show NC gr 
 gsave  2268 1103 0 472 C 1352.93 1275.96 t 0 r /Helvetica-Oblique findfont 56.3093 sf 0 0 m (t) show NC gr  6 lw 1353 1320 m 21 X s
 gsave  2268 1103 0 472 C 1332.21 1275.96 t 0 r /Helvetica-Oblique findfont 56.3093 sf 0 0 m (t) show NC gr 
 gsave  2268 1103 0 472 C 1314.45 1275.96 t 0 r /Helvetica findfont 56.3093 sf 0 0 m ( ) show NC gr  0.6 0.2 1 c 3 lw 1219 1266 m 79 X 52 Y -79 X f 6 lw black
 gsave  2268 1103 0 472 C 1779.24 1275.96 t 0 r /Helvetica-Oblique findfont 56.3093 sf 0 0 m (W) show NC gr 
 gsave  2268 1103 0 472 C 1758.52 1275.96 t 0 r /Helvetica-Oblique findfont 56.3093 sf 0 0 m (t) show NC gr  6 lw 1759 1320 m 20 X s
 gsave  2268 1103 0 472 C 1737.79 1275.96 t 0 r /Helvetica-Oblique findfont 56.3093 sf 0 0 m (t) show NC gr 
 gsave  2268 1103 0 472 C 1720.03 1275.96 t 0 r /Helvetica findfont 56.3093 sf 0 0 m ( ) show NC gr  0.54 0.06 0.06 c 3 lw 1626 1266 m 79 X 52 Y -79 X f 6 lw black
 gsave  2268 1103 0 472 C 1332.21 1204.91 t 0 r /Helvetica-Oblique findfont 56.3093 sf 0 0 m (tZq) show NC gr 
 gsave  2268 1103 0 472 C 1314.45 1204.91 t 0 r /Helvetica findfont 56.3093 sf 0 0 m ( ) show NC gr  1 0 1 c 3 lw 1219 1193 m 79 X 51 Y -79 X f black
 gsave  2268 1103 0 472 C 1779.24 1204.91 t 0 r /Helvetica-Oblique findfont 56.3093 sf 0 0 m (H) show NC gr 
 gsave  2268 1103 0 472 C 1758.52 1204.91 t 0 r /Helvetica-Oblique findfont 56.3093 sf 0 0 m (t) show NC gr  6 lw 1759 1249 m 20 X s
 gsave  2268 1103 0 472 C 1737.79 1204.91 t 0 r /Helvetica-Oblique findfont 56.3093 sf 0 0 m (t) show NC gr 
 gsave  2268 1103 0 472 C 1720.03 1204.91 t 0 r /Helvetica findfont 56.3093 sf 0 0 m ( ) show NC gr  0 0 1 c 3 lw 1626 1193 m 79 X 51 Y -79 X f 6 lw black
 gsave  2268 1103 0 472 C 1332.21 1130.9 t 0 r /Helvetica-Oblique findfont 56.3093 sf 0 0 m (tWZ/tWH) show NC gr 
 gsave  2268 1103 0 472 C 1314.45 1130.9 t 0 r /Helvetica findfont 56.3093 sf 0 0 m ( ) show NC gr  0.2 0.8 0.8 c 3 lw 1219 1119 m 79 X 52 Y -79 X f black
 gsave  2268 1103 0 472 C 1737.79 1130.9 t 0 r /Helvetica-Oblique findfont 56.3093 sf 0 0 m (tHq) show NC gr 
 gsave  2268 1103 0 472 C 1720.03 1130.9 t 0 r /Helvetica findfont 56.3093 sf 0 0 m ( ) show NC gr  1 0 0 c 3 lw 1626 1119 m 79 X 52 Y -79 X f black
 gsave  2268 1103 0 472 C 1314.45 1056.89 t 0 r /Helvetica findfont 56.3093 sf 0 0 m ( Other) show NC gr  1 0.84 0 c 3 lw 1219 1046 m 79 X 51 Y -79 X f black
 gsave  2268 1103 0 472 C 1720.03 1056.89 t 0 r /Helvetica findfont 56.3093 sf 0 0 m ( Uncertainty) show NC gr  0.6 0.6 0.6 c 3 lw 1705 1061 m -15 -15 d s 1705 1080 m -34 -34 d s 1703 1097 m -51 -51 d s 1684 1097 m -51 -51 d s 1665 1097 m -39 -39 d s
 1646 1097 m -20 -20 d s 1626 1097 m s 1 0.84 0 c 0.6 0.6 0.6 c black
 gsave  2268 1103 0 472 C 894.061 1329.25 t 0 r /Helvetica findfont 41.4911 sf 0 0 m (\2551) show NC gr 
 gsave  2268 1103 0 472 C 399.663 1299.64 t 0 r /Helvetica findfont 62.2366 sf 0 0 m ( = 13 TeV,  139 fb) show NC gr 
 gsave  2268 1103 0 472 C 370.058 1299.64 t 0 r /Helvetica findfont 62.2366 sf 0 0 m (s) show NC gr  6 lw 349 1335 m 6 -38 d s 3 lw 355 1297 m 6 56 d s 361 1353 m 39 X s
 gsave  2268 1103 0 472 C 899.982 1201.95 t 0 r /Helvetica findfont 62.2366 sf 0 0 m (\)) show NC gr 
 gsave  2268 1103 0 472 C 843.733 1169.38 t 0 r /Helvetica findfont 41.4911 sf 0 0 m (HF) show NC gr 
 gsave  2268 1103 0 472 C 337.493 1201.95 t 0 r /Helvetica findfont 62.2366 sf 0 0 m ( 2L\(SS\), CR\(el/mu) show NC gr 
 gsave  2268 1103 0 472 C 337.493 1400.3 t 0 r /Helvetica-BoldOblique findfont 71.1276 sf 0 0 m (ATLAS) show NC gr 
 gsave  2268 1103 0 472 C 633.54 1400.3 t 0 r /Helvetica findfont 71.1276 sf 0 0 m (Internal) show NC gr 
 gr  gr showpage
end
%%EOF
