%!PS-Adobe-2.0 EPSF-2.0
%%BoundingBox:  0 0 567 396
%%Title: /lhome/ific/c/cardillo/tHq/Plots/Plots-30-05-22-PLIV-SF/2LSS_MC/Ht_CRfakes.eps: Ht_CRfakes
%%Creator: ROOT Version 6.20/06
%%CreationDate: Tue May 31 15:03:55 2022
%%DocumentNeededResources: ProcSet (FontSetInit)
%%EndComments
%%BeginProlog
80 dict begin
/s {stroke} def /l {lineto} def /m {moveto} def /t {translate} def
/r {rotate} def /rl {roll}  def /R {repeat} def
/d {rlineto} def /rm {rmoveto} def /gr {grestore} def /f {eofill} def
/c {setrgbcolor} def /black {0 setgray} def /sd {setdash} def
/cl {closepath} def /sf {scalefont setfont} def /lw {setlinewidth} def
/box {m dup 0 exch d exch 0 d 0 exch neg d cl} def
/NC{systemdict begin initclip end}def/C{NC box clip newpath}def
/bl {box s} def /bf {gsave box gsave f grestore 1 lw [] 0 sd s grestore} def /Y { 0 exch d} def /X { 0 d} def 
/K {{pop pop 0 moveto} exch kshow} bind def
/ita {/ang 15 def gsave [1 0 ang dup sin exch cos div 1 0 0] concat} def 
/mp {newpath /y exch def /x exch def} def
/side {[w .77 mul w .23 mul] .385 w mul sd w 0 l currentpoint t -144 r} def
/mr {mp x y w2 0 360 arc} def /m24 {mr s} def /m20 {mr f} def
/mb {mp x y w2 add m w2 neg 0 d 0 w neg d w 0 d 0 w d cl} def
/mt {mp x y w2 add m w2 neg w neg d w 0 d cl} def
/w4 {w 4 div} def
/w6 {w 6 div} def
/w8 {w 8 div} def
/m21 {mb f} def /m25 {mb s} def /m22 {mt f} def /m26{mt s} def
/m23 {mp x y w2 sub m w2 w d w neg 0 d cl f} def
/m27 {mp x y w2 add m w3 neg w2 neg d w3 w2 neg d w3 w2 d cl s} def
/m28 {mp x w2 sub y w2 sub w3 add m w3 0 d  0 w3 neg d w3 0 d 0 w3 d w3 0 d  0 w3 d w3 neg 0 d 0 w3 d w3 neg 0 d 0 w3 neg d w3 neg 0 d cl s } def
/m29 {mp gsave x w2 sub y w2 add w3 sub m currentpoint t 4 {side} repeat cl fill gr} def
/m30 {mp gsave x w2 sub y w2 add w3 sub m currentpoint t 4 {side} repeat cl s gr} def
/m31 {mp x y w2 sub m 0 w d x w2 sub y m w 0 d x w2 sub y w2 add m w w neg d x w2 sub y w2 sub m w w d s} def
/m32 {mp x y w2 sub m w2 w d w neg 0 d cl s} def
/m33 {mp x y w2 add m w3 neg w2 neg d w3 w2 neg d w3 w2 d cl f} def
/m34 {mp x w2 sub y w2 sub w3 add m w3 0 d  0 w3 neg d w3 0 d 0 w3 d w3 0 d  0 w3 d w3 neg 0 d 0 w3 d w3 neg 0 d 0 w3 neg d w3 neg 0 d cl f } def
/m35 {mp x y w2 add m w2 neg w2 neg d w2 w2 neg d w2 w2 d w2 neg w2 d x y w2 sub m 0 w d x w2 sub y m w 0 d s} def
/m36 {mb x w2 sub y w2 add m w w neg d x w2 sub y w2 sub m w w d s} def
/m37 {mp x y m w4 neg w2 d w4 neg w2 neg d w2 0 d  w4 neg w2 neg d w2 0 d w4 neg w2 d w2 0 d w4 neg w2 d w4 neg w2 neg d cl s} def
/m38 {mp x w4 sub y w2 add m w4 neg w4 neg d 0 w2 neg d w4 w4 neg d w2 0 d w4 w4 d 0 w2 d w4 neg w4 d w2 neg 0 d x y w2 sub m 0 w d x w2 sub y m w 0 d cl s} def
/m39 {mp x y m w4 neg w2 d w4 neg w2 neg d w2 0 d  w4 neg w2 neg d w2 0 d w4 neg w2 d w2 0 d w4 neg w2 d w4 neg w2 neg d cl f} def
/m40 {mp x y m w4 w2 d w4 w4 neg d w2 neg w4 neg d w2 w4 neg d w4 neg w4 neg d w4 neg w2 d w4 neg w2 neg d w4 neg w4 d w2 w4 d w2 neg w4 d w4 w4 d w4 w2 neg d cl s} def
/m41 {mp x y m w4 w2 d w4 w4 neg d w2 neg w4 neg d w2 w4 neg d w4 neg w4 neg d w4 neg w2 d w4 neg w2 neg d w4 neg w4 d w2 w4 d w2 neg w4 d w4 w4 d w4 w2 neg d cl f} def
/m42 {mp x y w2 add m w8 neg w2 -3 4 div mul d w2 -3 4 div mul w8 neg d w2 3 4 div mul w8 neg d w8 w2 -3 4 div mul d w8 w2 3 4 div mul d w2 3 4 div mul w8 d w2 -3 4 div mul w8 d w8 neg w2 3 4 div mul d cl s} def
/m43 {mp x y w2 add m w8 neg w2 -3 4 div mul d w2 -3 4 div mul w8 neg d w2 3 4 div mul w8 neg d w8 w2 -3 4 div mul d w8 w2 3 4 div mul d w2 3 4 div mul w8 d w2 -3 4 div mul w8 d w8 neg w2 3 4 div mul d cl f} def
/m44 {mp x y m w6 neg w2 d w2 2 3 div mul 0 d w6 neg w2 neg d w2 w6 d 0 w2 -2 3 div mul d w2 neg w6 d w6 w2 neg d w2 -2 3 div mul 0 d w6 w2 d w2 neg w6 neg d 0 w2 2 3 div mul d w2 w6 neg d cl s} def
/m45 {mp x y m w6 neg w2 d w2 2 3 div mul 0 d w6 neg w2 neg d w2 w6 d 0 w2 -2 3 div mul d w2 neg w6 d w6 w2 neg d w2 -2 3 div mul 0 d w6 w2 d w2 neg w6 neg d 0 w2 2 3 div mul d w2 w6 neg d cl f} def
/m46 {mp x y w4 add m w4 neg w4 d w4 neg w4 neg d  w4 w4 neg d w4 neg w4 neg d w4 w4 neg d w4 w4 d w4 w4 neg d w4 w4 d w4 neg w4 d w4 w4 d w4 neg w4 d w4 neg w4 neg d cl s} def
/m47 {mp x y w4 add m w4 neg w4 d w4 neg w4 neg d w4 w4 neg d w4 neg w4 neg d  w4 w4 neg d w4 w4 d w4 w4 neg d w4 w4 d w4 neg w4 d w4 w4 d w4 neg w4 d w4 neg w4 neg d cl f} def
/m48 {mp x y w4 add m w4 neg w4 d w4 neg w4 neg d w4 w4 neg d  w4 neg w4 neg d w4 w4 neg d w4 w4 d w4 w4 neg d w4 w4 d w4 neg w4 d w4 w4 d w4 neg w4 d w4 neg w4 neg d  w4 w4 neg d w4 neg w4 neg d w4 neg w4 d w4 w4 d cl f} def
/m49 {mp x w2 sub w3 add y w2 sub w3 add m  0 w3 neg d w3 0 d 0 w3 d w3 0 d 0 w3 d w3 neg 0 d 0 w3 d w3 neg 0 d 0 w3 neg d w3 neg 0 d 0 w3 neg d w3 0 d 0 w3 d w3 0 d 0 w3 neg d w3 neg 0 d cl f } def
/m2 {mp x y w2 sub m 0 w d x w2 sub y m w 0 d s} def
/m5 {mp x w2 sub y w2 sub m w w d x w2 sub y w2 add m w w neg d s} def
%%IncludeResource: ProcSet (FontSetInit)
%%IncludeResource: font Times-Roman
%%IncludeResource: font Times-Italic
%%IncludeResource: font Times-Bold
%%IncludeResource: font Times-BoldItalic
%%IncludeResource: font Helvetica
%%IncludeResource: font Helvetica-Oblique
%%IncludeResource: font Helvetica-Bold
%%IncludeResource: font Helvetica-BoldOblique
%%IncludeResource: font Courier
%%IncludeResource: font Courier-Oblique
%%IncludeResource: font Courier-Bold
%%IncludeResource: font Courier-BoldOblique
%%IncludeResource: font Symbol
%%IncludeResource: font ZapfDingbats
/reEncode {exch findfont dup length dict begin {1 index /FID eq  {pop pop} {def} ifelse } forall /Encoding exch def currentdict end dup /FontName get exch definefont pop } def [/Times-Bold /Times-Italic /Times-BoldItalic /Helvetica /Helvetica-Oblique
 /Helvetica-Bold /Helvetica-BoldOblique /Courier /Courier-Oblique /Courier-Bold /Courier-BoldOblique /Times-Roman /AvantGarde-Book /AvantGarde-BookOblique /AvantGarde-Demi /AvantGarde-DemiOblique /Bookman-Demi /Bookman-DemiItalic /Bookman-Light
 /Bookman-LightItalic /Helvetica-Narrow /Helvetica-Narrow-Bold /Helvetica-Narrow-BoldOblique /Helvetica-Narrow-Oblique /NewCenturySchlbk-Roman /NewCenturySchlbk-Bold /NewCenturySchlbk-BoldItalic /NewCenturySchlbk-Italic /Palatino-Bold
 /Palatino-BoldItalic /Palatino-Italic /Palatino-Roman ] {ISOLatin1Encoding reEncode } forall
%%EndProlog
%%BeginSetup
%%EndSetup
newpath  gsave  .25 .25 scale  gsave  0 0 t black[  ] 0 sd 3 lw 1 1 1 c 2268 1583 0 0 bf black 1 1 1 c 2268 475 0 0 bf black 1 1 1 c 1927 275 227 190 bf black 1927 275 227 190 bl 227 190 m 1927 X s 227 202 m -12 Y s 282 196 m -6 Y s 337 196 m -6 Y s
 392 196 m -6 Y s 447 196 m -6 Y s 502 202 m -12 Y s 557 196 m -6 Y s 612 196 m -6 Y s 667 196 m -6 Y s 722 196 m -6 Y s 778 202 m -12 Y s 833 196 m -6 Y s 888 196 m -6 Y s 943 196 m -6 Y s 998 196 m -6 Y s 1053 202 m -12 Y s 1108 196 m -6 Y s 1163
 196 m -6 Y s 1218 196 m -6 Y s 1273 196 m -6 Y s 1328 202 m -12 Y s 1383 196 m -6 Y s 1438 196 m -6 Y s 1493 196 m -6 Y s 1549 196 m -6 Y s 1604 202 m -12 Y s 1659 196 m -6 Y s 1714 196 m -6 Y s 1769 196 m -6 Y s 1824 196 m -6 Y s 1879 202 m -12 Y s
 1934 196 m -6 Y s 1989 196 m -6 Y s 2044 196 m -6 Y s 2099 196 m -6 Y s 2154 202 m -12 Y s
 gsave  2268 475 0 0 C 180.118 126.968 t 0 r /Helvetica findfont 53.4154 sf 0 0 m (300) show NC gr 
 gsave  2268 475 0 0 C 457.677 126.968 t 0 r /Helvetica findfont 53.4154 sf 0 0 m (400) show NC gr 
 gsave  2268 475 0 0 C 732.283 126.968 t 0 r /Helvetica findfont 53.4154 sf 0 0 m (500) show NC gr 
 gsave  2268 475 0 0 C 1006.89 126.968 t 0 r /Helvetica findfont 53.4154 sf 0 0 m (600) show NC gr 
 gsave  2268 475 0 0 C 1281.5 126.968 t 0 r /Helvetica findfont 53.4154 sf 0 0 m (700) show NC gr 
 gsave  2268 475 0 0 C 1559.06 126.968 t 0 r /Helvetica findfont 53.4154 sf 0 0 m (800) show NC gr 
 gsave  2268 475 0 0 C 1833.66 126.968 t 0 r /Helvetica findfont 53.4154 sf 0 0 m (900) show NC gr 
 gsave  2268 475 0 0 C 2093.5 126.968 t 0 r /Helvetica findfont 53.4154 sf 0 0 m (1000) show NC gr 
 gsave  2268 475 0 0 C 1996.06 47.2441 t 0 r /Helvetica findfont 56.3829 sf 0 0 m ( [GeV]) show NC gr 
 gsave  2268 475 0 0 C 1972.44 29.5276 t 0 r /Helvetica findfont 38.5778 sf 0 0 m (T) show NC gr 
 gsave  2268 475 0 0 C 1925.2 47.2441 t 0 r /Helvetica-Oblique findfont 56.3829 sf 0 0 m (H) show NC gr  227 465 m 1927 X s 227 453 m 12 Y s 282 459 m 6 Y s 337 459 m 6 Y s 392 459 m 6 Y s 447 459 m 6 Y s 502 453 m 12 Y s 557 459 m 6 Y s 612 459 m 6
 Y s 667 459 m 6 Y s 722 459 m 6 Y s 778 453 m 12 Y s 833 459 m 6 Y s 888 459 m 6 Y s 943 459 m 6 Y s 998 459 m 6 Y s 1053 453 m 12 Y s 1108 459 m 6 Y s 1163 459 m 6 Y s 1218 459 m 6 Y s 1273 459 m 6 Y s 1328 453 m 12 Y s 1383 459 m 6 Y s 1438 459 m
 6 Y s 1493 459 m 6 Y s 1549 459 m 6 Y s 1604 453 m 12 Y s 1659 459 m 6 Y s 1714 459 m 6 Y s 1769 459 m 6 Y s 1824 459 m 6 Y s 1879 453 m 12 Y s 1934 459 m 6 Y s 1989 459 m 6 Y s 2044 459 m 6 Y s 2099 459 m 6 Y s 2154 453 m 12 Y s 227 190 m 275 Y s
 240 242 m -13 X s 240 328 m -13 X s 240 414 m -13 X s 240 242 m -13 X s 240 414 m -13 X s
 gsave  2268 475 0 0 C 118.11 221.457 t 0 r /Helvetica findfont 53.4154 sf 0 0 m (0.5) show NC gr 
 gsave  2268 475 0 0 C 171.26 307.087 t 0 r /Helvetica findfont 53.4154 sf 0 0 m (1) show NC gr 
 gsave  2268 475 0 0 C 118.11 395.669 t 0 r /Helvetica findfont 53.4154 sf 0 0 m (1.5) show NC gr 
 gsave  2268 475 0 0 C 70.8661 233.268 t 90 r /Helvetica findfont 53.4154 sf 0 0 m (Data / SM) show NC gr  2154 190 m 275 Y s 2141 242 m 13 X s 2141 328 m 13 X s 2141 414 m 13 X s 2141 242 m 13 X s 2141 414 m 13 X s 227 190 m 1927 X s 227 465 m 1927
 X s 227 190 m 275 Y s[ 4 8] 0 sd 2154 242 m -1927 X s 2154 328 m -1927 X s 2154 414 m -1927 X s 2154 242 m -1927 X s 2154 414 m -1927 X s[  ] 0 sd 2154 190 m 275 Y s 1 1 0.6 c 137 0 227 328 bf 138 0 364 328 bf 138 0 502 328 bf 138 0 640 328 bf 137 0
 778 328 bf 138 0 915 328 bf 138 0 1053 328 bf 137 0 1191 328 bf 138 0 1328 328 bf 138 0 1466 328 bf 137 0 1604 328 bf 138 0 1741 328 bf 138 0 1879 328 bf 137 0 2017 328 bf black 0.6 0.6 0.6 c 364 328 m -3 -4 d s 349 331 m -7 -7 d s 330 331 m -8 -7 d
 s 310 331 m -7 -7 d s 291 331 m -7 -7 d s 272 331 m -7 -7 d s 253 331 m -8 -7 d s 233 331 m -6 -6 d s 502 331 m -7 -7 d s 484 332 m -8 -8 d s 465 332 m -8 -8 d s 445 332 m -7 -8 d s 426 332 m -8 -8 d s 407 332 m -8 -8 d s 388 332 m -8 -8 d s 368 332
 m -4 -4 d s 638 332 m -8 -9 d s 619 332 m -9 -9 d s 600 332 m -9 -9 d s 580 332 m -8 -9 d s 561 332 m -8 -9 d s 542 332 m -9 -9 d s 523 332 m -9 -9 d s 504 332 m -2 -1 d s 773 332 m -9 -9 d s 754 332 m -9 -9 d s 735 332 m -10 -9 d s 716 332 m -10 -9
 d s 696 332 m -9 -9 d s 677 332 m -9 -9 d s 658 332 m -10 -9 d s 908 332 m -9 -9 d s 889 332 m -10 -9 d s 869 332 m -9 -9 d s 850 332 m -9 -9 d s 831 332 m -9 -9 d s 812 332 m -9 -9 d s 792 332 m -9 -9 d s 1053 323 m -2 -2 d s 1044 334 m -12 -13 d s
 1025 334 m -12 -13 d s 1006 334 m -13 -13 d s 986 334 m -12 -13 d s 967 334 m -12 -13 d s 948 334 m -12 -13 d s 929 334 m -13 -13 d s 1191 326 m -5 -5 d s 1179 334 m -13 -13 d s 1160 334 m -13 -13 d s 1140 334 m -12 -13 d s 1121 334 m -12 -13 d s
 1102 334 m -13 -13 d s 1083 334 m -13 -13 d s 1063 334 m -10 -11 d s 1328 329 m -8 -8 d s 1314 334 m -13 -13 d s 1295 334 m -13 -13 d s 1275 334 m -13 -13 d s 1256 334 m -13 -13 d s 1237 334 m -13 -13 d s 1218 334 m -13 -13 d s 1198 334 m -7 -8 d s
 1466 332 m -12 -12 d s 1449 335 m -14 -15 d s 1430 335 m -15 -15 d s 1411 335 m -15 -15 d s 1392 335 m -15 -15 d s 1373 335 m -15 -15 d s 1353 335 m -15 -15 d s 1334 335 m -6 -6 d s 1604 335 m -17 -16 d s 1585 336 m -17 -17 d s 1566 336 m -17 -17 d
 s 1547 336 m -17 -17 d s 1528 336 m -18 -17 d s 1508 336 m -17 -17 d s 1489 336 m -17 -17 d s 1470 336 m -4 -4 d s 1739 336 m -17 -17 d s 1720 336 m -17 -17 d s 1700 336 m -16 -17 d s 1681 336 m -16 -17 d s 1662 336 m -17 -17 d s 1643 336 m -17 -17
 d s 1623 336 m -16 -17 d s 1604 336 m -1 Y s 1879 322 m -5 -5 d s 1876 339 m -22 -22 d s 1857 339 m -22 -22 d s 1838 339 m -22 -22 d s 1819 339 m -22 -22 d s 1799 339 m -22 -22 d s 1780 339 m -22 -22 d s 1761 339 m -20 -20 d s 1742 339 m -1 -1 d s
 2017 325 m -10 -9 d s 2012 340 m -24 -24 d s 1993 340 m -24 -24 d s 1973 340 m -23 -24 d s 1954 340 m -24 -24 d s 1935 340 m -24 -24 d s 1916 340 m -24 -24 d s 1896 340 m -17 -18 d s 2154 328 m -3 -3 d s 2137 330 m -5 -5 d s 2118 330 m -5 -5 d s
 2099 330 m -5 -5 d s 2080 330 m -5 -5 d s 2060 330 m -5 -5 d s 2041 330 m -5 -5 d s 2022 330 m -5 -5 d s black 1 1 1 c black 296 323 m 2 Y s 296 348 m 2 Y s /w 26 def /w2 {w 2 div} def /w3 {w 3 div} def 296 336 m20 433 321 m 3 Y s 433 348 m 3 Y s
 433 336 m20 571 310 m 5 Y s 571 339 m 5 Y s 571 327 m20 709 324 m 8 Y s 709 356 m 8 Y s 709 344 m20 846 307 m 10 Y s 846 341 m 10 Y s 846 329 m20 984 283 m 10 Y s 984 317 m 10 Y s 984 305 m20 1122 335 m 18 Y s 1122 377 m 18 Y s 1122 365 m20 1259 289
 m 19 Y s 1259 332 m 19 Y s 1259 320 m20 1397 290 m 23 Y s 1397 337 m 23 Y s 1397 325 m20 1535 303 m 32 Y s 1535 358 m 32 Y s 1535 347 m20 1672 321 m 40 Y s 1672 384 m 40 Y s 1672 372 m20 1810 284 m 41 Y s 1810 348 m 41 Y s 1810 336 m20 1948 294 m 48
 Y s 1948 366 m 48 Y s 1948 354 m20 2085 337 m 18 Y s 2085 378 m 18 Y s 2085 366 m20 227 328 m 1927 X s 227 190 m 1927 X s 227 202 m -12 Y s 282 196 m -6 Y s 337 196 m -6 Y s 392 196 m -6 Y s 447 196 m -6 Y s 502 202 m -12 Y s 557 196 m -6 Y s 612
 196 m -6 Y s 667 196 m -6 Y s 722 196 m -6 Y s 778 202 m -12 Y s 833 196 m -6 Y s 888 196 m -6 Y s 943 196 m -6 Y s 998 196 m -6 Y s 1053 202 m -12 Y s 1108 196 m -6 Y s 1163 196 m -6 Y s 1218 196 m -6 Y s 1273 196 m -6 Y s 1328 202 m -12 Y s 1383
 196 m -6 Y s 1438 196 m -6 Y s 1493 196 m -6 Y s 1549 196 m -6 Y s 1604 202 m -12 Y s 1659 196 m -6 Y s 1714 196 m -6 Y s 1769 196 m -6 Y s 1824 196 m -6 Y s 1879 202 m -12 Y s 1934 196 m -6 Y s 1989 196 m -6 Y s 2044 196 m -6 Y s 2099 196 m -6 Y s
 2154 202 m -12 Y s 227 465 m 1927 X s 227 453 m 12 Y s 282 459 m 6 Y s 337 459 m 6 Y s 392 459 m 6 Y s 447 459 m 6 Y s 502 453 m 12 Y s 557 459 m 6 Y s 612 459 m 6 Y s 667 459 m 6 Y s 722 459 m 6 Y s 778 453 m 12 Y s 833 459 m 6 Y s 888 459 m 6 Y s
 943 459 m 6 Y s 998 459 m 6 Y s 1053 453 m 12 Y s 1108 459 m 6 Y s 1163 459 m 6 Y s 1218 459 m 6 Y s 1273 459 m 6 Y s 1328 453 m 12 Y s 1383 459 m 6 Y s 1438 459 m 6 Y s 1493 459 m 6 Y s 1549 459 m 6 Y s 1604 453 m 12 Y s 1659 459 m 6 Y s 1714 459 m
 6 Y s 1769 459 m 6 Y s 1824 459 m 6 Y s 1879 453 m 12 Y s 1934 459 m 6 Y s 1989 459 m 6 Y s 2044 459 m 6 Y s 2099 459 m 6 Y s 2154 453 m 12 Y s 227 190 m 275 Y s 240 242 m -13 X s 240 328 m -13 X s 240 414 m -13 X s 240 242 m -13 X s 240 414 m -13 X
 s 2154 190 m 275 Y s 2141 242 m 13 X s 2141 328 m 13 X s 2141 414 m 13 X s 2141 242 m 13 X s 2141 414 m 13 X s 1 1 1 c 2268 1108 0 475 bf black 1 1 1 c 1927 1041 227 486 bf black 1927 1041 227 486 bl 1 1 1 c black 3 lw 227 486 m 1927 X s 227 505 m
 -19 Y s 282 495 m -9 Y s 337 495 m -9 Y s 392 495 m -9 Y s 447 495 m -9 Y s 502 505 m -19 Y s 557 495 m -9 Y s 612 495 m -9 Y s 667 495 m -9 Y s 722 495 m -9 Y s 778 505 m -19 Y s 833 495 m -9 Y s 888 495 m -9 Y s 943 495 m -9 Y s 998 495 m -9 Y s
 1053 505 m -19 Y s 1108 495 m -9 Y s 1163 495 m -9 Y s 1218 495 m -9 Y s 1273 495 m -9 Y s 1328 505 m -19 Y s 1383 495 m -9 Y s 1438 495 m -9 Y s 1493 495 m -9 Y s 1549 495 m -9 Y s 1604 505 m -19 Y s 1659 495 m -9 Y s 1714 495 m -9 Y s 1769 495 m
 -9 Y s 1824 495 m -9 Y s 1879 505 m -19 Y s 1934 495 m -9 Y s 1989 495 m -9 Y s 2044 495 m -9 Y s 2099 495 m -9 Y s 2154 505 m -19 Y s
 gsave  2268 1108 0 475 C 2061.02 404.528 t 0 r /Helvetica findfont 32.4976 sf 0 0 m ( [GeV]) show NC gr 
 gsave  2268 1108 0 475 C 2046.26 392.717 t 0 r /Helvetica findfont 20.6803 sf 0 0 m (T) show NC gr 
 gsave  2268 1108 0 475 C 2019.69 404.528 t 0 r /Helvetica-Oblique findfont 32.4976 sf 0 0 m (H) show NC gr  227 1527 m 1927 X s 227 1508 m 19 Y s 282 1518 m 9 Y s 337 1518 m 9 Y s 392 1518 m 9 Y s 447 1518 m 9 Y s 502 1508 m 19 Y s 557 1518 m 9 Y s
 612 1518 m 9 Y s 667 1518 m 9 Y s 722 1518 m 9 Y s 778 1508 m 19 Y s 833 1518 m 9 Y s 888 1518 m 9 Y s 943 1518 m 9 Y s 998 1518 m 9 Y s 1053 1508 m 19 Y s 1108 1518 m 9 Y s 1163 1518 m 9 Y s 1218 1518 m 9 Y s 1273 1518 m 9 Y s 1328 1508 m 19 Y s
 1383 1518 m 9 Y s 1438 1518 m 9 Y s 1493 1518 m 9 Y s 1549 1518 m 9 Y s 1604 1508 m 19 Y s 1659 1518 m 9 Y s 1714 1518 m 9 Y s 1769 1518 m 9 Y s 1824 1518 m 9 Y s 1879 1508 m 19 Y s 1934 1518 m 9 Y s 1989 1518 m 9 Y s 2044 1518 m 9 Y s 2099 1518 m 9
 Y s 2154 1508 m 19 Y s 227 486 m 1041 Y s 248 644 m -21 X s 237 676 m -10 X s 237 707 m -10 X s 237 739 m -10 X s 237 771 m -10 X s 248 802 m -21 X s 237 834 m -10 X s 237 866 m -10 X s 237 897 m -10 X s 237 929 m -10 X s 248 961 m -21 X s 237 992 m
 -10 X s 237 1024 m -10 X s 237 1056 m -10 X s 237 1087 m -10 X s 248 1119 m -21 X s 237 1151 m -10 X s 237 1182 m -10 X s 237 1214 m -10 X s 237 1246 m -10 X s 248 1277 m -21 X s 237 1309 m -10 X s 237 1341 m -10 X s 237 1372 m -10 X s 237 1404 m
 -10 X s 248 1436 m -21 X s 248 644 m -21 X s 237 612 m -10 X s 237 581 m -10 X s 237 549 m -10 X s 237 518 m -10 X s 248 1436 m -21 X s 237 1467 m -10 X s 237 1499 m -10 X s
 gsave  2268 1108 0 475 C 141.732 625.984 t 0 r /Helvetica findfont 53.178 sf 0 0 m (50) show NC gr 
 gsave  2268 1108 0 475 C 112.205 782.48 t 0 r /Helvetica findfont 53.178 sf 0 0 m (100) show NC gr 
 gsave  2268 1108 0 475 C 112.205 941.929 t 0 r /Helvetica findfont 53.178 sf 0 0 m (150) show NC gr 
 gsave  2268 1108 0 475 C 112.205 1098.43 t 0 r /Helvetica findfont 53.178 sf 0 0 m (200) show NC gr 
 gsave  2268 1108 0 475 C 112.205 1257.87 t 0 r /Helvetica findfont 53.178 sf 0 0 m (250) show NC gr 
 gsave  2268 1108 0 475 C 112.205 1417.32 t 0 r /Helvetica findfont 53.178 sf 0 0 m (300) show NC gr 
 gsave  2268 1108 0 475 C 64.9606 1142.72 t 90 r /Helvetica findfont 53.178 sf 0 0 m (Events / 50 GeV) show NC gr  2154 486 m 1041 Y s 2133 644 m 21 X s 2144 676 m 10 X s 2144 707 m 10 X s 2144 739 m 10 X s 2144 771 m 10 X s 2133 802 m 21 X s 2144
 834 m 10 X s 2144 866 m 10 X s 2144 897 m 10 X s 2144 929 m 10 X s 2133 961 m 21 X s 2144 992 m 10 X s 2144 1024 m 10 X s 2144 1056 m 10 X s 2144 1087 m 10 X s 2133 1119 m 21 X s 2144 1151 m 10 X s 2144 1182 m 10 X s 2144 1214 m 10 X s 2144 1246 m
 10 X s 2133 1277 m 21 X s 2144 1309 m 10 X s 2144 1341 m 10 X s 2144 1372 m 10 X s 2144 1404 m 10 X s 2133 1436 m 21 X s 2133 644 m 21 X s 2144 612 m 10 X s 2144 581 m 10 X s 2144 549 m 10 X s 2144 518 m 10 X s 2133 1436 m 21 X s 2144 1467 m 10 X s
 2144 1499 m 10 X s 0.06 0.54 0.06 c black 3 lw 0.06 0.54 0.06 c 227 486 m 548 Y 137 X -116 Y 138 X -95 Y 138 X -74 Y 138 X -62 Y 137 X -37 Y 138 X -39 Y 138 X -32 Y 137 X -19 Y 138 X -20 Y 138 X -9 Y 137 X -9 Y 138 X -6 Y 138 X 99 Y 137 X -129 Y f 1
 0.653333 0 c 0.999 0.999 0.999 c black 3 lw 0.999 0.999 0.999 c 227 486 m 329 Y 137 X -48 Y 138 X -56 Y 138 X -43 Y 138 X -38 Y 137 X -29 Y 138 X -25 Y 138 X -20 Y 137 X -15 Y 138 X -15 Y 138 X -4 Y 137 X -10 Y 138 X -4 Y 138 X 80 Y 137 X -102 Y f 1
 0.653333 0 c 0.999 0.999 0.999 c 1 0.653333 0 c 1 1 1 c black 1 0.653333 0 c black 3 lw 1 0.653333 0 c 227 486 m 329 Y 137 X -48 Y 138 X -56 Y 138 X -43 Y 138 X -38 Y 137 X -29 Y 138 X -25 Y 138 X -20 Y 137 X -15 Y 138 X -15 Y 138 X -4 Y 137 X -10 Y
 138 X -4 Y 138 X 80 Y 137 X -102 Y f 0.413333 1 0 c 0.999 0.999 0.999 c black 3 lw 0.999 0.999 0.999 c 227 486 m 296 Y 137 X -46 Y 138 X -43 Y 138 X -44 Y 138 X -33 Y 137 X -30 Y 138 X -20 Y 138 X -18 Y 137 X -13 Y 138 X -13 Y 138 X -5 Y 137 X -6 Y
 138 X -6 Y 138 X 69 Y 137 X -88 Y f 0.413333 1 0 c 0.999 0.999 0.999 c 0.413333 1 0 c 1 1 1 c black 0.413333 1 0 c black 3 lw 0.413333 1 0 c 227 486 m 296 Y 137 X -46 Y 138 X -43 Y 138 X -44 Y 138 X -33 Y 137 X -30 Y 138 X -20 Y 138 X -18 Y 137 X
 -13 Y 138 X -13 Y 138 X -5 Y 137 X -6 Y 138 X -6 Y 138 X 69 Y 137 X -88 Y f 0.6 0.2 1 c 0.999 0.999 0.999 c black 3 lw 0.999 0.999 0.999 c 227 486 m 264 Y 137 X -41 Y 138 X -38 Y 138 X -39 Y 138 X -30 Y 137 X -27 Y 138 X -19 Y 138 X -16 Y 137 X -12
 Y 138 X -10 Y 138 X -5 Y 137 X -6 Y 138 X -5 Y 138 X 54 Y 137 X -70 Y f 0.6 0.2 1 c 0.999 0.999 0.999 c 0.6 0.2 1 c 1 1 1 c black 0.6 0.2 1 c black 3 lw 0.6 0.2 1 c 227 486 m 264 Y 137 X -41 Y 138 X -38 Y 138 X -39 Y 138 X -30 Y 137 X -27 Y 138 X
 -19 Y 138 X -16 Y 137 X -12 Y 138 X -10 Y 138 X -5 Y 137 X -6 Y 138 X -5 Y 138 X 54 Y 137 X -70 Y f 0.54 0.06 0.06 c 0.999 0.999 0.999 c black 3 lw 0.999 0.999 0.999 c 227 486 m 227 Y 137 X -37 Y 138 X -32 Y 138 X -34 Y 138 X -26 Y 137 X -22 Y 138 X
 -17 Y 138 X -14 Y 137 X -9 Y 138 X -9 Y 138 X -4 Y 137 X -4 Y 138 X -6 Y 138 X 47 Y 137 X -60 Y f 0.54 0.06 0.06 c 0.999 0.999 0.999 c 0.54 0.06 0.06 c 1 1 1 c black 0.54 0.06 0.06 c black 3 lw 0.54 0.06 0.06 c 227 486 m 227 Y 137 X -37 Y 138 X -32
 Y 138 X -34 Y 138 X -26 Y 137 X -22 Y 138 X -17 Y 138 X -14 Y 137 X -9 Y 138 X -9 Y 138 X -4 Y 137 X -4 Y 138 X -6 Y 138 X 47 Y 137 X -60 Y f 1 0 1 c 0.999 0.999 0.999 c black 3 lw 0.999 0.999 0.999 c 227 486 m 53 Y 137 X -9 Y 138 X -6 Y 138 X -7 Y
 138 X -10 Y 137 X -5 Y 138 X -4 Y 138 X -3 Y 137 X -2 Y 138 X -2 Y 138 X -1 Y 137 X -1 Y 138 X -1 Y 138 X 8 Y 137 X -10 Y f 1 0 1 c 0.999 0.999 0.999 c 1 0 1 c 1 1 1 c black 1 0 1 c black 3 lw 1 0 1 c 227 486 m 53 Y 137 X -9 Y 138 X -6 Y 138 X -7 Y
 138 X -10 Y 137 X -5 Y 138 X -4 Y 138 X -3 Y 137 X -2 Y 138 X -2 Y 138 X -1 Y 137 X -1 Y 138 X -1 Y 138 X 8 Y 137 X -10 Y f 0 0 1 c 0.999 0.999 0.999 c black 3 lw 0.999 0.999 0.999 c 227 486 m 45 Y 137 X -8 Y 138 X -4 Y 138 X -6 Y 138 X -9 Y 137 X
 -4 Y 138 X -4 Y 138 X -2 Y 137 X -2 Y 138 X -2 Y 275 X -1 Y 138 X -1 Y 138 X 7 Y 137 X -9 Y f 0 0 1 c 0.999 0.999 0.999 c 0 0 1 c 1 1 1 c black 0 0 1 c black 3 lw 0 0 1 c 227 486 m 45 Y 137 X -8 Y 138 X -4 Y 138 X -6 Y 138 X -9 Y 137 X -4 Y 138 X -4
 Y 138 X -2 Y 137 X -2 Y 138 X -2 Y 275 X -1 Y 138 X -1 Y 138 X 7 Y 137 X -9 Y f 0.2 0.8 0.8 c 0.999 0.999 0.999 c black 3 lw 0.999 0.999 0.999 c 227 486 m 9 Y 137 X -3 Y 138 X 3 Y 138 X -1 Y 138 X -5 Y 275 X -1 Y 275 X -1 Y 551 X -1 Y 138 X 3 Y 137
 X -3 Y f 0.2 0.8 0.8 c 0.999 0.999 0.999 c 0.2 0.8 0.8 c 1 1 1 c black 0.2 0.8 0.8 c black 3 lw 0.2 0.8 0.8 c 227 486 m 9 Y 137 X -3 Y 138 X 3 Y 138 X -1 Y 138 X -5 Y 275 X -1 Y 275 X -1 Y 551 X -1 Y 138 X 3 Y 137 X -3 Y f 1 0 0 c 0.999 0.999 0.999
 c black 3 lw 0.999 0.999 0.999 c 227 486 m 4 Y 137 X -3 Y 138 X 4 Y 276 X -4 Y 688 X -1 Y 551 X 2 Y 137 X -2 Y f 1 0 0 c 0.999 0.999 0.999 c 1 0 0 c 1 1 1 c black 1 0 0 c black 3 lw 1 0 0 c 227 486 m 4 Y 137 X -3 Y 138 X 4 Y 276 X -4 Y 688 X -1 Y
 551 X 2 Y 137 X -2 Y f 1 0.84 0 c 0.999 0.999 0.999 c black 3 lw 0.999 0.999 0.999 c 227 486 m 3 Y 137 X -2 Y 138 X 4 Y 276 X -4 Y 688 X -1 Y 551 X 2 Y 137 X -2 Y f 1 0.84 0 c 0.999 0.999 0.999 c 1 0.84 0 c 1 1 1 c black 1 0.84 0 c black 3 lw 1 0.84
 0 c 227 486 m 3 Y 137 X -2 Y 138 X 4 Y 276 X -4 Y 688 X -1 Y 551 X 2 Y 137 X -2 Y f black 1 1 1 c black 0.6 0.6 0.6 c 3 lw 364 1030 m -8 -8 d s 360 1045 m -23 -23 d s 341 1045 m -23 -23 d s 322 1045 m -23 -23 d s 303 1045 m -24 -23 d s 283 1045 m
 -23 -23 d s 264 1045 m -23 -23 d s 245 1045 m -18 -17 d s 3 lw 502 918 m -11 -10 d s 492 927 m -20 -19 d s 473 927 m -20 -19 d s 454 927 m -20 -19 d s 434 927 m -19 -19 d s 415 927 m -20 -19 d s 396 927 m -20 -19 d s 377 927 m -13 -12 d s 3 lw 640
 825 m -11 -11 d s 626 831 m -17 -17 d s 607 831 m -17 -17 d s 588 831 m -17 -17 d s 569 831 m -17 -17 d s 549 831 m -17 -17 d s 530 831 m -17 -17 d s 511 831 m -9 -9 d s 3 lw 778 751 m -11 -10 d s 763 756 m -15 -15 d s 743 756 m -14 -15 d s 724 756
 m -14 -15 d s 705 756 m -15 -15 d s 686 756 m -15 -15 d s 666 756 m -14 -15 d s 647 756 m -7 -8 d s 3 lw 911 692 m -11 -10 d s 891 692 m -10 -10 d s 872 692 m -10 -10 d s 853 692 m -11 -10 d s 834 692 m -11 -10 d s 815 692 m -11 -10 d s 795 692 m
 -10 -10 d s 3 lw 1047 656 m -12 -12 d s 1028 656 m -12 -12 d s 1009 656 m -12 -12 d s 989 656 m -11 -12 d s 970 656 m -12 -12 d s 951 656 m -12 -12 d s 932 656 m -12 -12 d s 3 lw 1191 607 m -1 -1 d s 1180 615 m -9 -9 d s 1161 615 m -9 -9 d s 1141
 615 m -9 -9 d s 1122 615 m -9 -9 d s 1103 615 m -9 -9 d s 1084 615 m -9 -9 d s 1064 615 m -9 -9 d s 3 lw 1320 582 m -7 -7 d s 1301 582 m -7 -7 d s 1281 582 m -7 -7 d s 1262 582 m -7 -7 d s 1243 582 m -7 -7 d s 1224 582 m -7 -7 d s 1204 582 m -7 -7 d
 s 3 lw 1455 563 m -7 -6 d s 1435 563 m -6 -6 d s 1416 563 m -6 -6 d s 1397 563 m -7 -6 d s 1378 563 m -7 -6 d s 1358 563 m -6 -6 d s 1339 563 m -6 -6 d s 3 lw 1604 539 m -2 -2 d s 1588 543 m -5 -6 d s 1569 543 m -5 -6 d s 1550 543 m -6 -6 d s 1531
 543 m -6 -6 d s 1511 543 m -5 -6 d s 1492 543 m -5 -6 d s 1473 543 m -6 -6 d s 3 lw 1733 533 m -5 -4 d s 1713 533 m -4 -4 d s 1694 533 m -4 -4 d s 1675 533 m -4 -4 d s 1656 533 m -5 -4 d s 1636 533 m -4 -4 d s 1617 533 m -4 -4 d s 3 lw 1878 524 m -5
 -4 d s 1858 524 m -4 -4 d s 1839 524 m -5 -4 d s 1820 524 m -5 -4 d s 1801 524 m -5 -4 d s 1781 524 m -4 -4 d s 1762 524 m -4 -4 d s 1743 524 m -2 -1 d s 3 lw 2006 518 m -4 -4 d s 1987 518 m -4 -4 d s 1968 518 m -5 -4 d s 1948 518 m -4 -4 d s 1929
 518 m -4 -4 d s 1910 518 m -4 -4 d s 1891 518 m -4 -4 d s 3 lw 2144 617 m -4 -4 d s 2124 617 m -3 -4 d s 2105 617 m -4 -4 d s 2086 617 m -4 -4 d s 2067 617 m -4 -4 d s 2047 617 m -3 -4 d s 2028 617 m -4 -4 d s black 3 lw 1 1 1 c black 296 1019 m 31
 Y s 296 1074 m 31 Y s /w 24 def /w2 {w 2 div} def /w3 {w 3 div} def 296 1062 m20 433 901 m 26 Y s 433 950 m 26 Y s 433 939 m20 571 789 m 21 Y s 571 833 m 21 Y s 571 821 m20 709 744 m 18 Y s 709 786 m 18 Y s 709 774 m20 846 663 m 14 Y s 846 700 m 14
 Y s 846 688 m20 984 607 m 10 Y s 984 640 m 10 Y s 984 628 m20 1122 616 m 10 Y s 1122 650 m 10 Y s 1122 638 m20 1259 558 m 5 Y s 1259 586 m 5 Y s 1259 575 m20 1397 543 m 4 Y s 1397 570 m 4 Y s 1397 559 m20 1535 532 m 2 Y s 1535 558 m 2 Y s 1535 546
 m20 1672 529 m 2 Y s 1672 555 m 1 Y s 1672 543 m20 1810 524 m20 1948 521 m20 2085 622 m 10 Y s 2085 656 m 11 Y s 2085 644 m20 227 486 m 1927 X s 227 505 m -19 Y s 282 495 m -9 Y s 337 495 m -9 Y s 392 495 m -9 Y s 447 495 m -9 Y s 502 505 m -19 Y s
 557 495 m -9 Y s 612 495 m -9 Y s 667 495 m -9 Y s 722 495 m -9 Y s 778 505 m -19 Y s 833 495 m -9 Y s 888 495 m -9 Y s 943 495 m -9 Y s 998 495 m -9 Y s 1053 505 m -19 Y s 1108 495 m -9 Y s 1163 495 m -9 Y s 1218 495 m -9 Y s 1273 495 m -9 Y s 1328
 505 m -19 Y s 1383 495 m -9 Y s 1438 495 m -9 Y s 1493 495 m -9 Y s 1549 495 m -9 Y s 1604 505 m -19 Y s 1659 495 m -9 Y s 1714 495 m -9 Y s 1769 495 m -9 Y s 1824 495 m -9 Y s 1879 505 m -19 Y s 1934 495 m -9 Y s 1989 495 m -9 Y s 2044 495 m -9 Y s
 2099 495 m -9 Y s 2154 505 m -19 Y s 227 1527 m 1927 X s 227 1508 m 19 Y s 282 1518 m 9 Y s 337 1518 m 9 Y s 392 1518 m 9 Y s 447 1518 m 9 Y s 502 1508 m 19 Y s 557 1518 m 9 Y s 612 1518 m 9 Y s 667 1518 m 9 Y s 722 1518 m 9 Y s 778 1508 m 19 Y s
 833 1518 m 9 Y s 888 1518 m 9 Y s 943 1518 m 9 Y s 998 1518 m 9 Y s 1053 1508 m 19 Y s 1108 1518 m 9 Y s 1163 1518 m 9 Y s 1218 1518 m 9 Y s 1273 1518 m 9 Y s 1328 1508 m 19 Y s 1383 1518 m 9 Y s 1438 1518 m 9 Y s 1493 1518 m 9 Y s 1549 1518 m 9 Y s
 1604 1508 m 19 Y s 1659 1518 m 9 Y s 1714 1518 m 9 Y s 1769 1518 m 9 Y s 1824 1518 m 9 Y s 1879 1508 m 19 Y s 1934 1518 m 9 Y s 1989 1518 m 9 Y s 2044 1518 m 9 Y s 2099 1518 m 9 Y s 2154 1508 m 19 Y s 227 486 m 1041 Y s 248 644 m -21 X s 237 676 m
 -10 X s 237 707 m -10 X s 237 739 m -10 X s 237 771 m -10 X s 248 802 m -21 X s 237 834 m -10 X s 237 866 m -10 X s 237 897 m -10 X s 237 929 m -10 X s 248 961 m -21 X s 237 992 m -10 X s 237 1024 m -10 X s 237 1056 m -10 X s 237 1087 m -10 X s 248
 1119 m -21 X s 237 1151 m -10 X s 237 1182 m -10 X s 237 1214 m -10 X s 237 1246 m -10 X s 248 1277 m -21 X s 237 1309 m -10 X s 237 1341 m -10 X s 237 1372 m -10 X s 237 1404 m -10 X s 248 1436 m -21 X s 248 644 m -21 X s 237 612 m -10 X s 237 581
 m -10 X s 237 549 m -10 X s 237 518 m -10 X s 248 1436 m -21 X s 237 1467 m -10 X s 237 1499 m -10 X s 2154 486 m 1041 Y s 2133 644 m 21 X s 2144 676 m 10 X s 2144 707 m 10 X s 2144 739 m 10 X s 2144 771 m 10 X s 2133 802 m 21 X s 2144 834 m 10 X s
 2144 866 m 10 X s 2144 897 m 10 X s 2144 929 m 10 X s 2133 961 m 21 X s 2144 992 m 10 X s 2144 1024 m 10 X s 2144 1056 m 10 X s 2144 1087 m 10 X s 2133 1119 m 21 X s 2144 1151 m 10 X s 2144 1182 m 10 X s 2144 1214 m 10 X s 2144 1246 m 10 X s 2133
 1277 m 21 X s 2144 1309 m 10 X s 2144 1341 m 10 X s 2144 1372 m 10 X s 2144 1404 m 10 X s 2133 1436 m 21 X s 2133 644 m 21 X s 2144 612 m 10 X s 2144 581 m 10 X s 2144 549 m 10 X s 2144 518 m 10 X s 2133 1436 m 21 X s 2144 1467 m 10 X s 2144 1499 m
 10 X s
 gsave  2268 1108 0 475 C 1313.98 1432.09 t 0 r /Helvetica findfont 56.1323 sf 0 0 m ( Data) show NC gr  1259 1458 m 10 Y s 1259 1434 m -10 Y s 1259 1446 m20
 gsave  2268 1108 0 475 C 1810.04 1432.09 t 0 r /Helvetica findfont 56.1323 sf 0 0 m (single\255top) show NC gr 
 gsave  2268 1108 0 475 C 1780.51 1432.09 t 0 r /Helvetica-Oblique findfont 56.1323 sf 0 0 m (/) show NC gr 
 gsave  2268 1108 0 475 C 1759.84 1432.09 t 0 r /Helvetica-Oblique findfont 56.1323 sf 0 0 m (t) show NC gr  6 lw 1760 1476 m 21 X s
 gsave  2268 1108 0 475 C 1739.17 1432.09 t 0 r /Helvetica-Oblique findfont 56.1323 sf 0 0 m (t) show NC gr 
 gsave  2268 1108 0 475 C 1721.46 1432.09 t 0 r /Helvetica findfont 56.1323 sf 0 0 m ( ) show NC gr  0.06 0.54 0.06 c 3 lw 1626 1420 m 79 X 52 Y -79 X f 6 lw black
 gsave  2268 1108 0 475 C 1443.9 1358.27 t 0 r /Helvetica findfont 56.1323 sf 0 0 m (+jets) show NC gr 
 gsave  2268 1108 0 475 C 1331.69 1358.27 t 0 r /Helvetica-Oblique findfont 56.1323 sf 0 0 m (W/Z) show NC gr 
 gsave  2268 1108 0 475 C 1313.98 1358.27 t 0 r /Helvetica findfont 56.1323 sf 0 0 m ( ) show NC gr  1 0.653333 0 c 3 lw 1219 1346 m 79 X 52 Y -79 X f black
 gsave  2268 1108 0 475 C 1919.29 1358.27 t 0 r /Helvetica findfont 56.1323 sf 0 0 m (+jets) show NC gr 
 gsave  2268 1108 0 475 C 1739.17 1358.27 t 0 r /Helvetica-Oblique findfont 56.1323 sf 0 0 m (WZ/ZZ) show NC gr 
 gsave  2268 1108 0 475 C 1721.46 1358.27 t 0 r /Helvetica findfont 56.1323 sf 0 0 m ( ) show NC gr  0.413333 1 0 c 3 lw 1626 1346 m 79 X 52 Y -79 X f black
 gsave  2268 1108 0 475 C 1373.03 1284.45 t 0 r /Helvetica-Oblique findfont 56.1323 sf 0 0 m (Z) show NC gr 
 gsave  2268 1108 0 475 C 1352.36 1284.45 t 0 r /Helvetica-Oblique findfont 56.1323 sf 0 0 m (t) show NC gr  6 lw 1352 1329 m 21 X s
 gsave  2268 1108 0 475 C 1331.69 1284.45 t 0 r /Helvetica-Oblique findfont 56.1323 sf 0 0 m (t) show NC gr 
 gsave  2268 1108 0 475 C 1313.98 1284.45 t 0 r /Helvetica findfont 56.1323 sf 0 0 m ( ) show NC gr  0.6 0.2 1 c 3 lw 1219 1272 m 79 X 52 Y -79 X f 6 lw black
 gsave  2268 1108 0 475 C 1780.51 1284.45 t 0 r /Helvetica-Oblique findfont 56.1323 sf 0 0 m (W) show NC gr 
 gsave  2268 1108 0 475 C 1759.84 1284.45 t 0 r /Helvetica-Oblique findfont 56.1323 sf 0 0 m (t) show NC gr  6 lw 1760 1329 m 21 X s
 gsave  2268 1108 0 475 C 1739.17 1284.45 t 0 r /Helvetica-Oblique findfont 56.1323 sf 0 0 m (t) show NC gr 
 gsave  2268 1108 0 475 C 1721.46 1284.45 t 0 r /Helvetica findfont 56.1323 sf 0 0 m ( ) show NC gr  0.54 0.06 0.06 c 3 lw 1626 1272 m 79 X 52 Y -79 X f 6 lw black
 gsave  2268 1108 0 475 C 1331.69 1210.63 t 0 r /Helvetica-Oblique findfont 56.1323 sf 0 0 m (tZq) show NC gr 
 gsave  2268 1108 0 475 C 1313.98 1210.63 t 0 r /Helvetica findfont 56.1323 sf 0 0 m ( ) show NC gr  1 0 1 c 3 lw 1219 1199 m 79 X 51 Y -79 X f black
 gsave  2268 1108 0 475 C 1780.51 1210.63 t 0 r /Helvetica-Oblique findfont 56.1323 sf 0 0 m (H) show NC gr 
 gsave  2268 1108 0 475 C 1759.84 1210.63 t 0 r /Helvetica-Oblique findfont 56.1323 sf 0 0 m (t) show NC gr  6 lw 1760 1255 m 21 X s
 gsave  2268 1108 0 475 C 1739.17 1210.63 t 0 r /Helvetica-Oblique findfont 56.1323 sf 0 0 m (t) show NC gr 
 gsave  2268 1108 0 475 C 1721.46 1210.63 t 0 r /Helvetica findfont 56.1323 sf 0 0 m ( ) show NC gr  0 0 1 c 3 lw 1626 1199 m 79 X 51 Y -79 X f 6 lw black
 gsave  2268 1108 0 475 C 1331.69 1136.81 t 0 r /Helvetica-Oblique findfont 56.1323 sf 0 0 m (tWZ/tWH) show NC gr 
 gsave  2268 1108 0 475 C 1313.98 1136.81 t 0 r /Helvetica findfont 56.1323 sf 0 0 m ( ) show NC gr  0.2 0.8 0.8 c 3 lw 1219 1125 m 79 X 51 Y -79 X f black
 gsave  2268 1108 0 475 C 1739.17 1136.81 t 0 r /Helvetica-Oblique findfont 56.1323 sf 0 0 m (tHq) show NC gr 
 gsave  2268 1108 0 475 C 1721.46 1136.81 t 0 r /Helvetica findfont 56.1323 sf 0 0 m ( ) show NC gr  1 0 0 c 3 lw 1626 1125 m 79 X 51 Y -79 X f black
 gsave  2268 1108 0 475 C 1313.98 1062.99 t 0 r /Helvetica findfont 56.1323 sf 0 0 m ( Other) show NC gr  1 0.84 0 c 3 lw 1219 1051 m 79 X 52 Y -79 X f black
 gsave  2268 1108 0 475 C 1721.46 1062.99 t 0 r /Helvetica findfont 56.1323 sf 0 0 m ( Uncertainty) show NC gr  0.6 0.6 0.6 c 3 lw 1705 1063 m -12 -12 d s 1705 1082 m -31 -31 d s 1705 1101 m -50 -50 d s 1687 1103 m -51 -52 d s 1668 1103 m -42 -43 d s
 1649 1103 m -23 -24 d s 1630 1103 m -4 -4 d s 1 0.84 0 c 0.6 0.6 0.6 c black
 gsave  2268 1108 0 475 C 894.685 1337.6 t 0 r /Helvetica findfont 41.3606 sf 0 0 m (\2551) show NC gr 
 gsave  2268 1108 0 475 C 401.575 1308.07 t 0 r /Helvetica findfont 62.0409 sf 0 0 m ( = 13 TeV,  139 fb) show NC gr 
 gsave  2268 1108 0 475 C 372.047 1308.07 t 0 r /Helvetica findfont 62.0409 sf 0 0 m (s) show NC gr  6 lw 351 1344 m 6 -39 d s 3 lw 357 1305 m 9 56 d s 366 1361 m 36 X s
 gsave  2268 1108 0 475 C 339.567 1207.68 t 0 r /Helvetica findfont 62.0409 sf 0 0 m ( 2L\(SS\), CR\(fake\255el/mu\)) show NC gr 
 gsave  2268 1108 0 475 C 339.567 1405.51 t 0 r /Helvetica-BoldOblique findfont 73.8583 sf 0 0 m (ATLAS) show NC gr 
 gsave  2268 1108 0 475 C 634.843 1405.51 t 0 r /Helvetica findfont 73.8583 sf 0 0 m (Internal) show NC gr 
 gr  gr showpage
end
%%EOF
