%!PS-Adobe-2.0 EPSF-2.0
%%BoundingBox:  0 0 567 396
%%Title: /lhome/ific/c/cardillo/tHq/Plots/Plots-30-05-22-PLIV-SF/2LSS_MC/Ht_CR1b3j.eps: Ht_CR1b3j
%%Creator: ROOT Version 6.20/06
%%CreationDate: Tue May 31 15:03:55 2022
%%DocumentNeededResources: ProcSet (FontSetInit)
%%EndComments
%%BeginProlog
80 dict begin
/s {stroke} def /l {lineto} def /m {moveto} def /t {translate} def
/r {rotate} def /rl {roll}  def /R {repeat} def
/d {rlineto} def /rm {rmoveto} def /gr {grestore} def /f {eofill} def
/c {setrgbcolor} def /black {0 setgray} def /sd {setdash} def
/cl {closepath} def /sf {scalefont setfont} def /lw {setlinewidth} def
/box {m dup 0 exch d exch 0 d 0 exch neg d cl} def
/NC{systemdict begin initclip end}def/C{NC box clip newpath}def
/bl {box s} def /bf {gsave box gsave f grestore 1 lw [] 0 sd s grestore} def /Y { 0 exch d} def /X { 0 d} def 
/K {{pop pop 0 moveto} exch kshow} bind def
/ita {/ang 15 def gsave [1 0 ang dup sin exch cos div 1 0 0] concat} def 
/mp {newpath /y exch def /x exch def} def
/side {[w .77 mul w .23 mul] .385 w mul sd w 0 l currentpoint t -144 r} def
/mr {mp x y w2 0 360 arc} def /m24 {mr s} def /m20 {mr f} def
/mb {mp x y w2 add m w2 neg 0 d 0 w neg d w 0 d 0 w d cl} def
/mt {mp x y w2 add m w2 neg w neg d w 0 d cl} def
/w4 {w 4 div} def
/w6 {w 6 div} def
/w8 {w 8 div} def
/m21 {mb f} def /m25 {mb s} def /m22 {mt f} def /m26{mt s} def
/m23 {mp x y w2 sub m w2 w d w neg 0 d cl f} def
/m27 {mp x y w2 add m w3 neg w2 neg d w3 w2 neg d w3 w2 d cl s} def
/m28 {mp x w2 sub y w2 sub w3 add m w3 0 d  0 w3 neg d w3 0 d 0 w3 d w3 0 d  0 w3 d w3 neg 0 d 0 w3 d w3 neg 0 d 0 w3 neg d w3 neg 0 d cl s } def
/m29 {mp gsave x w2 sub y w2 add w3 sub m currentpoint t 4 {side} repeat cl fill gr} def
/m30 {mp gsave x w2 sub y w2 add w3 sub m currentpoint t 4 {side} repeat cl s gr} def
/m31 {mp x y w2 sub m 0 w d x w2 sub y m w 0 d x w2 sub y w2 add m w w neg d x w2 sub y w2 sub m w w d s} def
/m32 {mp x y w2 sub m w2 w d w neg 0 d cl s} def
/m33 {mp x y w2 add m w3 neg w2 neg d w3 w2 neg d w3 w2 d cl f} def
/m34 {mp x w2 sub y w2 sub w3 add m w3 0 d  0 w3 neg d w3 0 d 0 w3 d w3 0 d  0 w3 d w3 neg 0 d 0 w3 d w3 neg 0 d 0 w3 neg d w3 neg 0 d cl f } def
/m35 {mp x y w2 add m w2 neg w2 neg d w2 w2 neg d w2 w2 d w2 neg w2 d x y w2 sub m 0 w d x w2 sub y m w 0 d s} def
/m36 {mb x w2 sub y w2 add m w w neg d x w2 sub y w2 sub m w w d s} def
/m37 {mp x y m w4 neg w2 d w4 neg w2 neg d w2 0 d  w4 neg w2 neg d w2 0 d w4 neg w2 d w2 0 d w4 neg w2 d w4 neg w2 neg d cl s} def
/m38 {mp x w4 sub y w2 add m w4 neg w4 neg d 0 w2 neg d w4 w4 neg d w2 0 d w4 w4 d 0 w2 d w4 neg w4 d w2 neg 0 d x y w2 sub m 0 w d x w2 sub y m w 0 d cl s} def
/m39 {mp x y m w4 neg w2 d w4 neg w2 neg d w2 0 d  w4 neg w2 neg d w2 0 d w4 neg w2 d w2 0 d w4 neg w2 d w4 neg w2 neg d cl f} def
/m40 {mp x y m w4 w2 d w4 w4 neg d w2 neg w4 neg d w2 w4 neg d w4 neg w4 neg d w4 neg w2 d w4 neg w2 neg d w4 neg w4 d w2 w4 d w2 neg w4 d w4 w4 d w4 w2 neg d cl s} def
/m41 {mp x y m w4 w2 d w4 w4 neg d w2 neg w4 neg d w2 w4 neg d w4 neg w4 neg d w4 neg w2 d w4 neg w2 neg d w4 neg w4 d w2 w4 d w2 neg w4 d w4 w4 d w4 w2 neg d cl f} def
/m42 {mp x y w2 add m w8 neg w2 -3 4 div mul d w2 -3 4 div mul w8 neg d w2 3 4 div mul w8 neg d w8 w2 -3 4 div mul d w8 w2 3 4 div mul d w2 3 4 div mul w8 d w2 -3 4 div mul w8 d w8 neg w2 3 4 div mul d cl s} def
/m43 {mp x y w2 add m w8 neg w2 -3 4 div mul d w2 -3 4 div mul w8 neg d w2 3 4 div mul w8 neg d w8 w2 -3 4 div mul d w8 w2 3 4 div mul d w2 3 4 div mul w8 d w2 -3 4 div mul w8 d w8 neg w2 3 4 div mul d cl f} def
/m44 {mp x y m w6 neg w2 d w2 2 3 div mul 0 d w6 neg w2 neg d w2 w6 d 0 w2 -2 3 div mul d w2 neg w6 d w6 w2 neg d w2 -2 3 div mul 0 d w6 w2 d w2 neg w6 neg d 0 w2 2 3 div mul d w2 w6 neg d cl s} def
/m45 {mp x y m w6 neg w2 d w2 2 3 div mul 0 d w6 neg w2 neg d w2 w6 d 0 w2 -2 3 div mul d w2 neg w6 d w6 w2 neg d w2 -2 3 div mul 0 d w6 w2 d w2 neg w6 neg d 0 w2 2 3 div mul d w2 w6 neg d cl f} def
/m46 {mp x y w4 add m w4 neg w4 d w4 neg w4 neg d  w4 w4 neg d w4 neg w4 neg d w4 w4 neg d w4 w4 d w4 w4 neg d w4 w4 d w4 neg w4 d w4 w4 d w4 neg w4 d w4 neg w4 neg d cl s} def
/m47 {mp x y w4 add m w4 neg w4 d w4 neg w4 neg d w4 w4 neg d w4 neg w4 neg d  w4 w4 neg d w4 w4 d w4 w4 neg d w4 w4 d w4 neg w4 d w4 w4 d w4 neg w4 d w4 neg w4 neg d cl f} def
/m48 {mp x y w4 add m w4 neg w4 d w4 neg w4 neg d w4 w4 neg d  w4 neg w4 neg d w4 w4 neg d w4 w4 d w4 w4 neg d w4 w4 d w4 neg w4 d w4 w4 d w4 neg w4 d w4 neg w4 neg d  w4 w4 neg d w4 neg w4 neg d w4 neg w4 d w4 w4 d cl f} def
/m49 {mp x w2 sub w3 add y w2 sub w3 add m  0 w3 neg d w3 0 d 0 w3 d w3 0 d 0 w3 d w3 neg 0 d 0 w3 d w3 neg 0 d 0 w3 neg d w3 neg 0 d 0 w3 neg d w3 0 d 0 w3 d w3 0 d 0 w3 neg d w3 neg 0 d cl f } def
/m2 {mp x y w2 sub m 0 w d x w2 sub y m w 0 d s} def
/m5 {mp x w2 sub y w2 sub m w w d x w2 sub y w2 add m w w neg d s} def
%%IncludeResource: ProcSet (FontSetInit)
%%IncludeResource: font Times-Roman
%%IncludeResource: font Times-Italic
%%IncludeResource: font Times-Bold
%%IncludeResource: font Times-BoldItalic
%%IncludeResource: font Helvetica
%%IncludeResource: font Helvetica-Oblique
%%IncludeResource: font Helvetica-Bold
%%IncludeResource: font Helvetica-BoldOblique
%%IncludeResource: font Courier
%%IncludeResource: font Courier-Oblique
%%IncludeResource: font Courier-Bold
%%IncludeResource: font Courier-BoldOblique
%%IncludeResource: font Symbol
%%IncludeResource: font ZapfDingbats
/reEncode {exch findfont dup length dict begin {1 index /FID eq  {pop pop} {def} ifelse } forall /Encoding exch def currentdict end dup /FontName get exch definefont pop } def [/Times-Bold /Times-Italic /Times-BoldItalic /Helvetica /Helvetica-Oblique
 /Helvetica-Bold /Helvetica-BoldOblique /Courier /Courier-Oblique /Courier-Bold /Courier-BoldOblique /Times-Roman /AvantGarde-Book /AvantGarde-BookOblique /AvantGarde-Demi /AvantGarde-DemiOblique /Bookman-Demi /Bookman-DemiItalic /Bookman-Light
 /Bookman-LightItalic /Helvetica-Narrow /Helvetica-Narrow-Bold /Helvetica-Narrow-BoldOblique /Helvetica-Narrow-Oblique /NewCenturySchlbk-Roman /NewCenturySchlbk-Bold /NewCenturySchlbk-BoldItalic /NewCenturySchlbk-Italic /Palatino-Bold
 /Palatino-BoldItalic /Palatino-Italic /Palatino-Roman ] {ISOLatin1Encoding reEncode } forall
%%EndProlog
%%BeginSetup
%%EndSetup
newpath  gsave  .25 .25 scale  gsave  0 0 t black[  ] 0 sd 3 lw 1 1 1 c 2268 1583 0 0 bf black 1 1 1 c 2268 475 0 0 bf black 1 1 1 c 1927 275 227 190 bf black 1927 275 227 190 bl 227 190 m 1927 X s 227 202 m -12 Y s 282 196 m -6 Y s 337 196 m -6 Y s
 392 196 m -6 Y s 447 196 m -6 Y s 502 202 m -12 Y s 557 196 m -6 Y s 612 196 m -6 Y s 667 196 m -6 Y s 722 196 m -6 Y s 778 202 m -12 Y s 833 196 m -6 Y s 888 196 m -6 Y s 943 196 m -6 Y s 998 196 m -6 Y s 1053 202 m -12 Y s 1108 196 m -6 Y s 1163
 196 m -6 Y s 1218 196 m -6 Y s 1273 196 m -6 Y s 1328 202 m -12 Y s 1383 196 m -6 Y s 1438 196 m -6 Y s 1493 196 m -6 Y s 1549 196 m -6 Y s 1604 202 m -12 Y s 1659 196 m -6 Y s 1714 196 m -6 Y s 1769 196 m -6 Y s 1824 196 m -6 Y s 1879 202 m -12 Y s
 1934 196 m -6 Y s 1989 196 m -6 Y s 2044 196 m -6 Y s 2099 196 m -6 Y s 2154 202 m -12 Y s
 gsave  2268 475 0 0 C 180.118 126.968 t 0 r /Helvetica findfont 53.4154 sf 0 0 m (300) show NC gr 
 gsave  2268 475 0 0 C 457.677 126.968 t 0 r /Helvetica findfont 53.4154 sf 0 0 m (400) show NC gr 
 gsave  2268 475 0 0 C 732.283 126.968 t 0 r /Helvetica findfont 53.4154 sf 0 0 m (500) show NC gr 
 gsave  2268 475 0 0 C 1006.89 126.968 t 0 r /Helvetica findfont 53.4154 sf 0 0 m (600) show NC gr 
 gsave  2268 475 0 0 C 1281.5 126.968 t 0 r /Helvetica findfont 53.4154 sf 0 0 m (700) show NC gr 
 gsave  2268 475 0 0 C 1559.06 126.968 t 0 r /Helvetica findfont 53.4154 sf 0 0 m (800) show NC gr 
 gsave  2268 475 0 0 C 1833.66 126.968 t 0 r /Helvetica findfont 53.4154 sf 0 0 m (900) show NC gr 
 gsave  2268 475 0 0 C 2093.5 126.968 t 0 r /Helvetica findfont 53.4154 sf 0 0 m (1000) show NC gr 
 gsave  2268 475 0 0 C 1996.06 47.2441 t 0 r /Helvetica findfont 56.3829 sf 0 0 m ( [GeV]) show NC gr 
 gsave  2268 475 0 0 C 1972.44 29.5276 t 0 r /Helvetica findfont 38.5778 sf 0 0 m (T) show NC gr 
 gsave  2268 475 0 0 C 1925.2 47.2441 t 0 r /Helvetica-Oblique findfont 56.3829 sf 0 0 m (H) show NC gr  227 465 m 1927 X s 227 453 m 12 Y s 282 459 m 6 Y s 337 459 m 6 Y s 392 459 m 6 Y s 447 459 m 6 Y s 502 453 m 12 Y s 557 459 m 6 Y s 612 459 m 6
 Y s 667 459 m 6 Y s 722 459 m 6 Y s 778 453 m 12 Y s 833 459 m 6 Y s 888 459 m 6 Y s 943 459 m 6 Y s 998 459 m 6 Y s 1053 453 m 12 Y s 1108 459 m 6 Y s 1163 459 m 6 Y s 1218 459 m 6 Y s 1273 459 m 6 Y s 1328 453 m 12 Y s 1383 459 m 6 Y s 1438 459 m
 6 Y s 1493 459 m 6 Y s 1549 459 m 6 Y s 1604 453 m 12 Y s 1659 459 m 6 Y s 1714 459 m 6 Y s 1769 459 m 6 Y s 1824 459 m 6 Y s 1879 453 m 12 Y s 1934 459 m 6 Y s 1989 459 m 6 Y s 2044 459 m 6 Y s 2099 459 m 6 Y s 2154 453 m 12 Y s 227 190 m 275 Y s
 240 242 m -13 X s 240 328 m -13 X s 240 414 m -13 X s 240 242 m -13 X s 240 414 m -13 X s
 gsave  2268 475 0 0 C 118.11 221.457 t 0 r /Helvetica findfont 53.4154 sf 0 0 m (0.5) show NC gr 
 gsave  2268 475 0 0 C 171.26 307.087 t 0 r /Helvetica findfont 53.4154 sf 0 0 m (1) show NC gr 
 gsave  2268 475 0 0 C 118.11 395.669 t 0 r /Helvetica findfont 53.4154 sf 0 0 m (1.5) show NC gr 
 gsave  2268 475 0 0 C 70.8661 233.268 t 90 r /Helvetica findfont 53.4154 sf 0 0 m (Data / SM) show NC gr  2154 190 m 275 Y s 2141 242 m 13 X s 2141 328 m 13 X s 2141 414 m 13 X s 2141 242 m 13 X s 2141 414 m 13 X s 227 190 m 1927 X s 227 465 m 1927
 X s 227 190 m 275 Y s[ 4 8] 0 sd 2154 242 m -1927 X s 2154 328 m -1927 X s 2154 414 m -1927 X s 2154 242 m -1927 X s 2154 414 m -1927 X s[  ] 0 sd 2154 190 m 275 Y s 1 1 0.6 c 137 0 227 328 bf 138 0 364 328 bf 138 0 502 328 bf 138 0 640 328 bf 137 0
 778 328 bf 138 0 915 328 bf 138 0 1053 328 bf 137 0 1191 328 bf 138 0 1328 328 bf 138 0 1466 328 bf 137 0 1604 328 bf 138 0 1741 328 bf 138 0 1879 328 bf 137 0 2017 328 bf black 0.6 0.6 0.6 c 364 328 m -8 -9 d s 354 336 m -17 -17 d s 335 336 m -18
 -17 d s 315 336 m -17 -17 d s 296 336 m -17 -17 d s 277 336 m -17 -17 d s 258 336 m -18 -17 d s 238 336 m -11 -11 d s 502 331 m -11 -12 d s 489 336 m -18 -17 d s 469 336 m -17 -17 d s 450 336 m -17 -17 d s 431 336 m -17 -17 d s 412 336 m -18 -17 d s
 392 336 m -17 -17 d s 373 336 m -9 -8 d s 640 334 m -17 -17 d s 625 338 m -21 -21 d s 606 338 m -21 -21 d s 587 338 m -21 -21 d s 567 338 m -21 -21 d s 548 338 m -21 -21 d s 529 338 m -21 -21 d s 510 338 m -8 -7 d s 778 317 m -2 -1 d s 778 337 m -21
 -21 d s 761 339 m -23 -23 d s 742 339 m -24 -23 d s 723 339 m -24 -23 d s 703 339 m -23 -23 d s 684 339 m -23 -23 d s 665 339 m -24 -23 d s 646 339 m -6 -5 d s 915 320 m -10 -10 d s 915 340 m -29 -30 d s 901 345 m -34 -35 d s 882 345 m -35 -35 d s
 863 345 m -35 -35 d s 844 345 m -35 -35 d s 824 345 m -34 -35 d s 805 345 m -27 -28 d s 786 345 m -8 -8 d s 1053 323 m -11 -11 d s 1053 343 m -31 -31 d s 1034 343 m -31 -31 d s 1015 343 m -31 -31 d s 996 343 m -31 -31 d s 976 343 m -30 -31 d s 957
 343 m -31 -31 d s 938 343 m -23 -23 d s 919 343 m -4 -3 d s 1191 326 m -17 -16 d s 1190 346 m -35 -36 d s 1171 346 m -35 -36 d s 1152 346 m -36 -36 d s 1133 346 m -36 -36 d s 1114 346 m -36 -36 d s 1094 346 m -35 -36 d s 1075 346 m -22 -23 d s 1056
 346 m -3 -3 d s 1328 310 m -1 Y s 1328 329 m -20 -20 d s 1326 346 m -37 -37 d s 1306 346 m -36 -37 d s 1287 346 m -36 -37 d s 1268 346 m -37 -37 d s 1249 346 m -37 -37 d s 1229 346 m -36 -37 d s 1210 346 m -19 -20 d s 1191 346 m s 1466 313 m -10 -10
 d s 1466 332 m -29 -29 d s 1466 352 m -48 -49 d s 1447 352 m -48 -49 d s 1428 352 m -49 -49 d s 1408 352 m -48 -49 d s 1389 352 m -48 -49 d s 1370 352 m -42 -42 d s 1351 352 m -23 -23 d s 1331 352 m -3 -3 d s 1604 297 m -3 -3 d s 1604 316 m -22 -22
 d s 1604 335 m -41 -41 d s 1604 355 m -60 -61 d s 1591 361 m -67 -67 d s 1571 361 m -66 -67 d s 1552 361 m -66 -67 d s 1533 361 m -66 -67 d s 1514 361 m -48 -48 d s 1494 361 m -28 -29 d s 1475 361 m -9 -9 d s 1741 300 m -1 Y s 1741 319 m -20 -20 d s
 1741 338 m -39 -39 d s 1740 356 m -57 -57 d s 1721 356 m -57 -57 d s 1701 356 m -57 -57 d s 1682 356 m -57 -57 d s 1663 356 m -57 -57 d s 1644 356 m -40 -40 d s 1625 356 m -21 -21 d s 1605 356 m -1 -1 d s 1879 303 m -9 -10 d s 1879 322 m -28 -29 d s
 1879 341 m -48 -48 d s 1879 361 m -67 -68 d s 1861 362 m -68 -69 d s 1842 362 m -68 -69 d s 1822 362 m -68 -69 d s 1803 362 m -62 -62 d s 1784 362 m -43 -43 d s 1765 362 m -24 -24 d s 1745 362 m -4 -4 d s 2017 306 m -16 -16 d s 2017 325 m -35 -35 d
 s 2017 344 m -54 -54 d s 2017 364 m -73 -74 d s 1999 365 m -75 -75 d s 1980 365 m -75 -75 d s 1960 365 m -74 -75 d s 1941 365 m -62 -62 d s 1922 365 m -43 -43 d s 1903 365 m -24 -24 d s 1883 365 m -4 -4 d s 2154 328 m -6 -6 d s 2141 333 m -12 -11 d
 s 2121 333 m -11 -11 d s 2102 333 m -12 -11 d s 2083 333 m -12 -11 d s 2064 333 m -12 -11 d s 2044 333 m -11 -11 d s 2025 333 m -8 -8 d s black 1 1 1 c black 296 342 m 19 Y s 296 385 m 19 Y s /w 26 def /w2 {w 2 div} def /w3 {w 3 div} def 296 373 m20
 433 295 m 19 Y s 433 337 m 20 Y s 433 326 m20 571 340 m 36 Y s 571 399 m 36 Y s 571 388 m20 709 311 m 40 Y s 709 375 m 40 Y s 709 363 m20 846 274 m 40 Y s 846 337 m 40 Y s 846 325 m20 984 236 m 44 Y s 984 304 m 44 Y s 984 292 m20 1122 331 m 83 Y s
 1122 438 m 27 Y s 1122 426 m20 1259 218 m 74 Y s 1259 316 m 74 Y s 1259 304 m20 1397 218 m 73 Y s 1397 315 m 73 Y s 1397 303 m20 1535 212 m 123 Y s 1535 359 m 106 Y s 1535 347 m20 1672 270 m 145 Y s 1672 439 m 26 Y s 1672 427 m20 1810 190 m 80 Y s
 1810 294 m 114 Y s 1810 282 m20 1948 190 m 96 Y s 1948 310 m 131 Y s 1948 298 m20 2085 224 m 57 Y s 2085 304 m 57 Y s 2085 293 m20 227 328 m 1927 X s 227 190 m 1927 X s 227 202 m -12 Y s 282 196 m -6 Y s 337 196 m -6 Y s 392 196 m -6 Y s 447 196 m
 -6 Y s 502 202 m -12 Y s 557 196 m -6 Y s 612 196 m -6 Y s 667 196 m -6 Y s 722 196 m -6 Y s 778 202 m -12 Y s 833 196 m -6 Y s 888 196 m -6 Y s 943 196 m -6 Y s 998 196 m -6 Y s 1053 202 m -12 Y s 1108 196 m -6 Y s 1163 196 m -6 Y s 1218 196 m -6 Y
 s 1273 196 m -6 Y s 1328 202 m -12 Y s 1383 196 m -6 Y s 1438 196 m -6 Y s 1493 196 m -6 Y s 1549 196 m -6 Y s 1604 202 m -12 Y s 1659 196 m -6 Y s 1714 196 m -6 Y s 1769 196 m -6 Y s 1824 196 m -6 Y s 1879 202 m -12 Y s 1934 196 m -6 Y s 1989 196 m
 -6 Y s 2044 196 m -6 Y s 2099 196 m -6 Y s 2154 202 m -12 Y s 227 465 m 1927 X s 227 453 m 12 Y s 282 459 m 6 Y s 337 459 m 6 Y s 392 459 m 6 Y s 447 459 m 6 Y s 502 453 m 12 Y s 557 459 m 6 Y s 612 459 m 6 Y s 667 459 m 6 Y s 722 459 m 6 Y s 778
 453 m 12 Y s 833 459 m 6 Y s 888 459 m 6 Y s 943 459 m 6 Y s 998 459 m 6 Y s 1053 453 m 12 Y s 1108 459 m 6 Y s 1163 459 m 6 Y s 1218 459 m 6 Y s 1273 459 m 6 Y s 1328 453 m 12 Y s 1383 459 m 6 Y s 1438 459 m 6 Y s 1493 459 m 6 Y s 1549 459 m 6 Y s
 1604 453 m 12 Y s 1659 459 m 6 Y s 1714 459 m 6 Y s 1769 459 m 6 Y s 1824 459 m 6 Y s 1879 453 m 12 Y s 1934 459 m 6 Y s 1989 459 m 6 Y s 2044 459 m 6 Y s 2099 459 m 6 Y s 2154 453 m 12 Y s 227 190 m 275 Y s 240 242 m -13 X s 240 328 m -13 X s 240
 414 m -13 X s 240 242 m -13 X s 240 414 m -13 X s 2154 190 m 275 Y s 2141 242 m 13 X s 2141 328 m 13 X s 2141 414 m 13 X s 2141 242 m 13 X s 2141 414 m 13 X s 1 1 1 c 2268 1108 0 475 bf black 1 1 1 c 1927 1041 227 486 bf black 1927 1041 227 486 bl 1
 1 1 c black 3 lw 227 486 m 1927 X s 227 505 m -19 Y s 282 495 m -9 Y s 337 495 m -9 Y s 392 495 m -9 Y s 447 495 m -9 Y s 502 505 m -19 Y s 557 495 m -9 Y s 612 495 m -9 Y s 667 495 m -9 Y s 722 495 m -9 Y s 778 505 m -19 Y s 833 495 m -9 Y s 888
 495 m -9 Y s 943 495 m -9 Y s 998 495 m -9 Y s 1053 505 m -19 Y s 1108 495 m -9 Y s 1163 495 m -9 Y s 1218 495 m -9 Y s 1273 495 m -9 Y s 1328 505 m -19 Y s 1383 495 m -9 Y s 1438 495 m -9 Y s 1493 495 m -9 Y s 1549 495 m -9 Y s 1604 505 m -19 Y s
 1659 495 m -9 Y s 1714 495 m -9 Y s 1769 495 m -9 Y s 1824 495 m -9 Y s 1879 505 m -19 Y s 1934 495 m -9 Y s 1989 495 m -9 Y s 2044 495 m -9 Y s 2099 495 m -9 Y s 2154 505 m -19 Y s
 gsave  2268 1108 0 475 C 2061.02 404.528 t 0 r /Helvetica findfont 32.4976 sf 0 0 m ( [GeV]) show NC gr 
 gsave  2268 1108 0 475 C 2046.26 392.717 t 0 r /Helvetica findfont 20.6803 sf 0 0 m (T) show NC gr 
 gsave  2268 1108 0 475 C 2019.69 404.528 t 0 r /Helvetica-Oblique findfont 32.4976 sf 0 0 m (H) show NC gr  227 1527 m 1927 X s 227 1508 m 19 Y s 282 1518 m 9 Y s 337 1518 m 9 Y s 392 1518 m 9 Y s 447 1518 m 9 Y s 502 1508 m 19 Y s 557 1518 m 9 Y s
 612 1518 m 9 Y s 667 1518 m 9 Y s 722 1518 m 9 Y s 778 1508 m 19 Y s 833 1518 m 9 Y s 888 1518 m 9 Y s 943 1518 m 9 Y s 998 1518 m 9 Y s 1053 1508 m 19 Y s 1108 1518 m 9 Y s 1163 1518 m 9 Y s 1218 1518 m 9 Y s 1273 1518 m 9 Y s 1328 1508 m 19 Y s
 1383 1518 m 9 Y s 1438 1518 m 9 Y s 1493 1518 m 9 Y s 1549 1518 m 9 Y s 1604 1508 m 19 Y s 1659 1518 m 9 Y s 1714 1518 m 9 Y s 1769 1518 m 9 Y s 1824 1518 m 9 Y s 1879 1508 m 19 Y s 1934 1518 m 9 Y s 1989 1518 m 9 Y s 2044 1518 m 9 Y s 2099 1518 m 9
 Y s 2154 1508 m 19 Y s 227 486 m 1041 Y s 248 624 m -21 X s 237 652 m -10 X s 237 680 m -10 X s 237 708 m -10 X s 237 735 m -10 X s 248 763 m -21 X s 237 791 m -10 X s 237 819 m -10 X s 237 846 m -10 X s 237 874 m -10 X s 248 902 m -21 X s 237 930 m
 -10 X s 237 957 m -10 X s 237 985 m -10 X s 237 1013 m -10 X s 248 1041 m -21 X s 237 1068 m -10 X s 237 1096 m -10 X s 237 1124 m -10 X s 237 1152 m -10 X s 248 1179 m -21 X s 237 1207 m -10 X s 237 1235 m -10 X s 237 1263 m -10 X s 237 1290 m -10
 X s 248 1318 m -21 X s 237 1346 m -10 X s 237 1374 m -10 X s 237 1401 m -10 X s 237 1429 m -10 X s 248 1457 m -21 X s 248 624 m -21 X s 237 597 m -10 X s 237 569 m -10 X s 237 541 m -10 X s 237 513 m -10 X s 248 1457 m -21 X s 237 1485 m -10 X s 237
 1512 m -10 X s
 gsave  2268 1108 0 475 C 141.732 605.315 t 0 r /Helvetica findfont 53.178 sf 0 0 m (10) show NC gr 
 gsave  2268 1108 0 475 C 141.732 744.094 t 0 r /Helvetica findfont 53.178 sf 0 0 m (20) show NC gr 
 gsave  2268 1108 0 475 C 141.732 882.874 t 0 r /Helvetica findfont 53.178 sf 0 0 m (30) show NC gr 
 gsave  2268 1108 0 475 C 141.732 1021.65 t 0 r /Helvetica findfont 53.178 sf 0 0 m (40) show NC gr 
 gsave  2268 1108 0 475 C 141.732 1160.43 t 0 r /Helvetica findfont 53.178 sf 0 0 m (50) show NC gr 
 gsave  2268 1108 0 475 C 141.732 1299.21 t 0 r /Helvetica findfont 53.178 sf 0 0 m (60) show NC gr 
 gsave  2268 1108 0 475 C 141.732 1437.99 t 0 r /Helvetica findfont 53.178 sf 0 0 m (70) show NC gr 
 gsave  2268 1108 0 475 C 64.9606 1142.72 t 90 r /Helvetica findfont 53.178 sf 0 0 m (Events / 50 GeV) show NC gr  2154 486 m 1041 Y s 2133 624 m 21 X s 2144 652 m 10 X s 2144 680 m 10 X s 2144 708 m 10 X s 2144 735 m 10 X s 2133 763 m 21 X s 2144
 791 m 10 X s 2144 819 m 10 X s 2144 846 m 10 X s 2144 874 m 10 X s 2133 902 m 21 X s 2144 930 m 10 X s 2144 957 m 10 X s 2144 985 m 10 X s 2144 1013 m 10 X s 2133 1041 m 21 X s 2144 1068 m 10 X s 2144 1096 m 10 X s 2144 1124 m 10 X s 2144 1152 m 10
 X s 2133 1179 m 21 X s 2144 1207 m 10 X s 2144 1235 m 10 X s 2144 1263 m 10 X s 2144 1290 m 10 X s 2133 1318 m 21 X s 2144 1346 m 10 X s 2144 1374 m 10 X s 2144 1401 m 10 X s 2144 1429 m 10 X s 2133 1457 m 21 X s 2133 624 m 21 X s 2144 597 m 10 X s
 2144 569 m 10 X s 2144 541 m 10 X s 2144 513 m 10 X s 2133 1457 m 21 X s 2144 1485 m 10 X s 2144 1512 m 10 X s 0.06 0.54 0.06 c black 3 lw 0.06 0.54 0.06 c 227 486 m 548 Y 137 X -127 Y 138 X -174 Y 138 X -63 Y 138 X -30 Y 137 X -49 Y 138 X -35 Y 138
 X -22 Y 275 X -23 Y 138 X 1 Y 137 X -7 Y 138 X -3 Y 138 X 53 Y 137 X -69 Y f 1 0.653333 0 c 0.999 0.999 0.999 c black 3 lw 0.999 0.999 0.999 c 227 486 m 327 Y 137 X -99 Y 138 X -80 Y 138 X -26 Y 138 X -19 Y 137 X -41 Y 138 X -14 Y 138 X -10 Y 137 X
 -10 Y 138 X -6 Y 138 X -3 Y 137 X -6 Y 138 X 2 Y 138 X 42 Y 137 X -57 Y f 1 0.653333 0 c 0.999 0.999 0.999 c 1 0.653333 0 c 1 1 1 c black 1 0.653333 0 c black 3 lw 1 0.653333 0 c 227 486 m 327 Y 137 X -99 Y 138 X -80 Y 138 X -26 Y 138 X -19 Y 137 X
 -41 Y 138 X -14 Y 138 X -10 Y 137 X -10 Y 138 X -6 Y 138 X -3 Y 137 X -6 Y 138 X 2 Y 138 X 42 Y 137 X -57 Y f 0.413333 1 0 c 0.999 0.999 0.999 c black 3 lw 0.999 0.999 0.999 c 227 486 m 247 Y 137 X -73 Y 138 X -57 Y 138 X -29 Y 138 X -22 Y 137 X -19
 Y 138 X -10 Y 138 X -10 Y 137 X -6 Y 138 X -5 Y 138 X -4 Y 137 X -2 Y 276 X 26 Y 137 X -36 Y f 0.413333 1 0 c 0.999 0.999 0.999 c 0.413333 1 0 c 1 1 1 c black 0.413333 1 0 c black 3 lw 0.413333 1 0 c 227 486 m 247 Y 137 X -73 Y 138 X -57 Y 138 X -29
 Y 138 X -22 Y 137 X -19 Y 138 X -10 Y 138 X -10 Y 137 X -6 Y 138 X -5 Y 138 X -4 Y 137 X -2 Y 276 X 26 Y 137 X -36 Y f 0.6 0.2 1 c 0.999 0.999 0.999 c black 3 lw 0.999 0.999 0.999 c 227 486 m 183 Y 137 X -59 Y 138 X -42 Y 138 X -21 Y 138 X -17 Y 137
 X -14 Y 138 X -7 Y 138 X -6 Y 137 X -4 Y 138 X -3 Y 138 X -3 Y 137 X -1 Y 276 X 14 Y 137 X -20 Y f 0.6 0.2 1 c 0.999 0.999 0.999 c 0.6 0.2 1 c 1 1 1 c black 0.6 0.2 1 c black 3 lw 0.6 0.2 1 c 227 486 m 183 Y 137 X -59 Y 138 X -42 Y 138 X -21 Y 138 X
 -17 Y 137 X -14 Y 138 X -7 Y 138 X -6 Y 137 X -4 Y 138 X -3 Y 138 X -3 Y 137 X -1 Y 276 X 14 Y 137 X -20 Y f 0.54 0.06 0.06 c 0.999 0.999 0.999 c black 3 lw 0.999 0.999 0.999 c 227 486 m 164 Y 137 X -53 Y 138 X -38 Y 138 X -19 Y 138 X -14 Y 137 X
 -13 Y 138 X -6 Y 138 X -6 Y 137 X -4 Y 138 X -2 Y 138 X -2 Y 137 X -1 Y 138 X -1 Y 138 X 13 Y 137 X -18 Y f 0.54 0.06 0.06 c 0.999 0.999 0.999 c 0.54 0.06 0.06 c 1 1 1 c black 0.54 0.06 0.06 c black 3 lw 0.54 0.06 0.06 c 227 486 m 164 Y 137 X -53 Y
 138 X -38 Y 138 X -19 Y 138 X -14 Y 137 X -13 Y 138 X -6 Y 138 X -6 Y 137 X -4 Y 138 X -2 Y 138 X -2 Y 137 X -1 Y 138 X -1 Y 138 X 13 Y 137 X -18 Y f 1 0 1 c 0.999 0.999 0.999 c black 3 lw 0.999 0.999 0.999 c 227 486 m 43 Y 137 X -15 Y 138 X -10 Y
 138 X -6 Y 138 X -3 Y 137 X -3 Y 138 X -2 Y 138 X -1 Y 137 X -1 Y 138 X -1 Y 413 X -1 Y 138 X 2 Y 137 X -2 Y f 1 0 1 c 0.999 0.999 0.999 c 1 0 1 c 1 1 1 c black 1 0 1 c black 3 lw 1 0 1 c 227 486 m 43 Y 137 X -15 Y 138 X -10 Y 138 X -6 Y 138 X -3 Y
 137 X -3 Y 138 X -2 Y 138 X -1 Y 137 X -1 Y 138 X -1 Y 413 X -1 Y 138 X 2 Y 137 X -2 Y f 0 0 1 c 0.999 0.999 0.999 c black 3 lw 0.999 0.999 0.999 c 227 486 m 18 Y 137 X -7 Y 138 X -3 Y 138 X -3 Y 138 X -1 Y 137 X -2 Y 276 X -1 Y 275 X -1 Y 551 X 2 Y
 137 X -2 Y f 0 0 1 c 0.999 0.999 0.999 c 0 0 1 c 1 1 1 c black 0 0 1 c black 3 lw 0 0 1 c 227 486 m 18 Y 137 X -7 Y 138 X -3 Y 138 X -3 Y 138 X -1 Y 137 X -2 Y 276 X -1 Y 275 X -1 Y 551 X 2 Y 137 X -2 Y f 0.2 0.8 0.8 c 0.999 0.999 0.999 c black 3 lw
 0.999 0.999 0.999 c 227 486 m 7 Y 137 X -3 Y 138 X -1 Y 138 X -1 Y 275 X -1 Y 413 X -1 Y 689 X 1 Y 137 X -1 Y f 0.2 0.8 0.8 c 0.999 0.999 0.999 c 0.2 0.8 0.8 c 1 1 1 c black 0.2 0.8 0.8 c black 3 lw 0.2 0.8 0.8 c 227 486 m 7 Y 137 X -3 Y 138 X -1 Y
 138 X -1 Y 275 X -1 Y 413 X -1 Y 689 X 1 Y 137 X -1 Y f 1 0 0 c 0.999 0.999 0.999 c black 3 lw 0.999 0.999 0.999 c 227 486 m 1 Y 413 X -1 Y 1514 X f 1 0 0 c 0.999 0.999 0.999 c 1 0 0 c 1 1 1 c black 1 0 0 c black 3 lw 1 0 0 c 227 486 m 1 Y 413 X -1
 Y 1514 X f 1 0.84 0 c 0.999 0.999 0.999 c black 3 lw 0.999 0.999 0.999 c 227 486 m 1927 X f 1 0.84 0 c 0.999 0.999 0.999 c 1 0.84 0 c 1 1 1 c black 1 0.84 0 c black 3 lw 1 0.84 0 c 227 486 m 1927 X f black 1 1 1 c black 0.6 0.6 0.6 c 3 lw 364 1011 m
 -5 -5 d s 364 1030 m -24 -24 d s 364 1050 m -43 -44 d s 357 1062 m -56 -56 d s 338 1062 m -56 -56 d s 319 1062 m -56 -56 d s 300 1062 m -56 -56 d s 280 1062 m -53 -54 d s 261 1062 m -34 -34 d s 242 1062 m -15 -15 d s 3 lw 502 899 m -14 -14 d s 502
 918 m -33 -33 d s 493 928 m -43 -43 d s 473 928 m -42 -43 d s 454 928 m -43 -43 d s 435 928 m -43 -43 d s 416 928 m -43 -43 d s 396 928 m -32 -32 d s 377 928 m -13 -13 d s 3 lw 640 729 m -12 -11 d s 639 748 m -30 -30 d s 620 748 m -30 -30 d s 600
 748 m -30 -30 d s 581 748 m -30 -30 d s 562 748 m -30 -30 d s 543 748 m -30 -30 d s 524 748 m -22 -22 d s 504 748 m -2 -3 d s 3 lw 778 675 m -18 -18 d s 766 682 m -25 -25 d s 747 682 m -26 -25 d s 727 682 m -25 -25 d s 708 682 m -25 -25 d s 689 682
 m -25 -25 d s 670 682 m -26 -25 d s 651 682 m -11 -10 d s 3 lw 915 639 m -14 -14 d s 913 656 m -32 -31 d s 894 656 m -32 -31 d s 874 656 m -31 -31 d s 855 656 m -31 -31 d s 836 656 m -32 -31 d s 817 656 m -32 -31 d s 797 656 m -19 -20 d s 778 656 m
 -1 Y s 3 lw 1053 585 m -3 -4 d s 1049 600 m -19 -19 d s 1030 600 m -19 -19 d s 1011 600 m -19 -19 d s 992 600 m -19 -19 d s 972 600 m -19 -19 d s 953 600 m -19 -19 d s 934 600 m -19 -18 d s 3 lw 1191 549 m -1 X s 1186 564 m -15 -15 d s 1167 564 m
 -15 -15 d s 1147 564 m -14 -15 d s 1128 564 m -15 -15 d s 1109 564 m -15 -15 d s 1090 564 m -15 -15 d s 1070 564 m -14 -15 d s 3 lw 1328 533 m -4 -4 d s 1315 539 m -10 -10 d s 1296 539 m -10 -10 d s 1277 539 m -11 -10 d s 1257 539 m -10 -10 d s 1238
 539 m -10 -10 d s 1219 539 m -10 -10 d s 1200 539 m -9 -9 d s 3 lw 1466 536 m -9 -9 d s 1452 541 m -14 -14 d s 1433 541 m -14 -14 d s 1413 541 m -13 -14 d s 1394 541 m -14 -14 d s 1375 541 m -14 -14 d s 1356 541 m -14 -14 d s 1336 541 m -8 -8 d s 3
 lw 1599 516 m -9 -10 d s 1580 516 m -9 -10 d s 1561 516 m -10 -10 d s 1542 516 m -10 -10 d s 1522 516 m -9 -10 d s 1503 516 m -9 -10 d s 1484 516 m -10 -10 d s 3 lw 1735 517 m -9 -9 d s 1716 517 m -9 -9 d s 1697 517 m -9 -9 d s 1677 517 m -8 -9 d s
 1658 517 m -9 -9 d s 1639 517 m -9 -9 d s 1620 517 m -9 -9 d s 3 lw 1879 506 m -6 -5 d s 1862 508 m -8 -7 d s 1842 508 m -7 -7 d s 1823 508 m -7 -7 d s 1804 508 m -8 -7 d s 1785 508 m -8 -7 d s 1765 508 m -7 -7 d s 1746 508 m -5 -5 d s 3 lw 2013 506
 m -7 -7 d s 1994 506 m -7 -7 d s 1975 506 m -7 -7 d s 1956 506 m -8 -7 d s 1936 506 m -7 -7 d s 1917 506 m -7 -7 d s 1898 506 m -7 -7 d s 3 lw 2142 558 m -5 -5 d s 2123 558 m -5 -5 d s 2104 558 m -5 -5 d s 2084 558 m -4 -5 d s 2065 558 m -5 -5 d s
 2046 558 m -5 -5 d s 2027 558 m -5 -5 d s black 3 lw 1 1 1 c black 296 1081 m 87 Y s 296 1191 m 86 Y s /w 24 def /w2 {w 2 div} def /w3 {w 3 div} def 296 1179 m20 433 826 m 64 Y s 433 914 m 64 Y s 433 902 m20 571 751 m 56 Y s 571 830 m 57 Y s 571 819
 m20 709 652 m 44 Y s 709 720 m 43 Y s 709 708 m20 846 592 m 35 Y s 846 650 m 34 Y s 846 638 m20 984 535 m 22 Y s 984 581 m 22 Y s 984 569 m20 1122 557 m 28 Y s 1122 609 m 27 Y s 1122 597 m20 1259 503 m 13 Y s 1259 539 m 12 Y s 1259 527 m20 1397 503
 m 13 Y s 1397 539 m 12 Y s 1397 527 m20 1535 494 m 8 Y s 1535 525 m 8 Y s 1535 513 m20 1672 503 m 13 Y s 1672 539 m 12 Y s 1672 527 m20 1810 486 m 2 Y s 1810 511 m 2 Y s 1810 500 m20 1948 486 m 2 Y s 1948 511 m 2 Y s 1948 500 m20 2085 513 m 16 Y s
 2085 553 m 16 Y s 2085 541 m20 227 486 m 1927 X s 227 505 m -19 Y s 282 495 m -9 Y s 337 495 m -9 Y s 392 495 m -9 Y s 447 495 m -9 Y s 502 505 m -19 Y s 557 495 m -9 Y s 612 495 m -9 Y s 667 495 m -9 Y s 722 495 m -9 Y s 778 505 m -19 Y s 833 495 m
 -9 Y s 888 495 m -9 Y s 943 495 m -9 Y s 998 495 m -9 Y s 1053 505 m -19 Y s 1108 495 m -9 Y s 1163 495 m -9 Y s 1218 495 m -9 Y s 1273 495 m -9 Y s 1328 505 m -19 Y s 1383 495 m -9 Y s 1438 495 m -9 Y s 1493 495 m -9 Y s 1549 495 m -9 Y s 1604 505
 m -19 Y s 1659 495 m -9 Y s 1714 495 m -9 Y s 1769 495 m -9 Y s 1824 495 m -9 Y s 1879 505 m -19 Y s 1934 495 m -9 Y s 1989 495 m -9 Y s 2044 495 m -9 Y s 2099 495 m -9 Y s 2154 505 m -19 Y s 227 1527 m 1927 X s 227 1508 m 19 Y s 282 1518 m 9 Y s
 337 1518 m 9 Y s 392 1518 m 9 Y s 447 1518 m 9 Y s 502 1508 m 19 Y s 557 1518 m 9 Y s 612 1518 m 9 Y s 667 1518 m 9 Y s 722 1518 m 9 Y s 778 1508 m 19 Y s 833 1518 m 9 Y s 888 1518 m 9 Y s 943 1518 m 9 Y s 998 1518 m 9 Y s 1053 1508 m 19 Y s 1108
 1518 m 9 Y s 1163 1518 m 9 Y s 1218 1518 m 9 Y s 1273 1518 m 9 Y s 1328 1508 m 19 Y s 1383 1518 m 9 Y s 1438 1518 m 9 Y s 1493 1518 m 9 Y s 1549 1518 m 9 Y s 1604 1508 m 19 Y s 1659 1518 m 9 Y s 1714 1518 m 9 Y s 1769 1518 m 9 Y s 1824 1518 m 9 Y s
 1879 1508 m 19 Y s 1934 1518 m 9 Y s 1989 1518 m 9 Y s 2044 1518 m 9 Y s 2099 1518 m 9 Y s 2154 1508 m 19 Y s 227 486 m 1041 Y s 248 624 m -21 X s 237 652 m -10 X s 237 680 m -10 X s 237 708 m -10 X s 237 735 m -10 X s 248 763 m -21 X s 237 791 m
 -10 X s 237 819 m -10 X s 237 846 m -10 X s 237 874 m -10 X s 248 902 m -21 X s 237 930 m -10 X s 237 957 m -10 X s 237 985 m -10 X s 237 1013 m -10 X s 248 1041 m -21 X s 237 1068 m -10 X s 237 1096 m -10 X s 237 1124 m -10 X s 237 1152 m -10 X s
 248 1179 m -21 X s 237 1207 m -10 X s 237 1235 m -10 X s 237 1263 m -10 X s 237 1290 m -10 X s 248 1318 m -21 X s 237 1346 m -10 X s 237 1374 m -10 X s 237 1401 m -10 X s 237 1429 m -10 X s 248 1457 m -21 X s 248 624 m -21 X s 237 597 m -10 X s 237
 569 m -10 X s 237 541 m -10 X s 237 513 m -10 X s 248 1457 m -21 X s 237 1485 m -10 X s 237 1512 m -10 X s 2154 486 m 1041 Y s 2133 624 m 21 X s 2144 652 m 10 X s 2144 680 m 10 X s 2144 708 m 10 X s 2144 735 m 10 X s 2133 763 m 21 X s 2144 791 m 10
 X s 2144 819 m 10 X s 2144 846 m 10 X s 2144 874 m 10 X s 2133 902 m 21 X s 2144 930 m 10 X s 2144 957 m 10 X s 2144 985 m 10 X s 2144 1013 m 10 X s 2133 1041 m 21 X s 2144 1068 m 10 X s 2144 1096 m 10 X s 2144 1124 m 10 X s 2144 1152 m 10 X s 2133
 1179 m 21 X s 2144 1207 m 10 X s 2144 1235 m 10 X s 2144 1263 m 10 X s 2144 1290 m 10 X s 2133 1318 m 21 X s 2144 1346 m 10 X s 2144 1374 m 10 X s 2144 1401 m 10 X s 2144 1429 m 10 X s 2133 1457 m 21 X s 2133 624 m 21 X s 2144 597 m 10 X s 2144 569
 m 10 X s 2144 541 m 10 X s 2144 513 m 10 X s 2133 1457 m 21 X s 2144 1485 m 10 X s 2144 1512 m 10 X s
 gsave  2268 1108 0 475 C 1313.98 1432.09 t 0 r /Helvetica findfont 56.1323 sf 0 0 m ( Data) show NC gr  1259 1458 m 10 Y s 1259 1434 m -10 Y s 1259 1446 m20
 gsave  2268 1108 0 475 C 1810.04 1432.09 t 0 r /Helvetica findfont 56.1323 sf 0 0 m (single\255top) show NC gr 
 gsave  2268 1108 0 475 C 1780.51 1432.09 t 0 r /Helvetica-Oblique findfont 56.1323 sf 0 0 m (/) show NC gr 
 gsave  2268 1108 0 475 C 1759.84 1432.09 t 0 r /Helvetica-Oblique findfont 56.1323 sf 0 0 m (t) show NC gr  6 lw 1760 1476 m 21 X s
 gsave  2268 1108 0 475 C 1739.17 1432.09 t 0 r /Helvetica-Oblique findfont 56.1323 sf 0 0 m (t) show NC gr 
 gsave  2268 1108 0 475 C 1721.46 1432.09 t 0 r /Helvetica findfont 56.1323 sf 0 0 m ( ) show NC gr  0.06 0.54 0.06 c 3 lw 1626 1420 m 79 X 52 Y -79 X f 6 lw black
 gsave  2268 1108 0 475 C 1443.9 1358.27 t 0 r /Helvetica findfont 56.1323 sf 0 0 m (+jets) show NC gr 
 gsave  2268 1108 0 475 C 1331.69 1358.27 t 0 r /Helvetica-Oblique findfont 56.1323 sf 0 0 m (W/Z) show NC gr 
 gsave  2268 1108 0 475 C 1313.98 1358.27 t 0 r /Helvetica findfont 56.1323 sf 0 0 m ( ) show NC gr  1 0.653333 0 c 3 lw 1219 1346 m 79 X 52 Y -79 X f black
 gsave  2268 1108 0 475 C 1919.29 1358.27 t 0 r /Helvetica findfont 56.1323 sf 0 0 m (+jets) show NC gr 
 gsave  2268 1108 0 475 C 1739.17 1358.27 t 0 r /Helvetica-Oblique findfont 56.1323 sf 0 0 m (WZ/ZZ) show NC gr 
 gsave  2268 1108 0 475 C 1721.46 1358.27 t 0 r /Helvetica findfont 56.1323 sf 0 0 m ( ) show NC gr  0.413333 1 0 c 3 lw 1626 1346 m 79 X 52 Y -79 X f black
 gsave  2268 1108 0 475 C 1373.03 1284.45 t 0 r /Helvetica-Oblique findfont 56.1323 sf 0 0 m (Z) show NC gr 
 gsave  2268 1108 0 475 C 1352.36 1284.45 t 0 r /Helvetica-Oblique findfont 56.1323 sf 0 0 m (t) show NC gr  6 lw 1352 1329 m 21 X s
 gsave  2268 1108 0 475 C 1331.69 1284.45 t 0 r /Helvetica-Oblique findfont 56.1323 sf 0 0 m (t) show NC gr 
 gsave  2268 1108 0 475 C 1313.98 1284.45 t 0 r /Helvetica findfont 56.1323 sf 0 0 m ( ) show NC gr  0.6 0.2 1 c 3 lw 1219 1272 m 79 X 52 Y -79 X f 6 lw black
 gsave  2268 1108 0 475 C 1780.51 1284.45 t 0 r /Helvetica-Oblique findfont 56.1323 sf 0 0 m (W) show NC gr 
 gsave  2268 1108 0 475 C 1759.84 1284.45 t 0 r /Helvetica-Oblique findfont 56.1323 sf 0 0 m (t) show NC gr  6 lw 1760 1329 m 21 X s
 gsave  2268 1108 0 475 C 1739.17 1284.45 t 0 r /Helvetica-Oblique findfont 56.1323 sf 0 0 m (t) show NC gr 
 gsave  2268 1108 0 475 C 1721.46 1284.45 t 0 r /Helvetica findfont 56.1323 sf 0 0 m ( ) show NC gr  0.54 0.06 0.06 c 3 lw 1626 1272 m 79 X 52 Y -79 X f 6 lw black
 gsave  2268 1108 0 475 C 1331.69 1210.63 t 0 r /Helvetica-Oblique findfont 56.1323 sf 0 0 m (tZq) show NC gr 
 gsave  2268 1108 0 475 C 1313.98 1210.63 t 0 r /Helvetica findfont 56.1323 sf 0 0 m ( ) show NC gr  1 0 1 c 3 lw 1219 1199 m 79 X 51 Y -79 X f black
 gsave  2268 1108 0 475 C 1780.51 1210.63 t 0 r /Helvetica-Oblique findfont 56.1323 sf 0 0 m (H) show NC gr 
 gsave  2268 1108 0 475 C 1759.84 1210.63 t 0 r /Helvetica-Oblique findfont 56.1323 sf 0 0 m (t) show NC gr  6 lw 1760 1255 m 21 X s
 gsave  2268 1108 0 475 C 1739.17 1210.63 t 0 r /Helvetica-Oblique findfont 56.1323 sf 0 0 m (t) show NC gr 
 gsave  2268 1108 0 475 C 1721.46 1210.63 t 0 r /Helvetica findfont 56.1323 sf 0 0 m ( ) show NC gr  0 0 1 c 3 lw 1626 1199 m 79 X 51 Y -79 X f 6 lw black
 gsave  2268 1108 0 475 C 1331.69 1136.81 t 0 r /Helvetica-Oblique findfont 56.1323 sf 0 0 m (tWZ/tWH) show NC gr 
 gsave  2268 1108 0 475 C 1313.98 1136.81 t 0 r /Helvetica findfont 56.1323 sf 0 0 m ( ) show NC gr  0.2 0.8 0.8 c 3 lw 1219 1125 m 79 X 51 Y -79 X f black
 gsave  2268 1108 0 475 C 1739.17 1136.81 t 0 r /Helvetica-Oblique findfont 56.1323 sf 0 0 m (tHq) show NC gr 
 gsave  2268 1108 0 475 C 1721.46 1136.81 t 0 r /Helvetica findfont 56.1323 sf 0 0 m ( ) show NC gr  1 0 0 c 3 lw 1626 1125 m 79 X 51 Y -79 X f black
 gsave  2268 1108 0 475 C 1313.98 1062.99 t 0 r /Helvetica findfont 56.1323 sf 0 0 m ( Other) show NC gr  1 0.84 0 c 3 lw 1219 1051 m 79 X 52 Y -79 X f black
 gsave  2268 1108 0 475 C 1721.46 1062.99 t 0 r /Helvetica findfont 56.1323 sf 0 0 m ( Uncertainty) show NC gr  0.6 0.6 0.6 c 3 lw 1705 1063 m -12 -12 d s 1705 1082 m -31 -31 d s 1705 1101 m -50 -50 d s 1687 1103 m -51 -52 d s 1668 1103 m -42 -43 d s
 1649 1103 m -23 -24 d s 1630 1103 m -4 -4 d s 1 0.84 0 c 0.6 0.6 0.6 c black
 gsave  2268 1108 0 475 C 894.685 1337.6 t 0 r /Helvetica findfont 41.3606 sf 0 0 m (\2551) show NC gr 
 gsave  2268 1108 0 475 C 401.575 1308.07 t 0 r /Helvetica findfont 62.0409 sf 0 0 m ( = 13 TeV,  139 fb) show NC gr 
 gsave  2268 1108 0 475 C 372.047 1308.07 t 0 r /Helvetica findfont 62.0409 sf 0 0 m (s) show NC gr  6 lw 351 1344 m 6 -39 d s 3 lw 357 1305 m 9 56 d s 366 1361 m 36 X s
 gsave  2268 1108 0 475 C 812.008 1207.68 t 0 r /Helvetica findfont 62.0409 sf 0 0 m (\)) show NC gr 
 gsave  2268 1108 0 475 C 785.433 1207.68 t 0 r /Helvetica-Oblique findfont 62.0409 sf 0 0 m (j) show NC gr 
 gsave  2268 1108 0 475 C 752.953 1207.68 t 0 r /Helvetica findfont 62.0409 sf 0 0 m (3) show NC gr 
 gsave  2268 1108 0 475 C 714.567 1207.68 t 0 r /Helvetica-Oblique findfont 62.0409 sf 0 0 m (b) show NC gr 
 gsave  2268 1108 0 475 C 339.567 1207.68 t 0 r /Helvetica findfont 62.0409 sf 0 0 m ( 2L\(SS\), VR\(1) show NC gr 
 gsave  2268 1108 0 475 C 339.567 1405.51 t 0 r /Helvetica-BoldOblique findfont 73.8583 sf 0 0 m (ATLAS) show NC gr 
 gsave  2268 1108 0 475 C 634.843 1405.51 t 0 r /Helvetica findfont 73.8583 sf 0 0 m (Internal) show NC gr 
 gr  gr showpage
end
%%EOF
