%!PS-Adobe-2.0 EPSF-2.0
%%BoundingBox:  0 0 567 396
%%Title: /lhome/ific/c/cardillo/tHq/Plots/Plots-30-05-22-PLIV-SF/2LSS_MC/Ht_CRttbarMu.eps: Ht_CRttbarMu
%%Creator: ROOT Version 6.20/06
%%CreationDate: Tue May 31 15:03:57 2022
%%DocumentNeededResources: ProcSet (FontSetInit)
%%EndComments
%%BeginProlog
80 dict begin
/s {stroke} def /l {lineto} def /m {moveto} def /t {translate} def
/r {rotate} def /rl {roll}  def /R {repeat} def
/d {rlineto} def /rm {rmoveto} def /gr {grestore} def /f {eofill} def
/c {setrgbcolor} def /black {0 setgray} def /sd {setdash} def
/cl {closepath} def /sf {scalefont setfont} def /lw {setlinewidth} def
/box {m dup 0 exch d exch 0 d 0 exch neg d cl} def
/NC{systemdict begin initclip end}def/C{NC box clip newpath}def
/bl {box s} def /bf {gsave box gsave f grestore 1 lw [] 0 sd s grestore} def /Y { 0 exch d} def /X { 0 d} def 
/K {{pop pop 0 moveto} exch kshow} bind def
/ita {/ang 15 def gsave [1 0 ang dup sin exch cos div 1 0 0] concat} def 
/mp {newpath /y exch def /x exch def} def
/side {[w .77 mul w .23 mul] .385 w mul sd w 0 l currentpoint t -144 r} def
/mr {mp x y w2 0 360 arc} def /m24 {mr s} def /m20 {mr f} def
/mb {mp x y w2 add m w2 neg 0 d 0 w neg d w 0 d 0 w d cl} def
/mt {mp x y w2 add m w2 neg w neg d w 0 d cl} def
/w4 {w 4 div} def
/w6 {w 6 div} def
/w8 {w 8 div} def
/m21 {mb f} def /m25 {mb s} def /m22 {mt f} def /m26{mt s} def
/m23 {mp x y w2 sub m w2 w d w neg 0 d cl f} def
/m27 {mp x y w2 add m w3 neg w2 neg d w3 w2 neg d w3 w2 d cl s} def
/m28 {mp x w2 sub y w2 sub w3 add m w3 0 d  0 w3 neg d w3 0 d 0 w3 d w3 0 d  0 w3 d w3 neg 0 d 0 w3 d w3 neg 0 d 0 w3 neg d w3 neg 0 d cl s } def
/m29 {mp gsave x w2 sub y w2 add w3 sub m currentpoint t 4 {side} repeat cl fill gr} def
/m30 {mp gsave x w2 sub y w2 add w3 sub m currentpoint t 4 {side} repeat cl s gr} def
/m31 {mp x y w2 sub m 0 w d x w2 sub y m w 0 d x w2 sub y w2 add m w w neg d x w2 sub y w2 sub m w w d s} def
/m32 {mp x y w2 sub m w2 w d w neg 0 d cl s} def
/m33 {mp x y w2 add m w3 neg w2 neg d w3 w2 neg d w3 w2 d cl f} def
/m34 {mp x w2 sub y w2 sub w3 add m w3 0 d  0 w3 neg d w3 0 d 0 w3 d w3 0 d  0 w3 d w3 neg 0 d 0 w3 d w3 neg 0 d 0 w3 neg d w3 neg 0 d cl f } def
/m35 {mp x y w2 add m w2 neg w2 neg d w2 w2 neg d w2 w2 d w2 neg w2 d x y w2 sub m 0 w d x w2 sub y m w 0 d s} def
/m36 {mb x w2 sub y w2 add m w w neg d x w2 sub y w2 sub m w w d s} def
/m37 {mp x y m w4 neg w2 d w4 neg w2 neg d w2 0 d  w4 neg w2 neg d w2 0 d w4 neg w2 d w2 0 d w4 neg w2 d w4 neg w2 neg d cl s} def
/m38 {mp x w4 sub y w2 add m w4 neg w4 neg d 0 w2 neg d w4 w4 neg d w2 0 d w4 w4 d 0 w2 d w4 neg w4 d w2 neg 0 d x y w2 sub m 0 w d x w2 sub y m w 0 d cl s} def
/m39 {mp x y m w4 neg w2 d w4 neg w2 neg d w2 0 d  w4 neg w2 neg d w2 0 d w4 neg w2 d w2 0 d w4 neg w2 d w4 neg w2 neg d cl f} def
/m40 {mp x y m w4 w2 d w4 w4 neg d w2 neg w4 neg d w2 w4 neg d w4 neg w4 neg d w4 neg w2 d w4 neg w2 neg d w4 neg w4 d w2 w4 d w2 neg w4 d w4 w4 d w4 w2 neg d cl s} def
/m41 {mp x y m w4 w2 d w4 w4 neg d w2 neg w4 neg d w2 w4 neg d w4 neg w4 neg d w4 neg w2 d w4 neg w2 neg d w4 neg w4 d w2 w4 d w2 neg w4 d w4 w4 d w4 w2 neg d cl f} def
/m42 {mp x y w2 add m w8 neg w2 -3 4 div mul d w2 -3 4 div mul w8 neg d w2 3 4 div mul w8 neg d w8 w2 -3 4 div mul d w8 w2 3 4 div mul d w2 3 4 div mul w8 d w2 -3 4 div mul w8 d w8 neg w2 3 4 div mul d cl s} def
/m43 {mp x y w2 add m w8 neg w2 -3 4 div mul d w2 -3 4 div mul w8 neg d w2 3 4 div mul w8 neg d w8 w2 -3 4 div mul d w8 w2 3 4 div mul d w2 3 4 div mul w8 d w2 -3 4 div mul w8 d w8 neg w2 3 4 div mul d cl f} def
/m44 {mp x y m w6 neg w2 d w2 2 3 div mul 0 d w6 neg w2 neg d w2 w6 d 0 w2 -2 3 div mul d w2 neg w6 d w6 w2 neg d w2 -2 3 div mul 0 d w6 w2 d w2 neg w6 neg d 0 w2 2 3 div mul d w2 w6 neg d cl s} def
/m45 {mp x y m w6 neg w2 d w2 2 3 div mul 0 d w6 neg w2 neg d w2 w6 d 0 w2 -2 3 div mul d w2 neg w6 d w6 w2 neg d w2 -2 3 div mul 0 d w6 w2 d w2 neg w6 neg d 0 w2 2 3 div mul d w2 w6 neg d cl f} def
/m46 {mp x y w4 add m w4 neg w4 d w4 neg w4 neg d  w4 w4 neg d w4 neg w4 neg d w4 w4 neg d w4 w4 d w4 w4 neg d w4 w4 d w4 neg w4 d w4 w4 d w4 neg w4 d w4 neg w4 neg d cl s} def
/m47 {mp x y w4 add m w4 neg w4 d w4 neg w4 neg d w4 w4 neg d w4 neg w4 neg d  w4 w4 neg d w4 w4 d w4 w4 neg d w4 w4 d w4 neg w4 d w4 w4 d w4 neg w4 d w4 neg w4 neg d cl f} def
/m48 {mp x y w4 add m w4 neg w4 d w4 neg w4 neg d w4 w4 neg d  w4 neg w4 neg d w4 w4 neg d w4 w4 d w4 w4 neg d w4 w4 d w4 neg w4 d w4 w4 d w4 neg w4 d w4 neg w4 neg d  w4 w4 neg d w4 neg w4 neg d w4 neg w4 d w4 w4 d cl f} def
/m49 {mp x w2 sub w3 add y w2 sub w3 add m  0 w3 neg d w3 0 d 0 w3 d w3 0 d 0 w3 d w3 neg 0 d 0 w3 d w3 neg 0 d 0 w3 neg d w3 neg 0 d 0 w3 neg d w3 0 d 0 w3 d w3 0 d 0 w3 neg d w3 neg 0 d cl f } def
/m2 {mp x y w2 sub m 0 w d x w2 sub y m w 0 d s} def
/m5 {mp x w2 sub y w2 sub m w w d x w2 sub y w2 add m w w neg d s} def
%%IncludeResource: ProcSet (FontSetInit)
%%IncludeResource: font Times-Roman
%%IncludeResource: font Times-Italic
%%IncludeResource: font Times-Bold
%%IncludeResource: font Times-BoldItalic
%%IncludeResource: font Helvetica
%%IncludeResource: font Helvetica-Oblique
%%IncludeResource: font Helvetica-Bold
%%IncludeResource: font Helvetica-BoldOblique
%%IncludeResource: font Courier
%%IncludeResource: font Courier-Oblique
%%IncludeResource: font Courier-Bold
%%IncludeResource: font Courier-BoldOblique
%%IncludeResource: font Symbol
%%IncludeResource: font ZapfDingbats
/reEncode {exch findfont dup length dict begin {1 index /FID eq  {pop pop} {def} ifelse } forall /Encoding exch def currentdict end dup /FontName get exch definefont pop } def [/Times-Bold /Times-Italic /Times-BoldItalic /Helvetica /Helvetica-Oblique
 /Helvetica-Bold /Helvetica-BoldOblique /Courier /Courier-Oblique /Courier-Bold /Courier-BoldOblique /Times-Roman /AvantGarde-Book /AvantGarde-BookOblique /AvantGarde-Demi /AvantGarde-DemiOblique /Bookman-Demi /Bookman-DemiItalic /Bookman-Light
 /Bookman-LightItalic /Helvetica-Narrow /Helvetica-Narrow-Bold /Helvetica-Narrow-BoldOblique /Helvetica-Narrow-Oblique /NewCenturySchlbk-Roman /NewCenturySchlbk-Bold /NewCenturySchlbk-BoldItalic /NewCenturySchlbk-Italic /Palatino-Bold
 /Palatino-BoldItalic /Palatino-Italic /Palatino-Roman ] {ISOLatin1Encoding reEncode } forall
%%EndProlog
%%BeginSetup
%%EndSetup
newpath  gsave  .25 .25 scale  gsave  0 0 t black[  ] 0 sd 3 lw 1 1 1 c 2268 1583 0 0 bf black 1 1 1 c 2268 475 0 0 bf black 1 1 1 c 1927 275 227 190 bf black 1927 275 227 190 bl 227 190 m 1927 X s 227 202 m -12 Y s 282 196 m -6 Y s 337 196 m -6 Y s
 392 196 m -6 Y s 447 196 m -6 Y s 502 202 m -12 Y s 557 196 m -6 Y s 612 196 m -6 Y s 667 196 m -6 Y s 722 196 m -6 Y s 778 202 m -12 Y s 833 196 m -6 Y s 888 196 m -6 Y s 943 196 m -6 Y s 998 196 m -6 Y s 1053 202 m -12 Y s 1108 196 m -6 Y s 1163
 196 m -6 Y s 1218 196 m -6 Y s 1273 196 m -6 Y s 1328 202 m -12 Y s 1383 196 m -6 Y s 1438 196 m -6 Y s 1493 196 m -6 Y s 1549 196 m -6 Y s 1604 202 m -12 Y s 1659 196 m -6 Y s 1714 196 m -6 Y s 1769 196 m -6 Y s 1824 196 m -6 Y s 1879 202 m -12 Y s
 1934 196 m -6 Y s 1989 196 m -6 Y s 2044 196 m -6 Y s 2099 196 m -6 Y s 2154 202 m -12 Y s
 gsave  2268 475 0 0 C 180.118 126.968 t 0 r /Helvetica findfont 53.4154 sf 0 0 m (300) show NC gr 
 gsave  2268 475 0 0 C 457.677 126.968 t 0 r /Helvetica findfont 53.4154 sf 0 0 m (400) show NC gr 
 gsave  2268 475 0 0 C 732.283 126.968 t 0 r /Helvetica findfont 53.4154 sf 0 0 m (500) show NC gr 
 gsave  2268 475 0 0 C 1006.89 126.968 t 0 r /Helvetica findfont 53.4154 sf 0 0 m (600) show NC gr 
 gsave  2268 475 0 0 C 1281.5 126.968 t 0 r /Helvetica findfont 53.4154 sf 0 0 m (700) show NC gr 
 gsave  2268 475 0 0 C 1559.06 126.968 t 0 r /Helvetica findfont 53.4154 sf 0 0 m (800) show NC gr 
 gsave  2268 475 0 0 C 1833.66 126.968 t 0 r /Helvetica findfont 53.4154 sf 0 0 m (900) show NC gr 
 gsave  2268 475 0 0 C 2093.5 126.968 t 0 r /Helvetica findfont 53.4154 sf 0 0 m (1000) show NC gr 
 gsave  2268 475 0 0 C 1996.06 47.2441 t 0 r /Helvetica findfont 56.3829 sf 0 0 m ( [GeV]) show NC gr 
 gsave  2268 475 0 0 C 1972.44 29.5276 t 0 r /Helvetica findfont 38.5778 sf 0 0 m (T) show NC gr 
 gsave  2268 475 0 0 C 1925.2 47.2441 t 0 r /Helvetica-Oblique findfont 56.3829 sf 0 0 m (H) show NC gr  227 465 m 1927 X s 227 453 m 12 Y s 282 459 m 6 Y s 337 459 m 6 Y s 392 459 m 6 Y s 447 459 m 6 Y s 502 453 m 12 Y s 557 459 m 6 Y s 612 459 m 6
 Y s 667 459 m 6 Y s 722 459 m 6 Y s 778 453 m 12 Y s 833 459 m 6 Y s 888 459 m 6 Y s 943 459 m 6 Y s 998 459 m 6 Y s 1053 453 m 12 Y s 1108 459 m 6 Y s 1163 459 m 6 Y s 1218 459 m 6 Y s 1273 459 m 6 Y s 1328 453 m 12 Y s 1383 459 m 6 Y s 1438 459 m
 6 Y s 1493 459 m 6 Y s 1549 459 m 6 Y s 1604 453 m 12 Y s 1659 459 m 6 Y s 1714 459 m 6 Y s 1769 459 m 6 Y s 1824 459 m 6 Y s 1879 453 m 12 Y s 1934 459 m 6 Y s 1989 459 m 6 Y s 2044 459 m 6 Y s 2099 459 m 6 Y s 2154 453 m 12 Y s 227 190 m 275 Y s
 240 242 m -13 X s 240 328 m -13 X s 240 414 m -13 X s 240 242 m -13 X s 240 414 m -13 X s
 gsave  2268 475 0 0 C 118.11 221.457 t 0 r /Helvetica findfont 53.4154 sf 0 0 m (0.5) show NC gr 
 gsave  2268 475 0 0 C 171.26 307.087 t 0 r /Helvetica findfont 53.4154 sf 0 0 m (1) show NC gr 
 gsave  2268 475 0 0 C 118.11 395.669 t 0 r /Helvetica findfont 53.4154 sf 0 0 m (1.5) show NC gr 
 gsave  2268 475 0 0 C 70.8661 233.268 t 90 r /Helvetica findfont 53.4154 sf 0 0 m (Data / SM) show NC gr  2154 190 m 275 Y s 2141 242 m 13 X s 2141 328 m 13 X s 2141 414 m 13 X s 2141 242 m 13 X s 2141 414 m 13 X s 227 190 m 1927 X s 227 465 m 1927
 X s 227 190 m 275 Y s[ 4 8] 0 sd 2154 242 m -1927 X s 2154 328 m -1927 X s 2154 414 m -1927 X s 2154 242 m -1927 X s 2154 414 m -1927 X s[  ] 0 sd 2154 190 m 275 Y s 1 1 0.6 c 137 0 227 328 bf 138 0 364 328 bf 138 0 502 328 bf 138 0 640 328 bf 137 0
 778 328 bf 138 0 915 328 bf 138 0 1053 328 bf 137 0 1191 328 bf 138 0 1328 328 bf 138 0 1466 328 bf 137 0 1604 328 bf 138 0 1741 328 bf 138 0 1879 328 bf 137 0 2017 328 bf black 0.6 0.6 0.6 c 364 328 m -15 -16 d s 360 343 m -30 -31 d s 341 343 m -30
 -31 d s 322 343 m -30 -31 d s 303 343 m -31 -31 d s 283 343 m -30 -31 d s 264 343 m -30 -31 d s 245 343 m -18 -18 d s 502 311 m -2 -2 d s 502 331 m -22 -22 d s 499 347 m -38 -38 d s 479 347 m -37 -38 d s 460 347 m -37 -38 d s 441 347 m -38 -38 d s
 422 347 m -38 -38 d s 403 347 m -38 -38 d s 383 347 m -19 -19 d s 640 314 m -15 -14 d s 640 334 m -34 -34 d s 640 353 m -53 -53 d s 623 355 m -55 -55 d s 604 355 m -56 -55 d s 585 355 m -56 -55 d s 565 355 m -55 -55 d s 546 355 m -44 -44 d s 527 355
 m -25 -24 d s 508 355 m -6 -5 d s 778 317 m -18 -18 d s 778 337 m -38 -38 d s 777 356 m -56 -57 d s 758 356 m -56 -57 d s 739 356 m -56 -57 d s 720 356 m -57 -57 d s 700 356 m -56 -57 d s 681 356 m -41 -42 d s 662 356 m -22 -22 d s 643 356 m -3 -3 d
 s 915 282 m -7 -8 d s 915 301 m -26 -27 d s 915 320 m -45 -46 d s 915 340 m -65 -66 d s 915 359 m -84 -85 d s 915 378 m -103 -104 d s 899 381 m -106 -107 d s 879 381 m -101 -102 d s 860 381 m -82 -83 d s 841 381 m -63 -64 d s 822 381 m -44 -44 d s
 802 381 m -24 -25 d s 783 381 m -5 -6 d s 1053 285 m -5 -5 d s 1053 304 m -24 -24 d s 1053 323 m -43 -43 d s 1053 343 m -63 -63 d s 1053 362 m -82 -82 d s 1047 375 m -95 -95 d s 1028 375 m -95 -95 d s 1009 375 m -94 -93 d s 989 375 m -74 -74 d s 970
 375 m -55 -55 d s 951 375 m -36 -35 d s 932 375 m -17 -16 d s 1191 288 m -1 -1 d s 1191 307 m -20 -20 d s 1191 326 m -39 -39 d s 1191 346 m -59 -59 d s 1191 365 m -78 -78 d s 1174 368 m -80 -81 d s 1155 368 m -80 -81 d s 1136 368 m -81 -81 d s 1117
 368 m -64 -64 d s 1097 368 m -44 -45 d s 1078 368 m -25 -25 d s 1059 368 m -6 -6 d s 1328 271 m -7 -7 d s 1328 291 m -26 -27 d s 1328 310 m -45 -46 d s 1328 329 m -65 -65 d s 1328 349 m -84 -85 d s 1328 368 m -103 -104 d s 1328 387 m -122 -123 d s
 1313 391 m -122 -123 d s 1293 391 m -102 -103 d s 1274 391 m -83 -84 d s 1255 391 m -64 -65 d s 1236 391 m -45 -45 d s 1217 391 m -26 -26 d s 1197 391 m -6 -7 d s 1466 294 m -2 -3 d s 1466 313 m -22 -22 d s 1466 332 m -41 -41 d s 1466 352 m -60 -61
 d s 1459 364 m -72 -73 d s 1440 364 m -73 -73 d s 1421 364 m -73 -73 d s 1401 364 m -72 -73 d s 1382 364 m -54 -54 d s 1363 364 m -35 -35 d s 1344 364 m -16 -15 d s 1604 297 m -3 -3 d s 1604 316 m -22 -22 d s 1604 335 m -41 -41 d s 1604 355 m -60
 -61 d s 1590 361 m -65 -67 d s 1571 361 m -66 -67 d s 1552 361 m -66 -67 d s 1533 361 m -66 -67 d s 1513 361 m -47 -48 d s 1494 361 m -28 -29 d s 1475 361 m -9 -9 d s 1741 261 m -14 -14 d s 1741 280 m -33 -33 d s 1741 300 m -52 -53 d s 1741 319 m
 -72 -72 d s 1741 338 m -91 -91 d s 1741 358 m -110 -111 d s 1741 377 m -129 -130 d s 1741 396 m -137 -138 d s 1734 409 m -130 -132 d s 1715 409 m -111 -112 d s 1696 409 m -92 -93 d s 1677 409 m -73 -74 d s 1657 409 m -53 -54 d s 1638 409 m -34 -35 d
 s 1619 409 m -15 -16 d s 1879 283 m -17 -17 d s 1879 303 m -36 -37 d s 1879 322 m -56 -56 d s 1879 341 m -75 -75 d s 1879 361 m -94 -95 d s 1879 380 m -113 -114 d s 1869 389 m -122 -123 d s 1850 389 m -109 -109 d s 1830 389 m -89 -89 d s 1811 389 m
 -70 -70 d s 1792 389 m -51 -51 d s 1773 389 m -32 -31 d s 1753 389 m -12 -12 d s 2017 248 m -9 -9 d s 2017 267 m -28 -28 d s 2017 286 m -48 -47 d s 2017 306 m -67 -67 d s 2017 325 m -86 -86 d s 2017 344 m -105 -105 d s 2017 364 m -125 -125 d s 2017
 383 m -138 -138 d s 2017 402 m -138 -138 d s 2011 416 m -132 -133 d s 1992 416 m -113 -113 d s 1973 416 m -94 -94 d s 1954 416 m -75 -75 d s 1934 416 m -55 -55 d s 1915 416 m -36 -36 d s 1896 416 m -17 -17 d s 2154 309 m -7 -7 d s 2154 328 m -26 -26
 d s 2154 347 m -45 -45 d s 2141 354 m -51 -52 d s 2122 354 m -52 -52 d s 2103 354 m -52 -52 d s 2084 354 m -52 -52 d s 2064 354 m -47 -48 d s 2045 354 m -28 -29 d s 2026 354 m -9 -10 d s black 1 1 1 c black 296 241 m 41 Y s 296 305 m 41 Y s /w 26
 def /w2 {w 2 div} def /w3 {w 3 div} def 296 294 m20 433 234 m 66 Y s 433 324 m 66 Y s 433 312 m20 571 190 m 64 Y s 571 277 m 66 Y s 571 266 m20 709 235 m 180 Y s 709 439 m 26 Y s 709 427 m20 846 190 m 151 Y s 846 364 m 101 Y s 846 353 m20 227 328 m
 1927 X s 227 190 m 1927 X s 227 202 m -12 Y s 282 196 m -6 Y s 337 196 m -6 Y s 392 196 m -6 Y s 447 196 m -6 Y s 502 202 m -12 Y s 557 196 m -6 Y s 612 196 m -6 Y s 667 196 m -6 Y s 722 196 m -6 Y s 778 202 m -12 Y s 833 196 m -6 Y s 888 196 m -6 Y
 s 943 196 m -6 Y s 998 196 m -6 Y s 1053 202 m -12 Y s 1108 196 m -6 Y s 1163 196 m -6 Y s 1218 196 m -6 Y s 1273 196 m -6 Y s 1328 202 m -12 Y s 1383 196 m -6 Y s 1438 196 m -6 Y s 1493 196 m -6 Y s 1549 196 m -6 Y s 1604 202 m -12 Y s 1659 196 m
 -6 Y s 1714 196 m -6 Y s 1769 196 m -6 Y s 1824 196 m -6 Y s 1879 202 m -12 Y s 1934 196 m -6 Y s 1989 196 m -6 Y s 2044 196 m -6 Y s 2099 196 m -6 Y s 2154 202 m -12 Y s 227 465 m 1927 X s 227 453 m 12 Y s 282 459 m 6 Y s 337 459 m 6 Y s 392 459 m
 6 Y s 447 459 m 6 Y s 502 453 m 12 Y s 557 459 m 6 Y s 612 459 m 6 Y s 667 459 m 6 Y s 722 459 m 6 Y s 778 453 m 12 Y s 833 459 m 6 Y s 888 459 m 6 Y s 943 459 m 6 Y s 998 459 m 6 Y s 1053 453 m 12 Y s 1108 459 m 6 Y s 1163 459 m 6 Y s 1218 459 m 6
 Y s 1273 459 m 6 Y s 1328 453 m 12 Y s 1383 459 m 6 Y s 1438 459 m 6 Y s 1493 459 m 6 Y s 1549 459 m 6 Y s 1604 453 m 12 Y s 1659 459 m 6 Y s 1714 459 m 6 Y s 1769 459 m 6 Y s 1824 459 m 6 Y s 1879 453 m 12 Y s 1934 459 m 6 Y s 1989 459 m 6 Y s 2044
 459 m 6 Y s 2099 459 m 6 Y s 2154 453 m 12 Y s 227 190 m 275 Y s 240 242 m -13 X s 240 328 m -13 X s 240 414 m -13 X s 240 242 m -13 X s 240 414 m -13 X s 2154 190 m 275 Y s 2141 242 m 13 X s 2141 328 m 13 X s 2141 414 m 13 X s 2141 242 m 13 X s
 2141 414 m 13 X s 1 1 1 c 2268 1108 0 475 bf black 1 1 1 c 1927 1041 227 486 bf black 1927 1041 227 486 bl 1 1 1 c black 3 lw 227 486 m 1927 X s 227 505 m -19 Y s 282 495 m -9 Y s 337 495 m -9 Y s 392 495 m -9 Y s 447 495 m -9 Y s 502 505 m -19 Y s
 557 495 m -9 Y s 612 495 m -9 Y s 667 495 m -9 Y s 722 495 m -9 Y s 778 505 m -19 Y s 833 495 m -9 Y s 888 495 m -9 Y s 943 495 m -9 Y s 998 495 m -9 Y s 1053 505 m -19 Y s 1108 495 m -9 Y s 1163 495 m -9 Y s 1218 495 m -9 Y s 1273 495 m -9 Y s 1328
 505 m -19 Y s 1383 495 m -9 Y s 1438 495 m -9 Y s 1493 495 m -9 Y s 1549 495 m -9 Y s 1604 505 m -19 Y s 1659 495 m -9 Y s 1714 495 m -9 Y s 1769 495 m -9 Y s 1824 495 m -9 Y s 1879 505 m -19 Y s 1934 495 m -9 Y s 1989 495 m -9 Y s 2044 495 m -9 Y s
 2099 495 m -9 Y s 2154 505 m -19 Y s
 gsave  2268 1108 0 475 C 2061.02 404.528 t 0 r /Helvetica findfont 32.4976 sf 0 0 m ( [GeV]) show NC gr 
 gsave  2268 1108 0 475 C 2046.26 392.717 t 0 r /Helvetica findfont 20.6803 sf 0 0 m (T) show NC gr 
 gsave  2268 1108 0 475 C 2019.69 404.528 t 0 r /Helvetica-Oblique findfont 32.4976 sf 0 0 m (H) show NC gr  227 1527 m 1927 X s 227 1508 m 19 Y s 282 1518 m 9 Y s 337 1518 m 9 Y s 392 1518 m 9 Y s 447 1518 m 9 Y s 502 1508 m 19 Y s 557 1518 m 9 Y s
 612 1518 m 9 Y s 667 1518 m 9 Y s 722 1518 m 9 Y s 778 1508 m 19 Y s 833 1518 m 9 Y s 888 1518 m 9 Y s 943 1518 m 9 Y s 998 1518 m 9 Y s 1053 1508 m 19 Y s 1108 1518 m 9 Y s 1163 1518 m 9 Y s 1218 1518 m 9 Y s 1273 1518 m 9 Y s 1328 1508 m 19 Y s
 1383 1518 m 9 Y s 1438 1518 m 9 Y s 1493 1518 m 9 Y s 1549 1518 m 9 Y s 1604 1508 m 19 Y s 1659 1518 m 9 Y s 1714 1518 m 9 Y s 1769 1518 m 9 Y s 1824 1518 m 9 Y s 1879 1508 m 19 Y s 1934 1518 m 9 Y s 1989 1518 m 9 Y s 2044 1518 m 9 Y s 2099 1518 m 9
 Y s 2154 1508 m 19 Y s 227 486 m 1041 Y s 248 611 m -21 X s 237 642 m -10 X s 237 674 m -10 X s 237 705 m -10 X s 248 737 m -21 X s 237 768 m -10 X s 237 799 m -10 X s 237 831 m -10 X s 248 862 m -21 X s 237 894 m -10 X s 237 925 m -10 X s 237 956 m
 -10 X s 248 988 m -21 X s 237 1019 m -10 X s 237 1051 m -10 X s 237 1082 m -10 X s 248 1114 m -21 X s 237 1145 m -10 X s 237 1176 m -10 X s 237 1208 m -10 X s 248 1239 m -21 X s 237 1271 m -10 X s 237 1302 m -10 X s 237 1333 m -10 X s 248 1365 m -21
 X s 237 1396 m -10 X s 237 1428 m -10 X s 237 1459 m -10 X s 248 1490 m -21 X s 248 611 m -21 X s 237 579 m -10 X s 237 548 m -10 X s 237 517 m -10 X s 248 1490 m -21 X s 237 1522 m -10 X s
 gsave  2268 1108 0 475 C 171.26 590.551 t 0 r /Helvetica findfont 53.178 sf 0 0 m (2) show NC gr 
 gsave  2268 1108 0 475 C 171.26 717.52 t 0 r /Helvetica findfont 53.178 sf 0 0 m (4) show NC gr 
 gsave  2268 1108 0 475 C 171.26 844.488 t 0 r /Helvetica findfont 53.178 sf 0 0 m (6) show NC gr 
 gsave  2268 1108 0 475 C 171.26 968.504 t 0 r /Helvetica findfont 53.178 sf 0 0 m (8) show NC gr 
 gsave  2268 1108 0 475 C 141.732 1095.47 t 0 r /Helvetica findfont 53.178 sf 0 0 m (10) show NC gr 
 gsave  2268 1108 0 475 C 141.732 1219.49 t 0 r /Helvetica findfont 53.178 sf 0 0 m (12) show NC gr 
 gsave  2268 1108 0 475 C 141.732 1346.46 t 0 r /Helvetica findfont 53.178 sf 0 0 m (14) show NC gr 
 gsave  2268 1108 0 475 C 141.732 1470.47 t 0 r /Helvetica findfont 53.178 sf 0 0 m (16) show NC gr 
 gsave  2268 1108 0 475 C 64.9606 1142.72 t 90 r /Helvetica findfont 53.178 sf 0 0 m (Events / 50 GeV) show NC gr  2154 486 m 1041 Y s 2133 611 m 21 X s 2144 642 m 10 X s 2144 674 m 10 X s 2144 705 m 10 X s 2133 737 m 21 X s 2144 768 m 10 X s 2144
 799 m 10 X s 2144 831 m 10 X s 2133 862 m 21 X s 2144 894 m 10 X s 2144 925 m 10 X s 2144 956 m 10 X s 2133 988 m 21 X s 2144 1019 m 10 X s 2144 1051 m 10 X s 2144 1082 m 10 X s 2133 1114 m 21 X s 2144 1145 m 10 X s 2144 1176 m 10 X s 2144 1208 m 10
 X s 2133 1239 m 21 X s 2144 1271 m 10 X s 2144 1302 m 10 X s 2144 1333 m 10 X s 2133 1365 m 21 X s 2144 1396 m 10 X s 2144 1428 m 10 X s 2144 1459 m 10 X s 2133 1490 m 21 X s 2133 611 m 21 X s 2144 579 m 10 X s 2144 548 m 10 X s 2144 517 m 10 X s
 2133 1490 m 21 X s 2144 1522 m 10 X s 0.06 0.54 0.06 c black 3 lw 0.06 0.54 0.06 c 227 486 m 548 Y 137 X -272 Y 138 X -80 Y 138 X -117 Y 138 X -25 Y 137 X -15 Y 138 X -24 Y 138 X 4 Y 137 X -12 Y 138 X -2 Y 138 X -4 Y 275 X -1 Y 138 X 5 Y 137 X -5 Y
 f 1 0.653333 0 c 0.999 0.999 0.999 c black 3 lw 0.999 0.999 0.999 c 227 486 m 284 Y 137 X -111 Y 138 X -82 Y 138 X -27 Y 138 X -38 Y 137 X -2 Y 138 X -9 Y 138 X -3 Y 137 X -5 Y 138 X -2 Y 138 X -4 Y 275 X -1 Y 138 X 5 Y 137 X -5 Y f 1 0.653333 0 c
 0.999 0.999 0.999 c 1 0.653333 0 c 1 1 1 c black 1 0.653333 0 c black 3 lw 1 0.653333 0 c 227 486 m 284 Y 137 X -111 Y 138 X -82 Y 138 X -27 Y 138 X -38 Y 137 X -2 Y 138 X -9 Y 138 X -3 Y 137 X -5 Y 138 X -2 Y 138 X -4 Y 275 X -1 Y 138 X 5 Y 137 X
 -5 Y f 0.413333 1 0 c 0.999 0.999 0.999 c black 3 lw 0.999 0.999 0.999 c 227 486 m 284 Y 137 X -111 Y 138 X -82 Y 138 X -36 Y 138 X -29 Y 137 X -2 Y 138 X -9 Y 138 X -3 Y 137 X -5 Y 138 X -2 Y 138 X -4 Y 275 X -1 Y 138 X 5 Y 137 X -5 Y f 0.413333 1
 0 c 0.999 0.999 0.999 c 0.413333 1 0 c 1 1 1 c black 0.413333 1 0 c black 3 lw 0.413333 1 0 c 227 486 m 284 Y 137 X -111 Y 138 X -82 Y 138 X -36 Y 138 X -29 Y 137 X -2 Y 138 X -9 Y 138 X -3 Y 137 X -5 Y 138 X -2 Y 138 X -4 Y 275 X -1 Y 138 X 5 Y 137
 X -5 Y f 0.6 0.2 1 c 0.999 0.999 0.999 c black 3 lw 0.999 0.999 0.999 c 227 486 m 261 Y 137 X -96 Y 138 X -79 Y 138 X -36 Y 138 X -27 Y 137 X -2 Y 138 X -10 Y 138 X 1 Y 137 X -6 Y 138 X -1 Y 138 X -4 Y 275 X -1 Y 138 X 4 Y 137 X -4 Y f 0.6 0.2 1 c
 0.999 0.999 0.999 c 0.6 0.2 1 c 1 1 1 c black 0.6 0.2 1 c black 3 lw 0.6 0.2 1 c 227 486 m 261 Y 137 X -96 Y 138 X -79 Y 138 X -36 Y 138 X -27 Y 137 X -2 Y 138 X -10 Y 138 X 1 Y 137 X -6 Y 138 X -1 Y 138 X -4 Y 275 X -1 Y 138 X 4 Y 137 X -4 Y f 0.54
 0.06 0.06 c 0.999 0.999 0.999 c black 3 lw 0.999 0.999 0.999 c 227 486 m 214 Y 137 X -84 Y 138 X -63 Y 138 X -26 Y 138 X -21 Y 137 X -4 Y 138 X -6 Y 138 X -1 Y 137 X -4 Y 138 X -2 Y 138 X -2 Y 275 X -1 Y 138 X 2 Y 137 X -2 Y f 0.54 0.06 0.06 c 0.999
 0.999 0.999 c 0.54 0.06 0.06 c 1 1 1 c black 0.54 0.06 0.06 c black 3 lw 0.54 0.06 0.06 c 227 486 m 214 Y 137 X -84 Y 138 X -63 Y 138 X -26 Y 138 X -21 Y 137 X -4 Y 138 X -6 Y 138 X -1 Y 137 X -4 Y 138 X -2 Y 138 X -2 Y 275 X -1 Y 138 X 2 Y 137 X -2
 Y f 1 0 1 c 0.999 0.999 0.999 c black 3 lw 0.999 0.999 0.999 c 227 486 m 72 Y 137 X -30 Y 138 X -19 Y 138 X -10 Y 138 X -4 Y 137 X -4 Y 138 X -2 Y 138 X -1 Y 137 X -1 Y 276 X -1 Y 550 X f 1 0 1 c 0.999 0.999 0.999 c 1 0 1 c 1 1 1 c black 1 0 1 c
 black 3 lw 1 0 1 c 227 486 m 72 Y 137 X -30 Y 138 X -19 Y 138 X -10 Y 138 X -4 Y 137 X -4 Y 138 X -2 Y 138 X -1 Y 137 X -1 Y 276 X -1 Y 550 X f 0 0 1 c 0.999 0.999 0.999 c black 3 lw 0.999 0.999 0.999 c 227 486 m 60 Y 137 X -28 Y 138 X -14 Y 138 X
 -7 Y 138 X -4 Y 137 X -4 Y 138 X -1 Y 275 X -2 Y 826 X f 0 0 1 c 0.999 0.999 0.999 c 0 0 1 c 1 1 1 c black 0 0 1 c black 3 lw 0 0 1 c 227 486 m 60 Y 137 X -28 Y 138 X -14 Y 138 X -7 Y 138 X -4 Y 137 X -4 Y 138 X -1 Y 275 X -2 Y 826 X f 0.2 0.8 0.8 c
 0.999 0.999 0.999 c black 3 lw 0.999 0.999 0.999 c 227 486 m 6 Y 137 X -1 Y 138 X -3 Y 138 X -1 Y 138 X -1 Y 1376 X f 0.2 0.8 0.8 c 0.999 0.999 0.999 c 0.2 0.8 0.8 c 1 1 1 c black 0.2 0.8 0.8 c black 3 lw 0.2 0.8 0.8 c 227 486 m 6 Y 137 X -1 Y 138 X
 -3 Y 138 X -1 Y 138 X -1 Y 1376 X f 1 0 0 c 0.999 0.999 0.999 c black 3 lw 0.999 0.999 0.999 c 227 486 m 2 Y 137 X -1 Y 138 X -1 Y 1652 X f 1 0 0 c 0.999 0.999 0.999 c 1 0 0 c 1 1 1 c black 1 0 0 c black 3 lw 1 0 0 c 227 486 m 2 Y 137 X -1 Y 138 X
 -1 Y 1652 X f 1 0.84 0 c 0.999 0.999 0.999 c black 3 lw 0.999 0.999 0.999 c 227 486 m 1927 X f 1 0.84 0 c 0.999 0.999 0.999 c 1 0.84 0 c 1 1 1 c black 1 0.84 0 c black 3 lw 1 0.84 0 c 227 486 m 1927 X f black 1 1 1 c black 0.6 0.6 0.6 c 3 lw 364 992
 m -6 -7 d s 364 1011 m -26 -26 d s 364 1030 m -45 -45 d s 364 1050 m -64 -65 d s 364 1069 m -83 -84 d s 358 1082 m -97 -97 d s 339 1082 m -97 -97 d s 320 1082 m -93 -93 d s 301 1082 m -74 -74 d s 281 1082 m -54 -54 d s 262 1082 m -35 -35 d s 243
 1082 m -16 -16 d s 3 lw 502 745 m -14 -13 d s 502 765 m -33 -33 d s 502 784 m -52 -52 d s 492 793 m -61 -61 d s 472 793 m -61 -61 d s 453 793 m -61 -61 d s 434 793 m -61 -61 d s 415 793 m -51 -51 d s 395 793 m -31 -31 d s 376 793 m -12 -12 d s 3 lw
 640 652 m -3 -2 d s 640 672 m -22 -22 d s 640 691 m -41 -41 d s 640 710 m -61 -60 d s 624 713 m -64 -63 d s 605 713 m -64 -63 d s 586 713 m -64 -63 d s 566 713 m -63 -63 d s 547 713 m -45 -44 d s 528 713 m -26 -25 d s 509 713 m -7 -6 d s 3 lw 778
 559 m -8 -7 d s 777 578 m -26 -26 d s 758 578 m -27 -26 d s 738 578 m -26 -26 d s 719 578 m -26 -26 d s 700 578 m -26 -26 d s 681 578 m -27 -26 d s 661 578 m -21 -22 d s 642 578 m -2 -2 d s 3 lw 915 524 m -1 -1 d s 915 543 m -20 -20 d s 910 557 m
 -34 -34 d s 891 557 m -34 -34 d s 871 557 m -34 -34 d s 852 557 m -34 -34 d s 833 557 m -34 -34 d s 814 557 m -34 -34 d s 794 557 m -16 -17 d s 3 lw 1053 527 m -13 -13 d s 1042 535 m -22 -21 d s 1023 535 m -22 -21 d s 1004 535 m -22 -21 d s 984 535
 m -21 -21 d s 965 535 m -22 -21 d s 946 535 m -22 -21 d s 927 535 m -12 -11 d s 3 lw 1184 504 m -7 -7 d s 1165 504 m -7 -7 d s 1146 504 m -8 -7 d s 1126 504 m -7 -7 d s 1107 504 m -7 -7 d s 1088 504 m -7 -7 d s 1069 504 m -8 -7 d s 3 lw 1327 512 m
 -15 -14 d s 1308 512 m -15 -14 d s 1288 512 m -14 -14 d s 1269 512 m -15 -14 d s 1250 512 m -15 -14 d s 1231 512 m -15 -14 d s 1211 512 m -14 -14 d s 1192 512 m -1 -1 d s 3 lw 1463 495 m -3 -4 d s 1444 495 m -3 -4 d s 1425 495 m -4 -4 d s 1405 495 m
 -3 -4 d s 1386 495 m -3 -4 d s 1367 495 m -3 -4 d s 1348 495 m -4 -4 d s 1328 495 m s 3 lw 1595 492 m -2 -2 d s 1576 492 m -3 -2 d s 1556 492 m -2 -2 d s 1537 492 m -2 -2 d s 1518 492 m -2 -2 d s 1499 492 m -2 -2 d s 1479 492 m -2 -2 d s 3 lw 1726
 488 m -2 -2 d s 1707 488 m -2 -2 d s 1688 488 m -2 -2 d s 1668 488 m -2 -2 d s 1649 488 m -2 -2 d s 1630 488 m -2 -2 d s 1611 488 m -2 -2 d s 3 lw 1879 487 m -1 -1 d s 1860 487 m -1 -1 d s 1841 487 m -1 -1 d s 1821 487 m -1 -1 d s 1802 487 m -1 -1 d
 s 1783 487 m -1 -1 d s 1764 487 m -1 -1 d s 1744 487 m -1 -1 d s 3 lw 2013 486 m -1 X s 1994 486 m -1 X s 1974 486 m s 1955 486 m s 1936 486 m -1 X s 1917 486 m -1 X s 1897 486 m s 3 lw 2153 491 m -2 -1 d s 2133 491 m -1 -1 d s 2114 491 m -2 -1 d s
 2095 491 m -2 -1 d s 2076 491 m -2 -1 d s 2056 491 m -1 -1 d s 2037 491 m -2 -1 d s 2018 491 m -1 -1 d s black 3 lw 1 1 1 c black 296 759 m 154 Y s 296 937 m 154 Y s /w 24 def /w2 {w 2 div} def /w3 {w 3 div} def 296 925 m20 433 611 m 114 Y s 433 748
 m 114 Y s 433 737 m20 571 522 m 77 Y s 571 623 m 77 Y s 571 611 m20 709 522 m 77 Y s 709 623 m 77 Y s 709 611 m20 846 486 m 50 Y s 846 560 m 51 Y s 846 548 m20 2085 486 m 50 Y s 2085 560 m 51 Y s 2085 548 m20 227 486 m 1927 X s 227 505 m -19 Y s 282
 495 m -9 Y s 337 495 m -9 Y s 392 495 m -9 Y s 447 495 m -9 Y s 502 505 m -19 Y s 557 495 m -9 Y s 612 495 m -9 Y s 667 495 m -9 Y s 722 495 m -9 Y s 778 505 m -19 Y s 833 495 m -9 Y s 888 495 m -9 Y s 943 495 m -9 Y s 998 495 m -9 Y s 1053 505 m
 -19 Y s 1108 495 m -9 Y s 1163 495 m -9 Y s 1218 495 m -9 Y s 1273 495 m -9 Y s 1328 505 m -19 Y s 1383 495 m -9 Y s 1438 495 m -9 Y s 1493 495 m -9 Y s 1549 495 m -9 Y s 1604 505 m -19 Y s 1659 495 m -9 Y s 1714 495 m -9 Y s 1769 495 m -9 Y s 1824
 495 m -9 Y s 1879 505 m -19 Y s 1934 495 m -9 Y s 1989 495 m -9 Y s 2044 495 m -9 Y s 2099 495 m -9 Y s 2154 505 m -19 Y s 227 1527 m 1927 X s 227 1508 m 19 Y s 282 1518 m 9 Y s 337 1518 m 9 Y s 392 1518 m 9 Y s 447 1518 m 9 Y s 502 1508 m 19 Y s
 557 1518 m 9 Y s 612 1518 m 9 Y s 667 1518 m 9 Y s 722 1518 m 9 Y s 778 1508 m 19 Y s 833 1518 m 9 Y s 888 1518 m 9 Y s 943 1518 m 9 Y s 998 1518 m 9 Y s 1053 1508 m 19 Y s 1108 1518 m 9 Y s 1163 1518 m 9 Y s 1218 1518 m 9 Y s 1273 1518 m 9 Y s 1328
 1508 m 19 Y s 1383 1518 m 9 Y s 1438 1518 m 9 Y s 1493 1518 m 9 Y s 1549 1518 m 9 Y s 1604 1508 m 19 Y s 1659 1518 m 9 Y s 1714 1518 m 9 Y s 1769 1518 m 9 Y s 1824 1518 m 9 Y s 1879 1508 m 19 Y s 1934 1518 m 9 Y s 1989 1518 m 9 Y s 2044 1518 m 9 Y s
 2099 1518 m 9 Y s 2154 1508 m 19 Y s 227 486 m 1041 Y s 248 611 m -21 X s 237 642 m -10 X s 237 674 m -10 X s 237 705 m -10 X s 248 737 m -21 X s 237 768 m -10 X s 237 799 m -10 X s 237 831 m -10 X s 248 862 m -21 X s 237 894 m -10 X s 237 925 m -10
 X s 237 956 m -10 X s 248 988 m -21 X s 237 1019 m -10 X s 237 1051 m -10 X s 237 1082 m -10 X s 248 1114 m -21 X s 237 1145 m -10 X s 237 1176 m -10 X s 237 1208 m -10 X s 248 1239 m -21 X s 237 1271 m -10 X s 237 1302 m -10 X s 237 1333 m -10 X s
 248 1365 m -21 X s 237 1396 m -10 X s 237 1428 m -10 X s 237 1459 m -10 X s 248 1490 m -21 X s 248 611 m -21 X s 237 579 m -10 X s 237 548 m -10 X s 237 517 m -10 X s 248 1490 m -21 X s 237 1522 m -10 X s 2154 486 m 1041 Y s 2133 611 m 21 X s 2144
 642 m 10 X s 2144 674 m 10 X s 2144 705 m 10 X s 2133 737 m 21 X s 2144 768 m 10 X s 2144 799 m 10 X s 2144 831 m 10 X s 2133 862 m 21 X s 2144 894 m 10 X s 2144 925 m 10 X s 2144 956 m 10 X s 2133 988 m 21 X s 2144 1019 m 10 X s 2144 1051 m 10 X s
 2144 1082 m 10 X s 2133 1114 m 21 X s 2144 1145 m 10 X s 2144 1176 m 10 X s 2144 1208 m 10 X s 2133 1239 m 21 X s 2144 1271 m 10 X s 2144 1302 m 10 X s 2144 1333 m 10 X s 2133 1365 m 21 X s 2144 1396 m 10 X s 2144 1428 m 10 X s 2144 1459 m 10 X s
 2133 1490 m 21 X s 2133 611 m 21 X s 2144 579 m 10 X s 2144 548 m 10 X s 2144 517 m 10 X s 2133 1490 m 21 X s 2144 1522 m 10 X s
 gsave  2268 1108 0 475 C 1313.98 1432.09 t 0 r /Helvetica findfont 56.1323 sf 0 0 m ( Data) show NC gr  1259 1458 m 10 Y s 1259 1434 m -10 Y s 1259 1446 m20
 gsave  2268 1108 0 475 C 1810.04 1432.09 t 0 r /Helvetica findfont 56.1323 sf 0 0 m (single\255top) show NC gr 
 gsave  2268 1108 0 475 C 1780.51 1432.09 t 0 r /Helvetica-Oblique findfont 56.1323 sf 0 0 m (/) show NC gr 
 gsave  2268 1108 0 475 C 1759.84 1432.09 t 0 r /Helvetica-Oblique findfont 56.1323 sf 0 0 m (t) show NC gr  6 lw 1760 1476 m 21 X s
 gsave  2268 1108 0 475 C 1739.17 1432.09 t 0 r /Helvetica-Oblique findfont 56.1323 sf 0 0 m (t) show NC gr 
 gsave  2268 1108 0 475 C 1721.46 1432.09 t 0 r /Helvetica findfont 56.1323 sf 0 0 m ( ) show NC gr  0.06 0.54 0.06 c 3 lw 1626 1420 m 79 X 52 Y -79 X f 6 lw black
 gsave  2268 1108 0 475 C 1443.9 1358.27 t 0 r /Helvetica findfont 56.1323 sf 0 0 m (+jets) show NC gr 
 gsave  2268 1108 0 475 C 1331.69 1358.27 t 0 r /Helvetica-Oblique findfont 56.1323 sf 0 0 m (W/Z) show NC gr 
 gsave  2268 1108 0 475 C 1313.98 1358.27 t 0 r /Helvetica findfont 56.1323 sf 0 0 m ( ) show NC gr  1 0.653333 0 c 3 lw 1219 1346 m 79 X 52 Y -79 X f black
 gsave  2268 1108 0 475 C 1919.29 1358.27 t 0 r /Helvetica findfont 56.1323 sf 0 0 m (+jets) show NC gr 
 gsave  2268 1108 0 475 C 1739.17 1358.27 t 0 r /Helvetica-Oblique findfont 56.1323 sf 0 0 m (WZ/ZZ) show NC gr 
 gsave  2268 1108 0 475 C 1721.46 1358.27 t 0 r /Helvetica findfont 56.1323 sf 0 0 m ( ) show NC gr  0.413333 1 0 c 3 lw 1626 1346 m 79 X 52 Y -79 X f black
 gsave  2268 1108 0 475 C 1373.03 1284.45 t 0 r /Helvetica-Oblique findfont 56.1323 sf 0 0 m (Z) show NC gr 
 gsave  2268 1108 0 475 C 1352.36 1284.45 t 0 r /Helvetica-Oblique findfont 56.1323 sf 0 0 m (t) show NC gr  6 lw 1352 1329 m 21 X s
 gsave  2268 1108 0 475 C 1331.69 1284.45 t 0 r /Helvetica-Oblique findfont 56.1323 sf 0 0 m (t) show NC gr 
 gsave  2268 1108 0 475 C 1313.98 1284.45 t 0 r /Helvetica findfont 56.1323 sf 0 0 m ( ) show NC gr  0.6 0.2 1 c 3 lw 1219 1272 m 79 X 52 Y -79 X f 6 lw black
 gsave  2268 1108 0 475 C 1780.51 1284.45 t 0 r /Helvetica-Oblique findfont 56.1323 sf 0 0 m (W) show NC gr 
 gsave  2268 1108 0 475 C 1759.84 1284.45 t 0 r /Helvetica-Oblique findfont 56.1323 sf 0 0 m (t) show NC gr  6 lw 1760 1329 m 21 X s
 gsave  2268 1108 0 475 C 1739.17 1284.45 t 0 r /Helvetica-Oblique findfont 56.1323 sf 0 0 m (t) show NC gr 
 gsave  2268 1108 0 475 C 1721.46 1284.45 t 0 r /Helvetica findfont 56.1323 sf 0 0 m ( ) show NC gr  0.54 0.06 0.06 c 3 lw 1626 1272 m 79 X 52 Y -79 X f 6 lw black
 gsave  2268 1108 0 475 C 1331.69 1210.63 t 0 r /Helvetica-Oblique findfont 56.1323 sf 0 0 m (tZq) show NC gr 
 gsave  2268 1108 0 475 C 1313.98 1210.63 t 0 r /Helvetica findfont 56.1323 sf 0 0 m ( ) show NC gr  1 0 1 c 3 lw 1219 1199 m 79 X 51 Y -79 X f black
 gsave  2268 1108 0 475 C 1780.51 1210.63 t 0 r /Helvetica-Oblique findfont 56.1323 sf 0 0 m (H) show NC gr 
 gsave  2268 1108 0 475 C 1759.84 1210.63 t 0 r /Helvetica-Oblique findfont 56.1323 sf 0 0 m (t) show NC gr  6 lw 1760 1255 m 21 X s
 gsave  2268 1108 0 475 C 1739.17 1210.63 t 0 r /Helvetica-Oblique findfont 56.1323 sf 0 0 m (t) show NC gr 
 gsave  2268 1108 0 475 C 1721.46 1210.63 t 0 r /Helvetica findfont 56.1323 sf 0 0 m ( ) show NC gr  0 0 1 c 3 lw 1626 1199 m 79 X 51 Y -79 X f 6 lw black
 gsave  2268 1108 0 475 C 1331.69 1136.81 t 0 r /Helvetica-Oblique findfont 56.1323 sf 0 0 m (tWZ/tWH) show NC gr 
 gsave  2268 1108 0 475 C 1313.98 1136.81 t 0 r /Helvetica findfont 56.1323 sf 0 0 m ( ) show NC gr  0.2 0.8 0.8 c 3 lw 1219 1125 m 79 X 51 Y -79 X f black
 gsave  2268 1108 0 475 C 1739.17 1136.81 t 0 r /Helvetica-Oblique findfont 56.1323 sf 0 0 m (tHq) show NC gr 
 gsave  2268 1108 0 475 C 1721.46 1136.81 t 0 r /Helvetica findfont 56.1323 sf 0 0 m ( ) show NC gr  1 0 0 c 3 lw 1626 1125 m 79 X 51 Y -79 X f black
 gsave  2268 1108 0 475 C 1313.98 1062.99 t 0 r /Helvetica findfont 56.1323 sf 0 0 m ( Other) show NC gr  1 0.84 0 c 3 lw 1219 1051 m 79 X 52 Y -79 X f black
 gsave  2268 1108 0 475 C 1721.46 1062.99 t 0 r /Helvetica findfont 56.1323 sf 0 0 m ( Uncertainty) show NC gr  0.6 0.6 0.6 c 3 lw 1705 1063 m -12 -12 d s 1705 1082 m -31 -31 d s 1705 1101 m -50 -50 d s 1687 1103 m -51 -52 d s 1668 1103 m -42 -43 d s
 1649 1103 m -23 -24 d s 1630 1103 m -4 -4 d s 1 0.84 0 c 0.6 0.6 0.6 c black
 gsave  2268 1108 0 475 C 894.685 1337.6 t 0 r /Helvetica findfont 41.3606 sf 0 0 m (\2551) show NC gr 
 gsave  2268 1108 0 475 C 401.575 1308.07 t 0 r /Helvetica findfont 62.0409 sf 0 0 m ( = 13 TeV,  139 fb) show NC gr 
 gsave  2268 1108 0 475 C 372.047 1308.07 t 0 r /Helvetica findfont 62.0409 sf 0 0 m (s) show NC gr  6 lw 351 1344 m 6 -39 d s 3 lw 357 1305 m 9 56 d s 366 1361 m 36 X s
 gsave  2268 1108 0 475 C 832.677 1207.68 t 0 r /Helvetica findfont 62.0409 sf 0 0 m (\)) show NC gr 
 gsave  2268 1108 0 475 C 776.575 1175.2 t 0 r /Helvetica findfont 41.3606 sf 0 0 m (HF) show NC gr 
 gsave  2268 1108 0 475 C 339.567 1207.68 t 0 r /Helvetica findfont 62.0409 sf 0 0 m ( 2L\(SS\), CR\(mu) show NC gr 
 gsave  2268 1108 0 475 C 339.567 1405.51 t 0 r /Helvetica-BoldOblique findfont 73.8583 sf 0 0 m (ATLAS) show NC gr 
 gsave  2268 1108 0 475 C 634.843 1405.51 t 0 r /Helvetica findfont 73.8583 sf 0 0 m (Internal) show NC gr 
 gr  gr showpage
end
%%EOF
