%!PS-Adobe-2.0 EPSF-2.0
%%BoundingBox:  0 0 567 394
%%Title: /lhome/ific/c/cardillo/tHq/Plots/Plots-30-05-22-PLIV-SF/2LSS_MC/Ht_CRttW.eps: Ht_CRttW
%%Creator: ROOT Version 6.20/06
%%CreationDate: Mon May 30 19:26:17 2022
%%DocumentNeededResources: ProcSet (FontSetInit)
%%EndComments
%%BeginProlog
80 dict begin
/s {stroke} def /l {lineto} def /m {moveto} def /t {translate} def
/r {rotate} def /rl {roll}  def /R {repeat} def
/d {rlineto} def /rm {rmoveto} def /gr {grestore} def /f {eofill} def
/c {setrgbcolor} def /black {0 setgray} def /sd {setdash} def
/cl {closepath} def /sf {scalefont setfont} def /lw {setlinewidth} def
/box {m dup 0 exch d exch 0 d 0 exch neg d cl} def
/NC{systemdict begin initclip end}def/C{NC box clip newpath}def
/bl {box s} def /bf {gsave box gsave f grestore 1 lw [] 0 sd s grestore} def /Y { 0 exch d} def /X { 0 d} def 
/K {{pop pop 0 moveto} exch kshow} bind def
/ita {/ang 15 def gsave [1 0 ang dup sin exch cos div 1 0 0] concat} def 
/mp {newpath /y exch def /x exch def} def
/side {[w .77 mul w .23 mul] .385 w mul sd w 0 l currentpoint t -144 r} def
/mr {mp x y w2 0 360 arc} def /m24 {mr s} def /m20 {mr f} def
/mb {mp x y w2 add m w2 neg 0 d 0 w neg d w 0 d 0 w d cl} def
/mt {mp x y w2 add m w2 neg w neg d w 0 d cl} def
/w4 {w 4 div} def
/w6 {w 6 div} def
/w8 {w 8 div} def
/m21 {mb f} def /m25 {mb s} def /m22 {mt f} def /m26{mt s} def
/m23 {mp x y w2 sub m w2 w d w neg 0 d cl f} def
/m27 {mp x y w2 add m w3 neg w2 neg d w3 w2 neg d w3 w2 d cl s} def
/m28 {mp x w2 sub y w2 sub w3 add m w3 0 d  0 w3 neg d w3 0 d 0 w3 d w3 0 d  0 w3 d w3 neg 0 d 0 w3 d w3 neg 0 d 0 w3 neg d w3 neg 0 d cl s } def
/m29 {mp gsave x w2 sub y w2 add w3 sub m currentpoint t 4 {side} repeat cl fill gr} def
/m30 {mp gsave x w2 sub y w2 add w3 sub m currentpoint t 4 {side} repeat cl s gr} def
/m31 {mp x y w2 sub m 0 w d x w2 sub y m w 0 d x w2 sub y w2 add m w w neg d x w2 sub y w2 sub m w w d s} def
/m32 {mp x y w2 sub m w2 w d w neg 0 d cl s} def
/m33 {mp x y w2 add m w3 neg w2 neg d w3 w2 neg d w3 w2 d cl f} def
/m34 {mp x w2 sub y w2 sub w3 add m w3 0 d  0 w3 neg d w3 0 d 0 w3 d w3 0 d  0 w3 d w3 neg 0 d 0 w3 d w3 neg 0 d 0 w3 neg d w3 neg 0 d cl f } def
/m35 {mp x y w2 add m w2 neg w2 neg d w2 w2 neg d w2 w2 d w2 neg w2 d x y w2 sub m 0 w d x w2 sub y m w 0 d s} def
/m36 {mb x w2 sub y w2 add m w w neg d x w2 sub y w2 sub m w w d s} def
/m37 {mp x y m w4 neg w2 d w4 neg w2 neg d w2 0 d  w4 neg w2 neg d w2 0 d w4 neg w2 d w2 0 d w4 neg w2 d w4 neg w2 neg d cl s} def
/m38 {mp x w4 sub y w2 add m w4 neg w4 neg d 0 w2 neg d w4 w4 neg d w2 0 d w4 w4 d 0 w2 d w4 neg w4 d w2 neg 0 d x y w2 sub m 0 w d x w2 sub y m w 0 d cl s} def
/m39 {mp x y m w4 neg w2 d w4 neg w2 neg d w2 0 d  w4 neg w2 neg d w2 0 d w4 neg w2 d w2 0 d w4 neg w2 d w4 neg w2 neg d cl f} def
/m40 {mp x y m w4 w2 d w4 w4 neg d w2 neg w4 neg d w2 w4 neg d w4 neg w4 neg d w4 neg w2 d w4 neg w2 neg d w4 neg w4 d w2 w4 d w2 neg w4 d w4 w4 d w4 w2 neg d cl s} def
/m41 {mp x y m w4 w2 d w4 w4 neg d w2 neg w4 neg d w2 w4 neg d w4 neg w4 neg d w4 neg w2 d w4 neg w2 neg d w4 neg w4 d w2 w4 d w2 neg w4 d w4 w4 d w4 w2 neg d cl f} def
/m42 {mp x y w2 add m w8 neg w2 -3 4 div mul d w2 -3 4 div mul w8 neg d w2 3 4 div mul w8 neg d w8 w2 -3 4 div mul d w8 w2 3 4 div mul d w2 3 4 div mul w8 d w2 -3 4 div mul w8 d w8 neg w2 3 4 div mul d cl s} def
/m43 {mp x y w2 add m w8 neg w2 -3 4 div mul d w2 -3 4 div mul w8 neg d w2 3 4 div mul w8 neg d w8 w2 -3 4 div mul d w8 w2 3 4 div mul d w2 3 4 div mul w8 d w2 -3 4 div mul w8 d w8 neg w2 3 4 div mul d cl f} def
/m44 {mp x y m w6 neg w2 d w2 2 3 div mul 0 d w6 neg w2 neg d w2 w6 d 0 w2 -2 3 div mul d w2 neg w6 d w6 w2 neg d w2 -2 3 div mul 0 d w6 w2 d w2 neg w6 neg d 0 w2 2 3 div mul d w2 w6 neg d cl s} def
/m45 {mp x y m w6 neg w2 d w2 2 3 div mul 0 d w6 neg w2 neg d w2 w6 d 0 w2 -2 3 div mul d w2 neg w6 d w6 w2 neg d w2 -2 3 div mul 0 d w6 w2 d w2 neg w6 neg d 0 w2 2 3 div mul d w2 w6 neg d cl f} def
/m46 {mp x y w4 add m w4 neg w4 d w4 neg w4 neg d  w4 w4 neg d w4 neg w4 neg d w4 w4 neg d w4 w4 d w4 w4 neg d w4 w4 d w4 neg w4 d w4 w4 d w4 neg w4 d w4 neg w4 neg d cl s} def
/m47 {mp x y w4 add m w4 neg w4 d w4 neg w4 neg d w4 w4 neg d w4 neg w4 neg d  w4 w4 neg d w4 w4 d w4 w4 neg d w4 w4 d w4 neg w4 d w4 w4 d w4 neg w4 d w4 neg w4 neg d cl f} def
/m48 {mp x y w4 add m w4 neg w4 d w4 neg w4 neg d w4 w4 neg d  w4 neg w4 neg d w4 w4 neg d w4 w4 d w4 w4 neg d w4 w4 d w4 neg w4 d w4 w4 d w4 neg w4 d w4 neg w4 neg d  w4 w4 neg d w4 neg w4 neg d w4 neg w4 d w4 w4 d cl f} def
/m49 {mp x w2 sub w3 add y w2 sub w3 add m  0 w3 neg d w3 0 d 0 w3 d w3 0 d 0 w3 d w3 neg 0 d 0 w3 d w3 neg 0 d 0 w3 neg d w3 neg 0 d 0 w3 neg d w3 0 d 0 w3 d w3 0 d 0 w3 neg d w3 neg 0 d cl f } def
/m2 {mp x y w2 sub m 0 w d x w2 sub y m w 0 d s} def
/m5 {mp x w2 sub y w2 sub m w w d x w2 sub y w2 add m w w neg d s} def
%%IncludeResource: ProcSet (FontSetInit)
%%IncludeResource: font Times-Roman
%%IncludeResource: font Times-Italic
%%IncludeResource: font Times-Bold
%%IncludeResource: font Times-BoldItalic
%%IncludeResource: font Helvetica
%%IncludeResource: font Helvetica-Oblique
%%IncludeResource: font Helvetica-Bold
%%IncludeResource: font Helvetica-BoldOblique
%%IncludeResource: font Courier
%%IncludeResource: font Courier-Oblique
%%IncludeResource: font Courier-Bold
%%IncludeResource: font Courier-BoldOblique
%%IncludeResource: font Symbol
%%IncludeResource: font ZapfDingbats
/reEncode {exch findfont dup length dict begin {1 index /FID eq  {pop pop} {def} ifelse } forall /Encoding exch def currentdict end dup /FontName get exch definefont pop } def [/Times-Bold /Times-Italic /Times-BoldItalic /Helvetica /Helvetica-Oblique
 /Helvetica-Bold /Helvetica-BoldOblique /Courier /Courier-Oblique /Courier-Bold /Courier-BoldOblique /Times-Roman /AvantGarde-Book /AvantGarde-BookOblique /AvantGarde-Demi /AvantGarde-DemiOblique /Bookman-Demi /Bookman-DemiItalic /Bookman-Light
 /Bookman-LightItalic /Helvetica-Narrow /Helvetica-Narrow-Bold /Helvetica-Narrow-BoldOblique /Helvetica-Narrow-Oblique /NewCenturySchlbk-Roman /NewCenturySchlbk-Bold /NewCenturySchlbk-BoldItalic /NewCenturySchlbk-Italic /Palatino-Bold
 /Palatino-BoldItalic /Palatino-Italic /Palatino-Roman ] {ISOLatin1Encoding reEncode } forall
%%EndProlog
%%BeginSetup
%%EndSetup
newpath  gsave  .25 .25 scale  gsave  0 0 t black[  ] 0 sd 3 lw 1 1 1 c 2268 1575 0 0 bf black 1 1 1 c 2268 472 0 0 bf black 1 1 1 c 1927 274 227 189 bf black 1927 274 227 189 bl 227 189 m 1927 X s 227 201 m -12 Y s 282 195 m -6 Y s 337 195 m -6 Y s
 392 195 m -6 Y s 447 195 m -6 Y s 502 201 m -12 Y s 557 195 m -6 Y s 612 195 m -6 Y s 667 195 m -6 Y s 722 195 m -6 Y s 778 201 m -12 Y s 833 195 m -6 Y s 888 195 m -6 Y s 943 195 m -6 Y s 998 195 m -6 Y s 1053 201 m -12 Y s 1108 195 m -6 Y s 1163
 195 m -6 Y s 1218 195 m -6 Y s 1273 195 m -6 Y s 1328 201 m -12 Y s 1383 195 m -6 Y s 1438 195 m -6 Y s 1493 195 m -6 Y s 1549 195 m -6 Y s 1604 201 m -12 Y s 1659 195 m -6 Y s 1714 195 m -6 Y s 1769 195 m -6 Y s 1824 195 m -6 Y s 1879 201 m -12 Y s
 1934 195 m -6 Y s 1989 195 m -6 Y s 2044 195 m -6 Y s 2099 195 m -6 Y s 2154 201 m -12 Y s
 gsave  2268 472 0 0 C 180.588 127.3 t 0 r /Helvetica findfont 53.4895 sf 0 0 m (300) show NC gr 
 gsave  2268 472 0 0 C 455.912 127.3 t 0 r /Helvetica findfont 53.4895 sf 0 0 m (400) show NC gr 
 gsave  2268 472 0 0 C 731.235 127.3 t 0 r /Helvetica findfont 53.4895 sf 0 0 m (500) show NC gr 
 gsave  2268 472 0 0 C 1006.56 127.3 t 0 r /Helvetica findfont 53.4895 sf 0 0 m (600) show NC gr 
 gsave  2268 472 0 0 C 1281.88 127.3 t 0 r /Helvetica findfont 53.4895 sf 0 0 m (700) show NC gr 
 gsave  2268 472 0 0 C 1557.2 127.3 t 0 r /Helvetica findfont 53.4895 sf 0 0 m (800) show NC gr 
 gsave  2268 472 0 0 C 1832.53 127.3 t 0 r /Helvetica findfont 53.4895 sf 0 0 m (900) show NC gr 
 gsave  2268 472 0 0 C 2093.05 127.3 t 0 r /Helvetica findfont 53.4895 sf 0 0 m (1000) show NC gr 
 gsave  2268 472 0 0 C 1995.35 47.3674 t 0 r /Helvetica findfont 56.4611 sf 0 0 m ( [GeV]) show NC gr 
 gsave  2268 472 0 0 C 1971.67 29.6047 t 0 r /Helvetica findfont 38.6313 sf 0 0 m (T) show NC gr 
 gsave  2268 472 0 0 C 1924.3 47.3674 t 0 r /Helvetica-Oblique findfont 56.4611 sf 0 0 m (H) show NC gr  227 463 m 1927 X s 227 451 m 12 Y s 282 457 m 6 Y s 337 457 m 6 Y s 392 457 m 6 Y s 447 457 m 6 Y s 502 451 m 12 Y s 557 457 m 6 Y s 612 457 m 6
 Y s 667 457 m 6 Y s 722 457 m 6 Y s 778 451 m 12 Y s 833 457 m 6 Y s 888 457 m 6 Y s 943 457 m 6 Y s 998 457 m 6 Y s 1053 451 m 12 Y s 1108 457 m 6 Y s 1163 457 m 6 Y s 1218 457 m 6 Y s 1273 457 m 6 Y s 1328 451 m 12 Y s 1383 457 m 6 Y s 1438 457 m
 6 Y s 1493 457 m 6 Y s 1549 457 m 6 Y s 1604 451 m 12 Y s 1659 457 m 6 Y s 1714 457 m 6 Y s 1769 457 m 6 Y s 1824 457 m 6 Y s 1879 451 m 12 Y s 1934 457 m 6 Y s 1989 457 m 6 Y s 2044 457 m 6 Y s 2099 457 m 6 Y s 2154 451 m 12 Y s 227 189 m 274 Y s
 240 240 m -13 X s 240 326 m -13 X s 240 412 m -13 X s 240 240 m -13 X s 240 412 m -13 X s
 gsave  2268 472 0 0 C 118.419 222.035 t 0 r /Helvetica findfont 53.4895 sf 0 0 m (0.5) show NC gr 
 gsave  2268 472 0 0 C 171.707 307.888 t 0 r /Helvetica findfont 53.4895 sf 0 0 m (1) show NC gr 
 gsave  2268 472 0 0 C 118.419 393.742 t 0 r /Helvetica findfont 53.4895 sf 0 0 m (1.5) show NC gr 
 gsave  2268 472 0 0 C 71.0512 230.916 t 90 r /Helvetica findfont 53.4895 sf 0 0 m (Data / SM) show NC gr  2154 189 m 274 Y s 2141 240 m 13 X s 2141 326 m 13 X s 2141 412 m 13 X s 2141 240 m 13 X s 2141 412 m 13 X s 227 189 m 1927 X s 227 463 m 1927
 X s 227 189 m 274 Y s[ 4 8] 0 sd 2154 240 m -1927 X s 2154 326 m -1927 X s 2154 412 m -1927 X s 2154 240 m -1927 X s 2154 412 m -1927 X s[  ] 0 sd 2154 189 m 274 Y s 1 1 0.6 c 137 0 227 326 bf 138 0 364 326 bf 138 0 502 326 bf 138 0 640 326 bf 137 0
 778 326 bf 138 0 915 326 bf 138 0 1053 326 bf 137 0 1191 326 bf 138 0 1328 326 bf 138 0 1466 326 bf 137 0 1604 326 bf 138 0 1741 326 bf 138 0 1879 326 bf 137 0 2017 326 bf black 0.6 0.6 0.6 c 364 327 m -6 -6 d s 349 331 m -10 -10 d s 330 331 m -10
 -10 d s 311 331 m -11 -10 d s 291 331 m -10 -10 d s 272 331 m -10 -10 d s 253 331 m -10 -10 d s 234 331 m -7 -7 d s 502 330 m -8 -8 d s 483 330 m -9 -8 d s 464 330 m -9 -8 d s 445 330 m -9 -8 d s 425 330 m -8 -8 d s 406 330 m -9 -8 d s 387 330 m -9
 -8 d s 368 330 m -4 -3 d s 637 331 m -9 -10 d s 618 331 m -9 -10 d s 599 331 m -9 -10 d s 580 331 m -10 -10 d s 560 331 m -9 -10 d s 541 331 m -9 -10 d s 522 331 m -9 -10 d s 503 331 m -1 -1 d s 772 331 m -9 -10 d s 753 331 m -10 -10 d s 734 331 m
 -10 -10 d s 714 331 m -9 -10 d s 695 331 m -9 -10 d s 676 331 m -10 -10 d s 657 331 m -10 -10 d s 908 332 m -12 -12 d s 888 332 m -11 -12 d s 869 332 m -11 -12 d s 850 332 m -11 -12 d s 831 332 m -12 -12 d s 811 332 m -11 -12 d s 792 332 m -11 -12 d
 s 1053 323 m -4 -4 d s 1043 333 m -13 -14 d s 1024 333 m -13 -14 d s 1005 333 m -13 -14 d s 986 333 m -14 -14 d s 966 333 m -13 -14 d s 947 333 m -13 -14 d s 928 333 m -13 -13 d s 1191 326 m -7 -7 d s 1178 333 m -13 -14 d s 1159 333 m -14 -14 d s
 1140 333 m -14 -14 d s 1121 333 m -14 -14 d s 1101 333 m -13 -14 d s 1082 333 m -14 -14 d s 1063 333 m -10 -10 d s 1328 329 m -12 -12 d s 1315 335 m -18 -18 d s 1296 335 m -18 -18 d s 1277 335 m -18 -18 d s 1258 335 m -19 -18 d s 1238 335 m -18 -18
 d s 1219 335 m -18 -18 d s 1200 335 m -9 -9 d s 1466 332 m -12 -12 d s 1447 332 m -12 -12 d s 1428 332 m -13 -12 d s 1409 332 m -13 -12 d s 1389 332 m -12 -12 d s 1370 332 m -12 -12 d s 1351 332 m -13 -12 d s 1332 332 m -4 -3 d s 1602 333 m -14 -14
 d s 1582 333 m -13 -14 d s 1563 333 m -14 -14 d s 1544 333 m -14 -14 d s 1525 333 m -14 -14 d s 1505 333 m -13 -14 d s 1486 333 m -13 -14 d s 1467 333 m -1 -1 d s 1741 319 m -1 -2 d s 1739 335 m -19 -18 d s 1719 335 m -18 -18 d s 1700 335 m -18 -18
 d s 1681 335 m -18 -18 d s 1662 335 m -19 -18 d s 1642 335 m -18 -18 d s 1623 335 m -18 -18 d s 1604 335 m s 1879 322 m -6 -6 d s 1874 336 m -20 -20 d s 1855 336 m -20 -20 d s 1836 336 m -20 -20 d s 1816 336 m -20 -20 d s 1797 336 m -20 -20 d s 1778
 336 m -20 -20 d s 1759 336 m -18 -17 d s 2017 325 m -13 -14 d s 2013 341 m -29 -30 d s 1994 341 m -29 -30 d s 1975 341 m -29 -30 d s 1956 341 m -29 -30 d s 1936 341 m -29 -30 d s 1917 341 m -29 -30 d s 1898 341 m -19 -19 d s 2154 328 m -4 -5 d s
 2136 329 m -5 -6 d s 2117 329 m -6 -6 d s 2098 329 m -6 -6 d s 2079 329 m -6 -6 d s 2060 329 m -6 -6 d s 2040 329 m -6 -6 d s 2021 329 m -4 -4 d s black 1 1 1 c black 296 272 m 14 Y s 296 310 m 14 Y s /w 26 def /w2 {w 2 div} def /w3 {w 3 div} def
 296 298 m20 433 348 m 21 Y s 433 393 m 21 Y s 433 381 m20 571 320 m 21 Y s 571 365 m 22 Y s 571 353 m20 709 335 m 27 Y s 709 386 m 27 Y s 709 374 m20 846 262 m 21 Y s 846 306 m 22 Y s 846 295 m20 984 222 m 20 Y s 984 265 m 20 Y s 984 253 m20 1122
 341 m 45 Y s 1122 410 m 46 Y s 1122 398 m20 1259 232 m 36 Y s 1259 292 m 35 Y s 1259 280 m20 1397 241 m 48 Y s 1397 313 m 48 Y s 1397 301 m20 1535 342 m 91 Y s 1535 456 m 7 Y s 1535 444 m20 1672 263 m 77 Y s 1672 363 m 76 Y s 1672 351 m20 1948 239 m
 103 Y s 1948 366 m 97 Y s 1948 354 m20 2085 256 m 38 Y s 2085 318 m 38 Y s 2085 306 m20 227 326 m 1927 X s 227 189 m 1927 X s 227 201 m -12 Y s 282 195 m -6 Y s 337 195 m -6 Y s 392 195 m -6 Y s 447 195 m -6 Y s 502 201 m -12 Y s 557 195 m -6 Y s
 612 195 m -6 Y s 667 195 m -6 Y s 722 195 m -6 Y s 778 201 m -12 Y s 833 195 m -6 Y s 888 195 m -6 Y s 943 195 m -6 Y s 998 195 m -6 Y s 1053 201 m -12 Y s 1108 195 m -6 Y s 1163 195 m -6 Y s 1218 195 m -6 Y s 1273 195 m -6 Y s 1328 201 m -12 Y s
 1383 195 m -6 Y s 1438 195 m -6 Y s 1493 195 m -6 Y s 1549 195 m -6 Y s 1604 201 m -12 Y s 1659 195 m -6 Y s 1714 195 m -6 Y s 1769 195 m -6 Y s 1824 195 m -6 Y s 1879 201 m -12 Y s 1934 195 m -6 Y s 1989 195 m -6 Y s 2044 195 m -6 Y s 2099 195 m -6
 Y s 2154 201 m -12 Y s 227 463 m 1927 X s 227 451 m 12 Y s 282 457 m 6 Y s 337 457 m 6 Y s 392 457 m 6 Y s 447 457 m 6 Y s 502 451 m 12 Y s 557 457 m 6 Y s 612 457 m 6 Y s 667 457 m 6 Y s 722 457 m 6 Y s 778 451 m 12 Y s 833 457 m 6 Y s 888 457 m 6
 Y s 943 457 m 6 Y s 998 457 m 6 Y s 1053 451 m 12 Y s 1108 457 m 6 Y s 1163 457 m 6 Y s 1218 457 m 6 Y s 1273 457 m 6 Y s 1328 451 m 12 Y s 1383 457 m 6 Y s 1438 457 m 6 Y s 1493 457 m 6 Y s 1549 457 m 6 Y s 1604 451 m 12 Y s 1659 457 m 6 Y s 1714
 457 m 6 Y s 1769 457 m 6 Y s 1824 457 m 6 Y s 1879 451 m 12 Y s 1934 457 m 6 Y s 1989 457 m 6 Y s 2044 457 m 6 Y s 2099 457 m 6 Y s 2154 451 m 12 Y s 227 189 m 274 Y s 240 240 m -13 X s 240 326 m -13 X s 240 412 m -13 X s 240 240 m -13 X s 240 412 m
 -13 X s 2154 189 m 274 Y s 2141 240 m 13 X s 2141 326 m 13 X s 2141 412 m 13 X s 2141 240 m 13 X s 2141 412 m 13 X s 1 1 1 c 2268 1103 0 472 bf black 1 1 1 c 1927 1036 227 484 bf black 1927 1036 227 484 bl 1 1 1 c black 3 lw 227 484 m 1927 X s 227
 502 m -18 Y s 282 493 m -9 Y s 337 493 m -9 Y s 392 493 m -9 Y s 447 493 m -9 Y s 502 502 m -18 Y s 557 493 m -9 Y s 612 493 m -9 Y s 667 493 m -9 Y s 722 493 m -9 Y s 778 502 m -18 Y s 833 493 m -9 Y s 888 493 m -9 Y s 943 493 m -9 Y s 998 493 m -9
 Y s 1053 502 m -18 Y s 1108 493 m -9 Y s 1163 493 m -9 Y s 1218 493 m -9 Y s 1273 493 m -9 Y s 1328 502 m -18 Y s 1383 493 m -9 Y s 1438 493 m -9 Y s 1493 493 m -9 Y s 1549 493 m -9 Y s 1604 502 m -18 Y s 1659 493 m -9 Y s 1714 493 m -9 Y s 1769 493
 m -9 Y s 1824 493 m -9 Y s 1879 502 m -18 Y s 1934 493 m -9 Y s 1989 493 m -9 Y s 2044 493 m -9 Y s 2099 493 m -9 Y s 2154 502 m -18 Y s
 gsave  2268 1103 0 472 C 2069.37 402.623 t 0 r /Helvetica findfont 29.6365 sf 0 0 m ( [GeV]) show NC gr 
 gsave  2268 1103 0 472 C 2054.56 393.742 t 0 r /Helvetica findfont 20.7455 sf 0 0 m (T) show NC gr 
 gsave  2268 1103 0 472 C 2030.88 402.623 t 0 r /Helvetica-Oblique findfont 29.6365 sf 0 0 m (H) show NC gr  227 1520 m 1927 X s 227 1501 m 19 Y s 282 1510 m 10 Y s 337 1510 m 10 Y s 392 1510 m 10 Y s 447 1510 m 10 Y s 502 1501 m 19 Y s 557 1510 m 10
 Y s 612 1510 m 10 Y s 667 1510 m 10 Y s 722 1510 m 10 Y s 778 1501 m 19 Y s 833 1510 m 10 Y s 888 1510 m 10 Y s 943 1510 m 10 Y s 998 1510 m 10 Y s 1053 1501 m 19 Y s 1108 1510 m 10 Y s 1163 1510 m 10 Y s 1218 1510 m 10 Y s 1273 1510 m 10 Y s 1328
 1501 m 19 Y s 1383 1510 m 10 Y s 1438 1510 m 10 Y s 1493 1510 m 10 Y s 1549 1510 m 10 Y s 1604 1501 m 19 Y s 1659 1510 m 10 Y s 1714 1510 m 10 Y s 1769 1510 m 10 Y s 1824 1510 m 10 Y s 1879 1501 m 19 Y s 1934 1510 m 10 Y s 1989 1510 m 10 Y s 2044
 1510 m 10 Y s 2099 1510 m 10 Y s 2154 1501 m 19 Y s 227 484 m 1036 Y s 248 599 m -21 X s 237 622 m -10 X s 237 645 m -10 X s 237 668 m -10 X s 237 691 m -10 X s 248 714 m -21 X s 237 737 m -10 X s 237 760 m -10 X s 237 783 m -10 X s 237 806 m -10 X
 s 248 829 m -21 X s 237 852 m -10 X s 237 876 m -10 X s 237 899 m -10 X s 237 922 m -10 X s 248 945 m -21 X s 237 968 m -10 X s 237 991 m -10 X s 237 1014 m -10 X s 237 1037 m -10 X s 248 1060 m -21 X s 237 1083 m -10 X s 237 1106 m -10 X s 237 1129
 m -10 X s 237 1152 m -10 X s 248 1175 m -21 X s 237 1198 m -10 X s 237 1221 m -10 X s 237 1245 m -10 X s 237 1268 m -10 X s 248 1291 m -21 X s 237 1314 m -10 X s 237 1337 m -10 X s 237 1360 m -10 X s 237 1383 m -10 X s 248 1406 m -21 X s 248 599 m
 -21 X s 237 576 m -10 X s 237 553 m -10 X s 237 530 m -10 X s 237 506 m -10 X s 248 1406 m -21 X s 237 1429 m -10 X s 237 1452 m -10 X s 237 1475 m -10 X s 237 1498 m -10 X s
 gsave  2268 1103 0 472 C 145.063 580.251 t 0 r /Helvetica findfont 50.382 sf 0 0 m (10) show NC gr 
 gsave  2268 1103 0 472 C 145.063 695.709 t 0 r /Helvetica findfont 50.382 sf 0 0 m (20) show NC gr 
 gsave  2268 1103 0 472 C 145.063 811.168 t 0 r /Helvetica findfont 50.382 sf 0 0 m (30) show NC gr 
 gsave  2268 1103 0 472 C 145.063 926.626 t 0 r /Helvetica findfont 50.382 sf 0 0 m (40) show NC gr 
 gsave  2268 1103 0 472 C 145.063 1042.08 t 0 r /Helvetica findfont 50.382 sf 0 0 m (50) show NC gr 
 gsave  2268 1103 0 472 C 145.063 1157.54 t 0 r /Helvetica findfont 50.382 sf 0 0 m (60) show NC gr 
 gsave  2268 1103 0 472 C 145.063 1270.04 t 0 r /Helvetica findfont 50.382 sf 0 0 m (70) show NC gr 
 gsave  2268 1103 0 472 C 145.063 1385.5 t 0 r /Helvetica findfont 50.382 sf 0 0 m (80) show NC gr 
 gsave  2268 1103 0 472 C 62.1698 1154.58 t 90 r /Helvetica findfont 50.382 sf 0 0 m (Events / 50 GeV) show NC gr  2154 484 m 1036 Y s 2133 599 m 21 X s 2144 622 m 10 X s 2144 645 m 10 X s 2144 668 m 10 X s 2144 691 m 10 X s 2133 714 m 21 X s 2144
 737 m 10 X s 2144 760 m 10 X s 2144 783 m 10 X s 2144 806 m 10 X s 2133 829 m 21 X s 2144 852 m 10 X s 2144 876 m 10 X s 2144 899 m 10 X s 2144 922 m 10 X s 2133 945 m 21 X s 2144 968 m 10 X s 2144 991 m 10 X s 2144 1014 m 10 X s 2144 1037 m 10 X s
 2133 1060 m 21 X s 2144 1083 m 10 X s 2144 1106 m 10 X s 2144 1129 m 10 X s 2144 1152 m 10 X s 2133 1175 m 21 X s 2144 1198 m 10 X s 2144 1221 m 10 X s 2144 1245 m 10 X s 2144 1268 m 10 X s 2133 1291 m 21 X s 2144 1314 m 10 X s 2144 1337 m 10 X s
 2144 1360 m 10 X s 2144 1383 m 10 X s 2133 1406 m 21 X s 2133 599 m 21 X s 2144 576 m 10 X s 2144 553 m 10 X s 2144 530 m 10 X s 2144 506 m 10 X s 2133 1406 m 21 X s 2144 1429 m 10 X s 2144 1452 m 10 X s 2144 1475 m 10 X s 2144 1498 m 10 X s 0.06
 0.54 0.06 c black 3 lw 0.06 0.54 0.06 c 227 484 m 414 Y 137 X -4 Y 138 X -62 Y 138 X -60 Y 138 X -34 Y 137 X -54 Y 138 X -55 Y 138 X -35 Y 137 X -30 Y 138 X -26 Y 138 X -4 Y 137 X -15 Y 138 X -6 Y 138 X 88 Y 137 X -117 Y f 1 0.653333 0 c 0.999 0.999
 0.999 c black 3 lw 0.999 0.999 0.999 c 227 484 m 350 Y 137 X 4 Y 138 X -47 Y 138 X -47 Y 138 X -42 Y 137 X -49 Y 138 X -39 Y 138 X -36 Y 137 X -16 Y 138 X -24 Y 138 X -7 Y 137 X -13 Y 138 X -8 Y 138 X 80 Y 137 X -106 Y f 1 0.653333 0 c 0.999 0.999
 0.999 c 1 0.653333 0 c 1 1 1 c black 1 0.653333 0 c black 3 lw 1 0.653333 0 c 227 484 m 350 Y 137 X 4 Y 138 X -47 Y 138 X -47 Y 138 X -42 Y 137 X -49 Y 138 X -39 Y 138 X -36 Y 137 X -16 Y 138 X -24 Y 138 X -7 Y 137 X -13 Y 138 X -8 Y 138 X 80 Y 137
 X -106 Y f 0.413333 1 0 c 0.999 0.999 0.999 c black 3 lw 0.999 0.999 0.999 c 227 484 m 344 Y 137 X 9 Y 138 X -46 Y 138 X -47 Y 138 X -42 Y 137 X -49 Y 138 X -39 Y 138 X -36 Y 137 X -16 Y 138 X -24 Y 138 X -7 Y 137 X -13 Y 138 X -8 Y 138 X 80 Y 137 X
 -106 Y f 0.413333 1 0 c 0.999 0.999 0.999 c 0.413333 1 0 c 1 1 1 c black 0.413333 1 0 c black 3 lw 0.413333 1 0 c 227 484 m 344 Y 137 X 9 Y 138 X -46 Y 138 X -47 Y 138 X -42 Y 137 X -49 Y 138 X -39 Y 138 X -36 Y 137 X -16 Y 138 X -24 Y 138 X -7 Y
 137 X -13 Y 138 X -8 Y 138 X 80 Y 137 X -106 Y f 0.6 0.2 1 c 0.999 0.999 0.999 c black 3 lw 0.999 0.999 0.999 c 227 484 m 329 Y 137 X 8 Y 138 X -46 Y 138 X -43 Y 138 X -41 Y 137 X -46 Y 138 X -39 Y 138 X -34 Y 137 X -16 Y 138 X -22 Y 138 X -7 Y 137
 X -12 Y 138 X -7 Y 138 X 67 Y 137 X -91 Y f 0.6 0.2 1 c 0.999 0.999 0.999 c 0.6 0.2 1 c 1 1 1 c black 0.6 0.2 1 c black 3 lw 0.6 0.2 1 c 227 484 m 329 Y 137 X 8 Y 138 X -46 Y 138 X -43 Y 138 X -41 Y 137 X -46 Y 138 X -39 Y 138 X -34 Y 137 X -16 Y
 138 X -22 Y 138 X -7 Y 137 X -12 Y 138 X -7 Y 138 X 67 Y 137 X -91 Y f 0.54 0.06 0.06 c 0.999 0.999 0.999 c black 3 lw 0.999 0.999 0.999 c 227 484 m 292 Y 137 X 5 Y 138 X -40 Y 138 X -40 Y 138 X -36 Y 137 X -40 Y 138 X -33 Y 138 X -31 Y 137 X -14 Y
 138 X -19 Y 138 X -6 Y 137 X -10 Y 138 X -7 Y 138 X 61 Y 137 X -82 Y f 0.54 0.06 0.06 c 0.999 0.999 0.999 c 0.54 0.06 0.06 c 1 1 1 c black 0.54 0.06 0.06 c black 3 lw 0.54 0.06 0.06 c 227 484 m 292 Y 137 X 5 Y 138 X -40 Y 138 X -40 Y 138 X -36 Y 137
 X -40 Y 138 X -33 Y 138 X -31 Y 137 X -14 Y 138 X -19 Y 138 X -6 Y 137 X -10 Y 138 X -7 Y 138 X 61 Y 137 X -82 Y f 1 0 1 c 0.999 0.999 0.999 c black 3 lw 0.999 0.999 0.999 c 227 484 m 50 Y 137 X 3 Y 138 X -5 Y 138 X -9 Y 138 X -6 Y 137 X -9 Y 138 X
 -5 Y 138 X -7 Y 137 X -3 Y 138 X -2 Y 138 X -2 Y 137 X -2 Y 276 X 8 Y 137 X -11 Y f 1 0 1 c 0.999 0.999 0.999 c 1 0 1 c 1 1 1 c black 1 0 1 c black 3 lw 1 0 1 c 227 484 m 50 Y 137 X 3 Y 138 X -5 Y 138 X -9 Y 138 X -6 Y 137 X -9 Y 138 X -5 Y 138 X -7
 Y 137 X -3 Y 138 X -2 Y 138 X -2 Y 137 X -2 Y 276 X 8 Y 137 X -11 Y f 0 0 1 c 0.999 0.999 0.999 c black 3 lw 0.999 0.999 0.999 c 227 484 m 47 Y 137 X 3 Y 138 X -6 Y 138 X -7 Y 138 X -6 Y 137 X -8 Y 138 X -6 Y 138 X -6 Y 137 X -3 Y 138 X -2 Y 138 X
 -2 Y 137 X -1 Y 138 X -1 Y 138 X 8 Y 137 X -10 Y f 0 0 1 c 0.999 0.999 0.999 c 0 0 1 c 1 1 1 c black 0 0 1 c black 3 lw 0 0 1 c 227 484 m 47 Y 137 X 3 Y 138 X -6 Y 138 X -7 Y 138 X -6 Y 137 X -8 Y 138 X -6 Y 138 X -6 Y 137 X -3 Y 138 X -2 Y 138 X -2
 Y 137 X -1 Y 138 X -1 Y 138 X 8 Y 137 X -10 Y f 0.2 0.8 0.8 c 0.999 0.999 0.999 c black 3 lw 0.999 0.999 0.999 c 227 484 m 5 Y 137 X 1 Y 276 X -1 Y 275 X -2 Y 276 X -1 Y 275 X -1 Y 275 X -1 Y 276 X 4 Y 137 X -4 Y f 0.2 0.8 0.8 c 0.999 0.999 0.999 c
 0.2 0.8 0.8 c 1 1 1 c black 0.2 0.8 0.8 c black 3 lw 0.2 0.8 0.8 c 227 484 m 5 Y 137 X 1 Y 276 X -1 Y 275 X -2 Y 276 X -1 Y 275 X -1 Y 275 X -1 Y 276 X 4 Y 137 X -4 Y f 1 0 0 c 0.999 0.999 0.999 c black 3 lw 0.999 0.999 0.999 c 227 484 m 1 Y 137 X 1
 Y 551 X -1 Y 551 X -1 Y 551 X 2 Y 137 X -2 Y f 1 0 0 c 0.999 0.999 0.999 c 1 0 0 c 1 1 1 c black 1 0 0 c black 3 lw 1 0 0 c 227 484 m 1 Y 137 X 1 Y 551 X -1 Y 551 X -1 Y 551 X 2 Y 137 X -2 Y f 1 0.84 0 c 0.999 0.999 0.999 c black 3 lw 0.999 0.999
 0.999 c 227 484 m 137 X 1 Y 1102 X -1 Y 551 X 2 Y 137 X -2 Y f 1 0.84 0 c 0.999 0.999 0.999 c 1 0.84 0 c 1 1 1 c black 1 0.84 0 c black 3 lw 1 0.84 0 c 227 484 m 137 X 1 Y 1102 X -1 Y 551 X 2 Y 137 X -2 Y f black 1 1 1 c black 0.6 0.6 0.6 c 3 lw 364
 894 m -8 -9 d s 362 910 m -25 -25 d s 342 910 m -25 -25 d s 323 910 m -25 -25 d s 304 910 m -25 -25 d s 285 910 m -25 -25 d s 266 910 m -26 -25 d s 246 910 m -19 -19 d s 227 910 m s 3 lw 502 897 m -13 -14 d s 490 904 m -21 -21 d s 471 904 m -21 -21
 d s 452 904 m -21 -21 d s 433 904 m -21 -21 d s 413 904 m -21 -21 d s 394 904 m -21 -21 d s 375 904 m -11 -10 d s 3 lw 640 823 m -1 -1 d s 638 841 m -18 -19 d s 619 841 m -19 -19 d s 600 841 m -19 -19 d s 581 841 m -19 -19 d s 561 841 m -18 -19 d s
 542 841 m -19 -19 d s 523 841 m -19 -19 d s 504 841 m -2 -2 d s 3 lw 778 768 m -5 -4 d s 770 780 m -16 -16 d s 750 780 m -16 -16 d s 731 780 m -16 -16 d s 712 780 m -16 -16 d s 693 780 m -16 -16 d s 673 780 m -16 -16 d s 654 780 m -14 -15 d s 3 lw
 915 733 m -4 -4 d s 909 746 m -17 -17 d s 890 746 m -17 -17 d s 870 746 m -16 -17 d s 851 746 m -17 -17 d s 832 746 m -17 -17 d s 813 746 m -17 -17 d s 793 746 m -15 -16 d s 3 lw 1053 678 m -3 -2 d s 1047 691 m -16 -15 d s 1027 691 m -15 -15 d s
 1008 691 m -15 -15 d s 989 691 m -16 -15 d s 970 691 m -16 -15 d s 950 691 m -15 -15 d s 931 691 m -15 -15 d s 3 lw 1191 624 m -1 X s 1183 635 m -12 -11 d s 1164 635 m -12 -11 d s 1144 635 m -11 -11 d s 1125 635 m -12 -11 d s 1106 635 m -12 -11 d s
 1087 635 m -12 -11 d s 1068 635 m -12 -11 d s 3 lw 1328 588 m s 1321 600 m -12 -12 d s 1301 600 m -11 -12 d s 1282 600 m -12 -12 d s 1263 600 m -12 -12 d s 1244 600 m -12 -12 d s 1224 600 m -11 -12 d s 1205 600 m -12 -12 d s 3 lw 1461 567 m -6 -6 d
 s 1442 567 m -6 -6 d s 1423 567 m -6 -6 d s 1403 567 m -6 -6 d s 1384 567 m -6 -6 d s 1365 567 m -6 -6 d s 1346 567 m -6 -6 d s 3 lw 1604 537 m -1 -1 d s 1588 540 m -4 -4 d s 1569 540 m -5 -4 d s 1549 540 m -4 -4 d s 1530 540 m -4 -4 d s 1511 540 m
 -4 -4 d s 1492 540 m -5 -4 d s 1472 540 m -4 -4 d s 3 lw 1738 536 m -5 -5 d s 1719 536 m -6 -5 d s 1699 536 m -5 -5 d s 1680 536 m -5 -5 d s 1661 536 m -5 -5 d s 1642 536 m -6 -5 d s 1623 536 m -6 -5 d s 3 lw 1877 521 m -4 -4 d s 1857 521 m -4 -4 d
 s 1838 521 m -4 -4 d s 1819 521 m -4 -4 d s 1800 521 m -4 -4 d s 1781 521 m -5 -4 d s 1761 521 m -4 -4 d s 1742 521 m -1 -1 d s 3 lw 2006 516 m -5 -5 d s 1987 516 m -5 -5 d s 1967 516 m -5 -5 d s 1948 516 m -5 -5 d s 1929 516 m -5 -5 d s 1910 516 m
 -5 -5 d s 1890 516 m -5 -5 d s 3 lw 2151 603 m -4 -4 d s 2132 603 m -4 -4 d s 2113 603 m -4 -4 d s 2093 603 m -4 -4 d s 2074 603 m -4 -4 d s 2055 603 m -4 -4 d s 2036 603 m -4 -4 d s black 3 lw 1 1 1 c black 296 766 m 52 Y s 296 841 m 52 Y s /w 24
 def /w2 {w 2 div} def /w3 {w 3 div} def 296 829 m20 433 946 m 68 Y s 433 1037 m 68 Y s 433 1025 m20 571 819 m 56 Y s 571 899 m 56 Y s 571 887 m20 709 787 m 54 Y s 709 864 m 54 Y s 709 852 m20 846 642 m 37 Y s 846 703 m 37 Y s 846 691 m20 984 562 m
 25 Y s 984 611 m 24 Y s 984 599 m20 1122 642 m 37 Y s 1122 703 m 37 Y s 1122 691 m20 1259 534 m 18 Y s 1259 576 m 19 Y s 1259 564 m20 1397 524 m 17 Y s 1397 564 m 17 Y s 1397 553 m20 1535 543 m 21 Y s 1535 588 m 20 Y s 1535 576 m20 1672 515 m 14 Y s
 1672 553 m 14 Y s 1672 541 m20 1810 524 m 17 Y s 1810 564 m 17 Y s 1810 553 m20 1948 498 m 8 Y s 1948 530 m 8 Y s 1948 518 m20 2085 553 m 22 Y s 2085 599 m 23 Y s 2085 587 m20 227 484 m 1927 X s 227 502 m -18 Y s 282 493 m -9 Y s 337 493 m -9 Y s
 392 493 m -9 Y s 447 493 m -9 Y s 502 502 m -18 Y s 557 493 m -9 Y s 612 493 m -9 Y s 667 493 m -9 Y s 722 493 m -9 Y s 778 502 m -18 Y s 833 493 m -9 Y s 888 493 m -9 Y s 943 493 m -9 Y s 998 493 m -9 Y s 1053 502 m -18 Y s 1108 493 m -9 Y s 1163
 493 m -9 Y s 1218 493 m -9 Y s 1273 493 m -9 Y s 1328 502 m -18 Y s 1383 493 m -9 Y s 1438 493 m -9 Y s 1493 493 m -9 Y s 1549 493 m -9 Y s 1604 502 m -18 Y s 1659 493 m -9 Y s 1714 493 m -9 Y s 1769 493 m -9 Y s 1824 493 m -9 Y s 1879 502 m -18 Y s
 1934 493 m -9 Y s 1989 493 m -9 Y s 2044 493 m -9 Y s 2099 493 m -9 Y s 2154 502 m -18 Y s 227 1520 m 1927 X s 227 1501 m 19 Y s 282 1510 m 10 Y s 337 1510 m 10 Y s 392 1510 m 10 Y s 447 1510 m 10 Y s 502 1501 m 19 Y s 557 1510 m 10 Y s 612 1510 m
 10 Y s 667 1510 m 10 Y s 722 1510 m 10 Y s 778 1501 m 19 Y s 833 1510 m 10 Y s 888 1510 m 10 Y s 943 1510 m 10 Y s 998 1510 m 10 Y s 1053 1501 m 19 Y s 1108 1510 m 10 Y s 1163 1510 m 10 Y s 1218 1510 m 10 Y s 1273 1510 m 10 Y s 1328 1501 m 19 Y s
 1383 1510 m 10 Y s 1438 1510 m 10 Y s 1493 1510 m 10 Y s 1549 1510 m 10 Y s 1604 1501 m 19 Y s 1659 1510 m 10 Y s 1714 1510 m 10 Y s 1769 1510 m 10 Y s 1824 1510 m 10 Y s 1879 1501 m 19 Y s 1934 1510 m 10 Y s 1989 1510 m 10 Y s 2044 1510 m 10 Y s
 2099 1510 m 10 Y s 2154 1501 m 19 Y s 227 484 m 1036 Y s 248 599 m -21 X s 237 622 m -10 X s 237 645 m -10 X s 237 668 m -10 X s 237 691 m -10 X s 248 714 m -21 X s 237 737 m -10 X s 237 760 m -10 X s 237 783 m -10 X s 237 806 m -10 X s 248 829 m
 -21 X s 237 852 m -10 X s 237 876 m -10 X s 237 899 m -10 X s 237 922 m -10 X s 248 945 m -21 X s 237 968 m -10 X s 237 991 m -10 X s 237 1014 m -10 X s 237 1037 m -10 X s 248 1060 m -21 X s 237 1083 m -10 X s 237 1106 m -10 X s 237 1129 m -10 X s
 237 1152 m -10 X s 248 1175 m -21 X s 237 1198 m -10 X s 237 1221 m -10 X s 237 1245 m -10 X s 237 1268 m -10 X s 248 1291 m -21 X s 237 1314 m -10 X s 237 1337 m -10 X s 237 1360 m -10 X s 237 1383 m -10 X s 248 1406 m -21 X s 248 599 m -21 X s 237
 576 m -10 X s 237 553 m -10 X s 237 530 m -10 X s 237 506 m -10 X s 248 1406 m -21 X s 237 1429 m -10 X s 237 1452 m -10 X s 237 1475 m -10 X s 237 1498 m -10 X s 2154 484 m 1036 Y s 2133 599 m 21 X s 2144 622 m 10 X s 2144 645 m 10 X s 2144 668 m
 10 X s 2144 691 m 10 X s 2133 714 m 21 X s 2144 737 m 10 X s 2144 760 m 10 X s 2144 783 m 10 X s 2144 806 m 10 X s 2133 829 m 21 X s 2144 852 m 10 X s 2144 876 m 10 X s 2144 899 m 10 X s 2144 922 m 10 X s 2133 945 m 21 X s 2144 968 m 10 X s 2144 991
 m 10 X s 2144 1014 m 10 X s 2144 1037 m 10 X s 2133 1060 m 21 X s 2144 1083 m 10 X s 2144 1106 m 10 X s 2144 1129 m 10 X s 2144 1152 m 10 X s 2133 1175 m 21 X s 2144 1198 m 10 X s 2144 1221 m 10 X s 2144 1245 m 10 X s 2144 1268 m 10 X s 2133 1291 m
 21 X s 2144 1314 m 10 X s 2144 1337 m 10 X s 2144 1360 m 10 X s 2144 1383 m 10 X s 2133 1406 m 21 X s 2133 599 m 21 X s 2144 576 m 10 X s 2144 553 m 10 X s 2144 530 m 10 X s 2144 506 m 10 X s 2133 1406 m 21 X s 2144 1429 m 10 X s 2144 1452 m 10 X s
 2144 1475 m 10 X s 2144 1498 m 10 X s
 gsave  2268 1103 0 472 C 1314.45 1423.98 t 0 r /Helvetica findfont 56.3093 sf 0 0 m ( Data) show NC gr  1259 1451 m 10 Y s 1259 1427 m -10 Y s 1259 1439 m20
 gsave  2268 1103 0 472 C 1808.84 1423.98 t 0 r /Helvetica findfont 56.3093 sf 0 0 m (single\255top) show NC gr 
 gsave  2268 1103 0 472 C 1779.24 1423.98 t 0 r /Helvetica-Oblique findfont 56.3093 sf 0 0 m (/) show NC gr 
 gsave  2268 1103 0 472 C 1758.52 1423.98 t 0 r /Helvetica-Oblique findfont 56.3093 sf 0 0 m (t) show NC gr  6 lw 1759 1468 m 20 X s
 gsave  2268 1103 0 472 C 1737.79 1423.98 t 0 r /Helvetica-Oblique findfont 56.3093 sf 0 0 m (t) show NC gr 
 gsave  2268 1103 0 472 C 1720.03 1423.98 t 0 r /Helvetica findfont 56.3093 sf 0 0 m ( ) show NC gr  0.06 0.54 0.06 c 3 lw 1626 1413 m 79 X 52 Y -79 X f 6 lw black
 gsave  2268 1103 0 472 C 1444.71 1349.97 t 0 r /Helvetica findfont 56.3093 sf 0 0 m (+jets) show NC gr 
 gsave  2268 1103 0 472 C 1332.21 1349.97 t 0 r /Helvetica-Oblique findfont 56.3093 sf 0 0 m (W/Z) show NC gr 
 gsave  2268 1103 0 472 C 1314.45 1349.97 t 0 r /Helvetica findfont 56.3093 sf 0 0 m ( ) show NC gr  1 0.653333 0 c 3 lw 1219 1340 m 79 X 51 Y -79 X f black
 gsave  2268 1103 0 472 C 1918.38 1349.97 t 0 r /Helvetica findfont 56.3093 sf 0 0 m (+jets) show NC gr 
 gsave  2268 1103 0 472 C 1737.79 1349.97 t 0 r /Helvetica-Oblique findfont 56.3093 sf 0 0 m (WZ/ZZ) show NC gr 
 gsave  2268 1103 0 472 C 1720.03 1349.97 t 0 r /Helvetica findfont 56.3093 sf 0 0 m ( ) show NC gr  0.413333 1 0 c 3 lw 1626 1340 m 79 X 51 Y -79 X f black
 gsave  2268 1103 0 472 C 1373.66 1275.96 t 0 r /Helvetica-Oblique findfont 56.3093 sf 0 0 m (Z) show NC gr 
 gsave  2268 1103 0 472 C 1352.93 1275.96 t 0 r /Helvetica-Oblique findfont 56.3093 sf 0 0 m (t) show NC gr  6 lw 1353 1320 m 21 X s
 gsave  2268 1103 0 472 C 1332.21 1275.96 t 0 r /Helvetica-Oblique findfont 56.3093 sf 0 0 m (t) show NC gr 
 gsave  2268 1103 0 472 C 1314.45 1275.96 t 0 r /Helvetica findfont 56.3093 sf 0 0 m ( ) show NC gr  0.6 0.2 1 c 3 lw 1219 1266 m 79 X 52 Y -79 X f 6 lw black
 gsave  2268 1103 0 472 C 1779.24 1275.96 t 0 r /Helvetica-Oblique findfont 56.3093 sf 0 0 m (W) show NC gr 
 gsave  2268 1103 0 472 C 1758.52 1275.96 t 0 r /Helvetica-Oblique findfont 56.3093 sf 0 0 m (t) show NC gr  6 lw 1759 1320 m 20 X s
 gsave  2268 1103 0 472 C 1737.79 1275.96 t 0 r /Helvetica-Oblique findfont 56.3093 sf 0 0 m (t) show NC gr 
 gsave  2268 1103 0 472 C 1720.03 1275.96 t 0 r /Helvetica findfont 56.3093 sf 0 0 m ( ) show NC gr  0.54 0.06 0.06 c 3 lw 1626 1266 m 79 X 52 Y -79 X f 6 lw black
 gsave  2268 1103 0 472 C 1332.21 1204.91 t 0 r /Helvetica-Oblique findfont 56.3093 sf 0 0 m (tZq) show NC gr 
 gsave  2268 1103 0 472 C 1314.45 1204.91 t 0 r /Helvetica findfont 56.3093 sf 0 0 m ( ) show NC gr  1 0 1 c 3 lw 1219 1193 m 79 X 51 Y -79 X f black
 gsave  2268 1103 0 472 C 1779.24 1204.91 t 0 r /Helvetica-Oblique findfont 56.3093 sf 0 0 m (H) show NC gr 
 gsave  2268 1103 0 472 C 1758.52 1204.91 t 0 r /Helvetica-Oblique findfont 56.3093 sf 0 0 m (t) show NC gr  6 lw 1759 1249 m 20 X s
 gsave  2268 1103 0 472 C 1737.79 1204.91 t 0 r /Helvetica-Oblique findfont 56.3093 sf 0 0 m (t) show NC gr 
 gsave  2268 1103 0 472 C 1720.03 1204.91 t 0 r /Helvetica findfont 56.3093 sf 0 0 m ( ) show NC gr  0 0 1 c 3 lw 1626 1193 m 79 X 51 Y -79 X f 6 lw black
 gsave  2268 1103 0 472 C 1332.21 1130.9 t 0 r /Helvetica-Oblique findfont 56.3093 sf 0 0 m (tWZ/tWH) show NC gr 
 gsave  2268 1103 0 472 C 1314.45 1130.9 t 0 r /Helvetica findfont 56.3093 sf 0 0 m ( ) show NC gr  0.2 0.8 0.8 c 3 lw 1219 1119 m 79 X 52 Y -79 X f black
 gsave  2268 1103 0 472 C 1737.79 1130.9 t 0 r /Helvetica-Oblique findfont 56.3093 sf 0 0 m (tHq) show NC gr 
 gsave  2268 1103 0 472 C 1720.03 1130.9 t 0 r /Helvetica findfont 56.3093 sf 0 0 m ( ) show NC gr  1 0 0 c 3 lw 1626 1119 m 79 X 52 Y -79 X f black
 gsave  2268 1103 0 472 C 1314.45 1056.89 t 0 r /Helvetica findfont 56.3093 sf 0 0 m ( Other) show NC gr  1 0.84 0 c 3 lw 1219 1046 m 79 X 51 Y -79 X f black
 gsave  2268 1103 0 472 C 1720.03 1056.89 t 0 r /Helvetica findfont 56.3093 sf 0 0 m ( Uncertainty) show NC gr  0.6 0.6 0.6 c 3 lw 1705 1061 m -15 -15 d s 1705 1080 m -34 -34 d s 1703 1097 m -51 -51 d s 1684 1097 m -51 -51 d s 1665 1097 m -39 -39 d s
 1646 1097 m -20 -20 d s 1626 1097 m s 1 0.84 0 c 0.6 0.6 0.6 c black
 gsave  2268 1103 0 472 C 894.061 1329.25 t 0 r /Helvetica findfont 41.4911 sf 0 0 m (\2551) show NC gr 
 gsave  2268 1103 0 472 C 399.663 1299.64 t 0 r /Helvetica findfont 62.2366 sf 0 0 m ( = 13 TeV,  139 fb) show NC gr 
 gsave  2268 1103 0 472 C 370.058 1299.64 t 0 r /Helvetica findfont 62.2366 sf 0 0 m (s) show NC gr  6 lw 349 1335 m 6 -38 d s 3 lw 355 1297 m 6 56 d s 361 1353 m 39 X s
 gsave  2268 1103 0 472 C 808.207 1201.95 t 0 r /Helvetica findfont 62.2366 sf 0 0 m (\)) show NC gr 
 gsave  2268 1103 0 472 C 740.116 1201.95 t 0 r /Helvetica-Oblique findfont 62.2366 sf 0 0 m (W) show NC gr 
 gsave  2268 1103 0 472 C 716.433 1201.95 t 0 r /Helvetica-Oblique findfont 62.2366 sf 0 0 m (t) show NC gr  6 lw 716 1252 m 24 X s
 gsave  2268 1103 0 472 C 692.749 1201.95 t 0 r /Helvetica-Oblique findfont 62.2366 sf 0 0 m (t) show NC gr 
 gsave  2268 1103 0 472 C 337.493 1201.95 t 0 r /Helvetica findfont 62.2366 sf 0 0 m ( 2L\(SS\), CR\() show NC gr 
 gsave  2268 1103 0 472 C 337.493 1400.3 t 0 r /Helvetica-BoldOblique findfont 71.1276 sf 0 0 m (ATLAS) show NC gr 
 gsave  2268 1103 0 472 C 633.54 1400.3 t 0 r /Helvetica findfont 71.1276 sf 0 0 m (Internal) show NC gr 
 gr  gr showpage
end
%%EOF
