%!PS-Adobe-2.0 EPSF-2.0
%%BoundingBox:  0 0 567 396
%%Title: /lhome/ific/c/cardillo/tHq/Plots/Plots-30-05-22-PLIV-SF/2LSS_MC/Ht_Pre.eps: Ht_Pre
%%Creator: ROOT Version 6.20/06
%%CreationDate: Tue May 31 15:03:56 2022
%%DocumentNeededResources: ProcSet (FontSetInit)
%%EndComments
%%BeginProlog
80 dict begin
/s {stroke} def /l {lineto} def /m {moveto} def /t {translate} def
/r {rotate} def /rl {roll}  def /R {repeat} def
/d {rlineto} def /rm {rmoveto} def /gr {grestore} def /f {eofill} def
/c {setrgbcolor} def /black {0 setgray} def /sd {setdash} def
/cl {closepath} def /sf {scalefont setfont} def /lw {setlinewidth} def
/box {m dup 0 exch d exch 0 d 0 exch neg d cl} def
/NC{systemdict begin initclip end}def/C{NC box clip newpath}def
/bl {box s} def /bf {gsave box gsave f grestore 1 lw [] 0 sd s grestore} def /Y { 0 exch d} def /X { 0 d} def 
/K {{pop pop 0 moveto} exch kshow} bind def
/ita {/ang 15 def gsave [1 0 ang dup sin exch cos div 1 0 0] concat} def 
/mp {newpath /y exch def /x exch def} def
/side {[w .77 mul w .23 mul] .385 w mul sd w 0 l currentpoint t -144 r} def
/mr {mp x y w2 0 360 arc} def /m24 {mr s} def /m20 {mr f} def
/mb {mp x y w2 add m w2 neg 0 d 0 w neg d w 0 d 0 w d cl} def
/mt {mp x y w2 add m w2 neg w neg d w 0 d cl} def
/w4 {w 4 div} def
/w6 {w 6 div} def
/w8 {w 8 div} def
/m21 {mb f} def /m25 {mb s} def /m22 {mt f} def /m26{mt s} def
/m23 {mp x y w2 sub m w2 w d w neg 0 d cl f} def
/m27 {mp x y w2 add m w3 neg w2 neg d w3 w2 neg d w3 w2 d cl s} def
/m28 {mp x w2 sub y w2 sub w3 add m w3 0 d  0 w3 neg d w3 0 d 0 w3 d w3 0 d  0 w3 d w3 neg 0 d 0 w3 d w3 neg 0 d 0 w3 neg d w3 neg 0 d cl s } def
/m29 {mp gsave x w2 sub y w2 add w3 sub m currentpoint t 4 {side} repeat cl fill gr} def
/m30 {mp gsave x w2 sub y w2 add w3 sub m currentpoint t 4 {side} repeat cl s gr} def
/m31 {mp x y w2 sub m 0 w d x w2 sub y m w 0 d x w2 sub y w2 add m w w neg d x w2 sub y w2 sub m w w d s} def
/m32 {mp x y w2 sub m w2 w d w neg 0 d cl s} def
/m33 {mp x y w2 add m w3 neg w2 neg d w3 w2 neg d w3 w2 d cl f} def
/m34 {mp x w2 sub y w2 sub w3 add m w3 0 d  0 w3 neg d w3 0 d 0 w3 d w3 0 d  0 w3 d w3 neg 0 d 0 w3 d w3 neg 0 d 0 w3 neg d w3 neg 0 d cl f } def
/m35 {mp x y w2 add m w2 neg w2 neg d w2 w2 neg d w2 w2 d w2 neg w2 d x y w2 sub m 0 w d x w2 sub y m w 0 d s} def
/m36 {mb x w2 sub y w2 add m w w neg d x w2 sub y w2 sub m w w d s} def
/m37 {mp x y m w4 neg w2 d w4 neg w2 neg d w2 0 d  w4 neg w2 neg d w2 0 d w4 neg w2 d w2 0 d w4 neg w2 d w4 neg w2 neg d cl s} def
/m38 {mp x w4 sub y w2 add m w4 neg w4 neg d 0 w2 neg d w4 w4 neg d w2 0 d w4 w4 d 0 w2 d w4 neg w4 d w2 neg 0 d x y w2 sub m 0 w d x w2 sub y m w 0 d cl s} def
/m39 {mp x y m w4 neg w2 d w4 neg w2 neg d w2 0 d  w4 neg w2 neg d w2 0 d w4 neg w2 d w2 0 d w4 neg w2 d w4 neg w2 neg d cl f} def
/m40 {mp x y m w4 w2 d w4 w4 neg d w2 neg w4 neg d w2 w4 neg d w4 neg w4 neg d w4 neg w2 d w4 neg w2 neg d w4 neg w4 d w2 w4 d w2 neg w4 d w4 w4 d w4 w2 neg d cl s} def
/m41 {mp x y m w4 w2 d w4 w4 neg d w2 neg w4 neg d w2 w4 neg d w4 neg w4 neg d w4 neg w2 d w4 neg w2 neg d w4 neg w4 d w2 w4 d w2 neg w4 d w4 w4 d w4 w2 neg d cl f} def
/m42 {mp x y w2 add m w8 neg w2 -3 4 div mul d w2 -3 4 div mul w8 neg d w2 3 4 div mul w8 neg d w8 w2 -3 4 div mul d w8 w2 3 4 div mul d w2 3 4 div mul w8 d w2 -3 4 div mul w8 d w8 neg w2 3 4 div mul d cl s} def
/m43 {mp x y w2 add m w8 neg w2 -3 4 div mul d w2 -3 4 div mul w8 neg d w2 3 4 div mul w8 neg d w8 w2 -3 4 div mul d w8 w2 3 4 div mul d w2 3 4 div mul w8 d w2 -3 4 div mul w8 d w8 neg w2 3 4 div mul d cl f} def
/m44 {mp x y m w6 neg w2 d w2 2 3 div mul 0 d w6 neg w2 neg d w2 w6 d 0 w2 -2 3 div mul d w2 neg w6 d w6 w2 neg d w2 -2 3 div mul 0 d w6 w2 d w2 neg w6 neg d 0 w2 2 3 div mul d w2 w6 neg d cl s} def
/m45 {mp x y m w6 neg w2 d w2 2 3 div mul 0 d w6 neg w2 neg d w2 w6 d 0 w2 -2 3 div mul d w2 neg w6 d w6 w2 neg d w2 -2 3 div mul 0 d w6 w2 d w2 neg w6 neg d 0 w2 2 3 div mul d w2 w6 neg d cl f} def
/m46 {mp x y w4 add m w4 neg w4 d w4 neg w4 neg d  w4 w4 neg d w4 neg w4 neg d w4 w4 neg d w4 w4 d w4 w4 neg d w4 w4 d w4 neg w4 d w4 w4 d w4 neg w4 d w4 neg w4 neg d cl s} def
/m47 {mp x y w4 add m w4 neg w4 d w4 neg w4 neg d w4 w4 neg d w4 neg w4 neg d  w4 w4 neg d w4 w4 d w4 w4 neg d w4 w4 d w4 neg w4 d w4 w4 d w4 neg w4 d w4 neg w4 neg d cl f} def
/m48 {mp x y w4 add m w4 neg w4 d w4 neg w4 neg d w4 w4 neg d  w4 neg w4 neg d w4 w4 neg d w4 w4 d w4 w4 neg d w4 w4 d w4 neg w4 d w4 w4 d w4 neg w4 d w4 neg w4 neg d  w4 w4 neg d w4 neg w4 neg d w4 neg w4 d w4 w4 d cl f} def
/m49 {mp x w2 sub w3 add y w2 sub w3 add m  0 w3 neg d w3 0 d 0 w3 d w3 0 d 0 w3 d w3 neg 0 d 0 w3 d w3 neg 0 d 0 w3 neg d w3 neg 0 d 0 w3 neg d w3 0 d 0 w3 d w3 0 d 0 w3 neg d w3 neg 0 d cl f } def
/m2 {mp x y w2 sub m 0 w d x w2 sub y m w 0 d s} def
/m5 {mp x w2 sub y w2 sub m w w d x w2 sub y w2 add m w w neg d s} def
%%IncludeResource: ProcSet (FontSetInit)
%%IncludeResource: font Times-Roman
%%IncludeResource: font Times-Italic
%%IncludeResource: font Times-Bold
%%IncludeResource: font Times-BoldItalic
%%IncludeResource: font Helvetica
%%IncludeResource: font Helvetica-Oblique
%%IncludeResource: font Helvetica-Bold
%%IncludeResource: font Helvetica-BoldOblique
%%IncludeResource: font Courier
%%IncludeResource: font Courier-Oblique
%%IncludeResource: font Courier-Bold
%%IncludeResource: font Courier-BoldOblique
%%IncludeResource: font Symbol
%%IncludeResource: font ZapfDingbats
/reEncode {exch findfont dup length dict begin {1 index /FID eq  {pop pop} {def} ifelse } forall /Encoding exch def currentdict end dup /FontName get exch definefont pop } def [/Times-Bold /Times-Italic /Times-BoldItalic /Helvetica /Helvetica-Oblique
 /Helvetica-Bold /Helvetica-BoldOblique /Courier /Courier-Oblique /Courier-Bold /Courier-BoldOblique /Times-Roman /AvantGarde-Book /AvantGarde-BookOblique /AvantGarde-Demi /AvantGarde-DemiOblique /Bookman-Demi /Bookman-DemiItalic /Bookman-Light
 /Bookman-LightItalic /Helvetica-Narrow /Helvetica-Narrow-Bold /Helvetica-Narrow-BoldOblique /Helvetica-Narrow-Oblique /NewCenturySchlbk-Roman /NewCenturySchlbk-Bold /NewCenturySchlbk-BoldItalic /NewCenturySchlbk-Italic /Palatino-Bold
 /Palatino-BoldItalic /Palatino-Italic /Palatino-Roman ] {ISOLatin1Encoding reEncode } forall
%%EndProlog
%%BeginSetup
%%EndSetup
newpath  gsave  .25 .25 scale  gsave  0 0 t black[  ] 0 sd 3 lw 1 1 1 c 2268 1583 0 0 bf black 1 1 1 c 2268 475 0 0 bf black 1 1 1 c 1927 275 227 190 bf black 1927 275 227 190 bl 227 190 m 1927 X s 227 202 m -12 Y s 282 196 m -6 Y s 337 196 m -6 Y s
 392 196 m -6 Y s 447 196 m -6 Y s 502 202 m -12 Y s 557 196 m -6 Y s 612 196 m -6 Y s 667 196 m -6 Y s 722 196 m -6 Y s 778 202 m -12 Y s 833 196 m -6 Y s 888 196 m -6 Y s 943 196 m -6 Y s 998 196 m -6 Y s 1053 202 m -12 Y s 1108 196 m -6 Y s 1163
 196 m -6 Y s 1218 196 m -6 Y s 1273 196 m -6 Y s 1328 202 m -12 Y s 1383 196 m -6 Y s 1438 196 m -6 Y s 1493 196 m -6 Y s 1549 196 m -6 Y s 1604 202 m -12 Y s 1659 196 m -6 Y s 1714 196 m -6 Y s 1769 196 m -6 Y s 1824 196 m -6 Y s 1879 202 m -12 Y s
 1934 196 m -6 Y s 1989 196 m -6 Y s 2044 196 m -6 Y s 2099 196 m -6 Y s 2154 202 m -12 Y s
 gsave  2268 475 0 0 C 180.118 126.968 t 0 r /Helvetica findfont 53.4154 sf 0 0 m (300) show NC gr 
 gsave  2268 475 0 0 C 457.677 126.968 t 0 r /Helvetica findfont 53.4154 sf 0 0 m (400) show NC gr 
 gsave  2268 475 0 0 C 732.283 126.968 t 0 r /Helvetica findfont 53.4154 sf 0 0 m (500) show NC gr 
 gsave  2268 475 0 0 C 1006.89 126.968 t 0 r /Helvetica findfont 53.4154 sf 0 0 m (600) show NC gr 
 gsave  2268 475 0 0 C 1281.5 126.968 t 0 r /Helvetica findfont 53.4154 sf 0 0 m (700) show NC gr 
 gsave  2268 475 0 0 C 1559.06 126.968 t 0 r /Helvetica findfont 53.4154 sf 0 0 m (800) show NC gr 
 gsave  2268 475 0 0 C 1833.66 126.968 t 0 r /Helvetica findfont 53.4154 sf 0 0 m (900) show NC gr 
 gsave  2268 475 0 0 C 2093.5 126.968 t 0 r /Helvetica findfont 53.4154 sf 0 0 m (1000) show NC gr 
 gsave  2268 475 0 0 C 1996.06 47.2441 t 0 r /Helvetica findfont 56.3829 sf 0 0 m ( [GeV]) show NC gr 
 gsave  2268 475 0 0 C 1972.44 29.5276 t 0 r /Helvetica findfont 38.5778 sf 0 0 m (T) show NC gr 
 gsave  2268 475 0 0 C 1925.2 47.2441 t 0 r /Helvetica-Oblique findfont 56.3829 sf 0 0 m (H) show NC gr  227 465 m 1927 X s 227 453 m 12 Y s 282 459 m 6 Y s 337 459 m 6 Y s 392 459 m 6 Y s 447 459 m 6 Y s 502 453 m 12 Y s 557 459 m 6 Y s 612 459 m 6
 Y s 667 459 m 6 Y s 722 459 m 6 Y s 778 453 m 12 Y s 833 459 m 6 Y s 888 459 m 6 Y s 943 459 m 6 Y s 998 459 m 6 Y s 1053 453 m 12 Y s 1108 459 m 6 Y s 1163 459 m 6 Y s 1218 459 m 6 Y s 1273 459 m 6 Y s 1328 453 m 12 Y s 1383 459 m 6 Y s 1438 459 m
 6 Y s 1493 459 m 6 Y s 1549 459 m 6 Y s 1604 453 m 12 Y s 1659 459 m 6 Y s 1714 459 m 6 Y s 1769 459 m 6 Y s 1824 459 m 6 Y s 1879 453 m 12 Y s 1934 459 m 6 Y s 1989 459 m 6 Y s 2044 459 m 6 Y s 2099 459 m 6 Y s 2154 453 m 12 Y s 227 190 m 275 Y s
 240 242 m -13 X s 240 328 m -13 X s 240 414 m -13 X s 240 242 m -13 X s 240 414 m -13 X s
 gsave  2268 475 0 0 C 118.11 221.457 t 0 r /Helvetica findfont 53.4154 sf 0 0 m (0.5) show NC gr 
 gsave  2268 475 0 0 C 171.26 307.087 t 0 r /Helvetica findfont 53.4154 sf 0 0 m (1) show NC gr 
 gsave  2268 475 0 0 C 118.11 395.669 t 0 r /Helvetica findfont 53.4154 sf 0 0 m (1.5) show NC gr 
 gsave  2268 475 0 0 C 70.8661 233.268 t 90 r /Helvetica findfont 53.4154 sf 0 0 m (Data / SM) show NC gr  2154 190 m 275 Y s 2141 242 m 13 X s 2141 328 m 13 X s 2141 414 m 13 X s 2141 242 m 13 X s 2141 414 m 13 X s 227 190 m 1927 X s 227 465 m 1927
 X s 227 190 m 275 Y s[ 4 8] 0 sd 2154 242 m -1927 X s 2154 328 m -1927 X s 2154 414 m -1927 X s 2154 242 m -1927 X s 2154 414 m -1927 X s[  ] 0 sd 2154 190 m 275 Y s 1 1 0.6 c 137 0 227 328 bf 138 0 364 328 bf 138 0 502 328 bf 138 0 640 328 bf 137 0
 778 328 bf 138 0 915 328 bf 138 0 1053 328 bf 137 0 1191 328 bf 138 0 1328 328 bf 138 0 1466 328 bf 137 0 1604 328 bf 138 0 1741 328 bf 138 0 1879 328 bf 137 0 2017 328 bf black 0.6 0.6 0.6 c 364 328 m -2 -3 d s 348 330 m -6 -5 d s 329 330 m -6 -5 d
 s 309 330 m -5 -5 d s 290 330 m -5 -5 d s 271 330 m -5 -5 d s 252 330 m -6 -5 d s 233 330 m -6 -5 d s 502 331 m -6 -6 d s 483 331 m -6 -6 d s 464 331 m -6 -6 d s 444 331 m -6 -6 d s 425 331 m -6 -6 d s 406 331 m -6 -6 d s 387 331 m -6 -6 d s 367 331
 m -3 -3 d s 637 331 m -6 -7 d s 618 331 m -7 -7 d s 599 331 m -7 -7 d s 579 331 m -6 -7 d s 560 331 m -6 -7 d s 541 331 m -7 -7 d s 522 331 m -7 -7 d s 502 331 m s 773 332 m -9 -9 d s 754 332 m -9 -9 d s 734 332 m -8 -9 d s 715 332 m -8 -9 d s 696
 332 m -9 -9 d s 677 332 m -9 -9 d s 657 332 m -8 -9 d s 907 332 m -8 -8 d s 888 332 m -8 -8 d s 869 332 m -8 -8 d s 849 332 m -7 -8 d s 830 332 m -8 -8 d s 811 332 m -8 -8 d s 792 332 m -8 -8 d s 1053 323 m s 1043 332 m -10 -9 d s 1023 332 m -9 -9 d
 s 1004 332 m -9 -9 d s 985 332 m -9 -9 d s 966 332 m -10 -9 d s 946 332 m -9 -9 d s 927 332 m -9 -9 d s 1191 326 m -4 -3 d s 1178 333 m -10 -10 d s 1158 333 m -10 -10 d s 1139 333 m -10 -10 d s 1120 333 m -10 -10 d s 1101 333 m -10 -10 d s 1081 333
 m -10 -10 d s 1062 333 m -9 -10 d s 1328 329 m -7 -7 d s 1313 333 m -11 -11 d s 1294 333 m -11 -11 d s 1274 333 m -11 -11 d s 1255 333 m -11 -11 d s 1236 333 m -11 -11 d s 1217 333 m -11 -11 d s 1197 333 m -6 -7 d s 1466 332 m -11 -11 d s 1448 334 m
 -12 -13 d s 1429 334 m -12 -13 d s 1410 334 m -13 -13 d s 1390 334 m -12 -13 d s 1371 334 m -12 -13 d s 1352 334 m -12 -13 d s 1333 334 m -5 -5 d s 1603 335 m -14 -15 d s 1584 335 m -14 -15 d s 1565 335 m -15 -15 d s 1545 335 m -14 -15 d s 1526 335
 m -14 -15 d s 1507 335 m -14 -15 d s 1488 335 m -15 -15 d s 1468 335 m -2 -3 d s 1738 335 m -15 -15 d s 1719 335 m -15 -15 d s 1700 335 m -15 -15 d s 1681 335 m -16 -15 d s 1661 335 m -15 -15 d s 1642 335 m -15 -15 d s 1623 335 m -15 -15 d s 1879
 322 m -3 -3 d s 1874 337 m -18 -18 d s 1855 337 m -18 -18 d s 1836 337 m -18 -18 d s 1817 337 m -18 -18 d s 1797 337 m -18 -18 d s 1778 337 m -18 -18 d s 1759 337 m -18 -18 d s 2017 325 m -8 -7 d s 2010 338 m -20 -20 d s 1991 338 m -20 -20 d s 1972
 338 m -20 -20 d s 1952 338 m -20 -20 d s 1933 338 m -20 -20 d s 1914 338 m -20 -20 d s 1895 338 m -16 -16 d s 2154 328 m -2 -3 d s 2137 330 m -4 -5 d s 2118 330 m -5 -5 d s 2098 330 m -4 -5 d s 2079 330 m -4 -5 d s 2060 330 m -4 -5 d s 2041 330 m -5
 -5 d s 2021 330 m -4 -5 d s black 1 1 1 c black /w 26 def /w2 {w 2 div} def /w3 {w 3 div} def 296 335 m20 433 339 m20 571 339 m 2 Y s 571 365 m 2 Y s 571 353 m20 709 324 m 3 Y s 709 351 m 3 Y s 709 339 m20 846 304 m 4 Y s 846 332 m 4 Y s 846 320 m20
 984 300 m 7 Y s 984 330 m 7 Y s 984 318 m20 1122 325 m 11 Y s 1122 359 m 11 Y s 1122 347 m20 1259 283 m 11 Y s 1259 318 m 11 Y s 1259 306 m20 1397 313 m 18 Y s 1397 354 m 18 Y s 1397 342 m20 1535 325 m 25 Y s 1535 373 m 25 Y s 1535 361 m20 1672 326
 m 28 Y s 1672 377 m 28 Y s 1672 366 m20 1810 352 m 38 Y s 1810 414 m 39 Y s 1810 402 m20 1948 282 m 33 Y s 1948 338 m 33 Y s 1948 327 m20 2085 321 m 11 Y s 2085 356 m 11 Y s 2085 344 m20 227 328 m 1927 X s 227 190 m 1927 X s 227 202 m -12 Y s 282
 196 m -6 Y s 337 196 m -6 Y s 392 196 m -6 Y s 447 196 m -6 Y s 502 202 m -12 Y s 557 196 m -6 Y s 612 196 m -6 Y s 667 196 m -6 Y s 722 196 m -6 Y s 778 202 m -12 Y s 833 196 m -6 Y s 888 196 m -6 Y s 943 196 m -6 Y s 998 196 m -6 Y s 1053 202 m
 -12 Y s 1108 196 m -6 Y s 1163 196 m -6 Y s 1218 196 m -6 Y s 1273 196 m -6 Y s 1328 202 m -12 Y s 1383 196 m -6 Y s 1438 196 m -6 Y s 1493 196 m -6 Y s 1549 196 m -6 Y s 1604 202 m -12 Y s 1659 196 m -6 Y s 1714 196 m -6 Y s 1769 196 m -6 Y s 1824
 196 m -6 Y s 1879 202 m -12 Y s 1934 196 m -6 Y s 1989 196 m -6 Y s 2044 196 m -6 Y s 2099 196 m -6 Y s 2154 202 m -12 Y s 227 465 m 1927 X s 227 453 m 12 Y s 282 459 m 6 Y s 337 459 m 6 Y s 392 459 m 6 Y s 447 459 m 6 Y s 502 453 m 12 Y s 557 459 m
 6 Y s 612 459 m 6 Y s 667 459 m 6 Y s 722 459 m 6 Y s 778 453 m 12 Y s 833 459 m 6 Y s 888 459 m 6 Y s 943 459 m 6 Y s 998 459 m 6 Y s 1053 453 m 12 Y s 1108 459 m 6 Y s 1163 459 m 6 Y s 1218 459 m 6 Y s 1273 459 m 6 Y s 1328 453 m 12 Y s 1383 459 m
 6 Y s 1438 459 m 6 Y s 1493 459 m 6 Y s 1549 459 m 6 Y s 1604 453 m 12 Y s 1659 459 m 6 Y s 1714 459 m 6 Y s 1769 459 m 6 Y s 1824 459 m 6 Y s 1879 453 m 12 Y s 1934 459 m 6 Y s 1989 459 m 6 Y s 2044 459 m 6 Y s 2099 459 m 6 Y s 2154 453 m 12 Y s
 227 190 m 275 Y s 240 242 m -13 X s 240 328 m -13 X s 240 414 m -13 X s 240 242 m -13 X s 240 414 m -13 X s 2154 190 m 275 Y s 2141 242 m 13 X s 2141 328 m 13 X s 2141 414 m 13 X s 2141 242 m 13 X s 2141 414 m 13 X s 1 1 1 c 2268 1108 0 475 bf black
 1 1 1 c 1927 1041 227 486 bf black 1927 1041 227 486 bl 1 1 1 c black 3 lw 227 486 m 1927 X s 227 505 m -19 Y s 282 495 m -9 Y s 337 495 m -9 Y s 392 495 m -9 Y s 447 495 m -9 Y s 502 505 m -19 Y s 557 495 m -9 Y s 612 495 m -9 Y s 667 495 m -9 Y s
 722 495 m -9 Y s 778 505 m -19 Y s 833 495 m -9 Y s 888 495 m -9 Y s 943 495 m -9 Y s 998 495 m -9 Y s 1053 505 m -19 Y s 1108 495 m -9 Y s 1163 495 m -9 Y s 1218 495 m -9 Y s 1273 495 m -9 Y s 1328 505 m -19 Y s 1383 495 m -9 Y s 1438 495 m -9 Y s
 1493 495 m -9 Y s 1549 495 m -9 Y s 1604 505 m -19 Y s 1659 495 m -9 Y s 1714 495 m -9 Y s 1769 495 m -9 Y s 1824 495 m -9 Y s 1879 505 m -19 Y s 1934 495 m -9 Y s 1989 495 m -9 Y s 2044 495 m -9 Y s 2099 495 m -9 Y s 2154 505 m -19 Y s
 gsave  2268 1108 0 475 C 2061.02 404.528 t 0 r /Helvetica findfont 32.4976 sf 0 0 m ( [GeV]) show NC gr 
 gsave  2268 1108 0 475 C 2046.26 392.717 t 0 r /Helvetica findfont 20.6803 sf 0 0 m (T) show NC gr 
 gsave  2268 1108 0 475 C 2019.69 404.528 t 0 r /Helvetica-Oblique findfont 32.4976 sf 0 0 m (H) show NC gr  227 1527 m 1927 X s 227 1508 m 19 Y s 282 1518 m 9 Y s 337 1518 m 9 Y s 392 1518 m 9 Y s 447 1518 m 9 Y s 502 1508 m 19 Y s 557 1518 m 9 Y s
 612 1518 m 9 Y s 667 1518 m 9 Y s 722 1518 m 9 Y s 778 1508 m 19 Y s 833 1518 m 9 Y s 888 1518 m 9 Y s 943 1518 m 9 Y s 998 1518 m 9 Y s 1053 1508 m 19 Y s 1108 1518 m 9 Y s 1163 1518 m 9 Y s 1218 1518 m 9 Y s 1273 1518 m 9 Y s 1328 1508 m 19 Y s
 1383 1518 m 9 Y s 1438 1518 m 9 Y s 1493 1518 m 9 Y s 1549 1518 m 9 Y s 1604 1508 m 19 Y s 1659 1518 m 9 Y s 1714 1518 m 9 Y s 1769 1518 m 9 Y s 1824 1518 m 9 Y s 1879 1508 m 19 Y s 1934 1518 m 9 Y s 1989 1518 m 9 Y s 2044 1518 m 9 Y s 2099 1518 m 9
 Y s 2154 1508 m 19 Y s 227 486 m 1041 Y s 248 677 m -21 X s 237 715 m -10 X s 237 754 m -10 X s 237 792 m -10 X s 237 830 m -10 X s 248 868 m -21 X s 237 907 m -10 X s 237 945 m -10 X s 237 983 m -10 X s 237 1021 m -10 X s 248 1060 m -21 X s 237
 1098 m -10 X s 237 1136 m -10 X s 237 1174 m -10 X s 237 1212 m -10 X s 248 1251 m -21 X s 237 1289 m -10 X s 237 1327 m -10 X s 237 1365 m -10 X s 237 1404 m -10 X s 248 1442 m -21 X s 248 677 m -21 X s 237 639 m -10 X s 237 601 m -10 X s 237 562 m
 -10 X s 237 524 m -10 X s 248 1442 m -21 X s 237 1480 m -10 X s 237 1518 m -10 X s
 gsave  2268 1108 0 475 C 112.205 658.465 t 0 r /Helvetica findfont 53.178 sf 0 0 m (100) show NC gr 
 gsave  2268 1108 0 475 C 112.205 850.394 t 0 r /Helvetica findfont 53.178 sf 0 0 m (200) show NC gr 
 gsave  2268 1108 0 475 C 112.205 1039.37 t 0 r /Helvetica findfont 53.178 sf 0 0 m (300) show NC gr 
 gsave  2268 1108 0 475 C 112.205 1231.3 t 0 r /Helvetica findfont 53.178 sf 0 0 m (400) show NC gr 
 gsave  2268 1108 0 475 C 112.205 1423.23 t 0 r /Helvetica findfont 53.178 sf 0 0 m (500) show NC gr 
 gsave  2268 1108 0 475 C 64.9606 1142.72 t 90 r /Helvetica findfont 53.178 sf 0 0 m (Events / 50 GeV) show NC gr  2154 486 m 1041 Y s 2133 677 m 21 X s 2144 715 m 10 X s 2144 754 m 10 X s 2144 792 m 10 X s 2144 830 m 10 X s 2133 868 m 21 X s 2144
 907 m 10 X s 2144 945 m 10 X s 2144 983 m 10 X s 2144 1021 m 10 X s 2133 1060 m 21 X s 2144 1098 m 10 X s 2144 1136 m 10 X s 2144 1174 m 10 X s 2144 1212 m 10 X s 2133 1251 m 21 X s 2144 1289 m 10 X s 2144 1327 m 10 X s 2144 1365 m 10 X s 2144 1404
 m 10 X s 2133 1442 m 21 X s 2133 677 m 21 X s 2144 639 m 10 X s 2144 601 m 10 X s 2144 562 m 10 X s 2144 524 m 10 X s 2133 1442 m 21 X s 2144 1480 m 10 X s 2144 1518 m 10 X s 0.06 0.54 0.06 c black 3 lw 0.06 0.54 0.06 c 227 486 m 548 Y 137 X -110 Y
 138 X -98 Y 138 X -75 Y 138 X -63 Y 137 X -45 Y 138 X -35 Y 138 X -28 Y 137 X -22 Y 138 X -21 Y 138 X -7 Y 137 X -12 Y 138 X -3 Y 138 X 91 Y 137 X -120 Y f 1 0.653333 0 c 0.999 0.999 0.999 c black 3 lw 0.999 0.999 0.999 c 227 486 m 322 Y 137 X -47 Y
 138 X -54 Y 138 X -43 Y 138 X -39 Y 137 X -31 Y 138 X -23 Y 138 X -19 Y 137 X -16 Y 138 X -12 Y 138 X -6 Y 137 X -9 Y 138 X -3 Y 138 X 71 Y 137 X -91 Y f 1 0.653333 0 c 0.999 0.999 0.999 c 1 0.653333 0 c 1 1 1 c black 1 0.653333 0 c black 3 lw 1
 0.653333 0 c 227 486 m 322 Y 137 X -47 Y 138 X -54 Y 138 X -43 Y 138 X -39 Y 137 X -31 Y 138 X -23 Y 138 X -19 Y 137 X -16 Y 138 X -12 Y 138 X -6 Y 137 X -9 Y 138 X -3 Y 138 X 71 Y 137 X -91 Y f 0.413333 1 0 c 0.999 0.999 0.999 c black 3 lw 0.999
 0.999 0.999 c 227 486 m 289 Y 137 X -43 Y 138 X -45 Y 138 X -44 Y 138 X -34 Y 137 X -28 Y 138 X -20 Y 138 X -18 Y 137 X -12 Y 138 X -11 Y 138 X -6 Y 137 X -7 Y 138 X -4 Y 138 X 58 Y 137 X -75 Y f 0.413333 1 0 c 0.999 0.999 0.999 c 0.413333 1 0 c 1 1
 1 c black 0.413333 1 0 c black 3 lw 0.413333 1 0 c 227 486 m 289 Y 137 X -43 Y 138 X -45 Y 138 X -44 Y 138 X -34 Y 137 X -28 Y 138 X -20 Y 138 X -18 Y 137 X -12 Y 138 X -11 Y 138 X -6 Y 137 X -7 Y 138 X -4 Y 138 X 58 Y 137 X -75 Y f 0.6 0.2 1 c
 0.999 0.999 0.999 c black 3 lw 0.999 0.999 0.999 c 227 486 m 255 Y 137 X -38 Y 138 X -38 Y 138 X -40 Y 138 X -30 Y 137 X -25 Y 138 X -19 Y 138 X -16 Y 137 X -10 Y 138 X -10 Y 138 X -5 Y 137 X -6 Y 138 X -4 Y 138 X 46 Y 137 X -60 Y f 0.6 0.2 1 c
 0.999 0.999 0.999 c 0.6 0.2 1 c 1 1 1 c black 0.6 0.2 1 c black 3 lw 0.6 0.2 1 c 227 486 m 255 Y 137 X -38 Y 138 X -38 Y 138 X -40 Y 138 X -30 Y 137 X -25 Y 138 X -19 Y 138 X -16 Y 137 X -10 Y 138 X -10 Y 138 X -5 Y 137 X -6 Y 138 X -4 Y 138 X 46 Y
 137 X -60 Y f 0.54 0.06 0.06 c 0.999 0.999 0.999 c black 3 lw 0.999 0.999 0.999 c 227 486 m 217 Y 137 X -34 Y 138 X -32 Y 138 X -34 Y 138 X -27 Y 137 X -20 Y 138 X -16 Y 138 X -14 Y 137 X -7 Y 138 X -9 Y 138 X -4 Y 137 X -5 Y 138 X -3 Y 138 X 39 Y
 137 X -51 Y f 0.54 0.06 0.06 c 0.999 0.999 0.999 c 0.54 0.06 0.06 c 1 1 1 c black 0.54 0.06 0.06 c black 3 lw 0.54 0.06 0.06 c 227 486 m 217 Y 137 X -34 Y 138 X -32 Y 138 X -34 Y 138 X -27 Y 137 X -20 Y 138 X -16 Y 138 X -14 Y 137 X -7 Y 138 X -9 Y
 138 X -4 Y 137 X -5 Y 138 X -3 Y 138 X 39 Y 137 X -51 Y f 1 0 1 c 0.999 0.999 0.999 c black 3 lw 0.999 0.999 0.999 c 227 486 m 58 Y 137 X -10 Y 138 X -8 Y 138 X -9 Y 138 X -9 Y 137 X -6 Y 138 X -4 Y 138 X -3 Y 137 X -2 Y 138 X -2 Y 138 X -1 Y 137 X
 -1 Y 138 X -1 Y 138 X 7 Y 137 X -9 Y f 1 0 1 c 0.999 0.999 0.999 c 1 0 1 c 1 1 1 c black 1 0 1 c black 3 lw 1 0 1 c 227 486 m 58 Y 137 X -10 Y 138 X -8 Y 138 X -9 Y 138 X -9 Y 137 X -6 Y 138 X -4 Y 138 X -3 Y 137 X -2 Y 138 X -2 Y 138 X -1 Y 137 X
 -1 Y 138 X -1 Y 138 X 7 Y 137 X -9 Y f 0 0 1 c 0.999 0.999 0.999 c black 3 lw 0.999 0.999 0.999 c 227 486 m 42 Y 137 X -7 Y 138 X -5 Y 138 X -6 Y 138 X -7 Y 137 X -5 Y 138 X -3 Y 138 X -2 Y 137 X -2 Y 138 X -1 Y 138 X -1 Y 137 X -1 Y 276 X 5 Y 137 X
 -7 Y f 0 0 1 c 0.999 0.999 0.999 c 0 0 1 c 1 1 1 c black 0 0 1 c black 3 lw 0 0 1 c 227 486 m 42 Y 137 X -7 Y 138 X -5 Y 138 X -6 Y 138 X -7 Y 137 X -5 Y 138 X -3 Y 138 X -2 Y 137 X -2 Y 138 X -1 Y 138 X -1 Y 137 X -1 Y 276 X 5 Y 137 X -7 Y f 0.2
 0.8 0.8 c 0.999 0.999 0.999 c black 3 lw 0.999 0.999 0.999 c 227 486 m 9 Y 137 X -3 Y 138 X 2 Y 138 X -1 Y 138 X -3 Y 137 X -1 Y 138 X -1 Y 275 X -1 Y 551 X -1 Y 138 X 3 Y 137 X -3 Y f 0.2 0.8 0.8 c 0.999 0.999 0.999 c 0.2 0.8 0.8 c 1 1 1 c black
 0.2 0.8 0.8 c black 3 lw 0.2 0.8 0.8 c 227 486 m 9 Y 137 X -3 Y 138 X 2 Y 138 X -1 Y 138 X -3 Y 137 X -1 Y 138 X -1 Y 275 X -1 Y 551 X -1 Y 138 X 3 Y 137 X -3 Y f 1 0 0 c 0.999 0.999 0.999 c black 3 lw 0.999 0.999 0.999 c 227 486 m 4 Y 137 X -2 Y
 138 X 2 Y 276 X -3 Y 688 X -1 Y 551 X 1 Y 137 X -1 Y f 1 0 0 c 0.999 0.999 0.999 c 1 0 0 c 1 1 1 c black 1 0 0 c black 3 lw 1 0 0 c 227 486 m 4 Y 137 X -2 Y 138 X 2 Y 276 X -3 Y 688 X -1 Y 551 X 1 Y 137 X -1 Y f 1 0.84 0 c 0.999 0.999 0.999 c black
 3 lw 0.999 0.999 0.999 c 227 486 m 2 Y 137 X -1 Y 138 X 2 Y 276 X -2 Y 413 X -1 Y 826 X 1 Y 137 X -1 Y f 1 0.84 0 c 0.999 0.999 0.999 c 1 0.84 0 c 1 1 1 c black 1 0.84 0 c black 3 lw 1 0.84 0 c 227 486 m 2 Y 137 X -1 Y 138 X 2 Y 276 X -2 Y 413 X -1
 Y 826 X 1 Y 137 X -1 Y f black 1 1 1 c black 0.6 0.6 0.6 c 3 lw 364 1030 m -5 -5 d s 358 1043 m -18 -18 d s 338 1043 m -17 -18 d s 319 1043 m -18 -18 d s 300 1043 m -18 -18 d s 281 1043 m -18 -18 d s 261 1043 m -17 -18 d s 242 1043 m -15 -15 d s 3
 lw 502 918 m -1 -1 d s 497 932 m -16 -15 d s 478 932 m -16 -15 d s 458 932 m -15 -15 d s 439 932 m -15 -15 d s 420 932 m -16 -15 d s 401 932 m -16 -15 d s 381 932 m -15 -15 d s 3 lw 640 825 m -6 -6 d s 628 832 m -14 -13 d s 608 832 m -13 -13 d s 589
 832 m -13 -13 d s 570 832 m -13 -13 d s 551 832 m -14 -13 d s 531 832 m -13 -13 d s 512 832 m -10 -10 d s 3 lw 778 751 m -7 -6 d s 765 758 m -13 -13 d s 745 758 m -13 -13 d s 726 758 m -13 -13 d s 707 758 m -13 -13 d s 688 758 m -13 -13 d s 668 758
 m -13 -13 d s 649 758 m -9 -10 d s 3 lw 911 693 m -9 -10 d s 892 693 m -10 -10 d s 873 693 m -10 -10 d s 853 693 m -9 -10 d s 834 693 m -9 -10 d s 815 693 m -10 -10 d s 796 693 m -10 -10 d s 3 lw 1053 642 m -3 -3 d s 1039 648 m -8 -9 d s 1020 648 m
 -9 -9 d s 1001 648 m -9 -9 d s 981 648 m -8 -9 d s 962 648 m -8 -9 d s 943 648 m -9 -9 d s 924 648 m -9 -9 d s 3 lw 1191 607 m -3 -3 d s 1176 611 m -7 -7 d s 1156 611 m -7 -7 d s 1137 611 m -7 -7 d s 1118 611 m -7 -7 d s 1099 611 m -7 -7 d s 1080
 611 m -8 -7 d s 1060 611 m -7 -7 d s 3 lw 1321 583 m -6 -6 d s 1301 583 m -6 -6 d s 1282 583 m -6 -6 d s 1263 583 m -6 -6 d s 1244 583 m -6 -6 d s 1224 583 m -6 -6 d s 1205 583 m -6 -6 d s 3 lw 1452 561 m -5 -6 d s 1433 561 m -5 -6 d s 1414 561 m -5
 -6 d s 1395 561 m -6 -6 d s 1375 561 m -5 -6 d s 1356 561 m -5 -6 d s 1337 561 m -5 -6 d s 3 lw 1604 539 m -4 -4 d s 1585 539 m -5 -4 d s 1565 539 m -4 -4 d s 1546 539 m -4 -4 d s 1527 539 m -4 -4 d s 1508 539 m -5 -4 d s 1488 539 m -4 -4 d s 1469
 539 m -3 -3 d s 3 lw 1731 532 m -4 -4 d s 1712 532 m -4 -4 d s 1693 532 m -4 -4 d s 1673 532 m -4 -4 d s 1654 532 m -4 -4 d s 1635 532 m -4 -4 d s 1616 532 m -4 -4 d s 3 lw 1873 520 m -4 -4 d s 1854 520 m -4 -4 d s 1834 520 m -3 -4 d s 1815 520 m -3
 -4 d s 1796 520 m -3 -4 d s 1777 520 m -4 -4 d s 1757 520 m -3 -4 d s 3 lw 2004 516 m -3 -3 d s 1985 516 m -3 -3 d s 1966 516 m -3 -3 d s 1947 516 m -4 -3 d s 1927 516 m -3 -3 d s 1908 516 m -3 -3 d s 1889 516 m -3 -3 d s 3 lw 2154 608 m -3 -3 d s
 2134 608 m -3 -3 d s 2115 608 m -3 -3 d s 2096 608 m -3 -3 d s 2077 608 m -3 -3 d s 2057 608 m -3 -3 d s 2038 608 m -3 -3 d s 2019 608 m -2 -3 d s black 3 lw 1 1 1 c black 296 1025 m 21 Y s 296 1069 m 22 Y s /w 24 def /w2 {w 2 div} def /w3 {w 3 div}
 def 296 1058 m20 433 923 m 18 Y s 433 964 m 18 Y s 433 952 m20 571 849 m 15 Y s 571 888 m 15 Y s 571 876 m20 709 746 m 11 Y s 709 781 m 11 Y s 709 769 m20 846 660 m 7 Y s 846 691 m 7 Y s 846 679 m20 984 618 m 5 Y s 984 647 m 5 Y s 984 635 m20 1122
 606 m 4 Y s 1122 633 m 5 Y s 1122 622 m20 1259 556 m s 1259 580 m 1 Y s 1259 568 m20 1397 552 m s 1397 576 m 1 Y s 1397 564 m20 1535 547 m20 1672 539 m20 1810 532 m20 1948 515 m20 2085 602 m 4 Y s 2085 630 m 4 Y s 2085 618 m20 227 486 m 1927 X s 227
 505 m -19 Y s 282 495 m -9 Y s 337 495 m -9 Y s 392 495 m -9 Y s 447 495 m -9 Y s 502 505 m -19 Y s 557 495 m -9 Y s 612 495 m -9 Y s 667 495 m -9 Y s 722 495 m -9 Y s 778 505 m -19 Y s 833 495 m -9 Y s 888 495 m -9 Y s 943 495 m -9 Y s 998 495 m -9
 Y s 1053 505 m -19 Y s 1108 495 m -9 Y s 1163 495 m -9 Y s 1218 495 m -9 Y s 1273 495 m -9 Y s 1328 505 m -19 Y s 1383 495 m -9 Y s 1438 495 m -9 Y s 1493 495 m -9 Y s 1549 495 m -9 Y s 1604 505 m -19 Y s 1659 495 m -9 Y s 1714 495 m -9 Y s 1769 495
 m -9 Y s 1824 495 m -9 Y s 1879 505 m -19 Y s 1934 495 m -9 Y s 1989 495 m -9 Y s 2044 495 m -9 Y s 2099 495 m -9 Y s 2154 505 m -19 Y s 227 1527 m 1927 X s 227 1508 m 19 Y s 282 1518 m 9 Y s 337 1518 m 9 Y s 392 1518 m 9 Y s 447 1518 m 9 Y s 502
 1508 m 19 Y s 557 1518 m 9 Y s 612 1518 m 9 Y s 667 1518 m 9 Y s 722 1518 m 9 Y s 778 1508 m 19 Y s 833 1518 m 9 Y s 888 1518 m 9 Y s 943 1518 m 9 Y s 998 1518 m 9 Y s 1053 1508 m 19 Y s 1108 1518 m 9 Y s 1163 1518 m 9 Y s 1218 1518 m 9 Y s 1273
 1518 m 9 Y s 1328 1508 m 19 Y s 1383 1518 m 9 Y s 1438 1518 m 9 Y s 1493 1518 m 9 Y s 1549 1518 m 9 Y s 1604 1508 m 19 Y s 1659 1518 m 9 Y s 1714 1518 m 9 Y s 1769 1518 m 9 Y s 1824 1518 m 9 Y s 1879 1508 m 19 Y s 1934 1518 m 9 Y s 1989 1518 m 9 Y s
 2044 1518 m 9 Y s 2099 1518 m 9 Y s 2154 1508 m 19 Y s 227 486 m 1041 Y s 248 677 m -21 X s 237 715 m -10 X s 237 754 m -10 X s 237 792 m -10 X s 237 830 m -10 X s 248 868 m -21 X s 237 907 m -10 X s 237 945 m -10 X s 237 983 m -10 X s 237 1021 m
 -10 X s 248 1060 m -21 X s 237 1098 m -10 X s 237 1136 m -10 X s 237 1174 m -10 X s 237 1212 m -10 X s 248 1251 m -21 X s 237 1289 m -10 X s 237 1327 m -10 X s 237 1365 m -10 X s 237 1404 m -10 X s 248 1442 m -21 X s 248 677 m -21 X s 237 639 m -10
 X s 237 601 m -10 X s 237 562 m -10 X s 237 524 m -10 X s 248 1442 m -21 X s 237 1480 m -10 X s 237 1518 m -10 X s 2154 486 m 1041 Y s 2133 677 m 21 X s 2144 715 m 10 X s 2144 754 m 10 X s 2144 792 m 10 X s 2144 830 m 10 X s 2133 868 m 21 X s 2144
 907 m 10 X s 2144 945 m 10 X s 2144 983 m 10 X s 2144 1021 m 10 X s 2133 1060 m 21 X s 2144 1098 m 10 X s 2144 1136 m 10 X s 2144 1174 m 10 X s 2144 1212 m 10 X s 2133 1251 m 21 X s 2144 1289 m 10 X s 2144 1327 m 10 X s 2144 1365 m 10 X s 2144 1404
 m 10 X s 2133 1442 m 21 X s 2133 677 m 21 X s 2144 639 m 10 X s 2144 601 m 10 X s 2144 562 m 10 X s 2144 524 m 10 X s 2133 1442 m 21 X s 2144 1480 m 10 X s 2144 1518 m 10 X s
 gsave  2268 1108 0 475 C 1313.98 1432.09 t 0 r /Helvetica findfont 56.1323 sf 0 0 m ( Data) show NC gr  1259 1458 m 10 Y s 1259 1434 m -10 Y s 1259 1446 m20
 gsave  2268 1108 0 475 C 1810.04 1432.09 t 0 r /Helvetica findfont 56.1323 sf 0 0 m (single\255top) show NC gr 
 gsave  2268 1108 0 475 C 1780.51 1432.09 t 0 r /Helvetica-Oblique findfont 56.1323 sf 0 0 m (/) show NC gr 
 gsave  2268 1108 0 475 C 1759.84 1432.09 t 0 r /Helvetica-Oblique findfont 56.1323 sf 0 0 m (t) show NC gr  6 lw 1760 1476 m 21 X s
 gsave  2268 1108 0 475 C 1739.17 1432.09 t 0 r /Helvetica-Oblique findfont 56.1323 sf 0 0 m (t) show NC gr 
 gsave  2268 1108 0 475 C 1721.46 1432.09 t 0 r /Helvetica findfont 56.1323 sf 0 0 m ( ) show NC gr  0.06 0.54 0.06 c 3 lw 1626 1420 m 79 X 52 Y -79 X f 6 lw black
 gsave  2268 1108 0 475 C 1443.9 1358.27 t 0 r /Helvetica findfont 56.1323 sf 0 0 m (+jets) show NC gr 
 gsave  2268 1108 0 475 C 1331.69 1358.27 t 0 r /Helvetica-Oblique findfont 56.1323 sf 0 0 m (W/Z) show NC gr 
 gsave  2268 1108 0 475 C 1313.98 1358.27 t 0 r /Helvetica findfont 56.1323 sf 0 0 m ( ) show NC gr  1 0.653333 0 c 3 lw 1219 1346 m 79 X 52 Y -79 X f black
 gsave  2268 1108 0 475 C 1919.29 1358.27 t 0 r /Helvetica findfont 56.1323 sf 0 0 m (+jets) show NC gr 
 gsave  2268 1108 0 475 C 1739.17 1358.27 t 0 r /Helvetica-Oblique findfont 56.1323 sf 0 0 m (WZ/ZZ) show NC gr 
 gsave  2268 1108 0 475 C 1721.46 1358.27 t 0 r /Helvetica findfont 56.1323 sf 0 0 m ( ) show NC gr  0.413333 1 0 c 3 lw 1626 1346 m 79 X 52 Y -79 X f black
 gsave  2268 1108 0 475 C 1373.03 1284.45 t 0 r /Helvetica-Oblique findfont 56.1323 sf 0 0 m (Z) show NC gr 
 gsave  2268 1108 0 475 C 1352.36 1284.45 t 0 r /Helvetica-Oblique findfont 56.1323 sf 0 0 m (t) show NC gr  6 lw 1352 1329 m 21 X s
 gsave  2268 1108 0 475 C 1331.69 1284.45 t 0 r /Helvetica-Oblique findfont 56.1323 sf 0 0 m (t) show NC gr 
 gsave  2268 1108 0 475 C 1313.98 1284.45 t 0 r /Helvetica findfont 56.1323 sf 0 0 m ( ) show NC gr  0.6 0.2 1 c 3 lw 1219 1272 m 79 X 52 Y -79 X f 6 lw black
 gsave  2268 1108 0 475 C 1780.51 1284.45 t 0 r /Helvetica-Oblique findfont 56.1323 sf 0 0 m (W) show NC gr 
 gsave  2268 1108 0 475 C 1759.84 1284.45 t 0 r /Helvetica-Oblique findfont 56.1323 sf 0 0 m (t) show NC gr  6 lw 1760 1329 m 21 X s
 gsave  2268 1108 0 475 C 1739.17 1284.45 t 0 r /Helvetica-Oblique findfont 56.1323 sf 0 0 m (t) show NC gr 
 gsave  2268 1108 0 475 C 1721.46 1284.45 t 0 r /Helvetica findfont 56.1323 sf 0 0 m ( ) show NC gr  0.54 0.06 0.06 c 3 lw 1626 1272 m 79 X 52 Y -79 X f 6 lw black
 gsave  2268 1108 0 475 C 1331.69 1210.63 t 0 r /Helvetica-Oblique findfont 56.1323 sf 0 0 m (tZq) show NC gr 
 gsave  2268 1108 0 475 C 1313.98 1210.63 t 0 r /Helvetica findfont 56.1323 sf 0 0 m ( ) show NC gr  1 0 1 c 3 lw 1219 1199 m 79 X 51 Y -79 X f black
 gsave  2268 1108 0 475 C 1780.51 1210.63 t 0 r /Helvetica-Oblique findfont 56.1323 sf 0 0 m (H) show NC gr 
 gsave  2268 1108 0 475 C 1759.84 1210.63 t 0 r /Helvetica-Oblique findfont 56.1323 sf 0 0 m (t) show NC gr  6 lw 1760 1255 m 21 X s
 gsave  2268 1108 0 475 C 1739.17 1210.63 t 0 r /Helvetica-Oblique findfont 56.1323 sf 0 0 m (t) show NC gr 
 gsave  2268 1108 0 475 C 1721.46 1210.63 t 0 r /Helvetica findfont 56.1323 sf 0 0 m ( ) show NC gr  0 0 1 c 3 lw 1626 1199 m 79 X 51 Y -79 X f 6 lw black
 gsave  2268 1108 0 475 C 1331.69 1136.81 t 0 r /Helvetica-Oblique findfont 56.1323 sf 0 0 m (tWZ/tWH) show NC gr 
 gsave  2268 1108 0 475 C 1313.98 1136.81 t 0 r /Helvetica findfont 56.1323 sf 0 0 m ( ) show NC gr  0.2 0.8 0.8 c 3 lw 1219 1125 m 79 X 51 Y -79 X f black
 gsave  2268 1108 0 475 C 1739.17 1136.81 t 0 r /Helvetica-Oblique findfont 56.1323 sf 0 0 m (tHq) show NC gr 
 gsave  2268 1108 0 475 C 1721.46 1136.81 t 0 r /Helvetica findfont 56.1323 sf 0 0 m ( ) show NC gr  1 0 0 c 3 lw 1626 1125 m 79 X 51 Y -79 X f black
 gsave  2268 1108 0 475 C 1313.98 1062.99 t 0 r /Helvetica findfont 56.1323 sf 0 0 m ( Other) show NC gr  1 0.84 0 c 3 lw 1219 1051 m 79 X 52 Y -79 X f black
 gsave  2268 1108 0 475 C 1721.46 1062.99 t 0 r /Helvetica findfont 56.1323 sf 0 0 m ( Uncertainty) show NC gr  0.6 0.6 0.6 c 3 lw 1705 1063 m -12 -12 d s 1705 1082 m -31 -31 d s 1705 1101 m -50 -50 d s 1687 1103 m -51 -52 d s 1668 1103 m -42 -43 d s
 1649 1103 m -23 -24 d s 1630 1103 m -4 -4 d s 1 0.84 0 c 0.6 0.6 0.6 c black
 gsave  2268 1108 0 475 C 894.685 1337.6 t 0 r /Helvetica findfont 41.3606 sf 0 0 m (\2551) show NC gr 
 gsave  2268 1108 0 475 C 401.575 1308.07 t 0 r /Helvetica findfont 62.0409 sf 0 0 m ( = 13 TeV,  139 fb) show NC gr 
 gsave  2268 1108 0 475 C 372.047 1308.07 t 0 r /Helvetica findfont 62.0409 sf 0 0 m (s) show NC gr  6 lw 351 1344 m 6 -39 d s 3 lw 357 1305 m 9 56 d s 366 1361 m 36 X s
 gsave  2268 1108 0 475 C 339.567 1207.68 t 0 r /Helvetica findfont 62.0409 sf 0 0 m ( 2L\(SS\) pre\255selection) show NC gr 
 gsave  2268 1108 0 475 C 339.567 1405.51 t 0 r /Helvetica-BoldOblique findfont 73.8583 sf 0 0 m (ATLAS) show NC gr 
 gsave  2268 1108 0 475 C 634.843 1405.51 t 0 r /Helvetica findfont 73.8583 sf 0 0 m (Internal) show NC gr 
 gr  gr showpage
end
%%EOF
