%!PS-Adobe-2.0 EPSF-2.0
%%BoundingBox:  0 0 567 394
%%Title: /lhome/ific/c/cardillo/tHq/Plots/Plots-30-05-22-PLIV-SF/2LSS_MC/Ht_SRtHq.eps: Ht_SRtHq
%%Creator: ROOT Version 6.20/06
%%CreationDate: Mon May 30 19:26:16 2022
%%DocumentNeededResources: ProcSet (FontSetInit)
%%EndComments
%%BeginProlog
80 dict begin
/s {stroke} def /l {lineto} def /m {moveto} def /t {translate} def
/r {rotate} def /rl {roll}  def /R {repeat} def
/d {rlineto} def /rm {rmoveto} def /gr {grestore} def /f {eofill} def
/c {setrgbcolor} def /black {0 setgray} def /sd {setdash} def
/cl {closepath} def /sf {scalefont setfont} def /lw {setlinewidth} def
/box {m dup 0 exch d exch 0 d 0 exch neg d cl} def
/NC{systemdict begin initclip end}def/C{NC box clip newpath}def
/bl {box s} def /bf {gsave box gsave f grestore 1 lw [] 0 sd s grestore} def /Y { 0 exch d} def /X { 0 d} def 
/K {{pop pop 0 moveto} exch kshow} bind def
/ita {/ang 15 def gsave [1 0 ang dup sin exch cos div 1 0 0] concat} def 
/mp {newpath /y exch def /x exch def} def
/side {[w .77 mul w .23 mul] .385 w mul sd w 0 l currentpoint t -144 r} def
/mr {mp x y w2 0 360 arc} def /m24 {mr s} def /m20 {mr f} def
/mb {mp x y w2 add m w2 neg 0 d 0 w neg d w 0 d 0 w d cl} def
/mt {mp x y w2 add m w2 neg w neg d w 0 d cl} def
/w4 {w 4 div} def
/w6 {w 6 div} def
/w8 {w 8 div} def
/m21 {mb f} def /m25 {mb s} def /m22 {mt f} def /m26{mt s} def
/m23 {mp x y w2 sub m w2 w d w neg 0 d cl f} def
/m27 {mp x y w2 add m w3 neg w2 neg d w3 w2 neg d w3 w2 d cl s} def
/m28 {mp x w2 sub y w2 sub w3 add m w3 0 d  0 w3 neg d w3 0 d 0 w3 d w3 0 d  0 w3 d w3 neg 0 d 0 w3 d w3 neg 0 d 0 w3 neg d w3 neg 0 d cl s } def
/m29 {mp gsave x w2 sub y w2 add w3 sub m currentpoint t 4 {side} repeat cl fill gr} def
/m30 {mp gsave x w2 sub y w2 add w3 sub m currentpoint t 4 {side} repeat cl s gr} def
/m31 {mp x y w2 sub m 0 w d x w2 sub y m w 0 d x w2 sub y w2 add m w w neg d x w2 sub y w2 sub m w w d s} def
/m32 {mp x y w2 sub m w2 w d w neg 0 d cl s} def
/m33 {mp x y w2 add m w3 neg w2 neg d w3 w2 neg d w3 w2 d cl f} def
/m34 {mp x w2 sub y w2 sub w3 add m w3 0 d  0 w3 neg d w3 0 d 0 w3 d w3 0 d  0 w3 d w3 neg 0 d 0 w3 d w3 neg 0 d 0 w3 neg d w3 neg 0 d cl f } def
/m35 {mp x y w2 add m w2 neg w2 neg d w2 w2 neg d w2 w2 d w2 neg w2 d x y w2 sub m 0 w d x w2 sub y m w 0 d s} def
/m36 {mb x w2 sub y w2 add m w w neg d x w2 sub y w2 sub m w w d s} def
/m37 {mp x y m w4 neg w2 d w4 neg w2 neg d w2 0 d  w4 neg w2 neg d w2 0 d w4 neg w2 d w2 0 d w4 neg w2 d w4 neg w2 neg d cl s} def
/m38 {mp x w4 sub y w2 add m w4 neg w4 neg d 0 w2 neg d w4 w4 neg d w2 0 d w4 w4 d 0 w2 d w4 neg w4 d w2 neg 0 d x y w2 sub m 0 w d x w2 sub y m w 0 d cl s} def
/m39 {mp x y m w4 neg w2 d w4 neg w2 neg d w2 0 d  w4 neg w2 neg d w2 0 d w4 neg w2 d w2 0 d w4 neg w2 d w4 neg w2 neg d cl f} def
/m40 {mp x y m w4 w2 d w4 w4 neg d w2 neg w4 neg d w2 w4 neg d w4 neg w4 neg d w4 neg w2 d w4 neg w2 neg d w4 neg w4 d w2 w4 d w2 neg w4 d w4 w4 d w4 w2 neg d cl s} def
/m41 {mp x y m w4 w2 d w4 w4 neg d w2 neg w4 neg d w2 w4 neg d w4 neg w4 neg d w4 neg w2 d w4 neg w2 neg d w4 neg w4 d w2 w4 d w2 neg w4 d w4 w4 d w4 w2 neg d cl f} def
/m42 {mp x y w2 add m w8 neg w2 -3 4 div mul d w2 -3 4 div mul w8 neg d w2 3 4 div mul w8 neg d w8 w2 -3 4 div mul d w8 w2 3 4 div mul d w2 3 4 div mul w8 d w2 -3 4 div mul w8 d w8 neg w2 3 4 div mul d cl s} def
/m43 {mp x y w2 add m w8 neg w2 -3 4 div mul d w2 -3 4 div mul w8 neg d w2 3 4 div mul w8 neg d w8 w2 -3 4 div mul d w8 w2 3 4 div mul d w2 3 4 div mul w8 d w2 -3 4 div mul w8 d w8 neg w2 3 4 div mul d cl f} def
/m44 {mp x y m w6 neg w2 d w2 2 3 div mul 0 d w6 neg w2 neg d w2 w6 d 0 w2 -2 3 div mul d w2 neg w6 d w6 w2 neg d w2 -2 3 div mul 0 d w6 w2 d w2 neg w6 neg d 0 w2 2 3 div mul d w2 w6 neg d cl s} def
/m45 {mp x y m w6 neg w2 d w2 2 3 div mul 0 d w6 neg w2 neg d w2 w6 d 0 w2 -2 3 div mul d w2 neg w6 d w6 w2 neg d w2 -2 3 div mul 0 d w6 w2 d w2 neg w6 neg d 0 w2 2 3 div mul d w2 w6 neg d cl f} def
/m46 {mp x y w4 add m w4 neg w4 d w4 neg w4 neg d  w4 w4 neg d w4 neg w4 neg d w4 w4 neg d w4 w4 d w4 w4 neg d w4 w4 d w4 neg w4 d w4 w4 d w4 neg w4 d w4 neg w4 neg d cl s} def
/m47 {mp x y w4 add m w4 neg w4 d w4 neg w4 neg d w4 w4 neg d w4 neg w4 neg d  w4 w4 neg d w4 w4 d w4 w4 neg d w4 w4 d w4 neg w4 d w4 w4 d w4 neg w4 d w4 neg w4 neg d cl f} def
/m48 {mp x y w4 add m w4 neg w4 d w4 neg w4 neg d w4 w4 neg d  w4 neg w4 neg d w4 w4 neg d w4 w4 d w4 w4 neg d w4 w4 d w4 neg w4 d w4 w4 d w4 neg w4 d w4 neg w4 neg d  w4 w4 neg d w4 neg w4 neg d w4 neg w4 d w4 w4 d cl f} def
/m49 {mp x w2 sub w3 add y w2 sub w3 add m  0 w3 neg d w3 0 d 0 w3 d w3 0 d 0 w3 d w3 neg 0 d 0 w3 d w3 neg 0 d 0 w3 neg d w3 neg 0 d 0 w3 neg d w3 0 d 0 w3 d w3 0 d 0 w3 neg d w3 neg 0 d cl f } def
/m2 {mp x y w2 sub m 0 w d x w2 sub y m w 0 d s} def
/m5 {mp x w2 sub y w2 sub m w w d x w2 sub y w2 add m w w neg d s} def
%%IncludeResource: ProcSet (FontSetInit)
%%IncludeResource: font Times-Roman
%%IncludeResource: font Times-Italic
%%IncludeResource: font Times-Bold
%%IncludeResource: font Times-BoldItalic
%%IncludeResource: font Helvetica
%%IncludeResource: font Helvetica-Oblique
%%IncludeResource: font Helvetica-Bold
%%IncludeResource: font Helvetica-BoldOblique
%%IncludeResource: font Courier
%%IncludeResource: font Courier-Oblique
%%IncludeResource: font Courier-Bold
%%IncludeResource: font Courier-BoldOblique
%%IncludeResource: font Symbol
%%IncludeResource: font ZapfDingbats
/reEncode {exch findfont dup length dict begin {1 index /FID eq  {pop pop} {def} ifelse } forall /Encoding exch def currentdict end dup /FontName get exch definefont pop } def [/Times-Bold /Times-Italic /Times-BoldItalic /Helvetica /Helvetica-Oblique
 /Helvetica-Bold /Helvetica-BoldOblique /Courier /Courier-Oblique /Courier-Bold /Courier-BoldOblique /Times-Roman /AvantGarde-Book /AvantGarde-BookOblique /AvantGarde-Demi /AvantGarde-DemiOblique /Bookman-Demi /Bookman-DemiItalic /Bookman-Light
 /Bookman-LightItalic /Helvetica-Narrow /Helvetica-Narrow-Bold /Helvetica-Narrow-BoldOblique /Helvetica-Narrow-Oblique /NewCenturySchlbk-Roman /NewCenturySchlbk-Bold /NewCenturySchlbk-BoldItalic /NewCenturySchlbk-Italic /Palatino-Bold
 /Palatino-BoldItalic /Palatino-Italic /Palatino-Roman ] {ISOLatin1Encoding reEncode } forall
%%EndProlog
%%BeginSetup
%%EndSetup
newpath  gsave  .25 .25 scale  gsave  0 0 t black[  ] 0 sd 3 lw 1 1 1 c 2268 1575 0 0 bf black 1 1 1 c 2268 472 0 0 bf black 1 1 1 c 1927 274 227 189 bf black 1927 274 227 189 bl 227 189 m 1927 X s 227 201 m -12 Y s 282 195 m -6 Y s 337 195 m -6 Y s
 392 195 m -6 Y s 447 195 m -6 Y s 502 201 m -12 Y s 557 195 m -6 Y s 612 195 m -6 Y s 667 195 m -6 Y s 722 195 m -6 Y s 778 201 m -12 Y s 833 195 m -6 Y s 888 195 m -6 Y s 943 195 m -6 Y s 998 195 m -6 Y s 1053 201 m -12 Y s 1108 195 m -6 Y s 1163
 195 m -6 Y s 1218 195 m -6 Y s 1273 195 m -6 Y s 1328 201 m -12 Y s 1383 195 m -6 Y s 1438 195 m -6 Y s 1493 195 m -6 Y s 1549 195 m -6 Y s 1604 201 m -12 Y s 1659 195 m -6 Y s 1714 195 m -6 Y s 1769 195 m -6 Y s 1824 195 m -6 Y s 1879 201 m -12 Y s
 1934 195 m -6 Y s 1989 195 m -6 Y s 2044 195 m -6 Y s 2099 195 m -6 Y s 2154 201 m -12 Y s
 gsave  2268 472 0 0 C 180.588 127.3 t 0 r /Helvetica findfont 53.4895 sf 0 0 m (300) show NC gr 
 gsave  2268 472 0 0 C 455.912 127.3 t 0 r /Helvetica findfont 53.4895 sf 0 0 m (400) show NC gr 
 gsave  2268 472 0 0 C 731.235 127.3 t 0 r /Helvetica findfont 53.4895 sf 0 0 m (500) show NC gr 
 gsave  2268 472 0 0 C 1006.56 127.3 t 0 r /Helvetica findfont 53.4895 sf 0 0 m (600) show NC gr 
 gsave  2268 472 0 0 C 1281.88 127.3 t 0 r /Helvetica findfont 53.4895 sf 0 0 m (700) show NC gr 
 gsave  2268 472 0 0 C 1557.2 127.3 t 0 r /Helvetica findfont 53.4895 sf 0 0 m (800) show NC gr 
 gsave  2268 472 0 0 C 1832.53 127.3 t 0 r /Helvetica findfont 53.4895 sf 0 0 m (900) show NC gr 
 gsave  2268 472 0 0 C 2093.05 127.3 t 0 r /Helvetica findfont 53.4895 sf 0 0 m (1000) show NC gr 
 gsave  2268 472 0 0 C 1995.35 47.3674 t 0 r /Helvetica findfont 56.4611 sf 0 0 m ( [GeV]) show NC gr 
 gsave  2268 472 0 0 C 1971.67 29.6047 t 0 r /Helvetica findfont 38.6313 sf 0 0 m (T) show NC gr 
 gsave  2268 472 0 0 C 1924.3 47.3674 t 0 r /Helvetica-Oblique findfont 56.4611 sf 0 0 m (H) show NC gr  227 463 m 1927 X s 227 451 m 12 Y s 282 457 m 6 Y s 337 457 m 6 Y s 392 457 m 6 Y s 447 457 m 6 Y s 502 451 m 12 Y s 557 457 m 6 Y s 612 457 m 6
 Y s 667 457 m 6 Y s 722 457 m 6 Y s 778 451 m 12 Y s 833 457 m 6 Y s 888 457 m 6 Y s 943 457 m 6 Y s 998 457 m 6 Y s 1053 451 m 12 Y s 1108 457 m 6 Y s 1163 457 m 6 Y s 1218 457 m 6 Y s 1273 457 m 6 Y s 1328 451 m 12 Y s 1383 457 m 6 Y s 1438 457 m
 6 Y s 1493 457 m 6 Y s 1549 457 m 6 Y s 1604 451 m 12 Y s 1659 457 m 6 Y s 1714 457 m 6 Y s 1769 457 m 6 Y s 1824 457 m 6 Y s 1879 451 m 12 Y s 1934 457 m 6 Y s 1989 457 m 6 Y s 2044 457 m 6 Y s 2099 457 m 6 Y s 2154 451 m 12 Y s 227 189 m 274 Y s
 240 240 m -13 X s 240 326 m -13 X s 240 412 m -13 X s 240 240 m -13 X s 240 412 m -13 X s
 gsave  2268 472 0 0 C 118.419 222.035 t 0 r /Helvetica findfont 53.4895 sf 0 0 m (0.5) show NC gr 
 gsave  2268 472 0 0 C 171.707 307.888 t 0 r /Helvetica findfont 53.4895 sf 0 0 m (1) show NC gr 
 gsave  2268 472 0 0 C 118.419 393.742 t 0 r /Helvetica findfont 53.4895 sf 0 0 m (1.5) show NC gr 
 gsave  2268 472 0 0 C 71.0512 230.916 t 90 r /Helvetica findfont 53.4895 sf 0 0 m (Data / SM) show NC gr  2154 189 m 274 Y s 2141 240 m 13 X s 2141 326 m 13 X s 2141 412 m 13 X s 2141 240 m 13 X s 2141 412 m 13 X s 227 189 m 1927 X s 227 463 m 1927
 X s 227 189 m 274 Y s[ 4 8] 0 sd 2154 240 m -1927 X s 2154 326 m -1927 X s 2154 412 m -1927 X s 2154 240 m -1927 X s 2154 412 m -1927 X s[  ] 0 sd 2154 189 m 274 Y s 1 1 0.6 c 137 0 227 326 bf 138 0 364 326 bf 138 0 502 326 bf 138 0 640 326 bf 137 0
 778 326 bf 138 0 915 326 bf 138 0 1053 326 bf 137 0 1191 326 bf 138 0 1328 326 bf 138 0 1466 326 bf 137 0 1604 326 bf 138 0 1741 326 bf 138 0 1879 326 bf 137 0 2017 326 bf black 0.6 0.6 0.6 c 364 308 m -3 -4 d s 364 327 m -22 -23 d s 364 347 m -42
 -43 d s 346 348 m -43 -44 d s 327 348 m -43 -44 d s 308 348 m -43 -44 d s 289 348 m -44 -44 d s 269 348 m -42 -43 d s 250 348 m -23 -24 d s 231 348 m -4 -4 d s 502 311 m -5 -5 d s 502 330 m -24 -24 d s 499 346 m -40 -40 d s 479 346 m -39 -40 d s 460
 346 m -40 -40 d s 441 346 m -40 -40 d s 422 346 m -40 -40 d s 402 346 m -38 -38 d s 383 346 m -19 -19 d s 640 314 m -1 -1 d s 640 333 m -21 -20 d s 627 339 m -27 -26 d s 608 339 m -27 -26 d s 588 339 m -26 -26 d s 569 339 m -27 -26 d s 550 339 m -27
 -26 d s 531 339 m -27 -26 d s 511 339 m -9 -9 d s 778 298 m -12 -12 d s 778 317 m -32 -31 d s 778 336 m -51 -50 d s 778 356 m -70 -70 d s 769 366 m -80 -80 d s 750 366 m -81 -80 d s 731 366 m -81 -80 d s 711 366 m -71 -71 d s 692 366 m -52 -52 d s
 673 366 m -33 -33 d s 654 366 m -14 -13 d s 915 320 m -15 -16 d s 915 339 m -34 -35 d s 904 348 m -43 -44 d s 885 348 m -43 -44 d s 866 348 m -43 -44 d s 847 348 m -43 -44 d s 827 348 m -43 -44 d s 808 348 m -30 -31 d s 789 348 m -11 -12 d s 1053
 284 m -17 -17 d s 1053 304 m -37 -37 d s 1053 323 m -56 -56 d s 1053 342 m -75 -75 d s 1053 362 m -94 -95 d s 1053 381 m -114 -114 d s 1038 385 m -118 -118 d s 1019 385 m -104 -104 d s 999 385 m -84 -84 d s 980 385 m -65 -65 d s 961 385 m -46 -46 d
 s 942 385 m -27 -26 d s 922 385 m -7 -7 d s 1191 307 m -6 -6 d s 1191 326 m -25 -25 d s 1191 345 m -44 -44 d s 1177 351 m -50 -50 d s 1158 351 m -50 -50 d s 1139 351 m -50 -50 d s 1119 351 m -49 -50 d s 1100 351 m -47 -47 d s 1081 351 m -28 -28 d s
 1062 351 m -9 -9 d s 1328 290 m -14 -14 d s 1328 310 m -34 -34 d s 1328 329 m -53 -53 d s 1328 348 m -72 -72 d s 1328 368 m -91 -92 d s 1318 376 m -101 -100 d s 1299 376 m -101 -100 d s 1279 376 m -88 -89 d s 1260 376 m -69 -69 d s 1241 376 m -50
 -50 d s 1222 376 m -31 -31 d s 1202 376 m -11 -11 d s 1466 293 m -18 -18 d s 1466 313 m -37 -38 d s 1466 332 m -57 -57 d s 1466 351 m -76 -76 d s 1466 371 m -95 -96 d s 1453 377 m -101 -102 d s 1434 377 m -102 -102 d s 1415 377 m -87 -87 d s 1395
 377 m -67 -67 d s 1376 377 m -48 -48 d s 1357 377 m -29 -29 d s 1338 377 m -10 -9 d s 1604 277 m -10 -10 d s 1604 296 m -29 -29 d s 1604 316 m -49 -49 d s 1604 335 m -68 -68 d s 1604 354 m -87 -87 d s 1604 374 m -106 -107 d s 1596 385 m -118 -118 d
 s 1576 385 m -110 -111 d s 1557 385 m -91 -92 d s 1538 385 m -72 -72 d s 1519 385 m -53 -53 d s 1499 385 m -33 -34 d s 1480 385 m -14 -14 d s 1741 203 m -3 -3 d s 1741 222 m -22 -22 d s 1741 241 m -41 -41 d s 1741 261 m -60 -61 d s 1741 280 m -80
 -80 d s 1741 299 m -99 -99 d s 1741 319 m -118 -119 d s 1741 338 m -137 -138 d s 1741 357 m -137 -138 d s 1741 377 m -137 -139 d s 1741 396 m -137 -138 d s 1741 415 m -137 -138 d s 1741 434 m -137 -138 d s 1740 452 m -136 -136 d s 1721 452 m -117
 -117 d s 1701 452 m -97 -98 d s 1682 452 m -78 -78 d s 1663 452 m -59 -59 d s 1644 452 m -40 -40 d s 1624 452 m -20 -21 d s 1605 452 m -1 -1 d s 1879 264 m -16 -17 d s 1879 283 m -36 -36 d s 1879 302 m -55 -55 d s 1879 322 m -74 -75 d s 1879 341 m
 -93 -94 d s 1879 360 m -113 -113 d s 1879 379 m -132 -132 d s 1879 399 m -138 -138 d s 1866 405 m -125 -125 d s 1846 405 m -105 -106 d s 1827 405 m -86 -86 d s 1808 405 m -67 -67 d s 1789 405 m -48 -48 d s 1769 405 m -28 -28 d s 1750 405 m -9 -9 d s
 2017 267 m -12 -12 d s 2017 286 m -31 -31 d s 2017 305 m -50 -50 d s 2017 325 m -70 -70 d s 2017 344 m -89 -89 d s 2017 363 m -108 -108 d s 2017 382 m -127 -127 d s 2012 397 m -133 -133 d s 1993 397 m -114 -114 d s 1973 397 m -94 -95 d s 1954 397 m
 -75 -75 d s 1935 397 m -56 -56 d s 1916 397 m -37 -37 d s 1896 397 m -17 -18 d s 2154 328 m -5 -6 d s 2138 330 m -8 -8 d s 2118 330 m -8 -8 d s 2099 330 m -8 -8 d s 2080 330 m -8 -8 d s 2061 330 m -8 -8 d s 2041 330 m -8 -8 d s 2022 330 m -5 -5 d s
 black 1 1 1 c black 296 204 m 26 Y s /w 26 def /w2 {w 2 div} def /w3 {w 3 div} def 296 192 m20 433 189 m 15 Y s 433 228 m 49 Y s 433 216 m20 709 189 m 104 Y s 709 317 m 138 Y s 709 305 m20 227 326 m 1927 X s 227 189 m 1927 X s 227 201 m -12 Y s 282
 195 m -6 Y s 337 195 m -6 Y s 392 195 m -6 Y s 447 195 m -6 Y s 502 201 m -12 Y s 557 195 m -6 Y s 612 195 m -6 Y s 667 195 m -6 Y s 722 195 m -6 Y s 778 201 m -12 Y s 833 195 m -6 Y s 888 195 m -6 Y s 943 195 m -6 Y s 998 195 m -6 Y s 1053 201 m
 -12 Y s 1108 195 m -6 Y s 1163 195 m -6 Y s 1218 195 m -6 Y s 1273 195 m -6 Y s 1328 201 m -12 Y s 1383 195 m -6 Y s 1438 195 m -6 Y s 1493 195 m -6 Y s 1549 195 m -6 Y s 1604 201 m -12 Y s 1659 195 m -6 Y s 1714 195 m -6 Y s 1769 195 m -6 Y s 1824
 195 m -6 Y s 1879 201 m -12 Y s 1934 195 m -6 Y s 1989 195 m -6 Y s 2044 195 m -6 Y s 2099 195 m -6 Y s 2154 201 m -12 Y s 227 463 m 1927 X s 227 451 m 12 Y s 282 457 m 6 Y s 337 457 m 6 Y s 392 457 m 6 Y s 447 457 m 6 Y s 502 451 m 12 Y s 557 457 m
 6 Y s 612 457 m 6 Y s 667 457 m 6 Y s 722 457 m 6 Y s 778 451 m 12 Y s 833 457 m 6 Y s 888 457 m 6 Y s 943 457 m 6 Y s 998 457 m 6 Y s 1053 451 m 12 Y s 1108 457 m 6 Y s 1163 457 m 6 Y s 1218 457 m 6 Y s 1273 457 m 6 Y s 1328 451 m 12 Y s 1383 457 m
 6 Y s 1438 457 m 6 Y s 1493 457 m 6 Y s 1549 457 m 6 Y s 1604 451 m 12 Y s 1659 457 m 6 Y s 1714 457 m 6 Y s 1769 457 m 6 Y s 1824 457 m 6 Y s 1879 451 m 12 Y s 1934 457 m 6 Y s 1989 457 m 6 Y s 2044 457 m 6 Y s 2099 457 m 6 Y s 2154 451 m 12 Y s
 227 189 m 274 Y s 240 240 m -13 X s 240 326 m -13 X s 240 412 m -13 X s 240 240 m -13 X s 240 412 m -13 X s 2154 189 m 274 Y s 2141 240 m 13 X s 2141 326 m 13 X s 2141 412 m 13 X s 2141 240 m 13 X s 2141 412 m 13 X s 1 1 1 c 2268 1103 0 472 bf black
 1 1 1 c 1927 1036 227 484 bf black 1927 1036 227 484 bl 1 1 1 c black 3 lw 227 484 m 1927 X s 227 502 m -18 Y s 282 493 m -9 Y s 337 493 m -9 Y s 392 493 m -9 Y s 447 493 m -9 Y s 502 502 m -18 Y s 557 493 m -9 Y s 612 493 m -9 Y s 667 493 m -9 Y s
 722 493 m -9 Y s 778 502 m -18 Y s 833 493 m -9 Y s 888 493 m -9 Y s 943 493 m -9 Y s 998 493 m -9 Y s 1053 502 m -18 Y s 1108 493 m -9 Y s 1163 493 m -9 Y s 1218 493 m -9 Y s 1273 493 m -9 Y s 1328 502 m -18 Y s 1383 493 m -9 Y s 1438 493 m -9 Y s
 1493 493 m -9 Y s 1549 493 m -9 Y s 1604 502 m -18 Y s 1659 493 m -9 Y s 1714 493 m -9 Y s 1769 493 m -9 Y s 1824 493 m -9 Y s 1879 502 m -18 Y s 1934 493 m -9 Y s 1989 493 m -9 Y s 2044 493 m -9 Y s 2099 493 m -9 Y s 2154 502 m -18 Y s
 gsave  2268 1103 0 472 C 2069.37 402.623 t 0 r /Helvetica findfont 29.6365 sf 0 0 m ( [GeV]) show NC gr 
 gsave  2268 1103 0 472 C 2054.56 393.742 t 0 r /Helvetica findfont 20.7455 sf 0 0 m (T) show NC gr 
 gsave  2268 1103 0 472 C 2030.88 402.623 t 0 r /Helvetica-Oblique findfont 29.6365 sf 0 0 m (H) show NC gr  227 1520 m 1927 X s 227 1501 m 19 Y s 282 1510 m 10 Y s 337 1510 m 10 Y s 392 1510 m 10 Y s 447 1510 m 10 Y s 502 1501 m 19 Y s 557 1510 m 10
 Y s 612 1510 m 10 Y s 667 1510 m 10 Y s 722 1510 m 10 Y s 778 1501 m 19 Y s 833 1510 m 10 Y s 888 1510 m 10 Y s 943 1510 m 10 Y s 998 1510 m 10 Y s 1053 1501 m 19 Y s 1108 1510 m 10 Y s 1163 1510 m 10 Y s 1218 1510 m 10 Y s 1273 1510 m 10 Y s 1328
 1501 m 19 Y s 1383 1510 m 10 Y s 1438 1510 m 10 Y s 1493 1510 m 10 Y s 1549 1510 m 10 Y s 1604 1501 m 19 Y s 1659 1510 m 10 Y s 1714 1510 m 10 Y s 1769 1510 m 10 Y s 1824 1510 m 10 Y s 1879 1501 m 19 Y s 1934 1510 m 10 Y s 1989 1510 m 10 Y s 2044
 1510 m 10 Y s 2099 1510 m 10 Y s 2154 1501 m 19 Y s 227 484 m 1036 Y s 248 665 m -21 X s 237 711 m -10 X s 237 757 m -10 X s 237 802 m -10 X s 248 848 m -21 X s 237 894 m -10 X s 237 939 m -10 X s 237 985 m -10 X s 248 1031 m -21 X s 237 1076 m -10
 X s 237 1122 m -10 X s 237 1168 m -10 X s 248 1213 m -21 X s 237 1259 m -10 X s 237 1305 m -10 X s 237 1350 m -10 X s 248 1396 m -21 X s 248 665 m -21 X s 237 620 m -10 X s 237 574 m -10 X s 237 528 m -10 X s 248 1396 m -21 X s 237 1442 m -10 X s
 237 1488 m -10 X s
 gsave  2268 1103 0 472 C 174.667 645.381 t 0 r /Helvetica findfont 50.382 sf 0 0 m (2) show NC gr 
 gsave  2268 1103 0 472 C 174.667 828.93 t 0 r /Helvetica findfont 50.382 sf 0 0 m (4) show NC gr 
 gsave  2268 1103 0 472 C 174.667 1012.48 t 0 r /Helvetica findfont 50.382 sf 0 0 m (6) show NC gr 
 gsave  2268 1103 0 472 C 174.667 1193.07 t 0 r /Helvetica findfont 50.382 sf 0 0 m (8) show NC gr 
 gsave  2268 1103 0 472 C 145.063 1376.62 t 0 r /Helvetica findfont 50.382 sf 0 0 m (10) show NC gr 
 gsave  2268 1103 0 472 C 62.1698 1154.58 t 90 r /Helvetica findfont 50.382 sf 0 0 m (Events / 50 GeV) show NC gr  2154 484 m 1036 Y s 2133 665 m 21 X s 2144 711 m 10 X s 2144 757 m 10 X s 2144 802 m 10 X s 2133 848 m 21 X s 2144 894 m 10 X s 2144
 939 m 10 X s 2144 985 m 10 X s 2133 1031 m 21 X s 2144 1076 m 10 X s 2144 1122 m 10 X s 2144 1168 m 10 X s 2133 1213 m 21 X s 2144 1259 m 10 X s 2144 1305 m 10 X s 2144 1350 m 10 X s 2133 1396 m 21 X s 2133 665 m 21 X s 2144 620 m 10 X s 2144 574 m
 10 X s 2144 528 m 10 X s 2133 1396 m 21 X s 2144 1442 m 10 X s 2144 1488 m 10 X s 0.06 0.54 0.06 c black 3 lw 0.06 0.54 0.06 c 227 484 m 413 Y 137 X -158 Y 138 X -123 Y 138 X -29 Y 138 X -59 Y 137 X -10 Y 138 X -17 Y 138 X -9 Y 137 X -2 Y 138 X -3 Y
 138 X -3 Y 137 X 1 Y 138 X -1 Y 138 X 1 Y 137 X -1 Y f 1 0.653333 0 c 0.999 0.999 0.999 c black 3 lw 0.999 0.999 0.999 c 227 484 m 235 Y 137 X -47 Y 138 X -62 Y 138 X -65 Y 138 X -17 Y 137 X -22 Y 138 X -5 Y 138 X -9 Y 137 X -2 Y 138 X -3 Y 138 X -3
 Y 137 X 1 Y 138 X -1 Y 138 X 1 Y 137 X -1 Y f 1 0.653333 0 c 0.999 0.999 0.999 c 1 0.653333 0 c 1 1 1 c black 1 0.653333 0 c black 3 lw 1 0.653333 0 c 227 484 m 235 Y 137 X -47 Y 138 X -62 Y 138 X -65 Y 138 X -17 Y 137 X -22 Y 138 X -5 Y 138 X -9 Y
 137 X -2 Y 138 X -3 Y 138 X -3 Y 137 X 1 Y 138 X -1 Y 138 X 1 Y 137 X -1 Y f 0.413333 1 0 c 0.999 0.999 0.999 c black 3 lw 0.999 0.999 0.999 c 227 484 m 227 Y 137 X -39 Y 138 X -62 Y 138 X -65 Y 138 X -17 Y 137 X -22 Y 138 X -5 Y 138 X -9 Y 137 X -2
 Y 138 X -3 Y 138 X -3 Y 137 X 1 Y 138 X -1 Y 138 X 1 Y 137 X -1 Y f 0.413333 1 0 c 0.999 0.999 0.999 c 0.413333 1 0 c 1 1 1 c black 0.413333 1 0 c black 3 lw 0.413333 1 0 c 227 484 m 227 Y 137 X -39 Y 138 X -62 Y 138 X -65 Y 138 X -17 Y 137 X -22 Y
 138 X -5 Y 138 X -9 Y 137 X -2 Y 138 X -3 Y 138 X -3 Y 137 X 1 Y 138 X -1 Y 138 X 1 Y 137 X -1 Y f 0.6 0.2 1 c 0.999 0.999 0.999 c black 3 lw 0.999 0.999 0.999 c 227 484 m 205 Y 137 X -41 Y 138 X -52 Y 138 X -56 Y 138 X -19 Y 137 X -19 Y 138 X -2 Y
 138 X -10 Y 137 X -1 Y 138 X -3 Y 138 X -2 Y 137 X 1 Y 138 X -1 Y 138 X 1 Y 137 X -1 Y f 0.6 0.2 1 c 0.999 0.999 0.999 c 0.6 0.2 1 c 1 1 1 c black 0.6 0.2 1 c black 3 lw 0.6 0.2 1 c 227 484 m 205 Y 137 X -41 Y 138 X -52 Y 138 X -56 Y 138 X -19 Y 137
 X -19 Y 138 X -2 Y 138 X -10 Y 137 X -1 Y 138 X -3 Y 138 X -2 Y 137 X 1 Y 138 X -1 Y 138 X 1 Y 137 X -1 Y f 0.54 0.06 0.06 c 0.999 0.999 0.999 c black 3 lw 0.999 0.999 0.999 c 227 484 m 181 Y 137 X -33 Y 138 X -46 Y 138 X -55 Y 138 X -21 Y 137 X -11
 Y 138 X -2 Y 138 X -8 Y 137 X -1 Y 138 X -2 Y 138 X -2 Y 137 X 1 Y 138 X -1 Y 275 X f 0.54 0.06 0.06 c 0.999 0.999 0.999 c 0.54 0.06 0.06 c 1 1 1 c black 0.54 0.06 0.06 c black 3 lw 0.54 0.06 0.06 c 227 484 m 181 Y 137 X -33 Y 138 X -46 Y 138 X -55
 Y 138 X -21 Y 137 X -11 Y 138 X -2 Y 138 X -8 Y 137 X -1 Y 138 X -2 Y 138 X -2 Y 137 X 1 Y 138 X -1 Y 275 X f 1 0 1 c 0.999 0.999 0.999 c black 3 lw 0.999 0.999 0.999 c 227 484 m 108 Y 137 X -15 Y 138 X -45 Y 138 X -22 Y 138 X -14 Y 137 X -7 Y 138 X
 2 Y 138 X -6 Y 137 X 1 Y 138 X -2 Y 688 X f 1 0 1 c 0.999 0.999 0.999 c 1 0 1 c 1 1 1 c black 1 0 1 c black 3 lw 1 0 1 c 227 484 m 108 Y 137 X -15 Y 138 X -45 Y 138 X -22 Y 138 X -14 Y 137 X -7 Y 138 X 2 Y 138 X -6 Y 137 X 1 Y 138 X -2 Y 688 X f 0 0
 1 c 0.999 0.999 0.999 c black 3 lw 0.999 0.999 0.999 c 227 484 m 36 Y 137 X -6 Y 138 X -9 Y 138 X -8 Y 138 X -8 Y 137 X -3 Y 276 X -2 Y 137 X 1 Y 138 X -1 Y 688 X f 0 0 1 c 0.999 0.999 0.999 c 0 0 1 c 1 1 1 c black 0 0 1 c black 3 lw 0 0 1 c 227 484
 m 36 Y 137 X -6 Y 138 X -9 Y 138 X -8 Y 138 X -8 Y 137 X -3 Y 276 X -2 Y 137 X 1 Y 138 X -1 Y 688 X f 0.2 0.8 0.8 c 0.999 0.999 0.999 c black 3 lw 0.999 0.999 0.999 c 227 484 m 18 Y 137 X -4 Y 138 X -4 Y 138 X -5 Y 138 X -4 Y 137 X -1 Y 138 X 1 Y
 138 X -1 Y 963 X f 0.2 0.8 0.8 c 0.999 0.999 0.999 c 0.2 0.8 0.8 c 1 1 1 c black 0.2 0.8 0.8 c black 3 lw 0.2 0.8 0.8 c 227 484 m 18 Y 137 X -4 Y 138 X -4 Y 138 X -5 Y 138 X -4 Y 137 X -1 Y 138 X 1 Y 138 X -1 Y 963 X f 1 0 0 c 0.999 0.999 0.999 c
 black 3 lw 0.999 0.999 0.999 c 227 484 m 15 Y 137 X -3 Y 138 X -5 Y 138 X -4 Y 138 X -2 Y 137 X -1 Y 1239 X f 1 0 0 c 0.999 0.999 0.999 c 1 0 0 c 1 1 1 c black 1 0 0 c black 3 lw 1 0 0 c 227 484 m 15 Y 137 X -3 Y 138 X -5 Y 138 X -4 Y 138 X -2 Y 137
 X -1 Y 1239 X f 1 0.84 0 c 0.999 0.999 0.999 c black 3 lw 0.999 0.999 0.999 c 227 484 m 1927 X f 1 0.84 0 c 0.999 0.999 0.999 c 1 0.84 0 c 1 1 1 c black 1 0.84 0 c black 3 lw 1 0.84 0 c 227 484 m 1927 X f black 1 1 1 c black 0.6 0.6 0.6 c 3 lw 364
 856 m -10 -11 d s 364 875 m -29 -30 d s 364 894 m -49 -49 d s 364 913 m -68 -68 d s 364 932 m -87 -87 d s 363 950 m -105 -105 d s 344 950 m -106 -105 d s 324 950 m -97 -97 d s 305 950 m -78 -78 d s 286 950 m -59 -59 d s 267 950 m -40 -40 d s 247 950
 m -20 -21 d s 228 950 m -1 -1 d s 3 lw 502 724 m -15 -15 d s 502 743 m -34 -34 d s 502 762 m -54 -53 d s 489 768 m -60 -59 d s 470 768 m -60 -59 d s 450 768 m -59 -59 d s 431 768 m -60 -59 d s 412 768 m -48 -47 d s 393 768 m -29 -28 d s 373 768 m -9
 -8 d s 3 lw 640 612 m -7 -7 d s 635 626 m -21 -21 d s 616 626 m -21 -21 d s 596 626 m -21 -21 d s 577 626 m -21 -21 d s 558 626 m -21 -21 d s 539 626 m -21 -21 d s 519 626 m -17 -17 d s 3 lw 778 576 m -15 -14 d s 778 596 m -34 -34 d s 774 611 m -49
 -49 d s 755 611 m -49 -49 d s 736 611 m -50 -49 d s 716 611 m -49 -49 d s 697 611 m -49 -49 d s 678 611 m -38 -38 d s 659 611 m -19 -18 d s 3 lw 908 534 m -11 -12 d s 889 534 m -12 -12 d s 870 534 m -12 -12 d s 850 534 m -11 -12 d s 831 534 m -11
 -12 d s 812 534 m -12 -12 d s 793 534 m -12 -12 d s 3 lw 1053 525 m -19 -20 d s 1039 530 m -25 -25 d s 1019 530 m -24 -25 d s 1000 530 m -24 -25 d s 981 530 m -24 -25 d s 962 530 m -25 -25 d s 942 530 m -24 -25 d s 923 530 m -8 -8 d s 3 lw 1186 504
 m -5 -5 d s 1167 504 m -5 -5 d s 1148 504 m -6 -5 d s 1129 504 m -6 -5 d s 1109 504 m -5 -5 d s 1090 504 m -5 -5 d s 1071 504 m -6 -5 d s 3 lw 1328 492 m -3 -3 d s 1311 494 m -5 -5 d s 1292 494 m -5 -5 d s 1273 494 m -6 -5 d s 1254 494 m -6 -5 d s
 1234 494 m -5 -5 d s 1215 494 m -5 -5 d s 1196 494 m -5 -5 d s 3 lw 1462 492 m -4 -5 d s 1443 492 m -4 -5 d s 1424 492 m -4 -5 d s 1405 492 m -5 -5 d s 1385 492 m -4 -5 d s 1366 492 m -4 -5 d s 1347 492 m -4 -5 d s 3 lw 1594 489 m -3 -3 d s 1575 489
 m -3 -3 d s 1556 489 m -4 -3 d s 1536 489 m -3 -3 d s 1517 489 m -3 -3 d s 1498 489 m -3 -3 d s 1479 489 m -3 -3 d s 3 lw 1726 485 m -2 -1 d s 1706 485 m -2 -1 d s 1687 485 m -2 -1 d s 1668 485 m -2 -1 d s 1649 485 m -2 -1 d s 1629 485 m -2 -1 d s
 1610 485 m -2 -1 d s 3 lw 1879 485 m -1 -1 d s 1862 487 m -3 -3 d s 1842 487 m -2 -3 d s 1823 487 m -3 -3 d s 1804 487 m -3 -3 d s 1785 487 m -3 -3 d s 1765 487 m -2 -3 d s 1746 487 m -3 -3 d s 3 lw 2014 485 m -2 -1 d s 1995 485 m -2 -1 d s 1975 485
 m -1 -1 d s 1956 485 m -1 -1 d s 1937 485 m -2 -1 d s 1918 485 m -2 -1 d s 1898 485 m -1 -1 d s 1879 485 m s 3 lw 2149 485 m s 2130 485 m -1 X s 2110 485 m s 2091 485 m s 2072 485 m s 2053 485 m -1 X s 2033 485 m s black 3 lw 1 1 1 c black 296 484 m
 78 Y s 296 586 m 79 Y s /w 24 def /w2 {w 2 div} def /w3 {w 3 div} def 296 574 m20 433 484 m 78 Y s 433 586 m 79 Y s 433 574 m20 571 665 m 171 Y s 571 860 m 171 Y s 571 848 m20 709 484 m 78 Y s 709 586 m 79 Y s 709 574 m20 984 484 m 78 Y s 984 586 m
 79 Y s 984 574 m20 227 484 m 1927 X s 227 502 m -18 Y s 282 493 m -9 Y s 337 493 m -9 Y s 392 493 m -9 Y s 447 493 m -9 Y s 502 502 m -18 Y s 557 493 m -9 Y s 612 493 m -9 Y s 667 493 m -9 Y s 722 493 m -9 Y s 778 502 m -18 Y s 833 493 m -9 Y s 888
 493 m -9 Y s 943 493 m -9 Y s 998 493 m -9 Y s 1053 502 m -18 Y s 1108 493 m -9 Y s 1163 493 m -9 Y s 1218 493 m -9 Y s 1273 493 m -9 Y s 1328 502 m -18 Y s 1383 493 m -9 Y s 1438 493 m -9 Y s 1493 493 m -9 Y s 1549 493 m -9 Y s 1604 502 m -18 Y s
 1659 493 m -9 Y s 1714 493 m -9 Y s 1769 493 m -9 Y s 1824 493 m -9 Y s 1879 502 m -18 Y s 1934 493 m -9 Y s 1989 493 m -9 Y s 2044 493 m -9 Y s 2099 493 m -9 Y s 2154 502 m -18 Y s 227 1520 m 1927 X s 227 1501 m 19 Y s 282 1510 m 10 Y s 337 1510 m
 10 Y s 392 1510 m 10 Y s 447 1510 m 10 Y s 502 1501 m 19 Y s 557 1510 m 10 Y s 612 1510 m 10 Y s 667 1510 m 10 Y s 722 1510 m 10 Y s 778 1501 m 19 Y s 833 1510 m 10 Y s 888 1510 m 10 Y s 943 1510 m 10 Y s 998 1510 m 10 Y s 1053 1501 m 19 Y s 1108
 1510 m 10 Y s 1163 1510 m 10 Y s 1218 1510 m 10 Y s 1273 1510 m 10 Y s 1328 1501 m 19 Y s 1383 1510 m 10 Y s 1438 1510 m 10 Y s 1493 1510 m 10 Y s 1549 1510 m 10 Y s 1604 1501 m 19 Y s 1659 1510 m 10 Y s 1714 1510 m 10 Y s 1769 1510 m 10 Y s 1824
 1510 m 10 Y s 1879 1501 m 19 Y s 1934 1510 m 10 Y s 1989 1510 m 10 Y s 2044 1510 m 10 Y s 2099 1510 m 10 Y s 2154 1501 m 19 Y s 227 484 m 1036 Y s 248 665 m -21 X s 237 711 m -10 X s 237 757 m -10 X s 237 802 m -10 X s 248 848 m -21 X s 237 894 m
 -10 X s 237 939 m -10 X s 237 985 m -10 X s 248 1031 m -21 X s 237 1076 m -10 X s 237 1122 m -10 X s 237 1168 m -10 X s 248 1213 m -21 X s 237 1259 m -10 X s 237 1305 m -10 X s 237 1350 m -10 X s 248 1396 m -21 X s 248 665 m -21 X s 237 620 m -10 X
 s 237 574 m -10 X s 237 528 m -10 X s 248 1396 m -21 X s 237 1442 m -10 X s 237 1488 m -10 X s 2154 484 m 1036 Y s 2133 665 m 21 X s 2144 711 m 10 X s 2144 757 m 10 X s 2144 802 m 10 X s 2133 848 m 21 X s 2144 894 m 10 X s 2144 939 m 10 X s 2144 985
 m 10 X s 2133 1031 m 21 X s 2144 1076 m 10 X s 2144 1122 m 10 X s 2144 1168 m 10 X s 2133 1213 m 21 X s 2144 1259 m 10 X s 2144 1305 m 10 X s 2144 1350 m 10 X s 2133 1396 m 21 X s 2133 665 m 21 X s 2144 620 m 10 X s 2144 574 m 10 X s 2144 528 m 10 X
 s 2133 1396 m 21 X s 2144 1442 m 10 X s 2144 1488 m 10 X s
 gsave  2268 1103 0 472 C 1314.45 1423.98 t 0 r /Helvetica findfont 56.3093 sf 0 0 m ( Data) show NC gr  1259 1451 m 10 Y s 1259 1427 m -10 Y s 1259 1439 m20
 gsave  2268 1103 0 472 C 1808.84 1423.98 t 0 r /Helvetica findfont 56.3093 sf 0 0 m (single\255top) show NC gr 
 gsave  2268 1103 0 472 C 1779.24 1423.98 t 0 r /Helvetica-Oblique findfont 56.3093 sf 0 0 m (/) show NC gr 
 gsave  2268 1103 0 472 C 1758.52 1423.98 t 0 r /Helvetica-Oblique findfont 56.3093 sf 0 0 m (t) show NC gr  6 lw 1759 1468 m 20 X s
 gsave  2268 1103 0 472 C 1737.79 1423.98 t 0 r /Helvetica-Oblique findfont 56.3093 sf 0 0 m (t) show NC gr 
 gsave  2268 1103 0 472 C 1720.03 1423.98 t 0 r /Helvetica findfont 56.3093 sf 0 0 m ( ) show NC gr  0.06 0.54 0.06 c 3 lw 1626 1413 m 79 X 52 Y -79 X f 6 lw black
 gsave  2268 1103 0 472 C 1444.71 1349.97 t 0 r /Helvetica findfont 56.3093 sf 0 0 m (+jets) show NC gr 
 gsave  2268 1103 0 472 C 1332.21 1349.97 t 0 r /Helvetica-Oblique findfont 56.3093 sf 0 0 m (W/Z) show NC gr 
 gsave  2268 1103 0 472 C 1314.45 1349.97 t 0 r /Helvetica findfont 56.3093 sf 0 0 m ( ) show NC gr  1 0.653333 0 c 3 lw 1219 1340 m 79 X 51 Y -79 X f black
 gsave  2268 1103 0 472 C 1918.38 1349.97 t 0 r /Helvetica findfont 56.3093 sf 0 0 m (+jets) show NC gr 
 gsave  2268 1103 0 472 C 1737.79 1349.97 t 0 r /Helvetica-Oblique findfont 56.3093 sf 0 0 m (WZ/ZZ) show NC gr 
 gsave  2268 1103 0 472 C 1720.03 1349.97 t 0 r /Helvetica findfont 56.3093 sf 0 0 m ( ) show NC gr  0.413333 1 0 c 3 lw 1626 1340 m 79 X 51 Y -79 X f black
 gsave  2268 1103 0 472 C 1373.66 1275.96 t 0 r /Helvetica-Oblique findfont 56.3093 sf 0 0 m (Z) show NC gr 
 gsave  2268 1103 0 472 C 1352.93 1275.96 t 0 r /Helvetica-Oblique findfont 56.3093 sf 0 0 m (t) show NC gr  6 lw 1353 1320 m 21 X s
 gsave  2268 1103 0 472 C 1332.21 1275.96 t 0 r /Helvetica-Oblique findfont 56.3093 sf 0 0 m (t) show NC gr 
 gsave  2268 1103 0 472 C 1314.45 1275.96 t 0 r /Helvetica findfont 56.3093 sf 0 0 m ( ) show NC gr  0.6 0.2 1 c 3 lw 1219 1266 m 79 X 52 Y -79 X f 6 lw black
 gsave  2268 1103 0 472 C 1779.24 1275.96 t 0 r /Helvetica-Oblique findfont 56.3093 sf 0 0 m (W) show NC gr 
 gsave  2268 1103 0 472 C 1758.52 1275.96 t 0 r /Helvetica-Oblique findfont 56.3093 sf 0 0 m (t) show NC gr  6 lw 1759 1320 m 20 X s
 gsave  2268 1103 0 472 C 1737.79 1275.96 t 0 r /Helvetica-Oblique findfont 56.3093 sf 0 0 m (t) show NC gr 
 gsave  2268 1103 0 472 C 1720.03 1275.96 t 0 r /Helvetica findfont 56.3093 sf 0 0 m ( ) show NC gr  0.54 0.06 0.06 c 3 lw 1626 1266 m 79 X 52 Y -79 X f 6 lw black
 gsave  2268 1103 0 472 C 1332.21 1204.91 t 0 r /Helvetica-Oblique findfont 56.3093 sf 0 0 m (tZq) show NC gr 
 gsave  2268 1103 0 472 C 1314.45 1204.91 t 0 r /Helvetica findfont 56.3093 sf 0 0 m ( ) show NC gr  1 0 1 c 3 lw 1219 1193 m 79 X 51 Y -79 X f black
 gsave  2268 1103 0 472 C 1779.24 1204.91 t 0 r /Helvetica-Oblique findfont 56.3093 sf 0 0 m (H) show NC gr 
 gsave  2268 1103 0 472 C 1758.52 1204.91 t 0 r /Helvetica-Oblique findfont 56.3093 sf 0 0 m (t) show NC gr  6 lw 1759 1249 m 20 X s
 gsave  2268 1103 0 472 C 1737.79 1204.91 t 0 r /Helvetica-Oblique findfont 56.3093 sf 0 0 m (t) show NC gr 
 gsave  2268 1103 0 472 C 1720.03 1204.91 t 0 r /Helvetica findfont 56.3093 sf 0 0 m ( ) show NC gr  0 0 1 c 3 lw 1626 1193 m 79 X 51 Y -79 X f 6 lw black
 gsave  2268 1103 0 472 C 1332.21 1130.9 t 0 r /Helvetica-Oblique findfont 56.3093 sf 0 0 m (tWZ/tWH) show NC gr 
 gsave  2268 1103 0 472 C 1314.45 1130.9 t 0 r /Helvetica findfont 56.3093 sf 0 0 m ( ) show NC gr  0.2 0.8 0.8 c 3 lw 1219 1119 m 79 X 52 Y -79 X f black
 gsave  2268 1103 0 472 C 1737.79 1130.9 t 0 r /Helvetica-Oblique findfont 56.3093 sf 0 0 m (tHq) show NC gr 
 gsave  2268 1103 0 472 C 1720.03 1130.9 t 0 r /Helvetica findfont 56.3093 sf 0 0 m ( ) show NC gr  1 0 0 c 3 lw 1626 1119 m 79 X 52 Y -79 X f black
 gsave  2268 1103 0 472 C 1314.45 1056.89 t 0 r /Helvetica findfont 56.3093 sf 0 0 m ( Other) show NC gr  1 0.84 0 c 3 lw 1219 1046 m 79 X 51 Y -79 X f black
 gsave  2268 1103 0 472 C 1720.03 1056.89 t 0 r /Helvetica findfont 56.3093 sf 0 0 m ( Uncertainty) show NC gr  0.6 0.6 0.6 c 3 lw 1705 1061 m -15 -15 d s 1705 1080 m -34 -34 d s 1703 1097 m -51 -51 d s 1684 1097 m -51 -51 d s 1665 1097 m -39 -39 d s
 1646 1097 m -20 -20 d s 1626 1097 m s 1 0.84 0 c 0.6 0.6 0.6 c black
 gsave  2268 1103 0 472 C 894.061 1329.25 t 0 r /Helvetica findfont 41.4911 sf 0 0 m (\2551) show NC gr 
 gsave  2268 1103 0 472 C 399.663 1299.64 t 0 r /Helvetica findfont 62.2366 sf 0 0 m ( = 13 TeV,  139 fb) show NC gr 
 gsave  2268 1103 0 472 C 370.058 1299.64 t 0 r /Helvetica findfont 62.2366 sf 0 0 m (s) show NC gr  6 lw 349 1335 m 6 -38 d s 3 lw 355 1297 m 6 56 d s 361 1353 m 39 X s
 gsave  2268 1103 0 472 C 337.493 1201.95 t 0 r /Helvetica findfont 62.2366 sf 0 0 m ( 2L\(SS\), SR) show NC gr 
 gsave  2268 1103 0 472 C 337.493 1400.3 t 0 r /Helvetica-BoldOblique findfont 71.1276 sf 0 0 m (ATLAS) show NC gr 
 gsave  2268 1103 0 472 C 633.54 1400.3 t 0 r /Helvetica findfont 71.1276 sf 0 0 m (Internal) show NC gr 
 gr  gr showpage
end
%%EOF
