%!PS-Adobe-2.0 EPSF-2.0
%%BoundingBox:  0 0 567 396
%%Title: : LepPt3_CRttbarMu
%%Creator: ROOT Version 6.20/06
%%CreationDate: Tue May 31 15:03:57 2022
%%DocumentNeededResources: ProcSet (FontSetInit)
%%EndComments
%%BeginProlog
80 dict begin
/s {stroke} def /l {lineto} def /m {moveto} def /t {translate} def
/r {rotate} def /rl {roll}  def /R {repeat} def
/d {rlineto} def /rm {rmoveto} def /gr {grestore} def /f {eofill} def
/c {setrgbcolor} def /black {0 setgray} def /sd {setdash} def
/cl {closepath} def /sf {scalefont setfont} def /lw {setlinewidth} def
/box {m dup 0 exch d exch 0 d 0 exch neg d cl} def
/NC{systemdict begin initclip end}def/C{NC box clip newpath}def
/bl {box s} def /bf {gsave box gsave f grestore 1 lw [] 0 sd s grestore} def /Y { 0 exch d} def /X { 0 d} def 
/K {{pop pop 0 moveto} exch kshow} bind def
/ita {/ang 15 def gsave [1 0 ang dup sin exch cos div 1 0 0] concat} def 
/mp {newpath /y exch def /x exch def} def
/side {[w .77 mul w .23 mul] .385 w mul sd w 0 l currentpoint t -144 r} def
/mr {mp x y w2 0 360 arc} def /m24 {mr s} def /m20 {mr f} def
/mb {mp x y w2 add m w2 neg 0 d 0 w neg d w 0 d 0 w d cl} def
/mt {mp x y w2 add m w2 neg w neg d w 0 d cl} def
/w4 {w 4 div} def
/w6 {w 6 div} def
/w8 {w 8 div} def
/m21 {mb f} def /m25 {mb s} def /m22 {mt f} def /m26{mt s} def
/m23 {mp x y w2 sub m w2 w d w neg 0 d cl f} def
/m27 {mp x y w2 add m w3 neg w2 neg d w3 w2 neg d w3 w2 d cl s} def
/m28 {mp x w2 sub y w2 sub w3 add m w3 0 d  0 w3 neg d w3 0 d 0 w3 d w3 0 d  0 w3 d w3 neg 0 d 0 w3 d w3 neg 0 d 0 w3 neg d w3 neg 0 d cl s } def
/m29 {mp gsave x w2 sub y w2 add w3 sub m currentpoint t 4 {side} repeat cl fill gr} def
/m30 {mp gsave x w2 sub y w2 add w3 sub m currentpoint t 4 {side} repeat cl s gr} def
/m31 {mp x y w2 sub m 0 w d x w2 sub y m w 0 d x w2 sub y w2 add m w w neg d x w2 sub y w2 sub m w w d s} def
/m32 {mp x y w2 sub m w2 w d w neg 0 d cl s} def
/m33 {mp x y w2 add m w3 neg w2 neg d w3 w2 neg d w3 w2 d cl f} def
/m34 {mp x w2 sub y w2 sub w3 add m w3 0 d  0 w3 neg d w3 0 d 0 w3 d w3 0 d  0 w3 d w3 neg 0 d 0 w3 d w3 neg 0 d 0 w3 neg d w3 neg 0 d cl f } def
/m35 {mp x y w2 add m w2 neg w2 neg d w2 w2 neg d w2 w2 d w2 neg w2 d x y w2 sub m 0 w d x w2 sub y m w 0 d s} def
/m36 {mb x w2 sub y w2 add m w w neg d x w2 sub y w2 sub m w w d s} def
/m37 {mp x y m w4 neg w2 d w4 neg w2 neg d w2 0 d  w4 neg w2 neg d w2 0 d w4 neg w2 d w2 0 d w4 neg w2 d w4 neg w2 neg d cl s} def
/m38 {mp x w4 sub y w2 add m w4 neg w4 neg d 0 w2 neg d w4 w4 neg d w2 0 d w4 w4 d 0 w2 d w4 neg w4 d w2 neg 0 d x y w2 sub m 0 w d x w2 sub y m w 0 d cl s} def
/m39 {mp x y m w4 neg w2 d w4 neg w2 neg d w2 0 d  w4 neg w2 neg d w2 0 d w4 neg w2 d w2 0 d w4 neg w2 d w4 neg w2 neg d cl f} def
/m40 {mp x y m w4 w2 d w4 w4 neg d w2 neg w4 neg d w2 w4 neg d w4 neg w4 neg d w4 neg w2 d w4 neg w2 neg d w4 neg w4 d w2 w4 d w2 neg w4 d w4 w4 d w4 w2 neg d cl s} def
/m41 {mp x y m w4 w2 d w4 w4 neg d w2 neg w4 neg d w2 w4 neg d w4 neg w4 neg d w4 neg w2 d w4 neg w2 neg d w4 neg w4 d w2 w4 d w2 neg w4 d w4 w4 d w4 w2 neg d cl f} def
/m42 {mp x y w2 add m w8 neg w2 -3 4 div mul d w2 -3 4 div mul w8 neg d w2 3 4 div mul w8 neg d w8 w2 -3 4 div mul d w8 w2 3 4 div mul d w2 3 4 div mul w8 d w2 -3 4 div mul w8 d w8 neg w2 3 4 div mul d cl s} def
/m43 {mp x y w2 add m w8 neg w2 -3 4 div mul d w2 -3 4 div mul w8 neg d w2 3 4 div mul w8 neg d w8 w2 -3 4 div mul d w8 w2 3 4 div mul d w2 3 4 div mul w8 d w2 -3 4 div mul w8 d w8 neg w2 3 4 div mul d cl f} def
/m44 {mp x y m w6 neg w2 d w2 2 3 div mul 0 d w6 neg w2 neg d w2 w6 d 0 w2 -2 3 div mul d w2 neg w6 d w6 w2 neg d w2 -2 3 div mul 0 d w6 w2 d w2 neg w6 neg d 0 w2 2 3 div mul d w2 w6 neg d cl s} def
/m45 {mp x y m w6 neg w2 d w2 2 3 div mul 0 d w6 neg w2 neg d w2 w6 d 0 w2 -2 3 div mul d w2 neg w6 d w6 w2 neg d w2 -2 3 div mul 0 d w6 w2 d w2 neg w6 neg d 0 w2 2 3 div mul d w2 w6 neg d cl f} def
/m46 {mp x y w4 add m w4 neg w4 d w4 neg w4 neg d  w4 w4 neg d w4 neg w4 neg d w4 w4 neg d w4 w4 d w4 w4 neg d w4 w4 d w4 neg w4 d w4 w4 d w4 neg w4 d w4 neg w4 neg d cl s} def
/m47 {mp x y w4 add m w4 neg w4 d w4 neg w4 neg d w4 w4 neg d w4 neg w4 neg d  w4 w4 neg d w4 w4 d w4 w4 neg d w4 w4 d w4 neg w4 d w4 w4 d w4 neg w4 d w4 neg w4 neg d cl f} def
/m48 {mp x y w4 add m w4 neg w4 d w4 neg w4 neg d w4 w4 neg d  w4 neg w4 neg d w4 w4 neg d w4 w4 d w4 w4 neg d w4 w4 d w4 neg w4 d w4 w4 d w4 neg w4 d w4 neg w4 neg d  w4 w4 neg d w4 neg w4 neg d w4 neg w4 d w4 w4 d cl f} def
/m49 {mp x w2 sub w3 add y w2 sub w3 add m  0 w3 neg d w3 0 d 0 w3 d w3 0 d 0 w3 d w3 neg 0 d 0 w3 d w3 neg 0 d 0 w3 neg d w3 neg 0 d 0 w3 neg d w3 0 d 0 w3 d w3 0 d 0 w3 neg d w3 neg 0 d cl f } def
/m2 {mp x y w2 sub m 0 w d x w2 sub y m w 0 d s} def
/m5 {mp x w2 sub y w2 sub m w w d x w2 sub y w2 add m w w neg d s} def
%%IncludeResource: ProcSet (FontSetInit)
%%IncludeResource: font Times-Roman
%%IncludeResource: font Times-Italic
%%IncludeResource: font Times-Bold
%%IncludeResource: font Times-BoldItalic
%%IncludeResource: font Helvetica
%%IncludeResource: font Helvetica-Oblique
%%IncludeResource: font Helvetica-Bold
%%IncludeResource: font Helvetica-BoldOblique
%%IncludeResource: font Courier
%%IncludeResource: font Courier-Oblique
%%IncludeResource: font Courier-Bold
%%IncludeResource: font Courier-BoldOblique
%%IncludeResource: font Symbol
%%IncludeResource: font ZapfDingbats
/reEncode {exch findfont dup length dict begin {1 index /FID eq  {pop pop} {def} ifelse } forall /Encoding exch def currentdict end dup /FontName get exch definefont pop } def [/Times-Bold /Times-Italic /Times-BoldItalic /Helvetica /Helvetica-Oblique
 /Helvetica-Bold /Helvetica-BoldOblique /Courier /Courier-Oblique /Courier-Bold /Courier-BoldOblique /Times-Roman /AvantGarde-Book /AvantGarde-BookOblique /AvantGarde-Demi /AvantGarde-DemiOblique /Bookman-Demi /Bookman-DemiItalic /Bookman-Light
 /Bookman-LightItalic /Helvetica-Narrow /Helvetica-Narrow-Bold /Helvetica-Narrow-BoldOblique /Helvetica-Narrow-Oblique /NewCenturySchlbk-Roman /NewCenturySchlbk-Bold /NewCenturySchlbk-BoldItalic /NewCenturySchlbk-Italic /Palatino-Bold
 /Palatino-BoldItalic /Palatino-Italic /Palatino-Roman ] {ISOLatin1Encoding reEncode } forall
%%EndProlog
%%BeginSetup
%%EndSetup
newpath  gsave  .25 .25 scale  gsave  0 0 t black[  ] 0 sd 3 lw 1 1 1 c 2268 1583 0 0 bf black 1 1 1 c 2268 475 0 0 bf black 1 1 1 c 1927 275 227 190 bf black 1927 275 227 190 bl 227 190 m 1927 X s 227 202 m -12 Y s 291 196 m -6 Y s 355 196 m -6 Y s
 420 196 m -6 Y s 484 202 m -12 Y s 548 196 m -6 Y s 612 196 m -6 Y s 677 196 m -6 Y s 741 202 m -12 Y s 805 196 m -6 Y s 869 196 m -6 Y s 934 196 m -6 Y s 998 202 m -12 Y s 1062 196 m -6 Y s 1126 196 m -6 Y s 1191 196 m -6 Y s 1255 202 m -12 Y s
 1319 196 m -6 Y s 1383 196 m -6 Y s 1448 196 m -6 Y s 1512 202 m -12 Y s 1576 196 m -6 Y s 1640 196 m -6 Y s 1705 196 m -6 Y s 1769 202 m -12 Y s 1833 196 m -6 Y s 1897 196 m -6 Y s 1962 196 m -6 Y s 2026 202 m -12 Y s 2026 202 m -12 Y s 2090 196 m
 -6 Y s 2154 196 m -6 Y s
 gsave  2268 475 0 0 C 209.646 126.968 t 0 r /Helvetica findfont 53.4154 sf 0 0 m (0) show NC gr 
 gsave  2268 475 0 0 C 451.772 126.968 t 0 r /Helvetica findfont 53.4154 sf 0 0 m (20) show NC gr 
 gsave  2268 475 0 0 C 708.661 126.968 t 0 r /Helvetica findfont 53.4154 sf 0 0 m (40) show NC gr 
 gsave  2268 475 0 0 C 965.551 126.968 t 0 r /Helvetica findfont 53.4154 sf 0 0 m (60) show NC gr 
 gsave  2268 475 0 0 C 1222.44 126.968 t 0 r /Helvetica findfont 53.4154 sf 0 0 m (80) show NC gr 
 gsave  2268 475 0 0 C 1467.52 126.968 t 0 r /Helvetica findfont 53.4154 sf 0 0 m (100) show NC gr 
 gsave  2268 475 0 0 C 1724.41 126.968 t 0 r /Helvetica findfont 53.4154 sf 0 0 m (120) show NC gr 
 gsave  2268 475 0 0 C 1981.3 126.968 t 0 r /Helvetica findfont 53.4154 sf 0 0 m (140) show NC gr 
 gsave  2268 475 0 0 C 1978.35 56.1024 t 0 r /Helvetica findfont 56.3829 sf 0 0 m (\) [GeV]) show NC gr 
 gsave  2268 475 0 0 C 1957.68 23.622 t 0 r /Helvetica findfont 38.5778 sf 0 0 m (3) show NC gr 
 gsave  2268 475 0 0 C 1863.19 56.1024 t 0 r /Helvetica findfont 56.3829 sf 0 0 m (\(lep) show NC gr 
 gsave  2268 475 0 0 C 1839.57 23.622 t 0 r /Helvetica findfont 38.5778 sf 0 0 m (T) show NC gr 
 gsave  2268 475 0 0 C 1804.13 56.1024 t 0 r /Helvetica-Oblique findfont 56.3829 sf 0 0 m (p) show NC gr  227 465 m 1927 X s 227 453 m 12 Y s 291 459 m 6 Y s 355 459 m 6 Y s 420 459 m 6 Y s 484 453 m 12 Y s 548 459 m 6 Y s 612 459 m 6 Y s 677 459 m 6
 Y s 741 453 m 12 Y s 805 459 m 6 Y s 869 459 m 6 Y s 934 459 m 6 Y s 998 453 m 12 Y s 1062 459 m 6 Y s 1126 459 m 6 Y s 1191 459 m 6 Y s 1255 453 m 12 Y s 1319 459 m 6 Y s 1383 459 m 6 Y s 1448 459 m 6 Y s 1512 453 m 12 Y s 1576 459 m 6 Y s 1640 459
 m 6 Y s 1705 459 m 6 Y s 1769 453 m 12 Y s 1833 459 m 6 Y s 1897 459 m 6 Y s 1962 459 m 6 Y s 2026 453 m 12 Y s 2026 453 m 12 Y s 2090 459 m 6 Y s 2154 459 m 6 Y s 227 190 m 275 Y s 240 242 m -13 X s 240 328 m -13 X s 240 414 m -13 X s 240 242 m -13
 X s 240 414 m -13 X s
 gsave  2268 475 0 0 C 118.11 221.457 t 0 r /Helvetica findfont 53.4154 sf 0 0 m (0.5) show NC gr 
 gsave  2268 475 0 0 C 171.26 307.087 t 0 r /Helvetica findfont 53.4154 sf 0 0 m (1) show NC gr 
 gsave  2268 475 0 0 C 118.11 395.669 t 0 r /Helvetica findfont 53.4154 sf 0 0 m (1.5) show NC gr 
 gsave  2268 475 0 0 C 70.8661 233.268 t 90 r /Helvetica findfont 53.4154 sf 0 0 m (Data / SM) show NC gr  2154 190 m 275 Y s 2141 242 m 13 X s 2141 328 m 13 X s 2141 414 m 13 X s 2141 242 m 13 X s 2141 414 m 13 X s 227 190 m 1927 X s 227 465 m 1927
 X s 227 190 m 275 Y s[ 4 8] 0 sd 2154 242 m -1927 X s 2154 328 m -1927 X s 2154 414 m -1927 X s 2154 242 m -1927 X s 2154 414 m -1927 X s[  ] 0 sd 2154 190 m 275 Y s 1 1 0.6 c 193 0 227 328 bf 192 0 420 328 bf 193 0 612 328 bf 193 0 805 328 bf 193 0
 998 328 bf 192 0 1191 328 bf 193 0 1383 328 bf 193 0 1576 328 bf 193 0 1769 328 bf 192 0 1962 328 bf black 0.6 0.6 0.6 c 403 328 m cl s 384 328 m cl s 364 328 m cl s 345 328 m cl s 326 328 m cl s 307 328 m cl s 287 328 m cl s 268 328 m cl s 249 328
 m cl s 230 328 m cl s 595 328 m cl s 576 328 m cl s 557 328 m cl s 538 328 m cl s 518 328 m cl s 499 328 m cl s 480 328 m cl s 461 328 m cl s 441 328 m cl s 422 328 m cl s 788 328 m cl s 769 328 m cl s 749 328 m cl s 730 328 m cl s 711 328 m cl s
 692 328 m cl s 672 328 m cl s 653 328 m cl s 634 328 m cl s 615 328 m cl s 980 328 m cl s 961 328 m cl s 942 328 m cl s 922 328 m cl s 903 328 m cl s 884 328 m cl s 865 328 m cl s 846 328 m cl s 826 328 m cl s 807 328 m cl s 1173 328 m cl s 1153 328
 m cl s 1134 328 m cl s 1115 328 m cl s 1096 328 m cl s 1076 328 m cl s 1057 328 m cl s 1038 328 m cl s 1019 328 m cl s 999 328 m cl s 1365 328 m cl s 1346 328 m cl s 1327 328 m cl s 1307 328 m cl s 1288 328 m cl s 1269 328 m cl s 1250 328 m cl s
 1230 328 m cl s 1211 328 m cl s 1192 328 m cl s 1557 328 m cl s 1538 328 m cl s 1519 328 m cl s 1500 328 m cl s 1481 328 m cl s 1461 328 m cl s 1442 328 m cl s 1423 328 m cl s 1404 328 m cl s 1384 328 m cl s 1750 328 m cl s 1731 328 m cl s 1711 328
 m cl s 1692 328 m cl s 1673 328 m cl s 1654 328 m cl s 1634 328 m cl s 1615 328 m cl s 1596 328 m cl s 1577 328 m cl s 1962 328 m cl s 1942 328 m cl s 1923 328 m cl s 1904 328 m cl s 1885 328 m cl s 1865 328 m cl s 1846 328 m cl s 1827 328 m cl s
 1808 328 m cl s 1788 328 m cl s 1769 328 m cl s 2154 328 m cl s 2135 328 m cl s 2116 328 m cl s 2096 328 m cl s 2077 328 m cl s 2058 328 m cl s 2039 328 m cl s 2019 328 m cl s 2000 328 m cl s 1981 328 m cl s black 1 1 1 c black 323 318 m 3 Y s 323
 345 m 3 Y s /w 26 def /w2 {w 2 div} def /w3 {w 3 div} def 323 333 m20 227 328 m 1927 X s 227 190 m 1927 X s 227 202 m -12 Y s 291 196 m -6 Y s 355 196 m -6 Y s 420 196 m -6 Y s 484 202 m -12 Y s 548 196 m -6 Y s 612 196 m -6 Y s 677 196 m -6 Y s 741
 202 m -12 Y s 805 196 m -6 Y s 869 196 m -6 Y s 934 196 m -6 Y s 998 202 m -12 Y s 1062 196 m -6 Y s 1126 196 m -6 Y s 1191 196 m -6 Y s 1255 202 m -12 Y s 1319 196 m -6 Y s 1383 196 m -6 Y s 1448 196 m -6 Y s 1512 202 m -12 Y s 1576 196 m -6 Y s
 1640 196 m -6 Y s 1705 196 m -6 Y s 1769 202 m -12 Y s 1833 196 m -6 Y s 1897 196 m -6 Y s 1962 196 m -6 Y s 2026 202 m -12 Y s 2026 202 m -12 Y s 2090 196 m -6 Y s 2154 196 m -6 Y s 227 465 m 1927 X s 227 453 m 12 Y s 291 459 m 6 Y s 355 459 m 6 Y
 s 420 459 m 6 Y s 484 453 m 12 Y s 548 459 m 6 Y s 612 459 m 6 Y s 677 459 m 6 Y s 741 453 m 12 Y s 805 459 m 6 Y s 869 459 m 6 Y s 934 459 m 6 Y s 998 453 m 12 Y s 1062 459 m 6 Y s 1126 459 m 6 Y s 1191 459 m 6 Y s 1255 453 m 12 Y s 1319 459 m 6 Y
 s 1383 459 m 6 Y s 1448 459 m 6 Y s 1512 453 m 12 Y s 1576 459 m 6 Y s 1640 459 m 6 Y s 1705 459 m 6 Y s 1769 453 m 12 Y s 1833 459 m 6 Y s 1897 459 m 6 Y s 1962 459 m 6 Y s 2026 453 m 12 Y s 2026 453 m 12 Y s 2090 459 m 6 Y s 2154 459 m 6 Y s 227
 190 m 275 Y s 240 242 m -13 X s 240 328 m -13 X s 240 414 m -13 X s 240 242 m -13 X s 240 414 m -13 X s 2154 190 m 275 Y s 2141 242 m 13 X s 2141 328 m 13 X s 2141 414 m 13 X s 2141 242 m 13 X s 2141 414 m 13 X s 1 1 1 c 2268 1108 0 475 bf black 1 1
 1 c 1927 1041 227 486 bf black 1927 1041 227 486 bl 1 1 1 c black 3 lw 227 486 m 1927 X s 227 505 m -19 Y s 291 495 m -9 Y s 355 495 m -9 Y s 420 495 m -9 Y s 484 505 m -19 Y s 548 495 m -9 Y s 612 495 m -9 Y s 677 495 m -9 Y s 741 505 m -19 Y s 805
 495 m -9 Y s 869 495 m -9 Y s 934 495 m -9 Y s 998 505 m -19 Y s 1062 495 m -9 Y s 1126 495 m -9 Y s 1191 495 m -9 Y s 1255 505 m -19 Y s 1319 495 m -9 Y s 1383 495 m -9 Y s 1448 495 m -9 Y s 1512 505 m -19 Y s 1576 495 m -9 Y s 1640 495 m -9 Y s
 1705 495 m -9 Y s 1769 505 m -19 Y s 1833 495 m -9 Y s 1897 495 m -9 Y s 1962 495 m -9 Y s 2026 505 m -19 Y s 2026 505 m -19 Y s 2090 495 m -9 Y s 2154 495 m -9 Y s
 gsave  2268 1108 0 475 C 2049.21 407.48 t 0 r /Helvetica findfont 32.4976 sf 0 0 m (\) [GeV]) show NC gr 
 gsave  2268 1108 0 475 C 2037.4 389.764 t 0 r /Helvetica findfont 20.6803 sf 0 0 m (3) show NC gr 
 gsave  2268 1108 0 475 C 1981.3 407.48 t 0 r /Helvetica findfont 32.4976 sf 0 0 m (\(lep) show NC gr 
 gsave  2268 1108 0 475 C 1966.54 389.764 t 0 r /Helvetica findfont 20.6803 sf 0 0 m (T) show NC gr 
 gsave  2268 1108 0 475 C 1945.87 407.48 t 0 r /Helvetica-Oblique findfont 32.4976 sf 0 0 m (p) show NC gr  227 1527 m 1927 X s 227 1508 m 19 Y s 291 1518 m 9 Y s 355 1518 m 9 Y s 420 1518 m 9 Y s 484 1508 m 19 Y s 548 1518 m 9 Y s 612 1518 m 9 Y s
 677 1518 m 9 Y s 741 1508 m 19 Y s 805 1518 m 9 Y s 869 1518 m 9 Y s 934 1518 m 9 Y s 998 1508 m 19 Y s 1062 1518 m 9 Y s 1126 1518 m 9 Y s 1191 1518 m 9 Y s 1255 1508 m 19 Y s 1319 1518 m 9 Y s 1383 1518 m 9 Y s 1448 1518 m 9 Y s 1512 1508 m 19 Y s
 1576 1518 m 9 Y s 1640 1518 m 9 Y s 1705 1518 m 9 Y s 1769 1508 m 19 Y s 1833 1518 m 9 Y s 1897 1518 m 9 Y s 1962 1518 m 9 Y s 2026 1508 m 19 Y s 2026 1508 m 19 Y s 2090 1518 m 9 Y s 2154 1518 m 9 Y s 227 486 m 1041 Y s 248 684 m -21 X s 237 723 m
 -10 X s 237 763 m -10 X s 237 802 m -10 X s 237 842 m -10 X s 248 881 m -21 X s 237 921 m -10 X s 237 961 m -10 X s 237 1000 m -10 X s 237 1040 m -10 X s 248 1079 m -21 X s 237 1119 m -10 X s 237 1158 m -10 X s 237 1198 m -10 X s 237 1238 m -10 X s
 248 1277 m -21 X s 237 1317 m -10 X s 237 1356 m -10 X s 237 1396 m -10 X s 237 1435 m -10 X s 248 1475 m -21 X s 248 684 m -21 X s 237 644 m -10 X s 237 605 m -10 X s 237 565 m -10 X s 237 525 m -10 X s 248 1475 m -21 X s 237 1514 m -10 X s
 gsave  2268 1108 0 475 C 141.732 664.37 t 0 r /Helvetica findfont 53.178 sf 0 0 m (50) show NC gr 
 gsave  2268 1108 0 475 C 112.205 862.205 t 0 r /Helvetica findfont 53.178 sf 0 0 m (100) show NC gr 
 gsave  2268 1108 0 475 C 112.205 1060.04 t 0 r /Helvetica findfont 53.178 sf 0 0 m (150) show NC gr 
 gsave  2268 1108 0 475 C 112.205 1257.87 t 0 r /Helvetica findfont 53.178 sf 0 0 m (200) show NC gr 
 gsave  2268 1108 0 475 C 112.205 1455.71 t 0 r /Helvetica findfont 53.178 sf 0 0 m (250) show NC gr 
 gsave  2268 1108 0 475 C 64.9606 1142.72 t 90 r /Helvetica findfont 53.178 sf 0 0 m (Events / 15 GeV) show NC gr  2154 486 m 1041 Y s 2133 684 m 21 X s 2144 723 m 10 X s 2144 763 m 10 X s 2144 802 m 10 X s 2144 842 m 10 X s 2133 881 m 21 X s 2144
 921 m 10 X s 2144 961 m 10 X s 2144 1000 m 10 X s 2144 1040 m 10 X s 2133 1079 m 21 X s 2144 1119 m 10 X s 2144 1158 m 10 X s 2144 1198 m 10 X s 2144 1238 m 10 X s 2133 1277 m 21 X s 2144 1317 m 10 X s 2144 1356 m 10 X s 2144 1396 m 10 X s 2144 1435
 m 10 X s 2133 1475 m 21 X s 2133 684 m 21 X s 2144 644 m 10 X s 2144 605 m 10 X s 2144 565 m 10 X s 2144 525 m 10 X s 2133 1475 m 21 X s 2144 1514 m 10 X s 0.06 0.54 0.06 c black 3 lw 0.06 0.54 0.06 c 227 486 m 548 Y 193 X -548 Y 1734 X f 1 0.653333
 0 c 0.999 0.999 0.999 c black 3 lw 0.999 0.999 0.999 c 227 486 m 251 Y 193 X -251 Y 1734 X f 1 0.653333 0 c 0.999 0.999 0.999 c 1 0.653333 0 c 1 1 1 c black 1 0.653333 0 c black 3 lw 1 0.653333 0 c 227 486 m 251 Y 193 X -251 Y 1734 X f 0.413333 1 0
 c 0.999 0.999 0.999 c black 3 lw 0.999 0.999 0.999 c 227 486 m 240 Y 193 X -240 Y 1734 X f 0.413333 1 0 c 0.999 0.999 0.999 c 0.413333 1 0 c 1 1 1 c black 0.413333 1 0 c black 3 lw 0.413333 1 0 c 227 486 m 240 Y 193 X -240 Y 1734 X f 0.6 0.2 1 c
 0.999 0.999 0.999 c black 3 lw 0.999 0.999 0.999 c 227 486 m 203 Y 193 X -203 Y 1734 X f 0.6 0.2 1 c 0.999 0.999 0.999 c 0.6 0.2 1 c 1 1 1 c black 0.6 0.2 1 c black 3 lw 0.6 0.2 1 c 227 486 m 203 Y 193 X -203 Y 1734 X f 0.54 0.06 0.06 c 0.999 0.999
 0.999 c black 3 lw 0.999 0.999 0.999 c 227 486 m 172 Y 193 X -172 Y 1734 X f 0.54 0.06 0.06 c 0.999 0.999 0.999 c 0.54 0.06 0.06 c 1 1 1 c black 0.54 0.06 0.06 c black 3 lw 0.54 0.06 0.06 c 227 486 m 172 Y 193 X -172 Y 1734 X f 1 0 1 c 0.999 0.999
 0.999 c black 3 lw 0.999 0.999 0.999 c 227 486 m 48 Y 193 X -48 Y 1734 X f 1 0 1 c 0.999 0.999 0.999 c 1 0 1 c 1 1 1 c black 1 0 1 c black 3 lw 1 0 1 c 227 486 m 48 Y 193 X -48 Y 1734 X f 0 0 1 c 0.999 0.999 0.999 c black 3 lw 0.999 0.999 0.999 c
 227 486 m 33 Y 193 X -33 Y 1734 X f 0 0 1 c 0.999 0.999 0.999 c 0 0 1 c 1 1 1 c black 0 0 1 c black 3 lw 0 0 1 c 227 486 m 33 Y 193 X -33 Y 1734 X f 0.2 0.8 0.8 c 0.999 0.999 0.999 c black 3 lw 0.999 0.999 0.999 c 227 486 m 6 Y 193 X -6 Y 1734 X f
 0.2 0.8 0.8 c 0.999 0.999 0.999 c 0.2 0.8 0.8 c 1 1 1 c black 0.2 0.8 0.8 c black 3 lw 0.2 0.8 0.8 c 227 486 m 6 Y 193 X -6 Y 1734 X f 1 0 0 c 0.999 0.999 0.999 c black 3 lw 0.999 0.999 0.999 c 227 486 m 3 Y 193 X -3 Y 1734 X f 1 0 0 c 0.999 0.999
 0.999 c 1 0 0 c 1 1 1 c black 1 0 0 c black 3 lw 1 0 0 c 227 486 m 3 Y 193 X -3 Y 1734 X f 1 0.84 0 c 0.999 0.999 0.999 c black 3 lw 0.999 0.999 0.999 c 227 486 m 1927 X f 1 0.84 0 c 0.999 0.999 0.999 c 1 0.84 0 c 1 1 1 c black 1 0.84 0 c black 3 lw
 1 0.84 0 c 227 486 m 1927 X f black 1 1 1 c black 0.6 0.6 0.6 c 3 lw 406 1034 m cl s 387 1034 m cl s 368 1034 m cl s 349 1034 m cl s 329 1034 m cl s 310 1034 m cl s 291 1034 m cl s 272 1034 m cl s 252 1034 m cl s 233 1034 m cl s black 3 lw 1 1 1 c
 black 323 1004 m 36 Y s 323 1063 m 36 Y s /w 24 def /w2 {w 2 div} def /w3 {w 3 div} def 323 1052 m20 227 486 m 1927 X s 227 505 m -19 Y s 291 495 m -9 Y s 355 495 m -9 Y s 420 495 m -9 Y s 484 505 m -19 Y s 548 495 m -9 Y s 612 495 m -9 Y s 677 495
 m -9 Y s 741 505 m -19 Y s 805 495 m -9 Y s 869 495 m -9 Y s 934 495 m -9 Y s 998 505 m -19 Y s 1062 495 m -9 Y s 1126 495 m -9 Y s 1191 495 m -9 Y s 1255 505 m -19 Y s 1319 495 m -9 Y s 1383 495 m -9 Y s 1448 495 m -9 Y s 1512 505 m -19 Y s 1576
 495 m -9 Y s 1640 495 m -9 Y s 1705 495 m -9 Y s 1769 505 m -19 Y s 1833 495 m -9 Y s 1897 495 m -9 Y s 1962 495 m -9 Y s 2026 505 m -19 Y s 2026 505 m -19 Y s 2090 495 m -9 Y s 2154 495 m -9 Y s 227 1527 m 1927 X s 227 1508 m 19 Y s 291 1518 m 9 Y
 s 355 1518 m 9 Y s 420 1518 m 9 Y s 484 1508 m 19 Y s 548 1518 m 9 Y s 612 1518 m 9 Y s 677 1518 m 9 Y s 741 1508 m 19 Y s 805 1518 m 9 Y s 869 1518 m 9 Y s 934 1518 m 9 Y s 998 1508 m 19 Y s 1062 1518 m 9 Y s 1126 1518 m 9 Y s 1191 1518 m 9 Y s
 1255 1508 m 19 Y s 1319 1518 m 9 Y s 1383 1518 m 9 Y s 1448 1518 m 9 Y s 1512 1508 m 19 Y s 1576 1518 m 9 Y s 1640 1518 m 9 Y s 1705 1518 m 9 Y s 1769 1508 m 19 Y s 1833 1518 m 9 Y s 1897 1518 m 9 Y s 1962 1518 m 9 Y s 2026 1508 m 19 Y s 2026 1508 m
 19 Y s 2090 1518 m 9 Y s 2154 1518 m 9 Y s 227 486 m 1041 Y s 248 684 m -21 X s 237 723 m -10 X s 237 763 m -10 X s 237 802 m -10 X s 237 842 m -10 X s 248 881 m -21 X s 237 921 m -10 X s 237 961 m -10 X s 237 1000 m -10 X s 237 1040 m -10 X s 248
 1079 m -21 X s 237 1119 m -10 X s 237 1158 m -10 X s 237 1198 m -10 X s 237 1238 m -10 X s 248 1277 m -21 X s 237 1317 m -10 X s 237 1356 m -10 X s 237 1396 m -10 X s 237 1435 m -10 X s 248 1475 m -21 X s 248 684 m -21 X s 237 644 m -10 X s 237 605
 m -10 X s 237 565 m -10 X s 237 525 m -10 X s 248 1475 m -21 X s 237 1514 m -10 X s 2154 486 m 1041 Y s 2133 684 m 21 X s 2144 723 m 10 X s 2144 763 m 10 X s 2144 802 m 10 X s 2144 842 m 10 X s 2133 881 m 21 X s 2144 921 m 10 X s 2144 961 m 10 X s
 2144 1000 m 10 X s 2144 1040 m 10 X s 2133 1079 m 21 X s 2144 1119 m 10 X s 2144 1158 m 10 X s 2144 1198 m 10 X s 2144 1238 m 10 X s 2133 1277 m 21 X s 2144 1317 m 10 X s 2144 1356 m 10 X s 2144 1396 m 10 X s 2144 1435 m 10 X s 2133 1475 m 21 X s
 2133 684 m 21 X s 2144 644 m 10 X s 2144 605 m 10 X s 2144 565 m 10 X s 2144 525 m 10 X s 2133 1475 m 21 X s 2144 1514 m 10 X s
 gsave  2268 1108 0 475 C 1313.98 1432.09 t 0 r /Helvetica findfont 56.1323 sf 0 0 m ( Data) show NC gr  1259 1458 m 10 Y s 1259 1434 m -10 Y s 1259 1446 m20
 gsave  2268 1108 0 475 C 1810.04 1432.09 t 0 r /Helvetica findfont 56.1323 sf 0 0 m (single\255top) show NC gr 
 gsave  2268 1108 0 475 C 1780.51 1432.09 t 0 r /Helvetica-Oblique findfont 56.1323 sf 0 0 m (/) show NC gr 
 gsave  2268 1108 0 475 C 1759.84 1432.09 t 0 r /Helvetica-Oblique findfont 56.1323 sf 0 0 m (t) show NC gr  6 lw 1760 1476 m 21 X s
 gsave  2268 1108 0 475 C 1739.17 1432.09 t 0 r /Helvetica-Oblique findfont 56.1323 sf 0 0 m (t) show NC gr 
 gsave  2268 1108 0 475 C 1721.46 1432.09 t 0 r /Helvetica findfont 56.1323 sf 0 0 m ( ) show NC gr  0.06 0.54 0.06 c 3 lw 1626 1420 m 79 X 52 Y -79 X f 6 lw black
 gsave  2268 1108 0 475 C 1443.9 1358.27 t 0 r /Helvetica findfont 56.1323 sf 0 0 m (+jets) show NC gr 
 gsave  2268 1108 0 475 C 1331.69 1358.27 t 0 r /Helvetica-Oblique findfont 56.1323 sf 0 0 m (W/Z) show NC gr 
 gsave  2268 1108 0 475 C 1313.98 1358.27 t 0 r /Helvetica findfont 56.1323 sf 0 0 m ( ) show NC gr  1 0.653333 0 c 3 lw 1219 1346 m 79 X 52 Y -79 X f black
 gsave  2268 1108 0 475 C 1919.29 1358.27 t 0 r /Helvetica findfont 56.1323 sf 0 0 m (+jets) show NC gr 
 gsave  2268 1108 0 475 C 1739.17 1358.27 t 0 r /Helvetica-Oblique findfont 56.1323 sf 0 0 m (WZ/ZZ) show NC gr 
 gsave  2268 1108 0 475 C 1721.46 1358.27 t 0 r /Helvetica findfont 56.1323 sf 0 0 m ( ) show NC gr  0.413333 1 0 c 3 lw 1626 1346 m 79 X 52 Y -79 X f black
 gsave  2268 1108 0 475 C 1373.03 1284.45 t 0 r /Helvetica-Oblique findfont 56.1323 sf 0 0 m (Z) show NC gr 
 gsave  2268 1108 0 475 C 1352.36 1284.45 t 0 r /Helvetica-Oblique findfont 56.1323 sf 0 0 m (t) show NC gr  6 lw 1352 1329 m 21 X s
 gsave  2268 1108 0 475 C 1331.69 1284.45 t 0 r /Helvetica-Oblique findfont 56.1323 sf 0 0 m (t) show NC gr 
 gsave  2268 1108 0 475 C 1313.98 1284.45 t 0 r /Helvetica findfont 56.1323 sf 0 0 m ( ) show NC gr  0.6 0.2 1 c 3 lw 1219 1272 m 79 X 52 Y -79 X f 6 lw black
 gsave  2268 1108 0 475 C 1780.51 1284.45 t 0 r /Helvetica-Oblique findfont 56.1323 sf 0 0 m (W) show NC gr 
 gsave  2268 1108 0 475 C 1759.84 1284.45 t 0 r /Helvetica-Oblique findfont 56.1323 sf 0 0 m (t) show NC gr  6 lw 1760 1329 m 21 X s
 gsave  2268 1108 0 475 C 1739.17 1284.45 t 0 r /Helvetica-Oblique findfont 56.1323 sf 0 0 m (t) show NC gr 
 gsave  2268 1108 0 475 C 1721.46 1284.45 t 0 r /Helvetica findfont 56.1323 sf 0 0 m ( ) show NC gr  0.54 0.06 0.06 c 3 lw 1626 1272 m 79 X 52 Y -79 X f 6 lw black
 gsave  2268 1108 0 475 C 1331.69 1210.63 t 0 r /Helvetica-Oblique findfont 56.1323 sf 0 0 m (tZq) show NC gr 
 gsave  2268 1108 0 475 C 1313.98 1210.63 t 0 r /Helvetica findfont 56.1323 sf 0 0 m ( ) show NC gr  1 0 1 c 3 lw 1219 1199 m 79 X 51 Y -79 X f black
 gsave  2268 1108 0 475 C 1780.51 1210.63 t 0 r /Helvetica-Oblique findfont 56.1323 sf 0 0 m (H) show NC gr 
 gsave  2268 1108 0 475 C 1759.84 1210.63 t 0 r /Helvetica-Oblique findfont 56.1323 sf 0 0 m (t) show NC gr  6 lw 1760 1255 m 21 X s
 gsave  2268 1108 0 475 C 1739.17 1210.63 t 0 r /Helvetica-Oblique findfont 56.1323 sf 0 0 m (t) show NC gr 
 gsave  2268 1108 0 475 C 1721.46 1210.63 t 0 r /Helvetica findfont 56.1323 sf 0 0 m ( ) show NC gr  0 0 1 c 3 lw 1626 1199 m 79 X 51 Y -79 X f 6 lw black
 gsave  2268 1108 0 475 C 1331.69 1136.81 t 0 r /Helvetica-Oblique findfont 56.1323 sf 0 0 m (tWZ/tWH) show NC gr 
 gsave  2268 1108 0 475 C 1313.98 1136.81 t 0 r /Helvetica findfont 56.1323 sf 0 0 m ( ) show NC gr  0.2 0.8 0.8 c 3 lw 1219 1125 m 79 X 51 Y -79 X f black
 gsave  2268 1108 0 475 C 1739.17 1136.81 t 0 r /Helvetica-Oblique findfont 56.1323 sf 0 0 m (tHq) show NC gr 
 gsave  2268 1108 0 475 C 1721.46 1136.81 t 0 r /Helvetica findfont 56.1323 sf 0 0 m ( ) show NC gr  1 0 0 c 3 lw 1626 1125 m 79 X 51 Y -79 X f black
 gsave  2268 1108 0 475 C 1313.98 1062.99 t 0 r /Helvetica findfont 56.1323 sf 0 0 m ( Other) show NC gr  1 0.84 0 c 3 lw 1219 1051 m 79 X 52 Y -79 X f black
 gsave  2268 1108 0 475 C 1721.46 1062.99 t 0 r /Helvetica findfont 56.1323 sf 0 0 m ( Uncertainty) show NC gr  0.6 0.6 0.6 c 3 lw 1705 1063 m -12 -12 d s 1705 1082 m -31 -31 d s 1705 1101 m -50 -50 d s 1687 1103 m -51 -52 d s 1668 1103 m -42 -43 d s
 1649 1103 m -23 -24 d s 1630 1103 m -4 -4 d s 1 0.84 0 c 0.6 0.6 0.6 c black
 gsave  2268 1108 0 475 C 894.685 1337.6 t 0 r /Helvetica findfont 41.3606 sf 0 0 m (\2551) show NC gr 
 gsave  2268 1108 0 475 C 401.575 1308.07 t 0 r /Helvetica findfont 62.0409 sf 0 0 m ( = 13 TeV,  139 fb) show NC gr 
 gsave  2268 1108 0 475 C 372.047 1308.07 t 0 r /Helvetica findfont 62.0409 sf 0 0 m (s) show NC gr  6 lw 351 1344 m 6 -39 d s 3 lw 357 1305 m 9 56 d s 366 1361 m 36 X s
 gsave  2268 1108 0 475 C 832.677 1207.68 t 0 r /Helvetica findfont 62.0409 sf 0 0 m (\)) show NC gr 
 gsave  2268 1108 0 475 C 776.575 1175.2 t 0 r /Helvetica findfont 41.3606 sf 0 0 m (HF) show NC gr 
 gsave  2268 1108 0 475 C 339.567 1207.68 t 0 r /Helvetica findfont 62.0409 sf 0 0 m ( 2L\(SS\), CR\(mu) show NC gr 
 gsave  2268 1108 0 475 C 339.567 1405.51 t 0 r /Helvetica-BoldOblique findfont 73.8583 sf 0 0 m (ATLAS) show NC gr 
 gsave  2268 1108 0 475 C 634.843 1405.51 t 0 r /Helvetica findfont 73.8583 sf 0 0 m (Internal) show NC gr 
 gr  gr showpage
end
%%EOF
