%!PS-Adobe-2.0 EPSF-2.0
%%BoundingBox:  0 0 567 396
%%Title: : LepPt2_CRttbarMu
%%Creator: ROOT Version 6.20/06
%%CreationDate: Tue May 31 15:03:57 2022
%%DocumentNeededResources: ProcSet (FontSetInit)
%%EndComments
%%BeginProlog
80 dict begin
/s {stroke} def /l {lineto} def /m {moveto} def /t {translate} def
/r {rotate} def /rl {roll}  def /R {repeat} def
/d {rlineto} def /rm {rmoveto} def /gr {grestore} def /f {eofill} def
/c {setrgbcolor} def /black {0 setgray} def /sd {setdash} def
/cl {closepath} def /sf {scalefont setfont} def /lw {setlinewidth} def
/box {m dup 0 exch d exch 0 d 0 exch neg d cl} def
/NC{systemdict begin initclip end}def/C{NC box clip newpath}def
/bl {box s} def /bf {gsave box gsave f grestore 1 lw [] 0 sd s grestore} def /Y { 0 exch d} def /X { 0 d} def 
/K {{pop pop 0 moveto} exch kshow} bind def
/ita {/ang 15 def gsave [1 0 ang dup sin exch cos div 1 0 0] concat} def 
/mp {newpath /y exch def /x exch def} def
/side {[w .77 mul w .23 mul] .385 w mul sd w 0 l currentpoint t -144 r} def
/mr {mp x y w2 0 360 arc} def /m24 {mr s} def /m20 {mr f} def
/mb {mp x y w2 add m w2 neg 0 d 0 w neg d w 0 d 0 w d cl} def
/mt {mp x y w2 add m w2 neg w neg d w 0 d cl} def
/w4 {w 4 div} def
/w6 {w 6 div} def
/w8 {w 8 div} def
/m21 {mb f} def /m25 {mb s} def /m22 {mt f} def /m26{mt s} def
/m23 {mp x y w2 sub m w2 w d w neg 0 d cl f} def
/m27 {mp x y w2 add m w3 neg w2 neg d w3 w2 neg d w3 w2 d cl s} def
/m28 {mp x w2 sub y w2 sub w3 add m w3 0 d  0 w3 neg d w3 0 d 0 w3 d w3 0 d  0 w3 d w3 neg 0 d 0 w3 d w3 neg 0 d 0 w3 neg d w3 neg 0 d cl s } def
/m29 {mp gsave x w2 sub y w2 add w3 sub m currentpoint t 4 {side} repeat cl fill gr} def
/m30 {mp gsave x w2 sub y w2 add w3 sub m currentpoint t 4 {side} repeat cl s gr} def
/m31 {mp x y w2 sub m 0 w d x w2 sub y m w 0 d x w2 sub y w2 add m w w neg d x w2 sub y w2 sub m w w d s} def
/m32 {mp x y w2 sub m w2 w d w neg 0 d cl s} def
/m33 {mp x y w2 add m w3 neg w2 neg d w3 w2 neg d w3 w2 d cl f} def
/m34 {mp x w2 sub y w2 sub w3 add m w3 0 d  0 w3 neg d w3 0 d 0 w3 d w3 0 d  0 w3 d w3 neg 0 d 0 w3 d w3 neg 0 d 0 w3 neg d w3 neg 0 d cl f } def
/m35 {mp x y w2 add m w2 neg w2 neg d w2 w2 neg d w2 w2 d w2 neg w2 d x y w2 sub m 0 w d x w2 sub y m w 0 d s} def
/m36 {mb x w2 sub y w2 add m w w neg d x w2 sub y w2 sub m w w d s} def
/m37 {mp x y m w4 neg w2 d w4 neg w2 neg d w2 0 d  w4 neg w2 neg d w2 0 d w4 neg w2 d w2 0 d w4 neg w2 d w4 neg w2 neg d cl s} def
/m38 {mp x w4 sub y w2 add m w4 neg w4 neg d 0 w2 neg d w4 w4 neg d w2 0 d w4 w4 d 0 w2 d w4 neg w4 d w2 neg 0 d x y w2 sub m 0 w d x w2 sub y m w 0 d cl s} def
/m39 {mp x y m w4 neg w2 d w4 neg w2 neg d w2 0 d  w4 neg w2 neg d w2 0 d w4 neg w2 d w2 0 d w4 neg w2 d w4 neg w2 neg d cl f} def
/m40 {mp x y m w4 w2 d w4 w4 neg d w2 neg w4 neg d w2 w4 neg d w4 neg w4 neg d w4 neg w2 d w4 neg w2 neg d w4 neg w4 d w2 w4 d w2 neg w4 d w4 w4 d w4 w2 neg d cl s} def
/m41 {mp x y m w4 w2 d w4 w4 neg d w2 neg w4 neg d w2 w4 neg d w4 neg w4 neg d w4 neg w2 d w4 neg w2 neg d w4 neg w4 d w2 w4 d w2 neg w4 d w4 w4 d w4 w2 neg d cl f} def
/m42 {mp x y w2 add m w8 neg w2 -3 4 div mul d w2 -3 4 div mul w8 neg d w2 3 4 div mul w8 neg d w8 w2 -3 4 div mul d w8 w2 3 4 div mul d w2 3 4 div mul w8 d w2 -3 4 div mul w8 d w8 neg w2 3 4 div mul d cl s} def
/m43 {mp x y w2 add m w8 neg w2 -3 4 div mul d w2 -3 4 div mul w8 neg d w2 3 4 div mul w8 neg d w8 w2 -3 4 div mul d w8 w2 3 4 div mul d w2 3 4 div mul w8 d w2 -3 4 div mul w8 d w8 neg w2 3 4 div mul d cl f} def
/m44 {mp x y m w6 neg w2 d w2 2 3 div mul 0 d w6 neg w2 neg d w2 w6 d 0 w2 -2 3 div mul d w2 neg w6 d w6 w2 neg d w2 -2 3 div mul 0 d w6 w2 d w2 neg w6 neg d 0 w2 2 3 div mul d w2 w6 neg d cl s} def
/m45 {mp x y m w6 neg w2 d w2 2 3 div mul 0 d w6 neg w2 neg d w2 w6 d 0 w2 -2 3 div mul d w2 neg w6 d w6 w2 neg d w2 -2 3 div mul 0 d w6 w2 d w2 neg w6 neg d 0 w2 2 3 div mul d w2 w6 neg d cl f} def
/m46 {mp x y w4 add m w4 neg w4 d w4 neg w4 neg d  w4 w4 neg d w4 neg w4 neg d w4 w4 neg d w4 w4 d w4 w4 neg d w4 w4 d w4 neg w4 d w4 w4 d w4 neg w4 d w4 neg w4 neg d cl s} def
/m47 {mp x y w4 add m w4 neg w4 d w4 neg w4 neg d w4 w4 neg d w4 neg w4 neg d  w4 w4 neg d w4 w4 d w4 w4 neg d w4 w4 d w4 neg w4 d w4 w4 d w4 neg w4 d w4 neg w4 neg d cl f} def
/m48 {mp x y w4 add m w4 neg w4 d w4 neg w4 neg d w4 w4 neg d  w4 neg w4 neg d w4 w4 neg d w4 w4 d w4 w4 neg d w4 w4 d w4 neg w4 d w4 w4 d w4 neg w4 d w4 neg w4 neg d  w4 w4 neg d w4 neg w4 neg d w4 neg w4 d w4 w4 d cl f} def
/m49 {mp x w2 sub w3 add y w2 sub w3 add m  0 w3 neg d w3 0 d 0 w3 d w3 0 d 0 w3 d w3 neg 0 d 0 w3 d w3 neg 0 d 0 w3 neg d w3 neg 0 d 0 w3 neg d w3 0 d 0 w3 d w3 0 d 0 w3 neg d w3 neg 0 d cl f } def
/m2 {mp x y w2 sub m 0 w d x w2 sub y m w 0 d s} def
/m5 {mp x w2 sub y w2 sub m w w d x w2 sub y w2 add m w w neg d s} def
%%IncludeResource: ProcSet (FontSetInit)
%%IncludeResource: font Times-Roman
%%IncludeResource: font Times-Italic
%%IncludeResource: font Times-Bold
%%IncludeResource: font Times-BoldItalic
%%IncludeResource: font Helvetica
%%IncludeResource: font Helvetica-Oblique
%%IncludeResource: font Helvetica-Bold
%%IncludeResource: font Helvetica-BoldOblique
%%IncludeResource: font Courier
%%IncludeResource: font Courier-Oblique
%%IncludeResource: font Courier-Bold
%%IncludeResource: font Courier-BoldOblique
%%IncludeResource: font Symbol
%%IncludeResource: font ZapfDingbats
/reEncode {exch findfont dup length dict begin {1 index /FID eq  {pop pop} {def} ifelse } forall /Encoding exch def currentdict end dup /FontName get exch definefont pop } def [/Times-Bold /Times-Italic /Times-BoldItalic /Helvetica /Helvetica-Oblique
 /Helvetica-Bold /Helvetica-BoldOblique /Courier /Courier-Oblique /Courier-Bold /Courier-BoldOblique /Times-Roman /AvantGarde-Book /AvantGarde-BookOblique /AvantGarde-Demi /AvantGarde-DemiOblique /Bookman-Demi /Bookman-DemiItalic /Bookman-Light
 /Bookman-LightItalic /Helvetica-Narrow /Helvetica-Narrow-Bold /Helvetica-Narrow-BoldOblique /Helvetica-Narrow-Oblique /NewCenturySchlbk-Roman /NewCenturySchlbk-Bold /NewCenturySchlbk-BoldItalic /NewCenturySchlbk-Italic /Palatino-Bold
 /Palatino-BoldItalic /Palatino-Italic /Palatino-Roman ] {ISOLatin1Encoding reEncode } forall
%%EndProlog
%%BeginSetup
%%EndSetup
newpath  gsave  .25 .25 scale  gsave  0 0 t black[  ] 0 sd 3 lw 1 1 1 c 2268 1583 0 0 bf black 1 1 1 c 2268 475 0 0 bf black 1 1 1 c 1927 275 227 190 bf black 1927 275 227 190 bl 227 190 m 1927 X s 227 202 m -12 Y s 304 196 m -6 Y s 381 196 m -6 Y s
 458 196 m -6 Y s 535 196 m -6 Y s 612 202 m -12 Y s 689 196 m -6 Y s 766 196 m -6 Y s 844 196 m -6 Y s 921 196 m -6 Y s 998 202 m -12 Y s 1075 196 m -6 Y s 1152 196 m -6 Y s 1229 196 m -6 Y s 1306 196 m -6 Y s 1383 202 m -12 Y s 1460 196 m -6 Y s
 1538 196 m -6 Y s 1615 196 m -6 Y s 1692 196 m -6 Y s 1769 202 m -12 Y s 1846 196 m -6 Y s 1923 196 m -6 Y s 2000 196 m -6 Y s 2077 196 m -6 Y s 2154 202 m -12 Y s
 gsave  2268 475 0 0 C 209.646 126.968 t 0 r /Helvetica findfont 53.4154 sf 0 0 m (0) show NC gr 
 gsave  2268 475 0 0 C 581.693 126.968 t 0 r /Helvetica findfont 53.4154 sf 0 0 m (50) show NC gr 
 gsave  2268 475 0 0 C 950.787 126.968 t 0 r /Helvetica findfont 53.4154 sf 0 0 m (100) show NC gr 
 gsave  2268 475 0 0 C 1337.6 126.968 t 0 r /Helvetica findfont 53.4154 sf 0 0 m (150) show NC gr 
 gsave  2268 475 0 0 C 1724.41 126.968 t 0 r /Helvetica findfont 53.4154 sf 0 0 m (200) show NC gr 
 gsave  2268 475 0 0 C 2108.27 126.968 t 0 r /Helvetica findfont 53.4154 sf 0 0 m (250) show NC gr 
 gsave  2268 475 0 0 C 1978.35 53.1496 t 0 r /Helvetica findfont 56.3829 sf 0 0 m (\) [GeV]) show NC gr 
 gsave  2268 475 0 0 C 1957.68 20.6693 t 0 r /Helvetica findfont 38.5778 sf 0 0 m (2) show NC gr 
 gsave  2268 475 0 0 C 1863.19 53.1496 t 0 r /Helvetica findfont 56.3829 sf 0 0 m (\(lep) show NC gr 
 gsave  2268 475 0 0 C 1839.57 20.6693 t 0 r /Helvetica findfont 38.5778 sf 0 0 m (T) show NC gr 
 gsave  2268 475 0 0 C 1804.13 53.1496 t 0 r /Helvetica-Oblique findfont 56.3829 sf 0 0 m (p) show NC gr  227 465 m 1927 X s 227 453 m 12 Y s 304 459 m 6 Y s 381 459 m 6 Y s 458 459 m 6 Y s 535 459 m 6 Y s 612 453 m 12 Y s 689 459 m 6 Y s 766 459 m 6
 Y s 844 459 m 6 Y s 921 459 m 6 Y s 998 453 m 12 Y s 1075 459 m 6 Y s 1152 459 m 6 Y s 1229 459 m 6 Y s 1306 459 m 6 Y s 1383 453 m 12 Y s 1460 459 m 6 Y s 1538 459 m 6 Y s 1615 459 m 6 Y s 1692 459 m 6 Y s 1769 453 m 12 Y s 1846 459 m 6 Y s 1923
 459 m 6 Y s 2000 459 m 6 Y s 2077 459 m 6 Y s 2154 453 m 12 Y s 227 190 m 275 Y s 240 242 m -13 X s 240 328 m -13 X s 240 414 m -13 X s 240 242 m -13 X s 240 414 m -13 X s
 gsave  2268 475 0 0 C 118.11 221.457 t 0 r /Helvetica findfont 53.4154 sf 0 0 m (0.5) show NC gr 
 gsave  2268 475 0 0 C 171.26 307.087 t 0 r /Helvetica findfont 53.4154 sf 0 0 m (1) show NC gr 
 gsave  2268 475 0 0 C 118.11 395.669 t 0 r /Helvetica findfont 53.4154 sf 0 0 m (1.5) show NC gr 
 gsave  2268 475 0 0 C 70.8661 233.268 t 90 r /Helvetica findfont 53.4154 sf 0 0 m (Data / SM) show NC gr  2154 190 m 275 Y s 2141 242 m 13 X s 2141 328 m 13 X s 2141 414 m 13 X s 2141 242 m 13 X s 2141 414 m 13 X s 227 190 m 1927 X s 227 465 m 1927
 X s 227 190 m 275 Y s[ 4 8] 0 sd 2154 242 m -1927 X s 2154 328 m -1927 X s 2154 414 m -1927 X s 2154 242 m -1927 X s 2154 414 m -1927 X s[  ] 0 sd 2154 190 m 275 Y s 1 1 0.6 c 193 0 227 328 bf 192 0 420 328 bf 193 0 612 328 bf 193 0 805 328 bf 193 0
 998 328 bf 192 0 1191 328 bf 193 0 1383 328 bf 193 0 1576 328 bf 193 0 1769 328 bf 192 0 1962 328 bf black 0.6 0.6 0.6 c 420 325 m -7 -6 d s 412 336 m -18 -17 d s 392 336 m -17 -17 d s 373 336 m -17 -17 d s 354 336 m -18 -17 d s 335 336 m -18 -17 d
 s 316 336 m -18 -17 d s 296 336 m -17 -17 d s 277 336 m -18 -17 d s 258 336 m -18 -17 d s 239 336 m -12 -11 d s 612 325 m -3 -3 d s 601 333 m -11 -11 d s 582 333 m -11 -11 d s 562 333 m -10 -11 d s 543 333 m -11 -11 d s 524 333 m -11 -11 d s 505 333
 m -11 -11 d s 485 333 m -10 -11 d s 466 333 m -11 -11 d s 447 333 m -11 -11 d s 428 333 m -8 -8 d s 805 326 m -10 -11 d s 800 340 m -24 -25 d s 781 340 m -25 -25 d s 762 340 m -25 -25 d s 742 340 m -24 -25 d s 723 340 m -24 -25 d s 704 340 m -25 -25
 d s 685 340 m -25 -25 d s 665 340 m -24 -25 d s 646 340 m -24 -25 d s 627 340 m -15 -15 d s 998 326 m -19 -18 d s 998 345 m -38 -37 d s 981 348 m -40 -40 d s 962 348 m -40 -40 d s 942 348 m -39 -40 d s 923 348 m -40 -40 d s 904 348 m -40 -40 d s 885
 348 m -40 -40 d s 866 348 m -40 -40 d s 846 348 m -40 -40 d s 827 348 m -22 -22 d s 808 348 m -3 -3 d s 1191 307 m -18 -18 d s 1191 326 m -37 -37 d s 1191 346 m -57 -57 d s 1191 365 m -76 -76 d s 1172 366 m -76 -77 d s 1153 366 m -76 -77 d s 1134
 366 m -77 -77 d s 1115 366 m -77 -77 d s 1095 366 m -76 -77 d s 1076 366 m -76 -77 d s 1057 366 m -59 -59 d s 1038 366 m -40 -40 d s 1018 366 m -20 -21 d s 999 366 m -1 -1 d s 1383 307 m -11 -11 d s 1383 327 m -30 -31 d s 1383 346 m -50 -50 d s 1378
 360 m -64 -64 d s 1358 360 m -63 -64 d s 1339 360 m -63 -64 d s 1320 360 m -64 -64 d s 1301 360 m -64 -64 d s 1281 360 m -63 -64 d s 1262 360 m -63 -64 d s 1243 360 m -52 -53 d s 1224 360 m -33 -34 d s 1204 360 m -13 -14 d s 1576 308 m -12 -12 d s
 1576 327 m -31 -31 d s 1576 346 m -50 -50 d s 1570 360 m -64 -64 d s 1551 360 m -64 -64 d s 1532 360 m -64 -64 d s 1512 360 m -63 -64 d s 1493 360 m -64 -64 d s 1474 360 m -64 -64 d s 1455 360 m -64 -64 d s 1435 360 m -52 -53 d s 1416 360 m -33 -33
 d s 1397 360 m -14 -14 d s 1769 211 m -14 -14 d s 1769 231 m -33 -34 d s 1769 250 m -53 -53 d s 1769 269 m -72 -72 d s 1769 289 m -91 -92 d s 1769 308 m -110 -111 d s 1769 327 m -129 -130 d s 1769 347 m -149 -150 d s 1769 366 m -168 -169 d s 1769
 385 m -187 -188 d s 1769 405 m -193 -194 d s 1769 424 m -193 -194 d s 1769 443 m -193 -193 d s 1764 458 m -188 -189 d s 1745 458 m -169 -170 d s 1726 458 m -150 -150 d s 1706 458 m -130 -131 d s 1687 458 m -111 -112 d s 1668 458 m -92 -92 d s 1649
 458 m -73 -73 d s 1629 458 m -53 -54 d s 1610 458 m -34 -34 d s 1591 458 m -15 -15 d s 1962 270 m -1 -1 d s 1962 289 m -20 -20 d s 1962 308 m -39 -39 d s 1962 328 m -58 -59 d s 1962 347 m -78 -78 d s 1962 366 m -97 -97 d s 1962 386 m -116 -117 d s
 1943 386 m -116 -117 d s 1923 386 m -116 -117 d s 1904 386 m -116 -117 d s 1885 386 m -116 -117 d s 1866 386 m -97 -97 d s 1846 386 m -77 -78 d s 1827 386 m -58 -59 d s 1808 386 m -39 -39 d s 1789 386 m -20 -20 d s 1769 386 m -1 Y s 2154 289 m -9 -9
 d s 2154 309 m -29 -29 d s 2154 328 m -48 -48 d s 2154 347 m -67 -67 d s 2154 367 m -86 -87 d s 2144 376 m -96 -96 d s 2125 376 m -96 -96 d s 2106 376 m -96 -96 d s 2086 376 m -95 -96 d s 2067 376 m -96 -96 d s 2048 376 m -86 -87 d s 2029 376 m -67
 -68 d s 2009 376 m -47 -48 d s 1990 376 m -28 -29 d s 1971 376 m -9 -10 d s black 1 1 1 c black 323 313 m 14 Y s 323 350 m 15 Y s /w 26 def /w2 {w 2 div} def /w3 {w 3 div} def 323 339 m20 516 314 m 8 Y s 516 346 m 8 Y s 516 334 m20 709 218 m 38 Y s
 709 280 m 38 Y s 709 268 m20 901 243 m 107 Y s 901 374 m 91 Y s 901 362 m20 227 328 m 1927 X s 227 190 m 1927 X s 227 202 m -12 Y s 304 196 m -6 Y s 381 196 m -6 Y s 458 196 m -6 Y s 535 196 m -6 Y s 612 202 m -12 Y s 689 196 m -6 Y s 766 196 m -6 Y
 s 844 196 m -6 Y s 921 196 m -6 Y s 998 202 m -12 Y s 1075 196 m -6 Y s 1152 196 m -6 Y s 1229 196 m -6 Y s 1306 196 m -6 Y s 1383 202 m -12 Y s 1460 196 m -6 Y s 1538 196 m -6 Y s 1615 196 m -6 Y s 1692 196 m -6 Y s 1769 202 m -12 Y s 1846 196 m -6
 Y s 1923 196 m -6 Y s 2000 196 m -6 Y s 2077 196 m -6 Y s 2154 202 m -12 Y s 227 465 m 1927 X s 227 453 m 12 Y s 304 459 m 6 Y s 381 459 m 6 Y s 458 459 m 6 Y s 535 459 m 6 Y s 612 453 m 12 Y s 689 459 m 6 Y s 766 459 m 6 Y s 844 459 m 6 Y s 921 459
 m 6 Y s 998 453 m 12 Y s 1075 459 m 6 Y s 1152 459 m 6 Y s 1229 459 m 6 Y s 1306 459 m 6 Y s 1383 453 m 12 Y s 1460 459 m 6 Y s 1538 459 m 6 Y s 1615 459 m 6 Y s 1692 459 m 6 Y s 1769 453 m 12 Y s 1846 459 m 6 Y s 1923 459 m 6 Y s 2000 459 m 6 Y s
 2077 459 m 6 Y s 2154 453 m 12 Y s 227 190 m 275 Y s 240 242 m -13 X s 240 328 m -13 X s 240 414 m -13 X s 240 242 m -13 X s 240 414 m -13 X s 2154 190 m 275 Y s 2141 242 m 13 X s 2141 328 m 13 X s 2141 414 m 13 X s 2141 242 m 13 X s 2141 414 m 13 X
 s 1 1 1 c 2268 1108 0 475 bf black 1 1 1 c 1927 1041 227 486 bf black 1927 1041 227 486 bl 1 1 1 c black 3 lw 227 486 m 1927 X s 227 505 m -19 Y s 304 495 m -9 Y s 381 495 m -9 Y s 458 495 m -9 Y s 535 495 m -9 Y s 612 505 m -19 Y s 689 495 m -9 Y s
 766 495 m -9 Y s 844 495 m -9 Y s 921 495 m -9 Y s 998 505 m -19 Y s 1075 495 m -9 Y s 1152 495 m -9 Y s 1229 495 m -9 Y s 1306 495 m -9 Y s 1383 505 m -19 Y s 1460 495 m -9 Y s 1538 495 m -9 Y s 1615 495 m -9 Y s 1692 495 m -9 Y s 1769 505 m -19 Y
 s 1846 495 m -9 Y s 1923 495 m -9 Y s 2000 495 m -9 Y s 2077 495 m -9 Y s 2154 505 m -19 Y s
 gsave  2268 1108 0 475 C 2049.21 407.48 t 0 r /Helvetica findfont 32.4976 sf 0 0 m (\) [GeV]) show NC gr 
 gsave  2268 1108 0 475 C 2037.4 389.764 t 0 r /Helvetica findfont 20.6803 sf 0 0 m (2) show NC gr 
 gsave  2268 1108 0 475 C 1981.3 407.48 t 0 r /Helvetica findfont 32.4976 sf 0 0 m (\(lep) show NC gr 
 gsave  2268 1108 0 475 C 1966.54 389.764 t 0 r /Helvetica findfont 20.6803 sf 0 0 m (T) show NC gr 
 gsave  2268 1108 0 475 C 1945.87 407.48 t 0 r /Helvetica-Oblique findfont 32.4976 sf 0 0 m (p) show NC gr  227 1527 m 1927 X s 227 1508 m 19 Y s 304 1518 m 9 Y s 381 1518 m 9 Y s 458 1518 m 9 Y s 535 1518 m 9 Y s 612 1508 m 19 Y s 689 1518 m 9 Y s
 766 1518 m 9 Y s 844 1518 m 9 Y s 921 1518 m 9 Y s 998 1508 m 19 Y s 1075 1518 m 9 Y s 1152 1518 m 9 Y s 1229 1518 m 9 Y s 1306 1518 m 9 Y s 1383 1508 m 19 Y s 1460 1518 m 9 Y s 1538 1518 m 9 Y s 1615 1518 m 9 Y s 1692 1518 m 9 Y s 1769 1508 m 19 Y
 s 1846 1518 m 9 Y s 1923 1518 m 9 Y s 2000 1518 m 9 Y s 2077 1518 m 9 Y s 2154 1508 m 19 Y s 227 486 m 1041 Y s 248 623 m -21 X s 237 657 m -10 X s 237 691 m -10 X s 237 726 m -10 X s 248 760 m -21 X s 237 794 m -10 X s 237 828 m -10 X s 237 863 m
 -10 X s 248 897 m -21 X s 237 931 m -10 X s 237 965 m -10 X s 237 1000 m -10 X s 248 1034 m -21 X s 237 1068 m -10 X s 237 1102 m -10 X s 237 1137 m -10 X s 248 1171 m -21 X s 237 1205 m -10 X s 237 1239 m -10 X s 237 1274 m -10 X s 248 1308 m -21 X
 s 237 1342 m -10 X s 237 1376 m -10 X s 237 1411 m -10 X s 248 1445 m -21 X s 248 623 m -21 X s 237 589 m -10 X s 237 554 m -10 X s 237 520 m -10 X s 248 1445 m -21 X s 237 1479 m -10 X s 237 1513 m -10 X s
 gsave  2268 1108 0 475 C 141.732 602.362 t 0 r /Helvetica findfont 53.178 sf 0 0 m (20) show NC gr 
 gsave  2268 1108 0 475 C 141.732 741.142 t 0 r /Helvetica findfont 53.178 sf 0 0 m (40) show NC gr 
 gsave  2268 1108 0 475 C 141.732 876.969 t 0 r /Helvetica findfont 53.178 sf 0 0 m (60) show NC gr 
 gsave  2268 1108 0 475 C 141.732 1015.75 t 0 r /Helvetica findfont 53.178 sf 0 0 m (80) show NC gr 
 gsave  2268 1108 0 475 C 112.205 1151.57 t 0 r /Helvetica findfont 53.178 sf 0 0 m (100) show NC gr 
 gsave  2268 1108 0 475 C 112.205 1287.4 t 0 r /Helvetica findfont 53.178 sf 0 0 m (120) show NC gr 
 gsave  2268 1108 0 475 C 112.205 1426.18 t 0 r /Helvetica findfont 53.178 sf 0 0 m (140) show NC gr 
 gsave  2268 1108 0 475 C 64.9606 1142.72 t 90 r /Helvetica findfont 53.178 sf 0 0 m (Events / 25 GeV) show NC gr  2154 486 m 1041 Y s 2133 623 m 21 X s 2144 657 m 10 X s 2144 691 m 10 X s 2144 726 m 10 X s 2133 760 m 21 X s 2144 794 m 10 X s 2144
 828 m 10 X s 2144 863 m 10 X s 2133 897 m 21 X s 2144 931 m 10 X s 2144 965 m 10 X s 2144 1000 m 10 X s 2133 1034 m 21 X s 2144 1068 m 10 X s 2144 1102 m 10 X s 2144 1137 m 10 X s 2133 1171 m 21 X s 2144 1205 m 10 X s 2144 1239 m 10 X s 2144 1274 m
 10 X s 2133 1308 m 21 X s 2144 1342 m 10 X s 2144 1376 m 10 X s 2144 1411 m 10 X s 2133 1445 m 21 X s 2133 623 m 21 X s 2144 589 m 10 X s 2144 554 m 10 X s 2144 520 m 10 X s 2133 1445 m 21 X s 2144 1479 m 10 X s 2144 1513 m 10 X s 0.06 0.54 0.06 c
 black 3 lw 0.06 0.54 0.06 c 227 486 m 322 Y 193 X 226 Y 192 X -496 Y 193 X -35 Y 193 X -11 Y 193 X -5 Y 385 X -1 Y 578 X f 1 0.653333 0 c 0.999 0.999 0.999 c black 3 lw 0.999 0.999 0.999 c 227 486 m 125 Y 193 X 125 Y 192 X -211 Y 193 X -26 Y 193 X
 -9 Y 193 X -3 Y 385 X -1 Y 578 X f 1 0.653333 0 c 0.999 0.999 0.999 c 1 0.653333 0 c 1 1 1 c black 1 0.653333 0 c black 3 lw 1 0.653333 0 c 227 486 m 125 Y 193 X 125 Y 192 X -211 Y 193 X -26 Y 193 X -9 Y 193 X -3 Y 385 X -1 Y 578 X f 0.413333 1 0 c
 0.999 0.999 0.999 c black 3 lw 0.999 0.999 0.999 c 227 486 m 111 Y 193 X 134 Y 192 X -206 Y 193 X -26 Y 193 X -9 Y 193 X -3 Y 385 X -1 Y 578 X f 0.413333 1 0 c 0.999 0.999 0.999 c 0.413333 1 0 c 1 1 1 c black 0.413333 1 0 c black 3 lw 0.413333 1 0 c
 227 486 m 111 Y 193 X 134 Y 192 X -206 Y 193 X -26 Y 193 X -9 Y 193 X -3 Y 385 X -1 Y 578 X f 0.6 0.2 1 c 0.999 0.999 0.999 c black 3 lw 0.999 0.999 0.999 c 227 486 m 92 Y 193 X 117 Y 192 X -176 Y 193 X -21 Y 193 X -8 Y 193 X -3 Y 385 X -1 Y 578 X f
 0.6 0.2 1 c 0.999 0.999 0.999 c 0.6 0.2 1 c 1 1 1 c black 0.6 0.2 1 c black 3 lw 0.6 0.2 1 c 227 486 m 92 Y 193 X 117 Y 192 X -176 Y 193 X -21 Y 193 X -8 Y 193 X -3 Y 385 X -1 Y 578 X f 0.54 0.06 0.06 c 0.999 0.999 0.999 c black 3 lw 0.999 0.999
 0.999 c 227 486 m 75 Y 193 X 104 Y 192 X -150 Y 193 X -19 Y 193 X -7 Y 193 X -2 Y 385 X -1 Y 578 X f 0.54 0.06 0.06 c 0.999 0.999 0.999 c 0.54 0.06 0.06 c 1 1 1 c black 0.54 0.06 0.06 c black 3 lw 0.54 0.06 0.06 c 227 486 m 75 Y 193 X 104 Y 192 X
 -150 Y 193 X -19 Y 193 X -7 Y 193 X -2 Y 385 X -1 Y 578 X f 1 0 1 c 0.999 0.999 0.999 c black 3 lw 0.999 0.999 0.999 c 227 486 m 23 Y 193 X 27 Y 192 X -43 Y 193 X -5 Y 193 X -1 Y 193 X -1 Y 963 X f 1 0 1 c 0.999 0.999 0.999 c 1 0 1 c 1 1 1 c black 1
 0 1 c black 3 lw 1 0 1 c 227 486 m 23 Y 193 X 27 Y 192 X -43 Y 193 X -5 Y 193 X -1 Y 193 X -1 Y 963 X f 0 0 1 c 0.999 0.999 0.999 c black 3 lw 0.999 0.999 0.999 c 227 486 m 17 Y 193 X 17 Y 192 X -30 Y 193 X -3 Y 193 X -1 Y 1156 X f 0 0 1 c 0.999
 0.999 0.999 c 0 0 1 c 1 1 1 c black 0 0 1 c black 3 lw 0 0 1 c 227 486 m 17 Y 193 X 17 Y 192 X -30 Y 193 X -3 Y 193 X -1 Y 1156 X f 0.2 0.8 0.8 c 0.999 0.999 0.999 c black 3 lw 0.999 0.999 0.999 c 227 486 m 3 Y 193 X 4 Y 192 X -6 Y 193 X -1 Y 1349 X
 f 0.2 0.8 0.8 c 0.999 0.999 0.999 c 0.2 0.8 0.8 c 1 1 1 c black 0.2 0.8 0.8 c black 3 lw 0.2 0.8 0.8 c 227 486 m 3 Y 193 X 4 Y 192 X -6 Y 193 X -1 Y 1349 X f 1 0 0 c 0.999 0.999 0.999 c black 3 lw 0.999 0.999 0.999 c 227 486 m 1 Y 193 X 2 Y 192 X -3
 Y 1542 X f 1 0 0 c 0.999 0.999 0.999 c 1 0 0 c 1 1 1 c black 1 0 0 c black 3 lw 1 0 0 c 227 486 m 1 Y 193 X 2 Y 192 X -3 Y 1542 X f 1 0.84 0 c 0.999 0.999 0.999 c black 3 lw 0.999 0.999 0.999 c 227 486 m 1927 X f 1 0.84 0 c 0.999 0.999 0.999 c 1
 0.84 0 c 1 1 1 c black 1 0.84 0 c black 3 lw 1 0.84 0 c 227 486 m 1927 X f black 1 1 1 c black 0.6 0.6 0.6 c 3 lw 420 797 m -7 -6 d s 420 817 m -26 -26 d s 408 824 m -33 -33 d s 389 824 m -33 -33 d s 369 824 m -33 -33 d s 350 824 m -33 -33 d s 331
 824 m -33 -33 d s 312 824 m -33 -33 d s 292 824 m -33 -33 d s 273 824 m -33 -33 d s 254 824 m -27 -27 d s 235 824 m -8 -8 d s 3 lw 612 1028 m -11 -11 d s 612 1047 m -30 -30 d s 597 1051 m -35 -34 d s 578 1051 m -35 -34 d s 558 1051 m -34 -34 d s 539
 1051 m -34 -34 d s 520 1051 m -35 -34 d s 501 1051 m -35 -34 d s 481 1051 m -34 -34 d s 462 1051 m -34 -34 d s 443 1051 m -23 -23 d s 424 1051 m -4 -4 d s 3 lw 799 542 m -8 -7 d s 779 542 m -7 -7 d s 760 542 m -7 -7 d s 741 542 m -8 -7 d s 722 542 m
 -8 -7 d s 702 542 m -7 -7 d s 683 542 m -7 -7 d s 664 542 m -8 -7 d s 645 542 m -8 -7 d s 625 542 m -7 -7 d s 3 lw 992 505 m -4 -4 d s 973 505 m -4 -4 d s 954 505 m -4 -4 d s 935 505 m -4 -4 d s 915 505 m -4 -4 d s 896 505 m -4 -4 d s 877 505 m -4
 -4 d s 858 505 m -4 -4 d s 838 505 m -4 -4 d s 819 505 m -4 -4 d s 3 lw 1191 492 m -1 -1 d s 1173 494 m -3 -3 d s 1154 494 m -3 -3 d s 1135 494 m -3 -3 d s 1116 494 m -3 -3 d s 1096 494 m -2 -3 d s 1077 494 m -3 -3 d s 1058 494 m -3 -3 d s 1039 494
 m -3 -3 d s 1019 494 m -2 -3 d s 1000 494 m -2 -3 d s 3 lw 1379 487 m -1 X s 1360 487 m -1 X s 1340 487 m s 1321 487 m s 1302 487 m -1 X s 1283 487 m -1 X s 1263 487 m s 1244 487 m s 1225 487 m -1 X s 1206 487 m -1 X s 3 lw 1571 487 m s 1552 487 m
 -1 X s 1533 487 m -1 X s 1513 487 m s 1494 487 m s 1475 487 m -1 X s 1456 487 m -1 X s 1436 487 m s 1417 487 m s 1398 487 m -1 X s 3 lw 1762 486 m s 1743 486 m s 1724 486 m s 1705 486 m -1 X s 1685 486 m s 1666 486 m s 1647 486 m s 1628 486 m -1 X s
 1608 486 m s 1589 486 m s 3 lw 1955 486 m s 1936 486 m -1 X s 1916 486 m s 1897 486 m s 1878 486 m s 1859 486 m -1 X s 1839 486 m s 1820 486 m s 1801 486 m s 1782 486 m -1 X s 3 lw 2147 486 m s 2128 486 m s 2109 486 m s 2090 486 m -1 X s 2070 486 m
 s 2051 486 m s 2032 486 m s 2013 486 m -1 X s 1993 486 m s 1974 486 m s black 3 lw 1 1 1 c black 323 780 m 37 Y s 323 840 m 37 Y s /w 24 def /w2 {w 2 div} def /w3 {w 3 div} def 323 828 m20 516 992 m 51 Y s 516 1066 m 51 Y s 516 1054 m20 709 505 m 3
 Y s 709 532 m 3 Y s 709 520 m20 901 495 m s 901 518 m s 901 506 m20 1094 500 m20 227 486 m 1927 X s 227 505 m -19 Y s 304 495 m -9 Y s 381 495 m -9 Y s 458 495 m -9 Y s 535 495 m -9 Y s 612 505 m -19 Y s 689 495 m -9 Y s 766 495 m -9 Y s 844 495 m
 -9 Y s 921 495 m -9 Y s 998 505 m -19 Y s 1075 495 m -9 Y s 1152 495 m -9 Y s 1229 495 m -9 Y s 1306 495 m -9 Y s 1383 505 m -19 Y s 1460 495 m -9 Y s 1538 495 m -9 Y s 1615 495 m -9 Y s 1692 495 m -9 Y s 1769 505 m -19 Y s 1846 495 m -9 Y s 1923
 495 m -9 Y s 2000 495 m -9 Y s 2077 495 m -9 Y s 2154 505 m -19 Y s 227 1527 m 1927 X s 227 1508 m 19 Y s 304 1518 m 9 Y s 381 1518 m 9 Y s 458 1518 m 9 Y s 535 1518 m 9 Y s 612 1508 m 19 Y s 689 1518 m 9 Y s 766 1518 m 9 Y s 844 1518 m 9 Y s 921
 1518 m 9 Y s 998 1508 m 19 Y s 1075 1518 m 9 Y s 1152 1518 m 9 Y s 1229 1518 m 9 Y s 1306 1518 m 9 Y s 1383 1508 m 19 Y s 1460 1518 m 9 Y s 1538 1518 m 9 Y s 1615 1518 m 9 Y s 1692 1518 m 9 Y s 1769 1508 m 19 Y s 1846 1518 m 9 Y s 1923 1518 m 9 Y s
 2000 1518 m 9 Y s 2077 1518 m 9 Y s 2154 1508 m 19 Y s 227 486 m 1041 Y s 248 623 m -21 X s 237 657 m -10 X s 237 691 m -10 X s 237 726 m -10 X s 248 760 m -21 X s 237 794 m -10 X s 237 828 m -10 X s 237 863 m -10 X s 248 897 m -21 X s 237 931 m -10
 X s 237 965 m -10 X s 237 1000 m -10 X s 248 1034 m -21 X s 237 1068 m -10 X s 237 1102 m -10 X s 237 1137 m -10 X s 248 1171 m -21 X s 237 1205 m -10 X s 237 1239 m -10 X s 237 1274 m -10 X s 248 1308 m -21 X s 237 1342 m -10 X s 237 1376 m -10 X s
 237 1411 m -10 X s 248 1445 m -21 X s 248 623 m -21 X s 237 589 m -10 X s 237 554 m -10 X s 237 520 m -10 X s 248 1445 m -21 X s 237 1479 m -10 X s 237 1513 m -10 X s 2154 486 m 1041 Y s 2133 623 m 21 X s 2144 657 m 10 X s 2144 691 m 10 X s 2144 726
 m 10 X s 2133 760 m 21 X s 2144 794 m 10 X s 2144 828 m 10 X s 2144 863 m 10 X s 2133 897 m 21 X s 2144 931 m 10 X s 2144 965 m 10 X s 2144 1000 m 10 X s 2133 1034 m 21 X s 2144 1068 m 10 X s 2144 1102 m 10 X s 2144 1137 m 10 X s 2133 1171 m 21 X s
 2144 1205 m 10 X s 2144 1239 m 10 X s 2144 1274 m 10 X s 2133 1308 m 21 X s 2144 1342 m 10 X s 2144 1376 m 10 X s 2144 1411 m 10 X s 2133 1445 m 21 X s 2133 623 m 21 X s 2144 589 m 10 X s 2144 554 m 10 X s 2144 520 m 10 X s 2133 1445 m 21 X s 2144
 1479 m 10 X s 2144 1513 m 10 X s
 gsave  2268 1108 0 475 C 1313.98 1432.09 t 0 r /Helvetica findfont 56.1323 sf 0 0 m ( Data) show NC gr  1259 1458 m 10 Y s 1259 1434 m -10 Y s 1259 1446 m20
 gsave  2268 1108 0 475 C 1810.04 1432.09 t 0 r /Helvetica findfont 56.1323 sf 0 0 m (single\255top) show NC gr 
 gsave  2268 1108 0 475 C 1780.51 1432.09 t 0 r /Helvetica-Oblique findfont 56.1323 sf 0 0 m (/) show NC gr 
 gsave  2268 1108 0 475 C 1759.84 1432.09 t 0 r /Helvetica-Oblique findfont 56.1323 sf 0 0 m (t) show NC gr  6 lw 1760 1476 m 21 X s
 gsave  2268 1108 0 475 C 1739.17 1432.09 t 0 r /Helvetica-Oblique findfont 56.1323 sf 0 0 m (t) show NC gr 
 gsave  2268 1108 0 475 C 1721.46 1432.09 t 0 r /Helvetica findfont 56.1323 sf 0 0 m ( ) show NC gr  0.06 0.54 0.06 c 3 lw 1626 1420 m 79 X 52 Y -79 X f 6 lw black
 gsave  2268 1108 0 475 C 1443.9 1358.27 t 0 r /Helvetica findfont 56.1323 sf 0 0 m (+jets) show NC gr 
 gsave  2268 1108 0 475 C 1331.69 1358.27 t 0 r /Helvetica-Oblique findfont 56.1323 sf 0 0 m (W/Z) show NC gr 
 gsave  2268 1108 0 475 C 1313.98 1358.27 t 0 r /Helvetica findfont 56.1323 sf 0 0 m ( ) show NC gr  1 0.653333 0 c 3 lw 1219 1346 m 79 X 52 Y -79 X f black
 gsave  2268 1108 0 475 C 1919.29 1358.27 t 0 r /Helvetica findfont 56.1323 sf 0 0 m (+jets) show NC gr 
 gsave  2268 1108 0 475 C 1739.17 1358.27 t 0 r /Helvetica-Oblique findfont 56.1323 sf 0 0 m (WZ/ZZ) show NC gr 
 gsave  2268 1108 0 475 C 1721.46 1358.27 t 0 r /Helvetica findfont 56.1323 sf 0 0 m ( ) show NC gr  0.413333 1 0 c 3 lw 1626 1346 m 79 X 52 Y -79 X f black
 gsave  2268 1108 0 475 C 1373.03 1284.45 t 0 r /Helvetica-Oblique findfont 56.1323 sf 0 0 m (Z) show NC gr 
 gsave  2268 1108 0 475 C 1352.36 1284.45 t 0 r /Helvetica-Oblique findfont 56.1323 sf 0 0 m (t) show NC gr  6 lw 1352 1329 m 21 X s
 gsave  2268 1108 0 475 C 1331.69 1284.45 t 0 r /Helvetica-Oblique findfont 56.1323 sf 0 0 m (t) show NC gr 
 gsave  2268 1108 0 475 C 1313.98 1284.45 t 0 r /Helvetica findfont 56.1323 sf 0 0 m ( ) show NC gr  0.6 0.2 1 c 3 lw 1219 1272 m 79 X 52 Y -79 X f 6 lw black
 gsave  2268 1108 0 475 C 1780.51 1284.45 t 0 r /Helvetica-Oblique findfont 56.1323 sf 0 0 m (W) show NC gr 
 gsave  2268 1108 0 475 C 1759.84 1284.45 t 0 r /Helvetica-Oblique findfont 56.1323 sf 0 0 m (t) show NC gr  6 lw 1760 1329 m 21 X s
 gsave  2268 1108 0 475 C 1739.17 1284.45 t 0 r /Helvetica-Oblique findfont 56.1323 sf 0 0 m (t) show NC gr 
 gsave  2268 1108 0 475 C 1721.46 1284.45 t 0 r /Helvetica findfont 56.1323 sf 0 0 m ( ) show NC gr  0.54 0.06 0.06 c 3 lw 1626 1272 m 79 X 52 Y -79 X f 6 lw black
 gsave  2268 1108 0 475 C 1331.69 1210.63 t 0 r /Helvetica-Oblique findfont 56.1323 sf 0 0 m (tZq) show NC gr 
 gsave  2268 1108 0 475 C 1313.98 1210.63 t 0 r /Helvetica findfont 56.1323 sf 0 0 m ( ) show NC gr  1 0 1 c 3 lw 1219 1199 m 79 X 51 Y -79 X f black
 gsave  2268 1108 0 475 C 1780.51 1210.63 t 0 r /Helvetica-Oblique findfont 56.1323 sf 0 0 m (H) show NC gr 
 gsave  2268 1108 0 475 C 1759.84 1210.63 t 0 r /Helvetica-Oblique findfont 56.1323 sf 0 0 m (t) show NC gr  6 lw 1760 1255 m 21 X s
 gsave  2268 1108 0 475 C 1739.17 1210.63 t 0 r /Helvetica-Oblique findfont 56.1323 sf 0 0 m (t) show NC gr 
 gsave  2268 1108 0 475 C 1721.46 1210.63 t 0 r /Helvetica findfont 56.1323 sf 0 0 m ( ) show NC gr  0 0 1 c 3 lw 1626 1199 m 79 X 51 Y -79 X f 6 lw black
 gsave  2268 1108 0 475 C 1331.69 1136.81 t 0 r /Helvetica-Oblique findfont 56.1323 sf 0 0 m (tWZ/tWH) show NC gr 
 gsave  2268 1108 0 475 C 1313.98 1136.81 t 0 r /Helvetica findfont 56.1323 sf 0 0 m ( ) show NC gr  0.2 0.8 0.8 c 3 lw 1219 1125 m 79 X 51 Y -79 X f black
 gsave  2268 1108 0 475 C 1739.17 1136.81 t 0 r /Helvetica-Oblique findfont 56.1323 sf 0 0 m (tHq) show NC gr 
 gsave  2268 1108 0 475 C 1721.46 1136.81 t 0 r /Helvetica findfont 56.1323 sf 0 0 m ( ) show NC gr  1 0 0 c 3 lw 1626 1125 m 79 X 51 Y -79 X f black
 gsave  2268 1108 0 475 C 1313.98 1062.99 t 0 r /Helvetica findfont 56.1323 sf 0 0 m ( Other) show NC gr  1 0.84 0 c 3 lw 1219 1051 m 79 X 52 Y -79 X f black
 gsave  2268 1108 0 475 C 1721.46 1062.99 t 0 r /Helvetica findfont 56.1323 sf 0 0 m ( Uncertainty) show NC gr  0.6 0.6 0.6 c 3 lw 1705 1063 m -12 -12 d s 1705 1082 m -31 -31 d s 1705 1101 m -50 -50 d s 1687 1103 m -51 -52 d s 1668 1103 m -42 -43 d s
 1649 1103 m -23 -24 d s 1630 1103 m -4 -4 d s 1 0.84 0 c 0.6 0.6 0.6 c black
 gsave  2268 1108 0 475 C 894.685 1337.6 t 0 r /Helvetica findfont 41.3606 sf 0 0 m (\2551) show NC gr 
 gsave  2268 1108 0 475 C 401.575 1308.07 t 0 r /Helvetica findfont 62.0409 sf 0 0 m ( = 13 TeV,  139 fb) show NC gr 
 gsave  2268 1108 0 475 C 372.047 1308.07 t 0 r /Helvetica findfont 62.0409 sf 0 0 m (s) show NC gr  6 lw 351 1344 m 6 -39 d s 3 lw 357 1305 m 9 56 d s 366 1361 m 36 X s
 gsave  2268 1108 0 475 C 832.677 1207.68 t 0 r /Helvetica findfont 62.0409 sf 0 0 m (\)) show NC gr 
 gsave  2268 1108 0 475 C 776.575 1175.2 t 0 r /Helvetica findfont 41.3606 sf 0 0 m (HF) show NC gr 
 gsave  2268 1108 0 475 C 339.567 1207.68 t 0 r /Helvetica findfont 62.0409 sf 0 0 m ( 2L\(SS\), CR\(mu) show NC gr 
 gsave  2268 1108 0 475 C 339.567 1405.51 t 0 r /Helvetica-BoldOblique findfont 73.8583 sf 0 0 m (ATLAS) show NC gr 
 gsave  2268 1108 0 475 C 634.843 1405.51 t 0 r /Helvetica findfont 73.8583 sf 0 0 m (Internal) show NC gr 
 gr  gr showpage
end
%%EOF
