%!PS-Adobe-2.0 EPSF-2.0
%%BoundingBox:  0 0 567 394
%%Title: /lhome/ific/c/cardillo/tHq/Plots/Plots-30-05-22-PLIV-SF/2LSS_MC/LepPt1_CRttW.eps: LepPt1_CRttW
%%Creator: ROOT Version 6.20/06
%%CreationDate: Mon May 30 19:26:17 2022
%%DocumentNeededResources: ProcSet (FontSetInit)
%%EndComments
%%BeginProlog
80 dict begin
/s {stroke} def /l {lineto} def /m {moveto} def /t {translate} def
/r {rotate} def /rl {roll}  def /R {repeat} def
/d {rlineto} def /rm {rmoveto} def /gr {grestore} def /f {eofill} def
/c {setrgbcolor} def /black {0 setgray} def /sd {setdash} def
/cl {closepath} def /sf {scalefont setfont} def /lw {setlinewidth} def
/box {m dup 0 exch d exch 0 d 0 exch neg d cl} def
/NC{systemdict begin initclip end}def/C{NC box clip newpath}def
/bl {box s} def /bf {gsave box gsave f grestore 1 lw [] 0 sd s grestore} def /Y { 0 exch d} def /X { 0 d} def 
/K {{pop pop 0 moveto} exch kshow} bind def
/ita {/ang 15 def gsave [1 0 ang dup sin exch cos div 1 0 0] concat} def 
/mp {newpath /y exch def /x exch def} def
/side {[w .77 mul w .23 mul] .385 w mul sd w 0 l currentpoint t -144 r} def
/mr {mp x y w2 0 360 arc} def /m24 {mr s} def /m20 {mr f} def
/mb {mp x y w2 add m w2 neg 0 d 0 w neg d w 0 d 0 w d cl} def
/mt {mp x y w2 add m w2 neg w neg d w 0 d cl} def
/w4 {w 4 div} def
/w6 {w 6 div} def
/w8 {w 8 div} def
/m21 {mb f} def /m25 {mb s} def /m22 {mt f} def /m26{mt s} def
/m23 {mp x y w2 sub m w2 w d w neg 0 d cl f} def
/m27 {mp x y w2 add m w3 neg w2 neg d w3 w2 neg d w3 w2 d cl s} def
/m28 {mp x w2 sub y w2 sub w3 add m w3 0 d  0 w3 neg d w3 0 d 0 w3 d w3 0 d  0 w3 d w3 neg 0 d 0 w3 d w3 neg 0 d 0 w3 neg d w3 neg 0 d cl s } def
/m29 {mp gsave x w2 sub y w2 add w3 sub m currentpoint t 4 {side} repeat cl fill gr} def
/m30 {mp gsave x w2 sub y w2 add w3 sub m currentpoint t 4 {side} repeat cl s gr} def
/m31 {mp x y w2 sub m 0 w d x w2 sub y m w 0 d x w2 sub y w2 add m w w neg d x w2 sub y w2 sub m w w d s} def
/m32 {mp x y w2 sub m w2 w d w neg 0 d cl s} def
/m33 {mp x y w2 add m w3 neg w2 neg d w3 w2 neg d w3 w2 d cl f} def
/m34 {mp x w2 sub y w2 sub w3 add m w3 0 d  0 w3 neg d w3 0 d 0 w3 d w3 0 d  0 w3 d w3 neg 0 d 0 w3 d w3 neg 0 d 0 w3 neg d w3 neg 0 d cl f } def
/m35 {mp x y w2 add m w2 neg w2 neg d w2 w2 neg d w2 w2 d w2 neg w2 d x y w2 sub m 0 w d x w2 sub y m w 0 d s} def
/m36 {mb x w2 sub y w2 add m w w neg d x w2 sub y w2 sub m w w d s} def
/m37 {mp x y m w4 neg w2 d w4 neg w2 neg d w2 0 d  w4 neg w2 neg d w2 0 d w4 neg w2 d w2 0 d w4 neg w2 d w4 neg w2 neg d cl s} def
/m38 {mp x w4 sub y w2 add m w4 neg w4 neg d 0 w2 neg d w4 w4 neg d w2 0 d w4 w4 d 0 w2 d w4 neg w4 d w2 neg 0 d x y w2 sub m 0 w d x w2 sub y m w 0 d cl s} def
/m39 {mp x y m w4 neg w2 d w4 neg w2 neg d w2 0 d  w4 neg w2 neg d w2 0 d w4 neg w2 d w2 0 d w4 neg w2 d w4 neg w2 neg d cl f} def
/m40 {mp x y m w4 w2 d w4 w4 neg d w2 neg w4 neg d w2 w4 neg d w4 neg w4 neg d w4 neg w2 d w4 neg w2 neg d w4 neg w4 d w2 w4 d w2 neg w4 d w4 w4 d w4 w2 neg d cl s} def
/m41 {mp x y m w4 w2 d w4 w4 neg d w2 neg w4 neg d w2 w4 neg d w4 neg w4 neg d w4 neg w2 d w4 neg w2 neg d w4 neg w4 d w2 w4 d w2 neg w4 d w4 w4 d w4 w2 neg d cl f} def
/m42 {mp x y w2 add m w8 neg w2 -3 4 div mul d w2 -3 4 div mul w8 neg d w2 3 4 div mul w8 neg d w8 w2 -3 4 div mul d w8 w2 3 4 div mul d w2 3 4 div mul w8 d w2 -3 4 div mul w8 d w8 neg w2 3 4 div mul d cl s} def
/m43 {mp x y w2 add m w8 neg w2 -3 4 div mul d w2 -3 4 div mul w8 neg d w2 3 4 div mul w8 neg d w8 w2 -3 4 div mul d w8 w2 3 4 div mul d w2 3 4 div mul w8 d w2 -3 4 div mul w8 d w8 neg w2 3 4 div mul d cl f} def
/m44 {mp x y m w6 neg w2 d w2 2 3 div mul 0 d w6 neg w2 neg d w2 w6 d 0 w2 -2 3 div mul d w2 neg w6 d w6 w2 neg d w2 -2 3 div mul 0 d w6 w2 d w2 neg w6 neg d 0 w2 2 3 div mul d w2 w6 neg d cl s} def
/m45 {mp x y m w6 neg w2 d w2 2 3 div mul 0 d w6 neg w2 neg d w2 w6 d 0 w2 -2 3 div mul d w2 neg w6 d w6 w2 neg d w2 -2 3 div mul 0 d w6 w2 d w2 neg w6 neg d 0 w2 2 3 div mul d w2 w6 neg d cl f} def
/m46 {mp x y w4 add m w4 neg w4 d w4 neg w4 neg d  w4 w4 neg d w4 neg w4 neg d w4 w4 neg d w4 w4 d w4 w4 neg d w4 w4 d w4 neg w4 d w4 w4 d w4 neg w4 d w4 neg w4 neg d cl s} def
/m47 {mp x y w4 add m w4 neg w4 d w4 neg w4 neg d w4 w4 neg d w4 neg w4 neg d  w4 w4 neg d w4 w4 d w4 w4 neg d w4 w4 d w4 neg w4 d w4 w4 d w4 neg w4 d w4 neg w4 neg d cl f} def
/m48 {mp x y w4 add m w4 neg w4 d w4 neg w4 neg d w4 w4 neg d  w4 neg w4 neg d w4 w4 neg d w4 w4 d w4 w4 neg d w4 w4 d w4 neg w4 d w4 w4 d w4 neg w4 d w4 neg w4 neg d  w4 w4 neg d w4 neg w4 neg d w4 neg w4 d w4 w4 d cl f} def
/m49 {mp x w2 sub w3 add y w2 sub w3 add m  0 w3 neg d w3 0 d 0 w3 d w3 0 d 0 w3 d w3 neg 0 d 0 w3 d w3 neg 0 d 0 w3 neg d w3 neg 0 d 0 w3 neg d w3 0 d 0 w3 d w3 0 d 0 w3 neg d w3 neg 0 d cl f } def
/m2 {mp x y w2 sub m 0 w d x w2 sub y m w 0 d s} def
/m5 {mp x w2 sub y w2 sub m w w d x w2 sub y w2 add m w w neg d s} def
%%IncludeResource: ProcSet (FontSetInit)
%%IncludeResource: font Times-Roman
%%IncludeResource: font Times-Italic
%%IncludeResource: font Times-Bold
%%IncludeResource: font Times-BoldItalic
%%IncludeResource: font Helvetica
%%IncludeResource: font Helvetica-Oblique
%%IncludeResource: font Helvetica-Bold
%%IncludeResource: font Helvetica-BoldOblique
%%IncludeResource: font Courier
%%IncludeResource: font Courier-Oblique
%%IncludeResource: font Courier-Bold
%%IncludeResource: font Courier-BoldOblique
%%IncludeResource: font Symbol
%%IncludeResource: font ZapfDingbats
/reEncode {exch findfont dup length dict begin {1 index /FID eq  {pop pop} {def} ifelse } forall /Encoding exch def currentdict end dup /FontName get exch definefont pop } def [/Times-Bold /Times-Italic /Times-BoldItalic /Helvetica /Helvetica-Oblique
 /Helvetica-Bold /Helvetica-BoldOblique /Courier /Courier-Oblique /Courier-Bold /Courier-BoldOblique /Times-Roman /AvantGarde-Book /AvantGarde-BookOblique /AvantGarde-Demi /AvantGarde-DemiOblique /Bookman-Demi /Bookman-DemiItalic /Bookman-Light
 /Bookman-LightItalic /Helvetica-Narrow /Helvetica-Narrow-Bold /Helvetica-Narrow-BoldOblique /Helvetica-Narrow-Oblique /NewCenturySchlbk-Roman /NewCenturySchlbk-Bold /NewCenturySchlbk-BoldItalic /NewCenturySchlbk-Italic /Palatino-Bold
 /Palatino-BoldItalic /Palatino-Italic /Palatino-Roman ] {ISOLatin1Encoding reEncode } forall
%%EndProlog
%%BeginSetup
%%EndSetup
newpath  gsave  .25 .25 scale  gsave  0 0 t black[  ] 0 sd 3 lw 1 1 1 c 2268 1575 0 0 bf black 1 1 1 c 2268 472 0 0 bf black 1 1 1 c 1927 274 227 189 bf black 1927 274 227 189 bl 227 189 m 1927 X s 227 201 m -12 Y s 265 195 m -6 Y s 304 195 m -6 Y s
 342 195 m -6 Y s 381 195 m -6 Y s 420 201 m -12 Y s 458 195 m -6 Y s 497 195 m -6 Y s 535 195 m -6 Y s 574 195 m -6 Y s 612 201 m -12 Y s 651 195 m -6 Y s 689 195 m -6 Y s 728 195 m -6 Y s 766 195 m -6 Y s 805 201 m -12 Y s 844 195 m -6 Y s 882 195
 m -6 Y s 921 195 m -6 Y s 959 195 m -6 Y s 998 201 m -12 Y s 1036 195 m -6 Y s 1075 195 m -6 Y s 1113 195 m -6 Y s 1152 195 m -6 Y s 1191 201 m -12 Y s 1229 195 m -6 Y s 1268 195 m -6 Y s 1306 195 m -6 Y s 1345 195 m -6 Y s 1383 201 m -12 Y s 1422
 195 m -6 Y s 1460 195 m -6 Y s 1499 195 m -6 Y s 1538 195 m -6 Y s 1576 201 m -12 Y s 1615 195 m -6 Y s 1653 195 m -6 Y s 1692 195 m -6 Y s 1730 195 m -6 Y s 1769 201 m -12 Y s 1807 195 m -6 Y s 1846 195 m -6 Y s 1884 195 m -6 Y s 1923 195 m -6 Y s
 1962 201 m -12 Y s 2000 195 m -6 Y s 2039 195 m -6 Y s 2077 195 m -6 Y s 2116 195 m -6 Y s 2154 201 m -12 Y s
 gsave  2268 472 0 0 C 210.193 127.3 t 0 r /Helvetica findfont 53.4895 sf 0 0 m (0) show NC gr 
 gsave  2268 472 0 0 C 387.821 127.3 t 0 r /Helvetica findfont 53.4895 sf 0 0 m (50) show NC gr 
 gsave  2268 472 0 0 C 565.449 127.3 t 0 r /Helvetica findfont 53.4895 sf 0 0 m (100) show NC gr 
 gsave  2268 472 0 0 C 757.879 127.3 t 0 r /Helvetica findfont 53.4895 sf 0 0 m (150) show NC gr 
 gsave  2268 472 0 0 C 953.27 127.3 t 0 r /Helvetica findfont 53.4895 sf 0 0 m (200) show NC gr 
 gsave  2268 472 0 0 C 1145.7 127.3 t 0 r /Helvetica findfont 53.4895 sf 0 0 m (250) show NC gr 
 gsave  2268 472 0 0 C 1338.13 127.3 t 0 r /Helvetica findfont 53.4895 sf 0 0 m (300) show NC gr 
 gsave  2268 472 0 0 C 1530.56 127.3 t 0 r /Helvetica findfont 53.4895 sf 0 0 m (350) show NC gr 
 gsave  2268 472 0 0 C 1722.99 127.3 t 0 r /Helvetica findfont 53.4895 sf 0 0 m (400) show NC gr 
 gsave  2268 472 0 0 C 1915.42 127.3 t 0 r /Helvetica findfont 53.4895 sf 0 0 m (450) show NC gr 
 gsave  2268 472 0 0 C 2107.85 127.3 t 0 r /Helvetica findfont 53.4895 sf 0 0 m (500) show NC gr 
 gsave  2268 472 0 0 C 1977.59 53.2884 t 0 r /Helvetica findfont 56.4611 sf 0 0 m (\) [GeV]) show NC gr 
 gsave  2268 472 0 0 C 1962.79 20.7233 t 0 r /Helvetica findfont 38.6313 sf 0 0 m (1) show NC gr 
 gsave  2268 472 0 0 C 1868.05 53.2884 t 0 r /Helvetica findfont 56.4611 sf 0 0 m (\(lep) show NC gr 
 gsave  2268 472 0 0 C 1844.37 20.7233 t 0 r /Helvetica findfont 38.6313 sf 0 0 m (T) show NC gr 
 gsave  2268 472 0 0 C 1808.84 53.2884 t 0 r /Helvetica-Oblique findfont 56.4611 sf 0 0 m (p) show NC gr  227 463 m 1927 X s 227 451 m 12 Y s 265 457 m 6 Y s 304 457 m 6 Y s 342 457 m 6 Y s 381 457 m 6 Y s 420 451 m 12 Y s 458 457 m 6 Y s 497 457 m 6
 Y s 535 457 m 6 Y s 574 457 m 6 Y s 612 451 m 12 Y s 651 457 m 6 Y s 689 457 m 6 Y s 728 457 m 6 Y s 766 457 m 6 Y s 805 451 m 12 Y s 844 457 m 6 Y s 882 457 m 6 Y s 921 457 m 6 Y s 959 457 m 6 Y s 998 451 m 12 Y s 1036 457 m 6 Y s 1075 457 m 6 Y s
 1113 457 m 6 Y s 1152 457 m 6 Y s 1191 451 m 12 Y s 1229 457 m 6 Y s 1268 457 m 6 Y s 1306 457 m 6 Y s 1345 457 m 6 Y s 1383 451 m 12 Y s 1422 457 m 6 Y s 1460 457 m 6 Y s 1499 457 m 6 Y s 1538 457 m 6 Y s 1576 451 m 12 Y s 1615 457 m 6 Y s 1653 457
 m 6 Y s 1692 457 m 6 Y s 1730 457 m 6 Y s 1769 451 m 12 Y s 1807 457 m 6 Y s 1846 457 m 6 Y s 1884 457 m 6 Y s 1923 457 m 6 Y s 1962 451 m 12 Y s 2000 457 m 6 Y s 2039 457 m 6 Y s 2077 457 m 6 Y s 2116 457 m 6 Y s 2154 451 m 12 Y s 227 189 m 274 Y s
 240 240 m -13 X s 240 326 m -13 X s 240 412 m -13 X s 240 240 m -13 X s 240 412 m -13 X s
 gsave  2268 472 0 0 C 118.419 222.035 t 0 r /Helvetica findfont 53.4895 sf 0 0 m (0.5) show NC gr 
 gsave  2268 472 0 0 C 171.707 307.888 t 0 r /Helvetica findfont 53.4895 sf 0 0 m (1) show NC gr 
 gsave  2268 472 0 0 C 118.419 393.742 t 0 r /Helvetica findfont 53.4895 sf 0 0 m (1.5) show NC gr 
 gsave  2268 472 0 0 C 71.0512 230.916 t 90 r /Helvetica findfont 53.4895 sf 0 0 m (Data / SM) show NC gr  2154 189 m 274 Y s 2141 240 m 13 X s 2141 326 m 13 X s 2141 412 m 13 X s 2141 240 m 13 X s 2141 412 m 13 X s 227 189 m 1927 X s 227 463 m 1927
 X s 227 189 m 274 Y s[ 4 8] 0 sd 2154 240 m -1927 X s 2154 326 m -1927 X s 2154 412 m -1927 X s 2154 240 m -1927 X s 2154 412 m -1927 X s[  ] 0 sd 2154 189 m 274 Y s 1 1 0.6 c 193 0 227 326 bf 192 0 420 326 bf 193 0 612 326 bf 193 0 805 326 bf 193 0
 998 326 bf 192 0 1191 326 bf 193 0 1383 326 bf 193 0 1576 326 bf 193 0 1769 326 bf 192 0 1962 326 bf black 0.6 0.6 0.6 c 420 325 m -4 -4 d s 407 331 m -11 -10 d s 388 331 m -11 -10 d s 369 331 m -11 -10 d s 349 331 m -10 -10 d s 330 331 m -10 -10 d
 s 311 331 m -11 -10 d s 292 331 m -11 -10 d s 272 331 m -10 -10 d s 253 331 m -10 -10 d s 234 331 m -7 -7 d s 612 325 m -1 -1 d s 597 328 m -5 -4 d s 577 328 m -4 -4 d s 558 328 m -5 -4 d s 539 328 m -5 -4 d s 520 328 m -5 -4 d s 500 328 m -4 -4 d s
 481 328 m -5 -4 d s 462 328 m -5 -4 d s 443 328 m -5 -4 d s 423 328 m -3 -3 d s 805 325 m -2 -2 d s 790 329 m -7 -6 d s 771 329 m -7 -6 d s 751 329 m -6 -6 d s 732 329 m -6 -6 d s 713 329 m -7 -6 d s 694 329 m -7 -6 d s 674 329 m -6 -6 d s 655 329 m
 -6 -6 d s 636 329 m -7 -6 d s 617 329 m -5 -4 d s 998 326 m -5 -5 d s 984 331 m -10 -10 d s 965 331 m -10 -10 d s 946 331 m -11 -10 d s 926 331 m -10 -10 d s 907 331 m -10 -10 d s 888 331 m -10 -10 d s 869 331 m -10 -10 d s 849 331 m -10 -10 d s 830
 331 m -10 -10 d s 811 331 m -6 -6 d s 1191 326 m -8 -8 d s 1179 334 m -15 -16 d s 1160 334 m -15 -16 d s 1141 334 m -16 -16 d s 1121 334 m -15 -16 d s 1102 334 m -15 -16 d s 1083 334 m -15 -16 d s 1064 334 m -16 -16 d s 1044 334 m -15 -16 d s 1025
 334 m -15 -16 d s 1006 334 m -8 -8 d s 1383 326 m -12 -12 d s 1376 338 m -24 -24 d s 1357 338 m -24 -24 d s 1337 338 m -24 -24 d s 1318 338 m -24 -24 d s 1299 338 m -24 -24 d s 1280 338 m -24 -24 d s 1260 338 m -24 -24 d s 1241 338 m -24 -24 d s
 1222 338 m -24 -24 d s 1203 338 m -12 -12 d s 1576 327 m -11 -11 d s 1567 336 m -21 -20 d s 1547 336 m -20 -20 d s 1528 336 m -20 -20 d s 1509 336 m -21 -20 d s 1490 336 m -21 -20 d s 1470 336 m -20 -20 d s 1451 336 m -20 -20 d s 1432 336 m -21 -20
 d s 1413 336 m -21 -20 d s 1393 336 m -10 -10 d s 1769 308 m -5 -5 d s 1769 327 m -24 -24 d s 1769 346 m -44 -43 d s 1753 349 m -47 -46 d s 1734 349 m -47 -46 d s 1714 349 m -46 -46 d s 1695 349 m -47 -46 d s 1676 349 m -47 -46 d s 1657 349 m -47
 -46 d s 1637 349 m -46 -46 d s 1618 349 m -42 -42 d s 1599 349 m -23 -22 d s 1580 349 m -4 -3 d s 1962 327 m -18 -18 d s 1958 343 m -34 -34 d s 1939 343 m -34 -34 d s 1919 343 m -33 -34 d s 1900 343 m -33 -34 d s 1881 343 m -34 -34 d s 1862 343 m
 -34 -34 d s 1843 343 m -34 -34 d s 1823 343 m -33 -34 d s 1804 343 m -34 -34 d s 1785 343 m -16 -16 d s 2154 328 m -11 -12 d s 2144 336 m -20 -20 d s 2124 336 m -20 -20 d s 2105 336 m -20 -20 d s 2086 336 m -20 -20 d s 2067 336 m -20 -20 d s 2047
 336 m -20 -20 d s 2028 336 m -20 -20 d s 2009 336 m -20 -20 d s 1990 336 m -20 -20 d s 1970 336 m -8 -9 d s black 1 1 1 c black 323 360 m 27 Y s 323 411 m 27 Y s /w 26 def /w2 {w 2 div} def /w3 {w 3 div} def 323 399 m20 516 309 m 3 Y s 516 336 m 3 Y
 s 516 324 m20 709 301 m 10 Y s 709 334 m 9 Y s 709 322 m20 901 334 m 27 Y s 901 385 m 27 Y s 901 373 m20 1094 302 m 47 Y s 1094 373 m 48 Y s 1094 361 m20 1287 331 m 95 Y s 1287 450 m 13 Y s 1287 438 m20 1480 205 m 109 Y s 1480 338 m 109 Y s 1480 326
 m20 1672 189 m 100 Y s 1672 313 m 135 Y s 1672 301 m20 2058 189 m 136 Y s 2058 349 m 114 Y s 2058 337 m20 227 326 m 1927 X s 227 189 m 1927 X s 227 201 m -12 Y s 265 195 m -6 Y s 304 195 m -6 Y s 342 195 m -6 Y s 381 195 m -6 Y s 420 201 m -12 Y s
 458 195 m -6 Y s 497 195 m -6 Y s 535 195 m -6 Y s 574 195 m -6 Y s 612 201 m -12 Y s 651 195 m -6 Y s 689 195 m -6 Y s 728 195 m -6 Y s 766 195 m -6 Y s 805 201 m -12 Y s 844 195 m -6 Y s 882 195 m -6 Y s 921 195 m -6 Y s 959 195 m -6 Y s 998 201 m
 -12 Y s 1036 195 m -6 Y s 1075 195 m -6 Y s 1113 195 m -6 Y s 1152 195 m -6 Y s 1191 201 m -12 Y s 1229 195 m -6 Y s 1268 195 m -6 Y s 1306 195 m -6 Y s 1345 195 m -6 Y s 1383 201 m -12 Y s 1422 195 m -6 Y s 1460 195 m -6 Y s 1499 195 m -6 Y s 1538
 195 m -6 Y s 1576 201 m -12 Y s 1615 195 m -6 Y s 1653 195 m -6 Y s 1692 195 m -6 Y s 1730 195 m -6 Y s 1769 201 m -12 Y s 1807 195 m -6 Y s 1846 195 m -6 Y s 1884 195 m -6 Y s 1923 195 m -6 Y s 1962 201 m -12 Y s 2000 195 m -6 Y s 2039 195 m -6 Y s
 2077 195 m -6 Y s 2116 195 m -6 Y s 2154 201 m -12 Y s 227 463 m 1927 X s 227 451 m 12 Y s 265 457 m 6 Y s 304 457 m 6 Y s 342 457 m 6 Y s 381 457 m 6 Y s 420 451 m 12 Y s 458 457 m 6 Y s 497 457 m 6 Y s 535 457 m 6 Y s 574 457 m 6 Y s 612 451 m 12
 Y s 651 457 m 6 Y s 689 457 m 6 Y s 728 457 m 6 Y s 766 457 m 6 Y s 805 451 m 12 Y s 844 457 m 6 Y s 882 457 m 6 Y s 921 457 m 6 Y s 959 457 m 6 Y s 998 451 m 12 Y s 1036 457 m 6 Y s 1075 457 m 6 Y s 1113 457 m 6 Y s 1152 457 m 6 Y s 1191 451 m 12 Y
 s 1229 457 m 6 Y s 1268 457 m 6 Y s 1306 457 m 6 Y s 1345 457 m 6 Y s 1383 451 m 12 Y s 1422 457 m 6 Y s 1460 457 m 6 Y s 1499 457 m 6 Y s 1538 457 m 6 Y s 1576 451 m 12 Y s 1615 457 m 6 Y s 1653 457 m 6 Y s 1692 457 m 6 Y s 1730 457 m 6 Y s 1769
 451 m 12 Y s 1807 457 m 6 Y s 1846 457 m 6 Y s 1884 457 m 6 Y s 1923 457 m 6 Y s 1962 451 m 12 Y s 2000 457 m 6 Y s 2039 457 m 6 Y s 2077 457 m 6 Y s 2116 457 m 6 Y s 2154 451 m 12 Y s 227 189 m 274 Y s 240 240 m -13 X s 240 326 m -13 X s 240 412 m
 -13 X s 240 240 m -13 X s 240 412 m -13 X s 2154 189 m 274 Y s 2141 240 m 13 X s 2141 326 m 13 X s 2141 412 m 13 X s 2141 240 m 13 X s 2141 412 m 13 X s 1 1 1 c 2268 1103 0 472 bf black 1 1 1 c 1927 1036 227 484 bf black 1927 1036 227 484 bl 1 1 1 c
 black 3 lw 227 484 m 1927 X s 227 502 m -18 Y s 265 493 m -9 Y s 304 493 m -9 Y s 342 493 m -9 Y s 381 493 m -9 Y s 420 502 m -18 Y s 458 493 m -9 Y s 497 493 m -9 Y s 535 493 m -9 Y s 574 493 m -9 Y s 612 502 m -18 Y s 651 493 m -9 Y s 689 493 m -9
 Y s 728 493 m -9 Y s 766 493 m -9 Y s 805 502 m -18 Y s 844 493 m -9 Y s 882 493 m -9 Y s 921 493 m -9 Y s 959 493 m -9 Y s 998 502 m -18 Y s 1036 493 m -9 Y s 1075 493 m -9 Y s 1113 493 m -9 Y s 1152 493 m -9 Y s 1191 502 m -18 Y s 1229 493 m -9 Y
 s 1268 493 m -9 Y s 1306 493 m -9 Y s 1345 493 m -9 Y s 1383 502 m -18 Y s 1422 493 m -9 Y s 1460 493 m -9 Y s 1499 493 m -9 Y s 1538 493 m -9 Y s 1576 502 m -18 Y s 1615 493 m -9 Y s 1653 493 m -9 Y s 1692 493 m -9 Y s 1730 493 m -9 Y s 1769 502 m
 -18 Y s 1807 493 m -9 Y s 1846 493 m -9 Y s 1884 493 m -9 Y s 1923 493 m -9 Y s 1962 502 m -18 Y s 2000 493 m -9 Y s 2039 493 m -9 Y s 2077 493 m -9 Y s 2116 493 m -9 Y s 2154 502 m -18 Y s
 gsave  2268 1103 0 472 C 2060.48 408.544 t 0 r /Helvetica findfont 29.6365 sf 0 0 m (\) [GeV]) show NC gr 
 gsave  2268 1103 0 472 C 2051.6 390.781 t 0 r /Helvetica findfont 20.7455 sf 0 0 m (1) show NC gr 
 gsave  2268 1103 0 472 C 2001.27 408.544 t 0 r /Helvetica findfont 29.6365 sf 0 0 m (\(lep) show NC gr 
 gsave  2268 1103 0 472 C 1986.47 387.821 t 0 r /Helvetica findfont 20.7455 sf 0 0 m (T) show NC gr 
 gsave  2268 1103 0 472 C 1968.71 408.544 t 0 r /Helvetica-Oblique findfont 29.6365 sf 0 0 m (p) show NC gr  227 1520 m 1927 X s 227 1501 m 19 Y s 265 1510 m 10 Y s 304 1510 m 10 Y s 342 1510 m 10 Y s 381 1510 m 10 Y s 420 1501 m 19 Y s 458 1510 m 10
 Y s 497 1510 m 10 Y s 535 1510 m 10 Y s 574 1510 m 10 Y s 612 1501 m 19 Y s 651 1510 m 10 Y s 689 1510 m 10 Y s 728 1510 m 10 Y s 766 1510 m 10 Y s 805 1501 m 19 Y s 844 1510 m 10 Y s 882 1510 m 10 Y s 921 1510 m 10 Y s 959 1510 m 10 Y s 998 1501 m
 19 Y s 1036 1510 m 10 Y s 1075 1510 m 10 Y s 1113 1510 m 10 Y s 1152 1510 m 10 Y s 1191 1501 m 19 Y s 1229 1510 m 10 Y s 1268 1510 m 10 Y s 1306 1510 m 10 Y s 1345 1510 m 10 Y s 1383 1501 m 19 Y s 1422 1510 m 10 Y s 1460 1510 m 10 Y s 1499 1510 m 10
 Y s 1538 1510 m 10 Y s 1576 1501 m 19 Y s 1615 1510 m 10 Y s 1653 1510 m 10 Y s 1692 1510 m 10 Y s 1730 1510 m 10 Y s 1769 1501 m 19 Y s 1807 1510 m 10 Y s 1846 1510 m 10 Y s 1884 1510 m 10 Y s 1923 1510 m 10 Y s 1962 1501 m 19 Y s 2000 1510 m 10 Y
 s 2039 1510 m 10 Y s 2077 1510 m 10 Y s 2116 1510 m 10 Y s 2154 1501 m 19 Y s 227 484 m 1036 Y s 248 638 m -21 X s 237 668 m -10 X s 237 699 m -10 X s 237 730 m -10 X s 237 761 m -10 X s 248 792 m -21 X s 237 822 m -10 X s 237 853 m -10 X s 237 884
 m -10 X s 237 915 m -10 X s 248 946 m -21 X s 237 976 m -10 X s 237 1007 m -10 X s 237 1038 m -10 X s 237 1069 m -10 X s 248 1100 m -21 X s 237 1130 m -10 X s 237 1161 m -10 X s 237 1192 m -10 X s 237 1223 m -10 X s 248 1254 m -21 X s 237 1284 m -10
 X s 237 1315 m -10 X s 237 1346 m -10 X s 237 1377 m -10 X s 248 1408 m -21 X s 248 638 m -21 X s 237 607 m -10 X s 237 576 m -10 X s 237 545 m -10 X s 237 514 m -10 X s 248 1408 m -21 X s 237 1439 m -10 X s 237 1469 m -10 X s 237 1500 m -10 X s
 gsave  2268 1103 0 472 C 145.063 618.737 t 0 r /Helvetica findfont 50.382 sf 0 0 m (50) show NC gr 
 gsave  2268 1103 0 472 C 118.419 772.682 t 0 r /Helvetica findfont 50.382 sf 0 0 m (100) show NC gr 
 gsave  2268 1103 0 472 C 118.419 926.626 t 0 r /Helvetica findfont 50.382 sf 0 0 m (150) show NC gr 
 gsave  2268 1103 0 472 C 118.419 1080.57 t 0 r /Helvetica findfont 50.382 sf 0 0 m (200) show NC gr 
 gsave  2268 1103 0 472 C 118.419 1234.51 t 0 r /Helvetica findfont 50.382 sf 0 0 m (250) show NC gr 
 gsave  2268 1103 0 472 C 118.419 1388.46 t 0 r /Helvetica findfont 50.382 sf 0 0 m (300) show NC gr 
 gsave  2268 1103 0 472 C 62.1698 1154.58 t 90 r /Helvetica findfont 50.382 sf 0 0 m (Events / 50 GeV) show NC gr  2154 484 m 1036 Y s 2133 638 m 21 X s 2144 668 m 10 X s 2144 699 m 10 X s 2144 730 m 10 X s 2144 761 m 10 X s 2133 792 m 21 X s 2144
 822 m 10 X s 2144 853 m 10 X s 2144 884 m 10 X s 2144 915 m 10 X s 2133 946 m 21 X s 2144 976 m 10 X s 2144 1007 m 10 X s 2144 1038 m 10 X s 2144 1069 m 10 X s 2133 1100 m 21 X s 2144 1130 m 10 X s 2144 1161 m 10 X s 2144 1192 m 10 X s 2144 1223 m
 10 X s 2133 1254 m 21 X s 2144 1284 m 10 X s 2144 1315 m 10 X s 2144 1346 m 10 X s 2144 1377 m 10 X s 2133 1408 m 21 X s 2133 638 m 21 X s 2144 607 m 10 X s 2144 576 m 10 X s 2144 545 m 10 X s 2144 514 m 10 X s 2133 1408 m 21 X s 2144 1439 m 10 X s
 2144 1469 m 10 X s 2144 1500 m 10 X s 0.06 0.54 0.06 c black 3 lw 0.06 0.54 0.06 c 227 484 m 84 Y 193 X 330 Y 192 X -213 Y 193 X -127 Y 193 X -44 Y 193 X -17 Y 192 X -7 Y 193 X -3 Y 193 X -1 Y 385 X -2 Y f 1 0.653333 0 c 0.999 0.999 0.999 c black 3
 lw 0.999 0.999 0.999 c 227 484 m 71 Y 193 X 287 Y 192 X -183 Y 193 X -109 Y 193 X -39 Y 193 X -16 Y 192 X -5 Y 193 X -3 Y 193 X -1 Y 385 X -2 Y f 1 0.653333 0 c 0.999 0.999 0.999 c 1 0.653333 0 c 1 1 1 c black 1 0.653333 0 c black 3 lw 1 0.653333 0
 c 227 484 m 71 Y 193 X 287 Y 192 X -183 Y 193 X -109 Y 193 X -39 Y 193 X -16 Y 192 X -5 Y 193 X -3 Y 193 X -1 Y 385 X -2 Y f 0.413333 1 0 c 0.999 0.999 0.999 c black 3 lw 0.999 0.999 0.999 c 227 484 m 71 Y 193 X 284 Y 192 X -180 Y 193 X -109 Y 193 X
 -39 Y 193 X -16 Y 192 X -5 Y 193 X -3 Y 193 X -1 Y 385 X -2 Y f 0.413333 1 0 c 0.999 0.999 0.999 c 0.413333 1 0 c 1 1 1 c black 0.413333 1 0 c black 3 lw 0.413333 1 0 c 227 484 m 71 Y 193 X 284 Y 192 X -180 Y 193 X -109 Y 193 X -39 Y 193 X -16 Y 192
 X -5 Y 193 X -3 Y 193 X -1 Y 385 X -2 Y f 0.6 0.2 1 c 0.999 0.999 0.999 c black 3 lw 0.999 0.999 0.999 c 227 484 m 67 Y 193 X 271 Y 192 X -174 Y 193 X -102 Y 193 X -38 Y 193 X -14 Y 192 X -5 Y 193 X -3 Y 193 X -1 Y 193 X 1 Y 192 X -2 Y f 0.6 0.2 1 c
 0.999 0.999 0.999 c 0.6 0.2 1 c 1 1 1 c black 0.6 0.2 1 c black 3 lw 0.6 0.2 1 c 227 484 m 67 Y 193 X 271 Y 192 X -174 Y 193 X -102 Y 193 X -38 Y 193 X -14 Y 192 X -5 Y 193 X -3 Y 193 X -1 Y 193 X 1 Y 192 X -2 Y f 0.54 0.06 0.06 c 0.999 0.999 0.999
 c black 3 lw 0.999 0.999 0.999 c 227 484 m 60 Y 193 X 239 Y 192 X -153 Y 193 X -91 Y 193 X -34 Y 193 X -12 Y 192 X -4 Y 193 X -3 Y 193 X -1 Y 193 X 1 Y 192 X -2 Y f 0.54 0.06 0.06 c 0.999 0.999 0.999 c 0.54 0.06 0.06 c 1 1 1 c black 0.54 0.06 0.06 c
 black 3 lw 0.54 0.06 0.06 c 227 484 m 60 Y 193 X 239 Y 192 X -153 Y 193 X -91 Y 193 X -34 Y 193 X -12 Y 192 X -4 Y 193 X -3 Y 193 X -1 Y 193 X 1 Y 192 X -2 Y f 1 0 1 c 0.999 0.999 0.999 c black 3 lw 0.999 0.999 0.999 c 227 484 m 12 Y 193 X 43 Y 192
 X -32 Y 193 X -16 Y 193 X -5 Y 193 X -2 Y 963 X f 1 0 1 c 0.999 0.999 0.999 c 1 0 1 c 1 1 1 c black 1 0 1 c black 3 lw 1 0 1 c 227 484 m 12 Y 193 X 43 Y 192 X -32 Y 193 X -16 Y 193 X -5 Y 193 X -2 Y 963 X f 0 0 1 c 0.999 0.999 0.999 c black 3 lw
 0.999 0.999 0.999 c 227 484 m 11 Y 193 X 40 Y 192 X -30 Y 193 X -15 Y 193 X -4 Y 193 X -2 Y 963 X f 0 0 1 c 0.999 0.999 0.999 c 0 0 1 c 1 1 1 c black 0 0 1 c black 3 lw 0 0 1 c 227 484 m 11 Y 193 X 40 Y 192 X -30 Y 193 X -15 Y 193 X -4 Y 193 X -2 Y
 963 X f 0.2 0.8 0.8 c 0.999 0.999 0.999 c black 3 lw 0.999 0.999 0.999 c 227 484 m 1 Y 193 X 6 Y 192 X -3 Y 193 X -3 Y 193 X -1 Y 1156 X f 0.2 0.8 0.8 c 0.999 0.999 0.999 c 0.2 0.8 0.8 c 1 1 1 c black 0.2 0.8 0.8 c black 3 lw 0.2 0.8 0.8 c 227 484 m
 1 Y 193 X 6 Y 192 X -3 Y 193 X -3 Y 193 X -1 Y 1156 X f 1 0 0 c 0.999 0.999 0.999 c black 3 lw 0.999 0.999 0.999 c 227 484 m 193 X 3 Y 192 X -2 Y 193 X -1 Y 1349 X f 1 0 0 c 0.999 0.999 0.999 c 1 0 0 c 1 1 1 c black 1 0 0 c black 3 lw 1 0 0 c 227
 484 m 193 X 3 Y 192 X -2 Y 193 X -1 Y 1349 X f 1 0.84 0 c 0.999 0.999 0.999 c black 3 lw 0.999 0.999 0.999 c 227 484 m 193 X 2 Y 192 X -1 Y 193 X -1 Y 1349 X f 1 0.84 0 c 0.999 0.999 0.999 c 1 0.84 0 c 1 1 1 c black 1 0.84 0 c black 3 lw 1 0.84 0 c
 227 484 m 193 X 2 Y 192 X -1 Y 193 X -1 Y 1349 X f black 1 1 1 c black 0.6 0.6 0.6 c 3 lw 406 570 m -5 -5 d s 387 570 m -6 -5 d s 367 570 m -5 -5 d s 348 570 m -5 -5 d s 329 570 m -5 -5 d s 310 570 m -6 -5 d s 290 570 m -5 -5 d s 271 570 m -5 -5 d s
 252 570 m -5 -5 d s 233 570 m -6 -5 d s 3 lw 605 904 m -11 -12 d s 586 904 m -12 -12 d s 567 904 m -12 -12 d s 547 904 m -11 -12 d s 528 904 m -11 -12 d s 509 904 m -12 -12 d s 490 904 m -12 -12 d s 470 904 m -11 -12 d s 451 904 m -11 -12 d s 432
 904 m -12 -12 d s 3 lw 794 689 m -8 -8 d s 775 689 m -8 -8 d s 755 689 m -7 -8 d s 736 689 m -8 -8 d s 717 689 m -8 -8 d s 698 689 m -8 -8 d s 678 689 m -7 -8 d s 659 689 m -7 -8 d s 640 689 m -8 -8 d s 621 689 m -8 -8 d s 3 lw 993 561 m -5 -5 d s
 974 561 m -5 -5 d s 954 561 m -4 -5 d s 935 561 m -4 -5 d s 916 561 m -5 -5 d s 897 561 m -5 -5 d s 877 561 m -4 -5 d s 858 561 m -4 -5 d s 839 561 m -5 -5 d s 820 561 m -5 -5 d s 3 lw 1178 516 m -2 -3 d s 1159 516 m -3 -3 d s 1140 516 m -3 -3 d s
 1121 516 m -3 -3 d s 1101 516 m -2 -3 d s 1082 516 m -3 -3 d s 1063 516 m -3 -3 d s 1044 516 m -3 -3 d s 1024 516 m -2 -3 d s 1005 516 m -3 -3 d s 3 lw 1372 497 m -2 -1 d s 1353 497 m -2 -1 d s 1333 497 m -1 -1 d s 1314 497 m -2 -1 d s 1295 497 m -2
 -1 d s 1276 497 m -2 -1 d s 1256 497 m -1 -1 d s 1237 497 m -2 -1 d s 1218 497 m -2 -1 d s 1199 497 m -2 -1 d s 3 lw 1576 490 m -1 -1 d s 1557 490 m -1 -1 d s 1538 490 m -1 -1 d s 1518 490 m -1 Y s 1499 490 m -1 -1 d s 1480 490 m -1 -1 d s 1461 490
 m -1 -1 d s 1441 490 m -1 Y s 1422 490 m -1 -1 d s 1403 490 m -1 -1 d s 1384 490 m -1 X s 3 lw 1766 488 m -1 -1 d s 1747 488 m -1 -1 d s 1728 488 m -1 -1 d s 1708 488 m -1 -1 d s 1689 488 m -1 -1 d s 1670 488 m -1 -1 d s 1651 488 m -1 -1 d s 1631
 488 m -1 -1 d s 1612 488 m -1 -1 d s 1593 488 m -1 -1 d s 3 lw 1957 486 m -1 -1 d s 1938 486 m -1 -1 d s 1918 486 m -1 Y s 1899 486 m -1 Y s 1880 486 m -1 -1 d s 1861 486 m -1 -1 d s 1841 486 m -1 Y s 1822 486 m -1 Y s 1803 486 m -1 -1 d s 1784 486
 m -1 -1 d s 3 lw 2150 487 m -1 Y s 2131 487 m -1 -1 d s 2111 487 m -1 Y s 2092 487 m -1 Y s 2073 487 m -1 Y s 2054 487 m -1 -1 d s 2035 487 m -1 -1 d s 2015 487 m -1 Y s 1996 487 m -1 Y s 1977 487 m -1 -1 d s black 3 lw 1 1 1 c black 323 584 m 8 Y s
 323 615 m 8 Y s /w 24 def /w2 {w 2 div} def /w3 {w 3 div} def 323 604 m20 516 858 m 23 Y s 516 905 m 24 Y s 516 893 m20 709 656 m 13 Y s 709 692 m 13 Y s 709 681 m20 901 562 m 5 Y s 901 591 m 5 Y s 901 579 m20 1094 520 m20 1287 505 m20 1480 490 m20
 1672 487 m20 2058 487 m20 227 484 m 1927 X s 227 502 m -18 Y s 265 493 m -9 Y s 304 493 m -9 Y s 342 493 m -9 Y s 381 493 m -9 Y s 420 502 m -18 Y s 458 493 m -9 Y s 497 493 m -9 Y s 535 493 m -9 Y s 574 493 m -9 Y s 612 502 m -18 Y s 651 493 m -9 Y
 s 689 493 m -9 Y s 728 493 m -9 Y s 766 493 m -9 Y s 805 502 m -18 Y s 844 493 m -9 Y s 882 493 m -9 Y s 921 493 m -9 Y s 959 493 m -9 Y s 998 502 m -18 Y s 1036 493 m -9 Y s 1075 493 m -9 Y s 1113 493 m -9 Y s 1152 493 m -9 Y s 1191 502 m -18 Y s
 1229 493 m -9 Y s 1268 493 m -9 Y s 1306 493 m -9 Y s 1345 493 m -9 Y s 1383 502 m -18 Y s 1422 493 m -9 Y s 1460 493 m -9 Y s 1499 493 m -9 Y s 1538 493 m -9 Y s 1576 502 m -18 Y s 1615 493 m -9 Y s 1653 493 m -9 Y s 1692 493 m -9 Y s 1730 493 m -9
 Y s 1769 502 m -18 Y s 1807 493 m -9 Y s 1846 493 m -9 Y s 1884 493 m -9 Y s 1923 493 m -9 Y s 1962 502 m -18 Y s 2000 493 m -9 Y s 2039 493 m -9 Y s 2077 493 m -9 Y s 2116 493 m -9 Y s 2154 502 m -18 Y s 227 1520 m 1927 X s 227 1501 m 19 Y s 265
 1510 m 10 Y s 304 1510 m 10 Y s 342 1510 m 10 Y s 381 1510 m 10 Y s 420 1501 m 19 Y s 458 1510 m 10 Y s 497 1510 m 10 Y s 535 1510 m 10 Y s 574 1510 m 10 Y s 612 1501 m 19 Y s 651 1510 m 10 Y s 689 1510 m 10 Y s 728 1510 m 10 Y s 766 1510 m 10 Y s
 805 1501 m 19 Y s 844 1510 m 10 Y s 882 1510 m 10 Y s 921 1510 m 10 Y s 959 1510 m 10 Y s 998 1501 m 19 Y s 1036 1510 m 10 Y s 1075 1510 m 10 Y s 1113 1510 m 10 Y s 1152 1510 m 10 Y s 1191 1501 m 19 Y s 1229 1510 m 10 Y s 1268 1510 m 10 Y s 1306
 1510 m 10 Y s 1345 1510 m 10 Y s 1383 1501 m 19 Y s 1422 1510 m 10 Y s 1460 1510 m 10 Y s 1499 1510 m 10 Y s 1538 1510 m 10 Y s 1576 1501 m 19 Y s 1615 1510 m 10 Y s 1653 1510 m 10 Y s 1692 1510 m 10 Y s 1730 1510 m 10 Y s 1769 1501 m 19 Y s 1807
 1510 m 10 Y s 1846 1510 m 10 Y s 1884 1510 m 10 Y s 1923 1510 m 10 Y s 1962 1501 m 19 Y s 2000 1510 m 10 Y s 2039 1510 m 10 Y s 2077 1510 m 10 Y s 2116 1510 m 10 Y s 2154 1501 m 19 Y s 227 484 m 1036 Y s 248 638 m -21 X s 237 668 m -10 X s 237 699 m
 -10 X s 237 730 m -10 X s 237 761 m -10 X s 248 792 m -21 X s 237 822 m -10 X s 237 853 m -10 X s 237 884 m -10 X s 237 915 m -10 X s 248 946 m -21 X s 237 976 m -10 X s 237 1007 m -10 X s 237 1038 m -10 X s 237 1069 m -10 X s 248 1100 m -21 X s 237
 1130 m -10 X s 237 1161 m -10 X s 237 1192 m -10 X s 237 1223 m -10 X s 248 1254 m -21 X s 237 1284 m -10 X s 237 1315 m -10 X s 237 1346 m -10 X s 237 1377 m -10 X s 248 1408 m -21 X s 248 638 m -21 X s 237 607 m -10 X s 237 576 m -10 X s 237 545 m
 -10 X s 237 514 m -10 X s 248 1408 m -21 X s 237 1439 m -10 X s 237 1469 m -10 X s 237 1500 m -10 X s 2154 484 m 1036 Y s 2133 638 m 21 X s 2144 668 m 10 X s 2144 699 m 10 X s 2144 730 m 10 X s 2144 761 m 10 X s 2133 792 m 21 X s 2144 822 m 10 X s
 2144 853 m 10 X s 2144 884 m 10 X s 2144 915 m 10 X s 2133 946 m 21 X s 2144 976 m 10 X s 2144 1007 m 10 X s 2144 1038 m 10 X s 2144 1069 m 10 X s 2133 1100 m 21 X s 2144 1130 m 10 X s 2144 1161 m 10 X s 2144 1192 m 10 X s 2144 1223 m 10 X s 2133
 1254 m 21 X s 2144 1284 m 10 X s 2144 1315 m 10 X s 2144 1346 m 10 X s 2144 1377 m 10 X s 2133 1408 m 21 X s 2133 638 m 21 X s 2144 607 m 10 X s 2144 576 m 10 X s 2144 545 m 10 X s 2144 514 m 10 X s 2133 1408 m 21 X s 2144 1439 m 10 X s 2144 1469 m
 10 X s 2144 1500 m 10 X s
 gsave  2268 1103 0 472 C 1314.45 1423.98 t 0 r /Helvetica findfont 56.3093 sf 0 0 m ( Data) show NC gr  1259 1451 m 10 Y s 1259 1427 m -10 Y s 1259 1439 m20
 gsave  2268 1103 0 472 C 1808.84 1423.98 t 0 r /Helvetica findfont 56.3093 sf 0 0 m (single\255top) show NC gr 
 gsave  2268 1103 0 472 C 1779.24 1423.98 t 0 r /Helvetica-Oblique findfont 56.3093 sf 0 0 m (/) show NC gr 
 gsave  2268 1103 0 472 C 1758.52 1423.98 t 0 r /Helvetica-Oblique findfont 56.3093 sf 0 0 m (t) show NC gr  6 lw 1759 1468 m 20 X s
 gsave  2268 1103 0 472 C 1737.79 1423.98 t 0 r /Helvetica-Oblique findfont 56.3093 sf 0 0 m (t) show NC gr 
 gsave  2268 1103 0 472 C 1720.03 1423.98 t 0 r /Helvetica findfont 56.3093 sf 0 0 m ( ) show NC gr  0.06 0.54 0.06 c 3 lw 1626 1413 m 79 X 52 Y -79 X f 6 lw black
 gsave  2268 1103 0 472 C 1444.71 1349.97 t 0 r /Helvetica findfont 56.3093 sf 0 0 m (+jets) show NC gr 
 gsave  2268 1103 0 472 C 1332.21 1349.97 t 0 r /Helvetica-Oblique findfont 56.3093 sf 0 0 m (W/Z) show NC gr 
 gsave  2268 1103 0 472 C 1314.45 1349.97 t 0 r /Helvetica findfont 56.3093 sf 0 0 m ( ) show NC gr  1 0.653333 0 c 3 lw 1219 1340 m 79 X 51 Y -79 X f black
 gsave  2268 1103 0 472 C 1918.38 1349.97 t 0 r /Helvetica findfont 56.3093 sf 0 0 m (+jets) show NC gr 
 gsave  2268 1103 0 472 C 1737.79 1349.97 t 0 r /Helvetica-Oblique findfont 56.3093 sf 0 0 m (WZ/ZZ) show NC gr 
 gsave  2268 1103 0 472 C 1720.03 1349.97 t 0 r /Helvetica findfont 56.3093 sf 0 0 m ( ) show NC gr  0.413333 1 0 c 3 lw 1626 1340 m 79 X 51 Y -79 X f black
 gsave  2268 1103 0 472 C 1373.66 1275.96 t 0 r /Helvetica-Oblique findfont 56.3093 sf 0 0 m (Z) show NC gr 
 gsave  2268 1103 0 472 C 1352.93 1275.96 t 0 r /Helvetica-Oblique findfont 56.3093 sf 0 0 m (t) show NC gr  6 lw 1353 1320 m 21 X s
 gsave  2268 1103 0 472 C 1332.21 1275.96 t 0 r /Helvetica-Oblique findfont 56.3093 sf 0 0 m (t) show NC gr 
 gsave  2268 1103 0 472 C 1314.45 1275.96 t 0 r /Helvetica findfont 56.3093 sf 0 0 m ( ) show NC gr  0.6 0.2 1 c 3 lw 1219 1266 m 79 X 52 Y -79 X f 6 lw black
 gsave  2268 1103 0 472 C 1779.24 1275.96 t 0 r /Helvetica-Oblique findfont 56.3093 sf 0 0 m (W) show NC gr 
 gsave  2268 1103 0 472 C 1758.52 1275.96 t 0 r /Helvetica-Oblique findfont 56.3093 sf 0 0 m (t) show NC gr  6 lw 1759 1320 m 20 X s
 gsave  2268 1103 0 472 C 1737.79 1275.96 t 0 r /Helvetica-Oblique findfont 56.3093 sf 0 0 m (t) show NC gr 
 gsave  2268 1103 0 472 C 1720.03 1275.96 t 0 r /Helvetica findfont 56.3093 sf 0 0 m ( ) show NC gr  0.54 0.06 0.06 c 3 lw 1626 1266 m 79 X 52 Y -79 X f 6 lw black
 gsave  2268 1103 0 472 C 1332.21 1204.91 t 0 r /Helvetica-Oblique findfont 56.3093 sf 0 0 m (tZq) show NC gr 
 gsave  2268 1103 0 472 C 1314.45 1204.91 t 0 r /Helvetica findfont 56.3093 sf 0 0 m ( ) show NC gr  1 0 1 c 3 lw 1219 1193 m 79 X 51 Y -79 X f black
 gsave  2268 1103 0 472 C 1779.24 1204.91 t 0 r /Helvetica-Oblique findfont 56.3093 sf 0 0 m (H) show NC gr 
 gsave  2268 1103 0 472 C 1758.52 1204.91 t 0 r /Helvetica-Oblique findfont 56.3093 sf 0 0 m (t) show NC gr  6 lw 1759 1249 m 20 X s
 gsave  2268 1103 0 472 C 1737.79 1204.91 t 0 r /Helvetica-Oblique findfont 56.3093 sf 0 0 m (t) show NC gr 
 gsave  2268 1103 0 472 C 1720.03 1204.91 t 0 r /Helvetica findfont 56.3093 sf 0 0 m ( ) show NC gr  0 0 1 c 3 lw 1626 1193 m 79 X 51 Y -79 X f 6 lw black
 gsave  2268 1103 0 472 C 1332.21 1130.9 t 0 r /Helvetica-Oblique findfont 56.3093 sf 0 0 m (tWZ/tWH) show NC gr 
 gsave  2268 1103 0 472 C 1314.45 1130.9 t 0 r /Helvetica findfont 56.3093 sf 0 0 m ( ) show NC gr  0.2 0.8 0.8 c 3 lw 1219 1119 m 79 X 52 Y -79 X f black
 gsave  2268 1103 0 472 C 1737.79 1130.9 t 0 r /Helvetica-Oblique findfont 56.3093 sf 0 0 m (tHq) show NC gr 
 gsave  2268 1103 0 472 C 1720.03 1130.9 t 0 r /Helvetica findfont 56.3093 sf 0 0 m ( ) show NC gr  1 0 0 c 3 lw 1626 1119 m 79 X 52 Y -79 X f black
 gsave  2268 1103 0 472 C 1314.45 1056.89 t 0 r /Helvetica findfont 56.3093 sf 0 0 m ( Other) show NC gr  1 0.84 0 c 3 lw 1219 1046 m 79 X 51 Y -79 X f black
 gsave  2268 1103 0 472 C 1720.03 1056.89 t 0 r /Helvetica findfont 56.3093 sf 0 0 m ( Uncertainty) show NC gr  0.6 0.6 0.6 c 3 lw 1705 1061 m -15 -15 d s 1705 1080 m -34 -34 d s 1703 1097 m -51 -51 d s 1684 1097 m -51 -51 d s 1665 1097 m -39 -39 d s
 1646 1097 m -20 -20 d s 1626 1097 m s 1 0.84 0 c 0.6 0.6 0.6 c black
 gsave  2268 1103 0 472 C 894.061 1329.25 t 0 r /Helvetica findfont 41.4911 sf 0 0 m (\2551) show NC gr 
 gsave  2268 1103 0 472 C 399.663 1299.64 t 0 r /Helvetica findfont 62.2366 sf 0 0 m ( = 13 TeV,  139 fb) show NC gr 
 gsave  2268 1103 0 472 C 370.058 1299.64 t 0 r /Helvetica findfont 62.2366 sf 0 0 m (s) show NC gr  6 lw 349 1335 m 6 -38 d s 3 lw 355 1297 m 6 56 d s 361 1353 m 39 X s
 gsave  2268 1103 0 472 C 808.207 1201.95 t 0 r /Helvetica findfont 62.2366 sf 0 0 m (\)) show NC gr 
 gsave  2268 1103 0 472 C 740.116 1201.95 t 0 r /Helvetica-Oblique findfont 62.2366 sf 0 0 m (W) show NC gr 
 gsave  2268 1103 0 472 C 716.433 1201.95 t 0 r /Helvetica-Oblique findfont 62.2366 sf 0 0 m (t) show NC gr  6 lw 716 1252 m 24 X s
 gsave  2268 1103 0 472 C 692.749 1201.95 t 0 r /Helvetica-Oblique findfont 62.2366 sf 0 0 m (t) show NC gr 
 gsave  2268 1103 0 472 C 337.493 1201.95 t 0 r /Helvetica findfont 62.2366 sf 0 0 m ( 2L\(SS\), CR\() show NC gr 
 gsave  2268 1103 0 472 C 337.493 1400.3 t 0 r /Helvetica-BoldOblique findfont 71.1276 sf 0 0 m (ATLAS) show NC gr 
 gsave  2268 1103 0 472 C 633.54 1400.3 t 0 r /Helvetica findfont 71.1276 sf 0 0 m (Internal) show NC gr 
 gr  gr showpage
end
%%EOF
