%!PS-Adobe-2.0 EPSF-2.0
%%BoundingBox:  0 0 567 396
%%Title: : LepPt2_CR1b3j
%%Creator: ROOT Version 6.20/06
%%CreationDate: Tue May 31 15:03:55 2022
%%DocumentNeededResources: ProcSet (FontSetInit)
%%EndComments
%%BeginProlog
80 dict begin
/s {stroke} def /l {lineto} def /m {moveto} def /t {translate} def
/r {rotate} def /rl {roll}  def /R {repeat} def
/d {rlineto} def /rm {rmoveto} def /gr {grestore} def /f {eofill} def
/c {setrgbcolor} def /black {0 setgray} def /sd {setdash} def
/cl {closepath} def /sf {scalefont setfont} def /lw {setlinewidth} def
/box {m dup 0 exch d exch 0 d 0 exch neg d cl} def
/NC{systemdict begin initclip end}def/C{NC box clip newpath}def
/bl {box s} def /bf {gsave box gsave f grestore 1 lw [] 0 sd s grestore} def /Y { 0 exch d} def /X { 0 d} def 
/K {{pop pop 0 moveto} exch kshow} bind def
/ita {/ang 15 def gsave [1 0 ang dup sin exch cos div 1 0 0] concat} def 
/mp {newpath /y exch def /x exch def} def
/side {[w .77 mul w .23 mul] .385 w mul sd w 0 l currentpoint t -144 r} def
/mr {mp x y w2 0 360 arc} def /m24 {mr s} def /m20 {mr f} def
/mb {mp x y w2 add m w2 neg 0 d 0 w neg d w 0 d 0 w d cl} def
/mt {mp x y w2 add m w2 neg w neg d w 0 d cl} def
/w4 {w 4 div} def
/w6 {w 6 div} def
/w8 {w 8 div} def
/m21 {mb f} def /m25 {mb s} def /m22 {mt f} def /m26{mt s} def
/m23 {mp x y w2 sub m w2 w d w neg 0 d cl f} def
/m27 {mp x y w2 add m w3 neg w2 neg d w3 w2 neg d w3 w2 d cl s} def
/m28 {mp x w2 sub y w2 sub w3 add m w3 0 d  0 w3 neg d w3 0 d 0 w3 d w3 0 d  0 w3 d w3 neg 0 d 0 w3 d w3 neg 0 d 0 w3 neg d w3 neg 0 d cl s } def
/m29 {mp gsave x w2 sub y w2 add w3 sub m currentpoint t 4 {side} repeat cl fill gr} def
/m30 {mp gsave x w2 sub y w2 add w3 sub m currentpoint t 4 {side} repeat cl s gr} def
/m31 {mp x y w2 sub m 0 w d x w2 sub y m w 0 d x w2 sub y w2 add m w w neg d x w2 sub y w2 sub m w w d s} def
/m32 {mp x y w2 sub m w2 w d w neg 0 d cl s} def
/m33 {mp x y w2 add m w3 neg w2 neg d w3 w2 neg d w3 w2 d cl f} def
/m34 {mp x w2 sub y w2 sub w3 add m w3 0 d  0 w3 neg d w3 0 d 0 w3 d w3 0 d  0 w3 d w3 neg 0 d 0 w3 d w3 neg 0 d 0 w3 neg d w3 neg 0 d cl f } def
/m35 {mp x y w2 add m w2 neg w2 neg d w2 w2 neg d w2 w2 d w2 neg w2 d x y w2 sub m 0 w d x w2 sub y m w 0 d s} def
/m36 {mb x w2 sub y w2 add m w w neg d x w2 sub y w2 sub m w w d s} def
/m37 {mp x y m w4 neg w2 d w4 neg w2 neg d w2 0 d  w4 neg w2 neg d w2 0 d w4 neg w2 d w2 0 d w4 neg w2 d w4 neg w2 neg d cl s} def
/m38 {mp x w4 sub y w2 add m w4 neg w4 neg d 0 w2 neg d w4 w4 neg d w2 0 d w4 w4 d 0 w2 d w4 neg w4 d w2 neg 0 d x y w2 sub m 0 w d x w2 sub y m w 0 d cl s} def
/m39 {mp x y m w4 neg w2 d w4 neg w2 neg d w2 0 d  w4 neg w2 neg d w2 0 d w4 neg w2 d w2 0 d w4 neg w2 d w4 neg w2 neg d cl f} def
/m40 {mp x y m w4 w2 d w4 w4 neg d w2 neg w4 neg d w2 w4 neg d w4 neg w4 neg d w4 neg w2 d w4 neg w2 neg d w4 neg w4 d w2 w4 d w2 neg w4 d w4 w4 d w4 w2 neg d cl s} def
/m41 {mp x y m w4 w2 d w4 w4 neg d w2 neg w4 neg d w2 w4 neg d w4 neg w4 neg d w4 neg w2 d w4 neg w2 neg d w4 neg w4 d w2 w4 d w2 neg w4 d w4 w4 d w4 w2 neg d cl f} def
/m42 {mp x y w2 add m w8 neg w2 -3 4 div mul d w2 -3 4 div mul w8 neg d w2 3 4 div mul w8 neg d w8 w2 -3 4 div mul d w8 w2 3 4 div mul d w2 3 4 div mul w8 d w2 -3 4 div mul w8 d w8 neg w2 3 4 div mul d cl s} def
/m43 {mp x y w2 add m w8 neg w2 -3 4 div mul d w2 -3 4 div mul w8 neg d w2 3 4 div mul w8 neg d w8 w2 -3 4 div mul d w8 w2 3 4 div mul d w2 3 4 div mul w8 d w2 -3 4 div mul w8 d w8 neg w2 3 4 div mul d cl f} def
/m44 {mp x y m w6 neg w2 d w2 2 3 div mul 0 d w6 neg w2 neg d w2 w6 d 0 w2 -2 3 div mul d w2 neg w6 d w6 w2 neg d w2 -2 3 div mul 0 d w6 w2 d w2 neg w6 neg d 0 w2 2 3 div mul d w2 w6 neg d cl s} def
/m45 {mp x y m w6 neg w2 d w2 2 3 div mul 0 d w6 neg w2 neg d w2 w6 d 0 w2 -2 3 div mul d w2 neg w6 d w6 w2 neg d w2 -2 3 div mul 0 d w6 w2 d w2 neg w6 neg d 0 w2 2 3 div mul d w2 w6 neg d cl f} def
/m46 {mp x y w4 add m w4 neg w4 d w4 neg w4 neg d  w4 w4 neg d w4 neg w4 neg d w4 w4 neg d w4 w4 d w4 w4 neg d w4 w4 d w4 neg w4 d w4 w4 d w4 neg w4 d w4 neg w4 neg d cl s} def
/m47 {mp x y w4 add m w4 neg w4 d w4 neg w4 neg d w4 w4 neg d w4 neg w4 neg d  w4 w4 neg d w4 w4 d w4 w4 neg d w4 w4 d w4 neg w4 d w4 w4 d w4 neg w4 d w4 neg w4 neg d cl f} def
/m48 {mp x y w4 add m w4 neg w4 d w4 neg w4 neg d w4 w4 neg d  w4 neg w4 neg d w4 w4 neg d w4 w4 d w4 w4 neg d w4 w4 d w4 neg w4 d w4 w4 d w4 neg w4 d w4 neg w4 neg d  w4 w4 neg d w4 neg w4 neg d w4 neg w4 d w4 w4 d cl f} def
/m49 {mp x w2 sub w3 add y w2 sub w3 add m  0 w3 neg d w3 0 d 0 w3 d w3 0 d 0 w3 d w3 neg 0 d 0 w3 d w3 neg 0 d 0 w3 neg d w3 neg 0 d 0 w3 neg d w3 0 d 0 w3 d w3 0 d 0 w3 neg d w3 neg 0 d cl f } def
/m2 {mp x y w2 sub m 0 w d x w2 sub y m w 0 d s} def
/m5 {mp x w2 sub y w2 sub m w w d x w2 sub y w2 add m w w neg d s} def
%%IncludeResource: ProcSet (FontSetInit)
%%IncludeResource: font Times-Roman
%%IncludeResource: font Times-Italic
%%IncludeResource: font Times-Bold
%%IncludeResource: font Times-BoldItalic
%%IncludeResource: font Helvetica
%%IncludeResource: font Helvetica-Oblique
%%IncludeResource: font Helvetica-Bold
%%IncludeResource: font Helvetica-BoldOblique
%%IncludeResource: font Courier
%%IncludeResource: font Courier-Oblique
%%IncludeResource: font Courier-Bold
%%IncludeResource: font Courier-BoldOblique
%%IncludeResource: font Symbol
%%IncludeResource: font ZapfDingbats
/reEncode {exch findfont dup length dict begin {1 index /FID eq  {pop pop} {def} ifelse } forall /Encoding exch def currentdict end dup /FontName get exch definefont pop } def [/Times-Bold /Times-Italic /Times-BoldItalic /Helvetica /Helvetica-Oblique
 /Helvetica-Bold /Helvetica-BoldOblique /Courier /Courier-Oblique /Courier-Bold /Courier-BoldOblique /Times-Roman /AvantGarde-Book /AvantGarde-BookOblique /AvantGarde-Demi /AvantGarde-DemiOblique /Bookman-Demi /Bookman-DemiItalic /Bookman-Light
 /Bookman-LightItalic /Helvetica-Narrow /Helvetica-Narrow-Bold /Helvetica-Narrow-BoldOblique /Helvetica-Narrow-Oblique /NewCenturySchlbk-Roman /NewCenturySchlbk-Bold /NewCenturySchlbk-BoldItalic /NewCenturySchlbk-Italic /Palatino-Bold
 /Palatino-BoldItalic /Palatino-Italic /Palatino-Roman ] {ISOLatin1Encoding reEncode } forall
%%EndProlog
%%BeginSetup
%%EndSetup
newpath  gsave  .25 .25 scale  gsave  0 0 t black[  ] 0 sd 3 lw 1 1 1 c 2268 1583 0 0 bf black 1 1 1 c 2268 475 0 0 bf black 1 1 1 c 1927 275 227 190 bf black 1927 275 227 190 bl 227 190 m 1927 X s 227 202 m -12 Y s 304 196 m -6 Y s 381 196 m -6 Y s
 458 196 m -6 Y s 535 196 m -6 Y s 612 202 m -12 Y s 689 196 m -6 Y s 766 196 m -6 Y s 844 196 m -6 Y s 921 196 m -6 Y s 998 202 m -12 Y s 1075 196 m -6 Y s 1152 196 m -6 Y s 1229 196 m -6 Y s 1306 196 m -6 Y s 1383 202 m -12 Y s 1460 196 m -6 Y s
 1538 196 m -6 Y s 1615 196 m -6 Y s 1692 196 m -6 Y s 1769 202 m -12 Y s 1846 196 m -6 Y s 1923 196 m -6 Y s 2000 196 m -6 Y s 2077 196 m -6 Y s 2154 202 m -12 Y s
 gsave  2268 475 0 0 C 209.646 126.968 t 0 r /Helvetica findfont 53.4154 sf 0 0 m (0) show NC gr 
 gsave  2268 475 0 0 C 581.693 126.968 t 0 r /Helvetica findfont 53.4154 sf 0 0 m (50) show NC gr 
 gsave  2268 475 0 0 C 950.787 126.968 t 0 r /Helvetica findfont 53.4154 sf 0 0 m (100) show NC gr 
 gsave  2268 475 0 0 C 1337.6 126.968 t 0 r /Helvetica findfont 53.4154 sf 0 0 m (150) show NC gr 
 gsave  2268 475 0 0 C 1724.41 126.968 t 0 r /Helvetica findfont 53.4154 sf 0 0 m (200) show NC gr 
 gsave  2268 475 0 0 C 2108.27 126.968 t 0 r /Helvetica findfont 53.4154 sf 0 0 m (250) show NC gr 
 gsave  2268 475 0 0 C 1978.35 53.1496 t 0 r /Helvetica findfont 56.3829 sf 0 0 m (\) [GeV]) show NC gr 
 gsave  2268 475 0 0 C 1957.68 20.6693 t 0 r /Helvetica findfont 38.5778 sf 0 0 m (2) show NC gr 
 gsave  2268 475 0 0 C 1863.19 53.1496 t 0 r /Helvetica findfont 56.3829 sf 0 0 m (\(lep) show NC gr 
 gsave  2268 475 0 0 C 1839.57 20.6693 t 0 r /Helvetica findfont 38.5778 sf 0 0 m (T) show NC gr 
 gsave  2268 475 0 0 C 1804.13 53.1496 t 0 r /Helvetica-Oblique findfont 56.3829 sf 0 0 m (p) show NC gr  227 465 m 1927 X s 227 453 m 12 Y s 304 459 m 6 Y s 381 459 m 6 Y s 458 459 m 6 Y s 535 459 m 6 Y s 612 453 m 12 Y s 689 459 m 6 Y s 766 459 m 6
 Y s 844 459 m 6 Y s 921 459 m 6 Y s 998 453 m 12 Y s 1075 459 m 6 Y s 1152 459 m 6 Y s 1229 459 m 6 Y s 1306 459 m 6 Y s 1383 453 m 12 Y s 1460 459 m 6 Y s 1538 459 m 6 Y s 1615 459 m 6 Y s 1692 459 m 6 Y s 1769 453 m 12 Y s 1846 459 m 6 Y s 1923
 459 m 6 Y s 2000 459 m 6 Y s 2077 459 m 6 Y s 2154 453 m 12 Y s 227 190 m 275 Y s 240 242 m -13 X s 240 328 m -13 X s 240 414 m -13 X s 240 242 m -13 X s 240 414 m -13 X s
 gsave  2268 475 0 0 C 118.11 221.457 t 0 r /Helvetica findfont 53.4154 sf 0 0 m (0.5) show NC gr 
 gsave  2268 475 0 0 C 171.26 307.087 t 0 r /Helvetica findfont 53.4154 sf 0 0 m (1) show NC gr 
 gsave  2268 475 0 0 C 118.11 395.669 t 0 r /Helvetica findfont 53.4154 sf 0 0 m (1.5) show NC gr 
 gsave  2268 475 0 0 C 70.8661 233.268 t 90 r /Helvetica findfont 53.4154 sf 0 0 m (Data / SM) show NC gr  2154 190 m 275 Y s 2141 242 m 13 X s 2141 328 m 13 X s 2141 414 m 13 X s 2141 242 m 13 X s 2141 414 m 13 X s 227 190 m 1927 X s 227 465 m 1927
 X s 227 190 m 275 Y s[ 4 8] 0 sd 2154 242 m -1927 X s 2154 328 m -1927 X s 2154 414 m -1927 X s 2154 242 m -1927 X s 2154 414 m -1927 X s[  ] 0 sd 2154 190 m 275 Y s 1 1 0.6 c 193 0 227 328 bf 192 0 420 328 bf 193 0 612 328 bf 193 0 805 328 bf 193 0
 998 328 bf 192 0 1191 328 bf 193 0 1383 328 bf 193 0 1576 328 bf 193 0 1769 328 bf 192 0 1962 328 bf black 0.6 0.6 0.6 c 420 325 m -6 -6 d s 411 336 m -16 -17 d s 392 336 m -16 -17 d s 373 336 m -17 -17 d s 353 336 m -16 -17 d s 334 336 m -16 -17 d
 s 315 336 m -16 -17 d s 296 336 m -17 -17 d s 276 336 m -16 -17 d s 257 336 m -16 -17 d s 238 336 m -11 -11 d s 612 325 m -3 -3 d s 601 333 m -11 -11 d s 582 333 m -12 -11 d s 563 333 m -12 -11 d s 543 333 m -11 -11 d s 524 333 m -11 -11 d s 505 333
 m -12 -11 d s 486 333 m -12 -11 d s 467 333 m -12 -11 d s 447 333 m -11 -11 d s 428 333 m -8 -8 d s 805 326 m -5 -5 d s 794 334 m -13 -13 d s 775 334 m -13 -13 d s 756 334 m -13 -13 d s 737 334 m -14 -13 d s 717 334 m -13 -13 d s 698 334 m -13 -13 d
 s 679 334 m -13 -13 d s 660 334 m -14 -13 d s 641 334 m -14 -13 d s 621 334 m -9 -9 d s 998 326 m -7 -7 d s 988 336 m -16 -17 d s 969 336 m -16 -17 d s 950 336 m -16 -17 d s 931 336 m -17 -17 d s 911 336 m -16 -17 d s 892 336 m -16 -17 d s 873 336 m
 -16 -17 d s 854 336 m -17 -17 d s 834 336 m -16 -17 d s 815 336 m -10 -10 d s 1191 326 m -11 -10 d s 1185 340 m -24 -24 d s 1165 340 m -24 -24 d s 1146 340 m -24 -24 d s 1127 340 m -24 -24 d s 1108 340 m -24 -24 d s 1088 340 m -23 -24 d s 1069 340 m
 -24 -24 d s 1050 340 m -24 -24 d s 1031 340 m -24 -24 d s 1011 340 m -13 -14 d s 1383 327 m -18 -19 d s 1383 346 m -37 -38 d s 1365 347 m -38 -39 d s 1346 347 m -38 -39 d s 1326 347 m -38 -39 d s 1307 347 m -38 -39 d s 1288 347 m -38 -39 d s 1269
 347 m -38 -39 d s 1249 347 m -38 -39 d s 1230 347 m -38 -39 d s 1211 347 m -20 -21 d s 1192 347 m -1 -1 d s 1576 308 m -4 -5 d s 1576 327 m -24 -24 d s 1576 346 m -43 -43 d s 1563 352 m -49 -49 d s 1543 352 m -48 -49 d s 1524 352 m -49 -49 d s 1505
 352 m -49 -49 d s 1486 352 m -49 -49 d s 1466 352 m -48 -49 d s 1447 352 m -49 -49 d s 1428 352 m -45 -45 d s 1409 352 m -26 -25 d s 1389 352 m -6 -6 d s 1769 289 m -1 -1 d s 1769 308 m -20 -20 d s 1769 327 m -39 -39 d s 1769 347 m -58 -59 d s 1769
 366 m -78 -78 d s 1751 367 m -79 -79 d s 1732 367 m -79 -79 d s 1712 367 m -78 -79 d s 1693 367 m -79 -79 d s 1674 367 m -79 -79 d s 1655 367 m -79 -79 d s 1635 367 m -59 -59 d s 1616 367 m -40 -40 d s 1597 367 m -21 -21 d s 1578 367 m -2 -1 d s
 1962 289 m -7 -7 d s 1962 308 m -27 -26 d s 1962 328 m -46 -46 d s 1962 347 m -65 -65 d s 1962 366 m -84 -84 d s 1949 373 m -91 -91 d s 1930 373 m -91 -91 d s 1911 373 m -91 -91 d s 1892 373 m -91 -91 d s 1872 373 m -91 -91 d s 1853 373 m -84 -84 d
 s 1834 373 m -65 -65 d s 1815 373 m -46 -46 d s 1795 373 m -26 -26 d s 1776 373 m -7 -7 d s 2154 251 m -9 -10 d s 2154 270 m -29 -29 d s 2154 289 m -48 -48 d s 2154 309 m -67 -68 d s 2154 328 m -86 -87 d s 2154 347 m -106 -106 d s 2154 367 m -125
 -126 d s 2154 386 m -144 -145 d s 2154 405 m -163 -164 d s 2144 414 m -173 -173 d s 2125 414 m -163 -164 d s 2106 414 m -144 -144 d s 2086 414 m -124 -125 d s 2067 414 m -105 -106 d s 2048 414 m -86 -86 d s 2029 414 m -67 -67 d s 2010 414 m -48 -48
 d s 1990 414 m -28 -28 d s 1971 414 m -9 -9 d s black 1 1 1 c black 323 336 m 11 Y s 323 370 m 11 Y s /w 26 def /w2 {w 2 div} def /w3 {w 3 div} def 323 359 m20 516 343 m20 709 341 m 7 Y s 709 372 m 7 Y s 709 360 m20 901 352 m 20 Y s 901 396 m 20 Y s
 901 384 m20 1094 287 m 29 Y s 1094 340 m 29 Y s 1094 328 m20 1287 203 m 36 Y s 1287 263 m 36 Y s 1287 251 m20 1480 234 m 67 Y s 1480 325 m 67 Y s 1480 313 m20 1672 190 m 45 Y s 1672 259 m 80 Y s 1672 247 m20 227 328 m 1927 X s 227 190 m 1927 X s 227
 202 m -12 Y s 304 196 m -6 Y s 381 196 m -6 Y s 458 196 m -6 Y s 535 196 m -6 Y s 612 202 m -12 Y s 689 196 m -6 Y s 766 196 m -6 Y s 844 196 m -6 Y s 921 196 m -6 Y s 998 202 m -12 Y s 1075 196 m -6 Y s 1152 196 m -6 Y s 1229 196 m -6 Y s 1306 196
 m -6 Y s 1383 202 m -12 Y s 1460 196 m -6 Y s 1538 196 m -6 Y s 1615 196 m -6 Y s 1692 196 m -6 Y s 1769 202 m -12 Y s 1846 196 m -6 Y s 1923 196 m -6 Y s 2000 196 m -6 Y s 2077 196 m -6 Y s 2154 202 m -12 Y s 227 465 m 1927 X s 227 453 m 12 Y s 304
 459 m 6 Y s 381 459 m 6 Y s 458 459 m 6 Y s 535 459 m 6 Y s 612 453 m 12 Y s 689 459 m 6 Y s 766 459 m 6 Y s 844 459 m 6 Y s 921 459 m 6 Y s 998 453 m 12 Y s 1075 459 m 6 Y s 1152 459 m 6 Y s 1229 459 m 6 Y s 1306 459 m 6 Y s 1383 453 m 12 Y s 1460
 459 m 6 Y s 1538 459 m 6 Y s 1615 459 m 6 Y s 1692 459 m 6 Y s 1769 453 m 12 Y s 1846 459 m 6 Y s 1923 459 m 6 Y s 2000 459 m 6 Y s 2077 459 m 6 Y s 2154 453 m 12 Y s 227 190 m 275 Y s 240 242 m -13 X s 240 328 m -13 X s 240 414 m -13 X s 240 242 m
 -13 X s 240 414 m -13 X s 2154 190 m 275 Y s 2141 242 m 13 X s 2141 328 m 13 X s 2141 414 m 13 X s 2141 242 m 13 X s 2141 414 m 13 X s 1 1 1 c 2268 1108 0 475 bf black 1 1 1 c 1927 1041 227 486 bf black 1927 1041 227 486 bl 1 1 1 c black 3 lw 227
 486 m 1927 X s 227 505 m -19 Y s 304 495 m -9 Y s 381 495 m -9 Y s 458 495 m -9 Y s 535 495 m -9 Y s 612 505 m -19 Y s 689 495 m -9 Y s 766 495 m -9 Y s 844 495 m -9 Y s 921 495 m -9 Y s 998 505 m -19 Y s 1075 495 m -9 Y s 1152 495 m -9 Y s 1229 495
 m -9 Y s 1306 495 m -9 Y s 1383 505 m -19 Y s 1460 495 m -9 Y s 1538 495 m -9 Y s 1615 495 m -9 Y s 1692 495 m -9 Y s 1769 505 m -19 Y s 1846 495 m -9 Y s 1923 495 m -9 Y s 2000 495 m -9 Y s 2077 495 m -9 Y s 2154 505 m -19 Y s
 gsave  2268 1108 0 475 C 2049.21 407.48 t 0 r /Helvetica findfont 32.4976 sf 0 0 m (\) [GeV]) show NC gr 
 gsave  2268 1108 0 475 C 2037.4 389.764 t 0 r /Helvetica findfont 20.6803 sf 0 0 m (2) show NC gr 
 gsave  2268 1108 0 475 C 1981.3 407.48 t 0 r /Helvetica findfont 32.4976 sf 0 0 m (\(lep) show NC gr 
 gsave  2268 1108 0 475 C 1966.54 389.764 t 0 r /Helvetica findfont 20.6803 sf 0 0 m (T) show NC gr 
 gsave  2268 1108 0 475 C 1945.87 407.48 t 0 r /Helvetica-Oblique findfont 32.4976 sf 0 0 m (p) show NC gr  227 1527 m 1927 X s 227 1508 m 19 Y s 304 1518 m 9 Y s 381 1518 m 9 Y s 458 1518 m 9 Y s 535 1518 m 9 Y s 612 1508 m 19 Y s 689 1518 m 9 Y s
 766 1518 m 9 Y s 844 1518 m 9 Y s 921 1518 m 9 Y s 998 1508 m 19 Y s 1075 1518 m 9 Y s 1152 1518 m 9 Y s 1229 1518 m 9 Y s 1306 1518 m 9 Y s 1383 1508 m 19 Y s 1460 1518 m 9 Y s 1538 1518 m 9 Y s 1615 1518 m 9 Y s 1692 1518 m 9 Y s 1769 1508 m 19 Y
 s 1846 1518 m 9 Y s 1923 1518 m 9 Y s 2000 1518 m 9 Y s 2077 1518 m 9 Y s 2154 1508 m 19 Y s 227 486 m 1041 Y s 248 597 m -21 X s 237 619 m -10 X s 237 641 m -10 X s 237 663 m -10 X s 237 685 m -10 X s 248 707 m -21 X s 237 729 m -10 X s 237 751 m
 -10 X s 237 774 m -10 X s 237 796 m -10 X s 248 818 m -21 X s 237 840 m -10 X s 237 862 m -10 X s 237 884 m -10 X s 237 906 m -10 X s 248 929 m -21 X s 237 951 m -10 X s 237 973 m -10 X s 237 995 m -10 X s 237 1017 m -10 X s 248 1039 m -21 X s 237
 1061 m -10 X s 237 1083 m -10 X s 237 1106 m -10 X s 237 1128 m -10 X s 248 1150 m -21 X s 237 1172 m -10 X s 237 1194 m -10 X s 237 1216 m -10 X s 237 1238 m -10 X s 248 1261 m -21 X s 237 1283 m -10 X s 237 1305 m -10 X s 237 1327 m -10 X s 237
 1349 m -10 X s 248 1371 m -21 X s 237 1393 m -10 X s 237 1415 m -10 X s 237 1438 m -10 X s 237 1460 m -10 X s 248 1482 m -21 X s 248 597 m -21 X s 237 574 m -10 X s 237 552 m -10 X s 237 530 m -10 X s 237 508 m -10 X s 248 1482 m -21 X s 237 1504 m
 -10 X s 237 1526 m -10 X s
 gsave  2268 1108 0 475 C 141.732 578.74 t 0 r /Helvetica findfont 53.178 sf 0 0 m (50) show NC gr 
 gsave  2268 1108 0 475 C 112.205 687.992 t 0 r /Helvetica findfont 53.178 sf 0 0 m (100) show NC gr 
 gsave  2268 1108 0 475 C 112.205 797.244 t 0 r /Helvetica findfont 53.178 sf 0 0 m (150) show NC gr 
 gsave  2268 1108 0 475 C 112.205 909.449 t 0 r /Helvetica findfont 53.178 sf 0 0 m (200) show NC gr 
 gsave  2268 1108 0 475 C 112.205 1018.7 t 0 r /Helvetica findfont 53.178 sf 0 0 m (250) show NC gr 
 gsave  2268 1108 0 475 C 112.205 1130.91 t 0 r /Helvetica findfont 53.178 sf 0 0 m (300) show NC gr 
 gsave  2268 1108 0 475 C 112.205 1240.16 t 0 r /Helvetica findfont 53.178 sf 0 0 m (350) show NC gr 
 gsave  2268 1108 0 475 C 112.205 1352.36 t 0 r /Helvetica findfont 53.178 sf 0 0 m (400) show NC gr 
 gsave  2268 1108 0 475 C 112.205 1461.61 t 0 r /Helvetica findfont 53.178 sf 0 0 m (450) show NC gr 
 gsave  2268 1108 0 475 C 64.9606 1142.72 t 90 r /Helvetica findfont 53.178 sf 0 0 m (Events / 25 GeV) show NC gr  2154 486 m 1041 Y s 2133 597 m 21 X s 2144 619 m 10 X s 2144 641 m 10 X s 2144 663 m 10 X s 2144 685 m 10 X s 2133 707 m 21 X s 2144
 729 m 10 X s 2144 751 m 10 X s 2144 774 m 10 X s 2144 796 m 10 X s 2133 818 m 21 X s 2144 840 m 10 X s 2144 862 m 10 X s 2144 884 m 10 X s 2144 906 m 10 X s 2133 929 m 21 X s 2144 951 m 10 X s 2144 973 m 10 X s 2144 995 m 10 X s 2144 1017 m 10 X s
 2133 1039 m 21 X s 2144 1061 m 10 X s 2144 1083 m 10 X s 2144 1106 m 10 X s 2144 1128 m 10 X s 2133 1150 m 21 X s 2144 1172 m 10 X s 2144 1194 m 10 X s 2144 1216 m 10 X s 2144 1238 m 10 X s 2133 1261 m 21 X s 2144 1283 m 10 X s 2144 1305 m 10 X s
 2144 1327 m 10 X s 2144 1349 m 10 X s 2133 1371 m 21 X s 2144 1393 m 10 X s 2144 1415 m 10 X s 2144 1438 m 10 X s 2144 1460 m 10 X s 2133 1482 m 21 X s 2133 597 m 21 X s 2144 574 m 10 X s 2144 552 m 10 X s 2144 530 m 10 X s 2144 508 m 10 X s 2133
 1482 m 21 X s 2144 1504 m 10 X s 2144 1526 m 10 X s 0.06 0.54 0.06 c black 3 lw 0.06 0.54 0.06 c 227 486 m 157 Y 193 X 391 Y 192 X -336 Y 193 X -127 Y 193 X -45 Y 193 X -24 Y 192 X -6 Y 193 X -6 Y 193 X -1 Y 385 X -3 Y f 1 0.653333 0 c 0.999 0.999
 0.999 c black 3 lw 0.999 0.999 0.999 c 227 486 m 65 Y 193 X 238 Y 192 X -181 Y 193 X -81 Y 193 X -24 Y 193 X -10 Y 192 X -3 Y 193 X -2 Y 193 X -1 Y 193 X 2 Y 192 X -3 Y f 1 0.653333 0 c 0.999 0.999 0.999 c 1 0.653333 0 c 1 1 1 c black 1 0.653333 0 c
 black 3 lw 1 0.653333 0 c 227 486 m 65 Y 193 X 238 Y 192 X -181 Y 193 X -81 Y 193 X -24 Y 193 X -10 Y 192 X -3 Y 193 X -2 Y 193 X -1 Y 193 X 2 Y 192 X -3 Y f 0.413333 1 0 c 0.999 0.999 0.999 c black 3 lw 0.999 0.999 0.999 c 227 486 m 48 Y 193 X 195
 Y 192 X -143 Y 193 X -67 Y 193 X -21 Y 193 X -7 Y 192 X -2 Y 193 X -2 Y 578 X -1 Y f 0.413333 1 0 c 0.999 0.999 0.999 c 0.413333 1 0 c 1 1 1 c black 0.413333 1 0 c black 3 lw 0.413333 1 0 c 227 486 m 48 Y 193 X 195 Y 192 X -143 Y 193 X -67 Y 193 X
 -21 Y 193 X -7 Y 192 X -2 Y 193 X -2 Y 578 X -1 Y f 0.6 0.2 1 c 0.999 0.999 0.999 c black 3 lw 0.999 0.999 0.999 c 227 486 m 31 Y 193 X 126 Y 192 X -86 Y 193 X -48 Y 193 X -15 Y 193 X -5 Y 192 X -2 Y 386 X -1 Y 193 X 1 Y 192 X -1 Y f 0.6 0.2 1 c
 0.999 0.999 0.999 c 0.6 0.2 1 c 1 1 1 c black 0.6 0.2 1 c black 3 lw 0.6 0.2 1 c 227 486 m 31 Y 193 X 126 Y 192 X -86 Y 193 X -48 Y 193 X -15 Y 193 X -5 Y 192 X -2 Y 386 X -1 Y 193 X 1 Y 192 X -1 Y f 0.54 0.06 0.06 c 0.999 0.999 0.999 c black 3 lw
 0.999 0.999 0.999 c 227 486 m 27 Y 193 X 115 Y 192 X -78 Y 193 X -44 Y 193 X -13 Y 193 X -4 Y 192 X -2 Y 193 X -1 Y 578 X f 0.54 0.06 0.06 c 0.999 0.999 0.999 c 0.54 0.06 0.06 c 1 1 1 c black 0.54 0.06 0.06 c black 3 lw 0.54 0.06 0.06 c 227 486 m 27
 Y 193 X 115 Y 192 X -78 Y 193 X -44 Y 193 X -13 Y 193 X -4 Y 192 X -2 Y 193 X -1 Y 578 X f 1 0 1 c 0.999 0.999 0.999 c black 3 lw 0.999 0.999 0.999 c 227 486 m 10 Y 193 X 35 Y 192 X -28 Y 193 X -12 Y 193 X -4 Y 193 X -1 Y 963 X f 1 0 1 c 0.999 0.999
 0.999 c 1 0 1 c 1 1 1 c black 1 0 1 c black 3 lw 1 0 1 c 227 486 m 10 Y 193 X 35 Y 192 X -28 Y 193 X -12 Y 193 X -4 Y 193 X -1 Y 963 X f 0 0 1 c 0.999 0.999 0.999 c black 3 lw 0.999 0.999 0.999 c 227 486 m 5 Y 193 X 15 Y 192 X -12 Y 193 X -6 Y 193 X
 -1 Y 193 X -1 Y 963 X f 0 0 1 c 0.999 0.999 0.999 c 0 0 1 c 1 1 1 c black 0 0 1 c black 3 lw 0 0 1 c 227 486 m 5 Y 193 X 15 Y 192 X -12 Y 193 X -6 Y 193 X -1 Y 193 X -1 Y 963 X f 0.2 0.8 0.8 c 0.999 0.999 0.999 c black 3 lw 0.999 0.999 0.999 c 227
 486 m 3 Y 193 X 7 Y 192 X -5 Y 193 X -4 Y 193 X -1 Y 1156 X f 0.2 0.8 0.8 c 0.999 0.999 0.999 c 0.2 0.8 0.8 c 1 1 1 c black 0.2 0.8 0.8 c black 3 lw 0.2 0.8 0.8 c 227 486 m 3 Y 193 X 7 Y 192 X -5 Y 193 X -4 Y 193 X -1 Y 1156 X f 1 0 0 c 0.999 0.999
 0.999 c black 3 lw 0.999 0.999 0.999 c 227 486 m 3 Y 193 X 3 Y 192 X -3 Y 193 X -3 Y 1349 X f 1 0 0 c 0.999 0.999 0.999 c 1 0 0 c 1 1 1 c black 1 0 0 c black 3 lw 1 0 0 c 227 486 m 3 Y 193 X 3 Y 192 X -3 Y 193 X -3 Y 1349 X f 1 0.84 0 c 0.999 0.999
 0.999 c black 3 lw 0.999 0.999 0.999 c 227 486 m 2 Y 193 X 2 Y 192 X -2 Y 193 X -2 Y 1349 X f 1 0.84 0 c 0.999 0.999 0.999 c 1 0.84 0 c 1 1 1 c black 1 0.84 0 c black 3 lw 1 0.84 0 c 227 486 m 2 Y 193 X 2 Y 192 X -2 Y 193 X -2 Y 1349 X f black 1 1 1
 c black 0.6 0.6 0.6 c 3 lw 420 644 m -8 -8 d s 407 651 m -15 -15 d s 388 651 m -15 -15 d s 369 651 m -15 -15 d s 350 651 m -15 -15 d s 330 651 m -15 -15 d s 311 651 m -15 -15 d s 292 651 m -15 -15 d s 273 651 m -15 -15 d s 253 651 m -14 -15 d s 234
 651 m -7 -8 d s 3 lw 612 1028 m -13 -13 d s 612 1047 m -32 -32 d s 598 1053 m -37 -38 d s 579 1053 m -37 -38 d s 560 1053 m -38 -38 d s 541 1053 m -38 -38 d s 521 1053 m -37 -38 d s 502 1053 m -37 -38 d s 483 1053 m -38 -38 d s 464 1053 m -38 -38 d
 s 444 1053 m -24 -25 d s 425 1053 m -5 -6 d s 3 lw 805 702 m -12 -12 d s 790 706 m -16 -16 d s 771 706 m -17 -16 d s 752 706 m -17 -16 d s 732 706 m -16 -16 d s 713 706 m -16 -16 d s 694 706 m -17 -16 d s 675 706 m -17 -16 d s 655 706 m -16 -16 d s
 636 706 m -16 -16 d s 617 706 m -5 -4 d s 3 lw 998 568 m -1 -1 d s 986 575 m -9 -8 d s 966 575 m -8 -8 d s 947 575 m -8 -8 d s 928 575 m -8 -8 d s 909 575 m -9 -8 d s 889 575 m -8 -8 d s 870 575 m -8 -8 d s 851 575 m -8 -8 d s 832 575 m -8 -8 d s
 812 575 m -7 -7 d s 3 lw 1189 528 m -6 -5 d s 1170 528 m -6 -5 d s 1150 528 m -5 -5 d s 1131 528 m -5 -5 d s 1112 528 m -6 -5 d s 1093 528 m -6 -5 d s 1074 528 m -6 -5 d s 1054 528 m -5 -5 d s 1035 528 m -6 -5 d s 1016 528 m -6 -5 d s 3 lw 1376 504
 m -4 -4 d s 1357 504 m -4 -4 d s 1337 504 m -3 -4 d s 1318 504 m -3 -4 d s 1299 504 m -4 -4 d s 1280 504 m -4 -4 d s 1260 504 m -3 -4 d s 1241 504 m -3 -4 d s 1222 504 m -4 -4 d s 1203 504 m -4 -4 d s 3 lw 1562 497 m -3 -3 d s 1542 497 m -2 -3 d s
 1523 497 m -3 -3 d s 1504 497 m -3 -3 d s 1485 497 m -3 -3 d s 1465 497 m -2 -3 d s 1446 497 m -3 -3 d s 1427 497 m -3 -3 d s 1408 497 m -3 -3 d s 1388 497 m -2 -3 d s 3 lw 1767 491 m -2 -2 d s 1748 491 m -2 -2 d s 1729 491 m -2 -2 d s 1710 491 m -2
 -2 d s 1690 491 m -2 -2 d s 1671 491 m -2 -2 d s 1652 491 m -2 -2 d s 1633 491 m -2 -2 d s 1613 491 m -2 -2 d s 1594 491 m -2 -2 d s 3 lw 1958 489 m -1 -1 d s 1939 489 m -2 -1 d s 1920 489 m -2 -1 d s 1900 489 m -1 -1 d s 1881 489 m -1 -1 d s 1862
 489 m -2 -1 d s 1843 489 m -2 -1 d s 1823 489 m -1 -1 d s 1804 489 m -1 -1 d s 1785 489 m -2 -1 d s 3 lw 2152 491 m -3 -3 d s 2133 491 m -3 -3 d s 2114 491 m -4 -3 d s 2095 491 m -4 -3 d s 2075 491 m -3 -3 d s 2056 491 m -3 -3 d s 2037 491 m -4 -3 d
 s 2018 491 m -4 -3 d s 1998 491 m -3 -3 d s 1979 491 m -3 -3 d s black 3 lw 1 1 1 c black 323 651 m 9 Y s 323 684 m 8 Y s /w 24 def /w2 {w 2 div} def /w3 {w 3 div} def 323 672 m20 516 1047 m 25 Y s 516 1095 m 25 Y s 516 1083 m20 709 715 m 11 Y s 709
 750 m 12 Y s 709 738 m20 901 583 m 4 Y s 901 611 m 4 Y s 901 599 m20 1094 526 m20 1287 495 m20 1480 495 m20 1672 488 m20 1865 492 m20 227 486 m 1927 X s 227 505 m -19 Y s 304 495 m -9 Y s 381 495 m -9 Y s 458 495 m -9 Y s 535 495 m -9 Y s 612 505 m
 -19 Y s 689 495 m -9 Y s 766 495 m -9 Y s 844 495 m -9 Y s 921 495 m -9 Y s 998 505 m -19 Y s 1075 495 m -9 Y s 1152 495 m -9 Y s 1229 495 m -9 Y s 1306 495 m -9 Y s 1383 505 m -19 Y s 1460 495 m -9 Y s 1538 495 m -9 Y s 1615 495 m -9 Y s 1692 495 m
 -9 Y s 1769 505 m -19 Y s 1846 495 m -9 Y s 1923 495 m -9 Y s 2000 495 m -9 Y s 2077 495 m -9 Y s 2154 505 m -19 Y s 227 1527 m 1927 X s 227 1508 m 19 Y s 304 1518 m 9 Y s 381 1518 m 9 Y s 458 1518 m 9 Y s 535 1518 m 9 Y s 612 1508 m 19 Y s 689 1518
 m 9 Y s 766 1518 m 9 Y s 844 1518 m 9 Y s 921 1518 m 9 Y s 998 1508 m 19 Y s 1075 1518 m 9 Y s 1152 1518 m 9 Y s 1229 1518 m 9 Y s 1306 1518 m 9 Y s 1383 1508 m 19 Y s 1460 1518 m 9 Y s 1538 1518 m 9 Y s 1615 1518 m 9 Y s 1692 1518 m 9 Y s 1769 1508
 m 19 Y s 1846 1518 m 9 Y s 1923 1518 m 9 Y s 2000 1518 m 9 Y s 2077 1518 m 9 Y s 2154 1508 m 19 Y s 227 486 m 1041 Y s 248 597 m -21 X s 237 619 m -10 X s 237 641 m -10 X s 237 663 m -10 X s 237 685 m -10 X s 248 707 m -21 X s 237 729 m -10 X s 237
 751 m -10 X s 237 774 m -10 X s 237 796 m -10 X s 248 818 m -21 X s 237 840 m -10 X s 237 862 m -10 X s 237 884 m -10 X s 237 906 m -10 X s 248 929 m -21 X s 237 951 m -10 X s 237 973 m -10 X s 237 995 m -10 X s 237 1017 m -10 X s 248 1039 m -21 X s
 237 1061 m -10 X s 237 1083 m -10 X s 237 1106 m -10 X s 237 1128 m -10 X s 248 1150 m -21 X s 237 1172 m -10 X s 237 1194 m -10 X s 237 1216 m -10 X s 237 1238 m -10 X s 248 1261 m -21 X s 237 1283 m -10 X s 237 1305 m -10 X s 237 1327 m -10 X s
 237 1349 m -10 X s 248 1371 m -21 X s 237 1393 m -10 X s 237 1415 m -10 X s 237 1438 m -10 X s 237 1460 m -10 X s 248 1482 m -21 X s 248 597 m -21 X s 237 574 m -10 X s 237 552 m -10 X s 237 530 m -10 X s 237 508 m -10 X s 248 1482 m -21 X s 237
 1504 m -10 X s 237 1526 m -10 X s 2154 486 m 1041 Y s 2133 597 m 21 X s 2144 619 m 10 X s 2144 641 m 10 X s 2144 663 m 10 X s 2144 685 m 10 X s 2133 707 m 21 X s 2144 729 m 10 X s 2144 751 m 10 X s 2144 774 m 10 X s 2144 796 m 10 X s 2133 818 m 21 X
 s 2144 840 m 10 X s 2144 862 m 10 X s 2144 884 m 10 X s 2144 906 m 10 X s 2133 929 m 21 X s 2144 951 m 10 X s 2144 973 m 10 X s 2144 995 m 10 X s 2144 1017 m 10 X s 2133 1039 m 21 X s 2144 1061 m 10 X s 2144 1083 m 10 X s 2144 1106 m 10 X s 2144
 1128 m 10 X s 2133 1150 m 21 X s 2144 1172 m 10 X s 2144 1194 m 10 X s 2144 1216 m 10 X s 2144 1238 m 10 X s 2133 1261 m 21 X s 2144 1283 m 10 X s 2144 1305 m 10 X s 2144 1327 m 10 X s 2144 1349 m 10 X s 2133 1371 m 21 X s 2144 1393 m 10 X s 2144
 1415 m 10 X s 2144 1438 m 10 X s 2144 1460 m 10 X s 2133 1482 m 21 X s 2133 597 m 21 X s 2144 574 m 10 X s 2144 552 m 10 X s 2144 530 m 10 X s 2144 508 m 10 X s 2133 1482 m 21 X s 2144 1504 m 10 X s 2144 1526 m 10 X s
 gsave  2268 1108 0 475 C 1313.98 1432.09 t 0 r /Helvetica findfont 56.1323 sf 0 0 m ( Data) show NC gr  1259 1458 m 10 Y s 1259 1434 m -10 Y s 1259 1446 m20
 gsave  2268 1108 0 475 C 1810.04 1432.09 t 0 r /Helvetica findfont 56.1323 sf 0 0 m (single\255top) show NC gr 
 gsave  2268 1108 0 475 C 1780.51 1432.09 t 0 r /Helvetica-Oblique findfont 56.1323 sf 0 0 m (/) show NC gr 
 gsave  2268 1108 0 475 C 1759.84 1432.09 t 0 r /Helvetica-Oblique findfont 56.1323 sf 0 0 m (t) show NC gr  6 lw 1760 1476 m 21 X s
 gsave  2268 1108 0 475 C 1739.17 1432.09 t 0 r /Helvetica-Oblique findfont 56.1323 sf 0 0 m (t) show NC gr 
 gsave  2268 1108 0 475 C 1721.46 1432.09 t 0 r /Helvetica findfont 56.1323 sf 0 0 m ( ) show NC gr  0.06 0.54 0.06 c 3 lw 1626 1420 m 79 X 52 Y -79 X f 6 lw black
 gsave  2268 1108 0 475 C 1443.9 1358.27 t 0 r /Helvetica findfont 56.1323 sf 0 0 m (+jets) show NC gr 
 gsave  2268 1108 0 475 C 1331.69 1358.27 t 0 r /Helvetica-Oblique findfont 56.1323 sf 0 0 m (W/Z) show NC gr 
 gsave  2268 1108 0 475 C 1313.98 1358.27 t 0 r /Helvetica findfont 56.1323 sf 0 0 m ( ) show NC gr  1 0.653333 0 c 3 lw 1219 1346 m 79 X 52 Y -79 X f black
 gsave  2268 1108 0 475 C 1919.29 1358.27 t 0 r /Helvetica findfont 56.1323 sf 0 0 m (+jets) show NC gr 
 gsave  2268 1108 0 475 C 1739.17 1358.27 t 0 r /Helvetica-Oblique findfont 56.1323 sf 0 0 m (WZ/ZZ) show NC gr 
 gsave  2268 1108 0 475 C 1721.46 1358.27 t 0 r /Helvetica findfont 56.1323 sf 0 0 m ( ) show NC gr  0.413333 1 0 c 3 lw 1626 1346 m 79 X 52 Y -79 X f black
 gsave  2268 1108 0 475 C 1373.03 1284.45 t 0 r /Helvetica-Oblique findfont 56.1323 sf 0 0 m (Z) show NC gr 
 gsave  2268 1108 0 475 C 1352.36 1284.45 t 0 r /Helvetica-Oblique findfont 56.1323 sf 0 0 m (t) show NC gr  6 lw 1352 1329 m 21 X s
 gsave  2268 1108 0 475 C 1331.69 1284.45 t 0 r /Helvetica-Oblique findfont 56.1323 sf 0 0 m (t) show NC gr 
 gsave  2268 1108 0 475 C 1313.98 1284.45 t 0 r /Helvetica findfont 56.1323 sf 0 0 m ( ) show NC gr  0.6 0.2 1 c 3 lw 1219 1272 m 79 X 52 Y -79 X f 6 lw black
 gsave  2268 1108 0 475 C 1780.51 1284.45 t 0 r /Helvetica-Oblique findfont 56.1323 sf 0 0 m (W) show NC gr 
 gsave  2268 1108 0 475 C 1759.84 1284.45 t 0 r /Helvetica-Oblique findfont 56.1323 sf 0 0 m (t) show NC gr  6 lw 1760 1329 m 21 X s
 gsave  2268 1108 0 475 C 1739.17 1284.45 t 0 r /Helvetica-Oblique findfont 56.1323 sf 0 0 m (t) show NC gr 
 gsave  2268 1108 0 475 C 1721.46 1284.45 t 0 r /Helvetica findfont 56.1323 sf 0 0 m ( ) show NC gr  0.54 0.06 0.06 c 3 lw 1626 1272 m 79 X 52 Y -79 X f 6 lw black
 gsave  2268 1108 0 475 C 1331.69 1210.63 t 0 r /Helvetica-Oblique findfont 56.1323 sf 0 0 m (tZq) show NC gr 
 gsave  2268 1108 0 475 C 1313.98 1210.63 t 0 r /Helvetica findfont 56.1323 sf 0 0 m ( ) show NC gr  1 0 1 c 3 lw 1219 1199 m 79 X 51 Y -79 X f black
 gsave  2268 1108 0 475 C 1780.51 1210.63 t 0 r /Helvetica-Oblique findfont 56.1323 sf 0 0 m (H) show NC gr 
 gsave  2268 1108 0 475 C 1759.84 1210.63 t 0 r /Helvetica-Oblique findfont 56.1323 sf 0 0 m (t) show NC gr  6 lw 1760 1255 m 21 X s
 gsave  2268 1108 0 475 C 1739.17 1210.63 t 0 r /Helvetica-Oblique findfont 56.1323 sf 0 0 m (t) show NC gr 
 gsave  2268 1108 0 475 C 1721.46 1210.63 t 0 r /Helvetica findfont 56.1323 sf 0 0 m ( ) show NC gr  0 0 1 c 3 lw 1626 1199 m 79 X 51 Y -79 X f 6 lw black
 gsave  2268 1108 0 475 C 1331.69 1136.81 t 0 r /Helvetica-Oblique findfont 56.1323 sf 0 0 m (tWZ/tWH) show NC gr 
 gsave  2268 1108 0 475 C 1313.98 1136.81 t 0 r /Helvetica findfont 56.1323 sf 0 0 m ( ) show NC gr  0.2 0.8 0.8 c 3 lw 1219 1125 m 79 X 51 Y -79 X f black
 gsave  2268 1108 0 475 C 1739.17 1136.81 t 0 r /Helvetica-Oblique findfont 56.1323 sf 0 0 m (tHq) show NC gr 
 gsave  2268 1108 0 475 C 1721.46 1136.81 t 0 r /Helvetica findfont 56.1323 sf 0 0 m ( ) show NC gr  1 0 0 c 3 lw 1626 1125 m 79 X 51 Y -79 X f black
 gsave  2268 1108 0 475 C 1313.98 1062.99 t 0 r /Helvetica findfont 56.1323 sf 0 0 m ( Other) show NC gr  1 0.84 0 c 3 lw 1219 1051 m 79 X 52 Y -79 X f black
 gsave  2268 1108 0 475 C 1721.46 1062.99 t 0 r /Helvetica findfont 56.1323 sf 0 0 m ( Uncertainty) show NC gr  0.6 0.6 0.6 c 3 lw 1705 1063 m -12 -12 d s 1705 1082 m -31 -31 d s 1705 1101 m -50 -50 d s 1687 1103 m -51 -52 d s 1668 1103 m -42 -43 d s
 1649 1103 m -23 -24 d s 1630 1103 m -4 -4 d s 1 0.84 0 c 0.6 0.6 0.6 c black
 gsave  2268 1108 0 475 C 894.685 1337.6 t 0 r /Helvetica findfont 41.3606 sf 0 0 m (\2551) show NC gr 
 gsave  2268 1108 0 475 C 401.575 1308.07 t 0 r /Helvetica findfont 62.0409 sf 0 0 m ( = 13 TeV,  139 fb) show NC gr 
 gsave  2268 1108 0 475 C 372.047 1308.07 t 0 r /Helvetica findfont 62.0409 sf 0 0 m (s) show NC gr  6 lw 351 1344 m 6 -39 d s 3 lw 357 1305 m 9 56 d s 366 1361 m 36 X s
 gsave  2268 1108 0 475 C 812.008 1207.68 t 0 r /Helvetica findfont 62.0409 sf 0 0 m (\)) show NC gr 
 gsave  2268 1108 0 475 C 785.433 1207.68 t 0 r /Helvetica-Oblique findfont 62.0409 sf 0 0 m (j) show NC gr 
 gsave  2268 1108 0 475 C 752.953 1207.68 t 0 r /Helvetica findfont 62.0409 sf 0 0 m (3) show NC gr 
 gsave  2268 1108 0 475 C 714.567 1207.68 t 0 r /Helvetica-Oblique findfont 62.0409 sf 0 0 m (b) show NC gr 
 gsave  2268 1108 0 475 C 339.567 1207.68 t 0 r /Helvetica findfont 62.0409 sf 0 0 m ( 2L\(SS\), VR\(1) show NC gr 
 gsave  2268 1108 0 475 C 339.567 1405.51 t 0 r /Helvetica-BoldOblique findfont 73.8583 sf 0 0 m (ATLAS) show NC gr 
 gsave  2268 1108 0 475 C 634.843 1405.51 t 0 r /Helvetica findfont 73.8583 sf 0 0 m (Internal) show NC gr 
 gr  gr showpage
end
%%EOF
