%!PS-Adobe-2.0 EPSF-2.0
%%BoundingBox:  0 0 567 396
%%Title: /lhome/ific/c/cardillo/tHq/Plots/Plots-30-05-22-PLIV-SF/2LSS_MC/LepPt2_Pre.eps: LepPt2_Pre
%%Creator: ROOT Version 6.20/06
%%CreationDate: Tue May 31 15:03:56 2022
%%DocumentNeededResources: ProcSet (FontSetInit)
%%EndComments
%%BeginProlog
80 dict begin
/s {stroke} def /l {lineto} def /m {moveto} def /t {translate} def
/r {rotate} def /rl {roll}  def /R {repeat} def
/d {rlineto} def /rm {rmoveto} def /gr {grestore} def /f {eofill} def
/c {setrgbcolor} def /black {0 setgray} def /sd {setdash} def
/cl {closepath} def /sf {scalefont setfont} def /lw {setlinewidth} def
/box {m dup 0 exch d exch 0 d 0 exch neg d cl} def
/NC{systemdict begin initclip end}def/C{NC box clip newpath}def
/bl {box s} def /bf {gsave box gsave f grestore 1 lw [] 0 sd s grestore} def /Y { 0 exch d} def /X { 0 d} def 
/K {{pop pop 0 moveto} exch kshow} bind def
/ita {/ang 15 def gsave [1 0 ang dup sin exch cos div 1 0 0] concat} def 
/mp {newpath /y exch def /x exch def} def
/side {[w .77 mul w .23 mul] .385 w mul sd w 0 l currentpoint t -144 r} def
/mr {mp x y w2 0 360 arc} def /m24 {mr s} def /m20 {mr f} def
/mb {mp x y w2 add m w2 neg 0 d 0 w neg d w 0 d 0 w d cl} def
/mt {mp x y w2 add m w2 neg w neg d w 0 d cl} def
/w4 {w 4 div} def
/w6 {w 6 div} def
/w8 {w 8 div} def
/m21 {mb f} def /m25 {mb s} def /m22 {mt f} def /m26{mt s} def
/m23 {mp x y w2 sub m w2 w d w neg 0 d cl f} def
/m27 {mp x y w2 add m w3 neg w2 neg d w3 w2 neg d w3 w2 d cl s} def
/m28 {mp x w2 sub y w2 sub w3 add m w3 0 d  0 w3 neg d w3 0 d 0 w3 d w3 0 d  0 w3 d w3 neg 0 d 0 w3 d w3 neg 0 d 0 w3 neg d w3 neg 0 d cl s } def
/m29 {mp gsave x w2 sub y w2 add w3 sub m currentpoint t 4 {side} repeat cl fill gr} def
/m30 {mp gsave x w2 sub y w2 add w3 sub m currentpoint t 4 {side} repeat cl s gr} def
/m31 {mp x y w2 sub m 0 w d x w2 sub y m w 0 d x w2 sub y w2 add m w w neg d x w2 sub y w2 sub m w w d s} def
/m32 {mp x y w2 sub m w2 w d w neg 0 d cl s} def
/m33 {mp x y w2 add m w3 neg w2 neg d w3 w2 neg d w3 w2 d cl f} def
/m34 {mp x w2 sub y w2 sub w3 add m w3 0 d  0 w3 neg d w3 0 d 0 w3 d w3 0 d  0 w3 d w3 neg 0 d 0 w3 d w3 neg 0 d 0 w3 neg d w3 neg 0 d cl f } def
/m35 {mp x y w2 add m w2 neg w2 neg d w2 w2 neg d w2 w2 d w2 neg w2 d x y w2 sub m 0 w d x w2 sub y m w 0 d s} def
/m36 {mb x w2 sub y w2 add m w w neg d x w2 sub y w2 sub m w w d s} def
/m37 {mp x y m w4 neg w2 d w4 neg w2 neg d w2 0 d  w4 neg w2 neg d w2 0 d w4 neg w2 d w2 0 d w4 neg w2 d w4 neg w2 neg d cl s} def
/m38 {mp x w4 sub y w2 add m w4 neg w4 neg d 0 w2 neg d w4 w4 neg d w2 0 d w4 w4 d 0 w2 d w4 neg w4 d w2 neg 0 d x y w2 sub m 0 w d x w2 sub y m w 0 d cl s} def
/m39 {mp x y m w4 neg w2 d w4 neg w2 neg d w2 0 d  w4 neg w2 neg d w2 0 d w4 neg w2 d w2 0 d w4 neg w2 d w4 neg w2 neg d cl f} def
/m40 {mp x y m w4 w2 d w4 w4 neg d w2 neg w4 neg d w2 w4 neg d w4 neg w4 neg d w4 neg w2 d w4 neg w2 neg d w4 neg w4 d w2 w4 d w2 neg w4 d w4 w4 d w4 w2 neg d cl s} def
/m41 {mp x y m w4 w2 d w4 w4 neg d w2 neg w4 neg d w2 w4 neg d w4 neg w4 neg d w4 neg w2 d w4 neg w2 neg d w4 neg w4 d w2 w4 d w2 neg w4 d w4 w4 d w4 w2 neg d cl f} def
/m42 {mp x y w2 add m w8 neg w2 -3 4 div mul d w2 -3 4 div mul w8 neg d w2 3 4 div mul w8 neg d w8 w2 -3 4 div mul d w8 w2 3 4 div mul d w2 3 4 div mul w8 d w2 -3 4 div mul w8 d w8 neg w2 3 4 div mul d cl s} def
/m43 {mp x y w2 add m w8 neg w2 -3 4 div mul d w2 -3 4 div mul w8 neg d w2 3 4 div mul w8 neg d w8 w2 -3 4 div mul d w8 w2 3 4 div mul d w2 3 4 div mul w8 d w2 -3 4 div mul w8 d w8 neg w2 3 4 div mul d cl f} def
/m44 {mp x y m w6 neg w2 d w2 2 3 div mul 0 d w6 neg w2 neg d w2 w6 d 0 w2 -2 3 div mul d w2 neg w6 d w6 w2 neg d w2 -2 3 div mul 0 d w6 w2 d w2 neg w6 neg d 0 w2 2 3 div mul d w2 w6 neg d cl s} def
/m45 {mp x y m w6 neg w2 d w2 2 3 div mul 0 d w6 neg w2 neg d w2 w6 d 0 w2 -2 3 div mul d w2 neg w6 d w6 w2 neg d w2 -2 3 div mul 0 d w6 w2 d w2 neg w6 neg d 0 w2 2 3 div mul d w2 w6 neg d cl f} def
/m46 {mp x y w4 add m w4 neg w4 d w4 neg w4 neg d  w4 w4 neg d w4 neg w4 neg d w4 w4 neg d w4 w4 d w4 w4 neg d w4 w4 d w4 neg w4 d w4 w4 d w4 neg w4 d w4 neg w4 neg d cl s} def
/m47 {mp x y w4 add m w4 neg w4 d w4 neg w4 neg d w4 w4 neg d w4 neg w4 neg d  w4 w4 neg d w4 w4 d w4 w4 neg d w4 w4 d w4 neg w4 d w4 w4 d w4 neg w4 d w4 neg w4 neg d cl f} def
/m48 {mp x y w4 add m w4 neg w4 d w4 neg w4 neg d w4 w4 neg d  w4 neg w4 neg d w4 w4 neg d w4 w4 d w4 w4 neg d w4 w4 d w4 neg w4 d w4 w4 d w4 neg w4 d w4 neg w4 neg d  w4 w4 neg d w4 neg w4 neg d w4 neg w4 d w4 w4 d cl f} def
/m49 {mp x w2 sub w3 add y w2 sub w3 add m  0 w3 neg d w3 0 d 0 w3 d w3 0 d 0 w3 d w3 neg 0 d 0 w3 d w3 neg 0 d 0 w3 neg d w3 neg 0 d 0 w3 neg d w3 0 d 0 w3 d w3 0 d 0 w3 neg d w3 neg 0 d cl f } def
/m2 {mp x y w2 sub m 0 w d x w2 sub y m w 0 d s} def
/m5 {mp x w2 sub y w2 sub m w w d x w2 sub y w2 add m w w neg d s} def
%%IncludeResource: ProcSet (FontSetInit)
%%IncludeResource: font Times-Roman
%%IncludeResource: font Times-Italic
%%IncludeResource: font Times-Bold
%%IncludeResource: font Times-BoldItalic
%%IncludeResource: font Helvetica
%%IncludeResource: font Helvetica-Oblique
%%IncludeResource: font Helvetica-Bold
%%IncludeResource: font Helvetica-BoldOblique
%%IncludeResource: font Courier
%%IncludeResource: font Courier-Oblique
%%IncludeResource: font Courier-Bold
%%IncludeResource: font Courier-BoldOblique
%%IncludeResource: font Symbol
%%IncludeResource: font ZapfDingbats
/reEncode {exch findfont dup length dict begin {1 index /FID eq  {pop pop} {def} ifelse } forall /Encoding exch def currentdict end dup /FontName get exch definefont pop } def [/Times-Bold /Times-Italic /Times-BoldItalic /Helvetica /Helvetica-Oblique
 /Helvetica-Bold /Helvetica-BoldOblique /Courier /Courier-Oblique /Courier-Bold /Courier-BoldOblique /Times-Roman /AvantGarde-Book /AvantGarde-BookOblique /AvantGarde-Demi /AvantGarde-DemiOblique /Bookman-Demi /Bookman-DemiItalic /Bookman-Light
 /Bookman-LightItalic /Helvetica-Narrow /Helvetica-Narrow-Bold /Helvetica-Narrow-BoldOblique /Helvetica-Narrow-Oblique /NewCenturySchlbk-Roman /NewCenturySchlbk-Bold /NewCenturySchlbk-BoldItalic /NewCenturySchlbk-Italic /Palatino-Bold
 /Palatino-BoldItalic /Palatino-Italic /Palatino-Roman ] {ISOLatin1Encoding reEncode } forall
%%EndProlog
%%BeginSetup
%%EndSetup
newpath  gsave  .25 .25 scale  gsave  0 0 t black[  ] 0 sd 3 lw 1 1 1 c 2268 1583 0 0 bf black 1 1 1 c 2268 475 0 0 bf black 1 1 1 c 1927 275 227 190 bf black 1927 275 227 190 bl 227 190 m 1927 X s 227 202 m -12 Y s 304 196 m -6 Y s 381 196 m -6 Y s
 458 196 m -6 Y s 535 196 m -6 Y s 612 202 m -12 Y s 689 196 m -6 Y s 766 196 m -6 Y s 844 196 m -6 Y s 921 196 m -6 Y s 998 202 m -12 Y s 1075 196 m -6 Y s 1152 196 m -6 Y s 1229 196 m -6 Y s 1306 196 m -6 Y s 1383 202 m -12 Y s 1460 196 m -6 Y s
 1538 196 m -6 Y s 1615 196 m -6 Y s 1692 196 m -6 Y s 1769 202 m -12 Y s 1846 196 m -6 Y s 1923 196 m -6 Y s 2000 196 m -6 Y s 2077 196 m -6 Y s 2154 202 m -12 Y s
 gsave  2268 475 0 0 C 209.646 126.968 t 0 r /Helvetica findfont 53.4154 sf 0 0 m (0) show NC gr 
 gsave  2268 475 0 0 C 581.693 126.968 t 0 r /Helvetica findfont 53.4154 sf 0 0 m (50) show NC gr 
 gsave  2268 475 0 0 C 950.787 126.968 t 0 r /Helvetica findfont 53.4154 sf 0 0 m (100) show NC gr 
 gsave  2268 475 0 0 C 1337.6 126.968 t 0 r /Helvetica findfont 53.4154 sf 0 0 m (150) show NC gr 
 gsave  2268 475 0 0 C 1724.41 126.968 t 0 r /Helvetica findfont 53.4154 sf 0 0 m (200) show NC gr 
 gsave  2268 475 0 0 C 2108.27 126.968 t 0 r /Helvetica findfont 53.4154 sf 0 0 m (250) show NC gr 
 gsave  2268 475 0 0 C 1978.35 53.1496 t 0 r /Helvetica findfont 56.3829 sf 0 0 m (\) [GeV]) show NC gr 
 gsave  2268 475 0 0 C 1957.68 20.6693 t 0 r /Helvetica findfont 38.5778 sf 0 0 m (2) show NC gr 
 gsave  2268 475 0 0 C 1863.19 53.1496 t 0 r /Helvetica findfont 56.3829 sf 0 0 m (\(lep) show NC gr 
 gsave  2268 475 0 0 C 1839.57 20.6693 t 0 r /Helvetica findfont 38.5778 sf 0 0 m (T) show NC gr 
 gsave  2268 475 0 0 C 1804.13 53.1496 t 0 r /Helvetica-Oblique findfont 56.3829 sf 0 0 m (p) show NC gr  227 465 m 1927 X s 227 453 m 12 Y s 304 459 m 6 Y s 381 459 m 6 Y s 458 459 m 6 Y s 535 459 m 6 Y s 612 453 m 12 Y s 689 459 m 6 Y s 766 459 m 6
 Y s 844 459 m 6 Y s 921 459 m 6 Y s 998 453 m 12 Y s 1075 459 m 6 Y s 1152 459 m 6 Y s 1229 459 m 6 Y s 1306 459 m 6 Y s 1383 453 m 12 Y s 1460 459 m 6 Y s 1538 459 m 6 Y s 1615 459 m 6 Y s 1692 459 m 6 Y s 1769 453 m 12 Y s 1846 459 m 6 Y s 1923
 459 m 6 Y s 2000 459 m 6 Y s 2077 459 m 6 Y s 2154 453 m 12 Y s 227 190 m 275 Y s 240 242 m -13 X s 240 328 m -13 X s 240 414 m -13 X s 240 242 m -13 X s 240 414 m -13 X s
 gsave  2268 475 0 0 C 118.11 221.457 t 0 r /Helvetica findfont 53.4154 sf 0 0 m (0.5) show NC gr 
 gsave  2268 475 0 0 C 171.26 307.087 t 0 r /Helvetica findfont 53.4154 sf 0 0 m (1) show NC gr 
 gsave  2268 475 0 0 C 118.11 395.669 t 0 r /Helvetica findfont 53.4154 sf 0 0 m (1.5) show NC gr 
 gsave  2268 475 0 0 C 70.8661 233.268 t 90 r /Helvetica findfont 53.4154 sf 0 0 m (Data / SM) show NC gr  2154 190 m 275 Y s 2141 242 m 13 X s 2141 328 m 13 X s 2141 414 m 13 X s 2141 242 m 13 X s 2141 414 m 13 X s 227 190 m 1927 X s 227 465 m 1927
 X s 227 190 m 275 Y s[ 4 8] 0 sd 2154 242 m -1927 X s 2154 328 m -1927 X s 2154 414 m -1927 X s 2154 242 m -1927 X s 2154 414 m -1927 X s[  ] 0 sd 2154 190 m 275 Y s 1 1 0.6 c 193 0 227 328 bf 192 0 420 328 bf 193 0 612 328 bf 193 0 805 328 bf 193 0
 998 328 bf 192 0 1191 328 bf 193 0 1383 328 bf 193 0 1576 328 bf 193 0 1769 328 bf 192 0 1962 328 bf black 0.6 0.6 0.6 c 420 325 m -3 -3 d s 408 333 m -10 -11 d s 389 333 m -11 -11 d s 370 333 m -11 -11 d s 350 333 m -10 -11 d s 331 333 m -10 -11 d
 s 312 333 m -11 -11 d s 293 333 m -11 -11 d s 274 333 m -11 -11 d s 254 333 m -10 -11 d s 235 333 m -8 -8 d s 612 325 m s 598 330 m -5 -5 d s 579 330 m -5 -5 d s 559 330 m -5 -5 d s 540 330 m -5 -5 d s 521 330 m -5 -5 d s 502 330 m -5 -5 d s 482 330
 m -5 -5 d s 463 330 m -5 -5 d s 444 330 m -5 -5 d s 425 330 m -5 -5 d s 805 326 m -1 Y s 790 330 m -4 -5 d s 771 330 m -5 -5 d s 752 330 m -5 -5 d s 732 330 m -4 -5 d s 713 330 m -4 -5 d s 694 330 m -5 -5 d s 675 330 m -5 -5 d s 655 330 m -4 -5 d s
 636 330 m -4 -5 d s 617 330 m -5 -5 d s 998 326 m -2 -2 d s 984 331 m -7 -7 d s 965 331 m -8 -7 d s 945 331 m -7 -7 d s 926 331 m -7 -7 d s 907 331 m -7 -7 d s 888 331 m -8 -7 d s 868 331 m -7 -7 d s 849 331 m -7 -7 d s 830 331 m -7 -7 d s 811 331 m
 -6 -5 d s 1191 326 m -4 -3 d s 1178 333 m -10 -10 d s 1158 333 m -10 -10 d s 1139 333 m -10 -10 d s 1120 333 m -10 -10 d s 1101 333 m -10 -10 d s 1081 333 m -10 -10 d s 1062 333 m -10 -10 d s 1043 333 m -10 -10 d s 1024 333 m -10 -10 d s 1004 333 m
 -6 -7 d s 1383 327 m -15 -16 d s 1381 344 m -32 -33 d s 1362 344 m -33 -33 d s 1343 344 m -33 -33 d s 1324 344 m -33 -33 d s 1305 344 m -33 -33 d s 1285 344 m -33 -33 d s 1266 344 m -33 -33 d s 1247 344 m -33 -33 d s 1228 344 m -33 -33 d s 1208 344
 m -17 -18 d s 1576 327 m -9 -10 d s 1568 338 m -21 -21 d s 1548 338 m -20 -21 d s 1529 338 m -20 -21 d s 1510 338 m -20 -21 d s 1491 338 m -21 -21 d s 1471 338 m -20 -21 d s 1452 338 m -20 -21 d s 1433 338 m -20 -21 d s 1414 338 m -21 -21 d s 1394
 338 m -11 -11 d s 1769 327 m -16 -15 d s 1766 343 m -32 -31 d s 1746 343 m -31 -31 d s 1727 343 m -31 -31 d s 1708 343 m -31 -31 d s 1689 343 m -32 -31 d s 1669 343 m -31 -31 d s 1650 343 m -31 -31 d s 1631 343 m -31 -31 d s 1612 343 m -32 -31 d s
 1592 343 m -16 -16 d s 1962 308 m -14 -13 d s 1962 328 m -33 -33 d s 1962 347 m -52 -52 d s 1956 360 m -66 -65 d s 1936 360 m -65 -65 d s 1917 360 m -65 -65 d s 1898 360 m -65 -65 d s 1879 360 m -66 -65 d s 1860 360 m -66 -65 d s 1840 360 m -65 -65
 d s 1821 360 m -52 -52 d s 1802 360 m -33 -33 d s 1783 360 m -14 -13 d s 2154 328 m -14 -15 d s 2149 342 m -28 -29 d s 2130 342 m -29 -29 d s 2110 342 m -28 -29 d s 2091 342 m -28 -29 d s 2072 342 m -28 -29 d s 2053 342 m -29 -29 d s 2033 342 m -28
 -29 d s 2014 342 m -28 -29 d s 1995 342 m -28 -29 d s 1976 342 m -14 -14 d s black 1 1 1 c black /w 26 def /w2 {w 2 div} def /w3 {w 3 div} def 323 348 m20 516 346 m20 709 349 m20 901 332 m s 901 355 m 1 Y s 901 344 m20 1094 346 m 7 Y s 1094 377 m 7
 Y s 1094 365 m20 1287 299 m 12 Y s 1287 335 m 13 Y s 1287 323 m20 1480 300 m 25 Y s 1480 349 m 25 Y s 1480 337 m20 1672 310 m 42 Y s 1672 375 m 42 Y s 1672 364 m20 1865 286 m 49 Y s 1865 358 m 49 Y s 1865 347 m20 2058 238 m 30 Y s 2058 291 m 30 Y s
 2058 280 m20 227 328 m 1927 X s 227 190 m 1927 X s 227 202 m -12 Y s 304 196 m -6 Y s 381 196 m -6 Y s 458 196 m -6 Y s 535 196 m -6 Y s 612 202 m -12 Y s 689 196 m -6 Y s 766 196 m -6 Y s 844 196 m -6 Y s 921 196 m -6 Y s 998 202 m -12 Y s 1075 196
 m -6 Y s 1152 196 m -6 Y s 1229 196 m -6 Y s 1306 196 m -6 Y s 1383 202 m -12 Y s 1460 196 m -6 Y s 1538 196 m -6 Y s 1615 196 m -6 Y s 1692 196 m -6 Y s 1769 202 m -12 Y s 1846 196 m -6 Y s 1923 196 m -6 Y s 2000 196 m -6 Y s 2077 196 m -6 Y s 2154
 202 m -12 Y s 227 465 m 1927 X s 227 453 m 12 Y s 304 459 m 6 Y s 381 459 m 6 Y s 458 459 m 6 Y s 535 459 m 6 Y s 612 453 m 12 Y s 689 459 m 6 Y s 766 459 m 6 Y s 844 459 m 6 Y s 921 459 m 6 Y s 998 453 m 12 Y s 1075 459 m 6 Y s 1152 459 m 6 Y s
 1229 459 m 6 Y s 1306 459 m 6 Y s 1383 453 m 12 Y s 1460 459 m 6 Y s 1538 459 m 6 Y s 1615 459 m 6 Y s 1692 459 m 6 Y s 1769 453 m 12 Y s 1846 459 m 6 Y s 1923 459 m 6 Y s 2000 459 m 6 Y s 2077 459 m 6 Y s 2154 453 m 12 Y s 227 190 m 275 Y s 240 242
 m -13 X s 240 328 m -13 X s 240 414 m -13 X s 240 242 m -13 X s 240 414 m -13 X s 2154 190 m 275 Y s 2141 242 m 13 X s 2141 328 m 13 X s 2141 414 m 13 X s 2141 242 m 13 X s 2141 414 m 13 X s 1 1 1 c 2268 1108 0 475 bf black 1 1 1 c 1927 1041 227 486
 bf black 1927 1041 227 486 bl 1 1 1 c black 3 lw 227 486 m 1927 X s 227 505 m -19 Y s 304 495 m -9 Y s 381 495 m -9 Y s 458 495 m -9 Y s 535 495 m -9 Y s 612 505 m -19 Y s 689 495 m -9 Y s 766 495 m -9 Y s 844 495 m -9 Y s 921 495 m -9 Y s 998 505 m
 -19 Y s 1075 495 m -9 Y s 1152 495 m -9 Y s 1229 495 m -9 Y s 1306 495 m -9 Y s 1383 505 m -19 Y s 1460 495 m -9 Y s 1538 495 m -9 Y s 1615 495 m -9 Y s 1692 495 m -9 Y s 1769 505 m -19 Y s 1846 495 m -9 Y s 1923 495 m -9 Y s 2000 495 m -9 Y s 2077
 495 m -9 Y s 2154 505 m -19 Y s
 gsave  2268 1108 0 475 C 2049.21 407.48 t 0 r /Helvetica findfont 32.4976 sf 0 0 m (\) [GeV]) show NC gr 
 gsave  2268 1108 0 475 C 2037.4 389.764 t 0 r /Helvetica findfont 20.6803 sf 0 0 m (2) show NC gr 
 gsave  2268 1108 0 475 C 1981.3 407.48 t 0 r /Helvetica findfont 32.4976 sf 0 0 m (\(lep) show NC gr 
 gsave  2268 1108 0 475 C 1966.54 389.764 t 0 r /Helvetica findfont 20.6803 sf 0 0 m (T) show NC gr 
 gsave  2268 1108 0 475 C 1945.87 407.48 t 0 r /Helvetica-Oblique findfont 32.4976 sf 0 0 m (p) show NC gr  227 1527 m 1927 X s 227 1508 m 19 Y s 304 1518 m 9 Y s 381 1518 m 9 Y s 458 1518 m 9 Y s 535 1518 m 9 Y s 612 1508 m 19 Y s 689 1518 m 9 Y s
 766 1518 m 9 Y s 844 1518 m 9 Y s 921 1518 m 9 Y s 998 1508 m 19 Y s 1075 1518 m 9 Y s 1152 1518 m 9 Y s 1229 1518 m 9 Y s 1306 1518 m 9 Y s 1383 1508 m 19 Y s 1460 1518 m 9 Y s 1538 1518 m 9 Y s 1615 1518 m 9 Y s 1692 1518 m 9 Y s 1769 1508 m 19 Y
 s 1846 1518 m 9 Y s 1923 1518 m 9 Y s 2000 1518 m 9 Y s 2077 1518 m 9 Y s 2154 1508 m 19 Y s 227 486 m 1041 Y s 248 669 m -21 X s 237 706 m -10 X s 237 743 m -10 X s 237 780 m -10 X s 237 816 m -10 X s 248 853 m -21 X s 237 890 m -10 X s 237 926 m
 -10 X s 237 963 m -10 X s 237 1000 m -10 X s 248 1037 m -21 X s 237 1073 m -10 X s 237 1110 m -10 X s 237 1147 m -10 X s 237 1183 m -10 X s 248 1220 m -21 X s 237 1257 m -10 X s 237 1294 m -10 X s 237 1330 m -10 X s 237 1367 m -10 X s 248 1404 m -21
 X s 248 669 m -21 X s 237 633 m -10 X s 237 596 m -10 X s 237 559 m -10 X s 237 523 m -10 X s 248 1404 m -21 X s 237 1440 m -10 X s 237 1477 m -10 X s 237 1514 m -10 X s
 gsave  2268 1108 0 475 C 112.205 649.606 t 0 r /Helvetica findfont 53.178 sf 0 0 m (500) show NC gr 
 gsave  2268 1108 0 475 C 82.6772 832.677 t 0 r /Helvetica findfont 53.178 sf 0 0 m (1000) show NC gr 
 gsave  2268 1108 0 475 C 82.6772 1018.7 t 0 r /Helvetica findfont 53.178 sf 0 0 m (1500) show NC gr 
 gsave  2268 1108 0 475 C 82.6772 1201.77 t 0 r /Helvetica findfont 53.178 sf 0 0 m (2000) show NC gr 
 gsave  2268 1108 0 475 C 82.6772 1384.84 t 0 r /Helvetica findfont 53.178 sf 0 0 m (2500) show NC gr 
 gsave  2268 1108 0 475 C 64.9606 1142.72 t 90 r /Helvetica findfont 53.178 sf 0 0 m (Events / 25 GeV) show NC gr  2154 486 m 1041 Y s 2133 669 m 21 X s 2144 706 m 10 X s 2144 743 m 10 X s 2144 780 m 10 X s 2144 816 m 10 X s 2133 853 m 21 X s 2144
 890 m 10 X s 2144 926 m 10 X s 2144 963 m 10 X s 2144 1000 m 10 X s 2133 1037 m 21 X s 2144 1073 m 10 X s 2144 1110 m 10 X s 2144 1147 m 10 X s 2144 1183 m 10 X s 2133 1220 m 21 X s 2144 1257 m 10 X s 2144 1294 m 10 X s 2144 1330 m 10 X s 2144 1367
 m 10 X s 2133 1404 m 21 X s 2133 669 m 21 X s 2144 633 m 10 X s 2144 596 m 10 X s 2144 559 m 10 X s 2144 523 m 10 X s 2133 1404 m 21 X s 2144 1440 m 10 X s 2144 1477 m 10 X s 2144 1514 m 10 X s 0.06 0.54 0.06 c black 3 lw 0.06 0.54 0.06 c 227 486 m
 143 Y 193 X 405 Y 192 X -336 Y 193 X -128 Y 193 X -48 Y 193 X -19 Y 192 X -9 Y 193 X -4 Y 193 X -1 Y 193 X 1 Y 192 X -4 Y f 1 0.653333 0 c 0.999 0.999 0.999 c black 3 lw 0.999 0.999 0.999 c 227 486 m 75 Y 193 X 264 Y 192 X -205 Y 193 X -88 Y 193 X
 -28 Y 193 X -11 Y 192 X -3 Y 193 X -2 Y 578 X -2 Y f 1 0.653333 0 c 0.999 0.999 0.999 c 1 0.653333 0 c 1 1 1 c black 1 0.653333 0 c black 3 lw 1 0.653333 0 c 227 486 m 75 Y 193 X 264 Y 192 X -205 Y 193 X -88 Y 193 X -28 Y 193 X -11 Y 192 X -3 Y 193
 X -2 Y 578 X -2 Y f 0.413333 1 0 c 0.999 0.999 0.999 c black 3 lw 0.999 0.999 0.999 c 227 486 m 55 Y 193 X 219 Y 192 X -157 Y 193 X -77 Y 193 X -25 Y 193 X -8 Y 192 X -4 Y 193 X -2 Y 578 X -1 Y f 0.413333 1 0 c 0.999 0.999 0.999 c 0.413333 1 0 c 1 1
 1 c black 0.413333 1 0 c black 3 lw 0.413333 1 0 c 227 486 m 55 Y 193 X 219 Y 192 X -157 Y 193 X -77 Y 193 X -25 Y 193 X -8 Y 192 X -4 Y 193 X -2 Y 578 X -1 Y f 0.6 0.2 1 c 0.999 0.999 0.999 c black 3 lw 0.999 0.999 0.999 c 227 486 m 40 Y 193 X 178
 Y 192 X -121 Y 193 X -64 Y 193 X -21 Y 193 X -7 Y 192 X -3 Y 193 X -1 Y 193 X -1 Y 193 X 1 Y 192 X -1 Y f 0.6 0.2 1 c 0.999 0.999 0.999 c 0.6 0.2 1 c 1 1 1 c black 0.6 0.2 1 c black 3 lw 0.6 0.2 1 c 227 486 m 40 Y 193 X 178 Y 192 X -121 Y 193 X -64
 Y 193 X -21 Y 193 X -7 Y 192 X -3 Y 193 X -1 Y 193 X -1 Y 193 X 1 Y 192 X -1 Y f 0.54 0.06 0.06 c 0.999 0.999 0.999 c black 3 lw 0.999 0.999 0.999 c 227 486 m 34 Y 193 X 154 Y 192 X -105 Y 193 X -55 Y 193 X -18 Y 193 X -5 Y 192 X -3 Y 193 X -1 Y 193
 X -1 Y 193 X 1 Y 192 X -1 Y f 0.54 0.06 0.06 c 0.999 0.999 0.999 c 0.54 0.06 0.06 c 1 1 1 c black 0.54 0.06 0.06 c black 3 lw 0.54 0.06 0.06 c 227 486 m 34 Y 193 X 154 Y 192 X -105 Y 193 X -55 Y 193 X -18 Y 193 X -5 Y 192 X -3 Y 193 X -1 Y 193 X -1
 Y 193 X 1 Y 192 X -1 Y f 1 0 1 c 0.999 0.999 0.999 c black 3 lw 0.999 0.999 0.999 c 227 486 m 11 Y 193 X 43 Y 192 X -34 Y 193 X -14 Y 193 X -4 Y 193 X -1 Y 192 X -1 Y 771 X f 1 0 1 c 0.999 0.999 0.999 c 1 0 1 c 1 1 1 c black 1 0 1 c black 3 lw 1 0 1
 c 227 486 m 11 Y 193 X 43 Y 192 X -34 Y 193 X -14 Y 193 X -4 Y 193 X -1 Y 192 X -1 Y 771 X f 0 0 1 c 0.999 0.999 0.999 c black 3 lw 0.999 0.999 0.999 c 227 486 m 8 Y 193 X 29 Y 192 X -23 Y 193 X -10 Y 193 X -3 Y 385 X -1 Y 771 X f 0 0 1 c 0.999
 0.999 0.999 c 0 0 1 c 1 1 1 c black 0 0 1 c black 3 lw 0 0 1 c 227 486 m 8 Y 193 X 29 Y 192 X -23 Y 193 X -10 Y 193 X -3 Y 385 X -1 Y 771 X f 0.2 0.8 0.8 c 0.999 0.999 0.999 c black 3 lw 0.999 0.999 0.999 c 227 486 m 2 Y 193 X 9 Y 192 X -7 Y 193 X
 -3 Y 193 X -1 Y 1156 X f 0.2 0.8 0.8 c 0.999 0.999 0.999 c 0.2 0.8 0.8 c 1 1 1 c black 0.2 0.8 0.8 c black 3 lw 0.2 0.8 0.8 c 227 486 m 2 Y 193 X 9 Y 192 X -7 Y 193 X -3 Y 193 X -1 Y 1156 X f 1 0 0 c 0.999 0.999 0.999 c black 3 lw 0.999 0.999 0.999
 c 227 486 m 1 Y 193 X 6 Y 192 X -5 Y 193 X -1 Y 193 X -1 Y 1156 X f 1 0 0 c 0.999 0.999 0.999 c 1 0 0 c 1 1 1 c black 1 0 0 c black 3 lw 1 0 0 c 227 486 m 1 Y 193 X 6 Y 192 X -5 Y 193 X -1 Y 193 X -1 Y 1156 X f 1 0.84 0 c 0.999 0.999 0.999 c black 3
 lw 0.999 0.999 0.999 c 227 486 m 1 Y 193 X 4 Y 192 X -3 Y 193 X -2 Y 1349 X f 1 0.84 0 c 0.999 0.999 0.999 c 1 0.84 0 c 1 1 1 c black 1 0.84 0 c black 3 lw 1 0.84 0 c 227 486 m 1 Y 193 X 4 Y 192 X -3 Y 193 X -2 Y 1349 X f black 1 1 1 c black 0.6 0.6
 0.6 c 3 lw 420 625 m -1 -1 d s 409 633 m -9 -9 d s 389 633 m -8 -9 d s 370 633 m -9 -9 d s 351 633 m -9 -9 d s 332 633 m -9 -9 d s 312 633 m -8 -9 d s 293 633 m -9 -9 d s 274 633 m -9 -9 d s 255 633 m -9 -9 d s 235 633 m -8 -9 d s 3 lw 612 1028 m -2
 -2 d s 607 1042 m -16 -16 d s 588 1042 m -16 -16 d s 568 1042 m -16 -16 d s 549 1042 m -16 -16 d s 530 1042 m -16 -16 d s 511 1042 m -16 -16 d s 491 1042 m -16 -16 d s 472 1042 m -16 -16 d s 453 1042 m -16 -16 d s 434 1042 m -14 -14 d s 3 lw 803 701
 m -5 -6 d s 784 701 m -5 -6 d s 765 701 m -6 -6 d s 746 701 m -6 -6 d s 727 701 m -6 -6 d s 707 701 m -5 -6 d s 688 701 m -6 -6 d s 669 701 m -6 -6 d s 650 701 m -6 -6 d s 630 701 m -5 -6 d s 3 lw 982 572 m -3 -4 d s 963 572 m -4 -4 d s 944 572 m -4
 -4 d s 924 572 m -3 -4 d s 905 572 m -3 -4 d s 886 572 m -4 -4 d s 867 572 m -4 -4 d s 848 572 m -4 -4 d s 828 572 m -3 -4 d s 809 572 m -4 -4 d s 3 lw 1184 523 m -2 -2 d s 1165 523 m -2 -2 d s 1146 523 m -3 -2 d s 1126 523 m -2 -2 d s 1107 523 m -2
 -2 d s 1088 523 m -2 -2 d s 1069 523 m -3 -2 d s 1049 523 m -2 -2 d s 1030 523 m -2 -2 d s 1011 523 m -2 -2 d s 3 lw 1377 505 m -3 -3 d s 1358 505 m -3 -3 d s 1339 505 m -4 -3 d s 1319 505 m -3 -3 d s 1300 505 m -3 -3 d s 1281 505 m -3 -3 d s 1262
 505 m -4 -3 d s 1242 505 m -3 -3 d s 1223 505 m -3 -3 d s 1204 505 m -3 -3 d s 3 lw 1559 495 m -1 -1 d s 1540 495 m -1 -1 d s 1521 495 m -1 -1 d s 1502 495 m -1 -1 d s 1482 495 m -1 -1 d s 1463 495 m -1 -1 d s 1444 495 m -1 -1 d s 1425 495 m -1 -1 d
 s 1405 495 m -1 -1 d s 1386 495 m -1 -1 d s 3 lw 1767 491 m -1 -1 d s 1748 491 m -1 -1 d s 1729 491 m -1 -1 d s 1709 491 m -1 Y s 1690 491 m -1 -1 d s 1671 491 m -1 -1 d s 1652 491 m -1 -1 d s 1632 491 m -1 Y s 1613 491 m -1 -1 d s 1594 491 m -1 -1
 d s 3 lw 1959 490 m -2 -1 d s 1939 490 m -1 -1 d s 1920 490 m -1 -1 d s 1901 490 m -1 -1 d s 1882 490 m -2 -1 d s 1862 490 m -1 -1 d s 1843 490 m -1 -1 d s 1824 490 m -1 -1 d s 1805 490 m -2 -1 d s 1785 490 m -1 -1 d s 3 lw 2152 491 m -1 -1 d s 2133
 491 m -1 -1 d s 2113 491 m -1 Y s 2094 491 m -1 -1 d s 2075 491 m -1 -1 d s 2056 491 m -1 -1 d s 2037 491 m -1 -1 d s 2017 491 m -1 -1 d s 1998 491 m -1 -1 d s 1979 491 m -1 -1 d s black 3 lw 1 1 1 c black /w 24 def /w2 {w 2 div} def /w3 {w 3 div}
 def 323 646 m20 516 1078 m 3 Y s 516 1105 m 3 Y s 516 1093 m20 709 724 m20 901 578 m20 1094 530 m20 1287 503 m20 1480 495 m20 1672 491 m20 1865 490 m20 2058 489 m20 227 486 m 1927 X s 227 505 m -19 Y s 304 495 m -9 Y s 381 495 m -9 Y s 458 495 m -9
 Y s 535 495 m -9 Y s 612 505 m -19 Y s 689 495 m -9 Y s 766 495 m -9 Y s 844 495 m -9 Y s 921 495 m -9 Y s 998 505 m -19 Y s 1075 495 m -9 Y s 1152 495 m -9 Y s 1229 495 m -9 Y s 1306 495 m -9 Y s 1383 505 m -19 Y s 1460 495 m -9 Y s 1538 495 m -9 Y
 s 1615 495 m -9 Y s 1692 495 m -9 Y s 1769 505 m -19 Y s 1846 495 m -9 Y s 1923 495 m -9 Y s 2000 495 m -9 Y s 2077 495 m -9 Y s 2154 505 m -19 Y s 227 1527 m 1927 X s 227 1508 m 19 Y s 304 1518 m 9 Y s 381 1518 m 9 Y s 458 1518 m 9 Y s 535 1518 m 9
 Y s 612 1508 m 19 Y s 689 1518 m 9 Y s 766 1518 m 9 Y s 844 1518 m 9 Y s 921 1518 m 9 Y s 998 1508 m 19 Y s 1075 1518 m 9 Y s 1152 1518 m 9 Y s 1229 1518 m 9 Y s 1306 1518 m 9 Y s 1383 1508 m 19 Y s 1460 1518 m 9 Y s 1538 1518 m 9 Y s 1615 1518 m 9
 Y s 1692 1518 m 9 Y s 1769 1508 m 19 Y s 1846 1518 m 9 Y s 1923 1518 m 9 Y s 2000 1518 m 9 Y s 2077 1518 m 9 Y s 2154 1508 m 19 Y s 227 486 m 1041 Y s 248 669 m -21 X s 237 706 m -10 X s 237 743 m -10 X s 237 780 m -10 X s 237 816 m -10 X s 248 853
 m -21 X s 237 890 m -10 X s 237 926 m -10 X s 237 963 m -10 X s 237 1000 m -10 X s 248 1037 m -21 X s 237 1073 m -10 X s 237 1110 m -10 X s 237 1147 m -10 X s 237 1183 m -10 X s 248 1220 m -21 X s 237 1257 m -10 X s 237 1294 m -10 X s 237 1330 m -10
 X s 237 1367 m -10 X s 248 1404 m -21 X s 248 669 m -21 X s 237 633 m -10 X s 237 596 m -10 X s 237 559 m -10 X s 237 523 m -10 X s 248 1404 m -21 X s 237 1440 m -10 X s 237 1477 m -10 X s 237 1514 m -10 X s 2154 486 m 1041 Y s 2133 669 m 21 X s
 2144 706 m 10 X s 2144 743 m 10 X s 2144 780 m 10 X s 2144 816 m 10 X s 2133 853 m 21 X s 2144 890 m 10 X s 2144 926 m 10 X s 2144 963 m 10 X s 2144 1000 m 10 X s 2133 1037 m 21 X s 2144 1073 m 10 X s 2144 1110 m 10 X s 2144 1147 m 10 X s 2144 1183
 m 10 X s 2133 1220 m 21 X s 2144 1257 m 10 X s 2144 1294 m 10 X s 2144 1330 m 10 X s 2144 1367 m 10 X s 2133 1404 m 21 X s 2133 669 m 21 X s 2144 633 m 10 X s 2144 596 m 10 X s 2144 559 m 10 X s 2144 523 m 10 X s 2133 1404 m 21 X s 2144 1440 m 10 X
 s 2144 1477 m 10 X s 2144 1514 m 10 X s
 gsave  2268 1108 0 475 C 1313.98 1432.09 t 0 r /Helvetica findfont 56.1323 sf 0 0 m ( Data) show NC gr  1259 1458 m 10 Y s 1259 1434 m -10 Y s 1259 1446 m20
 gsave  2268 1108 0 475 C 1810.04 1432.09 t 0 r /Helvetica findfont 56.1323 sf 0 0 m (single\255top) show NC gr 
 gsave  2268 1108 0 475 C 1780.51 1432.09 t 0 r /Helvetica-Oblique findfont 56.1323 sf 0 0 m (/) show NC gr 
 gsave  2268 1108 0 475 C 1759.84 1432.09 t 0 r /Helvetica-Oblique findfont 56.1323 sf 0 0 m (t) show NC gr  6 lw 1760 1476 m 21 X s
 gsave  2268 1108 0 475 C 1739.17 1432.09 t 0 r /Helvetica-Oblique findfont 56.1323 sf 0 0 m (t) show NC gr 
 gsave  2268 1108 0 475 C 1721.46 1432.09 t 0 r /Helvetica findfont 56.1323 sf 0 0 m ( ) show NC gr  0.06 0.54 0.06 c 3 lw 1626 1420 m 79 X 52 Y -79 X f 6 lw black
 gsave  2268 1108 0 475 C 1443.9 1358.27 t 0 r /Helvetica findfont 56.1323 sf 0 0 m (+jets) show NC gr 
 gsave  2268 1108 0 475 C 1331.69 1358.27 t 0 r /Helvetica-Oblique findfont 56.1323 sf 0 0 m (W/Z) show NC gr 
 gsave  2268 1108 0 475 C 1313.98 1358.27 t 0 r /Helvetica findfont 56.1323 sf 0 0 m ( ) show NC gr  1 0.653333 0 c 3 lw 1219 1346 m 79 X 52 Y -79 X f black
 gsave  2268 1108 0 475 C 1919.29 1358.27 t 0 r /Helvetica findfont 56.1323 sf 0 0 m (+jets) show NC gr 
 gsave  2268 1108 0 475 C 1739.17 1358.27 t 0 r /Helvetica-Oblique findfont 56.1323 sf 0 0 m (WZ/ZZ) show NC gr 
 gsave  2268 1108 0 475 C 1721.46 1358.27 t 0 r /Helvetica findfont 56.1323 sf 0 0 m ( ) show NC gr  0.413333 1 0 c 3 lw 1626 1346 m 79 X 52 Y -79 X f black
 gsave  2268 1108 0 475 C 1373.03 1284.45 t 0 r /Helvetica-Oblique findfont 56.1323 sf 0 0 m (Z) show NC gr 
 gsave  2268 1108 0 475 C 1352.36 1284.45 t 0 r /Helvetica-Oblique findfont 56.1323 sf 0 0 m (t) show NC gr  6 lw 1352 1329 m 21 X s
 gsave  2268 1108 0 475 C 1331.69 1284.45 t 0 r /Helvetica-Oblique findfont 56.1323 sf 0 0 m (t) show NC gr 
 gsave  2268 1108 0 475 C 1313.98 1284.45 t 0 r /Helvetica findfont 56.1323 sf 0 0 m ( ) show NC gr  0.6 0.2 1 c 3 lw 1219 1272 m 79 X 52 Y -79 X f 6 lw black
 gsave  2268 1108 0 475 C 1780.51 1284.45 t 0 r /Helvetica-Oblique findfont 56.1323 sf 0 0 m (W) show NC gr 
 gsave  2268 1108 0 475 C 1759.84 1284.45 t 0 r /Helvetica-Oblique findfont 56.1323 sf 0 0 m (t) show NC gr  6 lw 1760 1329 m 21 X s
 gsave  2268 1108 0 475 C 1739.17 1284.45 t 0 r /Helvetica-Oblique findfont 56.1323 sf 0 0 m (t) show NC gr 
 gsave  2268 1108 0 475 C 1721.46 1284.45 t 0 r /Helvetica findfont 56.1323 sf 0 0 m ( ) show NC gr  0.54 0.06 0.06 c 3 lw 1626 1272 m 79 X 52 Y -79 X f 6 lw black
 gsave  2268 1108 0 475 C 1331.69 1210.63 t 0 r /Helvetica-Oblique findfont 56.1323 sf 0 0 m (tZq) show NC gr 
 gsave  2268 1108 0 475 C 1313.98 1210.63 t 0 r /Helvetica findfont 56.1323 sf 0 0 m ( ) show NC gr  1 0 1 c 3 lw 1219 1199 m 79 X 51 Y -79 X f black
 gsave  2268 1108 0 475 C 1780.51 1210.63 t 0 r /Helvetica-Oblique findfont 56.1323 sf 0 0 m (H) show NC gr 
 gsave  2268 1108 0 475 C 1759.84 1210.63 t 0 r /Helvetica-Oblique findfont 56.1323 sf 0 0 m (t) show NC gr  6 lw 1760 1255 m 21 X s
 gsave  2268 1108 0 475 C 1739.17 1210.63 t 0 r /Helvetica-Oblique findfont 56.1323 sf 0 0 m (t) show NC gr 
 gsave  2268 1108 0 475 C 1721.46 1210.63 t 0 r /Helvetica findfont 56.1323 sf 0 0 m ( ) show NC gr  0 0 1 c 3 lw 1626 1199 m 79 X 51 Y -79 X f 6 lw black
 gsave  2268 1108 0 475 C 1331.69 1136.81 t 0 r /Helvetica-Oblique findfont 56.1323 sf 0 0 m (tWZ/tWH) show NC gr 
 gsave  2268 1108 0 475 C 1313.98 1136.81 t 0 r /Helvetica findfont 56.1323 sf 0 0 m ( ) show NC gr  0.2 0.8 0.8 c 3 lw 1219 1125 m 79 X 51 Y -79 X f black
 gsave  2268 1108 0 475 C 1739.17 1136.81 t 0 r /Helvetica-Oblique findfont 56.1323 sf 0 0 m (tHq) show NC gr 
 gsave  2268 1108 0 475 C 1721.46 1136.81 t 0 r /Helvetica findfont 56.1323 sf 0 0 m ( ) show NC gr  1 0 0 c 3 lw 1626 1125 m 79 X 51 Y -79 X f black
 gsave  2268 1108 0 475 C 1313.98 1062.99 t 0 r /Helvetica findfont 56.1323 sf 0 0 m ( Other) show NC gr  1 0.84 0 c 3 lw 1219 1051 m 79 X 52 Y -79 X f black
 gsave  2268 1108 0 475 C 1721.46 1062.99 t 0 r /Helvetica findfont 56.1323 sf 0 0 m ( Uncertainty) show NC gr  0.6 0.6 0.6 c 3 lw 1705 1063 m -12 -12 d s 1705 1082 m -31 -31 d s 1705 1101 m -50 -50 d s 1687 1103 m -51 -52 d s 1668 1103 m -42 -43 d s
 1649 1103 m -23 -24 d s 1630 1103 m -4 -4 d s 1 0.84 0 c 0.6 0.6 0.6 c black
 gsave  2268 1108 0 475 C 894.685 1337.6 t 0 r /Helvetica findfont 41.3606 sf 0 0 m (\2551) show NC gr 
 gsave  2268 1108 0 475 C 401.575 1308.07 t 0 r /Helvetica findfont 62.0409 sf 0 0 m ( = 13 TeV,  139 fb) show NC gr 
 gsave  2268 1108 0 475 C 372.047 1308.07 t 0 r /Helvetica findfont 62.0409 sf 0 0 m (s) show NC gr  6 lw 351 1344 m 6 -39 d s 3 lw 357 1305 m 9 56 d s 366 1361 m 36 X s
 gsave  2268 1108 0 475 C 339.567 1207.68 t 0 r /Helvetica findfont 62.0409 sf 0 0 m ( 2L\(SS\) pre\255selection) show NC gr 
 gsave  2268 1108 0 475 C 339.567 1405.51 t 0 r /Helvetica-BoldOblique findfont 73.8583 sf 0 0 m (ATLAS) show NC gr 
 gsave  2268 1108 0 475 C 634.843 1405.51 t 0 r /Helvetica findfont 73.8583 sf 0 0 m (Internal) show NC gr 
 gr  gr showpage
end
%%EOF
