%!PS-Adobe-2.0 EPSF-2.0
%%BoundingBox:  0 0 567 394
%%Title: /lhome/ific/c/cardillo/tHq/Plots/Plots-30-05-22-PLIV-SF/2LSS_MC/LepPt2_CRVV.eps: LepPt2_CRVV
%%Creator: ROOT Version 6.20/06
%%CreationDate: Mon May 30 19:26:17 2022
%%DocumentNeededResources: ProcSet (FontSetInit)
%%EndComments
%%BeginProlog
80 dict begin
/s {stroke} def /l {lineto} def /m {moveto} def /t {translate} def
/r {rotate} def /rl {roll}  def /R {repeat} def
/d {rlineto} def /rm {rmoveto} def /gr {grestore} def /f {eofill} def
/c {setrgbcolor} def /black {0 setgray} def /sd {setdash} def
/cl {closepath} def /sf {scalefont setfont} def /lw {setlinewidth} def
/box {m dup 0 exch d exch 0 d 0 exch neg d cl} def
/NC{systemdict begin initclip end}def/C{NC box clip newpath}def
/bl {box s} def /bf {gsave box gsave f grestore 1 lw [] 0 sd s grestore} def /Y { 0 exch d} def /X { 0 d} def 
/K {{pop pop 0 moveto} exch kshow} bind def
/ita {/ang 15 def gsave [1 0 ang dup sin exch cos div 1 0 0] concat} def 
/mp {newpath /y exch def /x exch def} def
/side {[w .77 mul w .23 mul] .385 w mul sd w 0 l currentpoint t -144 r} def
/mr {mp x y w2 0 360 arc} def /m24 {mr s} def /m20 {mr f} def
/mb {mp x y w2 add m w2 neg 0 d 0 w neg d w 0 d 0 w d cl} def
/mt {mp x y w2 add m w2 neg w neg d w 0 d cl} def
/w4 {w 4 div} def
/w6 {w 6 div} def
/w8 {w 8 div} def
/m21 {mb f} def /m25 {mb s} def /m22 {mt f} def /m26{mt s} def
/m23 {mp x y w2 sub m w2 w d w neg 0 d cl f} def
/m27 {mp x y w2 add m w3 neg w2 neg d w3 w2 neg d w3 w2 d cl s} def
/m28 {mp x w2 sub y w2 sub w3 add m w3 0 d  0 w3 neg d w3 0 d 0 w3 d w3 0 d  0 w3 d w3 neg 0 d 0 w3 d w3 neg 0 d 0 w3 neg d w3 neg 0 d cl s } def
/m29 {mp gsave x w2 sub y w2 add w3 sub m currentpoint t 4 {side} repeat cl fill gr} def
/m30 {mp gsave x w2 sub y w2 add w3 sub m currentpoint t 4 {side} repeat cl s gr} def
/m31 {mp x y w2 sub m 0 w d x w2 sub y m w 0 d x w2 sub y w2 add m w w neg d x w2 sub y w2 sub m w w d s} def
/m32 {mp x y w2 sub m w2 w d w neg 0 d cl s} def
/m33 {mp x y w2 add m w3 neg w2 neg d w3 w2 neg d w3 w2 d cl f} def
/m34 {mp x w2 sub y w2 sub w3 add m w3 0 d  0 w3 neg d w3 0 d 0 w3 d w3 0 d  0 w3 d w3 neg 0 d 0 w3 d w3 neg 0 d 0 w3 neg d w3 neg 0 d cl f } def
/m35 {mp x y w2 add m w2 neg w2 neg d w2 w2 neg d w2 w2 d w2 neg w2 d x y w2 sub m 0 w d x w2 sub y m w 0 d s} def
/m36 {mb x w2 sub y w2 add m w w neg d x w2 sub y w2 sub m w w d s} def
/m37 {mp x y m w4 neg w2 d w4 neg w2 neg d w2 0 d  w4 neg w2 neg d w2 0 d w4 neg w2 d w2 0 d w4 neg w2 d w4 neg w2 neg d cl s} def
/m38 {mp x w4 sub y w2 add m w4 neg w4 neg d 0 w2 neg d w4 w4 neg d w2 0 d w4 w4 d 0 w2 d w4 neg w4 d w2 neg 0 d x y w2 sub m 0 w d x w2 sub y m w 0 d cl s} def
/m39 {mp x y m w4 neg w2 d w4 neg w2 neg d w2 0 d  w4 neg w2 neg d w2 0 d w4 neg w2 d w2 0 d w4 neg w2 d w4 neg w2 neg d cl f} def
/m40 {mp x y m w4 w2 d w4 w4 neg d w2 neg w4 neg d w2 w4 neg d w4 neg w4 neg d w4 neg w2 d w4 neg w2 neg d w4 neg w4 d w2 w4 d w2 neg w4 d w4 w4 d w4 w2 neg d cl s} def
/m41 {mp x y m w4 w2 d w4 w4 neg d w2 neg w4 neg d w2 w4 neg d w4 neg w4 neg d w4 neg w2 d w4 neg w2 neg d w4 neg w4 d w2 w4 d w2 neg w4 d w4 w4 d w4 w2 neg d cl f} def
/m42 {mp x y w2 add m w8 neg w2 -3 4 div mul d w2 -3 4 div mul w8 neg d w2 3 4 div mul w8 neg d w8 w2 -3 4 div mul d w8 w2 3 4 div mul d w2 3 4 div mul w8 d w2 -3 4 div mul w8 d w8 neg w2 3 4 div mul d cl s} def
/m43 {mp x y w2 add m w8 neg w2 -3 4 div mul d w2 -3 4 div mul w8 neg d w2 3 4 div mul w8 neg d w8 w2 -3 4 div mul d w8 w2 3 4 div mul d w2 3 4 div mul w8 d w2 -3 4 div mul w8 d w8 neg w2 3 4 div mul d cl f} def
/m44 {mp x y m w6 neg w2 d w2 2 3 div mul 0 d w6 neg w2 neg d w2 w6 d 0 w2 -2 3 div mul d w2 neg w6 d w6 w2 neg d w2 -2 3 div mul 0 d w6 w2 d w2 neg w6 neg d 0 w2 2 3 div mul d w2 w6 neg d cl s} def
/m45 {mp x y m w6 neg w2 d w2 2 3 div mul 0 d w6 neg w2 neg d w2 w6 d 0 w2 -2 3 div mul d w2 neg w6 d w6 w2 neg d w2 -2 3 div mul 0 d w6 w2 d w2 neg w6 neg d 0 w2 2 3 div mul d w2 w6 neg d cl f} def
/m46 {mp x y w4 add m w4 neg w4 d w4 neg w4 neg d  w4 w4 neg d w4 neg w4 neg d w4 w4 neg d w4 w4 d w4 w4 neg d w4 w4 d w4 neg w4 d w4 w4 d w4 neg w4 d w4 neg w4 neg d cl s} def
/m47 {mp x y w4 add m w4 neg w4 d w4 neg w4 neg d w4 w4 neg d w4 neg w4 neg d  w4 w4 neg d w4 w4 d w4 w4 neg d w4 w4 d w4 neg w4 d w4 w4 d w4 neg w4 d w4 neg w4 neg d cl f} def
/m48 {mp x y w4 add m w4 neg w4 d w4 neg w4 neg d w4 w4 neg d  w4 neg w4 neg d w4 w4 neg d w4 w4 d w4 w4 neg d w4 w4 d w4 neg w4 d w4 w4 d w4 neg w4 d w4 neg w4 neg d  w4 w4 neg d w4 neg w4 neg d w4 neg w4 d w4 w4 d cl f} def
/m49 {mp x w2 sub w3 add y w2 sub w3 add m  0 w3 neg d w3 0 d 0 w3 d w3 0 d 0 w3 d w3 neg 0 d 0 w3 d w3 neg 0 d 0 w3 neg d w3 neg 0 d 0 w3 neg d w3 0 d 0 w3 d w3 0 d 0 w3 neg d w3 neg 0 d cl f } def
/m2 {mp x y w2 sub m 0 w d x w2 sub y m w 0 d s} def
/m5 {mp x w2 sub y w2 sub m w w d x w2 sub y w2 add m w w neg d s} def
%%IncludeResource: ProcSet (FontSetInit)
%%IncludeResource: font Times-Roman
%%IncludeResource: font Times-Italic
%%IncludeResource: font Times-Bold
%%IncludeResource: font Times-BoldItalic
%%IncludeResource: font Helvetica
%%IncludeResource: font Helvetica-Oblique
%%IncludeResource: font Helvetica-Bold
%%IncludeResource: font Helvetica-BoldOblique
%%IncludeResource: font Courier
%%IncludeResource: font Courier-Oblique
%%IncludeResource: font Courier-Bold
%%IncludeResource: font Courier-BoldOblique
%%IncludeResource: font Symbol
%%IncludeResource: font ZapfDingbats
/reEncode {exch findfont dup length dict begin {1 index /FID eq  {pop pop} {def} ifelse } forall /Encoding exch def currentdict end dup /FontName get exch definefont pop } def [/Times-Bold /Times-Italic /Times-BoldItalic /Helvetica /Helvetica-Oblique
 /Helvetica-Bold /Helvetica-BoldOblique /Courier /Courier-Oblique /Courier-Bold /Courier-BoldOblique /Times-Roman /AvantGarde-Book /AvantGarde-BookOblique /AvantGarde-Demi /AvantGarde-DemiOblique /Bookman-Demi /Bookman-DemiItalic /Bookman-Light
 /Bookman-LightItalic /Helvetica-Narrow /Helvetica-Narrow-Bold /Helvetica-Narrow-BoldOblique /Helvetica-Narrow-Oblique /NewCenturySchlbk-Roman /NewCenturySchlbk-Bold /NewCenturySchlbk-BoldItalic /NewCenturySchlbk-Italic /Palatino-Bold
 /Palatino-BoldItalic /Palatino-Italic /Palatino-Roman ] {ISOLatin1Encoding reEncode } forall
%%EndProlog
%%BeginSetup
%%EndSetup
newpath  gsave  .25 .25 scale  gsave  0 0 t black[  ] 0 sd 3 lw 1 1 1 c 2268 1575 0 0 bf black 1 1 1 c 2268 472 0 0 bf black 1 1 1 c 1927 274 227 189 bf black 1927 274 227 189 bl 227 189 m 1927 X s 227 201 m -12 Y s 304 195 m -6 Y s 381 195 m -6 Y s
 458 195 m -6 Y s 535 195 m -6 Y s 612 201 m -12 Y s 689 195 m -6 Y s 766 195 m -6 Y s 844 195 m -6 Y s 921 195 m -6 Y s 998 201 m -12 Y s 1075 195 m -6 Y s 1152 195 m -6 Y s 1229 195 m -6 Y s 1306 195 m -6 Y s 1383 201 m -12 Y s 1460 195 m -6 Y s
 1538 195 m -6 Y s 1615 195 m -6 Y s 1692 195 m -6 Y s 1769 201 m -12 Y s 1846 195 m -6 Y s 1923 195 m -6 Y s 2000 195 m -6 Y s 2077 195 m -6 Y s 2154 201 m -12 Y s
 gsave  2268 472 0 0 C 210.193 127.3 t 0 r /Helvetica findfont 53.4895 sf 0 0 m (0) show NC gr 
 gsave  2268 472 0 0 C 580.251 127.3 t 0 r /Helvetica findfont 53.4895 sf 0 0 m (50) show NC gr 
 gsave  2268 472 0 0 C 953.27 127.3 t 0 r /Helvetica findfont 53.4895 sf 0 0 m (100) show NC gr 
 gsave  2268 472 0 0 C 1338.13 127.3 t 0 r /Helvetica findfont 53.4895 sf 0 0 m (150) show NC gr 
 gsave  2268 472 0 0 C 1722.99 127.3 t 0 r /Helvetica findfont 53.4895 sf 0 0 m (200) show NC gr 
 gsave  2268 472 0 0 C 2107.85 127.3 t 0 r /Helvetica findfont 53.4895 sf 0 0 m (250) show NC gr 
 gsave  2268 472 0 0 C 1977.59 53.2884 t 0 r /Helvetica findfont 56.4611 sf 0 0 m (\) [GeV]) show NC gr 
 gsave  2268 472 0 0 C 1956.87 20.7233 t 0 r /Helvetica findfont 38.6313 sf 0 0 m (2) show NC gr 
 gsave  2268 472 0 0 C 1862.13 53.2884 t 0 r /Helvetica findfont 56.4611 sf 0 0 m (\(lep) show NC gr 
 gsave  2268 472 0 0 C 1838.45 20.7233 t 0 r /Helvetica findfont 38.6313 sf 0 0 m (T) show NC gr 
 gsave  2268 472 0 0 C 1802.92 53.2884 t 0 r /Helvetica-Oblique findfont 56.4611 sf 0 0 m (p) show NC gr  227 463 m 1927 X s 227 451 m 12 Y s 304 457 m 6 Y s 381 457 m 6 Y s 458 457 m 6 Y s 535 457 m 6 Y s 612 451 m 12 Y s 689 457 m 6 Y s 766 457 m 6
 Y s 844 457 m 6 Y s 921 457 m 6 Y s 998 451 m 12 Y s 1075 457 m 6 Y s 1152 457 m 6 Y s 1229 457 m 6 Y s 1306 457 m 6 Y s 1383 451 m 12 Y s 1460 457 m 6 Y s 1538 457 m 6 Y s 1615 457 m 6 Y s 1692 457 m 6 Y s 1769 451 m 12 Y s 1846 457 m 6 Y s 1923
 457 m 6 Y s 2000 457 m 6 Y s 2077 457 m 6 Y s 2154 451 m 12 Y s 227 189 m 274 Y s 240 240 m -13 X s 240 326 m -13 X s 240 412 m -13 X s 240 240 m -13 X s 240 412 m -13 X s
 gsave  2268 472 0 0 C 118.419 222.035 t 0 r /Helvetica findfont 53.4895 sf 0 0 m (0.5) show NC gr 
 gsave  2268 472 0 0 C 171.707 307.888 t 0 r /Helvetica findfont 53.4895 sf 0 0 m (1) show NC gr 
 gsave  2268 472 0 0 C 118.419 393.742 t 0 r /Helvetica findfont 53.4895 sf 0 0 m (1.5) show NC gr 
 gsave  2268 472 0 0 C 71.0512 230.916 t 90 r /Helvetica findfont 53.4895 sf 0 0 m (Data / SM) show NC gr  2154 189 m 274 Y s 2141 240 m 13 X s 2141 326 m 13 X s 2141 412 m 13 X s 2141 240 m 13 X s 2141 412 m 13 X s 227 189 m 1927 X s 227 463 m 1927
 X s 227 189 m 274 Y s[ 4 8] 0 sd 2154 240 m -1927 X s 2154 326 m -1927 X s 2154 412 m -1927 X s 2154 240 m -1927 X s 2154 412 m -1927 X s[  ] 0 sd 2154 189 m 274 Y s 1 1 0.6 c 193 0 227 326 bf 192 0 420 326 bf 193 0 612 326 bf 193 0 805 326 bf 193 0
 998 326 bf 192 0 1191 326 bf 193 0 1383 326 bf 193 0 1576 326 bf 193 0 1769 326 bf 192 0 1962 326 bf black 0.6 0.6 0.6 c 420 286 m -2 -2 d s 420 305 m -22 -21 d s 420 325 m -41 -41 d s 420 344 m -60 -60 d s 420 363 m -79 -79 d s 405 368 m -84 -84 d
 s 386 368 m -84 -84 d s 367 368 m -84 -84 d s 347 368 m -83 -84 d s 328 368 m -84 -84 d s 309 368 m -82 -82 d s 290 368 m -63 -63 d s 270 368 m -43 -44 d s 251 368 m -24 -24 d s 232 368 m -5 -5 d s 612 325 m -8 -9 d s 604 336 m -19 -20 d s 585 336 m
 -20 -20 d s 565 336 m -19 -20 d s 546 336 m -19 -20 d s 527 336 m -19 -20 d s 508 336 m -20 -20 d s 488 336 m -19 -20 d s 469 336 m -19 -20 d s 450 336 m -19 -20 d s 431 336 m -11 -11 d s 805 325 m -15 -15 d s 802 342 m -31 -32 d s 783 342 m -31 -32
 d s 764 342 m -31 -32 d s 744 342 m -31 -32 d s 725 342 m -31 -32 d s 706 342 m -31 -32 d s 687 342 m -31 -32 d s 668 342 m -32 -32 d s 648 342 m -31 -32 d s 629 342 m -17 -17 d s 998 306 m -12 -12 d s 998 326 m -31 -32 d s 998 345 m -51 -51 d s 991
 358 m -63 -64 d s 972 358 m -63 -64 d s 953 358 m -63 -64 d s 934 358 m -64 -64 d s 914 358 m -63 -64 d s 895 358 m -63 -64 d s 876 358 m -63 -64 d s 857 358 m -52 -52 d s 837 358 m -32 -33 d s 818 358 m -13 -13 d s 1191 307 m -9 -9 d s 1191 326 m
 -29 -28 d s 1191 345 m -48 -47 d s 1181 354 m -57 -56 d s 1161 354 m -56 -56 d s 1142 354 m -57 -56 d s 1123 354 m -57 -56 d s 1104 354 m -57 -56 d s 1084 354 m -56 -56 d s 1065 354 m -57 -56 d s 1046 354 m -48 -48 d s 1027 354 m -29 -28 d s 1007
 354 m -9 -9 d s 1383 307 m -11 -11 d s 1383 326 m -30 -30 d s 1383 346 m -49 -50 d s 1375 356 m -60 -60 d s 1355 356 m -60 -60 d s 1336 356 m -60 -60 d s 1317 356 m -60 -60 d s 1298 356 m -60 -60 d s 1278 356 m -60 -60 d s 1259 356 m -60 -60 d s
 1240 356 m -49 -49 d s 1221 356 m -30 -30 d s 1201 356 m -10 -11 d s 1576 269 m -9 -9 d s 1576 288 m -28 -28 d s 1576 307 m -47 -47 d s 1576 327 m -66 -67 d s 1576 346 m -86 -86 d s 1576 365 m -105 -105 d s 1576 384 m -124 -124 d s 1564 392 m -131
 -132 d s 1545 392 m -132 -132 d s 1526 392 m -132 -132 d s 1507 392 m -124 -124 d s 1488 392 m -105 -104 d s 1468 392 m -85 -85 d s 1449 392 m -66 -66 d s 1430 392 m -47 -46 d s 1411 392 m -28 -27 d s 1391 392 m -8 -8 d s 1769 250 m -4 -5 d s 1769
 269 m -24 -24 d s 1769 288 m -43 -43 d s 1769 308 m -62 -63 d s 1769 327 m -81 -82 d s 1769 346 m -101 -101 d s 1769 366 m -120 -121 d s 1769 385 m -139 -140 d s 1769 404 m -158 -159 d s 1752 407 m -160 -162 d s 1733 407 m -157 -158 d s 1714 407 m
 -138 -138 d s 1694 407 m -118 -119 d s 1675 407 m -99 -100 d s 1656 407 m -80 -80 d s 1637 407 m -61 -61 d s 1617 407 m -41 -42 d s 1598 407 m -22 -23 d s 1579 407 m -3 -3 d s 1962 289 m -5 -5 d s 1962 308 m -24 -24 d s 1962 327 m -44 -43 d s 1962
 347 m -63 -63 d s 1962 366 m -82 -82 d s 1945 368 m -84 -84 d s 1925 368 m -84 -84 d s 1906 368 m -84 -84 d s 1887 368 m -84 -84 d s 1868 368 m -84 -84 d s 1848 368 m -79 -80 d s 1829 368 m -60 -60 d s 1810 368 m -41 -41 d s 1791 368 m -22 -22 d s
 1771 368 m -2 -2 d s 2154 308 m -9 -9 d s 2154 328 m -28 -29 d s 2154 347 m -47 -48 d s 2141 353 m -53 -54 d s 2122 353 m -54 -54 d s 2103 353 m -54 -54 d s 2083 353 m -53 -54 d s 2064 353 m -53 -54 d s 2045 353 m -54 -54 d s 2026 353 m -54 -54 d s
 2006 353 m -44 -45 d s 1987 353 m -25 -26 d s 1968 353 m -6 -6 d s black 1 1 1 c black 323 357 m 37 Y s 323 418 m 37 Y s /w 26 def /w2 {w 2 div} def /w3 {w 3 div} def 323 406 m20 516 369 m 16 Y s 516 409 m 16 Y s 516 397 m20 709 331 m 41 Y s 709 395
 m 41 Y s 709 384 m20 901 276 m 72 Y s 901 372 m 72 Y s 901 360 m20 1094 189 m 55 Y s 1094 268 m 89 Y s 1094 256 m20 227 326 m 1927 X s 227 189 m 1927 X s 227 201 m -12 Y s 304 195 m -6 Y s 381 195 m -6 Y s 458 195 m -6 Y s 535 195 m -6 Y s 612 201 m
 -12 Y s 689 195 m -6 Y s 766 195 m -6 Y s 844 195 m -6 Y s 921 195 m -6 Y s 998 201 m -12 Y s 1075 195 m -6 Y s 1152 195 m -6 Y s 1229 195 m -6 Y s 1306 195 m -6 Y s 1383 201 m -12 Y s 1460 195 m -6 Y s 1538 195 m -6 Y s 1615 195 m -6 Y s 1692 195 m
 -6 Y s 1769 201 m -12 Y s 1846 195 m -6 Y s 1923 195 m -6 Y s 2000 195 m -6 Y s 2077 195 m -6 Y s 2154 201 m -12 Y s 227 463 m 1927 X s 227 451 m 12 Y s 304 457 m 6 Y s 381 457 m 6 Y s 458 457 m 6 Y s 535 457 m 6 Y s 612 451 m 12 Y s 689 457 m 6 Y s
 766 457 m 6 Y s 844 457 m 6 Y s 921 457 m 6 Y s 998 451 m 12 Y s 1075 457 m 6 Y s 1152 457 m 6 Y s 1229 457 m 6 Y s 1306 457 m 6 Y s 1383 451 m 12 Y s 1460 457 m 6 Y s 1538 457 m 6 Y s 1615 457 m 6 Y s 1692 457 m 6 Y s 1769 451 m 12 Y s 1846 457 m 6
 Y s 1923 457 m 6 Y s 2000 457 m 6 Y s 2077 457 m 6 Y s 2154 451 m 12 Y s 227 189 m 274 Y s 240 240 m -13 X s 240 326 m -13 X s 240 412 m -13 X s 240 240 m -13 X s 240 412 m -13 X s 2154 189 m 274 Y s 2141 240 m 13 X s 2141 326 m 13 X s 2141 412 m 13
 X s 2141 240 m 13 X s 2141 412 m 13 X s 1 1 1 c 2268 1103 0 472 bf black 1 1 1 c 1927 1036 227 484 bf black 1927 1036 227 484 bl 1 1 1 c black 3 lw 227 484 m 1927 X s 227 502 m -18 Y s 304 493 m -9 Y s 381 493 m -9 Y s 458 493 m -9 Y s 535 493 m -9
 Y s 612 502 m -18 Y s 689 493 m -9 Y s 766 493 m -9 Y s 844 493 m -9 Y s 921 493 m -9 Y s 998 502 m -18 Y s 1075 493 m -9 Y s 1152 493 m -9 Y s 1229 493 m -9 Y s 1306 493 m -9 Y s 1383 502 m -18 Y s 1460 493 m -9 Y s 1538 493 m -9 Y s 1615 493 m -9
 Y s 1692 493 m -9 Y s 1769 502 m -18 Y s 1846 493 m -9 Y s 1923 493 m -9 Y s 2000 493 m -9 Y s 2077 493 m -9 Y s 2154 502 m -18 Y s
 gsave  2268 1103 0 472 C 2060.48 408.544 t 0 r /Helvetica findfont 29.6365 sf 0 0 m (\) [GeV]) show NC gr 
 gsave  2268 1103 0 472 C 2048.64 390.781 t 0 r /Helvetica findfont 20.7455 sf 0 0 m (2) show NC gr 
 gsave  2268 1103 0 472 C 1998.31 408.544 t 0 r /Helvetica findfont 29.6365 sf 0 0 m (\(lep) show NC gr 
 gsave  2268 1103 0 472 C 1983.51 387.821 t 0 r /Helvetica findfont 20.7455 sf 0 0 m (T) show NC gr 
 gsave  2268 1103 0 472 C 1965.75 408.544 t 0 r /Helvetica-Oblique findfont 29.6365 sf 0 0 m (p) show NC gr  227 1520 m 1927 X s 227 1501 m 19 Y s 304 1510 m 10 Y s 381 1510 m 10 Y s 458 1510 m 10 Y s 535 1510 m 10 Y s 612 1501 m 19 Y s 689 1510 m 10
 Y s 766 1510 m 10 Y s 844 1510 m 10 Y s 921 1510 m 10 Y s 998 1501 m 19 Y s 1075 1510 m 10 Y s 1152 1510 m 10 Y s 1229 1510 m 10 Y s 1306 1510 m 10 Y s 1383 1501 m 19 Y s 1460 1510 m 10 Y s 1538 1510 m 10 Y s 1615 1510 m 10 Y s 1692 1510 m 10 Y s
 1769 1501 m 19 Y s 1846 1510 m 10 Y s 1923 1510 m 10 Y s 2000 1510 m 10 Y s 2077 1510 m 10 Y s 2154 1501 m 19 Y s 227 484 m 1036 Y s 248 638 m -21 X s 237 676 m -10 X s 237 715 m -10 X s 237 753 m -10 X s 248 792 m -21 X s 237 830 m -10 X s 237 869
 m -10 X s 237 908 m -10 X s 248 946 m -21 X s 237 985 m -10 X s 237 1023 m -10 X s 237 1062 m -10 X s 248 1100 m -21 X s 237 1139 m -10 X s 237 1178 m -10 X s 237 1216 m -10 X s 248 1255 m -21 X s 237 1293 m -10 X s 237 1332 m -10 X s 237 1370 m -10
 X s 248 1409 m -21 X s 248 638 m -21 X s 237 599 m -10 X s 237 561 m -10 X s 237 522 m -10 X s 248 1409 m -21 X s 237 1447 m -10 X s 237 1486 m -10 X s
 gsave  2268 1103 0 472 C 145.063 618.737 t 0 r /Helvetica findfont 50.382 sf 0 0 m (20) show NC gr 
 gsave  2268 1103 0 472 C 145.063 772.682 t 0 r /Helvetica findfont 50.382 sf 0 0 m (40) show NC gr 
 gsave  2268 1103 0 472 C 145.063 926.626 t 0 r /Helvetica findfont 50.382 sf 0 0 m (60) show NC gr 
 gsave  2268 1103 0 472 C 145.063 1080.57 t 0 r /Helvetica findfont 50.382 sf 0 0 m (80) show NC gr 
 gsave  2268 1103 0 472 C 118.419 1234.51 t 0 r /Helvetica findfont 50.382 sf 0 0 m (100) show NC gr 
 gsave  2268 1103 0 472 C 118.419 1388.46 t 0 r /Helvetica findfont 50.382 sf 0 0 m (120) show NC gr 
 gsave  2268 1103 0 472 C 62.1698 1154.58 t 90 r /Helvetica findfont 50.382 sf 0 0 m (Events / 25 GeV) show NC gr  2154 484 m 1036 Y s 2133 638 m 21 X s 2144 676 m 10 X s 2144 715 m 10 X s 2144 753 m 10 X s 2133 792 m 21 X s 2144 830 m 10 X s 2144
 869 m 10 X s 2144 908 m 10 X s 2133 946 m 21 X s 2144 985 m 10 X s 2144 1023 m 10 X s 2144 1062 m 10 X s 2133 1100 m 21 X s 2144 1139 m 10 X s 2144 1178 m 10 X s 2144 1216 m 10 X s 2133 1255 m 21 X s 2144 1293 m 10 X s 2144 1332 m 10 X s 2144 1370 m
 10 X s 2133 1409 m 21 X s 2133 638 m 21 X s 2144 599 m 10 X s 2144 561 m 10 X s 2144 522 m 10 X s 2133 1409 m 21 X s 2144 1447 m 10 X s 2144 1486 m 10 X s 0.06 0.54 0.06 c black 3 lw 0.06 0.54 0.06 c 227 484 m 136 Y 193 X 278 Y 192 X -305 Y 193 X
 -71 Y 193 X -26 Y 193 X -7 Y 192 X -2 Y 193 X -3 Y 578 X f 1 0.653333 0 c 0.999 0.999 0.999 c black 3 lw 0.999 0.999 0.999 c 227 484 m 110 Y 193 X 242 Y 192 X -252 Y 193 X -64 Y 193 X -26 Y 193 X -5 Y 192 X -3 Y 193 X -2 Y 578 X f 1 0.653333 0 c
 0.999 0.999 0.999 c 1 0.653333 0 c 1 1 1 c black 1 0.653333 0 c black 3 lw 1 0.653333 0 c 227 484 m 110 Y 193 X 242 Y 192 X -252 Y 193 X -64 Y 193 X -26 Y 193 X -5 Y 192 X -3 Y 193 X -2 Y 578 X f 0.413333 1 0 c 0.999 0.999 0.999 c black 3 lw 0.999
 0.999 0.999 c 227 484 m 87 Y 193 X 240 Y 192 X -234 Y 193 X -58 Y 193 X -25 Y 193 X -6 Y 192 X -2 Y 193 X -2 Y 578 X f 0.413333 1 0 c 0.999 0.999 0.999 c 0.413333 1 0 c 1 1 1 c black 0.413333 1 0 c black 3 lw 0.413333 1 0 c 227 484 m 87 Y 193 X 240
 Y 192 X -234 Y 193 X -58 Y 193 X -25 Y 193 X -6 Y 192 X -2 Y 193 X -2 Y 578 X f 0.6 0.2 1 c 0.999 0.999 0.999 c black 3 lw 0.999 0.999 0.999 c 227 484 m 9 Y 193 X 43 Y 192 X -34 Y 193 X -8 Y 193 X -9 Y 193 X -1 Y 963 X f 0.6 0.2 1 c 0.999 0.999
 0.999 c 0.6 0.2 1 c 1 1 1 c black 0.6 0.2 1 c black 3 lw 0.6 0.2 1 c 227 484 m 9 Y 193 X 43 Y 192 X -34 Y 193 X -8 Y 193 X -9 Y 193 X -1 Y 963 X f 0.54 0.06 0.06 c 0.999 0.999 0.999 c black 3 lw 0.999 0.999 0.999 c 227 484 m 8 Y 193 X 41 Y 192 X -32
 Y 193 X -7 Y 193 X -10 Y 1156 X f 0.54 0.06 0.06 c 0.999 0.999 0.999 c 0.54 0.06 0.06 c 1 1 1 c black 0.54 0.06 0.06 c black 3 lw 0.54 0.06 0.06 c 227 484 m 8 Y 193 X 41 Y 192 X -32 Y 193 X -7 Y 193 X -10 Y 1156 X f 1 0 1 c 0.999 0.999 0.999 c black
 3 lw 0.999 0.999 0.999 c 227 484 m 5 Y 193 X 33 Y 192 X -28 Y 193 X -3 Y 193 X -7 Y 1156 X f 1 0 1 c 0.999 0.999 0.999 c 1 0 1 c 1 1 1 c black 1 0 1 c black 3 lw 1 0 1 c 227 484 m 5 Y 193 X 33 Y 192 X -28 Y 193 X -3 Y 193 X -7 Y 1156 X f 0 0 1 c
 0.999 0.999 0.999 c black 3 lw 0.999 0.999 0.999 c 227 484 m 4 Y 193 X 27 Y 192 X -23 Y 193 X -1 Y 193 X -7 Y 1156 X f 0 0 1 c 0.999 0.999 0.999 c 0 0 1 c 1 1 1 c black 0 0 1 c black 3 lw 0 0 1 c 227 484 m 4 Y 193 X 27 Y 192 X -23 Y 193 X -1 Y 193 X
 -7 Y 1156 X f 0.2 0.8 0.8 c 0.999 0.999 0.999 c black 3 lw 0.999 0.999 0.999 c 227 484 m 3 Y 193 X 26 Y 192 X -22 Y 386 X -7 Y 1156 X f 0.2 0.8 0.8 c 0.999 0.999 0.999 c 0.2 0.8 0.8 c 1 1 1 c black 0.2 0.8 0.8 c black 3 lw 0.2 0.8 0.8 c 227 484 m 3
 Y 193 X 26 Y 192 X -22 Y 386 X -7 Y 1156 X f 1 0 0 c 0.999 0.999 0.999 c black 3 lw 0.999 0.999 0.999 c 227 484 m 3 Y 193 X 26 Y 192 X -22 Y 193 X -1 Y 193 X -6 Y 1156 X f 1 0 0 c 0.999 0.999 0.999 c 1 0 0 c 1 1 1 c black 1 0 0 c black 3 lw 1 0 0 c
 227 484 m 3 Y 193 X 26 Y 192 X -22 Y 193 X -1 Y 193 X -6 Y 1156 X f 1 0.84 0 c 0.999 0.999 0.999 c black 3 lw 0.999 0.999 0.999 c 227 484 m 3 Y 193 X 25 Y 192 X -21 Y 193 X -1 Y 193 X -6 Y 1156 X f 1 0.84 0 c 0.999 0.999 0.999 c 1 0.84 0 c 1 1 1 c
 black 1 0.84 0 c black 3 lw 1 0.84 0 c 227 484 m 3 Y 193 X 25 Y 192 X -21 Y 193 X -1 Y 193 X -6 Y 1156 X f black 1 1 1 c black 0.6 0.6 0.6 c 3 lw 420 603 m -17 -16 d s 420 622 m -36 -35 d s 420 642 m -56 -55 d s 412 654 m -67 -67 d s 393 654 m -67
 -67 d s 374 654 m -67 -67 d s 355 654 m -68 -67 d s 335 654 m -67 -67 d s 316 654 m -67 -67 d s 297 654 m -67 -67 d s 278 654 m -51 -51 d s 258 654 m -31 -32 d s 239 654 m -12 -13 d s 3 lw 612 892 m -17 -17 d s 612 911 m -36 -36 d s 603 921 m -46
 -46 d s 584 921 m -46 -46 d s 565 921 m -47 -46 d s 546 921 m -47 -46 d s 527 921 m -47 -46 d s 507 921 m -46 -46 d s 488 921 m -47 -46 d s 469 921 m -47 -46 d s 450 921 m -30 -30 d s 430 921 m -10 -10 d s 3 lw 805 585 m -2 -2 d s 804 603 m -20 -20
 d s 785 603 m -20 -20 d s 766 603 m -20 -20 d s 747 603 m -20 -20 d s 727 603 m -20 -20 d s 708 603 m -20 -20 d s 689 603 m -20 -20 d s 670 603 m -20 -20 d s 650 603 m -20 -20 d s 631 603 m -19 -19 d s 3 lw 998 527 m -13 -12 d s 980 529 m -14 -14 d
 s 961 529 m -14 -14 d s 942 529 m -14 -14 d s 923 529 m -15 -14 d s 903 529 m -14 -14 d s 884 529 m -14 -14 d s 865 529 m -14 -14 d s 846 529 m -15 -14 d s 827 529 m -15 -14 d s 807 529 m -2 -2 d s 3 lw 1181 499 m -5 -5 d s 1161 499 m -4 -5 d s 1142
 499 m -4 -5 d s 1123 499 m -4 -5 d s 1104 499 m -5 -5 d s 1085 499 m -5 -5 d s 1065 499 m -4 -5 d s 1046 499 m -4 -5 d s 1027 499 m -5 -5 d s 1008 499 m -5 -5 d s 3 lw 1383 490 m -1 -2 d s 1365 490 m -2 -2 d s 1345 490 m -2 -2 d s 1326 490 m -2 -2 d
 s 1307 490 m -2 -2 d s 1288 490 m -2 -2 d s 1268 490 m -2 -2 d s 1249 490 m -2 -2 d s 1230 490 m -2 -2 d s 1211 490 m -2 -2 d s 1192 490 m -1 -1 d s 3 lw 1574 488 m -2 -3 d s 1555 488 m -3 -3 d s 1536 488 m -3 -3 d s 1516 488 m -2 -3 d s 1497 488 m
 -2 -3 d s 1478 488 m -3 -3 d s 1459 488 m -3 -3 d s 1439 488 m -2 -3 d s 1420 488 m -2 -3 d s 1401 488 m -3 -3 d s 3 lw 1763 484 m -1 X s 1744 484 m -1 X s 1725 484 m -1 X s 1705 484 m s 1686 484 m -1 X s 1667 484 m -1 X s 1648 484 m -1 X s 1628 484
 m s 1609 484 m -1 X s 1590 484 m -1 X s 3 lw 1955 484 m s 1936 484 m -1 X s 1916 484 m s 1897 484 m s 1878 484 m s 1859 484 m -1 X s 1839 484 m s 1820 484 m s 1801 484 m s 1782 484 m s 3 lw 2148 484 m s 2129 484 m -1 X s 2109 484 m s 2090 484 m s
 2071 484 m s 2052 484 m -1 X s 2032 484 m s 2013 484 m s 1994 484 m s 1975 484 m -1 X s black 3 lw 1 1 1 c black 323 645 m 27 Y s 323 696 m 27 Y s /w 24 def /w2 {w 2 div} def /w3 {w 3 div} def 323 684 m20 516 1002 m 56 Y s 516 1081 m 56 Y s 516 1070
 m20 709 596 m 22 Y s 709 642 m 22 Y s 709 630 m20 901 511 m 7 Y s 901 542 m 7 Y s 901 530 m20 1094 491 m20 1480 491 m20 227 484 m 1927 X s 227 502 m -18 Y s 304 493 m -9 Y s 381 493 m -9 Y s 458 493 m -9 Y s 535 493 m -9 Y s 612 502 m -18 Y s 689
 493 m -9 Y s 766 493 m -9 Y s 844 493 m -9 Y s 921 493 m -9 Y s 998 502 m -18 Y s 1075 493 m -9 Y s 1152 493 m -9 Y s 1229 493 m -9 Y s 1306 493 m -9 Y s 1383 502 m -18 Y s 1460 493 m -9 Y s 1538 493 m -9 Y s 1615 493 m -9 Y s 1692 493 m -9 Y s 1769
 502 m -18 Y s 1846 493 m -9 Y s 1923 493 m -9 Y s 2000 493 m -9 Y s 2077 493 m -9 Y s 2154 502 m -18 Y s 227 1520 m 1927 X s 227 1501 m 19 Y s 304 1510 m 10 Y s 381 1510 m 10 Y s 458 1510 m 10 Y s 535 1510 m 10 Y s 612 1501 m 19 Y s 689 1510 m 10 Y
 s 766 1510 m 10 Y s 844 1510 m 10 Y s 921 1510 m 10 Y s 998 1501 m 19 Y s 1075 1510 m 10 Y s 1152 1510 m 10 Y s 1229 1510 m 10 Y s 1306 1510 m 10 Y s 1383 1501 m 19 Y s 1460 1510 m 10 Y s 1538 1510 m 10 Y s 1615 1510 m 10 Y s 1692 1510 m 10 Y s 1769
 1501 m 19 Y s 1846 1510 m 10 Y s 1923 1510 m 10 Y s 2000 1510 m 10 Y s 2077 1510 m 10 Y s 2154 1501 m 19 Y s 227 484 m 1036 Y s 248 638 m -21 X s 237 676 m -10 X s 237 715 m -10 X s 237 753 m -10 X s 248 792 m -21 X s 237 830 m -10 X s 237 869 m -10
 X s 237 908 m -10 X s 248 946 m -21 X s 237 985 m -10 X s 237 1023 m -10 X s 237 1062 m -10 X s 248 1100 m -21 X s 237 1139 m -10 X s 237 1178 m -10 X s 237 1216 m -10 X s 248 1255 m -21 X s 237 1293 m -10 X s 237 1332 m -10 X s 237 1370 m -10 X s
 248 1409 m -21 X s 248 638 m -21 X s 237 599 m -10 X s 237 561 m -10 X s 237 522 m -10 X s 248 1409 m -21 X s 237 1447 m -10 X s 237 1486 m -10 X s 2154 484 m 1036 Y s 2133 638 m 21 X s 2144 676 m 10 X s 2144 715 m 10 X s 2144 753 m 10 X s 2133 792
 m 21 X s 2144 830 m 10 X s 2144 869 m 10 X s 2144 908 m 10 X s 2133 946 m 21 X s 2144 985 m 10 X s 2144 1023 m 10 X s 2144 1062 m 10 X s 2133 1100 m 21 X s 2144 1139 m 10 X s 2144 1178 m 10 X s 2144 1216 m 10 X s 2133 1255 m 21 X s 2144 1293 m 10 X
 s 2144 1332 m 10 X s 2144 1370 m 10 X s 2133 1409 m 21 X s 2133 638 m 21 X s 2144 599 m 10 X s 2144 561 m 10 X s 2144 522 m 10 X s 2133 1409 m 21 X s 2144 1447 m 10 X s 2144 1486 m 10 X s
 gsave  2268 1103 0 472 C 1314.45 1423.98 t 0 r /Helvetica findfont 56.3093 sf 0 0 m ( Data) show NC gr  1259 1451 m 10 Y s 1259 1427 m -10 Y s 1259 1439 m20
 gsave  2268 1103 0 472 C 1808.84 1423.98 t 0 r /Helvetica findfont 56.3093 sf 0 0 m (single\255top) show NC gr 
 gsave  2268 1103 0 472 C 1779.24 1423.98 t 0 r /Helvetica-Oblique findfont 56.3093 sf 0 0 m (/) show NC gr 
 gsave  2268 1103 0 472 C 1758.52 1423.98 t 0 r /Helvetica-Oblique findfont 56.3093 sf 0 0 m (t) show NC gr  6 lw 1759 1468 m 20 X s
 gsave  2268 1103 0 472 C 1737.79 1423.98 t 0 r /Helvetica-Oblique findfont 56.3093 sf 0 0 m (t) show NC gr 
 gsave  2268 1103 0 472 C 1720.03 1423.98 t 0 r /Helvetica findfont 56.3093 sf 0 0 m ( ) show NC gr  0.06 0.54 0.06 c 3 lw 1626 1413 m 79 X 52 Y -79 X f 6 lw black
 gsave  2268 1103 0 472 C 1444.71 1349.97 t 0 r /Helvetica findfont 56.3093 sf 0 0 m (+jets) show NC gr 
 gsave  2268 1103 0 472 C 1332.21 1349.97 t 0 r /Helvetica-Oblique findfont 56.3093 sf 0 0 m (W/Z) show NC gr 
 gsave  2268 1103 0 472 C 1314.45 1349.97 t 0 r /Helvetica findfont 56.3093 sf 0 0 m ( ) show NC gr  1 0.653333 0 c 3 lw 1219 1340 m 79 X 51 Y -79 X f black
 gsave  2268 1103 0 472 C 1918.38 1349.97 t 0 r /Helvetica findfont 56.3093 sf 0 0 m (+jets) show NC gr 
 gsave  2268 1103 0 472 C 1737.79 1349.97 t 0 r /Helvetica-Oblique findfont 56.3093 sf 0 0 m (WZ/ZZ) show NC gr 
 gsave  2268 1103 0 472 C 1720.03 1349.97 t 0 r /Helvetica findfont 56.3093 sf 0 0 m ( ) show NC gr  0.413333 1 0 c 3 lw 1626 1340 m 79 X 51 Y -79 X f black
 gsave  2268 1103 0 472 C 1373.66 1275.96 t 0 r /Helvetica-Oblique findfont 56.3093 sf 0 0 m (Z) show NC gr 
 gsave  2268 1103 0 472 C 1352.93 1275.96 t 0 r /Helvetica-Oblique findfont 56.3093 sf 0 0 m (t) show NC gr  6 lw 1353 1320 m 21 X s
 gsave  2268 1103 0 472 C 1332.21 1275.96 t 0 r /Helvetica-Oblique findfont 56.3093 sf 0 0 m (t) show NC gr 
 gsave  2268 1103 0 472 C 1314.45 1275.96 t 0 r /Helvetica findfont 56.3093 sf 0 0 m ( ) show NC gr  0.6 0.2 1 c 3 lw 1219 1266 m 79 X 52 Y -79 X f 6 lw black
 gsave  2268 1103 0 472 C 1779.24 1275.96 t 0 r /Helvetica-Oblique findfont 56.3093 sf 0 0 m (W) show NC gr 
 gsave  2268 1103 0 472 C 1758.52 1275.96 t 0 r /Helvetica-Oblique findfont 56.3093 sf 0 0 m (t) show NC gr  6 lw 1759 1320 m 20 X s
 gsave  2268 1103 0 472 C 1737.79 1275.96 t 0 r /Helvetica-Oblique findfont 56.3093 sf 0 0 m (t) show NC gr 
 gsave  2268 1103 0 472 C 1720.03 1275.96 t 0 r /Helvetica findfont 56.3093 sf 0 0 m ( ) show NC gr  0.54 0.06 0.06 c 3 lw 1626 1266 m 79 X 52 Y -79 X f 6 lw black
 gsave  2268 1103 0 472 C 1332.21 1204.91 t 0 r /Helvetica-Oblique findfont 56.3093 sf 0 0 m (tZq) show NC gr 
 gsave  2268 1103 0 472 C 1314.45 1204.91 t 0 r /Helvetica findfont 56.3093 sf 0 0 m ( ) show NC gr  1 0 1 c 3 lw 1219 1193 m 79 X 51 Y -79 X f black
 gsave  2268 1103 0 472 C 1779.24 1204.91 t 0 r /Helvetica-Oblique findfont 56.3093 sf 0 0 m (H) show NC gr 
 gsave  2268 1103 0 472 C 1758.52 1204.91 t 0 r /Helvetica-Oblique findfont 56.3093 sf 0 0 m (t) show NC gr  6 lw 1759 1249 m 20 X s
 gsave  2268 1103 0 472 C 1737.79 1204.91 t 0 r /Helvetica-Oblique findfont 56.3093 sf 0 0 m (t) show NC gr 
 gsave  2268 1103 0 472 C 1720.03 1204.91 t 0 r /Helvetica findfont 56.3093 sf 0 0 m ( ) show NC gr  0 0 1 c 3 lw 1626 1193 m 79 X 51 Y -79 X f 6 lw black
 gsave  2268 1103 0 472 C 1332.21 1130.9 t 0 r /Helvetica-Oblique findfont 56.3093 sf 0 0 m (tWZ/tWH) show NC gr 
 gsave  2268 1103 0 472 C 1314.45 1130.9 t 0 r /Helvetica findfont 56.3093 sf 0 0 m ( ) show NC gr  0.2 0.8 0.8 c 3 lw 1219 1119 m 79 X 52 Y -79 X f black
 gsave  2268 1103 0 472 C 1737.79 1130.9 t 0 r /Helvetica-Oblique findfont 56.3093 sf 0 0 m (tHq) show NC gr 
 gsave  2268 1103 0 472 C 1720.03 1130.9 t 0 r /Helvetica findfont 56.3093 sf 0 0 m ( ) show NC gr  1 0 0 c 3 lw 1626 1119 m 79 X 52 Y -79 X f black
 gsave  2268 1103 0 472 C 1314.45 1056.89 t 0 r /Helvetica findfont 56.3093 sf 0 0 m ( Other) show NC gr  1 0.84 0 c 3 lw 1219 1046 m 79 X 51 Y -79 X f black
 gsave  2268 1103 0 472 C 1720.03 1056.89 t 0 r /Helvetica findfont 56.3093 sf 0 0 m ( Uncertainty) show NC gr  0.6 0.6 0.6 c 3 lw 1705 1061 m -15 -15 d s 1705 1080 m -34 -34 d s 1703 1097 m -51 -51 d s 1684 1097 m -51 -51 d s 1665 1097 m -39 -39 d s
 1646 1097 m -20 -20 d s 1626 1097 m s 1 0.84 0 c 0.6 0.6 0.6 c black
 gsave  2268 1103 0 472 C 894.061 1329.25 t 0 r /Helvetica findfont 41.4911 sf 0 0 m (\2551) show NC gr 
 gsave  2268 1103 0 472 C 399.663 1299.64 t 0 r /Helvetica findfont 62.2366 sf 0 0 m ( = 13 TeV,  139 fb) show NC gr 
 gsave  2268 1103 0 472 C 370.058 1299.64 t 0 r /Helvetica findfont 62.2366 sf 0 0 m (s) show NC gr  6 lw 349 1335 m 6 -38 d s 3 lw 355 1297 m 6 56 d s 361 1353 m 39 X s
 gsave  2268 1103 0 472 C 337.493 1201.95 t 0 r /Helvetica findfont 62.2366 sf 0 0 m ( 2L\(SS\), VR\(di\255boson\)) show NC gr 
 gsave  2268 1103 0 472 C 337.493 1400.3 t 0 r /Helvetica-BoldOblique findfont 71.1276 sf 0 0 m (ATLAS) show NC gr 
 gsave  2268 1103 0 472 C 633.54 1400.3 t 0 r /Helvetica findfont 71.1276 sf 0 0 m (Internal) show NC gr 
 gr  gr showpage
end
%%EOF
