%!PS-Adobe-2.0 EPSF-2.0
%%BoundingBox:  0 0 567 394
%%Title: : LepPt2_CRttbar
%%Creator: ROOT Version 6.20/06
%%CreationDate: Mon May 30 19:26:16 2022
%%DocumentNeededResources: ProcSet (FontSetInit)
%%EndComments
%%BeginProlog
80 dict begin
/s {stroke} def /l {lineto} def /m {moveto} def /t {translate} def
/r {rotate} def /rl {roll}  def /R {repeat} def
/d {rlineto} def /rm {rmoveto} def /gr {grestore} def /f {eofill} def
/c {setrgbcolor} def /black {0 setgray} def /sd {setdash} def
/cl {closepath} def /sf {scalefont setfont} def /lw {setlinewidth} def
/box {m dup 0 exch d exch 0 d 0 exch neg d cl} def
/NC{systemdict begin initclip end}def/C{NC box clip newpath}def
/bl {box s} def /bf {gsave box gsave f grestore 1 lw [] 0 sd s grestore} def /Y { 0 exch d} def /X { 0 d} def 
/K {{pop pop 0 moveto} exch kshow} bind def
/ita {/ang 15 def gsave [1 0 ang dup sin exch cos div 1 0 0] concat} def 
/mp {newpath /y exch def /x exch def} def
/side {[w .77 mul w .23 mul] .385 w mul sd w 0 l currentpoint t -144 r} def
/mr {mp x y w2 0 360 arc} def /m24 {mr s} def /m20 {mr f} def
/mb {mp x y w2 add m w2 neg 0 d 0 w neg d w 0 d 0 w d cl} def
/mt {mp x y w2 add m w2 neg w neg d w 0 d cl} def
/w4 {w 4 div} def
/w6 {w 6 div} def
/w8 {w 8 div} def
/m21 {mb f} def /m25 {mb s} def /m22 {mt f} def /m26{mt s} def
/m23 {mp x y w2 sub m w2 w d w neg 0 d cl f} def
/m27 {mp x y w2 add m w3 neg w2 neg d w3 w2 neg d w3 w2 d cl s} def
/m28 {mp x w2 sub y w2 sub w3 add m w3 0 d  0 w3 neg d w3 0 d 0 w3 d w3 0 d  0 w3 d w3 neg 0 d 0 w3 d w3 neg 0 d 0 w3 neg d w3 neg 0 d cl s } def
/m29 {mp gsave x w2 sub y w2 add w3 sub m currentpoint t 4 {side} repeat cl fill gr} def
/m30 {mp gsave x w2 sub y w2 add w3 sub m currentpoint t 4 {side} repeat cl s gr} def
/m31 {mp x y w2 sub m 0 w d x w2 sub y m w 0 d x w2 sub y w2 add m w w neg d x w2 sub y w2 sub m w w d s} def
/m32 {mp x y w2 sub m w2 w d w neg 0 d cl s} def
/m33 {mp x y w2 add m w3 neg w2 neg d w3 w2 neg d w3 w2 d cl f} def
/m34 {mp x w2 sub y w2 sub w3 add m w3 0 d  0 w3 neg d w3 0 d 0 w3 d w3 0 d  0 w3 d w3 neg 0 d 0 w3 d w3 neg 0 d 0 w3 neg d w3 neg 0 d cl f } def
/m35 {mp x y w2 add m w2 neg w2 neg d w2 w2 neg d w2 w2 d w2 neg w2 d x y w2 sub m 0 w d x w2 sub y m w 0 d s} def
/m36 {mb x w2 sub y w2 add m w w neg d x w2 sub y w2 sub m w w d s} def
/m37 {mp x y m w4 neg w2 d w4 neg w2 neg d w2 0 d  w4 neg w2 neg d w2 0 d w4 neg w2 d w2 0 d w4 neg w2 d w4 neg w2 neg d cl s} def
/m38 {mp x w4 sub y w2 add m w4 neg w4 neg d 0 w2 neg d w4 w4 neg d w2 0 d w4 w4 d 0 w2 d w4 neg w4 d w2 neg 0 d x y w2 sub m 0 w d x w2 sub y m w 0 d cl s} def
/m39 {mp x y m w4 neg w2 d w4 neg w2 neg d w2 0 d  w4 neg w2 neg d w2 0 d w4 neg w2 d w2 0 d w4 neg w2 d w4 neg w2 neg d cl f} def
/m40 {mp x y m w4 w2 d w4 w4 neg d w2 neg w4 neg d w2 w4 neg d w4 neg w4 neg d w4 neg w2 d w4 neg w2 neg d w4 neg w4 d w2 w4 d w2 neg w4 d w4 w4 d w4 w2 neg d cl s} def
/m41 {mp x y m w4 w2 d w4 w4 neg d w2 neg w4 neg d w2 w4 neg d w4 neg w4 neg d w4 neg w2 d w4 neg w2 neg d w4 neg w4 d w2 w4 d w2 neg w4 d w4 w4 d w4 w2 neg d cl f} def
/m42 {mp x y w2 add m w8 neg w2 -3 4 div mul d w2 -3 4 div mul w8 neg d w2 3 4 div mul w8 neg d w8 w2 -3 4 div mul d w8 w2 3 4 div mul d w2 3 4 div mul w8 d w2 -3 4 div mul w8 d w8 neg w2 3 4 div mul d cl s} def
/m43 {mp x y w2 add m w8 neg w2 -3 4 div mul d w2 -3 4 div mul w8 neg d w2 3 4 div mul w8 neg d w8 w2 -3 4 div mul d w8 w2 3 4 div mul d w2 3 4 div mul w8 d w2 -3 4 div mul w8 d w8 neg w2 3 4 div mul d cl f} def
/m44 {mp x y m w6 neg w2 d w2 2 3 div mul 0 d w6 neg w2 neg d w2 w6 d 0 w2 -2 3 div mul d w2 neg w6 d w6 w2 neg d w2 -2 3 div mul 0 d w6 w2 d w2 neg w6 neg d 0 w2 2 3 div mul d w2 w6 neg d cl s} def
/m45 {mp x y m w6 neg w2 d w2 2 3 div mul 0 d w6 neg w2 neg d w2 w6 d 0 w2 -2 3 div mul d w2 neg w6 d w6 w2 neg d w2 -2 3 div mul 0 d w6 w2 d w2 neg w6 neg d 0 w2 2 3 div mul d w2 w6 neg d cl f} def
/m46 {mp x y w4 add m w4 neg w4 d w4 neg w4 neg d  w4 w4 neg d w4 neg w4 neg d w4 w4 neg d w4 w4 d w4 w4 neg d w4 w4 d w4 neg w4 d w4 w4 d w4 neg w4 d w4 neg w4 neg d cl s} def
/m47 {mp x y w4 add m w4 neg w4 d w4 neg w4 neg d w4 w4 neg d w4 neg w4 neg d  w4 w4 neg d w4 w4 d w4 w4 neg d w4 w4 d w4 neg w4 d w4 w4 d w4 neg w4 d w4 neg w4 neg d cl f} def
/m48 {mp x y w4 add m w4 neg w4 d w4 neg w4 neg d w4 w4 neg d  w4 neg w4 neg d w4 w4 neg d w4 w4 d w4 w4 neg d w4 w4 d w4 neg w4 d w4 w4 d w4 neg w4 d w4 neg w4 neg d  w4 w4 neg d w4 neg w4 neg d w4 neg w4 d w4 w4 d cl f} def
/m49 {mp x w2 sub w3 add y w2 sub w3 add m  0 w3 neg d w3 0 d 0 w3 d w3 0 d 0 w3 d w3 neg 0 d 0 w3 d w3 neg 0 d 0 w3 neg d w3 neg 0 d 0 w3 neg d w3 0 d 0 w3 d w3 0 d 0 w3 neg d w3 neg 0 d cl f } def
/m2 {mp x y w2 sub m 0 w d x w2 sub y m w 0 d s} def
/m5 {mp x w2 sub y w2 sub m w w d x w2 sub y w2 add m w w neg d s} def
%%IncludeResource: ProcSet (FontSetInit)
%%IncludeResource: font Times-Roman
%%IncludeResource: font Times-Italic
%%IncludeResource: font Times-Bold
%%IncludeResource: font Times-BoldItalic
%%IncludeResource: font Helvetica
%%IncludeResource: font Helvetica-Oblique
%%IncludeResource: font Helvetica-Bold
%%IncludeResource: font Helvetica-BoldOblique
%%IncludeResource: font Courier
%%IncludeResource: font Courier-Oblique
%%IncludeResource: font Courier-Bold
%%IncludeResource: font Courier-BoldOblique
%%IncludeResource: font Symbol
%%IncludeResource: font ZapfDingbats
/reEncode {exch findfont dup length dict begin {1 index /FID eq  {pop pop} {def} ifelse } forall /Encoding exch def currentdict end dup /FontName get exch definefont pop } def [/Times-Bold /Times-Italic /Times-BoldItalic /Helvetica /Helvetica-Oblique
 /Helvetica-Bold /Helvetica-BoldOblique /Courier /Courier-Oblique /Courier-Bold /Courier-BoldOblique /Times-Roman /AvantGarde-Book /AvantGarde-BookOblique /AvantGarde-Demi /AvantGarde-DemiOblique /Bookman-Demi /Bookman-DemiItalic /Bookman-Light
 /Bookman-LightItalic /Helvetica-Narrow /Helvetica-Narrow-Bold /Helvetica-Narrow-BoldOblique /Helvetica-Narrow-Oblique /NewCenturySchlbk-Roman /NewCenturySchlbk-Bold /NewCenturySchlbk-BoldItalic /NewCenturySchlbk-Italic /Palatino-Bold
 /Palatino-BoldItalic /Palatino-Italic /Palatino-Roman ] {ISOLatin1Encoding reEncode } forall
%%EndProlog
%%BeginSetup
%%EndSetup
newpath  gsave  .25 .25 scale  gsave  0 0 t black[  ] 0 sd 3 lw 1 1 1 c 2268 1575 0 0 bf black 1 1 1 c 2268 472 0 0 bf black 1 1 1 c 1927 274 227 189 bf black 1927 274 227 189 bl 227 189 m 1927 X s 227 201 m -12 Y s 304 195 m -6 Y s 381 195 m -6 Y s
 458 195 m -6 Y s 535 195 m -6 Y s 612 201 m -12 Y s 689 195 m -6 Y s 766 195 m -6 Y s 844 195 m -6 Y s 921 195 m -6 Y s 998 201 m -12 Y s 1075 195 m -6 Y s 1152 195 m -6 Y s 1229 195 m -6 Y s 1306 195 m -6 Y s 1383 201 m -12 Y s 1460 195 m -6 Y s
 1538 195 m -6 Y s 1615 195 m -6 Y s 1692 195 m -6 Y s 1769 201 m -12 Y s 1846 195 m -6 Y s 1923 195 m -6 Y s 2000 195 m -6 Y s 2077 195 m -6 Y s 2154 201 m -12 Y s
 gsave  2268 472 0 0 C 210.193 127.3 t 0 r /Helvetica findfont 53.4895 sf 0 0 m (0) show NC gr 
 gsave  2268 472 0 0 C 580.251 127.3 t 0 r /Helvetica findfont 53.4895 sf 0 0 m (50) show NC gr 
 gsave  2268 472 0 0 C 953.27 127.3 t 0 r /Helvetica findfont 53.4895 sf 0 0 m (100) show NC gr 
 gsave  2268 472 0 0 C 1338.13 127.3 t 0 r /Helvetica findfont 53.4895 sf 0 0 m (150) show NC gr 
 gsave  2268 472 0 0 C 1722.99 127.3 t 0 r /Helvetica findfont 53.4895 sf 0 0 m (200) show NC gr 
 gsave  2268 472 0 0 C 2107.85 127.3 t 0 r /Helvetica findfont 53.4895 sf 0 0 m (250) show NC gr 
 gsave  2268 472 0 0 C 1977.59 53.2884 t 0 r /Helvetica findfont 56.4611 sf 0 0 m (\) [GeV]) show NC gr 
 gsave  2268 472 0 0 C 1956.87 20.7233 t 0 r /Helvetica findfont 38.6313 sf 0 0 m (2) show NC gr 
 gsave  2268 472 0 0 C 1862.13 53.2884 t 0 r /Helvetica findfont 56.4611 sf 0 0 m (\(lep) show NC gr 
 gsave  2268 472 0 0 C 1838.45 20.7233 t 0 r /Helvetica findfont 38.6313 sf 0 0 m (T) show NC gr 
 gsave  2268 472 0 0 C 1802.92 53.2884 t 0 r /Helvetica-Oblique findfont 56.4611 sf 0 0 m (p) show NC gr  227 463 m 1927 X s 227 451 m 12 Y s 304 457 m 6 Y s 381 457 m 6 Y s 458 457 m 6 Y s 535 457 m 6 Y s 612 451 m 12 Y s 689 457 m 6 Y s 766 457 m 6
 Y s 844 457 m 6 Y s 921 457 m 6 Y s 998 451 m 12 Y s 1075 457 m 6 Y s 1152 457 m 6 Y s 1229 457 m 6 Y s 1306 457 m 6 Y s 1383 451 m 12 Y s 1460 457 m 6 Y s 1538 457 m 6 Y s 1615 457 m 6 Y s 1692 457 m 6 Y s 1769 451 m 12 Y s 1846 457 m 6 Y s 1923
 457 m 6 Y s 2000 457 m 6 Y s 2077 457 m 6 Y s 2154 451 m 12 Y s 227 189 m 274 Y s 240 240 m -13 X s 240 326 m -13 X s 240 412 m -13 X s 240 240 m -13 X s 240 412 m -13 X s
 gsave  2268 472 0 0 C 118.419 222.035 t 0 r /Helvetica findfont 53.4895 sf 0 0 m (0.5) show NC gr 
 gsave  2268 472 0 0 C 171.707 307.888 t 0 r /Helvetica findfont 53.4895 sf 0 0 m (1) show NC gr 
 gsave  2268 472 0 0 C 118.419 393.742 t 0 r /Helvetica findfont 53.4895 sf 0 0 m (1.5) show NC gr 
 gsave  2268 472 0 0 C 71.0512 230.916 t 90 r /Helvetica findfont 53.4895 sf 0 0 m (Data / SM) show NC gr  2154 189 m 274 Y s 2141 240 m 13 X s 2141 326 m 13 X s 2141 412 m 13 X s 2141 240 m 13 X s 2141 412 m 13 X s 227 189 m 1927 X s 227 463 m 1927
 X s 227 189 m 274 Y s[ 4 8] 0 sd 2154 240 m -1927 X s 2154 326 m -1927 X s 2154 412 m -1927 X s 2154 240 m -1927 X s 2154 412 m -1927 X s[  ] 0 sd 2154 189 m 274 Y s 1 1 0.6 c 193 0 227 326 bf 192 0 420 326 bf 193 0 612 326 bf 193 0 805 326 bf 193 0
 998 326 bf 192 0 1191 326 bf 193 0 1383 326 bf 193 0 1576 326 bf 193 0 1769 326 bf 192 0 1962 326 bf black 0.6 0.6 0.6 c 420 325 m -7 -7 d s 410 334 m -16 -16 d s 390 334 m -15 -16 d s 371 334 m -16 -16 d s 352 334 m -16 -16 d s 333 334 m -16 -16 d
 s 313 334 m -15 -16 d s 294 334 m -16 -16 d s 275 334 m -16 -16 d s 256 334 m -16 -16 d s 236 334 m -9 -10 d s 612 325 m -1 -2 d s 597 329 m -6 -6 d s 578 329 m -6 -6 d s 558 329 m -5 -6 d s 539 329 m -5 -6 d s 520 329 m -6 -6 d s 501 329 m -6 -6 d
 s 481 329 m -5 -6 d s 462 329 m -5 -6 d s 443 329 m -5 -6 d s 424 329 m -4 -4 d s 805 325 m -3 -3 d s 791 330 m -8 -8 d s 771 330 m -8 -8 d s 752 330 m -8 -8 d s 733 330 m -8 -8 d s 714 330 m -8 -8 d s 694 330 m -8 -8 d s 675 330 m -8 -8 d s 656 330
 m -8 -8 d s 637 330 m -8 -8 d s 617 330 m -5 -5 d s 998 326 m -7 -7 d s 986 333 m -14 -14 d s 967 333 m -14 -14 d s 947 333 m -13 -14 d s 928 333 m -14 -14 d s 909 333 m -14 -14 d s 890 333 m -14 -14 d s 870 333 m -13 -14 d s 851 333 m -14 -14 d s
 832 333 m -14 -14 d s 813 333 m -8 -8 d s 1191 307 m -2 -2 d s 1191 326 m -21 -21 d s 1191 345 m -40 -40 d s 1173 347 m -41 -42 d s 1154 347 m -42 -42 d s 1134 347 m -41 -42 d s 1115 347 m -41 -42 d s 1096 347 m -41 -42 d s 1077 347 m -42 -42 d s
 1057 347 m -41 -42 d s 1038 347 m -40 -41 d s 1019 347 m -21 -21 d s 1000 347 m -2 -2 d s 1383 307 m -12 -13 d s 1383 326 m -31 -32 d s 1383 346 m -51 -52 d s 1376 358 m -63 -64 d s 1357 358 m -63 -64 d s 1338 358 m -63 -64 d s 1319 358 m -64 -64 d
 s 1299 358 m -63 -64 d s 1280 358 m -63 -64 d s 1261 358 m -63 -64 d s 1242 358 m -51 -51 d s 1222 358 m -31 -32 d s 1203 358 m -12 -13 d s 1576 307 m -13 -13 d s 1576 327 m -32 -33 d s 1576 346 m -51 -52 d s 1569 358 m -64 -64 d s 1549 358 m -63
 -64 d s 1530 358 m -63 -64 d s 1511 358 m -63 -64 d s 1492 358 m -64 -64 d s 1473 358 m -64 -64 d s 1453 358 m -63 -64 d s 1434 358 m -51 -51 d s 1415 358 m -32 -32 d s 1396 358 m -13 -12 d s 1769 211 m -15 -15 d s 1769 230 m -34 -34 d s 1769 250 m
 -53 -54 d s 1769 269 m -72 -73 d s 1769 288 m -92 -92 d s 1769 308 m -111 -112 d s 1769 327 m -130 -131 d s 1769 346 m -149 -150 d s 1769 366 m -169 -170 d s 1769 385 m -188 -189 d s 1769 404 m -193 -193 d s 1769 423 m -193 -193 d s 1769 443 m -193
 -194 d s 1762 456 m -186 -187 d s 1743 456 m -167 -168 d s 1724 456 m -148 -149 d s 1705 456 m -129 -129 d s 1685 456 m -109 -110 d s 1666 456 m -90 -91 d s 1647 456 m -71 -72 d s 1628 456 m -52 -52 d s 1608 456 m -32 -33 d s 1589 456 m -13 -14 d s
 1962 269 m -2 -1 d s 1962 289 m -21 -21 d s 1962 308 m -40 -40 d s 1962 327 m -59 -59 d s 1962 347 m -79 -79 d s 1962 366 m -98 -98 d s 1960 384 m -115 -116 d s 1941 384 m -115 -116 d s 1922 384 m -116 -116 d s 1903 384 m -116 -116 d s 1883 384 m
 -114 -115 d s 1864 384 m -95 -96 d s 1845 384 m -76 -76 d s 1826 384 m -57 -57 d s 1806 384 m -37 -38 d s 1787 384 m -18 -18 d s 2154 289 m -10 -11 d s 2154 308 m -30 -30 d s 2154 328 m -49 -50 d s 2154 347 m -68 -69 d s 2154 366 m -87 -88 d s 2143
 374 m -96 -96 d s 2123 374 m -95 -96 d s 2104 374 m -95 -96 d s 2085 374 m -95 -96 d s 2066 374 m -96 -96 d s 2047 374 m -85 -85 d s 2027 374 m -65 -66 d s 2008 374 m -46 -47 d s 1989 374 m -27 -27 d s 1970 374 m -8 -8 d s black 1 1 1 c black 323
 321 m 1 Y s 323 346 m 2 Y s /w 26 def /w2 {w 2 div} def /w3 {w 3 div} def 323 334 m20 516 340 m20 709 323 m 2 Y s 709 348 m 2 Y s 709 337 m20 901 342 m 14 Y s 901 379 m 14 Y s 901 368 m20 1094 342 m 81 Y s 1094 447 m 16 Y s 1094 435 m20 227 326 m
 1927 X s 227 189 m 1927 X s 227 201 m -12 Y s 304 195 m -6 Y s 381 195 m -6 Y s 458 195 m -6 Y s 535 195 m -6 Y s 612 201 m -12 Y s 689 195 m -6 Y s 766 195 m -6 Y s 844 195 m -6 Y s 921 195 m -6 Y s 998 201 m -12 Y s 1075 195 m -6 Y s 1152 195 m -6
 Y s 1229 195 m -6 Y s 1306 195 m -6 Y s 1383 201 m -12 Y s 1460 195 m -6 Y s 1538 195 m -6 Y s 1615 195 m -6 Y s 1692 195 m -6 Y s 1769 201 m -12 Y s 1846 195 m -6 Y s 1923 195 m -6 Y s 2000 195 m -6 Y s 2077 195 m -6 Y s 2154 201 m -12 Y s 227 463
 m 1927 X s 227 451 m 12 Y s 304 457 m 6 Y s 381 457 m 6 Y s 458 457 m 6 Y s 535 457 m 6 Y s 612 451 m 12 Y s 689 457 m 6 Y s 766 457 m 6 Y s 844 457 m 6 Y s 921 457 m 6 Y s 998 451 m 12 Y s 1075 457 m 6 Y s 1152 457 m 6 Y s 1229 457 m 6 Y s 1306 457
 m 6 Y s 1383 451 m 12 Y s 1460 457 m 6 Y s 1538 457 m 6 Y s 1615 457 m 6 Y s 1692 457 m 6 Y s 1769 451 m 12 Y s 1846 457 m 6 Y s 1923 457 m 6 Y s 2000 457 m 6 Y s 2077 457 m 6 Y s 2154 451 m 12 Y s 227 189 m 274 Y s 240 240 m -13 X s 240 326 m -13 X
 s 240 412 m -13 X s 240 240 m -13 X s 240 412 m -13 X s 2154 189 m 274 Y s 2141 240 m 13 X s 2141 326 m 13 X s 2141 412 m 13 X s 2141 240 m 13 X s 2141 412 m 13 X s 1 1 1 c 2268 1103 0 472 bf black 1 1 1 c 1927 1036 227 484 bf black 1927 1036 227
 484 bl 1 1 1 c black 3 lw 227 484 m 1927 X s 227 502 m -18 Y s 304 493 m -9 Y s 381 493 m -9 Y s 458 493 m -9 Y s 535 493 m -9 Y s 612 502 m -18 Y s 689 493 m -9 Y s 766 493 m -9 Y s 844 493 m -9 Y s 921 493 m -9 Y s 998 502 m -18 Y s 1075 493 m -9
 Y s 1152 493 m -9 Y s 1229 493 m -9 Y s 1306 493 m -9 Y s 1383 502 m -18 Y s 1460 493 m -9 Y s 1538 493 m -9 Y s 1615 493 m -9 Y s 1692 493 m -9 Y s 1769 502 m -18 Y s 1846 493 m -9 Y s 1923 493 m -9 Y s 2000 493 m -9 Y s 2077 493 m -9 Y s 2154 502
 m -18 Y s
 gsave  2268 1103 0 472 C 2060.48 408.544 t 0 r /Helvetica findfont 29.6365 sf 0 0 m (\) [GeV]) show NC gr 
 gsave  2268 1103 0 472 C 2048.64 390.781 t 0 r /Helvetica findfont 20.7455 sf 0 0 m (2) show NC gr 
 gsave  2268 1103 0 472 C 1998.31 408.544 t 0 r /Helvetica findfont 29.6365 sf 0 0 m (\(lep) show NC gr 
 gsave  2268 1103 0 472 C 1983.51 387.821 t 0 r /Helvetica findfont 20.7455 sf 0 0 m (T) show NC gr 
 gsave  2268 1103 0 472 C 1965.75 408.544 t 0 r /Helvetica-Oblique findfont 29.6365 sf 0 0 m (p) show NC gr  227 1520 m 1927 X s 227 1501 m 19 Y s 304 1510 m 10 Y s 381 1510 m 10 Y s 458 1510 m 10 Y s 535 1510 m 10 Y s 612 1501 m 19 Y s 689 1510 m 10
 Y s 766 1510 m 10 Y s 844 1510 m 10 Y s 921 1510 m 10 Y s 998 1501 m 19 Y s 1075 1510 m 10 Y s 1152 1510 m 10 Y s 1229 1510 m 10 Y s 1306 1510 m 10 Y s 1383 1501 m 19 Y s 1460 1510 m 10 Y s 1538 1510 m 10 Y s 1615 1510 m 10 Y s 1692 1510 m 10 Y s
 1769 1501 m 19 Y s 1846 1510 m 10 Y s 1923 1510 m 10 Y s 2000 1510 m 10 Y s 2077 1510 m 10 Y s 2154 1501 m 19 Y s 227 484 m 1036 Y s 248 671 m -21 X s 237 718 m -10 X s 237 765 m -10 X s 237 812 m -10 X s 248 859 m -21 X s 237 906 m -10 X s 237 953
 m -10 X s 237 1000 m -10 X s 248 1047 m -21 X s 237 1094 m -10 X s 237 1141 m -10 X s 237 1188 m -10 X s 248 1235 m -21 X s 237 1282 m -10 X s 237 1329 m -10 X s 237 1376 m -10 X s 248 1423 m -21 X s 248 671 m -21 X s 237 624 m -10 X s 237 577 m -10
 X s 237 530 m -10 X s 248 1423 m -21 X s 237 1470 m -10 X s 237 1517 m -10 X s
 gsave  2268 1103 0 472 C 118.419 651.302 t 0 r /Helvetica findfont 50.382 sf 0 0 m (200) show NC gr 
 gsave  2268 1103 0 472 C 118.419 840.772 t 0 r /Helvetica findfont 50.382 sf 0 0 m (400) show NC gr 
 gsave  2268 1103 0 472 C 118.419 1027.28 t 0 r /Helvetica findfont 50.382 sf 0 0 m (600) show NC gr 
 gsave  2268 1103 0 472 C 118.419 1216.75 t 0 r /Helvetica findfont 50.382 sf 0 0 m (800) show NC gr 
 gsave  2268 1103 0 472 C 91.7744 1403.26 t 0 r /Helvetica findfont 50.382 sf 0 0 m (1000) show NC gr 
 gsave  2268 1103 0 472 C 62.1698 1154.58 t 90 r /Helvetica findfont 50.382 sf 0 0 m (Events / 25 GeV) show NC gr  2154 484 m 1036 Y s 2133 671 m 21 X s 2144 718 m 10 X s 2144 765 m 10 X s 2144 812 m 10 X s 2133 859 m 21 X s 2144 906 m 10 X s 2144
 953 m 10 X s 2144 1000 m 10 X s 2133 1047 m 21 X s 2144 1094 m 10 X s 2144 1141 m 10 X s 2144 1188 m 10 X s 2133 1235 m 21 X s 2144 1282 m 10 X s 2144 1329 m 10 X s 2144 1376 m 10 X s 2133 1423 m 21 X s 2133 671 m 21 X s 2144 624 m 10 X s 2144 577 m
 10 X s 2144 530 m 10 X s 2133 1423 m 21 X s 2144 1470 m 10 X s 2144 1517 m 10 X s 0.06 0.54 0.06 c black 3 lw 0.06 0.54 0.06 c 227 484 m 157 Y 193 X 257 Y 192 X -261 Y 193 X -102 Y 193 X -46 Y 193 X -5 Y 963 X f 1 0.653333 0 c 0.999 0.999 0.999 c
 black 3 lw 0.999 0.999 0.999 c 227 484 m 66 Y 193 X 127 Y 192 X -122 Y 193 X -53 Y 193 X -17 Y 193 X -1 Y 963 X f 1 0.653333 0 c 0.999 0.999 0.999 c 1 0.653333 0 c 1 1 1 c black 1 0.653333 0 c black 3 lw 1 0.653333 0 c 227 484 m 66 Y 193 X 127 Y 192
 X -122 Y 193 X -53 Y 193 X -17 Y 193 X -1 Y 963 X f 0.413333 1 0 c 0.999 0.999 0.999 c black 3 lw 0.999 0.999 0.999 c 227 484 m 50 Y 193 X 130 Y 192 X -114 Y 193 X -48 Y 193 X -17 Y 193 X -1 Y 963 X f 0.413333 1 0 c 0.999 0.999 0.999 c 0.413333 1 0
 c 1 1 1 c black 0.413333 1 0 c black 3 lw 0.413333 1 0 c 227 484 m 50 Y 193 X 130 Y 192 X -114 Y 193 X -48 Y 193 X -17 Y 193 X -1 Y 963 X f 0.6 0.2 1 c 0.999 0.999 0.999 c black 3 lw 0.999 0.999 0.999 c 227 484 m 40 Y 193 X 109 Y 192 X -94 Y 193 X
 -40 Y 193 X -14 Y 193 X -1 Y 963 X f 0.6 0.2 1 c 0.999 0.999 0.999 c 0.6 0.2 1 c 1 1 1 c black 0.6 0.2 1 c black 3 lw 0.6 0.2 1 c 227 484 m 40 Y 193 X 109 Y 192 X -94 Y 193 X -40 Y 193 X -14 Y 193 X -1 Y 963 X f 0.54 0.06 0.06 c 0.999 0.999 0.999 c
 black 3 lw 0.999 0.999 0.999 c 227 484 m 33 Y 193 X 94 Y 192 X -81 Y 193 X -34 Y 193 X -11 Y 193 X -1 Y 963 X f 0.54 0.06 0.06 c 0.999 0.999 0.999 c 0.54 0.06 0.06 c 1 1 1 c black 0.54 0.06 0.06 c black 3 lw 0.54 0.06 0.06 c 227 484 m 33 Y 193 X 94
 Y 192 X -81 Y 193 X -34 Y 193 X -11 Y 193 X -1 Y 963 X f 1 0 1 c 0.999 0.999 0.999 c black 3 lw 0.999 0.999 0.999 c 227 484 m 11 Y 193 X 27 Y 192 X -25 Y 193 X -10 Y 193 X -3 Y 1156 X f 1 0 1 c 0.999 0.999 0.999 c 1 0 1 c 1 1 1 c black 1 0 1 c black
 3 lw 1 0 1 c 227 484 m 11 Y 193 X 27 Y 192 X -25 Y 193 X -10 Y 193 X -3 Y 1156 X f 0 0 1 c 0.999 0.999 0.999 c black 3 lw 0.999 0.999 0.999 c 227 484 m 8 Y 193 X 16 Y 192 X -16 Y 193 X -7 Y 193 X -1 Y 1156 X f 0 0 1 c 0.999 0.999 0.999 c 0 0 1 c 1 1
 1 c black 0 0 1 c black 3 lw 0 0 1 c 227 484 m 8 Y 193 X 16 Y 192 X -16 Y 193 X -7 Y 193 X -1 Y 1156 X f 0.2 0.8 0.8 c 0.999 0.999 0.999 c black 3 lw 0.999 0.999 0.999 c 227 484 m 2 Y 193 X 3 Y 192 X -3 Y 193 X -2 Y 1349 X f 0.2 0.8 0.8 c 0.999
 0.999 0.999 c 0.2 0.8 0.8 c 1 1 1 c black 0.2 0.8 0.8 c black 3 lw 0.2 0.8 0.8 c 227 484 m 2 Y 193 X 3 Y 192 X -3 Y 193 X -2 Y 1349 X f 1 0 0 c 0.999 0.999 0.999 c black 3 lw 0.999 0.999 0.999 c 227 484 m 1 Y 193 X 1 Y 192 X -1 Y 193 X -1 Y 1349 X f
 1 0 0 c 0.999 0.999 0.999 c 1 0 0 c 1 1 1 c black 1 0 0 c black 3 lw 1 0 0 c 227 484 m 1 Y 193 X 1 Y 192 X -1 Y 193 X -1 Y 1349 X f 1 0.84 0 c 0.999 0.999 0.999 c black 3 lw 0.999 0.999 0.999 c 227 484 m 1 Y 578 X -1 Y 1349 X f 1 0.84 0 c 0.999
 0.999 0.999 c 1 0.84 0 c 1 1 1 c black 1 0.84 0 c black 3 lw 1 0.84 0 c 227 484 m 1 Y 578 X -1 Y 1349 X f black 1 1 1 c black 0.6 0.6 0.6 c 3 lw 420 642 m -8 -8 d s 407 649 m -14 -15 d s 388 649 m -15 -15 d s 369 649 m -15 -15 d s 350 649 m -15 -15
 d s 330 649 m -14 -15 d s 311 649 m -14 -15 d s 292 649 m -15 -15 d s 273 649 m -15 -15 d s 253 649 m -14 -15 d s 234 649 m -7 -8 d s 3 lw 612 892 m -1 Y s 606 905 m -13 -14 d s 587 905 m -13 -14 d s 568 905 m -14 -14 d s 548 905 m -13 -14 d s 529
 905 m -13 -14 d s 510 905 m -13 -14 d s 491 905 m -14 -14 d s 471 905 m -13 -14 d s 452 905 m -13 -14 d s 433 905 m -13 -14 d s 3 lw 803 640 m -7 -7 d s 784 640 m -7 -7 d s 764 640 m -7 -7 d s 745 640 m -7 -7 d s 726 640 m -7 -7 d s 707 640 m -7 -7
 d s 687 640 m -7 -7 d s 668 640 m -7 -7 d s 649 640 m -7 -7 d s 630 640 m -7 -7 d s 3 lw 988 537 m -4 -4 d s 969 537 m -4 -4 d s 950 537 m -4 -4 d s 930 537 m -4 -4 d s 911 537 m -4 -4 d s 892 537 m -4 -4 d s 873 537 m -4 -4 d s 854 537 m -5 -4 d s
 834 537 m -4 -4 d s 815 537 m -4 -4 d s 3 lw 1191 489 m -2 -1 d s 1171 489 m -1 -1 d s 1152 489 m -1 -1 d s 1133 489 m -1 -1 d s 1114 489 m -2 -1 d s 1094 489 m -1 -1 d s 1075 489 m -1 -1 d s 1056 489 m -1 -1 d s 1037 489 m -2 -1 d s 1017 489 m -1
 -1 d s 998 489 m s 3 lw 1377 484 m s 1358 484 m s 1339 484 m s 1320 484 m s 1300 484 m s 1281 484 m s 1262 484 m s 1243 484 m s 1224 484 m -1 X s 1204 484 m s 3 lw 1570 484 m s 1551 484 m s 1531 484 m s 1512 484 m s 1493 484 m s 1474 484 m s 1454
 484 m s 1435 484 m s 1416 484 m s 1397 484 m s 3 lw 1762 484 m s 1743 484 m s 1724 484 m s 1704 484 m s 1685 484 m s 1666 484 m s 1647 484 m s 1627 484 m s 1608 484 m s 1589 484 m s 3 lw 1955 484 m s 1935 484 m s 1916 484 m s 1897 484 m s 1878 484 m
 s 1858 484 m s 1839 484 m s 1820 484 m s 1801 484 m s 1781 484 m s 3 lw 2147 484 m s 2128 484 m s 2108 484 m s 2089 484 m s 2070 484 m s 2051 484 m s 2032 484 m -1 X s 2012 484 m s 1993 484 m s 1974 484 m s black 3 lw 1 1 1 c black 323 636 m 1 Y s
 323 661 m s /w 24 def /w2 {w 2 div} def /w3 {w 3 div} def 323 649 m20 516 912 m 9 Y s 516 944 m 9 Y s 516 932 m20 709 634 m s 709 658 m s 709 646 m20 901 547 m20 1094 492 m20 227 484 m 1927 X s 227 502 m -18 Y s 304 493 m -9 Y s 381 493 m -9 Y s 458
 493 m -9 Y s 535 493 m -9 Y s 612 502 m -18 Y s 689 493 m -9 Y s 766 493 m -9 Y s 844 493 m -9 Y s 921 493 m -9 Y s 998 502 m -18 Y s 1075 493 m -9 Y s 1152 493 m -9 Y s 1229 493 m -9 Y s 1306 493 m -9 Y s 1383 502 m -18 Y s 1460 493 m -9 Y s 1538
 493 m -9 Y s 1615 493 m -9 Y s 1692 493 m -9 Y s 1769 502 m -18 Y s 1846 493 m -9 Y s 1923 493 m -9 Y s 2000 493 m -9 Y s 2077 493 m -9 Y s 2154 502 m -18 Y s 227 1520 m 1927 X s 227 1501 m 19 Y s 304 1510 m 10 Y s 381 1510 m 10 Y s 458 1510 m 10 Y
 s 535 1510 m 10 Y s 612 1501 m 19 Y s 689 1510 m 10 Y s 766 1510 m 10 Y s 844 1510 m 10 Y s 921 1510 m 10 Y s 998 1501 m 19 Y s 1075 1510 m 10 Y s 1152 1510 m 10 Y s 1229 1510 m 10 Y s 1306 1510 m 10 Y s 1383 1501 m 19 Y s 1460 1510 m 10 Y s 1538
 1510 m 10 Y s 1615 1510 m 10 Y s 1692 1510 m 10 Y s 1769 1501 m 19 Y s 1846 1510 m 10 Y s 1923 1510 m 10 Y s 2000 1510 m 10 Y s 2077 1510 m 10 Y s 2154 1501 m 19 Y s 227 484 m 1036 Y s 248 671 m -21 X s 237 718 m -10 X s 237 765 m -10 X s 237 812 m
 -10 X s 248 859 m -21 X s 237 906 m -10 X s 237 953 m -10 X s 237 1000 m -10 X s 248 1047 m -21 X s 237 1094 m -10 X s 237 1141 m -10 X s 237 1188 m -10 X s 248 1235 m -21 X s 237 1282 m -10 X s 237 1329 m -10 X s 237 1376 m -10 X s 248 1423 m -21 X
 s 248 671 m -21 X s 237 624 m -10 X s 237 577 m -10 X s 237 530 m -10 X s 248 1423 m -21 X s 237 1470 m -10 X s 237 1517 m -10 X s 2154 484 m 1036 Y s 2133 671 m 21 X s 2144 718 m 10 X s 2144 765 m 10 X s 2144 812 m 10 X s 2133 859 m 21 X s 2144 906
 m 10 X s 2144 953 m 10 X s 2144 1000 m 10 X s 2133 1047 m 21 X s 2144 1094 m 10 X s 2144 1141 m 10 X s 2144 1188 m 10 X s 2133 1235 m 21 X s 2144 1282 m 10 X s 2144 1329 m 10 X s 2144 1376 m 10 X s 2133 1423 m 21 X s 2133 671 m 21 X s 2144 624 m 10
 X s 2144 577 m 10 X s 2144 530 m 10 X s 2133 1423 m 21 X s 2144 1470 m 10 X s 2144 1517 m 10 X s
 gsave  2268 1103 0 472 C 1314.45 1423.98 t 0 r /Helvetica findfont 56.3093 sf 0 0 m ( Data) show NC gr  1259 1451 m 10 Y s 1259 1427 m -10 Y s 1259 1439 m20
 gsave  2268 1103 0 472 C 1808.84 1423.98 t 0 r /Helvetica findfont 56.3093 sf 0 0 m (single\255top) show NC gr 
 gsave  2268 1103 0 472 C 1779.24 1423.98 t 0 r /Helvetica-Oblique findfont 56.3093 sf 0 0 m (/) show NC gr 
 gsave  2268 1103 0 472 C 1758.52 1423.98 t 0 r /Helvetica-Oblique findfont 56.3093 sf 0 0 m (t) show NC gr  6 lw 1759 1468 m 20 X s
 gsave  2268 1103 0 472 C 1737.79 1423.98 t 0 r /Helvetica-Oblique findfont 56.3093 sf 0 0 m (t) show NC gr 
 gsave  2268 1103 0 472 C 1720.03 1423.98 t 0 r /Helvetica findfont 56.3093 sf 0 0 m ( ) show NC gr  0.06 0.54 0.06 c 3 lw 1626 1413 m 79 X 52 Y -79 X f 6 lw black
 gsave  2268 1103 0 472 C 1444.71 1349.97 t 0 r /Helvetica findfont 56.3093 sf 0 0 m (+jets) show NC gr 
 gsave  2268 1103 0 472 C 1332.21 1349.97 t 0 r /Helvetica-Oblique findfont 56.3093 sf 0 0 m (W/Z) show NC gr 
 gsave  2268 1103 0 472 C 1314.45 1349.97 t 0 r /Helvetica findfont 56.3093 sf 0 0 m ( ) show NC gr  1 0.653333 0 c 3 lw 1219 1340 m 79 X 51 Y -79 X f black
 gsave  2268 1103 0 472 C 1918.38 1349.97 t 0 r /Helvetica findfont 56.3093 sf 0 0 m (+jets) show NC gr 
 gsave  2268 1103 0 472 C 1737.79 1349.97 t 0 r /Helvetica-Oblique findfont 56.3093 sf 0 0 m (WZ/ZZ) show NC gr 
 gsave  2268 1103 0 472 C 1720.03 1349.97 t 0 r /Helvetica findfont 56.3093 sf 0 0 m ( ) show NC gr  0.413333 1 0 c 3 lw 1626 1340 m 79 X 51 Y -79 X f black
 gsave  2268 1103 0 472 C 1373.66 1275.96 t 0 r /Helvetica-Oblique findfont 56.3093 sf 0 0 m (Z) show NC gr 
 gsave  2268 1103 0 472 C 1352.93 1275.96 t 0 r /Helvetica-Oblique findfont 56.3093 sf 0 0 m (t) show NC gr  6 lw 1353 1320 m 21 X s
 gsave  2268 1103 0 472 C 1332.21 1275.96 t 0 r /Helvetica-Oblique findfont 56.3093 sf 0 0 m (t) show NC gr 
 gsave  2268 1103 0 472 C 1314.45 1275.96 t 0 r /Helvetica findfont 56.3093 sf 0 0 m ( ) show NC gr  0.6 0.2 1 c 3 lw 1219 1266 m 79 X 52 Y -79 X f 6 lw black
 gsave  2268 1103 0 472 C 1779.24 1275.96 t 0 r /Helvetica-Oblique findfont 56.3093 sf 0 0 m (W) show NC gr 
 gsave  2268 1103 0 472 C 1758.52 1275.96 t 0 r /Helvetica-Oblique findfont 56.3093 sf 0 0 m (t) show NC gr  6 lw 1759 1320 m 20 X s
 gsave  2268 1103 0 472 C 1737.79 1275.96 t 0 r /Helvetica-Oblique findfont 56.3093 sf 0 0 m (t) show NC gr 
 gsave  2268 1103 0 472 C 1720.03 1275.96 t 0 r /Helvetica findfont 56.3093 sf 0 0 m ( ) show NC gr  0.54 0.06 0.06 c 3 lw 1626 1266 m 79 X 52 Y -79 X f 6 lw black
 gsave  2268 1103 0 472 C 1332.21 1204.91 t 0 r /Helvetica-Oblique findfont 56.3093 sf 0 0 m (tZq) show NC gr 
 gsave  2268 1103 0 472 C 1314.45 1204.91 t 0 r /Helvetica findfont 56.3093 sf 0 0 m ( ) show NC gr  1 0 1 c 3 lw 1219 1193 m 79 X 51 Y -79 X f black
 gsave  2268 1103 0 472 C 1779.24 1204.91 t 0 r /Helvetica-Oblique findfont 56.3093 sf 0 0 m (H) show NC gr 
 gsave  2268 1103 0 472 C 1758.52 1204.91 t 0 r /Helvetica-Oblique findfont 56.3093 sf 0 0 m (t) show NC gr  6 lw 1759 1249 m 20 X s
 gsave  2268 1103 0 472 C 1737.79 1204.91 t 0 r /Helvetica-Oblique findfont 56.3093 sf 0 0 m (t) show NC gr 
 gsave  2268 1103 0 472 C 1720.03 1204.91 t 0 r /Helvetica findfont 56.3093 sf 0 0 m ( ) show NC gr  0 0 1 c 3 lw 1626 1193 m 79 X 51 Y -79 X f 6 lw black
 gsave  2268 1103 0 472 C 1332.21 1130.9 t 0 r /Helvetica-Oblique findfont 56.3093 sf 0 0 m (tWZ/tWH) show NC gr 
 gsave  2268 1103 0 472 C 1314.45 1130.9 t 0 r /Helvetica findfont 56.3093 sf 0 0 m ( ) show NC gr  0.2 0.8 0.8 c 3 lw 1219 1119 m 79 X 52 Y -79 X f black
 gsave  2268 1103 0 472 C 1737.79 1130.9 t 0 r /Helvetica-Oblique findfont 56.3093 sf 0 0 m (tHq) show NC gr 
 gsave  2268 1103 0 472 C 1720.03 1130.9 t 0 r /Helvetica findfont 56.3093 sf 0 0 m ( ) show NC gr  1 0 0 c 3 lw 1626 1119 m 79 X 52 Y -79 X f black
 gsave  2268 1103 0 472 C 1314.45 1056.89 t 0 r /Helvetica findfont 56.3093 sf 0 0 m ( Other) show NC gr  1 0.84 0 c 3 lw 1219 1046 m 79 X 51 Y -79 X f black
 gsave  2268 1103 0 472 C 1720.03 1056.89 t 0 r /Helvetica findfont 56.3093 sf 0 0 m ( Uncertainty) show NC gr  0.6 0.6 0.6 c 3 lw 1705 1061 m -15 -15 d s 1705 1080 m -34 -34 d s 1703 1097 m -51 -51 d s 1684 1097 m -51 -51 d s 1665 1097 m -39 -39 d s
 1646 1097 m -20 -20 d s 1626 1097 m s 1 0.84 0 c 0.6 0.6 0.6 c black
 gsave  2268 1103 0 472 C 894.061 1329.25 t 0 r /Helvetica findfont 41.4911 sf 0 0 m (\2551) show NC gr 
 gsave  2268 1103 0 472 C 399.663 1299.64 t 0 r /Helvetica findfont 62.2366 sf 0 0 m ( = 13 TeV,  139 fb) show NC gr 
 gsave  2268 1103 0 472 C 370.058 1299.64 t 0 r /Helvetica findfont 62.2366 sf 0 0 m (s) show NC gr  6 lw 349 1335 m 6 -38 d s 3 lw 355 1297 m 6 56 d s 361 1353 m 39 X s
 gsave  2268 1103 0 472 C 899.982 1201.95 t 0 r /Helvetica findfont 62.2366 sf 0 0 m (\)) show NC gr 
 gsave  2268 1103 0 472 C 843.733 1169.38 t 0 r /Helvetica findfont 41.4911 sf 0 0 m (HF) show NC gr 
 gsave  2268 1103 0 472 C 337.493 1201.95 t 0 r /Helvetica findfont 62.2366 sf 0 0 m ( 2L\(SS\), CR\(el/mu) show NC gr 
 gsave  2268 1103 0 472 C 337.493 1400.3 t 0 r /Helvetica-BoldOblique findfont 71.1276 sf 0 0 m (ATLAS) show NC gr 
 gsave  2268 1103 0 472 C 633.54 1400.3 t 0 r /Helvetica findfont 71.1276 sf 0 0 m (Internal) show NC gr 
 gr  gr showpage
end
%%EOF
