%!PS-Adobe-2.0 EPSF-2.0
%%BoundingBox:  0 0 567 394
%%Title: : LepPt1_CR1b3jNoZ
%%Creator: ROOT Version 6.20/06
%%CreationDate: Mon May 30 19:26:15 2022
%%DocumentNeededResources: ProcSet (FontSetInit)
%%EndComments
%%BeginProlog
80 dict begin
/s {stroke} def /l {lineto} def /m {moveto} def /t {translate} def
/r {rotate} def /rl {roll}  def /R {repeat} def
/d {rlineto} def /rm {rmoveto} def /gr {grestore} def /f {eofill} def
/c {setrgbcolor} def /black {0 setgray} def /sd {setdash} def
/cl {closepath} def /sf {scalefont setfont} def /lw {setlinewidth} def
/box {m dup 0 exch d exch 0 d 0 exch neg d cl} def
/NC{systemdict begin initclip end}def/C{NC box clip newpath}def
/bl {box s} def /bf {gsave box gsave f grestore 1 lw [] 0 sd s grestore} def /Y { 0 exch d} def /X { 0 d} def 
/K {{pop pop 0 moveto} exch kshow} bind def
/ita {/ang 15 def gsave [1 0 ang dup sin exch cos div 1 0 0] concat} def 
/mp {newpath /y exch def /x exch def} def
/side {[w .77 mul w .23 mul] .385 w mul sd w 0 l currentpoint t -144 r} def
/mr {mp x y w2 0 360 arc} def /m24 {mr s} def /m20 {mr f} def
/mb {mp x y w2 add m w2 neg 0 d 0 w neg d w 0 d 0 w d cl} def
/mt {mp x y w2 add m w2 neg w neg d w 0 d cl} def
/w4 {w 4 div} def
/w6 {w 6 div} def
/w8 {w 8 div} def
/m21 {mb f} def /m25 {mb s} def /m22 {mt f} def /m26{mt s} def
/m23 {mp x y w2 sub m w2 w d w neg 0 d cl f} def
/m27 {mp x y w2 add m w3 neg w2 neg d w3 w2 neg d w3 w2 d cl s} def
/m28 {mp x w2 sub y w2 sub w3 add m w3 0 d  0 w3 neg d w3 0 d 0 w3 d w3 0 d  0 w3 d w3 neg 0 d 0 w3 d w3 neg 0 d 0 w3 neg d w3 neg 0 d cl s } def
/m29 {mp gsave x w2 sub y w2 add w3 sub m currentpoint t 4 {side} repeat cl fill gr} def
/m30 {mp gsave x w2 sub y w2 add w3 sub m currentpoint t 4 {side} repeat cl s gr} def
/m31 {mp x y w2 sub m 0 w d x w2 sub y m w 0 d x w2 sub y w2 add m w w neg d x w2 sub y w2 sub m w w d s} def
/m32 {mp x y w2 sub m w2 w d w neg 0 d cl s} def
/m33 {mp x y w2 add m w3 neg w2 neg d w3 w2 neg d w3 w2 d cl f} def
/m34 {mp x w2 sub y w2 sub w3 add m w3 0 d  0 w3 neg d w3 0 d 0 w3 d w3 0 d  0 w3 d w3 neg 0 d 0 w3 d w3 neg 0 d 0 w3 neg d w3 neg 0 d cl f } def
/m35 {mp x y w2 add m w2 neg w2 neg d w2 w2 neg d w2 w2 d w2 neg w2 d x y w2 sub m 0 w d x w2 sub y m w 0 d s} def
/m36 {mb x w2 sub y w2 add m w w neg d x w2 sub y w2 sub m w w d s} def
/m37 {mp x y m w4 neg w2 d w4 neg w2 neg d w2 0 d  w4 neg w2 neg d w2 0 d w4 neg w2 d w2 0 d w4 neg w2 d w4 neg w2 neg d cl s} def
/m38 {mp x w4 sub y w2 add m w4 neg w4 neg d 0 w2 neg d w4 w4 neg d w2 0 d w4 w4 d 0 w2 d w4 neg w4 d w2 neg 0 d x y w2 sub m 0 w d x w2 sub y m w 0 d cl s} def
/m39 {mp x y m w4 neg w2 d w4 neg w2 neg d w2 0 d  w4 neg w2 neg d w2 0 d w4 neg w2 d w2 0 d w4 neg w2 d w4 neg w2 neg d cl f} def
/m40 {mp x y m w4 w2 d w4 w4 neg d w2 neg w4 neg d w2 w4 neg d w4 neg w4 neg d w4 neg w2 d w4 neg w2 neg d w4 neg w4 d w2 w4 d w2 neg w4 d w4 w4 d w4 w2 neg d cl s} def
/m41 {mp x y m w4 w2 d w4 w4 neg d w2 neg w4 neg d w2 w4 neg d w4 neg w4 neg d w4 neg w2 d w4 neg w2 neg d w4 neg w4 d w2 w4 d w2 neg w4 d w4 w4 d w4 w2 neg d cl f} def
/m42 {mp x y w2 add m w8 neg w2 -3 4 div mul d w2 -3 4 div mul w8 neg d w2 3 4 div mul w8 neg d w8 w2 -3 4 div mul d w8 w2 3 4 div mul d w2 3 4 div mul w8 d w2 -3 4 div mul w8 d w8 neg w2 3 4 div mul d cl s} def
/m43 {mp x y w2 add m w8 neg w2 -3 4 div mul d w2 -3 4 div mul w8 neg d w2 3 4 div mul w8 neg d w8 w2 -3 4 div mul d w8 w2 3 4 div mul d w2 3 4 div mul w8 d w2 -3 4 div mul w8 d w8 neg w2 3 4 div mul d cl f} def
/m44 {mp x y m w6 neg w2 d w2 2 3 div mul 0 d w6 neg w2 neg d w2 w6 d 0 w2 -2 3 div mul d w2 neg w6 d w6 w2 neg d w2 -2 3 div mul 0 d w6 w2 d w2 neg w6 neg d 0 w2 2 3 div mul d w2 w6 neg d cl s} def
/m45 {mp x y m w6 neg w2 d w2 2 3 div mul 0 d w6 neg w2 neg d w2 w6 d 0 w2 -2 3 div mul d w2 neg w6 d w6 w2 neg d w2 -2 3 div mul 0 d w6 w2 d w2 neg w6 neg d 0 w2 2 3 div mul d w2 w6 neg d cl f} def
/m46 {mp x y w4 add m w4 neg w4 d w4 neg w4 neg d  w4 w4 neg d w4 neg w4 neg d w4 w4 neg d w4 w4 d w4 w4 neg d w4 w4 d w4 neg w4 d w4 w4 d w4 neg w4 d w4 neg w4 neg d cl s} def
/m47 {mp x y w4 add m w4 neg w4 d w4 neg w4 neg d w4 w4 neg d w4 neg w4 neg d  w4 w4 neg d w4 w4 d w4 w4 neg d w4 w4 d w4 neg w4 d w4 w4 d w4 neg w4 d w4 neg w4 neg d cl f} def
/m48 {mp x y w4 add m w4 neg w4 d w4 neg w4 neg d w4 w4 neg d  w4 neg w4 neg d w4 w4 neg d w4 w4 d w4 w4 neg d w4 w4 d w4 neg w4 d w4 w4 d w4 neg w4 d w4 neg w4 neg d  w4 w4 neg d w4 neg w4 neg d w4 neg w4 d w4 w4 d cl f} def
/m49 {mp x w2 sub w3 add y w2 sub w3 add m  0 w3 neg d w3 0 d 0 w3 d w3 0 d 0 w3 d w3 neg 0 d 0 w3 d w3 neg 0 d 0 w3 neg d w3 neg 0 d 0 w3 neg d w3 0 d 0 w3 d w3 0 d 0 w3 neg d w3 neg 0 d cl f } def
/m2 {mp x y w2 sub m 0 w d x w2 sub y m w 0 d s} def
/m5 {mp x w2 sub y w2 sub m w w d x w2 sub y w2 add m w w neg d s} def
%%IncludeResource: ProcSet (FontSetInit)
%%IncludeResource: font Times-Roman
%%IncludeResource: font Times-Italic
%%IncludeResource: font Times-Bold
%%IncludeResource: font Times-BoldItalic
%%IncludeResource: font Helvetica
%%IncludeResource: font Helvetica-Oblique
%%IncludeResource: font Helvetica-Bold
%%IncludeResource: font Helvetica-BoldOblique
%%IncludeResource: font Courier
%%IncludeResource: font Courier-Oblique
%%IncludeResource: font Courier-Bold
%%IncludeResource: font Courier-BoldOblique
%%IncludeResource: font Symbol
%%IncludeResource: font ZapfDingbats
/reEncode {exch findfont dup length dict begin {1 index /FID eq  {pop pop} {def} ifelse } forall /Encoding exch def currentdict end dup /FontName get exch definefont pop } def [/Times-Bold /Times-Italic /Times-BoldItalic /Helvetica /Helvetica-Oblique
 /Helvetica-Bold /Helvetica-BoldOblique /Courier /Courier-Oblique /Courier-Bold /Courier-BoldOblique /Times-Roman /AvantGarde-Book /AvantGarde-BookOblique /AvantGarde-Demi /AvantGarde-DemiOblique /Bookman-Demi /Bookman-DemiItalic /Bookman-Light
 /Bookman-LightItalic /Helvetica-Narrow /Helvetica-Narrow-Bold /Helvetica-Narrow-BoldOblique /Helvetica-Narrow-Oblique /NewCenturySchlbk-Roman /NewCenturySchlbk-Bold /NewCenturySchlbk-BoldItalic /NewCenturySchlbk-Italic /Palatino-Bold
 /Palatino-BoldItalic /Palatino-Italic /Palatino-Roman ] {ISOLatin1Encoding reEncode } forall
%%EndProlog
%%BeginSetup
%%EndSetup
newpath  gsave  .25 .25 scale  gsave  0 0 t black[  ] 0 sd 3 lw 1 1 1 c 2268 1575 0 0 bf black 1 1 1 c 2268 472 0 0 bf black 1 1 1 c 1927 274 227 189 bf black 1927 274 227 189 bl 227 189 m 1927 X s 227 201 m -12 Y s 265 195 m -6 Y s 304 195 m -6 Y s
 342 195 m -6 Y s 381 195 m -6 Y s 420 201 m -12 Y s 458 195 m -6 Y s 497 195 m -6 Y s 535 195 m -6 Y s 574 195 m -6 Y s 612 201 m -12 Y s 651 195 m -6 Y s 689 195 m -6 Y s 728 195 m -6 Y s 766 195 m -6 Y s 805 201 m -12 Y s 844 195 m -6 Y s 882 195
 m -6 Y s 921 195 m -6 Y s 959 195 m -6 Y s 998 201 m -12 Y s 1036 195 m -6 Y s 1075 195 m -6 Y s 1113 195 m -6 Y s 1152 195 m -6 Y s 1191 201 m -12 Y s 1229 195 m -6 Y s 1268 195 m -6 Y s 1306 195 m -6 Y s 1345 195 m -6 Y s 1383 201 m -12 Y s 1422
 195 m -6 Y s 1460 195 m -6 Y s 1499 195 m -6 Y s 1538 195 m -6 Y s 1576 201 m -12 Y s 1615 195 m -6 Y s 1653 195 m -6 Y s 1692 195 m -6 Y s 1730 195 m -6 Y s 1769 201 m -12 Y s 1807 195 m -6 Y s 1846 195 m -6 Y s 1884 195 m -6 Y s 1923 195 m -6 Y s
 1962 201 m -12 Y s 2000 195 m -6 Y s 2039 195 m -6 Y s 2077 195 m -6 Y s 2116 195 m -6 Y s 2154 201 m -12 Y s
 gsave  2268 472 0 0 C 210.193 127.3 t 0 r /Helvetica findfont 53.4895 sf 0 0 m (0) show NC gr 
 gsave  2268 472 0 0 C 387.821 127.3 t 0 r /Helvetica findfont 53.4895 sf 0 0 m (50) show NC gr 
 gsave  2268 472 0 0 C 565.449 127.3 t 0 r /Helvetica findfont 53.4895 sf 0 0 m (100) show NC gr 
 gsave  2268 472 0 0 C 757.879 127.3 t 0 r /Helvetica findfont 53.4895 sf 0 0 m (150) show NC gr 
 gsave  2268 472 0 0 C 953.27 127.3 t 0 r /Helvetica findfont 53.4895 sf 0 0 m (200) show NC gr 
 gsave  2268 472 0 0 C 1145.7 127.3 t 0 r /Helvetica findfont 53.4895 sf 0 0 m (250) show NC gr 
 gsave  2268 472 0 0 C 1338.13 127.3 t 0 r /Helvetica findfont 53.4895 sf 0 0 m (300) show NC gr 
 gsave  2268 472 0 0 C 1530.56 127.3 t 0 r /Helvetica findfont 53.4895 sf 0 0 m (350) show NC gr 
 gsave  2268 472 0 0 C 1722.99 127.3 t 0 r /Helvetica findfont 53.4895 sf 0 0 m (400) show NC gr 
 gsave  2268 472 0 0 C 1915.42 127.3 t 0 r /Helvetica findfont 53.4895 sf 0 0 m (450) show NC gr 
 gsave  2268 472 0 0 C 2107.85 127.3 t 0 r /Helvetica findfont 53.4895 sf 0 0 m (500) show NC gr 
 gsave  2268 472 0 0 C 1977.59 53.2884 t 0 r /Helvetica findfont 56.4611 sf 0 0 m (\) [GeV]) show NC gr 
 gsave  2268 472 0 0 C 1962.79 20.7233 t 0 r /Helvetica findfont 38.6313 sf 0 0 m (1) show NC gr 
 gsave  2268 472 0 0 C 1868.05 53.2884 t 0 r /Helvetica findfont 56.4611 sf 0 0 m (\(lep) show NC gr 
 gsave  2268 472 0 0 C 1844.37 20.7233 t 0 r /Helvetica findfont 38.6313 sf 0 0 m (T) show NC gr 
 gsave  2268 472 0 0 C 1808.84 53.2884 t 0 r /Helvetica-Oblique findfont 56.4611 sf 0 0 m (p) show NC gr  227 463 m 1927 X s 227 451 m 12 Y s 265 457 m 6 Y s 304 457 m 6 Y s 342 457 m 6 Y s 381 457 m 6 Y s 420 451 m 12 Y s 458 457 m 6 Y s 497 457 m 6
 Y s 535 457 m 6 Y s 574 457 m 6 Y s 612 451 m 12 Y s 651 457 m 6 Y s 689 457 m 6 Y s 728 457 m 6 Y s 766 457 m 6 Y s 805 451 m 12 Y s 844 457 m 6 Y s 882 457 m 6 Y s 921 457 m 6 Y s 959 457 m 6 Y s 998 451 m 12 Y s 1036 457 m 6 Y s 1075 457 m 6 Y s
 1113 457 m 6 Y s 1152 457 m 6 Y s 1191 451 m 12 Y s 1229 457 m 6 Y s 1268 457 m 6 Y s 1306 457 m 6 Y s 1345 457 m 6 Y s 1383 451 m 12 Y s 1422 457 m 6 Y s 1460 457 m 6 Y s 1499 457 m 6 Y s 1538 457 m 6 Y s 1576 451 m 12 Y s 1615 457 m 6 Y s 1653 457
 m 6 Y s 1692 457 m 6 Y s 1730 457 m 6 Y s 1769 451 m 12 Y s 1807 457 m 6 Y s 1846 457 m 6 Y s 1884 457 m 6 Y s 1923 457 m 6 Y s 1962 451 m 12 Y s 2000 457 m 6 Y s 2039 457 m 6 Y s 2077 457 m 6 Y s 2116 457 m 6 Y s 2154 451 m 12 Y s 227 189 m 274 Y s
 240 240 m -13 X s 240 326 m -13 X s 240 412 m -13 X s 240 240 m -13 X s 240 412 m -13 X s
 gsave  2268 472 0 0 C 118.419 222.035 t 0 r /Helvetica findfont 53.4895 sf 0 0 m (0.5) show NC gr 
 gsave  2268 472 0 0 C 171.707 307.888 t 0 r /Helvetica findfont 53.4895 sf 0 0 m (1) show NC gr 
 gsave  2268 472 0 0 C 118.419 393.742 t 0 r /Helvetica findfont 53.4895 sf 0 0 m (1.5) show NC gr 
 gsave  2268 472 0 0 C 71.0512 230.916 t 90 r /Helvetica findfont 53.4895 sf 0 0 m (Data / SM) show NC gr  2154 189 m 274 Y s 2141 240 m 13 X s 2141 326 m 13 X s 2141 412 m 13 X s 2141 240 m 13 X s 2141 412 m 13 X s 227 189 m 1927 X s 227 463 m 1927
 X s 227 189 m 274 Y s[ 4 8] 0 sd 2154 240 m -1927 X s 2154 326 m -1927 X s 2154 412 m -1927 X s 2154 240 m -1927 X s 2154 412 m -1927 X s[  ] 0 sd 2154 189 m 274 Y s 1 1 0.6 c 193 0 227 326 bf 192 0 420 326 bf 193 0 612 326 bf 193 0 805 326 bf 193 0
 998 326 bf 192 0 1191 326 bf 193 0 1383 326 bf 193 0 1576 326 bf 193 0 1769 326 bf 192 0 1962 326 bf black 0.6 0.6 0.6 c 420 325 m -9 -9 d s 412 336 m -20 -20 d s 392 336 m -19 -20 d s 373 336 m -20 -20 d s 354 336 m -20 -20 d s 335 336 m -20 -20 d
 s 315 336 m -19 -20 d s 296 336 m -19 -20 d s 277 336 m -20 -20 d s 258 336 m -20 -20 d s 238 336 m -11 -12 d s 612 325 m -5 -6 d s 601 333 m -13 -14 d s 581 333 m -13 -14 d s 562 333 m -13 -14 d s 543 333 m -13 -14 d s 524 333 m -13 -14 d s 505 333
 m -14 -14 d s 485 333 m -13 -14 d s 466 333 m -13 -14 d s 447 333 m -13 -14 d s 428 333 m -8 -8 d s 805 325 m -5 -4 d s 792 331 m -11 -10 d s 773 331 m -11 -10 d s 754 331 m -11 -10 d s 734 331 m -11 -10 d s 715 331 m -11 -10 d s 696 331 m -11 -10 d
 s 677 331 m -11 -10 d s 657 331 m -11 -10 d s 638 331 m -11 -10 d s 619 331 m -7 -6 d s 998 326 m -8 -8 d s 987 334 m -16 -16 d s 968 334 m -17 -16 d s 949 334 m -17 -16 d s 930 334 m -17 -16 d s 910 334 m -16 -16 d s 891 334 m -16 -16 d s 872 334 m
 -17 -16 d s 853 334 m -17 -16 d s 833 334 m -16 -16 d s 814 334 m -9 -9 d s 1191 326 m -13 -13 d s 1184 339 m -25 -26 d s 1165 339 m -25 -26 d s 1146 339 m -26 -26 d s 1126 339 m -25 -26 d s 1107 339 m -25 -26 d s 1088 339 m -25 -26 d s 1069 339 m
 -26 -26 d s 1049 339 m -25 -26 d s 1030 339 m -25 -26 d s 1011 339 m -13 -13 d s 1383 307 m -5 -6 d s 1383 326 m -25 -25 d s 1383 346 m -44 -45 d s 1369 351 m -49 -50 d s 1350 351 m -49 -50 d s 1331 351 m -50 -50 d s 1312 351 m -50 -50 d s 1292 351
 m -49 -50 d s 1273 351 m -49 -50 d s 1254 351 m -50 -50 d s 1235 351 m -44 -44 d s 1215 351 m -24 -25 d s 1196 351 m -5 -6 d s 1576 307 m -7 -7 d s 1576 327 m -26 -27 d s 1576 346 m -45 -46 d s 1563 352 m -52 -52 d s 1543 352 m -51 -52 d s 1524 352
 m -51 -52 d s 1505 352 m -51 -52 d s 1486 352 m -51 -52 d s 1466 352 m -51 -52 d s 1447 352 m -51 -52 d s 1428 352 m -45 -45 d s 1409 352 m -26 -26 d s 1389 352 m -6 -6 d s 1769 308 m -10 -11 d s 1769 327 m -30 -30 d s 1769 346 m -49 -49 d s 1758
 355 m -57 -58 d s 1739 355 m -57 -58 d s 1720 355 m -58 -58 d s 1700 355 m -57 -58 d s 1681 355 m -57 -58 d s 1662 355 m -57 -58 d s 1643 355 m -58 -58 d s 1623 355 m -47 -48 d s 1604 355 m -28 -28 d s 1585 355 m -9 -9 d s 1962 289 m -8 -8 d s 1962
 308 m -27 -27 d s 1962 327 m -46 -46 d s 1962 347 m -65 -66 d s 1962 366 m -85 -85 d s 1947 371 m -89 -90 d s 1928 371 m -89 -90 d s 1909 371 m -89 -90 d s 1889 371 m -89 -90 d s 1870 371 m -89 -90 d s 1851 371 m -82 -83 d s 1832 371 m -63 -63 d s
 1812 371 m -43 -44 d s 1793 371 m -24 -25 d s 1774 371 m -5 -5 d s 2154 308 m -8 -8 d s 2154 328 m -27 -28 d s 2154 347 m -47 -47 d s 2140 352 m -52 -52 d s 2121 352 m -52 -52 d s 2102 352 m -52 -52 d s 2083 352 m -53 -52 d s 2063 352 m -52 -52 d s
 2044 352 m -52 -52 d s 2025 352 m -52 -52 d s 2006 352 m -44 -44 d s 1986 352 m -24 -25 d s 1967 352 m -5 -5 d s black 1 1 1 c black 323 323 m 9 Y s 323 355 m 8 Y s /w 26 def /w2 {w 2 div} def /w3 {w 3 div} def 323 343 m20 516 352 m 4 Y s 516 379 m
 4 Y s 516 368 m20 709 302 m 6 Y s 709 332 m 6 Y s 709 320 m20 901 294 m 15 Y s 901 333 m 16 Y s 901 321 m20 1094 288 m 32 Y s 1094 344 m 32 Y s 1094 332 m20 1287 276 m 54 Y s 1287 354 m 54 Y s 1287 342 m20 1480 189 m 62 Y s 1480 275 m 64 Y s 1480
 263 m20 1865 189 m 139 Y s 1865 352 m 111 Y s 1865 340 m20 2058 218 m 142 Y s 2058 384 m 79 Y s 2058 372 m20 227 326 m 1927 X s 227 189 m 1927 X s 227 201 m -12 Y s 265 195 m -6 Y s 304 195 m -6 Y s 342 195 m -6 Y s 381 195 m -6 Y s 420 201 m -12 Y
 s 458 195 m -6 Y s 497 195 m -6 Y s 535 195 m -6 Y s 574 195 m -6 Y s 612 201 m -12 Y s 651 195 m -6 Y s 689 195 m -6 Y s 728 195 m -6 Y s 766 195 m -6 Y s 805 201 m -12 Y s 844 195 m -6 Y s 882 195 m -6 Y s 921 195 m -6 Y s 959 195 m -6 Y s 998 201
 m -12 Y s 1036 195 m -6 Y s 1075 195 m -6 Y s 1113 195 m -6 Y s 1152 195 m -6 Y s 1191 201 m -12 Y s 1229 195 m -6 Y s 1268 195 m -6 Y s 1306 195 m -6 Y s 1345 195 m -6 Y s 1383 201 m -12 Y s 1422 195 m -6 Y s 1460 195 m -6 Y s 1499 195 m -6 Y s
 1538 195 m -6 Y s 1576 201 m -12 Y s 1615 195 m -6 Y s 1653 195 m -6 Y s 1692 195 m -6 Y s 1730 195 m -6 Y s 1769 201 m -12 Y s 1807 195 m -6 Y s 1846 195 m -6 Y s 1884 195 m -6 Y s 1923 195 m -6 Y s 1962 201 m -12 Y s 2000 195 m -6 Y s 2039 195 m
 -6 Y s 2077 195 m -6 Y s 2116 195 m -6 Y s 2154 201 m -12 Y s 227 463 m 1927 X s 227 451 m 12 Y s 265 457 m 6 Y s 304 457 m 6 Y s 342 457 m 6 Y s 381 457 m 6 Y s 420 451 m 12 Y s 458 457 m 6 Y s 497 457 m 6 Y s 535 457 m 6 Y s 574 457 m 6 Y s 612
 451 m 12 Y s 651 457 m 6 Y s 689 457 m 6 Y s 728 457 m 6 Y s 766 457 m 6 Y s 805 451 m 12 Y s 844 457 m 6 Y s 882 457 m 6 Y s 921 457 m 6 Y s 959 457 m 6 Y s 998 451 m 12 Y s 1036 457 m 6 Y s 1075 457 m 6 Y s 1113 457 m 6 Y s 1152 457 m 6 Y s 1191
 451 m 12 Y s 1229 457 m 6 Y s 1268 457 m 6 Y s 1306 457 m 6 Y s 1345 457 m 6 Y s 1383 451 m 12 Y s 1422 457 m 6 Y s 1460 457 m 6 Y s 1499 457 m 6 Y s 1538 457 m 6 Y s 1576 451 m 12 Y s 1615 457 m 6 Y s 1653 457 m 6 Y s 1692 457 m 6 Y s 1730 457 m 6
 Y s 1769 451 m 12 Y s 1807 457 m 6 Y s 1846 457 m 6 Y s 1884 457 m 6 Y s 1923 457 m 6 Y s 1962 451 m 12 Y s 2000 457 m 6 Y s 2039 457 m 6 Y s 2077 457 m 6 Y s 2116 457 m 6 Y s 2154 451 m 12 Y s 227 189 m 274 Y s 240 240 m -13 X s 240 326 m -13 X s
 240 412 m -13 X s 240 240 m -13 X s 240 412 m -13 X s 2154 189 m 274 Y s 2141 240 m 13 X s 2141 326 m 13 X s 2141 412 m 13 X s 2141 240 m 13 X s 2141 412 m 13 X s 1 1 1 c 2268 1103 0 472 bf black 1 1 1 c 1927 1036 227 484 bf black 1927 1036 227 484
 bl 1 1 1 c black 3 lw 227 484 m 1927 X s 227 502 m -18 Y s 265 493 m -9 Y s 304 493 m -9 Y s 342 493 m -9 Y s 381 493 m -9 Y s 420 502 m -18 Y s 458 493 m -9 Y s 497 493 m -9 Y s 535 493 m -9 Y s 574 493 m -9 Y s 612 502 m -18 Y s 651 493 m -9 Y s
 689 493 m -9 Y s 728 493 m -9 Y s 766 493 m -9 Y s 805 502 m -18 Y s 844 493 m -9 Y s 882 493 m -9 Y s 921 493 m -9 Y s 959 493 m -9 Y s 998 502 m -18 Y s 1036 493 m -9 Y s 1075 493 m -9 Y s 1113 493 m -9 Y s 1152 493 m -9 Y s 1191 502 m -18 Y s
 1229 493 m -9 Y s 1268 493 m -9 Y s 1306 493 m -9 Y s 1345 493 m -9 Y s 1383 502 m -18 Y s 1422 493 m -9 Y s 1460 493 m -9 Y s 1499 493 m -9 Y s 1538 493 m -9 Y s 1576 502 m -18 Y s 1615 493 m -9 Y s 1653 493 m -9 Y s 1692 493 m -9 Y s 1730 493 m -9
 Y s 1769 502 m -18 Y s 1807 493 m -9 Y s 1846 493 m -9 Y s 1884 493 m -9 Y s 1923 493 m -9 Y s 1962 502 m -18 Y s 2000 493 m -9 Y s 2039 493 m -9 Y s 2077 493 m -9 Y s 2116 493 m -9 Y s 2154 502 m -18 Y s
 gsave  2268 1103 0 472 C 2060.48 408.544 t 0 r /Helvetica findfont 29.6365 sf 0 0 m (\) [GeV]) show NC gr 
 gsave  2268 1103 0 472 C 2051.6 390.781 t 0 r /Helvetica findfont 20.7455 sf 0 0 m (1) show NC gr 
 gsave  2268 1103 0 472 C 2001.27 408.544 t 0 r /Helvetica findfont 29.6365 sf 0 0 m (\(lep) show NC gr 
 gsave  2268 1103 0 472 C 1986.47 387.821 t 0 r /Helvetica findfont 20.7455 sf 0 0 m (T) show NC gr 
 gsave  2268 1103 0 472 C 1968.71 408.544 t 0 r /Helvetica-Oblique findfont 29.6365 sf 0 0 m (p) show NC gr  227 1520 m 1927 X s 227 1501 m 19 Y s 265 1510 m 10 Y s 304 1510 m 10 Y s 342 1510 m 10 Y s 381 1510 m 10 Y s 420 1501 m 19 Y s 458 1510 m 10
 Y s 497 1510 m 10 Y s 535 1510 m 10 Y s 574 1510 m 10 Y s 612 1501 m 19 Y s 651 1510 m 10 Y s 689 1510 m 10 Y s 728 1510 m 10 Y s 766 1510 m 10 Y s 805 1501 m 19 Y s 844 1510 m 10 Y s 882 1510 m 10 Y s 921 1510 m 10 Y s 959 1510 m 10 Y s 998 1501 m
 19 Y s 1036 1510 m 10 Y s 1075 1510 m 10 Y s 1113 1510 m 10 Y s 1152 1510 m 10 Y s 1191 1501 m 19 Y s 1229 1510 m 10 Y s 1268 1510 m 10 Y s 1306 1510 m 10 Y s 1345 1510 m 10 Y s 1383 1501 m 19 Y s 1422 1510 m 10 Y s 1460 1510 m 10 Y s 1499 1510 m 10
 Y s 1538 1510 m 10 Y s 1576 1501 m 19 Y s 1615 1510 m 10 Y s 1653 1510 m 10 Y s 1692 1510 m 10 Y s 1730 1510 m 10 Y s 1769 1501 m 19 Y s 1807 1510 m 10 Y s 1846 1510 m 10 Y s 1884 1510 m 10 Y s 1923 1510 m 10 Y s 1962 1501 m 19 Y s 2000 1510 m 10 Y
 s 2039 1510 m 10 Y s 2077 1510 m 10 Y s 2116 1510 m 10 Y s 2154 1501 m 19 Y s 227 484 m 1036 Y s 248 615 m -21 X s 237 641 m -10 X s 237 667 m -10 X s 237 694 m -10 X s 237 720 m -10 X s 248 746 m -21 X s 237 773 m -10 X s 237 799 m -10 X s 237 825
 m -10 X s 237 851 m -10 X s 248 878 m -21 X s 237 904 m -10 X s 237 930 m -10 X s 237 957 m -10 X s 237 983 m -10 X s 248 1009 m -21 X s 237 1035 m -10 X s 237 1062 m -10 X s 237 1088 m -10 X s 237 1114 m -10 X s 248 1141 m -21 X s 237 1167 m -10 X
 s 237 1193 m -10 X s 237 1219 m -10 X s 237 1246 m -10 X s 248 1272 m -21 X s 237 1298 m -10 X s 237 1325 m -10 X s 237 1351 m -10 X s 237 1377 m -10 X s 248 1403 m -21 X s 248 615 m -21 X s 237 589 m -10 X s 237 562 m -10 X s 237 536 m -10 X s 237
 510 m -10 X s 248 1403 m -21 X s 237 1430 m -10 X s 237 1456 m -10 X s 237 1482 m -10 X s 237 1509 m -10 X s
 gsave  2268 1103 0 472 C 145.063 595.054 t 0 r /Helvetica findfont 50.382 sf 0 0 m (50) show NC gr 
 gsave  2268 1103 0 472 C 118.419 728.275 t 0 r /Helvetica findfont 50.382 sf 0 0 m (100) show NC gr 
 gsave  2268 1103 0 472 C 118.419 858.535 t 0 r /Helvetica findfont 50.382 sf 0 0 m (150) show NC gr 
 gsave  2268 1103 0 472 C 118.419 988.795 t 0 r /Helvetica findfont 50.382 sf 0 0 m (200) show NC gr 
 gsave  2268 1103 0 472 C 118.419 1122.02 t 0 r /Helvetica findfont 50.382 sf 0 0 m (250) show NC gr 
 gsave  2268 1103 0 472 C 118.419 1252.28 t 0 r /Helvetica findfont 50.382 sf 0 0 m (300) show NC gr 
 gsave  2268 1103 0 472 C 118.419 1385.5 t 0 r /Helvetica findfont 50.382 sf 0 0 m (350) show NC gr 
 gsave  2268 1103 0 472 C 62.1698 1154.58 t 90 r /Helvetica findfont 50.382 sf 0 0 m (Events / 50 GeV) show NC gr  2154 484 m 1036 Y s 2133 615 m 21 X s 2144 641 m 10 X s 2144 667 m 10 X s 2144 694 m 10 X s 2144 720 m 10 X s 2133 746 m 21 X s 2144
 773 m 10 X s 2144 799 m 10 X s 2144 825 m 10 X s 2144 851 m 10 X s 2133 878 m 21 X s 2144 904 m 10 X s 2144 930 m 10 X s 2144 957 m 10 X s 2144 983 m 10 X s 2133 1009 m 21 X s 2144 1035 m 10 X s 2144 1062 m 10 X s 2144 1088 m 10 X s 2144 1114 m 10 X
 s 2133 1141 m 21 X s 2144 1167 m 10 X s 2144 1193 m 10 X s 2144 1219 m 10 X s 2144 1246 m 10 X s 2133 1272 m 21 X s 2144 1298 m 10 X s 2144 1325 m 10 X s 2144 1351 m 10 X s 2144 1377 m 10 X s 2133 1403 m 21 X s 2133 615 m 21 X s 2144 589 m 10 X s
 2144 562 m 10 X s 2144 536 m 10 X s 2144 510 m 10 X s 2133 1403 m 21 X s 2144 1430 m 10 X s 2144 1456 m 10 X s 2144 1482 m 10 X s 2144 1509 m 10 X s 0.06 0.54 0.06 c black 3 lw 0.06 0.54 0.06 c 227 484 m 210 Y 193 X 204 Y 192 X -188 Y 193 X -127 Y
 193 X -59 Y 193 X -21 Y 192 X -11 Y 193 X -6 Y 386 X 2 Y 192 X -4 Y f 1 0.653333 0 c 0.999 0.999 0.999 c black 3 lw 0.999 0.999 0.999 c 227 484 m 97 Y 193 X 118 Y 192 X -114 Y 193 X -58 Y 193 X -25 Y 193 X -8 Y 192 X -6 Y 193 X -3 Y 386 X 2 Y 192 X
 -3 Y f 1 0.653333 0 c 0.999 0.999 0.999 c 1 0.653333 0 c 1 1 1 c black 1 0.653333 0 c black 3 lw 1 0.653333 0 c 227 484 m 97 Y 193 X 118 Y 192 X -114 Y 193 X -58 Y 193 X -25 Y 193 X -8 Y 192 X -6 Y 193 X -3 Y 386 X 2 Y 192 X -3 Y f 0.413333 1 0 c
 0.999 0.999 0.999 c black 3 lw 0.999 0.999 0.999 c 227 484 m 80 Y 193 X 131 Y 192 X -114 Y 193 X -60 Y 193 X -22 Y 193 X -8 Y 192 X -4 Y 193 X -2 Y 386 X 1 Y 192 X -2 Y f 0.413333 1 0 c 0.999 0.999 0.999 c 0.413333 1 0 c 1 1 1 c black 0.413333 1 0 c
 black 3 lw 0.413333 1 0 c 227 484 m 80 Y 193 X 131 Y 192 X -114 Y 193 X -60 Y 193 X -22 Y 193 X -8 Y 192 X -4 Y 193 X -2 Y 386 X 1 Y 192 X -2 Y f 0.6 0.2 1 c 0.999 0.999 0.999 c black 3 lw 0.999 0.999 0.999 c 227 484 m 49 Y 193 X 91 Y 192 X -73 Y
 193 X -43 Y 193 X -14 Y 193 X -5 Y 192 X -3 Y 193 X -1 Y 193 X -1 Y 193 X 1 Y 192 X -1 Y f 0.6 0.2 1 c 0.999 0.999 0.999 c 0.6 0.2 1 c 1 1 1 c black 0.6 0.2 1 c black 3 lw 0.6 0.2 1 c 227 484 m 49 Y 193 X 91 Y 192 X -73 Y 193 X -43 Y 193 X -14 Y 193
 X -5 Y 192 X -3 Y 193 X -1 Y 193 X -1 Y 193 X 1 Y 192 X -1 Y f 0.54 0.06 0.06 c 0.999 0.999 0.999 c black 3 lw 0.999 0.999 0.999 c 227 484 m 44 Y 193 X 83 Y 192 X -67 Y 193 X -39 Y 193 X -12 Y 193 X -5 Y 192 X -2 Y 193 X -1 Y 193 X -1 Y 193 X 1 Y
 192 X -1 Y f 0.54 0.06 0.06 c 0.999 0.999 0.999 c 0.54 0.06 0.06 c 1 1 1 c black 0.54 0.06 0.06 c black 3 lw 0.54 0.06 0.06 c 227 484 m 44 Y 193 X 83 Y 192 X -67 Y 193 X -39 Y 193 X -12 Y 193 X -5 Y 192 X -2 Y 193 X -1 Y 193 X -1 Y 193 X 1 Y 192 X
 -1 Y f 1 0 1 c 0.999 0.999 0.999 c black 3 lw 0.999 0.999 0.999 c 227 484 m 17 Y 193 X 22 Y 192 X -23 Y 193 X -12 Y 193 X -3 Y 193 X -1 Y 963 X f 1 0 1 c 0.999 0.999 0.999 c 1 0 1 c 1 1 1 c black 1 0 1 c black 3 lw 1 0 1 c 227 484 m 17 Y 193 X 22 Y
 192 X -23 Y 193 X -12 Y 193 X -3 Y 193 X -1 Y 963 X f 0 0 1 c 0.999 0.999 0.999 c black 3 lw 0.999 0.999 0.999 c 227 484 m 9 Y 193 X 7 Y 192 X -8 Y 193 X -6 Y 193 X -2 Y 1156 X f 0 0 1 c 0.999 0.999 0.999 c 0 0 1 c 1 1 1 c black 0 0 1 c black 3 lw 0
 0 1 c 227 484 m 9 Y 193 X 7 Y 192 X -8 Y 193 X -6 Y 193 X -2 Y 1156 X f 0.2 0.8 0.8 c 0.999 0.999 0.999 c black 3 lw 0.999 0.999 0.999 c 227 484 m 5 Y 193 X 3 Y 192 X -4 Y 193 X -3 Y 193 X -1 Y 1156 X f 0.2 0.8 0.8 c 0.999 0.999 0.999 c 0.2 0.8 0.8
 c 1 1 1 c black 0.2 0.8 0.8 c black 3 lw 0.2 0.8 0.8 c 227 484 m 5 Y 193 X 3 Y 192 X -4 Y 193 X -3 Y 193 X -1 Y 1156 X f 1 0 0 c 0.999 0.999 0.999 c black 3 lw 0.999 0.999 0.999 c 227 484 m 4 Y 193 X 1 Y 192 X -3 Y 193 X -2 Y 1349 X f 1 0 0 c 0.999
 0.999 0.999 c 1 0 0 c 1 1 1 c black 1 0 0 c black 3 lw 1 0 0 c 227 484 m 4 Y 193 X 1 Y 192 X -3 Y 193 X -2 Y 1349 X f 1 0.84 0 c 0.999 0.999 0.999 c black 3 lw 0.999 0.999 0.999 c 227 484 m 3 Y 193 X -1 Y 385 X -2 Y 1349 X f 1 0.84 0 c 0.999 0.999
 0.999 c 1 0.84 0 c 1 1 1 c black 1 0.84 0 c black 3 lw 1 0.84 0 c 227 484 m 3 Y 193 X -1 Y 385 X -2 Y 1349 X f black 1 1 1 c black 0.6 0.6 0.6 c 3 lw 420 699 m -18 -18 d s 407 706 m -24 -25 d s 387 706 m -24 -25 d s 368 706 m -24 -25 d s 349 706 m
 -24 -25 d s 330 706 m -24 -25 d s 310 706 m -24 -25 d s 291 706 m -24 -25 d s 272 706 m -24 -25 d s 253 706 m -24 -25 d s 233 706 m -6 -7 d s 3 lw 612 892 m -9 -10 d s 612 911 m -29 -29 d s 596 914 m -32 -32 d s 577 914 m -32 -32 d s 558 914 m -32
 -32 d s 538 914 m -31 -32 d s 519 914 m -32 -32 d s 500 914 m -32 -32 d s 481 914 m -32 -32 d s 461 914 m -31 -32 d s 442 914 m -22 -23 d s 423 914 m -3 -3 d s 3 lw 803 717 m -14 -14 d s 784 717 m -15 -14 d s 765 717 m -15 -14 d s 745 717 m -14 -14
 d s 726 717 m -14 -14 d s 707 717 m -15 -14 d s 688 717 m -15 -14 d s 668 717 m -14 -14 d s 649 717 m -14 -14 d s 630 717 m -14 -14 d s 3 lw 998 585 m -7 -6 d s 982 588 m -10 -9 d s 963 588 m -10 -9 d s 943 588 m -9 -9 d s 924 588 m -10 -9 d s 905
 588 m -10 -9 d s 886 588 m -10 -9 d s 867 588 m -10 -9 d s 847 588 m -9 -9 d s 828 588 m -10 -9 d s 809 588 m -4 -3 d s 3 lw 1190 527 m -6 -6 d s 1171 527 m -6 -6 d s 1152 527 m -6 -6 d s 1132 527 m -6 -6 d s 1113 527 m -6 -6 d s 1094 527 m -6 -6 d
 s 1075 527 m -6 -6 d s 1055 527 m -6 -6 d s 1036 527 m -6 -6 d s 1017 527 m -6 -6 d s 3 lw 1380 506 m -6 -6 d s 1361 506 m -6 -6 d s 1342 506 m -6 -6 d s 1322 506 m -5 -6 d s 1303 506 m -6 -6 d s 1284 506 m -6 -6 d s 1265 506 m -6 -6 d s 1245 506 m
 -5 -6 d s 1226 506 m -5 -6 d s 1207 506 m -6 -6 d s 3 lw 1560 493 m -3 -2 d s 1541 493 m -3 -2 d s 1522 493 m -3 -2 d s 1502 493 m -2 -2 d s 1483 493 m -2 -2 d s 1464 493 m -3 -2 d s 1445 493 m -3 -2 d s 1425 493 m -2 -2 d s 1406 493 m -2 -2 d s
 1387 493 m -3 -2 d s 3 lw 1765 486 m -1 -1 d s 1745 486 m -1 Y s 1726 486 m -1 -1 d s 1707 486 m -1 -1 d s 1688 486 m -1 -1 d s 1669 486 m -1 -1 d s 1649 486 m -1 Y s 1630 486 m -1 -1 d s 1611 486 m -1 -1 d s 1592 486 m -1 -1 d s 3 lw 1958 487 m -2
 -2 d s 1938 487 m -1 -2 d s 1919 487 m -1 -2 d s 1900 487 m -1 -2 d s 1881 487 m -2 -2 d s 1861 487 m -1 -2 d s 1842 487 m -1 -2 d s 1823 487 m -1 -2 d s 1804 487 m -2 -2 d s 1784 487 m -1 -2 d s 3 lw 2152 488 m -2 -1 d s 2132 488 m -1 -1 d s 2113
 488 m -1 -1 d s 2094 488 m -1 -1 d s 2075 488 m -2 -1 d s 2055 488 m -1 -1 d s 2036 488 m -1 -1 d s 2017 488 m -1 -1 d s 1998 488 m -2 -1 d s 1979 488 m -2 -1 d s black 3 lw 1 1 1 c black 323 690 m 13 Y s 323 727 m 12 Y s /w 24 def /w2 {w 2 div} def
 /w3 {w 3 div} def 323 715 m20 516 962 m 25 Y s 516 1011 m 24 Y s 516 999 m20 709 678 m 12 Y s 709 714 m 12 Y s 709 702 m20 901 565 m 4 Y s 901 593 m 4 Y s 901 581 m20 1094 526 m20 1287 505 m20 1480 489 m20 1672 491 m20 1865 486 m20 2058 489 m20 227
 484 m 1927 X s 227 502 m -18 Y s 265 493 m -9 Y s 304 493 m -9 Y s 342 493 m -9 Y s 381 493 m -9 Y s 420 502 m -18 Y s 458 493 m -9 Y s 497 493 m -9 Y s 535 493 m -9 Y s 574 493 m -9 Y s 612 502 m -18 Y s 651 493 m -9 Y s 689 493 m -9 Y s 728 493 m
 -9 Y s 766 493 m -9 Y s 805 502 m -18 Y s 844 493 m -9 Y s 882 493 m -9 Y s 921 493 m -9 Y s 959 493 m -9 Y s 998 502 m -18 Y s 1036 493 m -9 Y s 1075 493 m -9 Y s 1113 493 m -9 Y s 1152 493 m -9 Y s 1191 502 m -18 Y s 1229 493 m -9 Y s 1268 493 m
 -9 Y s 1306 493 m -9 Y s 1345 493 m -9 Y s 1383 502 m -18 Y s 1422 493 m -9 Y s 1460 493 m -9 Y s 1499 493 m -9 Y s 1538 493 m -9 Y s 1576 502 m -18 Y s 1615 493 m -9 Y s 1653 493 m -9 Y s 1692 493 m -9 Y s 1730 493 m -9 Y s 1769 502 m -18 Y s 1807
 493 m -9 Y s 1846 493 m -9 Y s 1884 493 m -9 Y s 1923 493 m -9 Y s 1962 502 m -18 Y s 2000 493 m -9 Y s 2039 493 m -9 Y s 2077 493 m -9 Y s 2116 493 m -9 Y s 2154 502 m -18 Y s 227 1520 m 1927 X s 227 1501 m 19 Y s 265 1510 m 10 Y s 304 1510 m 10 Y
 s 342 1510 m 10 Y s 381 1510 m 10 Y s 420 1501 m 19 Y s 458 1510 m 10 Y s 497 1510 m 10 Y s 535 1510 m 10 Y s 574 1510 m 10 Y s 612 1501 m 19 Y s 651 1510 m 10 Y s 689 1510 m 10 Y s 728 1510 m 10 Y s 766 1510 m 10 Y s 805 1501 m 19 Y s 844 1510 m 10
 Y s 882 1510 m 10 Y s 921 1510 m 10 Y s 959 1510 m 10 Y s 998 1501 m 19 Y s 1036 1510 m 10 Y s 1075 1510 m 10 Y s 1113 1510 m 10 Y s 1152 1510 m 10 Y s 1191 1501 m 19 Y s 1229 1510 m 10 Y s 1268 1510 m 10 Y s 1306 1510 m 10 Y s 1345 1510 m 10 Y s
 1383 1501 m 19 Y s 1422 1510 m 10 Y s 1460 1510 m 10 Y s 1499 1510 m 10 Y s 1538 1510 m 10 Y s 1576 1501 m 19 Y s 1615 1510 m 10 Y s 1653 1510 m 10 Y s 1692 1510 m 10 Y s 1730 1510 m 10 Y s 1769 1501 m 19 Y s 1807 1510 m 10 Y s 1846 1510 m 10 Y s
 1884 1510 m 10 Y s 1923 1510 m 10 Y s 1962 1501 m 19 Y s 2000 1510 m 10 Y s 2039 1510 m 10 Y s 2077 1510 m 10 Y s 2116 1510 m 10 Y s 2154 1501 m 19 Y s 227 484 m 1036 Y s 248 615 m -21 X s 237 641 m -10 X s 237 667 m -10 X s 237 694 m -10 X s 237
 720 m -10 X s 248 746 m -21 X s 237 773 m -10 X s 237 799 m -10 X s 237 825 m -10 X s 237 851 m -10 X s 248 878 m -21 X s 237 904 m -10 X s 237 930 m -10 X s 237 957 m -10 X s 237 983 m -10 X s 248 1009 m -21 X s 237 1035 m -10 X s 237 1062 m -10 X
 s 237 1088 m -10 X s 237 1114 m -10 X s 248 1141 m -21 X s 237 1167 m -10 X s 237 1193 m -10 X s 237 1219 m -10 X s 237 1246 m -10 X s 248 1272 m -21 X s 237 1298 m -10 X s 237 1325 m -10 X s 237 1351 m -10 X s 237 1377 m -10 X s 248 1403 m -21 X s
 248 615 m -21 X s 237 589 m -10 X s 237 562 m -10 X s 237 536 m -10 X s 237 510 m -10 X s 248 1403 m -21 X s 237 1430 m -10 X s 237 1456 m -10 X s 237 1482 m -10 X s 237 1509 m -10 X s 2154 484 m 1036 Y s 2133 615 m 21 X s 2144 641 m 10 X s 2144 667
 m 10 X s 2144 694 m 10 X s 2144 720 m 10 X s 2133 746 m 21 X s 2144 773 m 10 X s 2144 799 m 10 X s 2144 825 m 10 X s 2144 851 m 10 X s 2133 878 m 21 X s 2144 904 m 10 X s 2144 930 m 10 X s 2144 957 m 10 X s 2144 983 m 10 X s 2133 1009 m 21 X s 2144
 1035 m 10 X s 2144 1062 m 10 X s 2144 1088 m 10 X s 2144 1114 m 10 X s 2133 1141 m 21 X s 2144 1167 m 10 X s 2144 1193 m 10 X s 2144 1219 m 10 X s 2144 1246 m 10 X s 2133 1272 m 21 X s 2144 1298 m 10 X s 2144 1325 m 10 X s 2144 1351 m 10 X s 2144
 1377 m 10 X s 2133 1403 m 21 X s 2133 615 m 21 X s 2144 589 m 10 X s 2144 562 m 10 X s 2144 536 m 10 X s 2144 510 m 10 X s 2133 1403 m 21 X s 2144 1430 m 10 X s 2144 1456 m 10 X s 2144 1482 m 10 X s 2144 1509 m 10 X s
 gsave  2268 1103 0 472 C 1314.45 1423.98 t 0 r /Helvetica findfont 56.3093 sf 0 0 m ( Data) show NC gr  1259 1451 m 10 Y s 1259 1427 m -10 Y s 1259 1439 m20
 gsave  2268 1103 0 472 C 1808.84 1423.98 t 0 r /Helvetica findfont 56.3093 sf 0 0 m (single\255top) show NC gr 
 gsave  2268 1103 0 472 C 1779.24 1423.98 t 0 r /Helvetica-Oblique findfont 56.3093 sf 0 0 m (/) show NC gr 
 gsave  2268 1103 0 472 C 1758.52 1423.98 t 0 r /Helvetica-Oblique findfont 56.3093 sf 0 0 m (t) show NC gr  6 lw 1759 1468 m 20 X s
 gsave  2268 1103 0 472 C 1737.79 1423.98 t 0 r /Helvetica-Oblique findfont 56.3093 sf 0 0 m (t) show NC gr 
 gsave  2268 1103 0 472 C 1720.03 1423.98 t 0 r /Helvetica findfont 56.3093 sf 0 0 m ( ) show NC gr  0.06 0.54 0.06 c 3 lw 1626 1413 m 79 X 52 Y -79 X f 6 lw black
 gsave  2268 1103 0 472 C 1444.71 1349.97 t 0 r /Helvetica findfont 56.3093 sf 0 0 m (+jets) show NC gr 
 gsave  2268 1103 0 472 C 1332.21 1349.97 t 0 r /Helvetica-Oblique findfont 56.3093 sf 0 0 m (W/Z) show NC gr 
 gsave  2268 1103 0 472 C 1314.45 1349.97 t 0 r /Helvetica findfont 56.3093 sf 0 0 m ( ) show NC gr  1 0.653333 0 c 3 lw 1219 1340 m 79 X 51 Y -79 X f black
 gsave  2268 1103 0 472 C 1918.38 1349.97 t 0 r /Helvetica findfont 56.3093 sf 0 0 m (+jets) show NC gr 
 gsave  2268 1103 0 472 C 1737.79 1349.97 t 0 r /Helvetica-Oblique findfont 56.3093 sf 0 0 m (WZ/ZZ) show NC gr 
 gsave  2268 1103 0 472 C 1720.03 1349.97 t 0 r /Helvetica findfont 56.3093 sf 0 0 m ( ) show NC gr  0.413333 1 0 c 3 lw 1626 1340 m 79 X 51 Y -79 X f black
 gsave  2268 1103 0 472 C 1373.66 1275.96 t 0 r /Helvetica-Oblique findfont 56.3093 sf 0 0 m (Z) show NC gr 
 gsave  2268 1103 0 472 C 1352.93 1275.96 t 0 r /Helvetica-Oblique findfont 56.3093 sf 0 0 m (t) show NC gr  6 lw 1353 1320 m 21 X s
 gsave  2268 1103 0 472 C 1332.21 1275.96 t 0 r /Helvetica-Oblique findfont 56.3093 sf 0 0 m (t) show NC gr 
 gsave  2268 1103 0 472 C 1314.45 1275.96 t 0 r /Helvetica findfont 56.3093 sf 0 0 m ( ) show NC gr  0.6 0.2 1 c 3 lw 1219 1266 m 79 X 52 Y -79 X f 6 lw black
 gsave  2268 1103 0 472 C 1779.24 1275.96 t 0 r /Helvetica-Oblique findfont 56.3093 sf 0 0 m (W) show NC gr 
 gsave  2268 1103 0 472 C 1758.52 1275.96 t 0 r /Helvetica-Oblique findfont 56.3093 sf 0 0 m (t) show NC gr  6 lw 1759 1320 m 20 X s
 gsave  2268 1103 0 472 C 1737.79 1275.96 t 0 r /Helvetica-Oblique findfont 56.3093 sf 0 0 m (t) show NC gr 
 gsave  2268 1103 0 472 C 1720.03 1275.96 t 0 r /Helvetica findfont 56.3093 sf 0 0 m ( ) show NC gr  0.54 0.06 0.06 c 3 lw 1626 1266 m 79 X 52 Y -79 X f 6 lw black
 gsave  2268 1103 0 472 C 1332.21 1204.91 t 0 r /Helvetica-Oblique findfont 56.3093 sf 0 0 m (tZq) show NC gr 
 gsave  2268 1103 0 472 C 1314.45 1204.91 t 0 r /Helvetica findfont 56.3093 sf 0 0 m ( ) show NC gr  1 0 1 c 3 lw 1219 1193 m 79 X 51 Y -79 X f black
 gsave  2268 1103 0 472 C 1779.24 1204.91 t 0 r /Helvetica-Oblique findfont 56.3093 sf 0 0 m (H) show NC gr 
 gsave  2268 1103 0 472 C 1758.52 1204.91 t 0 r /Helvetica-Oblique findfont 56.3093 sf 0 0 m (t) show NC gr  6 lw 1759 1249 m 20 X s
 gsave  2268 1103 0 472 C 1737.79 1204.91 t 0 r /Helvetica-Oblique findfont 56.3093 sf 0 0 m (t) show NC gr 
 gsave  2268 1103 0 472 C 1720.03 1204.91 t 0 r /Helvetica findfont 56.3093 sf 0 0 m ( ) show NC gr  0 0 1 c 3 lw 1626 1193 m 79 X 51 Y -79 X f 6 lw black
 gsave  2268 1103 0 472 C 1332.21 1130.9 t 0 r /Helvetica-Oblique findfont 56.3093 sf 0 0 m (tWZ/tWH) show NC gr 
 gsave  2268 1103 0 472 C 1314.45 1130.9 t 0 r /Helvetica findfont 56.3093 sf 0 0 m ( ) show NC gr  0.2 0.8 0.8 c 3 lw 1219 1119 m 79 X 52 Y -79 X f black
 gsave  2268 1103 0 472 C 1737.79 1130.9 t 0 r /Helvetica-Oblique findfont 56.3093 sf 0 0 m (tHq) show NC gr 
 gsave  2268 1103 0 472 C 1720.03 1130.9 t 0 r /Helvetica findfont 56.3093 sf 0 0 m ( ) show NC gr  1 0 0 c 3 lw 1626 1119 m 79 X 52 Y -79 X f black
 gsave  2268 1103 0 472 C 1314.45 1056.89 t 0 r /Helvetica findfont 56.3093 sf 0 0 m ( Other) show NC gr  1 0.84 0 c 3 lw 1219 1046 m 79 X 51 Y -79 X f black
 gsave  2268 1103 0 472 C 1720.03 1056.89 t 0 r /Helvetica findfont 56.3093 sf 0 0 m ( Uncertainty) show NC gr  0.6 0.6 0.6 c 3 lw 1705 1061 m -15 -15 d s 1705 1080 m -34 -34 d s 1703 1097 m -51 -51 d s 1684 1097 m -51 -51 d s 1665 1097 m -39 -39 d s
 1646 1097 m -20 -20 d s 1626 1097 m s 1 0.84 0 c 0.6 0.6 0.6 c black
 gsave  2268 1103 0 472 C 894.061 1329.25 t 0 r /Helvetica findfont 41.4911 sf 0 0 m (\2551) show NC gr 
 gsave  2268 1103 0 472 C 399.663 1299.64 t 0 r /Helvetica findfont 62.2366 sf 0 0 m ( = 13 TeV,  139 fb) show NC gr 
 gsave  2268 1103 0 472 C 370.058 1299.64 t 0 r /Helvetica findfont 62.2366 sf 0 0 m (s) show NC gr  6 lw 349 1335 m 6 -38 d s 3 lw 355 1297 m 6 56 d s 361 1353 m 39 X s
 gsave  2268 1103 0 472 C 947.349 1201.95 t 0 r /Helvetica findfont 62.2366 sf 0 0 m (\)) show NC gr 
 gsave  2268 1103 0 472 C 899.982 1201.95 t 0 r /Helvetica-Oblique findfont 62.2366 sf 0 0 m (Z) show NC gr 
 gsave  2268 1103 0 472 C 811.168 1201.95 t 0 r /Helvetica findfont 62.2366 sf 0 0 m (\255no) show NC gr 
 gsave  2268 1103 0 472 C 784.523 1201.95 t 0 r /Helvetica-Oblique findfont 62.2366 sf 0 0 m (j) show NC gr 
 gsave  2268 1103 0 472 C 751.958 1201.95 t 0 r /Helvetica findfont 62.2366 sf 0 0 m (3) show NC gr 
 gsave  2268 1103 0 472 C 713.472 1201.95 t 0 r /Helvetica-Oblique findfont 62.2366 sf 0 0 m (b) show NC gr 
 gsave  2268 1103 0 472 C 337.493 1201.95 t 0 r /Helvetica findfont 62.2366 sf 0 0 m ( 2L\(SS\), VR\(1) show NC gr 
 gsave  2268 1103 0 472 C 337.493 1400.3 t 0 r /Helvetica-BoldOblique findfont 71.1276 sf 0 0 m (ATLAS) show NC gr 
 gsave  2268 1103 0 472 C 633.54 1400.3 t 0 r /Helvetica findfont 71.1276 sf 0 0 m (Internal) show NC gr 
 gr  gr showpage
end
%%EOF
