%!PS-Adobe-2.0 EPSF-2.0
%%BoundingBox:  0 0 567 394
%%Title: : LepPt3_CRttbar
%%Creator: ROOT Version 6.20/06
%%CreationDate: Mon May 30 19:26:16 2022
%%DocumentNeededResources: ProcSet (FontSetInit)
%%EndComments
%%BeginProlog
80 dict begin
/s {stroke} def /l {lineto} def /m {moveto} def /t {translate} def
/r {rotate} def /rl {roll}  def /R {repeat} def
/d {rlineto} def /rm {rmoveto} def /gr {grestore} def /f {eofill} def
/c {setrgbcolor} def /black {0 setgray} def /sd {setdash} def
/cl {closepath} def /sf {scalefont setfont} def /lw {setlinewidth} def
/box {m dup 0 exch d exch 0 d 0 exch neg d cl} def
/NC{systemdict begin initclip end}def/C{NC box clip newpath}def
/bl {box s} def /bf {gsave box gsave f grestore 1 lw [] 0 sd s grestore} def /Y { 0 exch d} def /X { 0 d} def 
/K {{pop pop 0 moveto} exch kshow} bind def
/ita {/ang 15 def gsave [1 0 ang dup sin exch cos div 1 0 0] concat} def 
/mp {newpath /y exch def /x exch def} def
/side {[w .77 mul w .23 mul] .385 w mul sd w 0 l currentpoint t -144 r} def
/mr {mp x y w2 0 360 arc} def /m24 {mr s} def /m20 {mr f} def
/mb {mp x y w2 add m w2 neg 0 d 0 w neg d w 0 d 0 w d cl} def
/mt {mp x y w2 add m w2 neg w neg d w 0 d cl} def
/w4 {w 4 div} def
/w6 {w 6 div} def
/w8 {w 8 div} def
/m21 {mb f} def /m25 {mb s} def /m22 {mt f} def /m26{mt s} def
/m23 {mp x y w2 sub m w2 w d w neg 0 d cl f} def
/m27 {mp x y w2 add m w3 neg w2 neg d w3 w2 neg d w3 w2 d cl s} def
/m28 {mp x w2 sub y w2 sub w3 add m w3 0 d  0 w3 neg d w3 0 d 0 w3 d w3 0 d  0 w3 d w3 neg 0 d 0 w3 d w3 neg 0 d 0 w3 neg d w3 neg 0 d cl s } def
/m29 {mp gsave x w2 sub y w2 add w3 sub m currentpoint t 4 {side} repeat cl fill gr} def
/m30 {mp gsave x w2 sub y w2 add w3 sub m currentpoint t 4 {side} repeat cl s gr} def
/m31 {mp x y w2 sub m 0 w d x w2 sub y m w 0 d x w2 sub y w2 add m w w neg d x w2 sub y w2 sub m w w d s} def
/m32 {mp x y w2 sub m w2 w d w neg 0 d cl s} def
/m33 {mp x y w2 add m w3 neg w2 neg d w3 w2 neg d w3 w2 d cl f} def
/m34 {mp x w2 sub y w2 sub w3 add m w3 0 d  0 w3 neg d w3 0 d 0 w3 d w3 0 d  0 w3 d w3 neg 0 d 0 w3 d w3 neg 0 d 0 w3 neg d w3 neg 0 d cl f } def
/m35 {mp x y w2 add m w2 neg w2 neg d w2 w2 neg d w2 w2 d w2 neg w2 d x y w2 sub m 0 w d x w2 sub y m w 0 d s} def
/m36 {mb x w2 sub y w2 add m w w neg d x w2 sub y w2 sub m w w d s} def
/m37 {mp x y m w4 neg w2 d w4 neg w2 neg d w2 0 d  w4 neg w2 neg d w2 0 d w4 neg w2 d w2 0 d w4 neg w2 d w4 neg w2 neg d cl s} def
/m38 {mp x w4 sub y w2 add m w4 neg w4 neg d 0 w2 neg d w4 w4 neg d w2 0 d w4 w4 d 0 w2 d w4 neg w4 d w2 neg 0 d x y w2 sub m 0 w d x w2 sub y m w 0 d cl s} def
/m39 {mp x y m w4 neg w2 d w4 neg w2 neg d w2 0 d  w4 neg w2 neg d w2 0 d w4 neg w2 d w2 0 d w4 neg w2 d w4 neg w2 neg d cl f} def
/m40 {mp x y m w4 w2 d w4 w4 neg d w2 neg w4 neg d w2 w4 neg d w4 neg w4 neg d w4 neg w2 d w4 neg w2 neg d w4 neg w4 d w2 w4 d w2 neg w4 d w4 w4 d w4 w2 neg d cl s} def
/m41 {mp x y m w4 w2 d w4 w4 neg d w2 neg w4 neg d w2 w4 neg d w4 neg w4 neg d w4 neg w2 d w4 neg w2 neg d w4 neg w4 d w2 w4 d w2 neg w4 d w4 w4 d w4 w2 neg d cl f} def
/m42 {mp x y w2 add m w8 neg w2 -3 4 div mul d w2 -3 4 div mul w8 neg d w2 3 4 div mul w8 neg d w8 w2 -3 4 div mul d w8 w2 3 4 div mul d w2 3 4 div mul w8 d w2 -3 4 div mul w8 d w8 neg w2 3 4 div mul d cl s} def
/m43 {mp x y w2 add m w8 neg w2 -3 4 div mul d w2 -3 4 div mul w8 neg d w2 3 4 div mul w8 neg d w8 w2 -3 4 div mul d w8 w2 3 4 div mul d w2 3 4 div mul w8 d w2 -3 4 div mul w8 d w8 neg w2 3 4 div mul d cl f} def
/m44 {mp x y m w6 neg w2 d w2 2 3 div mul 0 d w6 neg w2 neg d w2 w6 d 0 w2 -2 3 div mul d w2 neg w6 d w6 w2 neg d w2 -2 3 div mul 0 d w6 w2 d w2 neg w6 neg d 0 w2 2 3 div mul d w2 w6 neg d cl s} def
/m45 {mp x y m w6 neg w2 d w2 2 3 div mul 0 d w6 neg w2 neg d w2 w6 d 0 w2 -2 3 div mul d w2 neg w6 d w6 w2 neg d w2 -2 3 div mul 0 d w6 w2 d w2 neg w6 neg d 0 w2 2 3 div mul d w2 w6 neg d cl f} def
/m46 {mp x y w4 add m w4 neg w4 d w4 neg w4 neg d  w4 w4 neg d w4 neg w4 neg d w4 w4 neg d w4 w4 d w4 w4 neg d w4 w4 d w4 neg w4 d w4 w4 d w4 neg w4 d w4 neg w4 neg d cl s} def
/m47 {mp x y w4 add m w4 neg w4 d w4 neg w4 neg d w4 w4 neg d w4 neg w4 neg d  w4 w4 neg d w4 w4 d w4 w4 neg d w4 w4 d w4 neg w4 d w4 w4 d w4 neg w4 d w4 neg w4 neg d cl f} def
/m48 {mp x y w4 add m w4 neg w4 d w4 neg w4 neg d w4 w4 neg d  w4 neg w4 neg d w4 w4 neg d w4 w4 d w4 w4 neg d w4 w4 d w4 neg w4 d w4 w4 d w4 neg w4 d w4 neg w4 neg d  w4 w4 neg d w4 neg w4 neg d w4 neg w4 d w4 w4 d cl f} def
/m49 {mp x w2 sub w3 add y w2 sub w3 add m  0 w3 neg d w3 0 d 0 w3 d w3 0 d 0 w3 d w3 neg 0 d 0 w3 d w3 neg 0 d 0 w3 neg d w3 neg 0 d 0 w3 neg d w3 0 d 0 w3 d w3 0 d 0 w3 neg d w3 neg 0 d cl f } def
/m2 {mp x y w2 sub m 0 w d x w2 sub y m w 0 d s} def
/m5 {mp x w2 sub y w2 sub m w w d x w2 sub y w2 add m w w neg d s} def
%%IncludeResource: ProcSet (FontSetInit)
%%IncludeResource: font Times-Roman
%%IncludeResource: font Times-Italic
%%IncludeResource: font Times-Bold
%%IncludeResource: font Times-BoldItalic
%%IncludeResource: font Helvetica
%%IncludeResource: font Helvetica-Oblique
%%IncludeResource: font Helvetica-Bold
%%IncludeResource: font Helvetica-BoldOblique
%%IncludeResource: font Courier
%%IncludeResource: font Courier-Oblique
%%IncludeResource: font Courier-Bold
%%IncludeResource: font Courier-BoldOblique
%%IncludeResource: font Symbol
%%IncludeResource: font ZapfDingbats
/reEncode {exch findfont dup length dict begin {1 index /FID eq  {pop pop} {def} ifelse } forall /Encoding exch def currentdict end dup /FontName get exch definefont pop } def [/Times-Bold /Times-Italic /Times-BoldItalic /Helvetica /Helvetica-Oblique
 /Helvetica-Bold /Helvetica-BoldOblique /Courier /Courier-Oblique /Courier-Bold /Courier-BoldOblique /Times-Roman /AvantGarde-Book /AvantGarde-BookOblique /AvantGarde-Demi /AvantGarde-DemiOblique /Bookman-Demi /Bookman-DemiItalic /Bookman-Light
 /Bookman-LightItalic /Helvetica-Narrow /Helvetica-Narrow-Bold /Helvetica-Narrow-BoldOblique /Helvetica-Narrow-Oblique /NewCenturySchlbk-Roman /NewCenturySchlbk-Bold /NewCenturySchlbk-BoldItalic /NewCenturySchlbk-Italic /Palatino-Bold
 /Palatino-BoldItalic /Palatino-Italic /Palatino-Roman ] {ISOLatin1Encoding reEncode } forall
%%EndProlog
%%BeginSetup
%%EndSetup
newpath  gsave  .25 .25 scale  gsave  0 0 t black[  ] 0 sd 3 lw 1 1 1 c 2268 1575 0 0 bf black 1 1 1 c 2268 472 0 0 bf black 1 1 1 c 1927 274 227 189 bf black 1927 274 227 189 bl 227 189 m 1927 X s 227 201 m -12 Y s 291 195 m -6 Y s 355 195 m -6 Y s
 420 195 m -6 Y s 484 201 m -12 Y s 548 195 m -6 Y s 612 195 m -6 Y s 677 195 m -6 Y s 741 201 m -12 Y s 805 195 m -6 Y s 869 195 m -6 Y s 934 195 m -6 Y s 998 201 m -12 Y s 1062 195 m -6 Y s 1126 195 m -6 Y s 1191 195 m -6 Y s 1255 201 m -12 Y s
 1319 195 m -6 Y s 1383 195 m -6 Y s 1448 195 m -6 Y s 1512 201 m -12 Y s 1576 195 m -6 Y s 1640 195 m -6 Y s 1705 195 m -6 Y s 1769 201 m -12 Y s 1833 195 m -6 Y s 1897 195 m -6 Y s 1962 195 m -6 Y s 2026 201 m -12 Y s 2026 201 m -12 Y s 2090 195 m
 -6 Y s 2154 195 m -6 Y s
 gsave  2268 472 0 0 C 210.193 127.3 t 0 r /Helvetica findfont 53.4895 sf 0 0 m (0) show NC gr 
 gsave  2268 472 0 0 C 452.951 127.3 t 0 r /Helvetica findfont 53.4895 sf 0 0 m (20) show NC gr 
 gsave  2268 472 0 0 C 710.512 127.3 t 0 r /Helvetica findfont 53.4895 sf 0 0 m (40) show NC gr 
 gsave  2268 472 0 0 C 968.072 127.3 t 0 r /Helvetica findfont 53.4895 sf 0 0 m (60) show NC gr 
 gsave  2268 472 0 0 C 1222.67 127.3 t 0 r /Helvetica findfont 53.4895 sf 0 0 m (80) show NC gr 
 gsave  2268 472 0 0 C 1465.43 127.3 t 0 r /Helvetica findfont 53.4895 sf 0 0 m (100) show NC gr 
 gsave  2268 472 0 0 C 1722.99 127.3 t 0 r /Helvetica findfont 53.4895 sf 0 0 m (120) show NC gr 
 gsave  2268 472 0 0 C 1980.55 127.3 t 0 r /Helvetica findfont 53.4895 sf 0 0 m (140) show NC gr 
 gsave  2268 472 0 0 C 1977.59 56.2488 t 0 r /Helvetica findfont 56.4611 sf 0 0 m (\) [GeV]) show NC gr 
 gsave  2268 472 0 0 C 1956.87 23.6837 t 0 r /Helvetica findfont 38.6313 sf 0 0 m (3) show NC gr 
 gsave  2268 472 0 0 C 1862.13 56.2488 t 0 r /Helvetica findfont 56.4611 sf 0 0 m (\(lep) show NC gr 
 gsave  2268 472 0 0 C 1838.45 23.6837 t 0 r /Helvetica findfont 38.6313 sf 0 0 m (T) show NC gr 
 gsave  2268 472 0 0 C 1802.92 56.2488 t 0 r /Helvetica-Oblique findfont 56.4611 sf 0 0 m (p) show NC gr  227 463 m 1927 X s 227 451 m 12 Y s 291 457 m 6 Y s 355 457 m 6 Y s 420 457 m 6 Y s 484 451 m 12 Y s 548 457 m 6 Y s 612 457 m 6 Y s 677 457 m 6
 Y s 741 451 m 12 Y s 805 457 m 6 Y s 869 457 m 6 Y s 934 457 m 6 Y s 998 451 m 12 Y s 1062 457 m 6 Y s 1126 457 m 6 Y s 1191 457 m 6 Y s 1255 451 m 12 Y s 1319 457 m 6 Y s 1383 457 m 6 Y s 1448 457 m 6 Y s 1512 451 m 12 Y s 1576 457 m 6 Y s 1640 457
 m 6 Y s 1705 457 m 6 Y s 1769 451 m 12 Y s 1833 457 m 6 Y s 1897 457 m 6 Y s 1962 457 m 6 Y s 2026 451 m 12 Y s 2026 451 m 12 Y s 2090 457 m 6 Y s 2154 457 m 6 Y s 227 189 m 274 Y s 240 240 m -13 X s 240 326 m -13 X s 240 412 m -13 X s 240 240 m -13
 X s 240 412 m -13 X s
 gsave  2268 472 0 0 C 118.419 222.035 t 0 r /Helvetica findfont 53.4895 sf 0 0 m (0.5) show NC gr 
 gsave  2268 472 0 0 C 171.707 307.888 t 0 r /Helvetica findfont 53.4895 sf 0 0 m (1) show NC gr 
 gsave  2268 472 0 0 C 118.419 393.742 t 0 r /Helvetica findfont 53.4895 sf 0 0 m (1.5) show NC gr 
 gsave  2268 472 0 0 C 71.0512 230.916 t 90 r /Helvetica findfont 53.4895 sf 0 0 m (Data / SM) show NC gr  2154 189 m 274 Y s 2141 240 m 13 X s 2141 326 m 13 X s 2141 412 m 13 X s 2141 240 m 13 X s 2141 412 m 13 X s 227 189 m 1927 X s 227 463 m 1927
 X s 227 189 m 274 Y s[ 4 8] 0 sd 2154 240 m -1927 X s 2154 326 m -1927 X s 2154 412 m -1927 X s 2154 240 m -1927 X s 2154 412 m -1927 X s[  ] 0 sd 2154 189 m 274 Y s 1 1 0.6 c 193 0 227 326 bf 192 0 420 326 bf 193 0 612 326 bf 193 0 805 326 bf 193 0
 998 326 bf 192 0 1191 326 bf 193 0 1383 326 bf 193 0 1576 326 bf 193 0 1769 326 bf 192 0 1962 326 bf black 0.6 0.6 0.6 c 402 326 m cl s 383 326 m cl s 363 326 m cl s 344 326 m cl s 325 326 m cl s 306 326 m cl s 286 326 m cl s 267 326 m cl s 248 326
 m cl s 229 326 m cl s 594 326 m cl s 575 326 m cl s 556 326 m cl s 536 326 m cl s 517 326 m cl s 498 326 m cl s 479 326 m cl s 459 326 m cl s 440 326 m cl s 421 326 m cl s 787 326 m cl s 767 326 m cl s 748 326 m cl s 729 326 m cl s 710 326 m cl s
 690 326 m cl s 671 326 m cl s 652 326 m cl s 633 326 m cl s 613 326 m cl s 979 326 m cl s 960 326 m cl s 941 326 m cl s 921 326 m cl s 902 326 m cl s 883 326 m cl s 864 326 m cl s 844 326 m cl s 825 326 m cl s 806 326 m cl s 1171 326 m cl s 1152 326
 m cl s 1133 326 m cl s 1114 326 m cl s 1094 326 m cl s 1075 326 m cl s 1056 326 m cl s 1037 326 m cl s 1018 326 m cl s 998 326 m cl s 1383 326 m cl s 1364 326 m cl s 1345 326 m cl s 1325 326 m cl s 1306 326 m cl s 1287 326 m cl s 1268 326 m cl s
 1248 326 m cl s 1229 326 m cl s 1210 326 m cl s 1191 326 m cl s 1576 326 m cl s 1556 326 m cl s 1537 326 m cl s 1518 326 m cl s 1499 326 m cl s 1479 326 m cl s 1460 326 m cl s 1441 326 m cl s 1422 326 m cl s 1402 326 m cl s 1768 326 m cl s 1749 326
 m cl s 1729 326 m cl s 1710 326 m cl s 1691 326 m cl s 1672 326 m cl s 1653 326 m cl s 1633 326 m cl s 1614 326 m cl s 1595 326 m cl s 1960 326 m cl s 1941 326 m cl s 1922 326 m cl s 1903 326 m cl s 1883 326 m cl s 1864 326 m cl s 1845 326 m cl s
 1826 326 m cl s 1806 326 m cl s 1787 326 m cl s 2153 326 m cl s 2134 326 m cl s 2114 326 m cl s 2095 326 m cl s 2076 326 m cl s 2057 326 m cl s 2037 326 m cl s 2018 326 m cl s 1999 326 m cl s 1980 326 m cl s black 1 1 1 c black /w 26 def /w2 {w 2
 div} def /w3 {w 3 div} def 323 341 m20 227 326 m 1927 X s 227 189 m 1927 X s 227 201 m -12 Y s 291 195 m -6 Y s 355 195 m -6 Y s 420 195 m -6 Y s 484 201 m -12 Y s 548 195 m -6 Y s 612 195 m -6 Y s 677 195 m -6 Y s 741 201 m -12 Y s 805 195 m -6 Y s
 869 195 m -6 Y s 934 195 m -6 Y s 998 201 m -12 Y s 1062 195 m -6 Y s 1126 195 m -6 Y s 1191 195 m -6 Y s 1255 201 m -12 Y s 1319 195 m -6 Y s 1383 195 m -6 Y s 1448 195 m -6 Y s 1512 201 m -12 Y s 1576 195 m -6 Y s 1640 195 m -6 Y s 1705 195 m -6 Y
 s 1769 201 m -12 Y s 1833 195 m -6 Y s 1897 195 m -6 Y s 1962 195 m -6 Y s 2026 201 m -12 Y s 2026 201 m -12 Y s 2090 195 m -6 Y s 2154 195 m -6 Y s 227 463 m 1927 X s 227 451 m 12 Y s 291 457 m 6 Y s 355 457 m 6 Y s 420 457 m 6 Y s 484 451 m 12 Y s
 548 457 m 6 Y s 612 457 m 6 Y s 677 457 m 6 Y s 741 451 m 12 Y s 805 457 m 6 Y s 869 457 m 6 Y s 934 457 m 6 Y s 998 451 m 12 Y s 1062 457 m 6 Y s 1126 457 m 6 Y s 1191 457 m 6 Y s 1255 451 m 12 Y s 1319 457 m 6 Y s 1383 457 m 6 Y s 1448 457 m 6 Y s
 1512 451 m 12 Y s 1576 457 m 6 Y s 1640 457 m 6 Y s 1705 457 m 6 Y s 1769 451 m 12 Y s 1833 457 m 6 Y s 1897 457 m 6 Y s 1962 457 m 6 Y s 2026 451 m 12 Y s 2026 451 m 12 Y s 2090 457 m 6 Y s 2154 457 m 6 Y s 227 189 m 274 Y s 240 240 m -13 X s 240
 326 m -13 X s 240 412 m -13 X s 240 240 m -13 X s 240 412 m -13 X s 2154 189 m 274 Y s 2141 240 m 13 X s 2141 326 m 13 X s 2141 412 m 13 X s 2141 240 m 13 X s 2141 412 m 13 X s 1 1 1 c 2268 1103 0 472 bf black 1 1 1 c 1927 1036 227 484 bf black 1927
 1036 227 484 bl 1 1 1 c black 3 lw 227 484 m 1927 X s 227 502 m -18 Y s 291 493 m -9 Y s 355 493 m -9 Y s 420 493 m -9 Y s 484 502 m -18 Y s 548 493 m -9 Y s 612 493 m -9 Y s 677 493 m -9 Y s 741 502 m -18 Y s 805 493 m -9 Y s 869 493 m -9 Y s 934
 493 m -9 Y s 998 502 m -18 Y s 1062 493 m -9 Y s 1126 493 m -9 Y s 1191 493 m -9 Y s 1255 502 m -18 Y s 1319 493 m -9 Y s 1383 493 m -9 Y s 1448 493 m -9 Y s 1512 502 m -18 Y s 1576 493 m -9 Y s 1640 493 m -9 Y s 1705 493 m -9 Y s 1769 502 m -18 Y s
 1833 493 m -9 Y s 1897 493 m -9 Y s 1962 493 m -9 Y s 2026 502 m -18 Y s 2026 502 m -18 Y s 2090 493 m -9 Y s 2154 493 m -9 Y s
 gsave  2268 1103 0 472 C 2060.48 408.544 t 0 r /Helvetica findfont 29.6365 sf 0 0 m (\) [GeV]) show NC gr 
 gsave  2268 1103 0 472 C 2048.64 390.781 t 0 r /Helvetica findfont 20.7455 sf 0 0 m (3) show NC gr 
 gsave  2268 1103 0 472 C 1998.31 408.544 t 0 r /Helvetica findfont 29.6365 sf 0 0 m (\(lep) show NC gr 
 gsave  2268 1103 0 472 C 1983.51 387.821 t 0 r /Helvetica findfont 20.7455 sf 0 0 m (T) show NC gr 
 gsave  2268 1103 0 472 C 1965.75 408.544 t 0 r /Helvetica-Oblique findfont 29.6365 sf 0 0 m (p) show NC gr  227 1520 m 1927 X s 227 1501 m 19 Y s 291 1510 m 10 Y s 355 1510 m 10 Y s 420 1510 m 10 Y s 484 1501 m 19 Y s 548 1510 m 10 Y s 612 1510 m 10
 Y s 677 1510 m 10 Y s 741 1501 m 19 Y s 805 1510 m 10 Y s 869 1510 m 10 Y s 934 1510 m 10 Y s 998 1501 m 19 Y s 1062 1510 m 10 Y s 1126 1510 m 10 Y s 1191 1510 m 10 Y s 1255 1501 m 19 Y s 1319 1510 m 10 Y s 1383 1510 m 10 Y s 1448 1510 m 10 Y s 1512
 1501 m 19 Y s 1576 1510 m 10 Y s 1640 1510 m 10 Y s 1705 1510 m 10 Y s 1769 1501 m 19 Y s 1833 1510 m 10 Y s 1897 1510 m 10 Y s 1962 1510 m 10 Y s 2026 1501 m 19 Y s 2026 1501 m 19 Y s 2090 1510 m 10 Y s 2154 1510 m 10 Y s 227 484 m 1036 Y s 248 583
 m -21 X s 237 608 m -10 X s 237 633 m -10 X s 237 658 m -10 X s 248 683 m -21 X s 237 708 m -10 X s 237 732 m -10 X s 237 757 m -10 X s 248 782 m -21 X s 237 807 m -10 X s 237 832 m -10 X s 237 857 m -10 X s 248 882 m -21 X s 237 907 m -10 X s 237
 932 m -10 X s 237 956 m -10 X s 248 981 m -21 X s 237 1006 m -10 X s 237 1031 m -10 X s 237 1056 m -10 X s 248 1081 m -21 X s 237 1106 m -10 X s 237 1131 m -10 X s 237 1156 m -10 X s 248 1181 m -21 X s 237 1205 m -10 X s 237 1230 m -10 X s 237 1255
 m -10 X s 248 1280 m -21 X s 237 1305 m -10 X s 237 1330 m -10 X s 237 1355 m -10 X s 248 1380 m -21 X s 237 1405 m -10 X s 237 1429 m -10 X s 237 1454 m -10 X s 248 1479 m -21 X s 248 583 m -21 X s 237 558 m -10 X s 237 533 m -10 X s 237 508 m -10
 X s 248 1479 m -21 X s 237 1504 m -10 X s
 gsave  2268 1103 0 472 C 118.419 562.488 t 0 r /Helvetica findfont 50.382 sf 0 0 m (200) show NC gr 
 gsave  2268 1103 0 472 C 118.419 663.144 t 0 r /Helvetica findfont 50.382 sf 0 0 m (400) show NC gr 
 gsave  2268 1103 0 472 C 118.419 763.8 t 0 r /Helvetica findfont 50.382 sf 0 0 m (600) show NC gr 
 gsave  2268 1103 0 472 C 118.419 861.495 t 0 r /Helvetica findfont 50.382 sf 0 0 m (800) show NC gr 
 gsave  2268 1103 0 472 C 91.7744 962.151 t 0 r /Helvetica findfont 50.382 sf 0 0 m (1000) show NC gr 
 gsave  2268 1103 0 472 C 91.7744 1062.81 t 0 r /Helvetica findfont 50.382 sf 0 0 m (1200) show NC gr 
 gsave  2268 1103 0 472 C 91.7744 1160.5 t 0 r /Helvetica findfont 50.382 sf 0 0 m (1400) show NC gr 
 gsave  2268 1103 0 472 C 91.7744 1261.16 t 0 r /Helvetica findfont 50.382 sf 0 0 m (1600) show NC gr 
 gsave  2268 1103 0 472 C 91.7744 1361.81 t 0 r /Helvetica findfont 50.382 sf 0 0 m (1800) show NC gr 
 gsave  2268 1103 0 472 C 91.7744 1459.51 t 0 r /Helvetica findfont 50.382 sf 0 0 m (2000) show NC gr 
 gsave  2268 1103 0 472 C 62.1698 1154.58 t 90 r /Helvetica findfont 50.382 sf 0 0 m (Events / 15 GeV) show NC gr  2154 484 m 1036 Y s 2133 583 m 21 X s 2144 608 m 10 X s 2144 633 m 10 X s 2144 658 m 10 X s 2133 683 m 21 X s 2144 708 m 10 X s 2144
 732 m 10 X s 2144 757 m 10 X s 2133 782 m 21 X s 2144 807 m 10 X s 2144 832 m 10 X s 2144 857 m 10 X s 2133 882 m 21 X s 2144 907 m 10 X s 2144 932 m 10 X s 2144 956 m 10 X s 2133 981 m 21 X s 2144 1006 m 10 X s 2144 1031 m 10 X s 2144 1056 m 10 X s
 2133 1081 m 21 X s 2144 1106 m 10 X s 2144 1131 m 10 X s 2144 1156 m 10 X s 2133 1181 m 21 X s 2144 1205 m 10 X s 2144 1230 m 10 X s 2144 1255 m 10 X s 2133 1280 m 21 X s 2144 1305 m 10 X s 2144 1330 m 10 X s 2144 1355 m 10 X s 2133 1380 m 21 X s
 2144 1405 m 10 X s 2144 1429 m 10 X s 2144 1454 m 10 X s 2133 1479 m 21 X s 2133 583 m 21 X s 2144 558 m 10 X s 2144 533 m 10 X s 2144 508 m 10 X s 2133 1479 m 21 X s 2144 1504 m 10 X s 0.06 0.54 0.06 c black 3 lw 0.06 0.54 0.06 c 227 484 m 414 Y
 193 X -414 Y 1734 X f 1 0.653333 0 c 0.999 0.999 0.999 c black 3 lw 0.999 0.999 0.999 c 227 484 m 187 Y 193 X -187 Y 1734 X f 1 0.653333 0 c 0.999 0.999 0.999 c 1 0.653333 0 c 1 1 1 c black 1 0.653333 0 c black 3 lw 1 0.653333 0 c 227 484 m 187 Y
 193 X -187 Y 1734 X f 0.413333 1 0 c 0.999 0.999 0.999 c black 3 lw 0.999 0.999 0.999 c 227 484 m 168 Y 193 X -168 Y 1734 X f 0.413333 1 0 c 0.999 0.999 0.999 c 0.413333 1 0 c 1 1 1 c black 0.413333 1 0 c black 3 lw 0.413333 1 0 c 227 484 m 168 Y
 193 X -168 Y 1734 X f 0.6 0.2 1 c 0.999 0.999 0.999 c black 3 lw 0.999 0.999 0.999 c 227 484 m 139 Y 193 X -139 Y 1734 X f 0.6 0.2 1 c 0.999 0.999 0.999 c 0.6 0.2 1 c 1 1 1 c black 0.6 0.2 1 c black 3 lw 0.6 0.2 1 c 227 484 m 139 Y 193 X -139 Y 1734
 X f 0.54 0.06 0.06 c 0.999 0.999 0.999 c black 3 lw 0.999 0.999 0.999 c 227 484 m 117 Y 193 X -117 Y 1734 X f 0.54 0.06 0.06 c 0.999 0.999 0.999 c 0.54 0.06 0.06 c 1 1 1 c black 0.54 0.06 0.06 c black 3 lw 0.54 0.06 0.06 c 227 484 m 117 Y 193 X -117
 Y 1734 X f 1 0 1 c 0.999 0.999 0.999 c black 3 lw 0.999 0.999 0.999 c 227 484 m 35 Y 193 X -35 Y 1734 X f 1 0 1 c 0.999 0.999 0.999 c 1 0 1 c 1 1 1 c black 1 0 1 c black 3 lw 1 0 1 c 227 484 m 35 Y 193 X -35 Y 1734 X f 0 0 1 c 0.999 0.999 0.999 c
 black 3 lw 0.999 0.999 0.999 c 227 484 m 22 Y 193 X -22 Y 1734 X f 0 0 1 c 0.999 0.999 0.999 c 0 0 1 c 1 1 1 c black 0 0 1 c black 3 lw 0 0 1 c 227 484 m 22 Y 193 X -22 Y 1734 X f 0.2 0.8 0.8 c 0.999 0.999 0.999 c black 3 lw 0.999 0.999 0.999 c 227
 484 m 6 Y 193 X -6 Y 1734 X f 0.2 0.8 0.8 c 0.999 0.999 0.999 c 0.2 0.8 0.8 c 1 1 1 c black 0.2 0.8 0.8 c black 3 lw 0.2 0.8 0.8 c 227 484 m 6 Y 193 X -6 Y 1734 X f 1 0 0 c 0.999 0.999 0.999 c black 3 lw 0.999 0.999 0.999 c 227 484 m 3 Y 193 X -3 Y
 1734 X f 1 0 0 c 0.999 0.999 0.999 c 1 0 0 c 1 1 1 c black 1 0 0 c black 3 lw 1 0 0 c 227 484 m 3 Y 193 X -3 Y 1734 X f 1 0.84 0 c 0.999 0.999 0.999 c black 3 lw 0.999 0.999 0.999 c 227 484 m 2 Y 193 X -2 Y 1734 X f 1 0.84 0 c 0.999 0.999 0.999 c 1
 0.84 0 c 1 1 1 c black 1 0.84 0 c black 3 lw 1 0.84 0 c 227 484 m 2 Y 193 X -2 Y 1734 X f black 1 1 1 c black 0.6 0.6 0.6 c 3 lw 407 898 m cl s 388 898 m cl s 369 898 m cl s 349 898 m cl s 330 898 m cl s 311 898 m cl s 292 898 m cl s 272 898 m cl s
 253 898 m cl s 234 898 m cl s black 3 lw 1 1 1 c black 323 919 m 3 Y s 323 945 m 4 Y s /w 24 def /w2 {w 2 div} def /w3 {w 3 div} def 323 934 m20 227 484 m 1927 X s 227 502 m -18 Y s 291 493 m -9 Y s 355 493 m -9 Y s 420 493 m -9 Y s 484 502 m -18 Y
 s 548 493 m -9 Y s 612 493 m -9 Y s 677 493 m -9 Y s 741 502 m -18 Y s 805 493 m -9 Y s 869 493 m -9 Y s 934 493 m -9 Y s 998 502 m -18 Y s 1062 493 m -9 Y s 1126 493 m -9 Y s 1191 493 m -9 Y s 1255 502 m -18 Y s 1319 493 m -9 Y s 1383 493 m -9 Y s
 1448 493 m -9 Y s 1512 502 m -18 Y s 1576 493 m -9 Y s 1640 493 m -9 Y s 1705 493 m -9 Y s 1769 502 m -18 Y s 1833 493 m -9 Y s 1897 493 m -9 Y s 1962 493 m -9 Y s 2026 502 m -18 Y s 2026 502 m -18 Y s 2090 493 m -9 Y s 2154 493 m -9 Y s 227 1520 m
 1927 X s 227 1501 m 19 Y s 291 1510 m 10 Y s 355 1510 m 10 Y s 420 1510 m 10 Y s 484 1501 m 19 Y s 548 1510 m 10 Y s 612 1510 m 10 Y s 677 1510 m 10 Y s 741 1501 m 19 Y s 805 1510 m 10 Y s 869 1510 m 10 Y s 934 1510 m 10 Y s 998 1501 m 19 Y s 1062
 1510 m 10 Y s 1126 1510 m 10 Y s 1191 1510 m 10 Y s 1255 1501 m 19 Y s 1319 1510 m 10 Y s 1383 1510 m 10 Y s 1448 1510 m 10 Y s 1512 1501 m 19 Y s 1576 1510 m 10 Y s 1640 1510 m 10 Y s 1705 1510 m 10 Y s 1769 1501 m 19 Y s 1833 1510 m 10 Y s 1897
 1510 m 10 Y s 1962 1510 m 10 Y s 2026 1501 m 19 Y s 2026 1501 m 19 Y s 2090 1510 m 10 Y s 2154 1510 m 10 Y s 227 484 m 1036 Y s 248 583 m -21 X s 237 608 m -10 X s 237 633 m -10 X s 237 658 m -10 X s 248 683 m -21 X s 237 708 m -10 X s 237 732 m -10
 X s 237 757 m -10 X s 248 782 m -21 X s 237 807 m -10 X s 237 832 m -10 X s 237 857 m -10 X s 248 882 m -21 X s 237 907 m -10 X s 237 932 m -10 X s 237 956 m -10 X s 248 981 m -21 X s 237 1006 m -10 X s 237 1031 m -10 X s 237 1056 m -10 X s 248 1081
 m -21 X s 237 1106 m -10 X s 237 1131 m -10 X s 237 1156 m -10 X s 248 1181 m -21 X s 237 1205 m -10 X s 237 1230 m -10 X s 237 1255 m -10 X s 248 1280 m -21 X s 237 1305 m -10 X s 237 1330 m -10 X s 237 1355 m -10 X s 248 1380 m -21 X s 237 1405 m
 -10 X s 237 1429 m -10 X s 237 1454 m -10 X s 248 1479 m -21 X s 248 583 m -21 X s 237 558 m -10 X s 237 533 m -10 X s 237 508 m -10 X s 248 1479 m -21 X s 237 1504 m -10 X s 2154 484 m 1036 Y s 2133 583 m 21 X s 2144 608 m 10 X s 2144 633 m 10 X s
 2144 658 m 10 X s 2133 683 m 21 X s 2144 708 m 10 X s 2144 732 m 10 X s 2144 757 m 10 X s 2133 782 m 21 X s 2144 807 m 10 X s 2144 832 m 10 X s 2144 857 m 10 X s 2133 882 m 21 X s 2144 907 m 10 X s 2144 932 m 10 X s 2144 956 m 10 X s 2133 981 m 21 X
 s 2144 1006 m 10 X s 2144 1031 m 10 X s 2144 1056 m 10 X s 2133 1081 m 21 X s 2144 1106 m 10 X s 2144 1131 m 10 X s 2144 1156 m 10 X s 2133 1181 m 21 X s 2144 1205 m 10 X s 2144 1230 m 10 X s 2144 1255 m 10 X s 2133 1280 m 21 X s 2144 1305 m 10 X s
 2144 1330 m 10 X s 2144 1355 m 10 X s 2133 1380 m 21 X s 2144 1405 m 10 X s 2144 1429 m 10 X s 2144 1454 m 10 X s 2133 1479 m 21 X s 2133 583 m 21 X s 2144 558 m 10 X s 2144 533 m 10 X s 2144 508 m 10 X s 2133 1479 m 21 X s 2144 1504 m 10 X s
 gsave  2268 1103 0 472 C 1314.45 1423.98 t 0 r /Helvetica findfont 56.3093 sf 0 0 m ( Data) show NC gr  1259 1451 m 10 Y s 1259 1427 m -10 Y s 1259 1439 m20
 gsave  2268 1103 0 472 C 1808.84 1423.98 t 0 r /Helvetica findfont 56.3093 sf 0 0 m (single\255top) show NC gr 
 gsave  2268 1103 0 472 C 1779.24 1423.98 t 0 r /Helvetica-Oblique findfont 56.3093 sf 0 0 m (/) show NC gr 
 gsave  2268 1103 0 472 C 1758.52 1423.98 t 0 r /Helvetica-Oblique findfont 56.3093 sf 0 0 m (t) show NC gr  6 lw 1759 1468 m 20 X s
 gsave  2268 1103 0 472 C 1737.79 1423.98 t 0 r /Helvetica-Oblique findfont 56.3093 sf 0 0 m (t) show NC gr 
 gsave  2268 1103 0 472 C 1720.03 1423.98 t 0 r /Helvetica findfont 56.3093 sf 0 0 m ( ) show NC gr  0.06 0.54 0.06 c 3 lw 1626 1413 m 79 X 52 Y -79 X f 6 lw black
 gsave  2268 1103 0 472 C 1444.71 1349.97 t 0 r /Helvetica findfont 56.3093 sf 0 0 m (+jets) show NC gr 
 gsave  2268 1103 0 472 C 1332.21 1349.97 t 0 r /Helvetica-Oblique findfont 56.3093 sf 0 0 m (W/Z) show NC gr 
 gsave  2268 1103 0 472 C 1314.45 1349.97 t 0 r /Helvetica findfont 56.3093 sf 0 0 m ( ) show NC gr  1 0.653333 0 c 3 lw 1219 1340 m 79 X 51 Y -79 X f black
 gsave  2268 1103 0 472 C 1918.38 1349.97 t 0 r /Helvetica findfont 56.3093 sf 0 0 m (+jets) show NC gr 
 gsave  2268 1103 0 472 C 1737.79 1349.97 t 0 r /Helvetica-Oblique findfont 56.3093 sf 0 0 m (WZ/ZZ) show NC gr 
 gsave  2268 1103 0 472 C 1720.03 1349.97 t 0 r /Helvetica findfont 56.3093 sf 0 0 m ( ) show NC gr  0.413333 1 0 c 3 lw 1626 1340 m 79 X 51 Y -79 X f black
 gsave  2268 1103 0 472 C 1373.66 1275.96 t 0 r /Helvetica-Oblique findfont 56.3093 sf 0 0 m (Z) show NC gr 
 gsave  2268 1103 0 472 C 1352.93 1275.96 t 0 r /Helvetica-Oblique findfont 56.3093 sf 0 0 m (t) show NC gr  6 lw 1353 1320 m 21 X s
 gsave  2268 1103 0 472 C 1332.21 1275.96 t 0 r /Helvetica-Oblique findfont 56.3093 sf 0 0 m (t) show NC gr 
 gsave  2268 1103 0 472 C 1314.45 1275.96 t 0 r /Helvetica findfont 56.3093 sf 0 0 m ( ) show NC gr  0.6 0.2 1 c 3 lw 1219 1266 m 79 X 52 Y -79 X f 6 lw black
 gsave  2268 1103 0 472 C 1779.24 1275.96 t 0 r /Helvetica-Oblique findfont 56.3093 sf 0 0 m (W) show NC gr 
 gsave  2268 1103 0 472 C 1758.52 1275.96 t 0 r /Helvetica-Oblique findfont 56.3093 sf 0 0 m (t) show NC gr  6 lw 1759 1320 m 20 X s
 gsave  2268 1103 0 472 C 1737.79 1275.96 t 0 r /Helvetica-Oblique findfont 56.3093 sf 0 0 m (t) show NC gr 
 gsave  2268 1103 0 472 C 1720.03 1275.96 t 0 r /Helvetica findfont 56.3093 sf 0 0 m ( ) show NC gr  0.54 0.06 0.06 c 3 lw 1626 1266 m 79 X 52 Y -79 X f 6 lw black
 gsave  2268 1103 0 472 C 1332.21 1204.91 t 0 r /Helvetica-Oblique findfont 56.3093 sf 0 0 m (tZq) show NC gr 
 gsave  2268 1103 0 472 C 1314.45 1204.91 t 0 r /Helvetica findfont 56.3093 sf 0 0 m ( ) show NC gr  1 0 1 c 3 lw 1219 1193 m 79 X 51 Y -79 X f black
 gsave  2268 1103 0 472 C 1779.24 1204.91 t 0 r /Helvetica-Oblique findfont 56.3093 sf 0 0 m (H) show NC gr 
 gsave  2268 1103 0 472 C 1758.52 1204.91 t 0 r /Helvetica-Oblique findfont 56.3093 sf 0 0 m (t) show NC gr  6 lw 1759 1249 m 20 X s
 gsave  2268 1103 0 472 C 1737.79 1204.91 t 0 r /Helvetica-Oblique findfont 56.3093 sf 0 0 m (t) show NC gr 
 gsave  2268 1103 0 472 C 1720.03 1204.91 t 0 r /Helvetica findfont 56.3093 sf 0 0 m ( ) show NC gr  0 0 1 c 3 lw 1626 1193 m 79 X 51 Y -79 X f 6 lw black
 gsave  2268 1103 0 472 C 1332.21 1130.9 t 0 r /Helvetica-Oblique findfont 56.3093 sf 0 0 m (tWZ/tWH) show NC gr 
 gsave  2268 1103 0 472 C 1314.45 1130.9 t 0 r /Helvetica findfont 56.3093 sf 0 0 m ( ) show NC gr  0.2 0.8 0.8 c 3 lw 1219 1119 m 79 X 52 Y -79 X f black
 gsave  2268 1103 0 472 C 1737.79 1130.9 t 0 r /Helvetica-Oblique findfont 56.3093 sf 0 0 m (tHq) show NC gr 
 gsave  2268 1103 0 472 C 1720.03 1130.9 t 0 r /Helvetica findfont 56.3093 sf 0 0 m ( ) show NC gr  1 0 0 c 3 lw 1626 1119 m 79 X 52 Y -79 X f black
 gsave  2268 1103 0 472 C 1314.45 1056.89 t 0 r /Helvetica findfont 56.3093 sf 0 0 m ( Other) show NC gr  1 0.84 0 c 3 lw 1219 1046 m 79 X 51 Y -79 X f black
 gsave  2268 1103 0 472 C 1720.03 1056.89 t 0 r /Helvetica findfont 56.3093 sf 0 0 m ( Uncertainty) show NC gr  0.6 0.6 0.6 c 3 lw 1705 1061 m -15 -15 d s 1705 1080 m -34 -34 d s 1703 1097 m -51 -51 d s 1684 1097 m -51 -51 d s 1665 1097 m -39 -39 d s
 1646 1097 m -20 -20 d s 1626 1097 m s 1 0.84 0 c 0.6 0.6 0.6 c black
 gsave  2268 1103 0 472 C 894.061 1329.25 t 0 r /Helvetica findfont 41.4911 sf 0 0 m (\2551) show NC gr 
 gsave  2268 1103 0 472 C 399.663 1299.64 t 0 r /Helvetica findfont 62.2366 sf 0 0 m ( = 13 TeV,  139 fb) show NC gr 
 gsave  2268 1103 0 472 C 370.058 1299.64 t 0 r /Helvetica findfont 62.2366 sf 0 0 m (s) show NC gr  6 lw 349 1335 m 6 -38 d s 3 lw 355 1297 m 6 56 d s 361 1353 m 39 X s
 gsave  2268 1103 0 472 C 899.982 1201.95 t 0 r /Helvetica findfont 62.2366 sf 0 0 m (\)) show NC gr 
 gsave  2268 1103 0 472 C 843.733 1169.38 t 0 r /Helvetica findfont 41.4911 sf 0 0 m (HF) show NC gr 
 gsave  2268 1103 0 472 C 337.493 1201.95 t 0 r /Helvetica findfont 62.2366 sf 0 0 m ( 2L\(SS\), CR\(el/mu) show NC gr 
 gsave  2268 1103 0 472 C 337.493 1400.3 t 0 r /Helvetica-BoldOblique findfont 71.1276 sf 0 0 m (ATLAS) show NC gr 
 gsave  2268 1103 0 472 C 633.54 1400.3 t 0 r /Helvetica findfont 71.1276 sf 0 0 m (Internal) show NC gr 
 gr  gr showpage
end
%%EOF
