%!PS-Adobe-2.0 EPSF-2.0
%%BoundingBox:  0 0 567 396
%%Title: : LepPt2_CR1b3jNoZ
%%Creator: ROOT Version 6.20/06
%%CreationDate: Tue May 31 15:03:55 2022
%%DocumentNeededResources: ProcSet (FontSetInit)
%%EndComments
%%BeginProlog
80 dict begin
/s {stroke} def /l {lineto} def /m {moveto} def /t {translate} def
/r {rotate} def /rl {roll}  def /R {repeat} def
/d {rlineto} def /rm {rmoveto} def /gr {grestore} def /f {eofill} def
/c {setrgbcolor} def /black {0 setgray} def /sd {setdash} def
/cl {closepath} def /sf {scalefont setfont} def /lw {setlinewidth} def
/box {m dup 0 exch d exch 0 d 0 exch neg d cl} def
/NC{systemdict begin initclip end}def/C{NC box clip newpath}def
/bl {box s} def /bf {gsave box gsave f grestore 1 lw [] 0 sd s grestore} def /Y { 0 exch d} def /X { 0 d} def 
/K {{pop pop 0 moveto} exch kshow} bind def
/ita {/ang 15 def gsave [1 0 ang dup sin exch cos div 1 0 0] concat} def 
/mp {newpath /y exch def /x exch def} def
/side {[w .77 mul w .23 mul] .385 w mul sd w 0 l currentpoint t -144 r} def
/mr {mp x y w2 0 360 arc} def /m24 {mr s} def /m20 {mr f} def
/mb {mp x y w2 add m w2 neg 0 d 0 w neg d w 0 d 0 w d cl} def
/mt {mp x y w2 add m w2 neg w neg d w 0 d cl} def
/w4 {w 4 div} def
/w6 {w 6 div} def
/w8 {w 8 div} def
/m21 {mb f} def /m25 {mb s} def /m22 {mt f} def /m26{mt s} def
/m23 {mp x y w2 sub m w2 w d w neg 0 d cl f} def
/m27 {mp x y w2 add m w3 neg w2 neg d w3 w2 neg d w3 w2 d cl s} def
/m28 {mp x w2 sub y w2 sub w3 add m w3 0 d  0 w3 neg d w3 0 d 0 w3 d w3 0 d  0 w3 d w3 neg 0 d 0 w3 d w3 neg 0 d 0 w3 neg d w3 neg 0 d cl s } def
/m29 {mp gsave x w2 sub y w2 add w3 sub m currentpoint t 4 {side} repeat cl fill gr} def
/m30 {mp gsave x w2 sub y w2 add w3 sub m currentpoint t 4 {side} repeat cl s gr} def
/m31 {mp x y w2 sub m 0 w d x w2 sub y m w 0 d x w2 sub y w2 add m w w neg d x w2 sub y w2 sub m w w d s} def
/m32 {mp x y w2 sub m w2 w d w neg 0 d cl s} def
/m33 {mp x y w2 add m w3 neg w2 neg d w3 w2 neg d w3 w2 d cl f} def
/m34 {mp x w2 sub y w2 sub w3 add m w3 0 d  0 w3 neg d w3 0 d 0 w3 d w3 0 d  0 w3 d w3 neg 0 d 0 w3 d w3 neg 0 d 0 w3 neg d w3 neg 0 d cl f } def
/m35 {mp x y w2 add m w2 neg w2 neg d w2 w2 neg d w2 w2 d w2 neg w2 d x y w2 sub m 0 w d x w2 sub y m w 0 d s} def
/m36 {mb x w2 sub y w2 add m w w neg d x w2 sub y w2 sub m w w d s} def
/m37 {mp x y m w4 neg w2 d w4 neg w2 neg d w2 0 d  w4 neg w2 neg d w2 0 d w4 neg w2 d w2 0 d w4 neg w2 d w4 neg w2 neg d cl s} def
/m38 {mp x w4 sub y w2 add m w4 neg w4 neg d 0 w2 neg d w4 w4 neg d w2 0 d w4 w4 d 0 w2 d w4 neg w4 d w2 neg 0 d x y w2 sub m 0 w d x w2 sub y m w 0 d cl s} def
/m39 {mp x y m w4 neg w2 d w4 neg w2 neg d w2 0 d  w4 neg w2 neg d w2 0 d w4 neg w2 d w2 0 d w4 neg w2 d w4 neg w2 neg d cl f} def
/m40 {mp x y m w4 w2 d w4 w4 neg d w2 neg w4 neg d w2 w4 neg d w4 neg w4 neg d w4 neg w2 d w4 neg w2 neg d w4 neg w4 d w2 w4 d w2 neg w4 d w4 w4 d w4 w2 neg d cl s} def
/m41 {mp x y m w4 w2 d w4 w4 neg d w2 neg w4 neg d w2 w4 neg d w4 neg w4 neg d w4 neg w2 d w4 neg w2 neg d w4 neg w4 d w2 w4 d w2 neg w4 d w4 w4 d w4 w2 neg d cl f} def
/m42 {mp x y w2 add m w8 neg w2 -3 4 div mul d w2 -3 4 div mul w8 neg d w2 3 4 div mul w8 neg d w8 w2 -3 4 div mul d w8 w2 3 4 div mul d w2 3 4 div mul w8 d w2 -3 4 div mul w8 d w8 neg w2 3 4 div mul d cl s} def
/m43 {mp x y w2 add m w8 neg w2 -3 4 div mul d w2 -3 4 div mul w8 neg d w2 3 4 div mul w8 neg d w8 w2 -3 4 div mul d w8 w2 3 4 div mul d w2 3 4 div mul w8 d w2 -3 4 div mul w8 d w8 neg w2 3 4 div mul d cl f} def
/m44 {mp x y m w6 neg w2 d w2 2 3 div mul 0 d w6 neg w2 neg d w2 w6 d 0 w2 -2 3 div mul d w2 neg w6 d w6 w2 neg d w2 -2 3 div mul 0 d w6 w2 d w2 neg w6 neg d 0 w2 2 3 div mul d w2 w6 neg d cl s} def
/m45 {mp x y m w6 neg w2 d w2 2 3 div mul 0 d w6 neg w2 neg d w2 w6 d 0 w2 -2 3 div mul d w2 neg w6 d w6 w2 neg d w2 -2 3 div mul 0 d w6 w2 d w2 neg w6 neg d 0 w2 2 3 div mul d w2 w6 neg d cl f} def
/m46 {mp x y w4 add m w4 neg w4 d w4 neg w4 neg d  w4 w4 neg d w4 neg w4 neg d w4 w4 neg d w4 w4 d w4 w4 neg d w4 w4 d w4 neg w4 d w4 w4 d w4 neg w4 d w4 neg w4 neg d cl s} def
/m47 {mp x y w4 add m w4 neg w4 d w4 neg w4 neg d w4 w4 neg d w4 neg w4 neg d  w4 w4 neg d w4 w4 d w4 w4 neg d w4 w4 d w4 neg w4 d w4 w4 d w4 neg w4 d w4 neg w4 neg d cl f} def
/m48 {mp x y w4 add m w4 neg w4 d w4 neg w4 neg d w4 w4 neg d  w4 neg w4 neg d w4 w4 neg d w4 w4 d w4 w4 neg d w4 w4 d w4 neg w4 d w4 w4 d w4 neg w4 d w4 neg w4 neg d  w4 w4 neg d w4 neg w4 neg d w4 neg w4 d w4 w4 d cl f} def
/m49 {mp x w2 sub w3 add y w2 sub w3 add m  0 w3 neg d w3 0 d 0 w3 d w3 0 d 0 w3 d w3 neg 0 d 0 w3 d w3 neg 0 d 0 w3 neg d w3 neg 0 d 0 w3 neg d w3 0 d 0 w3 d w3 0 d 0 w3 neg d w3 neg 0 d cl f } def
/m2 {mp x y w2 sub m 0 w d x w2 sub y m w 0 d s} def
/m5 {mp x w2 sub y w2 sub m w w d x w2 sub y w2 add m w w neg d s} def
%%IncludeResource: ProcSet (FontSetInit)
%%IncludeResource: font Times-Roman
%%IncludeResource: font Times-Italic
%%IncludeResource: font Times-Bold
%%IncludeResource: font Times-BoldItalic
%%IncludeResource: font Helvetica
%%IncludeResource: font Helvetica-Oblique
%%IncludeResource: font Helvetica-Bold
%%IncludeResource: font Helvetica-BoldOblique
%%IncludeResource: font Courier
%%IncludeResource: font Courier-Oblique
%%IncludeResource: font Courier-Bold
%%IncludeResource: font Courier-BoldOblique
%%IncludeResource: font Symbol
%%IncludeResource: font ZapfDingbats
/reEncode {exch findfont dup length dict begin {1 index /FID eq  {pop pop} {def} ifelse } forall /Encoding exch def currentdict end dup /FontName get exch definefont pop } def [/Times-Bold /Times-Italic /Times-BoldItalic /Helvetica /Helvetica-Oblique
 /Helvetica-Bold /Helvetica-BoldOblique /Courier /Courier-Oblique /Courier-Bold /Courier-BoldOblique /Times-Roman /AvantGarde-Book /AvantGarde-BookOblique /AvantGarde-Demi /AvantGarde-DemiOblique /Bookman-Demi /Bookman-DemiItalic /Bookman-Light
 /Bookman-LightItalic /Helvetica-Narrow /Helvetica-Narrow-Bold /Helvetica-Narrow-BoldOblique /Helvetica-Narrow-Oblique /NewCenturySchlbk-Roman /NewCenturySchlbk-Bold /NewCenturySchlbk-BoldItalic /NewCenturySchlbk-Italic /Palatino-Bold
 /Palatino-BoldItalic /Palatino-Italic /Palatino-Roman ] {ISOLatin1Encoding reEncode } forall
%%EndProlog
%%BeginSetup
%%EndSetup
newpath  gsave  .25 .25 scale  gsave  0 0 t black[  ] 0 sd 3 lw 1 1 1 c 2268 1583 0 0 bf black 1 1 1 c 2268 475 0 0 bf black 1 1 1 c 1927 275 227 190 bf black 1927 275 227 190 bl 227 190 m 1927 X s 227 202 m -12 Y s 304 196 m -6 Y s 381 196 m -6 Y s
 458 196 m -6 Y s 535 196 m -6 Y s 612 202 m -12 Y s 689 196 m -6 Y s 766 196 m -6 Y s 844 196 m -6 Y s 921 196 m -6 Y s 998 202 m -12 Y s 1075 196 m -6 Y s 1152 196 m -6 Y s 1229 196 m -6 Y s 1306 196 m -6 Y s 1383 202 m -12 Y s 1460 196 m -6 Y s
 1538 196 m -6 Y s 1615 196 m -6 Y s 1692 196 m -6 Y s 1769 202 m -12 Y s 1846 196 m -6 Y s 1923 196 m -6 Y s 2000 196 m -6 Y s 2077 196 m -6 Y s 2154 202 m -12 Y s
 gsave  2268 475 0 0 C 209.646 126.968 t 0 r /Helvetica findfont 53.4154 sf 0 0 m (0) show NC gr 
 gsave  2268 475 0 0 C 581.693 126.968 t 0 r /Helvetica findfont 53.4154 sf 0 0 m (50) show NC gr 
 gsave  2268 475 0 0 C 950.787 126.968 t 0 r /Helvetica findfont 53.4154 sf 0 0 m (100) show NC gr 
 gsave  2268 475 0 0 C 1337.6 126.968 t 0 r /Helvetica findfont 53.4154 sf 0 0 m (150) show NC gr 
 gsave  2268 475 0 0 C 1724.41 126.968 t 0 r /Helvetica findfont 53.4154 sf 0 0 m (200) show NC gr 
 gsave  2268 475 0 0 C 2108.27 126.968 t 0 r /Helvetica findfont 53.4154 sf 0 0 m (250) show NC gr 
 gsave  2268 475 0 0 C 1978.35 53.1496 t 0 r /Helvetica findfont 56.3829 sf 0 0 m (\) [GeV]) show NC gr 
 gsave  2268 475 0 0 C 1957.68 20.6693 t 0 r /Helvetica findfont 38.5778 sf 0 0 m (2) show NC gr 
 gsave  2268 475 0 0 C 1863.19 53.1496 t 0 r /Helvetica findfont 56.3829 sf 0 0 m (\(lep) show NC gr 
 gsave  2268 475 0 0 C 1839.57 20.6693 t 0 r /Helvetica findfont 38.5778 sf 0 0 m (T) show NC gr 
 gsave  2268 475 0 0 C 1804.13 53.1496 t 0 r /Helvetica-Oblique findfont 56.3829 sf 0 0 m (p) show NC gr  227 465 m 1927 X s 227 453 m 12 Y s 304 459 m 6 Y s 381 459 m 6 Y s 458 459 m 6 Y s 535 459 m 6 Y s 612 453 m 12 Y s 689 459 m 6 Y s 766 459 m 6
 Y s 844 459 m 6 Y s 921 459 m 6 Y s 998 453 m 12 Y s 1075 459 m 6 Y s 1152 459 m 6 Y s 1229 459 m 6 Y s 1306 459 m 6 Y s 1383 453 m 12 Y s 1460 459 m 6 Y s 1538 459 m 6 Y s 1615 459 m 6 Y s 1692 459 m 6 Y s 1769 453 m 12 Y s 1846 459 m 6 Y s 1923
 459 m 6 Y s 2000 459 m 6 Y s 2077 459 m 6 Y s 2154 453 m 12 Y s 227 190 m 275 Y s 240 242 m -13 X s 240 328 m -13 X s 240 414 m -13 X s 240 242 m -13 X s 240 414 m -13 X s
 gsave  2268 475 0 0 C 118.11 221.457 t 0 r /Helvetica findfont 53.4154 sf 0 0 m (0.5) show NC gr 
 gsave  2268 475 0 0 C 171.26 307.087 t 0 r /Helvetica findfont 53.4154 sf 0 0 m (1) show NC gr 
 gsave  2268 475 0 0 C 118.11 395.669 t 0 r /Helvetica findfont 53.4154 sf 0 0 m (1.5) show NC gr 
 gsave  2268 475 0 0 C 70.8661 233.268 t 90 r /Helvetica findfont 53.4154 sf 0 0 m (Data / SM) show NC gr  2154 190 m 275 Y s 2141 242 m 13 X s 2141 328 m 13 X s 2141 414 m 13 X s 2141 242 m 13 X s 2141 414 m 13 X s 227 190 m 1927 X s 227 465 m 1927
 X s 227 190 m 275 Y s[ 4 8] 0 sd 2154 242 m -1927 X s 2154 328 m -1927 X s 2154 414 m -1927 X s 2154 242 m -1927 X s 2154 414 m -1927 X s[  ] 0 sd 2154 190 m 275 Y s 1 1 0.6 c 193 0 227 328 bf 192 0 420 328 bf 193 0 612 328 bf 193 0 805 328 bf 193 0
 998 328 bf 192 0 1191 328 bf 193 0 1383 328 bf 193 0 1576 328 bf 193 0 1769 328 bf 192 0 1962 328 bf black 0.6 0.6 0.6 c 420 325 m -6 -6 d s 411 336 m -16 -17 d s 392 336 m -16 -17 d s 373 336 m -17 -17 d s 353 336 m -16 -17 d s 334 336 m -16 -17 d
 s 315 336 m -16 -17 d s 296 336 m -17 -17 d s 276 336 m -16 -17 d s 257 336 m -16 -17 d s 238 336 m -11 -11 d s 612 325 m -4 -4 d s 602 334 m -13 -13 d s 583 334 m -13 -13 d s 563 334 m -13 -13 d s 544 334 m -13 -13 d s 525 334 m -13 -13 d s 506 334
 m -13 -13 d s 486 334 m -13 -13 d s 467 334 m -13 -13 d s 448 334 m -13 -13 d s 429 334 m -9 -9 d s 805 326 m -5 -6 d s 795 335 m -14 -15 d s 776 335 m -15 -15 d s 757 335 m -15 -15 d s 737 335 m -14 -15 d s 718 335 m -14 -15 d s 699 335 m -15 -15 d
 s 680 335 m -15 -15 d s 660 335 m -14 -15 d s 641 335 m -14 -15 d s 622 335 m -10 -10 d s 998 326 m -7 -7 d s 989 336 m -17 -17 d s 970 336 m -18 -17 d s 950 336 m -17 -17 d s 931 336 m -17 -17 d s 912 336 m -17 -17 d s 893 336 m -18 -17 d s 873 336
 m -17 -17 d s 854 336 m -17 -17 d s 835 336 m -17 -17 d s 816 336 m -11 -10 d s 1191 326 m -12 -11 d s 1186 341 m -26 -26 d s 1166 341 m -26 -26 d s 1147 341 m -26 -26 d s 1128 341 m -26 -26 d s 1109 341 m -26 -26 d s 1089 341 m -25 -26 d s 1070 341
 m -26 -26 d s 1051 341 m -26 -26 d s 1032 341 m -26 -26 d s 1012 341 m -14 -15 d s 1383 307 m -1 -1 d s 1383 327 m -20 -21 d s 1383 346 m -39 -40 d s 1367 349 m -42 -43 d s 1348 349 m -42 -43 d s 1328 349 m -42 -43 d s 1309 349 m -42 -43 d s 1290
 349 m -42 -43 d s 1271 349 m -42 -43 d s 1251 349 m -42 -43 d s 1232 349 m -41 -42 d s 1213 349 m -22 -23 d s 1194 349 m -3 -3 d s 1576 308 m -7 -8 d s 1576 327 m -27 -27 d s 1576 346 m -46 -46 d s 1565 355 m -54 -55 d s 1546 355 m -54 -55 d s 1527
 355 m -54 -55 d s 1508 355 m -55 -55 d s 1489 355 m -55 -55 d s 1469 355 m -54 -55 d s 1450 355 m -54 -55 d s 1431 355 m -48 -48 d s 1412 355 m -29 -28 d s 1392 355 m -9 -9 d s 1769 289 m -5 -5 d s 1769 308 m -24 -24 d s 1769 327 m -43 -43 d s 1769
 347 m -62 -63 d s 1769 366 m -82 -82 d s 1755 371 m -87 -87 d s 1736 371 m -87 -87 d s 1716 371 m -86 -87 d s 1697 371 m -87 -87 d s 1678 371 m -87 -87 d s 1659 371 m -83 -83 d s 1639 371 m -63 -63 d s 1620 371 m -44 -44 d s 1601 371 m -25 -25 d s
 1582 371 m -6 -5 d s 1962 289 m -9 -9 d s 1962 308 m -29 -28 d s 1962 328 m -48 -48 d s 1962 347 m -67 -67 d s 1962 366 m -86 -86 d s 1951 375 m -95 -95 d s 1932 375 m -95 -95 d s 1913 375 m -95 -95 d s 1893 375 m -94 -95 d s 1874 375 m -94 -95 d s
 1855 375 m -86 -86 d s 1836 375 m -67 -67 d s 1817 375 m -48 -48 d s 1797 375 m -28 -28 d s 1778 375 m -9 -9 d s 2154 251 m -14 -15 d s 2154 270 m -33 -34 d s 2154 289 m -52 -53 d s 2154 309 m -72 -73 d s 2154 328 m -91 -92 d s 2154 347 m -110 -111
 d s 2154 367 m -129 -131 d s 2154 386 m -149 -150 d s 2154 405 m -168 -169 d s 2149 419 m -182 -183 d s 2129 419 m -167 -169 d s 2110 419 m -148 -149 d s 2091 419 m -129 -130 d s 2072 419 m -110 -111 d s 2052 419 m -90 -91 d s 2033 419 m -71 -72 d s
 2014 419 m -52 -53 d s 1995 419 m -33 -33 d s 1975 419 m -13 -14 d s black 1 1 1 c black 323 327 m 12 Y s 323 363 m 12 Y s /w 26 def /w2 {w 2 div} def /w3 {w 3 div} def 323 351 m20 516 329 m 1 Y s 516 353 m 2 Y s 516 342 m20 709 334 m 8 Y s 709 366
 m 9 Y s 709 354 m20 901 355 m 22 Y s 901 400 m 23 Y s 901 389 m20 1094 303 m 34 Y s 1094 360 m 34 Y s 1094 348 m20 1287 190 m 35 Y s 1287 248 m 35 Y s 1287 236 m20 1480 245 m 78 Y s 1480 346 m 78 Y s 1480 335 m20 1672 190 m 60 Y s 1672 273 m 95 Y s
 1672 262 m20 227 328 m 1927 X s 227 190 m 1927 X s 227 202 m -12 Y s 304 196 m -6 Y s 381 196 m -6 Y s 458 196 m -6 Y s 535 196 m -6 Y s 612 202 m -12 Y s 689 196 m -6 Y s 766 196 m -6 Y s 844 196 m -6 Y s 921 196 m -6 Y s 998 202 m -12 Y s 1075 196
 m -6 Y s 1152 196 m -6 Y s 1229 196 m -6 Y s 1306 196 m -6 Y s 1383 202 m -12 Y s 1460 196 m -6 Y s 1538 196 m -6 Y s 1615 196 m -6 Y s 1692 196 m -6 Y s 1769 202 m -12 Y s 1846 196 m -6 Y s 1923 196 m -6 Y s 2000 196 m -6 Y s 2077 196 m -6 Y s 2154
 202 m -12 Y s 227 465 m 1927 X s 227 453 m 12 Y s 304 459 m 6 Y s 381 459 m 6 Y s 458 459 m 6 Y s 535 459 m 6 Y s 612 453 m 12 Y s 689 459 m 6 Y s 766 459 m 6 Y s 844 459 m 6 Y s 921 459 m 6 Y s 998 453 m 12 Y s 1075 459 m 6 Y s 1152 459 m 6 Y s
 1229 459 m 6 Y s 1306 459 m 6 Y s 1383 453 m 12 Y s 1460 459 m 6 Y s 1538 459 m 6 Y s 1615 459 m 6 Y s 1692 459 m 6 Y s 1769 453 m 12 Y s 1846 459 m 6 Y s 1923 459 m 6 Y s 2000 459 m 6 Y s 2077 459 m 6 Y s 2154 453 m 12 Y s 227 190 m 275 Y s 240 242
 m -13 X s 240 328 m -13 X s 240 414 m -13 X s 240 242 m -13 X s 240 414 m -13 X s 2154 190 m 275 Y s 2141 242 m 13 X s 2141 328 m 13 X s 2141 414 m 13 X s 2141 242 m 13 X s 2141 414 m 13 X s 1 1 1 c 2268 1108 0 475 bf black 1 1 1 c 1927 1041 227 486
 bf black 1927 1041 227 486 bl 1 1 1 c black 3 lw 227 486 m 1927 X s 227 505 m -19 Y s 304 495 m -9 Y s 381 495 m -9 Y s 458 495 m -9 Y s 535 495 m -9 Y s 612 505 m -19 Y s 689 495 m -9 Y s 766 495 m -9 Y s 844 495 m -9 Y s 921 495 m -9 Y s 998 505 m
 -19 Y s 1075 495 m -9 Y s 1152 495 m -9 Y s 1229 495 m -9 Y s 1306 495 m -9 Y s 1383 505 m -19 Y s 1460 495 m -9 Y s 1538 495 m -9 Y s 1615 495 m -9 Y s 1692 495 m -9 Y s 1769 505 m -19 Y s 1846 495 m -9 Y s 1923 495 m -9 Y s 2000 495 m -9 Y s 2077
 495 m -9 Y s 2154 505 m -19 Y s
 gsave  2268 1108 0 475 C 2049.21 407.48 t 0 r /Helvetica findfont 32.4976 sf 0 0 m (\) [GeV]) show NC gr 
 gsave  2268 1108 0 475 C 2037.4 389.764 t 0 r /Helvetica findfont 20.6803 sf 0 0 m (2) show NC gr 
 gsave  2268 1108 0 475 C 1981.3 407.48 t 0 r /Helvetica findfont 32.4976 sf 0 0 m (\(lep) show NC gr 
 gsave  2268 1108 0 475 C 1966.54 389.764 t 0 r /Helvetica findfont 20.6803 sf 0 0 m (T) show NC gr 
 gsave  2268 1108 0 475 C 1945.87 407.48 t 0 r /Helvetica-Oblique findfont 32.4976 sf 0 0 m (p) show NC gr  227 1527 m 1927 X s 227 1508 m 19 Y s 304 1518 m 9 Y s 381 1518 m 9 Y s 458 1518 m 9 Y s 535 1518 m 9 Y s 612 1508 m 19 Y s 689 1518 m 9 Y s
 766 1518 m 9 Y s 844 1518 m 9 Y s 921 1518 m 9 Y s 998 1508 m 19 Y s 1075 1518 m 9 Y s 1152 1518 m 9 Y s 1229 1518 m 9 Y s 1306 1518 m 9 Y s 1383 1508 m 19 Y s 1460 1518 m 9 Y s 1538 1518 m 9 Y s 1615 1518 m 9 Y s 1692 1518 m 9 Y s 1769 1508 m 19 Y
 s 1846 1518 m 9 Y s 1923 1518 m 9 Y s 2000 1518 m 9 Y s 2077 1518 m 9 Y s 2154 1508 m 19 Y s 227 486 m 1041 Y s 248 633 m -21 X s 237 663 m -10 X s 237 692 m -10 X s 237 722 m -10 X s 237 751 m -10 X s 248 781 m -21 X s 237 810 m -10 X s 237 840 m
 -10 X s 237 869 m -10 X s 237 899 m -10 X s 248 928 m -21 X s 237 958 m -10 X s 237 987 m -10 X s 237 1017 m -10 X s 237 1046 m -10 X s 248 1076 m -21 X s 237 1105 m -10 X s 237 1135 m -10 X s 237 1164 m -10 X s 237 1194 m -10 X s 248 1223 m -21 X s
 237 1253 m -10 X s 237 1282 m -10 X s 237 1312 m -10 X s 237 1341 m -10 X s 248 1371 m -21 X s 237 1400 m -10 X s 237 1430 m -10 X s 237 1459 m -10 X s 237 1489 m -10 X s 248 1518 m -21 X s 248 633 m -21 X s 237 604 m -10 X s 237 574 m -10 X s 237
 545 m -10 X s 237 515 m -10 X s 248 1518 m -21 X s
 gsave  2268 1108 0 475 C 141.732 614.173 t 0 r /Helvetica findfont 53.178 sf 0 0 m (50) show NC gr 
 gsave  2268 1108 0 475 C 112.205 761.811 t 0 r /Helvetica findfont 53.178 sf 0 0 m (100) show NC gr 
 gsave  2268 1108 0 475 C 112.205 909.449 t 0 r /Helvetica findfont 53.178 sf 0 0 m (150) show NC gr 
 gsave  2268 1108 0 475 C 112.205 1057.09 t 0 r /Helvetica findfont 53.178 sf 0 0 m (200) show NC gr 
 gsave  2268 1108 0 475 C 112.205 1204.72 t 0 r /Helvetica findfont 53.178 sf 0 0 m (250) show NC gr 
 gsave  2268 1108 0 475 C 112.205 1352.36 t 0 r /Helvetica findfont 53.178 sf 0 0 m (300) show NC gr 
 gsave  2268 1108 0 475 C 112.205 1500 t 0 r /Helvetica findfont 53.178 sf 0 0 m (350) show NC gr 
 gsave  2268 1108 0 475 C 64.9606 1142.72 t 90 r /Helvetica findfont 53.178 sf 0 0 m (Events / 25 GeV) show NC gr  2154 486 m 1041 Y s 2133 633 m 21 X s 2144 663 m 10 X s 2144 692 m 10 X s 2144 722 m 10 X s 2144 751 m 10 X s 2133 781 m 21 X s 2144
 810 m 10 X s 2144 840 m 10 X s 2144 869 m 10 X s 2144 899 m 10 X s 2133 928 m 21 X s 2144 958 m 10 X s 2144 987 m 10 X s 2144 1017 m 10 X s 2144 1046 m 10 X s 2133 1076 m 21 X s 2144 1105 m 10 X s 2144 1135 m 10 X s 2144 1164 m 10 X s 2144 1194 m 10
 X s 2133 1223 m 21 X s 2144 1253 m 10 X s 2144 1282 m 10 X s 2144 1312 m 10 X s 2144 1341 m 10 X s 2133 1371 m 21 X s 2144 1400 m 10 X s 2144 1430 m 10 X s 2144 1459 m 10 X s 2144 1489 m 10 X s 2133 1518 m 21 X s 2133 633 m 21 X s 2144 604 m 10 X s
 2144 574 m 10 X s 2144 545 m 10 X s 2144 515 m 10 X s 2133 1518 m 21 X s 0.06 0.54 0.06 c black 3 lw 0.06 0.54 0.06 c 227 486 m 169 Y 193 X 379 Y 192 X -308 Y 193 X -138 Y 193 X -55 Y 193 X -28 Y 192 X -8 Y 193 X -6 Y 193 X -1 Y 385 X -4 Y f 1
 0.653333 0 c 0.999 0.999 0.999 c black 3 lw 0.999 0.999 0.999 c 227 486 m 66 Y 193 X 219 Y 192 X -160 Y 193 X -81 Y 193 X -27 Y 193 X -11 Y 192 X -2 Y 193 X -2 Y 193 X -1 Y 193 X 3 Y 192 X -4 Y f 1 0.653333 0 c 0.999 0.999 0.999 c 1 0.653333 0 c 1 1
 1 c black 1 0.653333 0 c black 3 lw 1 0.653333 0 c 227 486 m 66 Y 193 X 219 Y 192 X -160 Y 193 X -81 Y 193 X -27 Y 193 X -11 Y 192 X -2 Y 193 X -2 Y 193 X -1 Y 193 X 3 Y 192 X -4 Y f 0.413333 1 0 c 0.999 0.999 0.999 c black 3 lw 0.999 0.999 0.999 c
 227 486 m 53 Y 193 X 214 Y 192 X -143 Y 193 X -82 Y 193 X -26 Y 193 X -10 Y 192 X -3 Y 193 X -2 Y 578 X -1 Y f 0.413333 1 0 c 0.999 0.999 0.999 c 0.413333 1 0 c 1 1 1 c black 0.413333 1 0 c black 3 lw 0.413333 1 0 c 227 486 m 53 Y 193 X 214 Y 192 X
 -143 Y 193 X -82 Y 193 X -26 Y 193 X -10 Y 192 X -3 Y 193 X -2 Y 578 X -1 Y f 0.6 0.2 1 c 0.999 0.999 0.999 c black 3 lw 0.999 0.999 0.999 c 227 486 m 34 Y 193 X 138 Y 192 X -85 Y 193 X -58 Y 193 X -19 Y 193 X -6 Y 192 X -2 Y 193 X -1 Y 193 X -1 Y
 193 X 1 Y 192 X -1 Y f 0.6 0.2 1 c 0.999 0.999 0.999 c 0.6 0.2 1 c 1 1 1 c black 0.6 0.2 1 c black 3 lw 0.6 0.2 1 c 227 486 m 34 Y 193 X 138 Y 192 X -85 Y 193 X -58 Y 193 X -19 Y 193 X -6 Y 192 X -2 Y 193 X -1 Y 193 X -1 Y 193 X 1 Y 192 X -1 Y f
 0.54 0.06 0.06 c 0.999 0.999 0.999 c black 3 lw 0.999 0.999 0.999 c 227 486 m 30 Y 193 X 126 Y 192 X -77 Y 193 X -53 Y 193 X -17 Y 193 X -5 Y 192 X -2 Y 193 X -1 Y 193 X -1 Y 193 X 1 Y 192 X -1 Y f 0.54 0.06 0.06 c 0.999 0.999 0.999 c 0.54 0.06 0.06
 c 1 1 1 c black 0.54 0.06 0.06 c black 3 lw 0.54 0.06 0.06 c 227 486 m 30 Y 193 X 126 Y 192 X -77 Y 193 X -53 Y 193 X -17 Y 193 X -5 Y 192 X -2 Y 193 X -1 Y 193 X -1 Y 193 X 1 Y 192 X -1 Y f 1 0 1 c 0.999 0.999 0.999 c black 3 lw 0.999 0.999 0.999 c
 227 486 m 11 Y 193 X 39 Y 192 X -28 Y 193 X -16 Y 193 X -4 Y 193 X -2 Y 963 X f 1 0 1 c 0.999 0.999 0.999 c 1 0 1 c 1 1 1 c black 1 0 1 c black 3 lw 1 0 1 c 227 486 m 11 Y 193 X 39 Y 192 X -28 Y 193 X -16 Y 193 X -4 Y 193 X -2 Y 963 X f 0 0 1 c
 0.999 0.999 0.999 c black 3 lw 0.999 0.999 0.999 c 227 486 m 5 Y 193 X 17 Y 192 X -11 Y 193 X -8 Y 193 X -2 Y 193 X -1 Y 963 X f 0 0 1 c 0.999 0.999 0.999 c 0 0 1 c 1 1 1 c black 0 0 1 c black 3 lw 0 0 1 c 227 486 m 5 Y 193 X 17 Y 192 X -11 Y 193 X
 -8 Y 193 X -2 Y 193 X -1 Y 963 X f 0.2 0.8 0.8 c 0.999 0.999 0.999 c black 3 lw 0.999 0.999 0.999 c 227 486 m 3 Y 193 X 9 Y 192 X -6 Y 193 X -5 Y 193 X -1 Y 1156 X f 0.2 0.8 0.8 c 0.999 0.999 0.999 c 0.2 0.8 0.8 c 1 1 1 c black 0.2 0.8 0.8 c black 3
 lw 0.2 0.8 0.8 c 227 486 m 3 Y 193 X 9 Y 192 X -6 Y 193 X -5 Y 193 X -1 Y 1156 X f 1 0 0 c 0.999 0.999 0.999 c black 3 lw 0.999 0.999 0.999 c 227 486 m 2 Y 193 X 6 Y 192 X -4 Y 193 X -4 Y 1349 X f 1 0 0 c 0.999 0.999 0.999 c 1 0 0 c 1 1 1 c black 1
 0 0 c black 3 lw 1 0 0 c 227 486 m 2 Y 193 X 6 Y 192 X -4 Y 193 X -4 Y 1349 X f 1 0.84 0 c 0.999 0.999 0.999 c black 3 lw 0.999 0.999 0.999 c 227 486 m 1 Y 193 X 4 Y 192 X -2 Y 193 X -3 Y 1349 X f 1 0.84 0 c 0.999 0.999 0.999 c 1 0.84 0 c 1 1 1 c
 black 1 0.84 0 c black 3 lw 1 0.84 0 c 227 486 m 1 Y 193 X 4 Y 192 X -2 Y 193 X -3 Y 1349 X f black 1 1 1 c black 0.6 0.6 0.6 c 3 lw 419 663 m -16 -16 d s 400 663 m -16 -16 d s 381 663 m -16 -16 d s 361 663 m -16 -16 d s 342 663 m -16 -16 d s 323
 663 m -16 -16 d s 304 663 m -16 -16 d s 284 663 m -16 -16 d s 265 663 m -16 -16 d s 246 663 m -16 -16 d s 3 lw 612 1028 m -15 -15 d s 612 1047 m -34 -34 d s 601 1055 m -42 -42 d s 581 1055 m -42 -42 d s 562 1055 m -42 -42 d s 543 1055 m -42 -42 d s
 524 1055 m -42 -42 d s 504 1055 m -42 -42 d s 485 1055 m -42 -42 d s 466 1055 m -42 -42 d s 447 1055 m -27 -27 d s 428 1055 m -8 -8 d s 3 lw 805 721 m -5 -5 d s 801 736 m -21 -20 d s 781 736 m -20 -20 d s 762 736 m -20 -20 d s 743 736 m -20 -20 d s
 724 736 m -21 -20 d s 704 736 m -20 -20 d s 685 736 m -20 -20 d s 666 736 m -20 -20 d s 647 736 m -21 -20 d s 627 736 m -15 -15 d s 3 lw 998 587 m -4 -4 d s 985 593 m -11 -10 d s 965 593 m -10 -10 d s 946 593 m -10 -10 d s 927 593 m -10 -10 d s 908
 593 m -11 -10 d s 888 593 m -10 -10 d s 869 593 m -10 -10 d s 850 593 m -10 -10 d s 831 593 m -10 -10 d s 812 593 m -7 -6 d s 3 lw 1191 530 m -1 X s 1178 537 m -7 -7 d s 1159 537 m -7 -7 d s 1140 537 m -7 -7 d s 1120 537 m -7 -7 d s 1101 537 m -7 -7
 d s 1082 537 m -7 -7 d s 1063 537 m -7 -7 d s 1043 537 m -7 -7 d s 1024 537 m -7 -7 d s 1005 537 m -7 -7 d s 3 lw 1379 507 m -4 -5 d s 1360 507 m -5 -5 d s 1341 507 m -5 -5 d s 1321 507 m -4 -5 d s 1302 507 m -4 -5 d s 1283 507 m -5 -5 d s 1264 507
 m -5 -5 d s 1244 507 m -4 -5 d s 1225 507 m -4 -5 d s 1206 507 m -5 -5 d s 3 lw 1564 499 m -4 -4 d s 1544 499 m -3 -4 d s 1525 499 m -3 -4 d s 1506 499 m -4 -4 d s 1487 499 m -4 -4 d s 1467 499 m -3 -4 d s 1448 499 m -3 -4 d s 1429 499 m -4 -4 d s
 1410 499 m -4 -4 d s 1390 499 m -3 -4 d s 3 lw 1768 492 m -2 -3 d s 1749 492 m -3 -3 d s 1730 492 m -3 -3 d s 1710 492 m -2 -3 d s 1691 492 m -2 -3 d s 1672 492 m -3 -3 d s 1653 492 m -3 -3 d s 1633 492 m -2 -3 d s 1614 492 m -2 -3 d s 1595 492 m -2
 -3 d s 3 lw 1959 491 m -2 -3 d s 1940 491 m -2 -3 d s 1921 491 m -2 -3 d s 1901 491 m -2 -3 d s 1882 491 m -2 -3 d s 1863 491 m -2 -3 d s 1844 491 m -2 -3 d s 1825 491 m -3 -3 d s 1805 491 m -2 -3 d s 1786 491 m -2 -3 d s 3 lw 2154 493 m -5 -5 d s
 2135 493 m -5 -5 d s 2115 493 m -4 -5 d s 2096 493 m -5 -5 d s 2077 493 m -5 -5 d s 2058 493 m -5 -5 d s 2038 493 m -4 -5 d s 2019 493 m -5 -5 d s 2000 493 m -5 -5 d s 1981 493 m -5 -5 d s black 3 lw 1 1 1 c black 323 654 m 12 Y s 323 689 m 12 Y s
 /w 24 def /w2 {w 2 div} def /w3 {w 3 div} def 323 678 m20 516 1037 m 30 Y s 516 1090 m 30 Y s 516 1079 m20 709 734 m 17 Y s 709 775 m 17 Y s 709 763 m20 901 604 m 9 Y s 901 636 m 9 Y s 901 624 m20 1094 526 m 1 Y s 1094 551 m s 1094 539 m20 1287 495
 m20 1480 498 m20 1672 489 m20 1865 495 m20 227 486 m 1927 X s 227 505 m -19 Y s 304 495 m -9 Y s 381 495 m -9 Y s 458 495 m -9 Y s 535 495 m -9 Y s 612 505 m -19 Y s 689 495 m -9 Y s 766 495 m -9 Y s 844 495 m -9 Y s 921 495 m -9 Y s 998 505 m -19 Y
 s 1075 495 m -9 Y s 1152 495 m -9 Y s 1229 495 m -9 Y s 1306 495 m -9 Y s 1383 505 m -19 Y s 1460 495 m -9 Y s 1538 495 m -9 Y s 1615 495 m -9 Y s 1692 495 m -9 Y s 1769 505 m -19 Y s 1846 495 m -9 Y s 1923 495 m -9 Y s 2000 495 m -9 Y s 2077 495 m
 -9 Y s 2154 505 m -19 Y s 227 1527 m 1927 X s 227 1508 m 19 Y s 304 1518 m 9 Y s 381 1518 m 9 Y s 458 1518 m 9 Y s 535 1518 m 9 Y s 612 1508 m 19 Y s 689 1518 m 9 Y s 766 1518 m 9 Y s 844 1518 m 9 Y s 921 1518 m 9 Y s 998 1508 m 19 Y s 1075 1518 m 9
 Y s 1152 1518 m 9 Y s 1229 1518 m 9 Y s 1306 1518 m 9 Y s 1383 1508 m 19 Y s 1460 1518 m 9 Y s 1538 1518 m 9 Y s 1615 1518 m 9 Y s 1692 1518 m 9 Y s 1769 1508 m 19 Y s 1846 1518 m 9 Y s 1923 1518 m 9 Y s 2000 1518 m 9 Y s 2077 1518 m 9 Y s 2154 1508
 m 19 Y s 227 486 m 1041 Y s 248 633 m -21 X s 237 663 m -10 X s 237 692 m -10 X s 237 722 m -10 X s 237 751 m -10 X s 248 781 m -21 X s 237 810 m -10 X s 237 840 m -10 X s 237 869 m -10 X s 237 899 m -10 X s 248 928 m -21 X s 237 958 m -10 X s 237
 987 m -10 X s 237 1017 m -10 X s 237 1046 m -10 X s 248 1076 m -21 X s 237 1105 m -10 X s 237 1135 m -10 X s 237 1164 m -10 X s 237 1194 m -10 X s 248 1223 m -21 X s 237 1253 m -10 X s 237 1282 m -10 X s 237 1312 m -10 X s 237 1341 m -10 X s 248
 1371 m -21 X s 237 1400 m -10 X s 237 1430 m -10 X s 237 1459 m -10 X s 237 1489 m -10 X s 248 1518 m -21 X s 248 633 m -21 X s 237 604 m -10 X s 237 574 m -10 X s 237 545 m -10 X s 237 515 m -10 X s 248 1518 m -21 X s 2154 486 m 1041 Y s 2133 633 m
 21 X s 2144 663 m 10 X s 2144 692 m 10 X s 2144 722 m 10 X s 2144 751 m 10 X s 2133 781 m 21 X s 2144 810 m 10 X s 2144 840 m 10 X s 2144 869 m 10 X s 2144 899 m 10 X s 2133 928 m 21 X s 2144 958 m 10 X s 2144 987 m 10 X s 2144 1017 m 10 X s 2144
 1046 m 10 X s 2133 1076 m 21 X s 2144 1105 m 10 X s 2144 1135 m 10 X s 2144 1164 m 10 X s 2144 1194 m 10 X s 2133 1223 m 21 X s 2144 1253 m 10 X s 2144 1282 m 10 X s 2144 1312 m 10 X s 2144 1341 m 10 X s 2133 1371 m 21 X s 2144 1400 m 10 X s 2144
 1430 m 10 X s 2144 1459 m 10 X s 2144 1489 m 10 X s 2133 1518 m 21 X s 2133 633 m 21 X s 2144 604 m 10 X s 2144 574 m 10 X s 2144 545 m 10 X s 2144 515 m 10 X s 2133 1518 m 21 X s
 gsave  2268 1108 0 475 C 1313.98 1432.09 t 0 r /Helvetica findfont 56.1323 sf 0 0 m ( Data) show NC gr  1259 1458 m 10 Y s 1259 1434 m -10 Y s 1259 1446 m20
 gsave  2268 1108 0 475 C 1810.04 1432.09 t 0 r /Helvetica findfont 56.1323 sf 0 0 m (single\255top) show NC gr 
 gsave  2268 1108 0 475 C 1780.51 1432.09 t 0 r /Helvetica-Oblique findfont 56.1323 sf 0 0 m (/) show NC gr 
 gsave  2268 1108 0 475 C 1759.84 1432.09 t 0 r /Helvetica-Oblique findfont 56.1323 sf 0 0 m (t) show NC gr  6 lw 1760 1476 m 21 X s
 gsave  2268 1108 0 475 C 1739.17 1432.09 t 0 r /Helvetica-Oblique findfont 56.1323 sf 0 0 m (t) show NC gr 
 gsave  2268 1108 0 475 C 1721.46 1432.09 t 0 r /Helvetica findfont 56.1323 sf 0 0 m ( ) show NC gr  0.06 0.54 0.06 c 3 lw 1626 1420 m 79 X 52 Y -79 X f 6 lw black
 gsave  2268 1108 0 475 C 1443.9 1358.27 t 0 r /Helvetica findfont 56.1323 sf 0 0 m (+jets) show NC gr 
 gsave  2268 1108 0 475 C 1331.69 1358.27 t 0 r /Helvetica-Oblique findfont 56.1323 sf 0 0 m (W/Z) show NC gr 
 gsave  2268 1108 0 475 C 1313.98 1358.27 t 0 r /Helvetica findfont 56.1323 sf 0 0 m ( ) show NC gr  1 0.653333 0 c 3 lw 1219 1346 m 79 X 52 Y -79 X f black
 gsave  2268 1108 0 475 C 1919.29 1358.27 t 0 r /Helvetica findfont 56.1323 sf 0 0 m (+jets) show NC gr 
 gsave  2268 1108 0 475 C 1739.17 1358.27 t 0 r /Helvetica-Oblique findfont 56.1323 sf 0 0 m (WZ/ZZ) show NC gr 
 gsave  2268 1108 0 475 C 1721.46 1358.27 t 0 r /Helvetica findfont 56.1323 sf 0 0 m ( ) show NC gr  0.413333 1 0 c 3 lw 1626 1346 m 79 X 52 Y -79 X f black
 gsave  2268 1108 0 475 C 1373.03 1284.45 t 0 r /Helvetica-Oblique findfont 56.1323 sf 0 0 m (Z) show NC gr 
 gsave  2268 1108 0 475 C 1352.36 1284.45 t 0 r /Helvetica-Oblique findfont 56.1323 sf 0 0 m (t) show NC gr  6 lw 1352 1329 m 21 X s
 gsave  2268 1108 0 475 C 1331.69 1284.45 t 0 r /Helvetica-Oblique findfont 56.1323 sf 0 0 m (t) show NC gr 
 gsave  2268 1108 0 475 C 1313.98 1284.45 t 0 r /Helvetica findfont 56.1323 sf 0 0 m ( ) show NC gr  0.6 0.2 1 c 3 lw 1219 1272 m 79 X 52 Y -79 X f 6 lw black
 gsave  2268 1108 0 475 C 1780.51 1284.45 t 0 r /Helvetica-Oblique findfont 56.1323 sf 0 0 m (W) show NC gr 
 gsave  2268 1108 0 475 C 1759.84 1284.45 t 0 r /Helvetica-Oblique findfont 56.1323 sf 0 0 m (t) show NC gr  6 lw 1760 1329 m 21 X s
 gsave  2268 1108 0 475 C 1739.17 1284.45 t 0 r /Helvetica-Oblique findfont 56.1323 sf 0 0 m (t) show NC gr 
 gsave  2268 1108 0 475 C 1721.46 1284.45 t 0 r /Helvetica findfont 56.1323 sf 0 0 m ( ) show NC gr  0.54 0.06 0.06 c 3 lw 1626 1272 m 79 X 52 Y -79 X f 6 lw black
 gsave  2268 1108 0 475 C 1331.69 1210.63 t 0 r /Helvetica-Oblique findfont 56.1323 sf 0 0 m (tZq) show NC gr 
 gsave  2268 1108 0 475 C 1313.98 1210.63 t 0 r /Helvetica findfont 56.1323 sf 0 0 m ( ) show NC gr  1 0 1 c 3 lw 1219 1199 m 79 X 51 Y -79 X f black
 gsave  2268 1108 0 475 C 1780.51 1210.63 t 0 r /Helvetica-Oblique findfont 56.1323 sf 0 0 m (H) show NC gr 
 gsave  2268 1108 0 475 C 1759.84 1210.63 t 0 r /Helvetica-Oblique findfont 56.1323 sf 0 0 m (t) show NC gr  6 lw 1760 1255 m 21 X s
 gsave  2268 1108 0 475 C 1739.17 1210.63 t 0 r /Helvetica-Oblique findfont 56.1323 sf 0 0 m (t) show NC gr 
 gsave  2268 1108 0 475 C 1721.46 1210.63 t 0 r /Helvetica findfont 56.1323 sf 0 0 m ( ) show NC gr  0 0 1 c 3 lw 1626 1199 m 79 X 51 Y -79 X f 6 lw black
 gsave  2268 1108 0 475 C 1331.69 1136.81 t 0 r /Helvetica-Oblique findfont 56.1323 sf 0 0 m (tWZ/tWH) show NC gr 
 gsave  2268 1108 0 475 C 1313.98 1136.81 t 0 r /Helvetica findfont 56.1323 sf 0 0 m ( ) show NC gr  0.2 0.8 0.8 c 3 lw 1219 1125 m 79 X 51 Y -79 X f black
 gsave  2268 1108 0 475 C 1739.17 1136.81 t 0 r /Helvetica-Oblique findfont 56.1323 sf 0 0 m (tHq) show NC gr 
 gsave  2268 1108 0 475 C 1721.46 1136.81 t 0 r /Helvetica findfont 56.1323 sf 0 0 m ( ) show NC gr  1 0 0 c 3 lw 1626 1125 m 79 X 51 Y -79 X f black
 gsave  2268 1108 0 475 C 1313.98 1062.99 t 0 r /Helvetica findfont 56.1323 sf 0 0 m ( Other) show NC gr  1 0.84 0 c 3 lw 1219 1051 m 79 X 52 Y -79 X f black
 gsave  2268 1108 0 475 C 1721.46 1062.99 t 0 r /Helvetica findfont 56.1323 sf 0 0 m ( Uncertainty) show NC gr  0.6 0.6 0.6 c 3 lw 1705 1063 m -12 -12 d s 1705 1082 m -31 -31 d s 1705 1101 m -50 -50 d s 1687 1103 m -51 -52 d s 1668 1103 m -42 -43 d s
 1649 1103 m -23 -24 d s 1630 1103 m -4 -4 d s 1 0.84 0 c 0.6 0.6 0.6 c black
 gsave  2268 1108 0 475 C 894.685 1337.6 t 0 r /Helvetica findfont 41.3606 sf 0 0 m (\2551) show NC gr 
 gsave  2268 1108 0 475 C 401.575 1308.07 t 0 r /Helvetica findfont 62.0409 sf 0 0 m ( = 13 TeV,  139 fb) show NC gr 
 gsave  2268 1108 0 475 C 372.047 1308.07 t 0 r /Helvetica findfont 62.0409 sf 0 0 m (s) show NC gr  6 lw 351 1344 m 6 -39 d s 3 lw 357 1305 m 9 56 d s 366 1361 m 36 X s
 gsave  2268 1108 0 475 C 947.835 1207.68 t 0 r /Helvetica findfont 62.0409 sf 0 0 m (\)) show NC gr 
 gsave  2268 1108 0 475 C 900.591 1207.68 t 0 r /Helvetica-Oblique findfont 62.0409 sf 0 0 m (Z) show NC gr 
 gsave  2268 1108 0 475 C 812.008 1207.68 t 0 r /Helvetica findfont 62.0409 sf 0 0 m (\255no) show NC gr 
 gsave  2268 1108 0 475 C 785.433 1207.68 t 0 r /Helvetica-Oblique findfont 62.0409 sf 0 0 m (j) show NC gr 
 gsave  2268 1108 0 475 C 752.953 1207.68 t 0 r /Helvetica findfont 62.0409 sf 0 0 m (3) show NC gr 
 gsave  2268 1108 0 475 C 714.567 1207.68 t 0 r /Helvetica-Oblique findfont 62.0409 sf 0 0 m (b) show NC gr 
 gsave  2268 1108 0 475 C 339.567 1207.68 t 0 r /Helvetica findfont 62.0409 sf 0 0 m ( 2L\(SS\), VR\(1) show NC gr 
 gsave  2268 1108 0 475 C 339.567 1405.51 t 0 r /Helvetica-BoldOblique findfont 73.8583 sf 0 0 m (ATLAS) show NC gr 
 gsave  2268 1108 0 475 C 634.843 1405.51 t 0 r /Helvetica findfont 73.8583 sf 0 0 m (Internal) show NC gr 
 gr  gr showpage
end
%%EOF
