%!PS-Adobe-2.0 EPSF-2.0
%%BoundingBox:  0 0 567 396
%%Title: : LepPt2_CRfakes
%%Creator: ROOT Version 6.20/06
%%CreationDate: Tue May 31 15:03:54 2022
%%DocumentNeededResources: ProcSet (FontSetInit)
%%EndComments
%%BeginProlog
80 dict begin
/s {stroke} def /l {lineto} def /m {moveto} def /t {translate} def
/r {rotate} def /rl {roll}  def /R {repeat} def
/d {rlineto} def /rm {rmoveto} def /gr {grestore} def /f {eofill} def
/c {setrgbcolor} def /black {0 setgray} def /sd {setdash} def
/cl {closepath} def /sf {scalefont setfont} def /lw {setlinewidth} def
/box {m dup 0 exch d exch 0 d 0 exch neg d cl} def
/NC{systemdict begin initclip end}def/C{NC box clip newpath}def
/bl {box s} def /bf {gsave box gsave f grestore 1 lw [] 0 sd s grestore} def /Y { 0 exch d} def /X { 0 d} def 
/K {{pop pop 0 moveto} exch kshow} bind def
/ita {/ang 15 def gsave [1 0 ang dup sin exch cos div 1 0 0] concat} def 
/mp {newpath /y exch def /x exch def} def
/side {[w .77 mul w .23 mul] .385 w mul sd w 0 l currentpoint t -144 r} def
/mr {mp x y w2 0 360 arc} def /m24 {mr s} def /m20 {mr f} def
/mb {mp x y w2 add m w2 neg 0 d 0 w neg d w 0 d 0 w d cl} def
/mt {mp x y w2 add m w2 neg w neg d w 0 d cl} def
/w4 {w 4 div} def
/w6 {w 6 div} def
/w8 {w 8 div} def
/m21 {mb f} def /m25 {mb s} def /m22 {mt f} def /m26{mt s} def
/m23 {mp x y w2 sub m w2 w d w neg 0 d cl f} def
/m27 {mp x y w2 add m w3 neg w2 neg d w3 w2 neg d w3 w2 d cl s} def
/m28 {mp x w2 sub y w2 sub w3 add m w3 0 d  0 w3 neg d w3 0 d 0 w3 d w3 0 d  0 w3 d w3 neg 0 d 0 w3 d w3 neg 0 d 0 w3 neg d w3 neg 0 d cl s } def
/m29 {mp gsave x w2 sub y w2 add w3 sub m currentpoint t 4 {side} repeat cl fill gr} def
/m30 {mp gsave x w2 sub y w2 add w3 sub m currentpoint t 4 {side} repeat cl s gr} def
/m31 {mp x y w2 sub m 0 w d x w2 sub y m w 0 d x w2 sub y w2 add m w w neg d x w2 sub y w2 sub m w w d s} def
/m32 {mp x y w2 sub m w2 w d w neg 0 d cl s} def
/m33 {mp x y w2 add m w3 neg w2 neg d w3 w2 neg d w3 w2 d cl f} def
/m34 {mp x w2 sub y w2 sub w3 add m w3 0 d  0 w3 neg d w3 0 d 0 w3 d w3 0 d  0 w3 d w3 neg 0 d 0 w3 d w3 neg 0 d 0 w3 neg d w3 neg 0 d cl f } def
/m35 {mp x y w2 add m w2 neg w2 neg d w2 w2 neg d w2 w2 d w2 neg w2 d x y w2 sub m 0 w d x w2 sub y m w 0 d s} def
/m36 {mb x w2 sub y w2 add m w w neg d x w2 sub y w2 sub m w w d s} def
/m37 {mp x y m w4 neg w2 d w4 neg w2 neg d w2 0 d  w4 neg w2 neg d w2 0 d w4 neg w2 d w2 0 d w4 neg w2 d w4 neg w2 neg d cl s} def
/m38 {mp x w4 sub y w2 add m w4 neg w4 neg d 0 w2 neg d w4 w4 neg d w2 0 d w4 w4 d 0 w2 d w4 neg w4 d w2 neg 0 d x y w2 sub m 0 w d x w2 sub y m w 0 d cl s} def
/m39 {mp x y m w4 neg w2 d w4 neg w2 neg d w2 0 d  w4 neg w2 neg d w2 0 d w4 neg w2 d w2 0 d w4 neg w2 d w4 neg w2 neg d cl f} def
/m40 {mp x y m w4 w2 d w4 w4 neg d w2 neg w4 neg d w2 w4 neg d w4 neg w4 neg d w4 neg w2 d w4 neg w2 neg d w4 neg w4 d w2 w4 d w2 neg w4 d w4 w4 d w4 w2 neg d cl s} def
/m41 {mp x y m w4 w2 d w4 w4 neg d w2 neg w4 neg d w2 w4 neg d w4 neg w4 neg d w4 neg w2 d w4 neg w2 neg d w4 neg w4 d w2 w4 d w2 neg w4 d w4 w4 d w4 w2 neg d cl f} def
/m42 {mp x y w2 add m w8 neg w2 -3 4 div mul d w2 -3 4 div mul w8 neg d w2 3 4 div mul w8 neg d w8 w2 -3 4 div mul d w8 w2 3 4 div mul d w2 3 4 div mul w8 d w2 -3 4 div mul w8 d w8 neg w2 3 4 div mul d cl s} def
/m43 {mp x y w2 add m w8 neg w2 -3 4 div mul d w2 -3 4 div mul w8 neg d w2 3 4 div mul w8 neg d w8 w2 -3 4 div mul d w8 w2 3 4 div mul d w2 3 4 div mul w8 d w2 -3 4 div mul w8 d w8 neg w2 3 4 div mul d cl f} def
/m44 {mp x y m w6 neg w2 d w2 2 3 div mul 0 d w6 neg w2 neg d w2 w6 d 0 w2 -2 3 div mul d w2 neg w6 d w6 w2 neg d w2 -2 3 div mul 0 d w6 w2 d w2 neg w6 neg d 0 w2 2 3 div mul d w2 w6 neg d cl s} def
/m45 {mp x y m w6 neg w2 d w2 2 3 div mul 0 d w6 neg w2 neg d w2 w6 d 0 w2 -2 3 div mul d w2 neg w6 d w6 w2 neg d w2 -2 3 div mul 0 d w6 w2 d w2 neg w6 neg d 0 w2 2 3 div mul d w2 w6 neg d cl f} def
/m46 {mp x y w4 add m w4 neg w4 d w4 neg w4 neg d  w4 w4 neg d w4 neg w4 neg d w4 w4 neg d w4 w4 d w4 w4 neg d w4 w4 d w4 neg w4 d w4 w4 d w4 neg w4 d w4 neg w4 neg d cl s} def
/m47 {mp x y w4 add m w4 neg w4 d w4 neg w4 neg d w4 w4 neg d w4 neg w4 neg d  w4 w4 neg d w4 w4 d w4 w4 neg d w4 w4 d w4 neg w4 d w4 w4 d w4 neg w4 d w4 neg w4 neg d cl f} def
/m48 {mp x y w4 add m w4 neg w4 d w4 neg w4 neg d w4 w4 neg d  w4 neg w4 neg d w4 w4 neg d w4 w4 d w4 w4 neg d w4 w4 d w4 neg w4 d w4 w4 d w4 neg w4 d w4 neg w4 neg d  w4 w4 neg d w4 neg w4 neg d w4 neg w4 d w4 w4 d cl f} def
/m49 {mp x w2 sub w3 add y w2 sub w3 add m  0 w3 neg d w3 0 d 0 w3 d w3 0 d 0 w3 d w3 neg 0 d 0 w3 d w3 neg 0 d 0 w3 neg d w3 neg 0 d 0 w3 neg d w3 0 d 0 w3 d w3 0 d 0 w3 neg d w3 neg 0 d cl f } def
/m2 {mp x y w2 sub m 0 w d x w2 sub y m w 0 d s} def
/m5 {mp x w2 sub y w2 sub m w w d x w2 sub y w2 add m w w neg d s} def
%%IncludeResource: ProcSet (FontSetInit)
%%IncludeResource: font Times-Roman
%%IncludeResource: font Times-Italic
%%IncludeResource: font Times-Bold
%%IncludeResource: font Times-BoldItalic
%%IncludeResource: font Helvetica
%%IncludeResource: font Helvetica-Oblique
%%IncludeResource: font Helvetica-Bold
%%IncludeResource: font Helvetica-BoldOblique
%%IncludeResource: font Courier
%%IncludeResource: font Courier-Oblique
%%IncludeResource: font Courier-Bold
%%IncludeResource: font Courier-BoldOblique
%%IncludeResource: font Symbol
%%IncludeResource: font ZapfDingbats
/reEncode {exch findfont dup length dict begin {1 index /FID eq  {pop pop} {def} ifelse } forall /Encoding exch def currentdict end dup /FontName get exch definefont pop } def [/Times-Bold /Times-Italic /Times-BoldItalic /Helvetica /Helvetica-Oblique
 /Helvetica-Bold /Helvetica-BoldOblique /Courier /Courier-Oblique /Courier-Bold /Courier-BoldOblique /Times-Roman /AvantGarde-Book /AvantGarde-BookOblique /AvantGarde-Demi /AvantGarde-DemiOblique /Bookman-Demi /Bookman-DemiItalic /Bookman-Light
 /Bookman-LightItalic /Helvetica-Narrow /Helvetica-Narrow-Bold /Helvetica-Narrow-BoldOblique /Helvetica-Narrow-Oblique /NewCenturySchlbk-Roman /NewCenturySchlbk-Bold /NewCenturySchlbk-BoldItalic /NewCenturySchlbk-Italic /Palatino-Bold
 /Palatino-BoldItalic /Palatino-Italic /Palatino-Roman ] {ISOLatin1Encoding reEncode } forall
%%EndProlog
%%BeginSetup
%%EndSetup
newpath  gsave  .25 .25 scale  gsave  0 0 t black[  ] 0 sd 3 lw 1 1 1 c 2268 1583 0 0 bf black 1 1 1 c 2268 475 0 0 bf black 1 1 1 c 1927 275 227 190 bf black 1927 275 227 190 bl 227 190 m 1927 X s 227 202 m -12 Y s 304 196 m -6 Y s 381 196 m -6 Y s
 458 196 m -6 Y s 535 196 m -6 Y s 612 202 m -12 Y s 689 196 m -6 Y s 766 196 m -6 Y s 844 196 m -6 Y s 921 196 m -6 Y s 998 202 m -12 Y s 1075 196 m -6 Y s 1152 196 m -6 Y s 1229 196 m -6 Y s 1306 196 m -6 Y s 1383 202 m -12 Y s 1460 196 m -6 Y s
 1538 196 m -6 Y s 1615 196 m -6 Y s 1692 196 m -6 Y s 1769 202 m -12 Y s 1846 196 m -6 Y s 1923 196 m -6 Y s 2000 196 m -6 Y s 2077 196 m -6 Y s 2154 202 m -12 Y s
 gsave  2268 475 0 0 C 209.646 126.968 t 0 r /Helvetica findfont 53.4154 sf 0 0 m (0) show NC gr 
 gsave  2268 475 0 0 C 581.693 126.968 t 0 r /Helvetica findfont 53.4154 sf 0 0 m (50) show NC gr 
 gsave  2268 475 0 0 C 950.787 126.968 t 0 r /Helvetica findfont 53.4154 sf 0 0 m (100) show NC gr 
 gsave  2268 475 0 0 C 1337.6 126.968 t 0 r /Helvetica findfont 53.4154 sf 0 0 m (150) show NC gr 
 gsave  2268 475 0 0 C 1724.41 126.968 t 0 r /Helvetica findfont 53.4154 sf 0 0 m (200) show NC gr 
 gsave  2268 475 0 0 C 2108.27 126.968 t 0 r /Helvetica findfont 53.4154 sf 0 0 m (250) show NC gr 
 gsave  2268 475 0 0 C 1978.35 53.1496 t 0 r /Helvetica findfont 56.3829 sf 0 0 m (\) [GeV]) show NC gr 
 gsave  2268 475 0 0 C 1957.68 20.6693 t 0 r /Helvetica findfont 38.5778 sf 0 0 m (2) show NC gr 
 gsave  2268 475 0 0 C 1863.19 53.1496 t 0 r /Helvetica findfont 56.3829 sf 0 0 m (\(lep) show NC gr 
 gsave  2268 475 0 0 C 1839.57 20.6693 t 0 r /Helvetica findfont 38.5778 sf 0 0 m (T) show NC gr 
 gsave  2268 475 0 0 C 1804.13 53.1496 t 0 r /Helvetica-Oblique findfont 56.3829 sf 0 0 m (p) show NC gr  227 465 m 1927 X s 227 453 m 12 Y s 304 459 m 6 Y s 381 459 m 6 Y s 458 459 m 6 Y s 535 459 m 6 Y s 612 453 m 12 Y s 689 459 m 6 Y s 766 459 m 6
 Y s 844 459 m 6 Y s 921 459 m 6 Y s 998 453 m 12 Y s 1075 459 m 6 Y s 1152 459 m 6 Y s 1229 459 m 6 Y s 1306 459 m 6 Y s 1383 453 m 12 Y s 1460 459 m 6 Y s 1538 459 m 6 Y s 1615 459 m 6 Y s 1692 459 m 6 Y s 1769 453 m 12 Y s 1846 459 m 6 Y s 1923
 459 m 6 Y s 2000 459 m 6 Y s 2077 459 m 6 Y s 2154 453 m 12 Y s 227 190 m 275 Y s 240 242 m -13 X s 240 328 m -13 X s 240 414 m -13 X s 240 242 m -13 X s 240 414 m -13 X s
 gsave  2268 475 0 0 C 118.11 221.457 t 0 r /Helvetica findfont 53.4154 sf 0 0 m (0.5) show NC gr 
 gsave  2268 475 0 0 C 171.26 307.087 t 0 r /Helvetica findfont 53.4154 sf 0 0 m (1) show NC gr 
 gsave  2268 475 0 0 C 118.11 395.669 t 0 r /Helvetica findfont 53.4154 sf 0 0 m (1.5) show NC gr 
 gsave  2268 475 0 0 C 70.8661 233.268 t 90 r /Helvetica findfont 53.4154 sf 0 0 m (Data / SM) show NC gr  2154 190 m 275 Y s 2141 242 m 13 X s 2141 328 m 13 X s 2141 414 m 13 X s 2141 242 m 13 X s 2141 414 m 13 X s 227 190 m 1927 X s 227 465 m 1927
 X s 227 190 m 275 Y s[ 4 8] 0 sd 2154 242 m -1927 X s 2154 328 m -1927 X s 2154 414 m -1927 X s 2154 242 m -1927 X s 2154 414 m -1927 X s[  ] 0 sd 2154 190 m 275 Y s 1 1 0.6 c 193 0 227 328 bf 192 0 420 328 bf 193 0 612 328 bf 193 0 805 328 bf 193 0
 998 328 bf 192 0 1191 328 bf 193 0 1383 328 bf 193 0 1576 328 bf 193 0 1769 328 bf 192 0 1962 328 bf black 0.6 0.6 0.6 c 420 325 m -5 -5 d s 410 335 m -14 -15 d s 391 335 m -15 -15 d s 372 335 m -15 -15 d s 353 335 m -15 -15 d s 333 335 m -14 -15 d
 s 314 335 m -15 -15 d s 295 335 m -15 -15 d s 276 335 m -15 -15 d s 256 335 m -14 -15 d s 237 335 m -10 -10 d s 612 325 m -1 -1 d s 599 331 m -7 -7 d s 579 331 m -6 -7 d s 560 331 m -6 -7 d s 541 331 m -7 -7 d s 522 331 m -7 -7 d s 502 331 m -6 -7 d
 s 483 331 m -6 -7 d s 464 331 m -7 -7 d s 445 331 m -7 -7 d s 425 331 m -5 -6 d s 805 326 m -1 -1 d s 790 330 m -5 -5 d s 771 330 m -5 -5 d s 752 330 m -5 -5 d s 733 330 m -6 -5 d s 714 330 m -6 -5 d s 694 330 m -5 -5 d s 675 330 m -5 -5 d s 656 330
 m -6 -5 d s 637 330 m -6 -5 d s 617 330 m -5 -5 d s 998 326 m -3 -3 d s 985 332 m -9 -9 d s 965 332 m -9 -9 d s 946 332 m -9 -9 d s 927 332 m -9 -9 d s 908 332 m -9 -9 d s 889 332 m -10 -9 d s 869 332 m -9 -9 d s 850 332 m -9 -9 d s 831 332 m -9 -9
 d s 812 332 m -7 -6 d s 1191 326 m -5 -5 d s 1179 334 m -12 -13 d s 1160 334 m -13 -13 d s 1140 334 m -12 -13 d s 1121 334 m -12 -13 d s 1102 334 m -12 -13 d s 1083 334 m -13 -13 d s 1063 334 m -12 -13 d s 1044 334 m -12 -13 d s 1025 334 m -12 -13 d
 s 1006 334 m -8 -8 d s 1383 327 m -8 -9 d s 1375 337 m -20 -19 d s 1356 337 m -20 -19 d s 1336 337 m -19 -19 d s 1317 337 m -19 -19 d s 1298 337 m -20 -19 d s 1279 337 m -20 -19 d s 1259 337 m -19 -19 d s 1240 337 m -19 -19 d s 1221 337 m -20 -19 d
 s 1202 337 m -11 -11 d s 1576 327 m -11 -11 d s 1569 340 m -23 -24 d s 1550 340 m -24 -24 d s 1531 340 m -24 -24 d s 1512 340 m -24 -24 d s 1492 340 m -23 -24 d s 1473 340 m -24 -24 d s 1454 340 m -24 -24 d s 1435 340 m -24 -24 d s 1415 340 m -23
 -24 d s 1396 340 m -13 -13 d s 1769 327 m -19 -18 d s 1769 347 m -38 -38 d s 1750 347 m -38 -38 d s 1730 347 m -37 -38 d s 1711 347 m -38 -38 d s 1692 347 m -38 -38 d s 1673 347 m -38 -38 d s 1653 347 m -37 -38 d s 1634 347 m -38 -38 d s 1615 347 m
 -38 -38 d s 1596 347 m -20 -20 d s 1576 347 m -1 Y s 1962 289 m -2 -2 d s 1962 308 m -21 -21 d s 1962 328 m -40 -41 d s 1962 347 m -60 -60 d s 1962 366 m -79 -79 d s 1944 368 m -80 -81 d s 1925 368 m -80 -81 d s 1905 368 m -80 -81 d s 1886 368 m -80
 -81 d s 1867 368 m -80 -81 d s 1848 368 m -79 -79 d s 1828 368 m -59 -60 d s 1809 368 m -40 -41 d s 1790 368 m -21 -21 d s 1771 368 m -2 -2 d s 2154 328 m -14 -14 d s 2149 341 m -28 -27 d s 2129 341 m -27 -27 d s 2110 341 m -28 -27 d s 2091 341 m
 -28 -27 d s 2072 341 m -28 -27 d s 2052 341 m -27 -27 d s 2033 341 m -27 -27 d s 2014 341 m -28 -27 d s 1995 341 m -28 -27 d s 1975 341 m -13 -13 d s black 1 1 1 c black /w 26 def /w2 {w 2 div} def /w3 {w 3 div} def 323 339 m20 516 344 m20 709 349
 m20 901 322 m 3 Y s 901 348 m 3 Y s 901 337 m20 1094 345 m 12 Y s 1094 381 m 12 Y s 1094 369 m20 1287 254 m 13 Y s 1287 291 m 13 Y s 1287 279 m20 1480 292 m 32 Y s 1480 348 m 32 Y s 1480 336 m20 1672 303 m 56 Y s 1672 383 m 56 Y s 1672 371 m20 1865
 222 m 43 Y s 1865 288 m 43 Y s 1865 277 m20 2058 255 m 57 Y s 2058 336 m 57 Y s 2058 324 m20 227 328 m 1927 X s 227 190 m 1927 X s 227 202 m -12 Y s 304 196 m -6 Y s 381 196 m -6 Y s 458 196 m -6 Y s 535 196 m -6 Y s 612 202 m -12 Y s 689 196 m -6 Y
 s 766 196 m -6 Y s 844 196 m -6 Y s 921 196 m -6 Y s 998 202 m -12 Y s 1075 196 m -6 Y s 1152 196 m -6 Y s 1229 196 m -6 Y s 1306 196 m -6 Y s 1383 202 m -12 Y s 1460 196 m -6 Y s 1538 196 m -6 Y s 1615 196 m -6 Y s 1692 196 m -6 Y s 1769 202 m -12
 Y s 1846 196 m -6 Y s 1923 196 m -6 Y s 2000 196 m -6 Y s 2077 196 m -6 Y s 2154 202 m -12 Y s 227 465 m 1927 X s 227 453 m 12 Y s 304 459 m 6 Y s 381 459 m 6 Y s 458 459 m 6 Y s 535 459 m 6 Y s 612 453 m 12 Y s 689 459 m 6 Y s 766 459 m 6 Y s 844
 459 m 6 Y s 921 459 m 6 Y s 998 453 m 12 Y s 1075 459 m 6 Y s 1152 459 m 6 Y s 1229 459 m 6 Y s 1306 459 m 6 Y s 1383 453 m 12 Y s 1460 459 m 6 Y s 1538 459 m 6 Y s 1615 459 m 6 Y s 1692 459 m 6 Y s 1769 453 m 12 Y s 1846 459 m 6 Y s 1923 459 m 6 Y
 s 2000 459 m 6 Y s 2077 459 m 6 Y s 2154 453 m 12 Y s 227 190 m 275 Y s 240 242 m -13 X s 240 328 m -13 X s 240 414 m -13 X s 240 242 m -13 X s 240 414 m -13 X s 2154 190 m 275 Y s 2141 242 m 13 X s 2141 328 m 13 X s 2141 414 m 13 X s 2141 242 m 13
 X s 2141 414 m 13 X s 1 1 1 c 2268 1108 0 475 bf black 1 1 1 c 1927 1041 227 486 bf black 1927 1041 227 486 bl 1 1 1 c black 3 lw 227 486 m 1927 X s 227 505 m -19 Y s 304 495 m -9 Y s 381 495 m -9 Y s 458 495 m -9 Y s 535 495 m -9 Y s 612 505 m -19
 Y s 689 495 m -9 Y s 766 495 m -9 Y s 844 495 m -9 Y s 921 495 m -9 Y s 998 505 m -19 Y s 1075 495 m -9 Y s 1152 495 m -9 Y s 1229 495 m -9 Y s 1306 495 m -9 Y s 1383 505 m -19 Y s 1460 495 m -9 Y s 1538 495 m -9 Y s 1615 495 m -9 Y s 1692 495 m -9
 Y s 1769 505 m -19 Y s 1846 495 m -9 Y s 1923 495 m -9 Y s 2000 495 m -9 Y s 2077 495 m -9 Y s 2154 505 m -19 Y s
 gsave  2268 1108 0 475 C 2049.21 407.48 t 0 r /Helvetica findfont 32.4976 sf 0 0 m (\) [GeV]) show NC gr 
 gsave  2268 1108 0 475 C 2037.4 389.764 t 0 r /Helvetica findfont 20.6803 sf 0 0 m (2) show NC gr 
 gsave  2268 1108 0 475 C 1981.3 407.48 t 0 r /Helvetica findfont 32.4976 sf 0 0 m (\(lep) show NC gr 
 gsave  2268 1108 0 475 C 1966.54 389.764 t 0 r /Helvetica findfont 20.6803 sf 0 0 m (T) show NC gr 
 gsave  2268 1108 0 475 C 1945.87 407.48 t 0 r /Helvetica-Oblique findfont 32.4976 sf 0 0 m (p) show NC gr  227 1527 m 1927 X s 227 1508 m 19 Y s 304 1518 m 9 Y s 381 1518 m 9 Y s 458 1518 m 9 Y s 535 1518 m 9 Y s 612 1508 m 19 Y s 689 1518 m 9 Y s
 766 1518 m 9 Y s 844 1518 m 9 Y s 921 1518 m 9 Y s 998 1508 m 19 Y s 1075 1518 m 9 Y s 1152 1518 m 9 Y s 1229 1518 m 9 Y s 1306 1518 m 9 Y s 1383 1508 m 19 Y s 1460 1518 m 9 Y s 1538 1518 m 9 Y s 1615 1518 m 9 Y s 1692 1518 m 9 Y s 1769 1508 m 19 Y
 s 1846 1518 m 9 Y s 1923 1518 m 9 Y s 2000 1518 m 9 Y s 2077 1518 m 9 Y s 2154 1508 m 19 Y s 227 486 m 1041 Y s 248 601 m -21 X s 237 629 m -10 X s 237 658 m -10 X s 237 686 m -10 X s 248 715 m -21 X s 237 744 m -10 X s 237 772 m -10 X s 237 801 m
 -10 X s 248 830 m -21 X s 237 858 m -10 X s 237 887 m -10 X s 237 916 m -10 X s 248 944 m -21 X s 237 973 m -10 X s 237 1002 m -10 X s 237 1030 m -10 X s 248 1059 m -21 X s 237 1088 m -10 X s 237 1116 m -10 X s 237 1145 m -10 X s 248 1174 m -21 X s
 237 1202 m -10 X s 237 1231 m -10 X s 237 1260 m -10 X s 248 1288 m -21 X s 237 1317 m -10 X s 237 1346 m -10 X s 237 1374 m -10 X s 248 1403 m -21 X s 237 1432 m -10 X s 237 1460 m -10 X s 237 1489 m -10 X s 248 1518 m -21 X s 248 601 m -21 X s 237
 572 m -10 X s 237 543 m -10 X s 237 515 m -10 X s 248 1518 m -21 X s
 gsave  2268 1108 0 475 C 112.205 581.693 t 0 r /Helvetica findfont 53.178 sf 0 0 m (200) show NC gr 
 gsave  2268 1108 0 475 C 112.205 696.85 t 0 r /Helvetica findfont 53.178 sf 0 0 m (400) show NC gr 
 gsave  2268 1108 0 475 C 112.205 812.008 t 0 r /Helvetica findfont 53.178 sf 0 0 m (600) show NC gr 
 gsave  2268 1108 0 475 C 112.205 924.213 t 0 r /Helvetica findfont 53.178 sf 0 0 m (800) show NC gr 
 gsave  2268 1108 0 475 C 82.6772 1039.37 t 0 r /Helvetica findfont 53.178 sf 0 0 m (1000) show NC gr 
 gsave  2268 1108 0 475 C 82.6772 1154.53 t 0 r /Helvetica findfont 53.178 sf 0 0 m (1200) show NC gr 
 gsave  2268 1108 0 475 C 82.6772 1269.69 t 0 r /Helvetica findfont 53.178 sf 0 0 m (1400) show NC gr 
 gsave  2268 1108 0 475 C 82.6772 1384.84 t 0 r /Helvetica findfont 53.178 sf 0 0 m (1600) show NC gr 
 gsave  2268 1108 0 475 C 82.6772 1497.05 t 0 r /Helvetica findfont 53.178 sf 0 0 m (1800) show NC gr 
 gsave  2268 1108 0 475 C 64.9606 1142.72 t 90 r /Helvetica findfont 53.178 sf 0 0 m (Events / 25 GeV) show NC gr  2154 486 m 1041 Y s 2133 601 m 21 X s 2144 629 m 10 X s 2144 658 m 10 X s 2144 686 m 10 X s 2133 715 m 21 X s 2144 744 m 10 X s 2144
 772 m 10 X s 2144 801 m 10 X s 2133 830 m 21 X s 2144 858 m 10 X s 2144 887 m 10 X s 2144 916 m 10 X s 2133 944 m 21 X s 2144 973 m 10 X s 2144 1002 m 10 X s 2144 1030 m 10 X s 2133 1059 m 21 X s 2144 1088 m 10 X s 2144 1116 m 10 X s 2144 1145 m 10
 X s 2133 1174 m 21 X s 2144 1202 m 10 X s 2144 1231 m 10 X s 2144 1260 m 10 X s 2133 1288 m 21 X s 2144 1317 m 10 X s 2144 1346 m 10 X s 2144 1374 m 10 X s 2133 1403 m 21 X s 2144 1432 m 10 X s 2144 1460 m 10 X s 2144 1489 m 10 X s 2133 1518 m 21 X
 s 2133 601 m 21 X s 2144 572 m 10 X s 2144 543 m 10 X s 2144 515 m 10 X s 2133 1518 m 21 X s 0.06 0.54 0.06 c black 3 lw 0.06 0.54 0.06 c 227 486 m 146 Y 193 X 402 Y 192 X -335 Y 193 X -131 Y 193 X -46 Y 193 X -17 Y 192 X -10 Y 193 X -5 Y 386 X -1 Y
 192 X -3 Y f 1 0.653333 0 c 0.999 0.999 0.999 c black 3 lw 0.999 0.999 0.999 c 227 486 m 80 Y 193 X 267 Y 192 X -211 Y 193 X -90 Y 193 X -28 Y 193 X -8 Y 192 X -6 Y 193 X -2 Y 578 X -2 Y f 1 0.653333 0 c 0.999 0.999 0.999 c 1 0.653333 0 c 1 1 1 c
 black 1 0.653333 0 c black 3 lw 1 0.653333 0 c 227 486 m 80 Y 193 X 267 Y 192 X -211 Y 193 X -90 Y 193 X -28 Y 193 X -8 Y 192 X -6 Y 193 X -2 Y 578 X -2 Y f 0.413333 1 0 c 0.999 0.999 0.999 c black 3 lw 0.999 0.999 0.999 c 227 486 m 55 Y 193 X 221 Y
 192 X -158 Y 193 X -77 Y 193 X -26 Y 193 X -8 Y 192 X -4 Y 193 X -2 Y 578 X -1 Y f 0.413333 1 0 c 0.999 0.999 0.999 c 0.413333 1 0 c 1 1 1 c black 0.413333 1 0 c black 3 lw 0.413333 1 0 c 227 486 m 55 Y 193 X 221 Y 192 X -158 Y 193 X -77 Y 193 X -26
 Y 193 X -8 Y 192 X -4 Y 193 X -2 Y 578 X -1 Y f 0.6 0.2 1 c 0.999 0.999 0.999 c black 3 lw 0.999 0.999 0.999 c 227 486 m 41 Y 193 X 177 Y 192 X -119 Y 193 X -65 Y 193 X -21 Y 193 X -7 Y 192 X -4 Y 193 X -1 Y 578 X -1 Y f 0.6 0.2 1 c 0.999 0.999
 0.999 c 0.6 0.2 1 c 1 1 1 c black 0.6 0.2 1 c black 3 lw 0.6 0.2 1 c 227 486 m 41 Y 193 X 177 Y 192 X -119 Y 193 X -65 Y 193 X -21 Y 193 X -7 Y 192 X -4 Y 193 X -1 Y 578 X -1 Y f 0.54 0.06 0.06 c 0.999 0.999 0.999 c black 3 lw 0.999 0.999 0.999 c
 227 486 m 35 Y 193 X 154 Y 192 X -103 Y 193 X -57 Y 193 X -18 Y 193 X -6 Y 192 X -3 Y 193 X -1 Y 193 X -1 Y 193 X 1 Y 192 X -1 Y f 0.54 0.06 0.06 c 0.999 0.999 0.999 c 0.54 0.06 0.06 c 1 1 1 c black 0.54 0.06 0.06 c black 3 lw 0.54 0.06 0.06 c 227
 486 m 35 Y 193 X 154 Y 192 X -103 Y 193 X -57 Y 193 X -18 Y 193 X -6 Y 192 X -3 Y 193 X -1 Y 193 X -1 Y 193 X 1 Y 192 X -1 Y f 1 0 1 c 0.999 0.999 0.999 c black 3 lw 0.999 0.999 0.999 c 227 486 m 10 Y 193 X 37 Y 192 X -29 Y 193 X -13 Y 193 X -3 Y
 193 X -1 Y 192 X -1 Y 771 X f 1 0 1 c 0.999 0.999 0.999 c 1 0 1 c 1 1 1 c black 1 0 1 c black 3 lw 1 0 1 c 227 486 m 10 Y 193 X 37 Y 192 X -29 Y 193 X -13 Y 193 X -3 Y 193 X -1 Y 192 X -1 Y 771 X f 0 0 1 c 0.999 0.999 0.999 c black 3 lw 0.999 0.999
 0.999 c 227 486 m 8 Y 193 X 30 Y 192 X -23 Y 193 X -11 Y 193 X -3 Y 385 X -1 Y 771 X f 0 0 1 c 0.999 0.999 0.999 c 0 0 1 c 1 1 1 c black 0 0 1 c black 3 lw 0 0 1 c 227 486 m 8 Y 193 X 30 Y 192 X -23 Y 193 X -11 Y 193 X -3 Y 385 X -1 Y 771 X f 0.2
 0.8 0.8 c 0.999 0.999 0.999 c black 3 lw 0.999 0.999 0.999 c 227 486 m 2 Y 193 X 8 Y 192 X -5 Y 193 X -4 Y 193 X -1 Y 193 X 1 Y 192 X -1 Y 771 X f 0.2 0.8 0.8 c 0.999 0.999 0.999 c 0.2 0.8 0.8 c 1 1 1 c black 0.2 0.8 0.8 c black 3 lw 0.2 0.8 0.8 c
 227 486 m 2 Y 193 X 8 Y 192 X -5 Y 193 X -4 Y 193 X -1 Y 193 X 1 Y 192 X -1 Y 771 X f 1 0 0 c 0.999 0.999 0.999 c black 3 lw 0.999 0.999 0.999 c 227 486 m 1 Y 193 X 5 Y 192 X -3 Y 193 X -3 Y 1349 X f 1 0 0 c 0.999 0.999 0.999 c 1 0 0 c 1 1 1 c black
 1 0 0 c black 3 lw 1 0 0 c 227 486 m 1 Y 193 X 5 Y 192 X -3 Y 193 X -3 Y 1349 X f 1 0.84 0 c 0.999 0.999 0.999 c black 3 lw 0.999 0.999 0.999 c 227 486 m 1 Y 193 X 4 Y 192 X -2 Y 193 X -3 Y 1349 X f 1 0.84 0 c 0.999 0.999 0.999 c 1 0.84 0 c 1 1 1 c
 black 1 0.84 0 c black 3 lw 1 0.84 0 c 227 486 m 1 Y 193 X 4 Y 192 X -2 Y 193 X -3 Y 1349 X f black 1 1 1 c black 0.6 0.6 0.6 c 3 lw 3 lw 414 639 m -12 -13 d s 395 639 m -13 -13 d s 376 639 m -13 -13 d s 357 639 m -13 -13 d s 337 639 m -12 -13 d s
 318 639 m -13 -13 d s 299 639 m -13 -13 d s 280 639 m -13 -13 d s 260 639 m -12 -13 d s 241 639 m -13 -13 d s 3 lw 612 1028 m -4 -4 d s 609 1044 m -20 -20 d s 590 1044 m -21 -20 d s 571 1044 m -21 -20 d s 551 1044 m -20 -20 d s 532 1044 m -20 -20 d
 s 513 1044 m -21 -20 d s 494 1044 m -21 -20 d s 474 1044 m -20 -20 d s 455 1044 m -20 -20 d s 436 1044 m -16 -16 d s 3 lw 805 702 m -6 -6 d s 786 703 m -6 -7 d s 767 703 m -7 -7 d s 748 703 m -7 -7 d s 729 703 m -7 -7 d s 709 703 m -6 -7 d s 690 703
 m -7 -7 d s 671 703 m -7 -7 d s 652 703 m -7 -7 d s 632 703 m -6 -7 d s 613 703 m -1 -1 d s 3 lw 998 568 m -3 -3 d s 980 570 m -4 -5 d s 961 570 m -4 -5 d s 942 570 m -5 -5 d s 923 570 m -5 -5 d s 903 570 m -4 -5 d s 884 570 m -4 -5 d s 865 570 m -4
 -5 d s 846 570 m -5 -5 d s 826 570 m -4 -5 d s 807 570 m -2 -2 d s 3 lw 1184 524 m -2 -3 d s 1165 524 m -3 -3 d s 1146 524 m -3 -3 d s 1127 524 m -3 -3 d s 1107 524 m -2 -3 d s 1088 524 m -3 -3 d s 1069 524 m -3 -3 d s 1050 524 m -3 -3 d s 1030 524
 m -2 -3 d s 1011 524 m -3 -3 d s 3 lw 1378 506 m -2 -2 d s 1359 506 m -2 -2 d s 1340 506 m -2 -2 d s 1321 506 m -3 -2 d s 1301 506 m -2 -2 d s 1282 506 m -2 -2 d s 1263 506 m -2 -2 d s 1244 506 m -2 -2 d s 1224 506 m -2 -2 d s 1205 506 m -2 -2 d s 3
 lw 1560 496 m -1 -1 d s 1541 496 m -1 -1 d s 1522 496 m -1 -1 d s 1503 496 m -2 -1 d s 1483 496 m -1 -1 d s 1464 496 m -1 -1 d s 1445 496 m -1 -1 d s 1426 496 m -2 -1 d s 1406 496 m -1 -1 d s 1387 496 m -1 -1 d s 3 lw 1767 491 m -1 -1 d s 1748 491 m
 -1 -1 d s 1729 491 m -1 -1 d s 1710 491 m -2 -1 d s 1690 491 m -1 -1 d s 1671 491 m -1 -1 d s 1652 491 m -1 -1 d s 1633 491 m -1 -1 d s 1613 491 m -1 -1 d s 1594 491 m -1 -1 d s 3 lw 1960 491 m -2 -2 d s 1940 491 m -2 -2 d s 1921 491 m -2 -2 d s
 1902 491 m -2 -2 d s 1883 491 m -2 -2 d s 1863 491 m -2 -2 d s 1844 491 m -2 -2 d s 1825 491 m -2 -2 d s 1806 491 m -2 -2 d s 1786 491 m -1 -2 d s 3 lw 2151 490 m -1 -1 d s 2132 490 m -1 -1 d s 2112 490 m -1 Y s 2093 490 m -1 -1 d s 2074 490 m -1 -1
 d s 2055 490 m -1 -1 d s 2035 490 m -1 Y s 2016 490 m -1 Y s 1997 490 m -1 -1 d s 1978 490 m -1 -1 d s black 3 lw 1 1 1 c black /w 24 def /w2 {w 2 div} def /w3 {w 3 div} def 323 642 m20 516 1066 m 7 Y s 516 1097 m 6 Y s 516 1085 m20 709 725 m20 901
 572 m20 1094 531 m20 1287 500 m20 1480 496 m20 1672 492 m20 1865 489 m20 2058 489 m20 227 486 m 1927 X s 227 505 m -19 Y s 304 495 m -9 Y s 381 495 m -9 Y s 458 495 m -9 Y s 535 495 m -9 Y s 612 505 m -19 Y s 689 495 m -9 Y s 766 495 m -9 Y s 844
 495 m -9 Y s 921 495 m -9 Y s 998 505 m -19 Y s 1075 495 m -9 Y s 1152 495 m -9 Y s 1229 495 m -9 Y s 1306 495 m -9 Y s 1383 505 m -19 Y s 1460 495 m -9 Y s 1538 495 m -9 Y s 1615 495 m -9 Y s 1692 495 m -9 Y s 1769 505 m -19 Y s 1846 495 m -9 Y s
 1923 495 m -9 Y s 2000 495 m -9 Y s 2077 495 m -9 Y s 2154 505 m -19 Y s 227 1527 m 1927 X s 227 1508 m 19 Y s 304 1518 m 9 Y s 381 1518 m 9 Y s 458 1518 m 9 Y s 535 1518 m 9 Y s 612 1508 m 19 Y s 689 1518 m 9 Y s 766 1518 m 9 Y s 844 1518 m 9 Y s
 921 1518 m 9 Y s 998 1508 m 19 Y s 1075 1518 m 9 Y s 1152 1518 m 9 Y s 1229 1518 m 9 Y s 1306 1518 m 9 Y s 1383 1508 m 19 Y s 1460 1518 m 9 Y s 1538 1518 m 9 Y s 1615 1518 m 9 Y s 1692 1518 m 9 Y s 1769 1508 m 19 Y s 1846 1518 m 9 Y s 1923 1518 m 9
 Y s 2000 1518 m 9 Y s 2077 1518 m 9 Y s 2154 1508 m 19 Y s 227 486 m 1041 Y s 248 601 m -21 X s 237 629 m -10 X s 237 658 m -10 X s 237 686 m -10 X s 248 715 m -21 X s 237 744 m -10 X s 237 772 m -10 X s 237 801 m -10 X s 248 830 m -21 X s 237 858 m
 -10 X s 237 887 m -10 X s 237 916 m -10 X s 248 944 m -21 X s 237 973 m -10 X s 237 1002 m -10 X s 237 1030 m -10 X s 248 1059 m -21 X s 237 1088 m -10 X s 237 1116 m -10 X s 237 1145 m -10 X s 248 1174 m -21 X s 237 1202 m -10 X s 237 1231 m -10 X
 s 237 1260 m -10 X s 248 1288 m -21 X s 237 1317 m -10 X s 237 1346 m -10 X s 237 1374 m -10 X s 248 1403 m -21 X s 237 1432 m -10 X s 237 1460 m -10 X s 237 1489 m -10 X s 248 1518 m -21 X s 248 601 m -21 X s 237 572 m -10 X s 237 543 m -10 X s 237
 515 m -10 X s 248 1518 m -21 X s 2154 486 m 1041 Y s 2133 601 m 21 X s 2144 629 m 10 X s 2144 658 m 10 X s 2144 686 m 10 X s 2133 715 m 21 X s 2144 744 m 10 X s 2144 772 m 10 X s 2144 801 m 10 X s 2133 830 m 21 X s 2144 858 m 10 X s 2144 887 m 10 X
 s 2144 916 m 10 X s 2133 944 m 21 X s 2144 973 m 10 X s 2144 1002 m 10 X s 2144 1030 m 10 X s 2133 1059 m 21 X s 2144 1088 m 10 X s 2144 1116 m 10 X s 2144 1145 m 10 X s 2133 1174 m 21 X s 2144 1202 m 10 X s 2144 1231 m 10 X s 2144 1260 m 10 X s
 2133 1288 m 21 X s 2144 1317 m 10 X s 2144 1346 m 10 X s 2144 1374 m 10 X s 2133 1403 m 21 X s 2144 1432 m 10 X s 2144 1460 m 10 X s 2144 1489 m 10 X s 2133 1518 m 21 X s 2133 601 m 21 X s 2144 572 m 10 X s 2144 543 m 10 X s 2144 515 m 10 X s 2133
 1518 m 21 X s
 gsave  2268 1108 0 475 C 1313.98 1432.09 t 0 r /Helvetica findfont 56.1323 sf 0 0 m ( Data) show NC gr  1259 1458 m 10 Y s 1259 1434 m -10 Y s 1259 1446 m20
 gsave  2268 1108 0 475 C 1810.04 1432.09 t 0 r /Helvetica findfont 56.1323 sf 0 0 m (single\255top) show NC gr 
 gsave  2268 1108 0 475 C 1780.51 1432.09 t 0 r /Helvetica-Oblique findfont 56.1323 sf 0 0 m (/) show NC gr 
 gsave  2268 1108 0 475 C 1759.84 1432.09 t 0 r /Helvetica-Oblique findfont 56.1323 sf 0 0 m (t) show NC gr  6 lw 1760 1476 m 21 X s
 gsave  2268 1108 0 475 C 1739.17 1432.09 t 0 r /Helvetica-Oblique findfont 56.1323 sf 0 0 m (t) show NC gr 
 gsave  2268 1108 0 475 C 1721.46 1432.09 t 0 r /Helvetica findfont 56.1323 sf 0 0 m ( ) show NC gr  0.06 0.54 0.06 c 3 lw 1626 1420 m 79 X 52 Y -79 X f 6 lw black
 gsave  2268 1108 0 475 C 1443.9 1358.27 t 0 r /Helvetica findfont 56.1323 sf 0 0 m (+jets) show NC gr 
 gsave  2268 1108 0 475 C 1331.69 1358.27 t 0 r /Helvetica-Oblique findfont 56.1323 sf 0 0 m (W/Z) show NC gr 
 gsave  2268 1108 0 475 C 1313.98 1358.27 t 0 r /Helvetica findfont 56.1323 sf 0 0 m ( ) show NC gr  1 0.653333 0 c 3 lw 1219 1346 m 79 X 52 Y -79 X f black
 gsave  2268 1108 0 475 C 1919.29 1358.27 t 0 r /Helvetica findfont 56.1323 sf 0 0 m (+jets) show NC gr 
 gsave  2268 1108 0 475 C 1739.17 1358.27 t 0 r /Helvetica-Oblique findfont 56.1323 sf 0 0 m (WZ/ZZ) show NC gr 
 gsave  2268 1108 0 475 C 1721.46 1358.27 t 0 r /Helvetica findfont 56.1323 sf 0 0 m ( ) show NC gr  0.413333 1 0 c 3 lw 1626 1346 m 79 X 52 Y -79 X f black
 gsave  2268 1108 0 475 C 1373.03 1284.45 t 0 r /Helvetica-Oblique findfont 56.1323 sf 0 0 m (Z) show NC gr 
 gsave  2268 1108 0 475 C 1352.36 1284.45 t 0 r /Helvetica-Oblique findfont 56.1323 sf 0 0 m (t) show NC gr  6 lw 1352 1329 m 21 X s
 gsave  2268 1108 0 475 C 1331.69 1284.45 t 0 r /Helvetica-Oblique findfont 56.1323 sf 0 0 m (t) show NC gr 
 gsave  2268 1108 0 475 C 1313.98 1284.45 t 0 r /Helvetica findfont 56.1323 sf 0 0 m ( ) show NC gr  0.6 0.2 1 c 3 lw 1219 1272 m 79 X 52 Y -79 X f 6 lw black
 gsave  2268 1108 0 475 C 1780.51 1284.45 t 0 r /Helvetica-Oblique findfont 56.1323 sf 0 0 m (W) show NC gr 
 gsave  2268 1108 0 475 C 1759.84 1284.45 t 0 r /Helvetica-Oblique findfont 56.1323 sf 0 0 m (t) show NC gr  6 lw 1760 1329 m 21 X s
 gsave  2268 1108 0 475 C 1739.17 1284.45 t 0 r /Helvetica-Oblique findfont 56.1323 sf 0 0 m (t) show NC gr 
 gsave  2268 1108 0 475 C 1721.46 1284.45 t 0 r /Helvetica findfont 56.1323 sf 0 0 m ( ) show NC gr  0.54 0.06 0.06 c 3 lw 1626 1272 m 79 X 52 Y -79 X f 6 lw black
 gsave  2268 1108 0 475 C 1331.69 1210.63 t 0 r /Helvetica-Oblique findfont 56.1323 sf 0 0 m (tZq) show NC gr 
 gsave  2268 1108 0 475 C 1313.98 1210.63 t 0 r /Helvetica findfont 56.1323 sf 0 0 m ( ) show NC gr  1 0 1 c 3 lw 1219 1199 m 79 X 51 Y -79 X f black
 gsave  2268 1108 0 475 C 1780.51 1210.63 t 0 r /Helvetica-Oblique findfont 56.1323 sf 0 0 m (H) show NC gr 
 gsave  2268 1108 0 475 C 1759.84 1210.63 t 0 r /Helvetica-Oblique findfont 56.1323 sf 0 0 m (t) show NC gr  6 lw 1760 1255 m 21 X s
 gsave  2268 1108 0 475 C 1739.17 1210.63 t 0 r /Helvetica-Oblique findfont 56.1323 sf 0 0 m (t) show NC gr 
 gsave  2268 1108 0 475 C 1721.46 1210.63 t 0 r /Helvetica findfont 56.1323 sf 0 0 m ( ) show NC gr  0 0 1 c 3 lw 1626 1199 m 79 X 51 Y -79 X f 6 lw black
 gsave  2268 1108 0 475 C 1331.69 1136.81 t 0 r /Helvetica-Oblique findfont 56.1323 sf 0 0 m (tWZ/tWH) show NC gr 
 gsave  2268 1108 0 475 C 1313.98 1136.81 t 0 r /Helvetica findfont 56.1323 sf 0 0 m ( ) show NC gr  0.2 0.8 0.8 c 3 lw 1219 1125 m 79 X 51 Y -79 X f black
 gsave  2268 1108 0 475 C 1739.17 1136.81 t 0 r /Helvetica-Oblique findfont 56.1323 sf 0 0 m (tHq) show NC gr 
 gsave  2268 1108 0 475 C 1721.46 1136.81 t 0 r /Helvetica findfont 56.1323 sf 0 0 m ( ) show NC gr  1 0 0 c 3 lw 1626 1125 m 79 X 51 Y -79 X f black
 gsave  2268 1108 0 475 C 1313.98 1062.99 t 0 r /Helvetica findfont 56.1323 sf 0 0 m ( Other) show NC gr  1 0.84 0 c 3 lw 1219 1051 m 79 X 52 Y -79 X f black
 gsave  2268 1108 0 475 C 1721.46 1062.99 t 0 r /Helvetica findfont 56.1323 sf 0 0 m ( Uncertainty) show NC gr  0.6 0.6 0.6 c 3 lw 1705 1063 m -12 -12 d s 1705 1082 m -31 -31 d s 1705 1101 m -50 -50 d s 1687 1103 m -51 -52 d s 1668 1103 m -42 -43 d s
 1649 1103 m -23 -24 d s 1630 1103 m -4 -4 d s 1 0.84 0 c 0.6 0.6 0.6 c black
 gsave  2268 1108 0 475 C 894.685 1337.6 t 0 r /Helvetica findfont 41.3606 sf 0 0 m (\2551) show NC gr 
 gsave  2268 1108 0 475 C 401.575 1308.07 t 0 r /Helvetica findfont 62.0409 sf 0 0 m ( = 13 TeV,  139 fb) show NC gr 
 gsave  2268 1108 0 475 C 372.047 1308.07 t 0 r /Helvetica findfont 62.0409 sf 0 0 m (s) show NC gr  6 lw 351 1344 m 6 -39 d s 3 lw 357 1305 m 9 56 d s 366 1361 m 36 X s
 gsave  2268 1108 0 475 C 339.567 1207.68 t 0 r /Helvetica findfont 62.0409 sf 0 0 m ( 2L\(SS\), CR\(fake\255el/mu\)) show NC gr 
 gsave  2268 1108 0 475 C 339.567 1405.51 t 0 r /Helvetica-BoldOblique findfont 73.8583 sf 0 0 m (ATLAS) show NC gr 
 gsave  2268 1108 0 475 C 634.843 1405.51 t 0 r /Helvetica findfont 73.8583 sf 0 0 m (Internal) show NC gr 
 gr  gr showpage
end
%%EOF
