%!PS-Adobe-2.0 EPSF-2.0
%%BoundingBox:  0 0 567 394
%%Title: /lhome/ific/c/cardillo/tHq/Plots/Plots-30-05-22-PLIV-SF/2LSS_MC/LepPt2_CRttW.eps: LepPt2_CRttW
%%Creator: ROOT Version 6.20/06
%%CreationDate: Mon May 30 19:26:17 2022
%%DocumentNeededResources: ProcSet (FontSetInit)
%%EndComments
%%BeginProlog
80 dict begin
/s {stroke} def /l {lineto} def /m {moveto} def /t {translate} def
/r {rotate} def /rl {roll}  def /R {repeat} def
/d {rlineto} def /rm {rmoveto} def /gr {grestore} def /f {eofill} def
/c {setrgbcolor} def /black {0 setgray} def /sd {setdash} def
/cl {closepath} def /sf {scalefont setfont} def /lw {setlinewidth} def
/box {m dup 0 exch d exch 0 d 0 exch neg d cl} def
/NC{systemdict begin initclip end}def/C{NC box clip newpath}def
/bl {box s} def /bf {gsave box gsave f grestore 1 lw [] 0 sd s grestore} def /Y { 0 exch d} def /X { 0 d} def 
/K {{pop pop 0 moveto} exch kshow} bind def
/ita {/ang 15 def gsave [1 0 ang dup sin exch cos div 1 0 0] concat} def 
/mp {newpath /y exch def /x exch def} def
/side {[w .77 mul w .23 mul] .385 w mul sd w 0 l currentpoint t -144 r} def
/mr {mp x y w2 0 360 arc} def /m24 {mr s} def /m20 {mr f} def
/mb {mp x y w2 add m w2 neg 0 d 0 w neg d w 0 d 0 w d cl} def
/mt {mp x y w2 add m w2 neg w neg d w 0 d cl} def
/w4 {w 4 div} def
/w6 {w 6 div} def
/w8 {w 8 div} def
/m21 {mb f} def /m25 {mb s} def /m22 {mt f} def /m26{mt s} def
/m23 {mp x y w2 sub m w2 w d w neg 0 d cl f} def
/m27 {mp x y w2 add m w3 neg w2 neg d w3 w2 neg d w3 w2 d cl s} def
/m28 {mp x w2 sub y w2 sub w3 add m w3 0 d  0 w3 neg d w3 0 d 0 w3 d w3 0 d  0 w3 d w3 neg 0 d 0 w3 d w3 neg 0 d 0 w3 neg d w3 neg 0 d cl s } def
/m29 {mp gsave x w2 sub y w2 add w3 sub m currentpoint t 4 {side} repeat cl fill gr} def
/m30 {mp gsave x w2 sub y w2 add w3 sub m currentpoint t 4 {side} repeat cl s gr} def
/m31 {mp x y w2 sub m 0 w d x w2 sub y m w 0 d x w2 sub y w2 add m w w neg d x w2 sub y w2 sub m w w d s} def
/m32 {mp x y w2 sub m w2 w d w neg 0 d cl s} def
/m33 {mp x y w2 add m w3 neg w2 neg d w3 w2 neg d w3 w2 d cl f} def
/m34 {mp x w2 sub y w2 sub w3 add m w3 0 d  0 w3 neg d w3 0 d 0 w3 d w3 0 d  0 w3 d w3 neg 0 d 0 w3 d w3 neg 0 d 0 w3 neg d w3 neg 0 d cl f } def
/m35 {mp x y w2 add m w2 neg w2 neg d w2 w2 neg d w2 w2 d w2 neg w2 d x y w2 sub m 0 w d x w2 sub y m w 0 d s} def
/m36 {mb x w2 sub y w2 add m w w neg d x w2 sub y w2 sub m w w d s} def
/m37 {mp x y m w4 neg w2 d w4 neg w2 neg d w2 0 d  w4 neg w2 neg d w2 0 d w4 neg w2 d w2 0 d w4 neg w2 d w4 neg w2 neg d cl s} def
/m38 {mp x w4 sub y w2 add m w4 neg w4 neg d 0 w2 neg d w4 w4 neg d w2 0 d w4 w4 d 0 w2 d w4 neg w4 d w2 neg 0 d x y w2 sub m 0 w d x w2 sub y m w 0 d cl s} def
/m39 {mp x y m w4 neg w2 d w4 neg w2 neg d w2 0 d  w4 neg w2 neg d w2 0 d w4 neg w2 d w2 0 d w4 neg w2 d w4 neg w2 neg d cl f} def
/m40 {mp x y m w4 w2 d w4 w4 neg d w2 neg w4 neg d w2 w4 neg d w4 neg w4 neg d w4 neg w2 d w4 neg w2 neg d w4 neg w4 d w2 w4 d w2 neg w4 d w4 w4 d w4 w2 neg d cl s} def
/m41 {mp x y m w4 w2 d w4 w4 neg d w2 neg w4 neg d w2 w4 neg d w4 neg w4 neg d w4 neg w2 d w4 neg w2 neg d w4 neg w4 d w2 w4 d w2 neg w4 d w4 w4 d w4 w2 neg d cl f} def
/m42 {mp x y w2 add m w8 neg w2 -3 4 div mul d w2 -3 4 div mul w8 neg d w2 3 4 div mul w8 neg d w8 w2 -3 4 div mul d w8 w2 3 4 div mul d w2 3 4 div mul w8 d w2 -3 4 div mul w8 d w8 neg w2 3 4 div mul d cl s} def
/m43 {mp x y w2 add m w8 neg w2 -3 4 div mul d w2 -3 4 div mul w8 neg d w2 3 4 div mul w8 neg d w8 w2 -3 4 div mul d w8 w2 3 4 div mul d w2 3 4 div mul w8 d w2 -3 4 div mul w8 d w8 neg w2 3 4 div mul d cl f} def
/m44 {mp x y m w6 neg w2 d w2 2 3 div mul 0 d w6 neg w2 neg d w2 w6 d 0 w2 -2 3 div mul d w2 neg w6 d w6 w2 neg d w2 -2 3 div mul 0 d w6 w2 d w2 neg w6 neg d 0 w2 2 3 div mul d w2 w6 neg d cl s} def
/m45 {mp x y m w6 neg w2 d w2 2 3 div mul 0 d w6 neg w2 neg d w2 w6 d 0 w2 -2 3 div mul d w2 neg w6 d w6 w2 neg d w2 -2 3 div mul 0 d w6 w2 d w2 neg w6 neg d 0 w2 2 3 div mul d w2 w6 neg d cl f} def
/m46 {mp x y w4 add m w4 neg w4 d w4 neg w4 neg d  w4 w4 neg d w4 neg w4 neg d w4 w4 neg d w4 w4 d w4 w4 neg d w4 w4 d w4 neg w4 d w4 w4 d w4 neg w4 d w4 neg w4 neg d cl s} def
/m47 {mp x y w4 add m w4 neg w4 d w4 neg w4 neg d w4 w4 neg d w4 neg w4 neg d  w4 w4 neg d w4 w4 d w4 w4 neg d w4 w4 d w4 neg w4 d w4 w4 d w4 neg w4 d w4 neg w4 neg d cl f} def
/m48 {mp x y w4 add m w4 neg w4 d w4 neg w4 neg d w4 w4 neg d  w4 neg w4 neg d w4 w4 neg d w4 w4 d w4 w4 neg d w4 w4 d w4 neg w4 d w4 w4 d w4 neg w4 d w4 neg w4 neg d  w4 w4 neg d w4 neg w4 neg d w4 neg w4 d w4 w4 d cl f} def
/m49 {mp x w2 sub w3 add y w2 sub w3 add m  0 w3 neg d w3 0 d 0 w3 d w3 0 d 0 w3 d w3 neg 0 d 0 w3 d w3 neg 0 d 0 w3 neg d w3 neg 0 d 0 w3 neg d w3 0 d 0 w3 d w3 0 d 0 w3 neg d w3 neg 0 d cl f } def
/m2 {mp x y w2 sub m 0 w d x w2 sub y m w 0 d s} def
/m5 {mp x w2 sub y w2 sub m w w d x w2 sub y w2 add m w w neg d s} def
%%IncludeResource: ProcSet (FontSetInit)
%%IncludeResource: font Times-Roman
%%IncludeResource: font Times-Italic
%%IncludeResource: font Times-Bold
%%IncludeResource: font Times-BoldItalic
%%IncludeResource: font Helvetica
%%IncludeResource: font Helvetica-Oblique
%%IncludeResource: font Helvetica-Bold
%%IncludeResource: font Helvetica-BoldOblique
%%IncludeResource: font Courier
%%IncludeResource: font Courier-Oblique
%%IncludeResource: font Courier-Bold
%%IncludeResource: font Courier-BoldOblique
%%IncludeResource: font Symbol
%%IncludeResource: font ZapfDingbats
/reEncode {exch findfont dup length dict begin {1 index /FID eq  {pop pop} {def} ifelse } forall /Encoding exch def currentdict end dup /FontName get exch definefont pop } def [/Times-Bold /Times-Italic /Times-BoldItalic /Helvetica /Helvetica-Oblique
 /Helvetica-Bold /Helvetica-BoldOblique /Courier /Courier-Oblique /Courier-Bold /Courier-BoldOblique /Times-Roman /AvantGarde-Book /AvantGarde-BookOblique /AvantGarde-Demi /AvantGarde-DemiOblique /Bookman-Demi /Bookman-DemiItalic /Bookman-Light
 /Bookman-LightItalic /Helvetica-Narrow /Helvetica-Narrow-Bold /Helvetica-Narrow-BoldOblique /Helvetica-Narrow-Oblique /NewCenturySchlbk-Roman /NewCenturySchlbk-Bold /NewCenturySchlbk-BoldItalic /NewCenturySchlbk-Italic /Palatino-Bold
 /Palatino-BoldItalic /Palatino-Italic /Palatino-Roman ] {ISOLatin1Encoding reEncode } forall
%%EndProlog
%%BeginSetup
%%EndSetup
newpath  gsave  .25 .25 scale  gsave  0 0 t black[  ] 0 sd 3 lw 1 1 1 c 2268 1575 0 0 bf black 1 1 1 c 2268 472 0 0 bf black 1 1 1 c 1927 274 227 189 bf black 1927 274 227 189 bl 227 189 m 1927 X s 227 201 m -12 Y s 304 195 m -6 Y s 381 195 m -6 Y s
 458 195 m -6 Y s 535 195 m -6 Y s 612 201 m -12 Y s 689 195 m -6 Y s 766 195 m -6 Y s 844 195 m -6 Y s 921 195 m -6 Y s 998 201 m -12 Y s 1075 195 m -6 Y s 1152 195 m -6 Y s 1229 195 m -6 Y s 1306 195 m -6 Y s 1383 201 m -12 Y s 1460 195 m -6 Y s
 1538 195 m -6 Y s 1615 195 m -6 Y s 1692 195 m -6 Y s 1769 201 m -12 Y s 1846 195 m -6 Y s 1923 195 m -6 Y s 2000 195 m -6 Y s 2077 195 m -6 Y s 2154 201 m -12 Y s
 gsave  2268 472 0 0 C 210.193 127.3 t 0 r /Helvetica findfont 53.4895 sf 0 0 m (0) show NC gr 
 gsave  2268 472 0 0 C 580.251 127.3 t 0 r /Helvetica findfont 53.4895 sf 0 0 m (50) show NC gr 
 gsave  2268 472 0 0 C 953.27 127.3 t 0 r /Helvetica findfont 53.4895 sf 0 0 m (100) show NC gr 
 gsave  2268 472 0 0 C 1338.13 127.3 t 0 r /Helvetica findfont 53.4895 sf 0 0 m (150) show NC gr 
 gsave  2268 472 0 0 C 1722.99 127.3 t 0 r /Helvetica findfont 53.4895 sf 0 0 m (200) show NC gr 
 gsave  2268 472 0 0 C 2107.85 127.3 t 0 r /Helvetica findfont 53.4895 sf 0 0 m (250) show NC gr 
 gsave  2268 472 0 0 C 1977.59 53.2884 t 0 r /Helvetica findfont 56.4611 sf 0 0 m (\) [GeV]) show NC gr 
 gsave  2268 472 0 0 C 1956.87 20.7233 t 0 r /Helvetica findfont 38.6313 sf 0 0 m (2) show NC gr 
 gsave  2268 472 0 0 C 1862.13 53.2884 t 0 r /Helvetica findfont 56.4611 sf 0 0 m (\(lep) show NC gr 
 gsave  2268 472 0 0 C 1838.45 20.7233 t 0 r /Helvetica findfont 38.6313 sf 0 0 m (T) show NC gr 
 gsave  2268 472 0 0 C 1802.92 53.2884 t 0 r /Helvetica-Oblique findfont 56.4611 sf 0 0 m (p) show NC gr  227 463 m 1927 X s 227 451 m 12 Y s 304 457 m 6 Y s 381 457 m 6 Y s 458 457 m 6 Y s 535 457 m 6 Y s 612 451 m 12 Y s 689 457 m 6 Y s 766 457 m 6
 Y s 844 457 m 6 Y s 921 457 m 6 Y s 998 451 m 12 Y s 1075 457 m 6 Y s 1152 457 m 6 Y s 1229 457 m 6 Y s 1306 457 m 6 Y s 1383 451 m 12 Y s 1460 457 m 6 Y s 1538 457 m 6 Y s 1615 457 m 6 Y s 1692 457 m 6 Y s 1769 451 m 12 Y s 1846 457 m 6 Y s 1923
 457 m 6 Y s 2000 457 m 6 Y s 2077 457 m 6 Y s 2154 451 m 12 Y s 227 189 m 274 Y s 240 240 m -13 X s 240 326 m -13 X s 240 412 m -13 X s 240 240 m -13 X s 240 412 m -13 X s
 gsave  2268 472 0 0 C 118.419 222.035 t 0 r /Helvetica findfont 53.4895 sf 0 0 m (0.5) show NC gr 
 gsave  2268 472 0 0 C 171.707 307.888 t 0 r /Helvetica findfont 53.4895 sf 0 0 m (1) show NC gr 
 gsave  2268 472 0 0 C 118.419 393.742 t 0 r /Helvetica findfont 53.4895 sf 0 0 m (1.5) show NC gr 
 gsave  2268 472 0 0 C 71.0512 230.916 t 90 r /Helvetica findfont 53.4895 sf 0 0 m (Data / SM) show NC gr  2154 189 m 274 Y s 2141 240 m 13 X s 2141 326 m 13 X s 2141 412 m 13 X s 2141 240 m 13 X s 2141 412 m 13 X s 227 189 m 1927 X s 227 463 m 1927
 X s 227 189 m 274 Y s[ 4 8] 0 sd 2154 240 m -1927 X s 2154 326 m -1927 X s 2154 412 m -1927 X s 2154 240 m -1927 X s 2154 412 m -1927 X s[  ] 0 sd 2154 189 m 274 Y s 1 1 0.6 c 193 0 227 326 bf 192 0 420 326 bf 193 0 612 326 bf 193 0 805 326 bf 193 0
 998 326 bf 192 0 1191 326 bf 193 0 1383 326 bf 193 0 1576 326 bf 193 0 1769 326 bf 192 0 1962 326 bf black 0.6 0.6 0.6 c 420 325 m -8 -8 d s 411 335 m -19 -18 d s 392 335 m -19 -18 d s 373 335 m -19 -18 d s 353 335 m -18 -18 d s 334 335 m -19 -18 d
 s 315 335 m -19 -18 d s 296 335 m -19 -18 d s 276 335 m -18 -18 d s 257 335 m -18 -18 d s 238 335 m -11 -11 d s 612 325 m -1 -1 d s 596 328 m -4 -4 d s 577 328 m -4 -4 d s 558 328 m -5 -4 d s 539 328 m -5 -4 d s 520 328 m -5 -4 d s 500 328 m -4 -4 d
 s 481 328 m -5 -4 d s 462 328 m -5 -4 d s 443 328 m -5 -4 d s 423 328 m -3 -3 d s 805 325 m -2 -2 d s 789 329 m -5 -6 d s 770 329 m -5 -6 d s 751 329 m -6 -6 d s 732 329 m -6 -6 d s 712 329 m -5 -6 d s 693 329 m -5 -6 d s 674 329 m -6 -6 d s 655 329
 m -6 -6 d s 636 329 m -6 -6 d s 616 329 m -4 -4 d s 998 326 m -4 -5 d s 984 331 m -10 -10 d s 964 331 m -9 -10 d s 945 331 m -9 -10 d s 926 331 m -9 -10 d s 907 331 m -9 -10 d s 887 331 m -9 -10 d s 868 331 m -9 -10 d s 849 331 m -9 -10 d s 830 331
 m -9 -10 d s 810 331 m -5 -6 d s 1191 326 m -8 -8 d s 1179 334 m -15 -16 d s 1160 334 m -16 -16 d s 1141 334 m -16 -16 d s 1122 334 m -16 -16 d s 1102 334 m -15 -16 d s 1083 334 m -16 -16 d s 1064 334 m -16 -16 d s 1045 334 m -16 -16 d s 1025 334 m
 -15 -16 d s 1006 334 m -8 -8 d s 1383 326 m -9 -9 d s 1373 335 m -18 -18 d s 1353 335 m -17 -18 d s 1334 335 m -17 -18 d s 1315 335 m -18 -18 d s 1296 335 m -18 -18 d s 1276 335 m -17 -18 d s 1257 335 m -17 -18 d s 1238 335 m -18 -18 d s 1219 335 m
 -18 -18 d s 1199 335 m -8 -9 d s 1576 307 m -4 -4 d s 1576 327 m -24 -24 d s 1576 346 m -43 -43 d s 1560 349 m -46 -46 d s 1541 349 m -46 -46 d s 1522 349 m -47 -46 d s 1502 349 m -46 -46 d s 1483 349 m -46 -46 d s 1464 349 m -46 -46 d s 1445 349 m
 -47 -46 d s 1425 349 m -42 -42 d s 1406 349 m -23 -23 d s 1387 349 m -4 -3 d s 1769 308 m -15 -16 d s 1769 327 m -35 -35 d s 1769 346 m -54 -54 d s 1763 360 m -67 -68 d s 1744 360 m -67 -68 d s 1725 360 m -68 -68 d s 1705 360 m -67 -68 d s 1686 360
 m -67 -68 d s 1667 360 m -67 -68 d s 1648 360 m -68 -68 d s 1628 360 m -52 -53 d s 1609 360 m -33 -33 d s 1590 360 m -14 -14 d s 1962 308 m -12 -12 d s 1962 327 m -32 -31 d s 1962 347 m -51 -51 d s 1952 356 m -60 -60 d s 1933 356 m -60 -60 d s 1913
 356 m -60 -60 d s 1894 356 m -60 -60 d s 1875 356 m -60 -60 d s 1856 356 m -60 -60 d s 1836 356 m -59 -60 d s 1817 356 m -48 -48 d s 1798 356 m -29 -29 d s 1779 356 m -10 -10 d s 2154 308 m -2 -2 d s 2154 328 m -21 -22 d s 2154 346 m -41 -40 d s
 2134 346 m -40 -40 d s 2115 346 m -40 -40 d s 2096 346 m -40 -40 d s 2077 346 m -40 -40 d s 2057 346 m -40 -40 d s 2038 346 m -40 -40 d s 2019 346 m -40 -40 d s 2000 346 m -38 -38 d s 1980 346 m -18 -19 d s black 1 1 1 c black 323 233 m 24 Y s 323
 281 m 24 Y s /w 26 def /w2 {w 2 div} def /w3 {w 3 div} def 323 269 m20 516 334 m 3 Y s 516 361 m 3 Y s 516 349 m20 709 322 m 9 Y s 709 354 m 9 Y s 709 343 m20 901 303 m 26 Y s 901 352 m 26 Y s 901 340 m20 1094 189 m 23 Y s 1094 236 m 28 Y s 1094 224
 m20 1287 189 m 17 Y s 1287 230 m 52 Y s 1287 218 m20 1480 243 m 201 Y s 1480 456 m20 227 326 m 1927 X s 227 189 m 1927 X s 227 201 m -12 Y s 304 195 m -6 Y s 381 195 m -6 Y s 458 195 m -6 Y s 535 195 m -6 Y s 612 201 m -12 Y s 689 195 m -6 Y s 766
 195 m -6 Y s 844 195 m -6 Y s 921 195 m -6 Y s 998 201 m -12 Y s 1075 195 m -6 Y s 1152 195 m -6 Y s 1229 195 m -6 Y s 1306 195 m -6 Y s 1383 201 m -12 Y s 1460 195 m -6 Y s 1538 195 m -6 Y s 1615 195 m -6 Y s 1692 195 m -6 Y s 1769 201 m -12 Y s
 1846 195 m -6 Y s 1923 195 m -6 Y s 2000 195 m -6 Y s 2077 195 m -6 Y s 2154 201 m -12 Y s 227 463 m 1927 X s 227 451 m 12 Y s 304 457 m 6 Y s 381 457 m 6 Y s 458 457 m 6 Y s 535 457 m 6 Y s 612 451 m 12 Y s 689 457 m 6 Y s 766 457 m 6 Y s 844 457 m
 6 Y s 921 457 m 6 Y s 998 451 m 12 Y s 1075 457 m 6 Y s 1152 457 m 6 Y s 1229 457 m 6 Y s 1306 457 m 6 Y s 1383 451 m 12 Y s 1460 457 m 6 Y s 1538 457 m 6 Y s 1615 457 m 6 Y s 1692 457 m 6 Y s 1769 451 m 12 Y s 1846 457 m 6 Y s 1923 457 m 6 Y s 2000
 457 m 6 Y s 2077 457 m 6 Y s 2154 451 m 12 Y s 227 189 m 274 Y s 240 240 m -13 X s 240 326 m -13 X s 240 412 m -13 X s 240 240 m -13 X s 240 412 m -13 X s 2154 189 m 274 Y s 2141 240 m 13 X s 2141 326 m 13 X s 2141 412 m 13 X s 2141 240 m 13 X s
 2141 412 m 13 X s 1 1 1 c 2268 1103 0 472 bf black 1 1 1 c 1927 1036 227 484 bf black 1927 1036 227 484 bl 1 1 1 c black 3 lw 227 484 m 1927 X s 227 502 m -18 Y s 304 493 m -9 Y s 381 493 m -9 Y s 458 493 m -9 Y s 535 493 m -9 Y s 612 502 m -18 Y s
 689 493 m -9 Y s 766 493 m -9 Y s 844 493 m -9 Y s 921 493 m -9 Y s 998 502 m -18 Y s 1075 493 m -9 Y s 1152 493 m -9 Y s 1229 493 m -9 Y s 1306 493 m -9 Y s 1383 502 m -18 Y s 1460 493 m -9 Y s 1538 493 m -9 Y s 1615 493 m -9 Y s 1692 493 m -9 Y s
 1769 502 m -18 Y s 1846 493 m -9 Y s 1923 493 m -9 Y s 2000 493 m -9 Y s 2077 493 m -9 Y s 2154 502 m -18 Y s
 gsave  2268 1103 0 472 C 2060.48 408.544 t 0 r /Helvetica findfont 29.6365 sf 0 0 m (\) [GeV]) show NC gr 
 gsave  2268 1103 0 472 C 2048.64 390.781 t 0 r /Helvetica findfont 20.7455 sf 0 0 m (2) show NC gr 
 gsave  2268 1103 0 472 C 1998.31 408.544 t 0 r /Helvetica findfont 29.6365 sf 0 0 m (\(lep) show NC gr 
 gsave  2268 1103 0 472 C 1983.51 387.821 t 0 r /Helvetica findfont 20.7455 sf 0 0 m (T) show NC gr 
 gsave  2268 1103 0 472 C 1965.75 408.544 t 0 r /Helvetica-Oblique findfont 29.6365 sf 0 0 m (p) show NC gr  227 1520 m 1927 X s 227 1501 m 19 Y s 304 1510 m 10 Y s 381 1510 m 10 Y s 458 1510 m 10 Y s 535 1510 m 10 Y s 612 1501 m 19 Y s 689 1510 m 10
 Y s 766 1510 m 10 Y s 844 1510 m 10 Y s 921 1510 m 10 Y s 998 1501 m 19 Y s 1075 1510 m 10 Y s 1152 1510 m 10 Y s 1229 1510 m 10 Y s 1306 1510 m 10 Y s 1383 1501 m 19 Y s 1460 1510 m 10 Y s 1538 1510 m 10 Y s 1615 1510 m 10 Y s 1692 1510 m 10 Y s
 1769 1501 m 19 Y s 1846 1510 m 10 Y s 1923 1510 m 10 Y s 2000 1510 m 10 Y s 2077 1510 m 10 Y s 2154 1501 m 19 Y s 227 484 m 1036 Y s 248 626 m -21 X s 237 654 m -10 X s 237 683 m -10 X s 237 711 m -10 X s 237 740 m -10 X s 248 768 m -21 X s 237 797
 m -10 X s 237 825 m -10 X s 237 854 m -10 X s 237 882 m -10 X s 248 911 m -21 X s 237 939 m -10 X s 237 968 m -10 X s 237 996 m -10 X s 237 1025 m -10 X s 248 1053 m -21 X s 237 1082 m -10 X s 237 1110 m -10 X s 237 1139 m -10 X s 237 1167 m -10 X s
 248 1196 m -21 X s 237 1224 m -10 X s 237 1253 m -10 X s 237 1281 m -10 X s 237 1310 m -10 X s 248 1338 m -21 X s 237 1367 m -10 X s 237 1395 m -10 X s 237 1423 m -10 X s 237 1452 m -10 X s 248 1480 m -21 X s 248 626 m -21 X s 237 597 m -10 X s 237
 569 m -10 X s 237 540 m -10 X s 237 512 m -10 X s 248 1480 m -21 X s 237 1509 m -10 X s
 gsave  2268 1103 0 472 C 145.063 606.895 t 0 r /Helvetica findfont 50.382 sf 0 0 m (50) show NC gr 
 gsave  2268 1103 0 472 C 118.419 748.998 t 0 r /Helvetica findfont 50.382 sf 0 0 m (100) show NC gr 
 gsave  2268 1103 0 472 C 118.419 891.1 t 0 r /Helvetica findfont 50.382 sf 0 0 m (150) show NC gr 
 gsave  2268 1103 0 472 C 118.419 1033.2 t 0 r /Helvetica findfont 50.382 sf 0 0 m (200) show NC gr 
 gsave  2268 1103 0 472 C 118.419 1175.3 t 0 r /Helvetica findfont 50.382 sf 0 0 m (250) show NC gr 
 gsave  2268 1103 0 472 C 118.419 1317.41 t 0 r /Helvetica findfont 50.382 sf 0 0 m (300) show NC gr 
 gsave  2268 1103 0 472 C 118.419 1462.47 t 0 r /Helvetica findfont 50.382 sf 0 0 m (350) show NC gr 
 gsave  2268 1103 0 472 C 62.1698 1154.58 t 90 r /Helvetica findfont 50.382 sf 0 0 m (Events / 25 GeV) show NC gr  2154 484 m 1036 Y s 2133 626 m 21 X s 2144 654 m 10 X s 2144 683 m 10 X s 2144 711 m 10 X s 2144 740 m 10 X s 2133 768 m 21 X s 2144
 797 m 10 X s 2144 825 m 10 X s 2144 854 m 10 X s 2144 882 m 10 X s 2133 911 m 21 X s 2144 939 m 10 X s 2144 968 m 10 X s 2144 996 m 10 X s 2144 1025 m 10 X s 2133 1053 m 21 X s 2144 1082 m 10 X s 2144 1110 m 10 X s 2144 1139 m 10 X s 2144 1167 m 10
 X s 2133 1196 m 21 X s 2144 1224 m 10 X s 2144 1253 m 10 X s 2144 1281 m 10 X s 2144 1310 m 10 X s 2133 1338 m 21 X s 2144 1367 m 10 X s 2144 1395 m 10 X s 2144 1423 m 10 X s 2144 1452 m 10 X s 2133 1480 m 21 X s 2133 626 m 21 X s 2144 597 m 10 X s
 2144 569 m 10 X s 2144 540 m 10 X s 2144 512 m 10 X s 2133 1480 m 21 X s 2144 1509 m 10 X s 0.06 0.54 0.06 c black 3 lw 0.06 0.54 0.06 c 227 484 m 42 Y 193 X 372 Y 192 X -202 Y 193 X -147 Y 193 X -44 Y 193 X -14 Y 192 X -4 Y 193 X -2 Y 193 X -1 Y
 385 X f 1 0.653333 0 c 0.999 0.999 0.999 c black 3 lw 0.999 0.999 0.999 c 227 484 m 33 Y 193 X 318 Y 192 X -161 Y 193 X -130 Y 193 X -41 Y 193 X -12 Y 192 X -5 Y 193 X -1 Y 193 X -1 Y 385 X f 1 0.653333 0 c 0.999 0.999 0.999 c 1 0.653333 0 c 1 1 1 c
 black 1 0.653333 0 c black 3 lw 1 0.653333 0 c 227 484 m 33 Y 193 X 318 Y 192 X -161 Y 193 X -130 Y 193 X -41 Y 193 X -12 Y 192 X -5 Y 193 X -1 Y 193 X -1 Y 385 X f 0.413333 1 0 c 0.999 0.999 0.999 c black 3 lw 0.999 0.999 0.999 c 227 484 m 31 Y 193
 X 320 Y 192 X -161 Y 193 X -130 Y 193 X -41 Y 193 X -12 Y 192 X -5 Y 193 X -1 Y 193 X -1 Y 385 X f 0.413333 1 0 c 0.999 0.999 0.999 c 0.413333 1 0 c 1 1 1 c black 0.413333 1 0 c black 3 lw 0.413333 1 0 c 227 484 m 31 Y 193 X 320 Y 192 X -161 Y 193 X
 -130 Y 193 X -41 Y 193 X -12 Y 192 X -5 Y 193 X -1 Y 193 X -1 Y 385 X f 0.6 0.2 1 c 0.999 0.999 0.999 c black 3 lw 0.999 0.999 0.999 c 227 484 m 30 Y 193 X 302 Y 192 X -153 Y 193 X -122 Y 193 X -39 Y 193 X -12 Y 192 X -4 Y 193 X -1 Y 193 X -1 Y 385
 X f 0.6 0.2 1 c 0.999 0.999 0.999 c 0.6 0.2 1 c 1 1 1 c black 0.6 0.2 1 c black 3 lw 0.6 0.2 1 c 227 484 m 30 Y 193 X 302 Y 192 X -153 Y 193 X -122 Y 193 X -39 Y 193 X -12 Y 192 X -4 Y 193 X -1 Y 193 X -1 Y 385 X f 0.54 0.06 0.06 c 0.999 0.999 0.999
 c black 3 lw 0.999 0.999 0.999 c 227 484 m 26 Y 193 X 268 Y 192 X -136 Y 193 X -107 Y 193 X -36 Y 193 X -9 Y 192 X -4 Y 193 X -1 Y 193 X -1 Y 385 X f 0.54 0.06 0.06 c 0.999 0.999 0.999 c 0.54 0.06 0.06 c 1 1 1 c black 0.54 0.06 0.06 c black 3 lw
 0.54 0.06 0.06 c 227 484 m 26 Y 193 X 268 Y 192 X -136 Y 193 X -107 Y 193 X -36 Y 193 X -9 Y 192 X -4 Y 193 X -1 Y 193 X -1 Y 385 X f 1 0 1 c 0.999 0.999 0.999 c black 3 lw 0.999 0.999 0.999 c 227 484 m 4 Y 193 X 50 Y 192 X -29 Y 193 X -18 Y 193 X
 -6 Y 193 X -1 Y 963 X f 1 0 1 c 0.999 0.999 0.999 c 1 0 1 c 1 1 1 c black 1 0 1 c black 3 lw 1 0 1 c 227 484 m 4 Y 193 X 50 Y 192 X -29 Y 193 X -18 Y 193 X -6 Y 193 X -1 Y 963 X f 0 0 1 c 0.999 0.999 0.999 c black 3 lw 0.999 0.999 0.999 c 227 484 m
 4 Y 193 X 47 Y 192 X -28 Y 193 X -17 Y 193 X -5 Y 193 X -1 Y 963 X f 0 0 1 c 0.999 0.999 0.999 c 0 0 1 c 1 1 1 c black 0 0 1 c black 3 lw 0 0 1 c 227 484 m 4 Y 193 X 47 Y 192 X -28 Y 193 X -17 Y 193 X -5 Y 193 X -1 Y 963 X f 0.2 0.8 0.8 c 0.999
 0.999 0.999 c black 3 lw 0.999 0.999 0.999 c 227 484 m 193 X 7 Y 192 X -3 Y 193 X -3 Y 193 X -1 Y 1156 X f 0.2 0.8 0.8 c 0.999 0.999 0.999 c 0.2 0.8 0.8 c 1 1 1 c black 0.2 0.8 0.8 c black 3 lw 0.2 0.8 0.8 c 227 484 m 193 X 7 Y 192 X -3 Y 193 X -3 Y
 193 X -1 Y 1156 X f 1 0 0 c 0.999 0.999 0.999 c black 3 lw 0.999 0.999 0.999 c 227 484 m 193 X 3 Y 192 X -2 Y 193 X -1 Y 1349 X f 1 0 0 c 0.999 0.999 0.999 c 1 0 0 c 1 1 1 c black 1 0 0 c black 3 lw 1 0 0 c 227 484 m 193 X 3 Y 192 X -2 Y 193 X -1 Y
 1349 X f 1 0.84 0 c 0.999 0.999 0.999 c black 3 lw 0.999 0.999 0.999 c 227 484 m 193 X 2 Y 192 X -1 Y 193 X -1 Y 1349 X f 1 0.84 0 c 0.999 0.999 0.999 c 1 0.84 0 c 1 1 1 c black 1 0.84 0 c black 3 lw 1 0.84 0 c 227 484 m 193 X 2 Y 192 X -1 Y 193 X
 -1 Y 1349 X f black 1 1 1 c black 0.6 0.6 0.6 c 3 lw 420 526 m -3 -2 d s 402 528 m -4 -4 d s 383 528 m -4 -4 d s 364 528 m -5 -4 d s 345 528 m -5 -4 d s 325 528 m -4 -4 d s 306 528 m -4 -4 d s 287 528 m -5 -4 d s 268 528 m -5 -4 d s 248 528 m -4 -4
 d s 229 528 m -2 -2 d s 3 lw 605 904 m -11 -12 d s 586 904 m -11 -12 d s 566 904 m -11 -12 d s 547 904 m -11 -12 d s 528 904 m -11 -12 d s 509 904 m -11 -12 d s 490 904 m -12 -12 d s 470 904 m -11 -12 d s 451 904 m -11 -12 d s 432 904 m -11 -12 d s
 3 lw 805 700 m -7 -7 d s 786 700 m -7 -7 d s 767 700 m -8 -7 d s 747 700 m -7 -7 d s 728 700 m -7 -7 d s 709 700 m -7 -7 d s 690 700 m -7 -7 d s 670 700 m -7 -7 d s 651 700 m -7 -7 d s 632 700 m -7 -7 d s 613 700 m -1 X s 3 lw 983 551 m -4 -4 d s
 964 551 m -4 -4 d s 944 551 m -3 -4 d s 925 551 m -3 -4 d s 906 551 m -4 -4 d s 887 551 m -4 -4 d s 867 551 m -3 -4 d s 848 551 m -3 -4 d s 829 551 m -4 -4 d s 810 551 m -4 -4 d s 3 lw 1188 506 m -2 -2 d s 1168 506 m -2 -2 d s 1149 506 m -2 -2 d s
 1130 506 m -2 -2 d s 1111 506 m -2 -2 d s 1091 506 m -2 -2 d s 1072 506 m -2 -2 d s 1053 506 m -2 -2 d s 1034 506 m -2 -2 d s 1014 506 m -2 -2 d s 3 lw 1366 492 m -1 -1 d s 1347 492 m -1 -1 d s 1328 492 m -1 -1 d s 1308 492 m -1 Y s 1289 492 m -1 -1
 d s 1270 492 m -1 -1 d s 1251 492 m -1 -1 d s 1231 492 m -1 Y s 1212 492 m -1 -1 d s 1193 492 m -1 -1 d s 3 lw 1573 487 m -1 -1 d s 1554 487 m -1 -1 d s 1535 487 m -1 -1 d s 1516 487 m -1 -1 d s 1496 487 m -1 -1 d s 1477 487 m -1 -1 d s 1458 487 m
 -1 -1 d s 1439 487 m -1 -1 d s 1419 487 m -1 Y s 1400 487 m -1 -1 d s 3 lw 1764 486 m -1 -1 d s 1745 486 m -1 -1 d s 1726 486 m -1 -1 d s 1706 486 m -1 Y s 1687 486 m -1 Y s 1668 486 m -1 -1 d s 1649 486 m -1 -1 d s 1629 486 m -1 Y s 1610 486 m -1 Y
 s 1591 486 m -1 -1 d s 3 lw 1955 484 m s 1936 484 m s 1917 484 m s 1897 484 m s 1878 484 m s 1859 484 m s 1840 484 m s 1821 484 m -1 X s 1801 484 m s 1782 484 m s 3 lw 2148 484 m s 2129 484 m -1 X s 2109 484 m s 2090 484 m s 2071 484 m s 2052 484 m
 -1 X s 2032 484 m s 2013 484 m s 1994 484 m s 1975 484 m -1 X s black 3 lw 1 1 1 c black /w 24 def /w2 {w 2 div} def /w3 {w 3 div} def 323 512 m20 516 917 m 25 Y s 516 965 m 25 Y s 516 953 m20 709 691 m 14 Y s 709 729 m 14 Y s 709 717 m20 901 540 m
 3 Y s 901 567 m 2 Y s 901 555 m20 1094 492 m20 1287 486 m20 1480 489 m20 1672 489 m20 227 484 m 1927 X s 227 502 m -18 Y s 304 493 m -9 Y s 381 493 m -9 Y s 458 493 m -9 Y s 535 493 m -9 Y s 612 502 m -18 Y s 689 493 m -9 Y s 766 493 m -9 Y s 844
 493 m -9 Y s 921 493 m -9 Y s 998 502 m -18 Y s 1075 493 m -9 Y s 1152 493 m -9 Y s 1229 493 m -9 Y s 1306 493 m -9 Y s 1383 502 m -18 Y s 1460 493 m -9 Y s 1538 493 m -9 Y s 1615 493 m -9 Y s 1692 493 m -9 Y s 1769 502 m -18 Y s 1846 493 m -9 Y s
 1923 493 m -9 Y s 2000 493 m -9 Y s 2077 493 m -9 Y s 2154 502 m -18 Y s 227 1520 m 1927 X s 227 1501 m 19 Y s 304 1510 m 10 Y s 381 1510 m 10 Y s 458 1510 m 10 Y s 535 1510 m 10 Y s 612 1501 m 19 Y s 689 1510 m 10 Y s 766 1510 m 10 Y s 844 1510 m
 10 Y s 921 1510 m 10 Y s 998 1501 m 19 Y s 1075 1510 m 10 Y s 1152 1510 m 10 Y s 1229 1510 m 10 Y s 1306 1510 m 10 Y s 1383 1501 m 19 Y s 1460 1510 m 10 Y s 1538 1510 m 10 Y s 1615 1510 m 10 Y s 1692 1510 m 10 Y s 1769 1501 m 19 Y s 1846 1510 m 10 Y
 s 1923 1510 m 10 Y s 2000 1510 m 10 Y s 2077 1510 m 10 Y s 2154 1501 m 19 Y s 227 484 m 1036 Y s 248 626 m -21 X s 237 654 m -10 X s 237 683 m -10 X s 237 711 m -10 X s 237 740 m -10 X s 248 768 m -21 X s 237 797 m -10 X s 237 825 m -10 X s 237 854
 m -10 X s 237 882 m -10 X s 248 911 m -21 X s 237 939 m -10 X s 237 968 m -10 X s 237 996 m -10 X s 237 1025 m -10 X s 248 1053 m -21 X s 237 1082 m -10 X s 237 1110 m -10 X s 237 1139 m -10 X s 237 1167 m -10 X s 248 1196 m -21 X s 237 1224 m -10 X
 s 237 1253 m -10 X s 237 1281 m -10 X s 237 1310 m -10 X s 248 1338 m -21 X s 237 1367 m -10 X s 237 1395 m -10 X s 237 1423 m -10 X s 237 1452 m -10 X s 248 1480 m -21 X s 248 626 m -21 X s 237 597 m -10 X s 237 569 m -10 X s 237 540 m -10 X s 237
 512 m -10 X s 248 1480 m -21 X s 237 1509 m -10 X s 2154 484 m 1036 Y s 2133 626 m 21 X s 2144 654 m 10 X s 2144 683 m 10 X s 2144 711 m 10 X s 2144 740 m 10 X s 2133 768 m 21 X s 2144 797 m 10 X s 2144 825 m 10 X s 2144 854 m 10 X s 2144 882 m 10 X
 s 2133 911 m 21 X s 2144 939 m 10 X s 2144 968 m 10 X s 2144 996 m 10 X s 2144 1025 m 10 X s 2133 1053 m 21 X s 2144 1082 m 10 X s 2144 1110 m 10 X s 2144 1139 m 10 X s 2144 1167 m 10 X s 2133 1196 m 21 X s 2144 1224 m 10 X s 2144 1253 m 10 X s 2144
 1281 m 10 X s 2144 1310 m 10 X s 2133 1338 m 21 X s 2144 1367 m 10 X s 2144 1395 m 10 X s 2144 1423 m 10 X s 2144 1452 m 10 X s 2133 1480 m 21 X s 2133 626 m 21 X s 2144 597 m 10 X s 2144 569 m 10 X s 2144 540 m 10 X s 2144 512 m 10 X s 2133 1480 m
 21 X s 2144 1509 m 10 X s
 gsave  2268 1103 0 472 C 1314.45 1423.98 t 0 r /Helvetica findfont 56.3093 sf 0 0 m ( Data) show NC gr  1259 1451 m 10 Y s 1259 1427 m -10 Y s 1259 1439 m20
 gsave  2268 1103 0 472 C 1808.84 1423.98 t 0 r /Helvetica findfont 56.3093 sf 0 0 m (single\255top) show NC gr 
 gsave  2268 1103 0 472 C 1779.24 1423.98 t 0 r /Helvetica-Oblique findfont 56.3093 sf 0 0 m (/) show NC gr 
 gsave  2268 1103 0 472 C 1758.52 1423.98 t 0 r /Helvetica-Oblique findfont 56.3093 sf 0 0 m (t) show NC gr  6 lw 1759 1468 m 20 X s
 gsave  2268 1103 0 472 C 1737.79 1423.98 t 0 r /Helvetica-Oblique findfont 56.3093 sf 0 0 m (t) show NC gr 
 gsave  2268 1103 0 472 C 1720.03 1423.98 t 0 r /Helvetica findfont 56.3093 sf 0 0 m ( ) show NC gr  0.06 0.54 0.06 c 3 lw 1626 1413 m 79 X 52 Y -79 X f 6 lw black
 gsave  2268 1103 0 472 C 1444.71 1349.97 t 0 r /Helvetica findfont 56.3093 sf 0 0 m (+jets) show NC gr 
 gsave  2268 1103 0 472 C 1332.21 1349.97 t 0 r /Helvetica-Oblique findfont 56.3093 sf 0 0 m (W/Z) show NC gr 
 gsave  2268 1103 0 472 C 1314.45 1349.97 t 0 r /Helvetica findfont 56.3093 sf 0 0 m ( ) show NC gr  1 0.653333 0 c 3 lw 1219 1340 m 79 X 51 Y -79 X f black
 gsave  2268 1103 0 472 C 1918.38 1349.97 t 0 r /Helvetica findfont 56.3093 sf 0 0 m (+jets) show NC gr 
 gsave  2268 1103 0 472 C 1737.79 1349.97 t 0 r /Helvetica-Oblique findfont 56.3093 sf 0 0 m (WZ/ZZ) show NC gr 
 gsave  2268 1103 0 472 C 1720.03 1349.97 t 0 r /Helvetica findfont 56.3093 sf 0 0 m ( ) show NC gr  0.413333 1 0 c 3 lw 1626 1340 m 79 X 51 Y -79 X f black
 gsave  2268 1103 0 472 C 1373.66 1275.96 t 0 r /Helvetica-Oblique findfont 56.3093 sf 0 0 m (Z) show NC gr 
 gsave  2268 1103 0 472 C 1352.93 1275.96 t 0 r /Helvetica-Oblique findfont 56.3093 sf 0 0 m (t) show NC gr  6 lw 1353 1320 m 21 X s
 gsave  2268 1103 0 472 C 1332.21 1275.96 t 0 r /Helvetica-Oblique findfont 56.3093 sf 0 0 m (t) show NC gr 
 gsave  2268 1103 0 472 C 1314.45 1275.96 t 0 r /Helvetica findfont 56.3093 sf 0 0 m ( ) show NC gr  0.6 0.2 1 c 3 lw 1219 1266 m 79 X 52 Y -79 X f 6 lw black
 gsave  2268 1103 0 472 C 1779.24 1275.96 t 0 r /Helvetica-Oblique findfont 56.3093 sf 0 0 m (W) show NC gr 
 gsave  2268 1103 0 472 C 1758.52 1275.96 t 0 r /Helvetica-Oblique findfont 56.3093 sf 0 0 m (t) show NC gr  6 lw 1759 1320 m 20 X s
 gsave  2268 1103 0 472 C 1737.79 1275.96 t 0 r /Helvetica-Oblique findfont 56.3093 sf 0 0 m (t) show NC gr 
 gsave  2268 1103 0 472 C 1720.03 1275.96 t 0 r /Helvetica findfont 56.3093 sf 0 0 m ( ) show NC gr  0.54 0.06 0.06 c 3 lw 1626 1266 m 79 X 52 Y -79 X f 6 lw black
 gsave  2268 1103 0 472 C 1332.21 1204.91 t 0 r /Helvetica-Oblique findfont 56.3093 sf 0 0 m (tZq) show NC gr 
 gsave  2268 1103 0 472 C 1314.45 1204.91 t 0 r /Helvetica findfont 56.3093 sf 0 0 m ( ) show NC gr  1 0 1 c 3 lw 1219 1193 m 79 X 51 Y -79 X f black
 gsave  2268 1103 0 472 C 1779.24 1204.91 t 0 r /Helvetica-Oblique findfont 56.3093 sf 0 0 m (H) show NC gr 
 gsave  2268 1103 0 472 C 1758.52 1204.91 t 0 r /Helvetica-Oblique findfont 56.3093 sf 0 0 m (t) show NC gr  6 lw 1759 1249 m 20 X s
 gsave  2268 1103 0 472 C 1737.79 1204.91 t 0 r /Helvetica-Oblique findfont 56.3093 sf 0 0 m (t) show NC gr 
 gsave  2268 1103 0 472 C 1720.03 1204.91 t 0 r /Helvetica findfont 56.3093 sf 0 0 m ( ) show NC gr  0 0 1 c 3 lw 1626 1193 m 79 X 51 Y -79 X f 6 lw black
 gsave  2268 1103 0 472 C 1332.21 1130.9 t 0 r /Helvetica-Oblique findfont 56.3093 sf 0 0 m (tWZ/tWH) show NC gr 
 gsave  2268 1103 0 472 C 1314.45 1130.9 t 0 r /Helvetica findfont 56.3093 sf 0 0 m ( ) show NC gr  0.2 0.8 0.8 c 3 lw 1219 1119 m 79 X 52 Y -79 X f black
 gsave  2268 1103 0 472 C 1737.79 1130.9 t 0 r /Helvetica-Oblique findfont 56.3093 sf 0 0 m (tHq) show NC gr 
 gsave  2268 1103 0 472 C 1720.03 1130.9 t 0 r /Helvetica findfont 56.3093 sf 0 0 m ( ) show NC gr  1 0 0 c 3 lw 1626 1119 m 79 X 52 Y -79 X f black
 gsave  2268 1103 0 472 C 1314.45 1056.89 t 0 r /Helvetica findfont 56.3093 sf 0 0 m ( Other) show NC gr  1 0.84 0 c 3 lw 1219 1046 m 79 X 51 Y -79 X f black
 gsave  2268 1103 0 472 C 1720.03 1056.89 t 0 r /Helvetica findfont 56.3093 sf 0 0 m ( Uncertainty) show NC gr  0.6 0.6 0.6 c 3 lw 1705 1061 m -15 -15 d s 1705 1080 m -34 -34 d s 1703 1097 m -51 -51 d s 1684 1097 m -51 -51 d s 1665 1097 m -39 -39 d s
 1646 1097 m -20 -20 d s 1626 1097 m s 1 0.84 0 c 0.6 0.6 0.6 c black
 gsave  2268 1103 0 472 C 894.061 1329.25 t 0 r /Helvetica findfont 41.4911 sf 0 0 m (\2551) show NC gr 
 gsave  2268 1103 0 472 C 399.663 1299.64 t 0 r /Helvetica findfont 62.2366 sf 0 0 m ( = 13 TeV,  139 fb) show NC gr 
 gsave  2268 1103 0 472 C 370.058 1299.64 t 0 r /Helvetica findfont 62.2366 sf 0 0 m (s) show NC gr  6 lw 349 1335 m 6 -38 d s 3 lw 355 1297 m 6 56 d s 361 1353 m 39 X s
 gsave  2268 1103 0 472 C 808.207 1201.95 t 0 r /Helvetica findfont 62.2366 sf 0 0 m (\)) show NC gr 
 gsave  2268 1103 0 472 C 740.116 1201.95 t 0 r /Helvetica-Oblique findfont 62.2366 sf 0 0 m (W) show NC gr 
 gsave  2268 1103 0 472 C 716.433 1201.95 t 0 r /Helvetica-Oblique findfont 62.2366 sf 0 0 m (t) show NC gr  6 lw 716 1252 m 24 X s
 gsave  2268 1103 0 472 C 692.749 1201.95 t 0 r /Helvetica-Oblique findfont 62.2366 sf 0 0 m (t) show NC gr 
 gsave  2268 1103 0 472 C 337.493 1201.95 t 0 r /Helvetica findfont 62.2366 sf 0 0 m ( 2L\(SS\), CR\() show NC gr 
 gsave  2268 1103 0 472 C 337.493 1400.3 t 0 r /Helvetica-BoldOblique findfont 71.1276 sf 0 0 m (ATLAS) show NC gr 
 gsave  2268 1103 0 472 C 633.54 1400.3 t 0 r /Helvetica findfont 71.1276 sf 0 0 m (Internal) show NC gr 
 gr  gr showpage
end
%%EOF
