%!PS-Adobe-2.0 EPSF-2.0
%%BoundingBox:  0 0 567 394
%%Title: /lhome/ific/c/cardillo/tHq/Plots/Plots-30-05-22-PLIV-SF/2LSS_MC/Njets_Pre.eps: Njets_Pre
%%Creator: ROOT Version 6.20/06
%%CreationDate: Mon May 30 19:26:15 2022
%%DocumentNeededResources: ProcSet (FontSetInit)
%%EndComments
%%BeginProlog
80 dict begin
/s {stroke} def /l {lineto} def /m {moveto} def /t {translate} def
/r {rotate} def /rl {roll}  def /R {repeat} def
/d {rlineto} def /rm {rmoveto} def /gr {grestore} def /f {eofill} def
/c {setrgbcolor} def /black {0 setgray} def /sd {setdash} def
/cl {closepath} def /sf {scalefont setfont} def /lw {setlinewidth} def
/box {m dup 0 exch d exch 0 d 0 exch neg d cl} def
/NC{systemdict begin initclip end}def/C{NC box clip newpath}def
/bl {box s} def /bf {gsave box gsave f grestore 1 lw [] 0 sd s grestore} def /Y { 0 exch d} def /X { 0 d} def 
/K {{pop pop 0 moveto} exch kshow} bind def
/ita {/ang 15 def gsave [1 0 ang dup sin exch cos div 1 0 0] concat} def 
/mp {newpath /y exch def /x exch def} def
/side {[w .77 mul w .23 mul] .385 w mul sd w 0 l currentpoint t -144 r} def
/mr {mp x y w2 0 360 arc} def /m24 {mr s} def /m20 {mr f} def
/mb {mp x y w2 add m w2 neg 0 d 0 w neg d w 0 d 0 w d cl} def
/mt {mp x y w2 add m w2 neg w neg d w 0 d cl} def
/w4 {w 4 div} def
/w6 {w 6 div} def
/w8 {w 8 div} def
/m21 {mb f} def /m25 {mb s} def /m22 {mt f} def /m26{mt s} def
/m23 {mp x y w2 sub m w2 w d w neg 0 d cl f} def
/m27 {mp x y w2 add m w3 neg w2 neg d w3 w2 neg d w3 w2 d cl s} def
/m28 {mp x w2 sub y w2 sub w3 add m w3 0 d  0 w3 neg d w3 0 d 0 w3 d w3 0 d  0 w3 d w3 neg 0 d 0 w3 d w3 neg 0 d 0 w3 neg d w3 neg 0 d cl s } def
/m29 {mp gsave x w2 sub y w2 add w3 sub m currentpoint t 4 {side} repeat cl fill gr} def
/m30 {mp gsave x w2 sub y w2 add w3 sub m currentpoint t 4 {side} repeat cl s gr} def
/m31 {mp x y w2 sub m 0 w d x w2 sub y m w 0 d x w2 sub y w2 add m w w neg d x w2 sub y w2 sub m w w d s} def
/m32 {mp x y w2 sub m w2 w d w neg 0 d cl s} def
/m33 {mp x y w2 add m w3 neg w2 neg d w3 w2 neg d w3 w2 d cl f} def
/m34 {mp x w2 sub y w2 sub w3 add m w3 0 d  0 w3 neg d w3 0 d 0 w3 d w3 0 d  0 w3 d w3 neg 0 d 0 w3 d w3 neg 0 d 0 w3 neg d w3 neg 0 d cl f } def
/m35 {mp x y w2 add m w2 neg w2 neg d w2 w2 neg d w2 w2 d w2 neg w2 d x y w2 sub m 0 w d x w2 sub y m w 0 d s} def
/m36 {mb x w2 sub y w2 add m w w neg d x w2 sub y w2 sub m w w d s} def
/m37 {mp x y m w4 neg w2 d w4 neg w2 neg d w2 0 d  w4 neg w2 neg d w2 0 d w4 neg w2 d w2 0 d w4 neg w2 d w4 neg w2 neg d cl s} def
/m38 {mp x w4 sub y w2 add m w4 neg w4 neg d 0 w2 neg d w4 w4 neg d w2 0 d w4 w4 d 0 w2 d w4 neg w4 d w2 neg 0 d x y w2 sub m 0 w d x w2 sub y m w 0 d cl s} def
/m39 {mp x y m w4 neg w2 d w4 neg w2 neg d w2 0 d  w4 neg w2 neg d w2 0 d w4 neg w2 d w2 0 d w4 neg w2 d w4 neg w2 neg d cl f} def
/m40 {mp x y m w4 w2 d w4 w4 neg d w2 neg w4 neg d w2 w4 neg d w4 neg w4 neg d w4 neg w2 d w4 neg w2 neg d w4 neg w4 d w2 w4 d w2 neg w4 d w4 w4 d w4 w2 neg d cl s} def
/m41 {mp x y m w4 w2 d w4 w4 neg d w2 neg w4 neg d w2 w4 neg d w4 neg w4 neg d w4 neg w2 d w4 neg w2 neg d w4 neg w4 d w2 w4 d w2 neg w4 d w4 w4 d w4 w2 neg d cl f} def
/m42 {mp x y w2 add m w8 neg w2 -3 4 div mul d w2 -3 4 div mul w8 neg d w2 3 4 div mul w8 neg d w8 w2 -3 4 div mul d w8 w2 3 4 div mul d w2 3 4 div mul w8 d w2 -3 4 div mul w8 d w8 neg w2 3 4 div mul d cl s} def
/m43 {mp x y w2 add m w8 neg w2 -3 4 div mul d w2 -3 4 div mul w8 neg d w2 3 4 div mul w8 neg d w8 w2 -3 4 div mul d w8 w2 3 4 div mul d w2 3 4 div mul w8 d w2 -3 4 div mul w8 d w8 neg w2 3 4 div mul d cl f} def
/m44 {mp x y m w6 neg w2 d w2 2 3 div mul 0 d w6 neg w2 neg d w2 w6 d 0 w2 -2 3 div mul d w2 neg w6 d w6 w2 neg d w2 -2 3 div mul 0 d w6 w2 d w2 neg w6 neg d 0 w2 2 3 div mul d w2 w6 neg d cl s} def
/m45 {mp x y m w6 neg w2 d w2 2 3 div mul 0 d w6 neg w2 neg d w2 w6 d 0 w2 -2 3 div mul d w2 neg w6 d w6 w2 neg d w2 -2 3 div mul 0 d w6 w2 d w2 neg w6 neg d 0 w2 2 3 div mul d w2 w6 neg d cl f} def
/m46 {mp x y w4 add m w4 neg w4 d w4 neg w4 neg d  w4 w4 neg d w4 neg w4 neg d w4 w4 neg d w4 w4 d w4 w4 neg d w4 w4 d w4 neg w4 d w4 w4 d w4 neg w4 d w4 neg w4 neg d cl s} def
/m47 {mp x y w4 add m w4 neg w4 d w4 neg w4 neg d w4 w4 neg d w4 neg w4 neg d  w4 w4 neg d w4 w4 d w4 w4 neg d w4 w4 d w4 neg w4 d w4 w4 d w4 neg w4 d w4 neg w4 neg d cl f} def
/m48 {mp x y w4 add m w4 neg w4 d w4 neg w4 neg d w4 w4 neg d  w4 neg w4 neg d w4 w4 neg d w4 w4 d w4 w4 neg d w4 w4 d w4 neg w4 d w4 w4 d w4 neg w4 d w4 neg w4 neg d  w4 w4 neg d w4 neg w4 neg d w4 neg w4 d w4 w4 d cl f} def
/m49 {mp x w2 sub w3 add y w2 sub w3 add m  0 w3 neg d w3 0 d 0 w3 d w3 0 d 0 w3 d w3 neg 0 d 0 w3 d w3 neg 0 d 0 w3 neg d w3 neg 0 d 0 w3 neg d w3 0 d 0 w3 d w3 0 d 0 w3 neg d w3 neg 0 d cl f } def
/m2 {mp x y w2 sub m 0 w d x w2 sub y m w 0 d s} def
/m5 {mp x w2 sub y w2 sub m w w d x w2 sub y w2 add m w w neg d s} def
%%IncludeResource: ProcSet (FontSetInit)
%%IncludeResource: font Times-Roman
%%IncludeResource: font Times-Italic
%%IncludeResource: font Times-Bold
%%IncludeResource: font Times-BoldItalic
%%IncludeResource: font Helvetica
%%IncludeResource: font Helvetica-Oblique
%%IncludeResource: font Helvetica-Bold
%%IncludeResource: font Helvetica-BoldOblique
%%IncludeResource: font Courier
%%IncludeResource: font Courier-Oblique
%%IncludeResource: font Courier-Bold
%%IncludeResource: font Courier-BoldOblique
%%IncludeResource: font Symbol
%%IncludeResource: font ZapfDingbats
/reEncode {exch findfont dup length dict begin {1 index /FID eq  {pop pop} {def} ifelse } forall /Encoding exch def currentdict end dup /FontName get exch definefont pop } def [/Times-Bold /Times-Italic /Times-BoldItalic /Helvetica /Helvetica-Oblique
 /Helvetica-Bold /Helvetica-BoldOblique /Courier /Courier-Oblique /Courier-Bold /Courier-BoldOblique /Times-Roman /AvantGarde-Book /AvantGarde-BookOblique /AvantGarde-Demi /AvantGarde-DemiOblique /Bookman-Demi /Bookman-DemiItalic /Bookman-Light
 /Bookman-LightItalic /Helvetica-Narrow /Helvetica-Narrow-Bold /Helvetica-Narrow-BoldOblique /Helvetica-Narrow-Oblique /NewCenturySchlbk-Roman /NewCenturySchlbk-Bold /NewCenturySchlbk-BoldItalic /NewCenturySchlbk-Italic /Palatino-Bold
 /Palatino-BoldItalic /Palatino-Italic /Palatino-Roman ] {ISOLatin1Encoding reEncode } forall
%%EndProlog
%%BeginSetup
%%EndSetup
newpath  gsave  .25 .25 scale  gsave  0 0 t black[  ] 0 sd 3 lw 1 1 1 c 2268 1575 0 0 bf black 1 1 1 c 2268 472 0 0 bf black 1 1 1 c 1927 274 227 189 bf black 1927 274 227 189 bl 227 189 m 1927 X s 227 201 m -12 Y s 291 195 m -6 Y s 355 195 m -6 Y s
 420 195 m -6 Y s 484 195 m -6 Y s 548 201 m -12 Y s 612 195 m -6 Y s 677 195 m -6 Y s 741 195 m -6 Y s 805 195 m -6 Y s 869 201 m -12 Y s 934 195 m -6 Y s 998 195 m -6 Y s 1062 195 m -6 Y s 1126 195 m -6 Y s 1191 201 m -12 Y s 1255 195 m -6 Y s 1319
 195 m -6 Y s 1383 195 m -6 Y s 1448 195 m -6 Y s 1512 201 m -12 Y s 1576 195 m -6 Y s 1640 195 m -6 Y s 1705 195 m -6 Y s 1769 195 m -6 Y s 1833 201 m -12 Y s 1897 195 m -6 Y s 1962 195 m -6 Y s 2026 195 m -6 Y s 2090 195 m -6 Y s 2154 201 m -12 Y s
 gsave  2268 472 0 0 C 213.154 127.3 t 0 r /Helvetica findfont 53.4895 sf 0 0 m (1) show NC gr 
 gsave  2268 472 0 0 C 532.884 127.3 t 0 r /Helvetica findfont 53.4895 sf 0 0 m (2) show NC gr 
 gsave  2268 472 0 0 C 852.614 127.3 t 0 r /Helvetica findfont 53.4895 sf 0 0 m (3) show NC gr 
 gsave  2268 472 0 0 C 1175.3 127.3 t 0 r /Helvetica findfont 53.4895 sf 0 0 m (4) show NC gr 
 gsave  2268 472 0 0 C 1495.04 127.3 t 0 r /Helvetica findfont 53.4895 sf 0 0 m (5) show NC gr 
 gsave  2268 472 0 0 C 1817.73 127.3 t 0 r /Helvetica findfont 53.4895 sf 0 0 m (6) show NC gr 
 gsave  2268 472 0 0 C 2137.46 127.3 t 0 r /Helvetica findfont 53.4895 sf 0 0 m (7) show NC gr 
 gsave  2268 472 0 0 C 2090.09 35.5256 t 0 r /Helvetica findfont 38.6313 sf 0 0 m (jets) show NC gr 
 gsave  2268 472 0 0 C 2042.72 53.2884 t 0 r /Helvetica-Oblique findfont 56.4611 sf 0 0 m (N) show NC gr  227 463 m 1927 X s 227 451 m 12 Y s 291 457 m 6 Y s 355 457 m 6 Y s 420 457 m 6 Y s 484 457 m 6 Y s 548 451 m 12 Y s 612 457 m 6 Y s 677 457 m 6
 Y s 741 457 m 6 Y s 805 457 m 6 Y s 869 451 m 12 Y s 934 457 m 6 Y s 998 457 m 6 Y s 1062 457 m 6 Y s 1126 457 m 6 Y s 1191 451 m 12 Y s 1255 457 m 6 Y s 1319 457 m 6 Y s 1383 457 m 6 Y s 1448 457 m 6 Y s 1512 451 m 12 Y s 1576 457 m 6 Y s 1640 457
 m 6 Y s 1705 457 m 6 Y s 1769 457 m 6 Y s 1833 451 m 12 Y s 1897 457 m 6 Y s 1962 457 m 6 Y s 2026 457 m 6 Y s 2090 457 m 6 Y s 2154 451 m 12 Y s 227 189 m 274 Y s 240 240 m -13 X s 240 326 m -13 X s 240 412 m -13 X s 240 240 m -13 X s 240 412 m -13
 X s
 gsave  2268 472 0 0 C 118.419 222.035 t 0 r /Helvetica findfont 53.4895 sf 0 0 m (0.5) show NC gr 
 gsave  2268 472 0 0 C 171.707 307.888 t 0 r /Helvetica findfont 53.4895 sf 0 0 m (1) show NC gr 
 gsave  2268 472 0 0 C 118.419 393.742 t 0 r /Helvetica findfont 53.4895 sf 0 0 m (1.5) show NC gr 
 gsave  2268 472 0 0 C 71.0512 230.916 t 90 r /Helvetica findfont 53.4895 sf 0 0 m (Data / SM) show NC gr  2154 189 m 274 Y s 2141 240 m 13 X s 2141 326 m 13 X s 2141 412 m 13 X s 2141 240 m 13 X s 2141 412 m 13 X s 227 189 m 1927 X s 227 463 m 1927
 X s 227 189 m 274 Y s[ 4 8] 0 sd 2154 240 m -1927 X s 2154 326 m -1927 X s 2154 412 m -1927 X s 2154 240 m -1927 X s 2154 412 m -1927 X s[  ] 0 sd 2154 189 m 274 Y s 1 1 0.6 c 321 0 227 326 bf 321 0 548 326 bf 322 0 869 326 bf 321 0 1191 326 bf 321
 0 1512 326 bf 321 0 1833 326 bf black 0.6 0.6 0.6 c 548 318 m -6 -6 d s 548 338 m -25 -26 d s 531 340 m -27 -28 d s 511 340 m -27 -28 d s 492 340 m -27 -28 d s 473 340 m -27 -28 d s 454 340 m -27 -28 d s 435 340 m -27 -28 d s 415 340 m -27 -28 d s
 396 340 m -27 -28 d s 377 340 m -27 -28 d s 358 340 m -27 -28 d s 338 340 m -27 -28 d s 319 340 m -27 -28 d s 300 340 m -27 -28 d s 281 340 m -27 -28 d s 261 340 m -27 -28 d s 242 340 m -15 -16 d s 869 332 m -11 -12 d s 850 332 m -12 -12 d s 831 332
 m -12 -12 d s 812 332 m -12 -12 d s 793 332 m -12 -12 d s 773 332 m -12 -12 d s 754 332 m -12 -12 d s 735 332 m -12 -12 d s 716 332 m -12 -12 d s 696 332 m -12 -12 d s 677 332 m -12 -12 d s 658 332 m -12 -12 d s 639 332 m -12 -12 d s 619 332 m -12
 -12 d s 600 332 m -12 -12 d s 581 332 m -12 -12 d s 562 332 m -12 -12 d s 1191 326 m -3 -3 d s 1174 329 m -5 -6 d s 1155 329 m -6 -6 d s 1136 329 m -6 -6 d s 1117 329 m -6 -6 d s 1097 329 m -5 -6 d s 1078 329 m -6 -6 d s 1059 329 m -6 -6 d s 1040
 329 m -6 -6 d s 1020 329 m -5 -6 d s 1001 329 m -6 -6 d s 982 329 m -6 -6 d s 963 329 m -6 -6 d s 943 329 m -5 -6 d s 924 329 m -6 -6 d s 905 329 m -6 -6 d s 886 329 m -6 -6 d s 1501 328 m -5 -4 d s 1482 328 m -5 -4 d s 1462 328 m -4 -4 d s 1443 328
 m -4 -4 d s 1424 328 m -5 -4 d s 1405 328 m -5 -4 d s 1385 328 m -4 -4 d s 1366 328 m -4 -4 d s 1347 328 m -5 -4 d s 1328 328 m -5 -4 d s 1308 328 m -4 -4 d s 1289 328 m -4 -4 d s 1270 328 m -5 -4 d s 1251 328 m -5 -4 d s 1232 328 m -5 -4 d s 1212
 328 m -4 -4 d s 1193 328 m -2 -2 d s 1828 328 m -4 -4 d s 1808 328 m -3 -4 d s 1789 328 m -4 -4 d s 1770 328 m -4 -4 d s 1751 328 m -4 -4 d s 1731 328 m -3 -4 d s 1712 328 m -4 -4 d s 1693 328 m -4 -4 d s 1674 328 m -4 -4 d s 1654 328 m -3 -4 d s
 1635 328 m -4 -4 d s 1616 328 m -4 -4 d s 1597 328 m -4 -4 d s 1577 328 m -3 -4 d s 1558 328 m -4 -4 d s 1539 328 m -4 -4 d s 1520 328 m -4 -4 d s 2154 328 m -3 -4 d s 2136 328 m -4 -4 d s 2116 328 m -4 -4 d s 2097 328 m -4 -4 d s 2078 328 m -4 -4 d
 s 2059 328 m -4 -4 d s 2039 328 m -4 -4 d s 2020 328 m -4 -4 d s 2001 328 m -4 -4 d s 1982 328 m -4 -4 d s 1962 328 m -4 -4 d s 1943 328 m -4 -4 d s 1924 328 m -4 -4 d s 1905 328 m -4 -4 d s 1885 328 m -4 -4 d s 1866 328 m -4 -4 d s 1847 328 m -4 -4
 d s black 1 1 1 c black 387 336 m 2 Y s 387 361 m 2 Y s /w 26 def /w2 {w 2 div} def /w3 {w 3 div} def 387 350 m20 709 366 m20 1030 350 m20 1351 337 m20 1672 332 m20 1994 346 m20 227 326 m 1927 X s 227 189 m 1927 X s 227 201 m -12 Y s 291 195 m -6 Y
 s 355 195 m -6 Y s 420 195 m -6 Y s 484 195 m -6 Y s 548 201 m -12 Y s 612 195 m -6 Y s 677 195 m -6 Y s 741 195 m -6 Y s 805 195 m -6 Y s 869 201 m -12 Y s 934 195 m -6 Y s 998 195 m -6 Y s 1062 195 m -6 Y s 1126 195 m -6 Y s 1191 201 m -12 Y s
 1255 195 m -6 Y s 1319 195 m -6 Y s 1383 195 m -6 Y s 1448 195 m -6 Y s 1512 201 m -12 Y s 1576 195 m -6 Y s 1640 195 m -6 Y s 1705 195 m -6 Y s 1769 195 m -6 Y s 1833 201 m -12 Y s 1897 195 m -6 Y s 1962 195 m -6 Y s 2026 195 m -6 Y s 2090 195 m -6
 Y s 2154 201 m -12 Y s 227 463 m 1927 X s 227 451 m 12 Y s 291 457 m 6 Y s 355 457 m 6 Y s 420 457 m 6 Y s 484 457 m 6 Y s 548 451 m 12 Y s 612 457 m 6 Y s 677 457 m 6 Y s 741 457 m 6 Y s 805 457 m 6 Y s 869 451 m 12 Y s 934 457 m 6 Y s 998 457 m 6
 Y s 1062 457 m 6 Y s 1126 457 m 6 Y s 1191 451 m 12 Y s 1255 457 m 6 Y s 1319 457 m 6 Y s 1383 457 m 6 Y s 1448 457 m 6 Y s 1512 451 m 12 Y s 1576 457 m 6 Y s 1640 457 m 6 Y s 1705 457 m 6 Y s 1769 457 m 6 Y s 1833 451 m 12 Y s 1897 457 m 6 Y s 1962
 457 m 6 Y s 2026 457 m 6 Y s 2090 457 m 6 Y s 2154 451 m 12 Y s 227 189 m 274 Y s 240 240 m -13 X s 240 326 m -13 X s 240 412 m -13 X s 240 240 m -13 X s 240 412 m -13 X s 2154 189 m 274 Y s 2141 240 m 13 X s 2141 326 m 13 X s 2141 412 m 13 X s 2141
 240 m 13 X s 2141 412 m 13 X s 1 1 1 c 2268 1103 0 472 bf black 1 1 1 c 1927 1036 227 484 bf black 1927 1036 227 484 bl 1 1 1 c black 3 lw 227 484 m 1927 X s 227 502 m -18 Y s 291 493 m -9 Y s 355 493 m -9 Y s 420 493 m -9 Y s 484 493 m -9 Y s 548
 502 m -18 Y s 612 493 m -9 Y s 677 493 m -9 Y s 741 493 m -9 Y s 805 493 m -9 Y s 869 502 m -18 Y s 934 493 m -9 Y s 998 493 m -9 Y s 1062 493 m -9 Y s 1126 493 m -9 Y s 1191 502 m -18 Y s 1255 493 m -9 Y s 1319 493 m -9 Y s 1383 493 m -9 Y s 1448
 493 m -9 Y s 1512 502 m -18 Y s 1576 493 m -9 Y s 1640 493 m -9 Y s 1705 493 m -9 Y s 1769 493 m -9 Y s 1833 502 m -18 Y s 1897 493 m -9 Y s 1962 493 m -9 Y s 2026 493 m -9 Y s 2090 493 m -9 Y s 2154 502 m -18 Y s
 gsave  2268 1103 0 472 C 2116.73 396.702 t 0 r /Helvetica findfont 20.7455 sf 0 0 m (jets) show NC gr 
 gsave  2268 1103 0 472 C 2090.09 405.584 t 0 r /Helvetica-Oblique findfont 29.6365 sf 0 0 m (N) show NC gr  227 1520 m 1927 X s 227 1501 m 19 Y s 291 1510 m 10 Y s 355 1510 m 10 Y s 420 1510 m 10 Y s 484 1510 m 10 Y s 548 1501 m 19 Y s 612 1510 m 10
 Y s 677 1510 m 10 Y s 741 1510 m 10 Y s 805 1510 m 10 Y s 869 1501 m 19 Y s 934 1510 m 10 Y s 998 1510 m 10 Y s 1062 1510 m 10 Y s 1126 1510 m 10 Y s 1191 1501 m 19 Y s 1255 1510 m 10 Y s 1319 1510 m 10 Y s 1383 1510 m 10 Y s 1448 1510 m 10 Y s 1512
 1501 m 19 Y s 1576 1510 m 10 Y s 1640 1510 m 10 Y s 1705 1510 m 10 Y s 1769 1510 m 10 Y s 1833 1501 m 19 Y s 1897 1510 m 10 Y s 1962 1510 m 10 Y s 2026 1510 m 10 Y s 2090 1510 m 10 Y s 2154 1501 m 19 Y s 227 484 m 1036 Y s 248 601 m -21 X s 237 630
 m -10 X s 237 660 m -10 X s 237 689 m -10 X s 248 719 m -21 X s 237 748 m -10 X s 237 777 m -10 X s 237 807 m -10 X s 248 836 m -21 X s 237 866 m -10 X s 237 895 m -10 X s 237 924 m -10 X s 248 954 m -21 X s 237 983 m -10 X s 237 1013 m -10 X s 237
 1042 m -10 X s 248 1071 m -21 X s 237 1101 m -10 X s 237 1130 m -10 X s 237 1159 m -10 X s 248 1189 m -21 X s 237 1218 m -10 X s 237 1248 m -10 X s 237 1277 m -10 X s 248 1306 m -21 X s 237 1336 m -10 X s 237 1365 m -10 X s 237 1395 m -10 X s 248
 1424 m -21 X s 248 601 m -21 X s 237 572 m -10 X s 237 542 m -10 X s 237 513 m -10 X s 248 1424 m -21 X s 237 1453 m -10 X s 237 1483 m -10 X s 237 1512 m -10 X s
 gsave  2268 1103 0 472 C 118.419 583.212 t 0 r /Helvetica findfont 50.382 sf 0 0 m (200) show NC gr 
 gsave  2268 1103 0 472 C 118.419 698.67 t 0 r /Helvetica findfont 50.382 sf 0 0 m (400) show NC gr 
 gsave  2268 1103 0 472 C 118.419 817.089 t 0 r /Helvetica findfont 50.382 sf 0 0 m (600) show NC gr 
 gsave  2268 1103 0 472 C 118.419 935.507 t 0 r /Helvetica findfont 50.382 sf 0 0 m (800) show NC gr 
 gsave  2268 1103 0 472 C 91.7744 1050.97 t 0 r /Helvetica findfont 50.382 sf 0 0 m (1000) show NC gr 
 gsave  2268 1103 0 472 C 91.7744 1169.38 t 0 r /Helvetica findfont 50.382 sf 0 0 m (1200) show NC gr 
 gsave  2268 1103 0 472 C 91.7744 1287.8 t 0 r /Helvetica findfont 50.382 sf 0 0 m (1400) show NC gr 
 gsave  2268 1103 0 472 C 91.7744 1406.22 t 0 r /Helvetica findfont 50.382 sf 0 0 m (1600) show NC gr 
 gsave  2268 1103 0 472 C 62.1698 1367.74 t 90 r /Helvetica findfont 50.382 sf 0 0 m (Events) show NC gr  2154 484 m 1036 Y s 2133 601 m 21 X s 2144 630 m 10 X s 2144 660 m 10 X s 2144 689 m 10 X s 2133 719 m 21 X s 2144 748 m 10 X s 2144 777 m 10 X
 s 2144 807 m 10 X s 2133 836 m 21 X s 2144 866 m 10 X s 2144 895 m 10 X s 2144 924 m 10 X s 2133 954 m 21 X s 2144 983 m 10 X s 2144 1013 m 10 X s 2144 1042 m 10 X s 2133 1071 m 21 X s 2144 1101 m 10 X s 2144 1130 m 10 X s 2144 1159 m 10 X s 2133
 1189 m 21 X s 2144 1218 m 10 X s 2144 1248 m 10 X s 2144 1277 m 10 X s 2133 1306 m 21 X s 2144 1336 m 10 X s 2144 1365 m 10 X s 2144 1395 m 10 X s 2133 1424 m 21 X s 2133 601 m 21 X s 2144 572 m 10 X s 2144 542 m 10 X s 2144 513 m 10 X s 2133 1424 m
 21 X s 2144 1453 m 10 X s 2144 1483 m 10 X s 2144 1512 m 10 X s 0.06 0.54 0.06 c black 3 lw 0.06 0.54 0.06 c 227 484 m 103 Y 321 X 151 Y 321 X 116 Y 322 X 44 Y 321 X -77 Y 321 X -118 Y 321 X -219 Y f 1 0.653333 0 c 0.999 0.999 0.999 c black 3 lw
 0.999 0.999 0.999 c 227 484 m 74 Y 321 X 56 Y 321 X 60 Y 322 X 56 Y 321 X -29 Y 321 X -68 Y 321 X -149 Y f 1 0.653333 0 c 0.999 0.999 0.999 c 1 0.653333 0 c 1 1 1 c black 1 0.653333 0 c black 3 lw 1 0.653333 0 c 227 484 m 74 Y 321 X 56 Y 321 X 60 Y
 322 X 56 Y 321 X -29 Y 321 X -68 Y 321 X -149 Y f 0.413333 1 0 c 0.999 0.999 0.999 c black 3 lw 0.999 0.999 0.999 c 227 484 m 27 Y 321 X 51 Y 321 X 76 Y 322 X 65 Y 321 X -19 Y 321 X -59 Y 321 X -141 Y f 0.413333 1 0 c 0.999 0.999 0.999 c 0.413333 1
 0 c 1 1 1 c black 0.413333 1 0 c black 3 lw 0.413333 1 0 c 227 484 m 27 Y 321 X 51 Y 321 X 76 Y 322 X 65 Y 321 X -19 Y 321 X -59 Y 321 X -141 Y f 0.6 0.2 1 c 0.999 0.999 0.999 c black 3 lw 0.999 0.999 0.999 c 227 484 m 7 Y 321 X 31 Y 321 X 74 Y 322
 X 76 Y 321 X -8 Y 321 X -49 Y 321 X -131 Y f 0.6 0.2 1 c 0.999 0.999 0.999 c 0.6 0.2 1 c 1 1 1 c black 0.6 0.2 1 c black 3 lw 0.6 0.2 1 c 227 484 m 7 Y 321 X 31 Y 321 X 74 Y 322 X 76 Y 321 X -8 Y 321 X -49 Y 321 X -131 Y f 0.54 0.06 0.06 c 0.999
 0.999 0.999 c black 3 lw 0.999 0.999 0.999 c 227 484 m 6 Y 321 X 29 Y 321 X 66 Y 322 X 63 Y 321 X -14 Y 321 X -44 Y 321 X -106 Y f 0.54 0.06 0.06 c 0.999 0.999 0.999 c 0.54 0.06 0.06 c 1 1 1 c black 0.54 0.06 0.06 c black 3 lw 0.54 0.06 0.06 c 227
 484 m 6 Y 321 X 29 Y 321 X 66 Y 322 X 63 Y 321 X -14 Y 321 X -44 Y 321 X -106 Y f 1 0 1 c 0.999 0.999 0.999 c black 3 lw 0.999 0.999 0.999 c 227 484 m 4 Y 321 X 9 Y 321 X 13 Y 322 X 11 Y 642 X -5 Y 321 X -32 Y f 1 0 1 c 0.999 0.999 0.999 c 1 0 1 c 1
 1 1 c black 1 0 1 c black 3 lw 1 0 1 c 227 484 m 4 Y 321 X 9 Y 321 X 13 Y 322 X 11 Y 642 X -5 Y 321 X -32 Y f 0 0 1 c 0.999 0.999 0.999 c black 3 lw 0.999 0.999 0.999 c 227 484 m 3 Y 321 X 3 Y 321 X 6 Y 322 X 12 Y 321 X 5 Y 321 X -1 Y 321 X -28 Y f
 0 0 1 c 0.999 0.999 0.999 c 0 0 1 c 1 1 1 c black 0 0 1 c black 3 lw 0 0 1 c 227 484 m 3 Y 321 X 3 Y 321 X 6 Y 322 X 12 Y 321 X 5 Y 321 X -1 Y 321 X -28 Y f 0.2 0.8 0.8 c 0.999 0.999 0.999 c black 3 lw 0.999 0.999 0.999 c 227 484 m 3 Y 321 X 2 Y 643
 X 2 Y 321 X -2 Y 642 X -5 Y f 0.2 0.8 0.8 c 0.999 0.999 0.999 c 0.2 0.8 0.8 c 1 1 1 c black 0.2 0.8 0.8 c black 3 lw 0.2 0.8 0.8 c 227 484 m 3 Y 321 X 2 Y 643 X 2 Y 321 X -2 Y 642 X -5 Y f 1 0 0 c 0.999 0.999 0.999 c black 3 lw 0.999 0.999 0.999 c
 227 484 m 3 Y 321 X 1 Y 321 X -1 Y 643 X -1 Y 642 X -2 Y f 1 0 0 c 0.999 0.999 0.999 c 1 0 0 c 1 1 1 c black 1 0 0 c black 3 lw 1 0 0 c 227 484 m 3 Y 321 X 1 Y 321 X -1 Y 643 X -1 Y 642 X -2 Y f 1 0.84 0 c 0.999 0.999 0.999 c black 3 lw 0.999 0.999
 0.999 c 227 484 m 3 Y 642 X -1 Y 643 X -2 Y 321 X 2 Y 321 X -2 Y f 1 0.84 0 c 0.999 0.999 0.999 c 1 0.84 0 c 1 1 1 c black 1 0.84 0 c black 3 lw 1 0.84 0 c 227 484 m 3 Y 642 X -1 Y 643 X -2 Y 321 X 2 Y 321 X -2 Y f black 1 1 1 c black 0.6 0.6 0.6 c
 3 lw 547 596 m -17 -17 d s 527 596 m -16 -17 d s 508 596 m -16 -17 d s 489 596 m -17 -17 d s 470 596 m -17 -17 d s 450 596 m -16 -17 d s 431 596 m -16 -17 d s 412 596 m -17 -17 d s 393 596 m -17 -17 d s 373 596 m -16 -17 d s 354 596 m -16 -17 d s
 335 596 m -17 -17 d s 316 596 m -17 -17 d s 296 596 m -16 -17 d s 277 596 m -16 -17 d s 258 596 m -17 -17 d s 239 596 m -12 -12 d s 3 lw 869 745 m -15 -16 d s 852 747 m -18 -18 d s 833 747 m -18 -18 d s 814 747 m -18 -18 d s 795 747 m -18 -18 d s
 775 747 m -18 -18 d s 756 747 m -18 -18 d s 737 747 m -18 -18 d s 718 747 m -18 -18 d s 698 747 m -17 -18 d s 679 747 m -18 -18 d s 660 747 m -18 -18 d s 641 747 m -18 -18 d s 621 747 m -17 -18 d s 602 747 m -18 -18 d s 583 747 m -18 -18 d s 564 747
 m -16 -16 d s 3 lw 1191 854 m -7 -6 d s 1177 860 m -12 -12 d s 1158 860 m -13 -12 d s 1139 860 m -13 -12 d s 1120 860 m -13 -12 d s 1100 860 m -12 -12 d s 1081 860 m -13 -12 d s 1062 860 m -13 -12 d s 1043 860 m -13 -12 d s 1023 860 m -12 -12 d s
 1004 860 m -13 -12 d s 985 860 m -13 -12 d s 966 860 m -13 -12 d s 946 860 m -12 -12 d s 927 860 m -12 -12 d s 908 860 m -13 -12 d s 889 860 m -13 -12 d s 869 860 m s 3 lw 1509 904 m -11 -12 d s 1490 904 m -11 -12 d s 1471 904 m -11 -12 d s 1452 904
 m -12 -12 d s 1433 904 m -12 -12 d s 1413 904 m -11 -12 d s 1394 904 m -11 -12 d s 1375 904 m -12 -12 d s 1356 904 m -12 -12 d s 1336 904 m -11 -12 d s 1317 904 m -11 -12 d s 1298 904 m -12 -12 d s 1279 904 m -12 -12 d s 1259 904 m -11 -12 d s 1240
 904 m -11 -12 d s 1221 904 m -12 -12 d s 1202 904 m -11 -11 d s 3 lw 1833 823 m -6 -6 d s 1815 825 m -7 -8 d s 1796 825 m -7 -8 d s 1777 825 m -8 -8 d s 1757 825 m -7 -8 d s 1738 825 m -7 -8 d s 1719 825 m -7 -8 d s 1700 825 m -8 -8 d s 1680 825 m
 -7 -8 d s 1661 825 m -7 -8 d s 1642 825 m -7 -8 d s 1623 825 m -8 -8 d s 1603 825 m -7 -8 d s 1584 825 m -7 -8 d s 1565 825 m -7 -8 d s 1546 825 m -8 -8 d s 1526 825 m -7 -8 d s 3 lw 2154 702 m -2 -2 d s 2138 705 m -5 -5 d s 2119 705 m -5 -5 d s
 2100 705 m -5 -5 d s 2080 705 m -5 -5 d s 2061 705 m -5 -5 d s 2042 705 m -5 -5 d s 2023 705 m -5 -5 d s 2003 705 m -5 -5 d s 1984 705 m -5 -5 d s 1965 705 m -5 -5 d s 1946 705 m -5 -5 d s 1927 705 m -6 -5 d s 1907 705 m -5 -5 d s 1888 705 m -5 -5 d
 s 1869 705 m -5 -5 d s 1850 705 m -6 -5 d s black 3 lw 1 1 1 c black /w 24 def /w2 {w 2 div} def /w3 {w 3 div} def 387 602 m20 709 784 m 2 Y s 709 809 m 2 Y s 709 797 m20 1030 889 m 4 Y s 1030 917 m 4 Y s 1030 905 m20 1351 908 m 5 Y s 1351 936 m 4 Y
 s 1351 924 m20 1672 818 m 2 Y s 1672 844 m 2 Y s 1672 832 m20 1994 717 m s 1994 740 m 1 Y s 1994 729 m20 227 484 m 1927 X s 227 502 m -18 Y s 291 493 m -9 Y s 355 493 m -9 Y s 420 493 m -9 Y s 484 493 m -9 Y s 548 502 m -18 Y s 612 493 m -9 Y s 677
 493 m -9 Y s 741 493 m -9 Y s 805 493 m -9 Y s 869 502 m -18 Y s 934 493 m -9 Y s 998 493 m -9 Y s 1062 493 m -9 Y s 1126 493 m -9 Y s 1191 502 m -18 Y s 1255 493 m -9 Y s 1319 493 m -9 Y s 1383 493 m -9 Y s 1448 493 m -9 Y s 1512 502 m -18 Y s 1576
 493 m -9 Y s 1640 493 m -9 Y s 1705 493 m -9 Y s 1769 493 m -9 Y s 1833 502 m -18 Y s 1897 493 m -9 Y s 1962 493 m -9 Y s 2026 493 m -9 Y s 2090 493 m -9 Y s 2154 502 m -18 Y s 227 1520 m 1927 X s 227 1501 m 19 Y s 291 1510 m 10 Y s 355 1510 m 10 Y
 s 420 1510 m 10 Y s 484 1510 m 10 Y s 548 1501 m 19 Y s 612 1510 m 10 Y s 677 1510 m 10 Y s 741 1510 m 10 Y s 805 1510 m 10 Y s 869 1501 m 19 Y s 934 1510 m 10 Y s 998 1510 m 10 Y s 1062 1510 m 10 Y s 1126 1510 m 10 Y s 1191 1501 m 19 Y s 1255 1510
 m 10 Y s 1319 1510 m 10 Y s 1383 1510 m 10 Y s 1448 1510 m 10 Y s 1512 1501 m 19 Y s 1576 1510 m 10 Y s 1640 1510 m 10 Y s 1705 1510 m 10 Y s 1769 1510 m 10 Y s 1833 1501 m 19 Y s 1897 1510 m 10 Y s 1962 1510 m 10 Y s 2026 1510 m 10 Y s 2090 1510 m
 10 Y s 2154 1501 m 19 Y s 227 484 m 1036 Y s 248 601 m -21 X s 237 630 m -10 X s 237 660 m -10 X s 237 689 m -10 X s 248 719 m -21 X s 237 748 m -10 X s 237 777 m -10 X s 237 807 m -10 X s 248 836 m -21 X s 237 866 m -10 X s 237 895 m -10 X s 237
 924 m -10 X s 248 954 m -21 X s 237 983 m -10 X s 237 1013 m -10 X s 237 1042 m -10 X s 248 1071 m -21 X s 237 1101 m -10 X s 237 1130 m -10 X s 237 1159 m -10 X s 248 1189 m -21 X s 237 1218 m -10 X s 237 1248 m -10 X s 237 1277 m -10 X s 248 1306
 m -21 X s 237 1336 m -10 X s 237 1365 m -10 X s 237 1395 m -10 X s 248 1424 m -21 X s 248 601 m -21 X s 237 572 m -10 X s 237 542 m -10 X s 237 513 m -10 X s 248 1424 m -21 X s 237 1453 m -10 X s 237 1483 m -10 X s 237 1512 m -10 X s 2154 484 m 1036
 Y s 2133 601 m 21 X s 2144 630 m 10 X s 2144 660 m 10 X s 2144 689 m 10 X s 2133 719 m 21 X s 2144 748 m 10 X s 2144 777 m 10 X s 2144 807 m 10 X s 2133 836 m 21 X s 2144 866 m 10 X s 2144 895 m 10 X s 2144 924 m 10 X s 2133 954 m 21 X s 2144 983 m
 10 X s 2144 1013 m 10 X s 2144 1042 m 10 X s 2133 1071 m 21 X s 2144 1101 m 10 X s 2144 1130 m 10 X s 2144 1159 m 10 X s 2133 1189 m 21 X s 2144 1218 m 10 X s 2144 1248 m 10 X s 2144 1277 m 10 X s 2133 1306 m 21 X s 2144 1336 m 10 X s 2144 1365 m 10
 X s 2144 1395 m 10 X s 2133 1424 m 21 X s 2133 601 m 21 X s 2144 572 m 10 X s 2144 542 m 10 X s 2144 513 m 10 X s 2133 1424 m 21 X s 2144 1453 m 10 X s 2144 1483 m 10 X s 2144 1512 m 10 X s
 gsave  2268 1103 0 472 C 1314.45 1423.98 t 0 r /Helvetica findfont 56.3093 sf 0 0 m ( Data) show NC gr  1259 1451 m 10 Y s 1259 1427 m -10 Y s 1259 1439 m20
 gsave  2268 1103 0 472 C 1808.84 1423.98 t 0 r /Helvetica findfont 56.3093 sf 0 0 m (single\255top) show NC gr 
 gsave  2268 1103 0 472 C 1779.24 1423.98 t 0 r /Helvetica-Oblique findfont 56.3093 sf 0 0 m (/) show NC gr 
 gsave  2268 1103 0 472 C 1758.52 1423.98 t 0 r /Helvetica-Oblique findfont 56.3093 sf 0 0 m (t) show NC gr  6 lw 1759 1468 m 20 X s
 gsave  2268 1103 0 472 C 1737.79 1423.98 t 0 r /Helvetica-Oblique findfont 56.3093 sf 0 0 m (t) show NC gr 
 gsave  2268 1103 0 472 C 1720.03 1423.98 t 0 r /Helvetica findfont 56.3093 sf 0 0 m ( ) show NC gr  0.06 0.54 0.06 c 3 lw 1626 1413 m 79 X 52 Y -79 X f 6 lw black
 gsave  2268 1103 0 472 C 1444.71 1349.97 t 0 r /Helvetica findfont 56.3093 sf 0 0 m (+jets) show NC gr 
 gsave  2268 1103 0 472 C 1332.21 1349.97 t 0 r /Helvetica-Oblique findfont 56.3093 sf 0 0 m (W/Z) show NC gr 
 gsave  2268 1103 0 472 C 1314.45 1349.97 t 0 r /Helvetica findfont 56.3093 sf 0 0 m ( ) show NC gr  1 0.653333 0 c 3 lw 1219 1340 m 79 X 51 Y -79 X f black
 gsave  2268 1103 0 472 C 1918.38 1349.97 t 0 r /Helvetica findfont 56.3093 sf 0 0 m (+jets) show NC gr 
 gsave  2268 1103 0 472 C 1737.79 1349.97 t 0 r /Helvetica-Oblique findfont 56.3093 sf 0 0 m (WZ/ZZ) show NC gr 
 gsave  2268 1103 0 472 C 1720.03 1349.97 t 0 r /Helvetica findfont 56.3093 sf 0 0 m ( ) show NC gr  0.413333 1 0 c 3 lw 1626 1340 m 79 X 51 Y -79 X f black
 gsave  2268 1103 0 472 C 1373.66 1275.96 t 0 r /Helvetica-Oblique findfont 56.3093 sf 0 0 m (Z) show NC gr 
 gsave  2268 1103 0 472 C 1352.93 1275.96 t 0 r /Helvetica-Oblique findfont 56.3093 sf 0 0 m (t) show NC gr  6 lw 1353 1320 m 21 X s
 gsave  2268 1103 0 472 C 1332.21 1275.96 t 0 r /Helvetica-Oblique findfont 56.3093 sf 0 0 m (t) show NC gr 
 gsave  2268 1103 0 472 C 1314.45 1275.96 t 0 r /Helvetica findfont 56.3093 sf 0 0 m ( ) show NC gr  0.6 0.2 1 c 3 lw 1219 1266 m 79 X 52 Y -79 X f 6 lw black
 gsave  2268 1103 0 472 C 1779.24 1275.96 t 0 r /Helvetica-Oblique findfont 56.3093 sf 0 0 m (W) show NC gr 
 gsave  2268 1103 0 472 C 1758.52 1275.96 t 0 r /Helvetica-Oblique findfont 56.3093 sf 0 0 m (t) show NC gr  6 lw 1759 1320 m 20 X s
 gsave  2268 1103 0 472 C 1737.79 1275.96 t 0 r /Helvetica-Oblique findfont 56.3093 sf 0 0 m (t) show NC gr 
 gsave  2268 1103 0 472 C 1720.03 1275.96 t 0 r /Helvetica findfont 56.3093 sf 0 0 m ( ) show NC gr  0.54 0.06 0.06 c 3 lw 1626 1266 m 79 X 52 Y -79 X f 6 lw black
 gsave  2268 1103 0 472 C 1332.21 1204.91 t 0 r /Helvetica-Oblique findfont 56.3093 sf 0 0 m (tZq) show NC gr 
 gsave  2268 1103 0 472 C 1314.45 1204.91 t 0 r /Helvetica findfont 56.3093 sf 0 0 m ( ) show NC gr  1 0 1 c 3 lw 1219 1193 m 79 X 51 Y -79 X f black
 gsave  2268 1103 0 472 C 1779.24 1204.91 t 0 r /Helvetica-Oblique findfont 56.3093 sf 0 0 m (H) show NC gr 
 gsave  2268 1103 0 472 C 1758.52 1204.91 t 0 r /Helvetica-Oblique findfont 56.3093 sf 0 0 m (t) show NC gr  6 lw 1759 1249 m 20 X s
 gsave  2268 1103 0 472 C 1737.79 1204.91 t 0 r /Helvetica-Oblique findfont 56.3093 sf 0 0 m (t) show NC gr 
 gsave  2268 1103 0 472 C 1720.03 1204.91 t 0 r /Helvetica findfont 56.3093 sf 0 0 m ( ) show NC gr  0 0 1 c 3 lw 1626 1193 m 79 X 51 Y -79 X f 6 lw black
 gsave  2268 1103 0 472 C 1332.21 1130.9 t 0 r /Helvetica-Oblique findfont 56.3093 sf 0 0 m (tWZ/tWH) show NC gr 
 gsave  2268 1103 0 472 C 1314.45 1130.9 t 0 r /Helvetica findfont 56.3093 sf 0 0 m ( ) show NC gr  0.2 0.8 0.8 c 3 lw 1219 1119 m 79 X 52 Y -79 X f black
 gsave  2268 1103 0 472 C 1737.79 1130.9 t 0 r /Helvetica-Oblique findfont 56.3093 sf 0 0 m (tHq) show NC gr 
 gsave  2268 1103 0 472 C 1720.03 1130.9 t 0 r /Helvetica findfont 56.3093 sf 0 0 m ( ) show NC gr  1 0 0 c 3 lw 1626 1119 m 79 X 52 Y -79 X f black
 gsave  2268 1103 0 472 C 1314.45 1056.89 t 0 r /Helvetica findfont 56.3093 sf 0 0 m ( Other) show NC gr  1 0.84 0 c 3 lw 1219 1046 m 79 X 51 Y -79 X f black
 gsave  2268 1103 0 472 C 1720.03 1056.89 t 0 r /Helvetica findfont 56.3093 sf 0 0 m ( Uncertainty) show NC gr  0.6 0.6 0.6 c 3 lw 1705 1061 m -15 -15 d s 1705 1080 m -34 -34 d s 1703 1097 m -51 -51 d s 1684 1097 m -51 -51 d s 1665 1097 m -39 -39 d s
 1646 1097 m -20 -20 d s 1626 1097 m s 1 0.84 0 c 0.6 0.6 0.6 c black
 gsave  2268 1103 0 472 C 894.061 1329.25 t 0 r /Helvetica findfont 41.4911 sf 0 0 m (\2551) show NC gr 
 gsave  2268 1103 0 472 C 399.663 1299.64 t 0 r /Helvetica findfont 62.2366 sf 0 0 m ( = 13 TeV,  139 fb) show NC gr 
 gsave  2268 1103 0 472 C 370.058 1299.64 t 0 r /Helvetica findfont 62.2366 sf 0 0 m (s) show NC gr  6 lw 349 1335 m 6 -38 d s 3 lw 355 1297 m 6 56 d s 361 1353 m 39 X s
 gsave  2268 1103 0 472 C 337.493 1201.95 t 0 r /Helvetica findfont 62.2366 sf 0 0 m ( 2L\(SS\) pre\255selection) show NC gr 
 gsave  2268 1103 0 472 C 337.493 1400.3 t 0 r /Helvetica-BoldOblique findfont 71.1276 sf 0 0 m (ATLAS) show NC gr 
 gsave  2268 1103 0 472 C 633.54 1400.3 t 0 r /Helvetica findfont 71.1276 sf 0 0 m (Internal) show NC gr 
 gr  gr showpage
end
%%EOF
