%!PS-Adobe-2.0 EPSF-2.0
%%BoundingBox:  0 0 567 394
%%Title: : Njets_CRttbarEl
%%Creator: ROOT Version 6.20/06
%%CreationDate: Mon May 30 19:26:16 2022
%%DocumentNeededResources: ProcSet (FontSetInit)
%%EndComments
%%BeginProlog
80 dict begin
/s {stroke} def /l {lineto} def /m {moveto} def /t {translate} def
/r {rotate} def /rl {roll}  def /R {repeat} def
/d {rlineto} def /rm {rmoveto} def /gr {grestore} def /f {eofill} def
/c {setrgbcolor} def /black {0 setgray} def /sd {setdash} def
/cl {closepath} def /sf {scalefont setfont} def /lw {setlinewidth} def
/box {m dup 0 exch d exch 0 d 0 exch neg d cl} def
/NC{systemdict begin initclip end}def/C{NC box clip newpath}def
/bl {box s} def /bf {gsave box gsave f grestore 1 lw [] 0 sd s grestore} def /Y { 0 exch d} def /X { 0 d} def 
/K {{pop pop 0 moveto} exch kshow} bind def
/ita {/ang 15 def gsave [1 0 ang dup sin exch cos div 1 0 0] concat} def 
/mp {newpath /y exch def /x exch def} def
/side {[w .77 mul w .23 mul] .385 w mul sd w 0 l currentpoint t -144 r} def
/mr {mp x y w2 0 360 arc} def /m24 {mr s} def /m20 {mr f} def
/mb {mp x y w2 add m w2 neg 0 d 0 w neg d w 0 d 0 w d cl} def
/mt {mp x y w2 add m w2 neg w neg d w 0 d cl} def
/w4 {w 4 div} def
/w6 {w 6 div} def
/w8 {w 8 div} def
/m21 {mb f} def /m25 {mb s} def /m22 {mt f} def /m26{mt s} def
/m23 {mp x y w2 sub m w2 w d w neg 0 d cl f} def
/m27 {mp x y w2 add m w3 neg w2 neg d w3 w2 neg d w3 w2 d cl s} def
/m28 {mp x w2 sub y w2 sub w3 add m w3 0 d  0 w3 neg d w3 0 d 0 w3 d w3 0 d  0 w3 d w3 neg 0 d 0 w3 d w3 neg 0 d 0 w3 neg d w3 neg 0 d cl s } def
/m29 {mp gsave x w2 sub y w2 add w3 sub m currentpoint t 4 {side} repeat cl fill gr} def
/m30 {mp gsave x w2 sub y w2 add w3 sub m currentpoint t 4 {side} repeat cl s gr} def
/m31 {mp x y w2 sub m 0 w d x w2 sub y m w 0 d x w2 sub y w2 add m w w neg d x w2 sub y w2 sub m w w d s} def
/m32 {mp x y w2 sub m w2 w d w neg 0 d cl s} def
/m33 {mp x y w2 add m w3 neg w2 neg d w3 w2 neg d w3 w2 d cl f} def
/m34 {mp x w2 sub y w2 sub w3 add m w3 0 d  0 w3 neg d w3 0 d 0 w3 d w3 0 d  0 w3 d w3 neg 0 d 0 w3 d w3 neg 0 d 0 w3 neg d w3 neg 0 d cl f } def
/m35 {mp x y w2 add m w2 neg w2 neg d w2 w2 neg d w2 w2 d w2 neg w2 d x y w2 sub m 0 w d x w2 sub y m w 0 d s} def
/m36 {mb x w2 sub y w2 add m w w neg d x w2 sub y w2 sub m w w d s} def
/m37 {mp x y m w4 neg w2 d w4 neg w2 neg d w2 0 d  w4 neg w2 neg d w2 0 d w4 neg w2 d w2 0 d w4 neg w2 d w4 neg w2 neg d cl s} def
/m38 {mp x w4 sub y w2 add m w4 neg w4 neg d 0 w2 neg d w4 w4 neg d w2 0 d w4 w4 d 0 w2 d w4 neg w4 d w2 neg 0 d x y w2 sub m 0 w d x w2 sub y m w 0 d cl s} def
/m39 {mp x y m w4 neg w2 d w4 neg w2 neg d w2 0 d  w4 neg w2 neg d w2 0 d w4 neg w2 d w2 0 d w4 neg w2 d w4 neg w2 neg d cl f} def
/m40 {mp x y m w4 w2 d w4 w4 neg d w2 neg w4 neg d w2 w4 neg d w4 neg w4 neg d w4 neg w2 d w4 neg w2 neg d w4 neg w4 d w2 w4 d w2 neg w4 d w4 w4 d w4 w2 neg d cl s} def
/m41 {mp x y m w4 w2 d w4 w4 neg d w2 neg w4 neg d w2 w4 neg d w4 neg w4 neg d w4 neg w2 d w4 neg w2 neg d w4 neg w4 d w2 w4 d w2 neg w4 d w4 w4 d w4 w2 neg d cl f} def
/m42 {mp x y w2 add m w8 neg w2 -3 4 div mul d w2 -3 4 div mul w8 neg d w2 3 4 div mul w8 neg d w8 w2 -3 4 div mul d w8 w2 3 4 div mul d w2 3 4 div mul w8 d w2 -3 4 div mul w8 d w8 neg w2 3 4 div mul d cl s} def
/m43 {mp x y w2 add m w8 neg w2 -3 4 div mul d w2 -3 4 div mul w8 neg d w2 3 4 div mul w8 neg d w8 w2 -3 4 div mul d w8 w2 3 4 div mul d w2 3 4 div mul w8 d w2 -3 4 div mul w8 d w8 neg w2 3 4 div mul d cl f} def
/m44 {mp x y m w6 neg w2 d w2 2 3 div mul 0 d w6 neg w2 neg d w2 w6 d 0 w2 -2 3 div mul d w2 neg w6 d w6 w2 neg d w2 -2 3 div mul 0 d w6 w2 d w2 neg w6 neg d 0 w2 2 3 div mul d w2 w6 neg d cl s} def
/m45 {mp x y m w6 neg w2 d w2 2 3 div mul 0 d w6 neg w2 neg d w2 w6 d 0 w2 -2 3 div mul d w2 neg w6 d w6 w2 neg d w2 -2 3 div mul 0 d w6 w2 d w2 neg w6 neg d 0 w2 2 3 div mul d w2 w6 neg d cl f} def
/m46 {mp x y w4 add m w4 neg w4 d w4 neg w4 neg d  w4 w4 neg d w4 neg w4 neg d w4 w4 neg d w4 w4 d w4 w4 neg d w4 w4 d w4 neg w4 d w4 w4 d w4 neg w4 d w4 neg w4 neg d cl s} def
/m47 {mp x y w4 add m w4 neg w4 d w4 neg w4 neg d w4 w4 neg d w4 neg w4 neg d  w4 w4 neg d w4 w4 d w4 w4 neg d w4 w4 d w4 neg w4 d w4 w4 d w4 neg w4 d w4 neg w4 neg d cl f} def
/m48 {mp x y w4 add m w4 neg w4 d w4 neg w4 neg d w4 w4 neg d  w4 neg w4 neg d w4 w4 neg d w4 w4 d w4 w4 neg d w4 w4 d w4 neg w4 d w4 w4 d w4 neg w4 d w4 neg w4 neg d  w4 w4 neg d w4 neg w4 neg d w4 neg w4 d w4 w4 d cl f} def
/m49 {mp x w2 sub w3 add y w2 sub w3 add m  0 w3 neg d w3 0 d 0 w3 d w3 0 d 0 w3 d w3 neg 0 d 0 w3 d w3 neg 0 d 0 w3 neg d w3 neg 0 d 0 w3 neg d w3 0 d 0 w3 d w3 0 d 0 w3 neg d w3 neg 0 d cl f } def
/m2 {mp x y w2 sub m 0 w d x w2 sub y m w 0 d s} def
/m5 {mp x w2 sub y w2 sub m w w d x w2 sub y w2 add m w w neg d s} def
%%IncludeResource: ProcSet (FontSetInit)
%%IncludeResource: font Times-Roman
%%IncludeResource: font Times-Italic
%%IncludeResource: font Times-Bold
%%IncludeResource: font Times-BoldItalic
%%IncludeResource: font Helvetica
%%IncludeResource: font Helvetica-Oblique
%%IncludeResource: font Helvetica-Bold
%%IncludeResource: font Helvetica-BoldOblique
%%IncludeResource: font Courier
%%IncludeResource: font Courier-Oblique
%%IncludeResource: font Courier-Bold
%%IncludeResource: font Courier-BoldOblique
%%IncludeResource: font Symbol
%%IncludeResource: font ZapfDingbats
/reEncode {exch findfont dup length dict begin {1 index /FID eq  {pop pop} {def} ifelse } forall /Encoding exch def currentdict end dup /FontName get exch definefont pop } def [/Times-Bold /Times-Italic /Times-BoldItalic /Helvetica /Helvetica-Oblique
 /Helvetica-Bold /Helvetica-BoldOblique /Courier /Courier-Oblique /Courier-Bold /Courier-BoldOblique /Times-Roman /AvantGarde-Book /AvantGarde-BookOblique /AvantGarde-Demi /AvantGarde-DemiOblique /Bookman-Demi /Bookman-DemiItalic /Bookman-Light
 /Bookman-LightItalic /Helvetica-Narrow /Helvetica-Narrow-Bold /Helvetica-Narrow-BoldOblique /Helvetica-Narrow-Oblique /NewCenturySchlbk-Roman /NewCenturySchlbk-Bold /NewCenturySchlbk-BoldItalic /NewCenturySchlbk-Italic /Palatino-Bold
 /Palatino-BoldItalic /Palatino-Italic /Palatino-Roman ] {ISOLatin1Encoding reEncode } forall
%%EndProlog
%%BeginSetup
%%EndSetup
newpath  gsave  .25 .25 scale  gsave  0 0 t black[  ] 0 sd 3 lw 1 1 1 c 2268 1575 0 0 bf black 1 1 1 c 2268 472 0 0 bf black 1 1 1 c 1927 274 227 189 bf black 1927 274 227 189 bl 227 189 m 1927 X s 227 201 m -12 Y s 291 195 m -6 Y s 355 195 m -6 Y s
 420 195 m -6 Y s 484 195 m -6 Y s 548 201 m -12 Y s 612 195 m -6 Y s 677 195 m -6 Y s 741 195 m -6 Y s 805 195 m -6 Y s 869 201 m -12 Y s 934 195 m -6 Y s 998 195 m -6 Y s 1062 195 m -6 Y s 1126 195 m -6 Y s 1191 201 m -12 Y s 1255 195 m -6 Y s 1319
 195 m -6 Y s 1383 195 m -6 Y s 1448 195 m -6 Y s 1512 201 m -12 Y s 1576 195 m -6 Y s 1640 195 m -6 Y s 1705 195 m -6 Y s 1769 195 m -6 Y s 1833 201 m -12 Y s 1897 195 m -6 Y s 1962 195 m -6 Y s 2026 195 m -6 Y s 2090 195 m -6 Y s 2154 201 m -12 Y s
 gsave  2268 472 0 0 C 213.154 127.3 t 0 r /Helvetica findfont 53.4895 sf 0 0 m (1) show NC gr 
 gsave  2268 472 0 0 C 532.884 127.3 t 0 r /Helvetica findfont 53.4895 sf 0 0 m (2) show NC gr 
 gsave  2268 472 0 0 C 852.614 127.3 t 0 r /Helvetica findfont 53.4895 sf 0 0 m (3) show NC gr 
 gsave  2268 472 0 0 C 1175.3 127.3 t 0 r /Helvetica findfont 53.4895 sf 0 0 m (4) show NC gr 
 gsave  2268 472 0 0 C 1495.04 127.3 t 0 r /Helvetica findfont 53.4895 sf 0 0 m (5) show NC gr 
 gsave  2268 472 0 0 C 1817.73 127.3 t 0 r /Helvetica findfont 53.4895 sf 0 0 m (6) show NC gr 
 gsave  2268 472 0 0 C 2137.46 127.3 t 0 r /Helvetica findfont 53.4895 sf 0 0 m (7) show NC gr 
 gsave  2268 472 0 0 C 2090.09 35.5256 t 0 r /Helvetica findfont 38.6313 sf 0 0 m (jets) show NC gr 
 gsave  2268 472 0 0 C 2042.72 53.2884 t 0 r /Helvetica-Oblique findfont 56.4611 sf 0 0 m (N) show NC gr  227 463 m 1927 X s 227 451 m 12 Y s 291 457 m 6 Y s 355 457 m 6 Y s 420 457 m 6 Y s 484 457 m 6 Y s 548 451 m 12 Y s 612 457 m 6 Y s 677 457 m 6
 Y s 741 457 m 6 Y s 805 457 m 6 Y s 869 451 m 12 Y s 934 457 m 6 Y s 998 457 m 6 Y s 1062 457 m 6 Y s 1126 457 m 6 Y s 1191 451 m 12 Y s 1255 457 m 6 Y s 1319 457 m 6 Y s 1383 457 m 6 Y s 1448 457 m 6 Y s 1512 451 m 12 Y s 1576 457 m 6 Y s 1640 457
 m 6 Y s 1705 457 m 6 Y s 1769 457 m 6 Y s 1833 451 m 12 Y s 1897 457 m 6 Y s 1962 457 m 6 Y s 2026 457 m 6 Y s 2090 457 m 6 Y s 2154 451 m 12 Y s 227 189 m 274 Y s 240 240 m -13 X s 240 326 m -13 X s 240 412 m -13 X s 240 240 m -13 X s 240 412 m -13
 X s
 gsave  2268 472 0 0 C 118.419 222.035 t 0 r /Helvetica findfont 53.4895 sf 0 0 m (0.5) show NC gr 
 gsave  2268 472 0 0 C 171.707 307.888 t 0 r /Helvetica findfont 53.4895 sf 0 0 m (1) show NC gr 
 gsave  2268 472 0 0 C 118.419 393.742 t 0 r /Helvetica findfont 53.4895 sf 0 0 m (1.5) show NC gr 
 gsave  2268 472 0 0 C 71.0512 230.916 t 90 r /Helvetica findfont 53.4895 sf 0 0 m (Data / SM) show NC gr  2154 189 m 274 Y s 2141 240 m 13 X s 2141 326 m 13 X s 2141 412 m 13 X s 2141 240 m 13 X s 2141 412 m 13 X s 227 189 m 1927 X s 227 463 m 1927
 X s 227 189 m 274 Y s[ 4 8] 0 sd 2154 240 m -1927 X s 2154 326 m -1927 X s 2154 412 m -1927 X s 2154 240 m -1927 X s 2154 412 m -1927 X s[  ] 0 sd 2154 189 m 274 Y s 1 1 0.6 c 321 0 227 326 bf 321 0 548 326 bf 322 0 869 326 bf 321 0 1191 326 bf 321
 0 1512 326 bf 321 0 1833 326 bf black 0.6 0.6 0.6 c 548 318 m -7 -6 d s 548 338 m -26 -26 d s 532 340 m -29 -28 d s 512 340 m -28 -28 d s 493 340 m -29 -28 d s 474 340 m -29 -28 d s 455 340 m -29 -28 d s 435 340 m -28 -28 d s 416 340 m -29 -28 d s
 397 340 m -29 -28 d s 378 340 m -29 -28 d s 358 340 m -28 -28 d s 339 340 m -29 -28 d s 320 340 m -29 -28 d s 301 340 m -29 -28 d s 281 340 m -28 -28 d s 262 340 m -28 -28 d s 243 340 m -16 -16 d s 869 332 m -16 -17 d s 855 337 m -21 -22 d s 836 337
 m -22 -22 d s 817 337 m -22 -22 d s 797 337 m -21 -22 d s 778 337 m -21 -22 d s 759 337 m -22 -22 d s 740 337 m -22 -22 d s 720 337 m -21 -22 d s 701 337 m -21 -22 d s 682 337 m -22 -22 d s 663 337 m -22 -22 d s 643 337 m -21 -22 d s 624 337 m -21
 -22 d s 605 337 m -22 -22 d s 586 337 m -22 -22 d s 567 337 m -19 -19 d s 1191 326 m -5 -5 d s 1177 331 m -11 -10 d s 1157 331 m -10 -10 d s 1138 331 m -10 -10 d s 1119 331 m -10 -10 d s 1100 331 m -11 -10 d s 1080 331 m -10 -10 d s 1061 331 m -10
 -10 d s 1042 331 m -10 -10 d s 1023 331 m -11 -10 d s 1003 331 m -10 -10 d s 984 331 m -10 -10 d s 965 331 m -10 -10 d s 946 331 m -11 -10 d s 926 331 m -10 -10 d s 907 331 m -10 -10 d s 888 331 m -10 -10 d s 1503 330 m -8 -8 d s 1483 330 m -8 -8 d
 s 1464 330 m -8 -8 d s 1445 330 m -8 -8 d s 1426 330 m -8 -8 d s 1406 330 m -8 -8 d s 1387 330 m -8 -8 d s 1368 330 m -8 -8 d s 1349 330 m -8 -8 d s 1329 330 m -8 -8 d s 1310 330 m -8 -8 d s 1291 330 m -8 -8 d s 1272 330 m -8 -8 d s 1252 330 m -8 -8
 d s 1233 330 m -8 -8 d s 1214 330 m -8 -8 d s 1195 330 m -4 -4 d s 1830 330 m -8 -8 d s 1810 330 m -8 -8 d s 1791 330 m -8 -8 d s 1772 330 m -8 -8 d s 1753 330 m -8 -8 d s 1733 330 m -8 -8 d s 1714 330 m -8 -8 d s 1695 330 m -8 -8 d s 1676 330 m -8
 -8 d s 1657 330 m -9 -8 d s 1637 330 m -8 -8 d s 1618 330 m -8 -8 d s 1599 330 m -8 -8 d s 1580 330 m -8 -8 d s 1560 330 m -8 -8 d s 1541 330 m -8 -8 d s 1522 330 m -8 -8 d s 2154 328 m -6 -7 d s 2139 331 m -10 -10 d s 2119 331 m -10 -10 d s 2100
 331 m -10 -10 d s 2081 331 m -10 -10 d s 2062 331 m -10 -10 d s 2042 331 m -10 -10 d s 2023 331 m -10 -10 d s 2004 331 m -10 -10 d s 1985 331 m -10 -10 d s 1965 331 m -10 -10 d s 1946 331 m -10 -10 d s 1927 331 m -10 -10 d s 1908 331 m -10 -10 d s
 1888 331 m -10 -10 d s 1869 331 m -10 -10 d s 1850 331 m -10 -10 d s black 1 1 1 c black 387 245 m 25 Y s 387 294 m 24 Y s /w 26 def /w2 {w 2 div} def /w3 {w 3 div} def 387 282 m20 709 355 m 6 Y s 709 385 m 6 Y s 709 373 m20 1030 333 m 2 Y s 1030
 358 m 2 Y s 1030 346 m20 1351 321 m 1 Y s 1351 346 m 1 Y s 1351 334 m20 1672 303 m 3 Y s 1672 330 m 3 Y s 1672 318 m20 1994 338 m 11 Y s 1994 372 m 11 Y s 1994 360 m20 227 326 m 1927 X s 227 189 m 1927 X s 227 201 m -12 Y s 291 195 m -6 Y s 355 195
 m -6 Y s 420 195 m -6 Y s 484 195 m -6 Y s 548 201 m -12 Y s 612 195 m -6 Y s 677 195 m -6 Y s 741 195 m -6 Y s 805 195 m -6 Y s 869 201 m -12 Y s 934 195 m -6 Y s 998 195 m -6 Y s 1062 195 m -6 Y s 1126 195 m -6 Y s 1191 201 m -12 Y s 1255 195 m -6
 Y s 1319 195 m -6 Y s 1383 195 m -6 Y s 1448 195 m -6 Y s 1512 201 m -12 Y s 1576 195 m -6 Y s 1640 195 m -6 Y s 1705 195 m -6 Y s 1769 195 m -6 Y s 1833 201 m -12 Y s 1897 195 m -6 Y s 1962 195 m -6 Y s 2026 195 m -6 Y s 2090 195 m -6 Y s 2154 201
 m -12 Y s 227 463 m 1927 X s 227 451 m 12 Y s 291 457 m 6 Y s 355 457 m 6 Y s 420 457 m 6 Y s 484 457 m 6 Y s 548 451 m 12 Y s 612 457 m 6 Y s 677 457 m 6 Y s 741 457 m 6 Y s 805 457 m 6 Y s 869 451 m 12 Y s 934 457 m 6 Y s 998 457 m 6 Y s 1062 457
 m 6 Y s 1126 457 m 6 Y s 1191 451 m 12 Y s 1255 457 m 6 Y s 1319 457 m 6 Y s 1383 457 m 6 Y s 1448 457 m 6 Y s 1512 451 m 12 Y s 1576 457 m 6 Y s 1640 457 m 6 Y s 1705 457 m 6 Y s 1769 457 m 6 Y s 1833 451 m 12 Y s 1897 457 m 6 Y s 1962 457 m 6 Y s
 2026 457 m 6 Y s 2090 457 m 6 Y s 2154 451 m 12 Y s 227 189 m 274 Y s 240 240 m -13 X s 240 326 m -13 X s 240 412 m -13 X s 240 240 m -13 X s 240 412 m -13 X s 2154 189 m 274 Y s 2141 240 m 13 X s 2141 326 m 13 X s 2141 412 m 13 X s 2141 240 m 13 X
 s 2141 412 m 13 X s 1 1 1 c 2268 1103 0 472 bf black 1 1 1 c 1927 1036 227 484 bf black 1927 1036 227 484 bl 1 1 1 c black 3 lw 227 484 m 1927 X s 227 502 m -18 Y s 291 493 m -9 Y s 355 493 m -9 Y s 420 493 m -9 Y s 484 493 m -9 Y s 548 502 m -18 Y
 s 612 493 m -9 Y s 677 493 m -9 Y s 741 493 m -9 Y s 805 493 m -9 Y s 869 502 m -18 Y s 934 493 m -9 Y s 998 493 m -9 Y s 1062 493 m -9 Y s 1126 493 m -9 Y s 1191 502 m -18 Y s 1255 493 m -9 Y s 1319 493 m -9 Y s 1383 493 m -9 Y s 1448 493 m -9 Y s
 1512 502 m -18 Y s 1576 493 m -9 Y s 1640 493 m -9 Y s 1705 493 m -9 Y s 1769 493 m -9 Y s 1833 502 m -18 Y s 1897 493 m -9 Y s 1962 493 m -9 Y s 2026 493 m -9 Y s 2090 493 m -9 Y s 2154 502 m -18 Y s
 gsave  2268 1103 0 472 C 2116.73 396.702 t 0 r /Helvetica findfont 20.7455 sf 0 0 m (jets) show NC gr 
 gsave  2268 1103 0 472 C 2090.09 405.584 t 0 r /Helvetica-Oblique findfont 29.6365 sf 0 0 m (N) show NC gr  227 1520 m 1927 X s 227 1501 m 19 Y s 291 1510 m 10 Y s 355 1510 m 10 Y s 420 1510 m 10 Y s 484 1510 m 10 Y s 548 1501 m 19 Y s 612 1510 m 10
 Y s 677 1510 m 10 Y s 741 1510 m 10 Y s 805 1510 m 10 Y s 869 1501 m 19 Y s 934 1510 m 10 Y s 998 1510 m 10 Y s 1062 1510 m 10 Y s 1126 1510 m 10 Y s 1191 1501 m 19 Y s 1255 1510 m 10 Y s 1319 1510 m 10 Y s 1383 1510 m 10 Y s 1448 1510 m 10 Y s 1512
 1501 m 19 Y s 1576 1510 m 10 Y s 1640 1510 m 10 Y s 1705 1510 m 10 Y s 1769 1510 m 10 Y s 1833 1501 m 19 Y s 1897 1510 m 10 Y s 1962 1510 m 10 Y s 2026 1510 m 10 Y s 2090 1510 m 10 Y s 2154 1501 m 19 Y s 227 484 m 1036 Y s 248 596 m -21 X s 237 618
 m -10 X s 237 640 m -10 X s 237 663 m -10 X s 237 685 m -10 X s 248 708 m -21 X s 237 730 m -10 X s 237 752 m -10 X s 237 775 m -10 X s 237 797 m -10 X s 248 820 m -21 X s 237 842 m -10 X s 237 864 m -10 X s 237 887 m -10 X s 237 909 m -10 X s 248
 932 m -21 X s 237 954 m -10 X s 237 976 m -10 X s 237 999 m -10 X s 237 1021 m -10 X s 248 1044 m -21 X s 237 1066 m -10 X s 237 1088 m -10 X s 237 1111 m -10 X s 237 1133 m -10 X s 248 1156 m -21 X s 237 1178 m -10 X s 237 1200 m -10 X s 237 1223 m
 -10 X s 237 1245 m -10 X s 248 1268 m -21 X s 237 1290 m -10 X s 237 1313 m -10 X s 237 1335 m -10 X s 237 1357 m -10 X s 248 1380 m -21 X s 237 1402 m -10 X s 237 1425 m -10 X s 237 1447 m -10 X s 237 1469 m -10 X s 248 1492 m -21 X s 248 596 m -21
 X s 237 573 m -10 X s 237 551 m -10 X s 237 528 m -10 X s 237 506 m -10 X s 248 1492 m -21 X s 237 1514 m -10 X s
 gsave  2268 1103 0 472 C 145.063 577.291 t 0 r /Helvetica findfont 50.382 sf 0 0 m (50) show NC gr 
 gsave  2268 1103 0 472 C 118.419 689.788 t 0 r /Helvetica findfont 50.382 sf 0 0 m (100) show NC gr 
 gsave  2268 1103 0 472 C 118.419 799.326 t 0 r /Helvetica findfont 50.382 sf 0 0 m (150) show NC gr 
 gsave  2268 1103 0 472 C 118.419 911.823 t 0 r /Helvetica findfont 50.382 sf 0 0 m (200) show NC gr 
 gsave  2268 1103 0 472 C 118.419 1024.32 t 0 r /Helvetica findfont 50.382 sf 0 0 m (250) show NC gr 
 gsave  2268 1103 0 472 C 118.419 1136.82 t 0 r /Helvetica findfont 50.382 sf 0 0 m (300) show NC gr 
 gsave  2268 1103 0 472 C 118.419 1249.32 t 0 r /Helvetica findfont 50.382 sf 0 0 m (350) show NC gr 
 gsave  2268 1103 0 472 C 118.419 1361.81 t 0 r /Helvetica findfont 50.382 sf 0 0 m (400) show NC gr 
 gsave  2268 1103 0 472 C 118.419 1471.35 t 0 r /Helvetica findfont 50.382 sf 0 0 m (450) show NC gr 
 gsave  2268 1103 0 472 C 62.1698 1367.74 t 90 r /Helvetica findfont 50.382 sf 0 0 m (Events) show NC gr  2154 484 m 1036 Y s 2133 596 m 21 X s 2144 618 m 10 X s 2144 640 m 10 X s 2144 663 m 10 X s 2144 685 m 10 X s 2133 708 m 21 X s 2144 730 m 10 X
 s 2144 752 m 10 X s 2144 775 m 10 X s 2144 797 m 10 X s 2133 820 m 21 X s 2144 842 m 10 X s 2144 864 m 10 X s 2144 887 m 10 X s 2144 909 m 10 X s 2133 932 m 21 X s 2144 954 m 10 X s 2144 976 m 10 X s 2144 999 m 10 X s 2144 1021 m 10 X s 2133 1044 m
 21 X s 2144 1066 m 10 X s 2144 1088 m 10 X s 2144 1111 m 10 X s 2144 1133 m 10 X s 2133 1156 m 21 X s 2144 1178 m 10 X s 2144 1200 m 10 X s 2144 1223 m 10 X s 2144 1245 m 10 X s 2133 1268 m 21 X s 2144 1290 m 10 X s 2144 1313 m 10 X s 2144 1335 m 10
 X s 2144 1357 m 10 X s 2133 1380 m 21 X s 2144 1402 m 10 X s 2144 1425 m 10 X s 2144 1447 m 10 X s 2144 1469 m 10 X s 2133 1492 m 21 X s 2133 596 m 21 X s 2144 573 m 10 X s 2144 551 m 10 X s 2144 528 m 10 X s 2144 506 m 10 X s 2133 1492 m 21 X s
 2144 1514 m 10 X s 0.06 0.54 0.06 c black 3 lw 0.06 0.54 0.06 c 227 484 m 36 Y 321 X 227 Y 321 X 151 Y 322 X -12 Y 321 X -123 Y 321 X -121 Y 321 X -158 Y f 1 0.653333 0 c 0.999 0.999 0.999 c black 3 lw 0.999 0.999 0.999 c 227 484 m 9 Y 321 X 93 Y
 321 X 62 Y 322 X 27 Y 321 X -50 Y 321 X -51 Y 321 X -90 Y f 1 0.653333 0 c 0.999 0.999 0.999 c 1 0.653333 0 c 1 1 1 c black 1 0.653333 0 c black 3 lw 1 0.653333 0 c 227 484 m 9 Y 321 X 93 Y 321 X 62 Y 322 X 27 Y 321 X -50 Y 321 X -51 Y 321 X -90 Y f
 0.413333 1 0 c 0.999 0.999 0.999 c black 3 lw 0.999 0.999 0.999 c 227 484 m 7 Y 321 X 62 Y 321 X 78 Y 322 X 26 Y 321 X -36 Y 321 X -49 Y 321 X -88 Y f 0.413333 1 0 c 0.999 0.999 0.999 c 0.413333 1 0 c 1 1 1 c black 0.413333 1 0 c black 3 lw 0.413333
 1 0 c 227 484 m 7 Y 321 X 62 Y 321 X 78 Y 322 X 26 Y 321 X -36 Y 321 X -49 Y 321 X -88 Y f 0.6 0.2 1 c 0.999 0.999 0.999 c black 3 lw 0.999 0.999 0.999 c 227 484 m 2 Y 321 X 41 Y 321 X 69 Y 322 X 34 Y 321 X -23 Y 321 X -40 Y 321 X -83 Y f 0.6 0.2 1
 c 0.999 0.999 0.999 c 0.6 0.2 1 c 1 1 1 c black 0.6 0.2 1 c black 3 lw 0.6 0.2 1 c 227 484 m 2 Y 321 X 41 Y 321 X 69 Y 322 X 34 Y 321 X -23 Y 321 X -40 Y 321 X -83 Y f 0.54 0.06 0.06 c 0.999 0.999 0.999 c black 3 lw 0.999 0.999 0.999 c 227 484 m 2 Y
 321 X 38 Y 321 X 59 Y 322 X 26 Y 321 X -26 Y 321 X -35 Y 321 X -64 Y f 0.54 0.06 0.06 c 0.999 0.999 0.999 c 0.54 0.06 0.06 c 1 1 1 c black 0.54 0.06 0.06 c black 3 lw 0.54 0.06 0.06 c 227 484 m 2 Y 321 X 38 Y 321 X 59 Y 322 X 26 Y 321 X -26 Y 321 X
 -35 Y 321 X -64 Y f 1 0 1 c 0.999 0.999 0.999 c black 3 lw 0.999 0.999 0.999 c 227 484 m 321 X 14 Y 321 X 13 Y 322 X 7 Y 321 X -4 Y 321 X -6 Y 321 X -24 Y f 1 0 1 c 0.999 0.999 0.999 c 1 0 1 c 1 1 1 c black 1 0 1 c black 3 lw 1 0 1 c 227 484 m 321 X
 14 Y 321 X 13 Y 322 X 7 Y 321 X -4 Y 321 X -6 Y 321 X -24 Y f 0 0 1 c 0.999 0.999 0.999 c black 3 lw 0.999 0.999 0.999 c 227 484 m 321 X 7 Y 321 X 5 Y 322 X 8 Y 321 X 2 Y 321 X -2 Y 321 X -20 Y f 0 0 1 c 0.999 0.999 0.999 c 0 0 1 c 1 1 1 c black 0 0
 1 c black 3 lw 0 0 1 c 227 484 m 321 X 7 Y 321 X 5 Y 322 X 8 Y 321 X 2 Y 321 X -2 Y 321 X -20 Y f 0.2 0.8 0.8 c 0.999 0.999 0.999 c black 3 lw 0.999 0.999 0.999 c 227 484 m 321 X 5 Y 321 X -1 Y 322 X 1 Y 321 X -1 Y 642 X -4 Y f 0.2 0.8 0.8 c 0.999
 0.999 0.999 c 0.2 0.8 0.8 c 1 1 1 c black 0.2 0.8 0.8 c black 3 lw 0.2 0.8 0.8 c 227 484 m 321 X 5 Y 321 X -1 Y 322 X 1 Y 321 X -1 Y 642 X -4 Y f 1 0 0 c 0.999 0.999 0.999 c black 3 lw 0.999 0.999 0.999 c 227 484 m 321 X 5 Y 321 X -3 Y 643 X -1 Y
 321 X 1 Y 321 X -2 Y f 1 0 0 c 0.999 0.999 0.999 c 1 0 0 c 1 1 1 c black 1 0 0 c black 3 lw 1 0 0 c 227 484 m 321 X 5 Y 321 X -3 Y 643 X -1 Y 321 X 1 Y 321 X -2 Y f 1 0.84 0 c 0.999 0.999 0.999 c black 3 lw 0.999 0.999 0.999 c 227 484 m 321 X 4 Y
 321 X -3 Y 322 X -1 Y 642 X 1 Y 321 X -1 Y f 1 0.84 0 c 0.999 0.999 0.999 c 1 0.84 0 c 1 1 1 c black 1 0.84 0 c black 3 lw 1 0.84 0 c 227 484 m 321 X 4 Y 321 X -3 Y 322 X -1 Y 642 X 1 Y 321 X -1 Y f black 1 1 1 c black 0.6 0.6 0.6 c 3 lw 548 520 m
 -3 -3 d s 531 523 m -6 -6 d s 512 523 m -6 -6 d s 493 523 m -6 -6 d s 474 523 m -6 -6 d s 454 523 m -6 -6 d s 435 523 m -6 -6 d s 416 523 m -6 -6 d s 397 523 m -6 -6 d s 377 523 m -6 -6 d s 358 523 m -6 -6 d s 339 523 m -6 -6 d s 320 523 m -6 -6 d s
 301 523 m -7 -6 d s 281 523 m -6 -6 d s 262 523 m -6 -6 d s 243 523 m -6 -6 d s 3 lw 869 745 m -14 -14 d s 869 764 m -33 -33 d s 850 764 m -33 -33 d s 831 764 m -34 -33 d s 812 764 m -34 -33 d s 792 764 m -33 -33 d s 773 764 m -33 -33 d s 754 764 m
 -34 -33 d s 735 764 m -34 -33 d s 715 764 m -33 -33 d s 696 764 m -33 -33 d s 677 764 m -34 -33 d s 658 764 m -34 -33 d s 638 764 m -33 -33 d s 619 764 m -33 -33 d s 600 764 m -34 -33 d s 581 764 m -33 -33 d s 561 764 m -13 -13 d s 3 lw 1191 893 m
 -7 -7 d s 1189 910 m -25 -24 d s 1170 910 m -25 -24 d s 1151 910 m -25 -24 d s 1131 910 m -24 -24 d s 1112 910 m -25 -24 d s 1093 910 m -25 -24 d s 1074 910 m -25 -24 d s 1054 910 m -24 -24 d s 1035 910 m -25 -24 d s 1016 910 m -25 -24 d s 997 910 m
 -25 -24 d s 977 910 m -24 -24 d s 958 910 m -25 -24 d s 939 910 m -25 -24 d s 920 910 m -25 -24 d s 900 910 m -24 -24 d s 881 910 m -12 -11 d s 3 lw 1512 887 m -11 -11 d s 1501 896 m -19 -20 d s 1482 896 m -19 -20 d s 1463 896 m -19 -20 d s 1444 896
 m -20 -20 d s 1424 896 m -19 -20 d s 1405 896 m -19 -20 d s 1386 896 m -19 -20 d s 1367 896 m -20 -20 d s 1347 896 m -19 -20 d s 1328 896 m -19 -20 d s 1309 896 m -19 -20 d s 1290 896 m -20 -20 d s 1270 896 m -19 -20 d s 1251 896 m -19 -20 d s 1232
 896 m -19 -20 d s 1213 896 m -19 -20 d s 1193 896 m -2 -3 d s 3 lw 1833 766 m -9 -9 d s 1818 770 m -13 -13 d s 1799 770 m -14 -13 d s 1779 770 m -13 -13 d s 1760 770 m -13 -13 d s 1741 770 m -13 -13 d s 1722 770 m -14 -13 d s 1702 770 m -13 -13 d s
 1683 770 m -13 -13 d s 1664 770 m -13 -13 d s 1645 770 m -14 -13 d s 1625 770 m -13 -13 d s 1606 770 m -13 -13 d s 1587 770 m -13 -13 d s 1568 770 m -14 -13 d s 1548 770 m -13 -13 d s 1529 770 m -13 -13 d s 3 lw 2154 645 m -7 -8 d s 2137 647 m -9
 -10 d s 2118 647 m -9 -10 d s 2099 647 m -10 -10 d s 2080 647 m -10 -10 d s 2060 647 m -9 -10 d s 2041 647 m -9 -10 d s 2022 647 m -10 -10 d s 2003 647 m -10 -10 d s 1983 647 m -9 -10 d s 1964 647 m -9 -10 d s 1945 647 m -10 -10 d s 1926 647 m -10
 -10 d s 1906 647 m -9 -10 d s 1887 647 m -9 -10 d s 1868 647 m -9 -10 d s 1849 647 m -10 -10 d s black 3 lw 1 1 1 c black /w 24 def /w2 {w 2 div} def /w3 {w 3 div} def 387 510 m20 709 792 m 16 Y s 709 831 m 16 Y s 709 820 m20 1030 915 m 20 Y s 1030
 959 m 21 Y s 1030 947 m20 1351 874 m 19 Y s 1351 917 m 18 Y s 1351 905 m20 1672 726 m 12 Y s 1672 762 m 13 Y s 1672 750 m20 1994 653 m 9 Y s 1994 686 m 9 Y s 1994 674 m20 227 484 m 1927 X s 227 502 m -18 Y s 291 493 m -9 Y s 355 493 m -9 Y s 420 493
 m -9 Y s 484 493 m -9 Y s 548 502 m -18 Y s 612 493 m -9 Y s 677 493 m -9 Y s 741 493 m -9 Y s 805 493 m -9 Y s 869 502 m -18 Y s 934 493 m -9 Y s 998 493 m -9 Y s 1062 493 m -9 Y s 1126 493 m -9 Y s 1191 502 m -18 Y s 1255 493 m -9 Y s 1319 493 m
 -9 Y s 1383 493 m -9 Y s 1448 493 m -9 Y s 1512 502 m -18 Y s 1576 493 m -9 Y s 1640 493 m -9 Y s 1705 493 m -9 Y s 1769 493 m -9 Y s 1833 502 m -18 Y s 1897 493 m -9 Y s 1962 493 m -9 Y s 2026 493 m -9 Y s 2090 493 m -9 Y s 2154 502 m -18 Y s 227
 1520 m 1927 X s 227 1501 m 19 Y s 291 1510 m 10 Y s 355 1510 m 10 Y s 420 1510 m 10 Y s 484 1510 m 10 Y s 548 1501 m 19 Y s 612 1510 m 10 Y s 677 1510 m 10 Y s 741 1510 m 10 Y s 805 1510 m 10 Y s 869 1501 m 19 Y s 934 1510 m 10 Y s 998 1510 m 10 Y s
 1062 1510 m 10 Y s 1126 1510 m 10 Y s 1191 1501 m 19 Y s 1255 1510 m 10 Y s 1319 1510 m 10 Y s 1383 1510 m 10 Y s 1448 1510 m 10 Y s 1512 1501 m 19 Y s 1576 1510 m 10 Y s 1640 1510 m 10 Y s 1705 1510 m 10 Y s 1769 1510 m 10 Y s 1833 1501 m 19 Y s
 1897 1510 m 10 Y s 1962 1510 m 10 Y s 2026 1510 m 10 Y s 2090 1510 m 10 Y s 2154 1501 m 19 Y s 227 484 m 1036 Y s 248 596 m -21 X s 237 618 m -10 X s 237 640 m -10 X s 237 663 m -10 X s 237 685 m -10 X s 248 708 m -21 X s 237 730 m -10 X s 237 752 m
 -10 X s 237 775 m -10 X s 237 797 m -10 X s 248 820 m -21 X s 237 842 m -10 X s 237 864 m -10 X s 237 887 m -10 X s 237 909 m -10 X s 248 932 m -21 X s 237 954 m -10 X s 237 976 m -10 X s 237 999 m -10 X s 237 1021 m -10 X s 248 1044 m -21 X s 237
 1066 m -10 X s 237 1088 m -10 X s 237 1111 m -10 X s 237 1133 m -10 X s 248 1156 m -21 X s 237 1178 m -10 X s 237 1200 m -10 X s 237 1223 m -10 X s 237 1245 m -10 X s 248 1268 m -21 X s 237 1290 m -10 X s 237 1313 m -10 X s 237 1335 m -10 X s 237
 1357 m -10 X s 248 1380 m -21 X s 237 1402 m -10 X s 237 1425 m -10 X s 237 1447 m -10 X s 237 1469 m -10 X s 248 1492 m -21 X s 248 596 m -21 X s 237 573 m -10 X s 237 551 m -10 X s 237 528 m -10 X s 237 506 m -10 X s 248 1492 m -21 X s 237 1514 m
 -10 X s 2154 484 m 1036 Y s 2133 596 m 21 X s 2144 618 m 10 X s 2144 640 m 10 X s 2144 663 m 10 X s 2144 685 m 10 X s 2133 708 m 21 X s 2144 730 m 10 X s 2144 752 m 10 X s 2144 775 m 10 X s 2144 797 m 10 X s 2133 820 m 21 X s 2144 842 m 10 X s 2144
 864 m 10 X s 2144 887 m 10 X s 2144 909 m 10 X s 2133 932 m 21 X s 2144 954 m 10 X s 2144 976 m 10 X s 2144 999 m 10 X s 2144 1021 m 10 X s 2133 1044 m 21 X s 2144 1066 m 10 X s 2144 1088 m 10 X s 2144 1111 m 10 X s 2144 1133 m 10 X s 2133 1156 m 21
 X s 2144 1178 m 10 X s 2144 1200 m 10 X s 2144 1223 m 10 X s 2144 1245 m 10 X s 2133 1268 m 21 X s 2144 1290 m 10 X s 2144 1313 m 10 X s 2144 1335 m 10 X s 2144 1357 m 10 X s 2133 1380 m 21 X s 2144 1402 m 10 X s 2144 1425 m 10 X s 2144 1447 m 10 X
 s 2144 1469 m 10 X s 2133 1492 m 21 X s 2133 596 m 21 X s 2144 573 m 10 X s 2144 551 m 10 X s 2144 528 m 10 X s 2144 506 m 10 X s 2133 1492 m 21 X s 2144 1514 m 10 X s
 gsave  2268 1103 0 472 C 1314.45 1423.98 t 0 r /Helvetica findfont 56.3093 sf 0 0 m ( Data) show NC gr  1259 1451 m 10 Y s 1259 1427 m -10 Y s 1259 1439 m20
 gsave  2268 1103 0 472 C 1808.84 1423.98 t 0 r /Helvetica findfont 56.3093 sf 0 0 m (single\255top) show NC gr 
 gsave  2268 1103 0 472 C 1779.24 1423.98 t 0 r /Helvetica-Oblique findfont 56.3093 sf 0 0 m (/) show NC gr 
 gsave  2268 1103 0 472 C 1758.52 1423.98 t 0 r /Helvetica-Oblique findfont 56.3093 sf 0 0 m (t) show NC gr  6 lw 1759 1468 m 20 X s
 gsave  2268 1103 0 472 C 1737.79 1423.98 t 0 r /Helvetica-Oblique findfont 56.3093 sf 0 0 m (t) show NC gr 
 gsave  2268 1103 0 472 C 1720.03 1423.98 t 0 r /Helvetica findfont 56.3093 sf 0 0 m ( ) show NC gr  0.06 0.54 0.06 c 3 lw 1626 1413 m 79 X 52 Y -79 X f 6 lw black
 gsave  2268 1103 0 472 C 1444.71 1349.97 t 0 r /Helvetica findfont 56.3093 sf 0 0 m (+jets) show NC gr 
 gsave  2268 1103 0 472 C 1332.21 1349.97 t 0 r /Helvetica-Oblique findfont 56.3093 sf 0 0 m (W/Z) show NC gr 
 gsave  2268 1103 0 472 C 1314.45 1349.97 t 0 r /Helvetica findfont 56.3093 sf 0 0 m ( ) show NC gr  1 0.653333 0 c 3 lw 1219 1340 m 79 X 51 Y -79 X f black
 gsave  2268 1103 0 472 C 1918.38 1349.97 t 0 r /Helvetica findfont 56.3093 sf 0 0 m (+jets) show NC gr 
 gsave  2268 1103 0 472 C 1737.79 1349.97 t 0 r /Helvetica-Oblique findfont 56.3093 sf 0 0 m (WZ/ZZ) show NC gr 
 gsave  2268 1103 0 472 C 1720.03 1349.97 t 0 r /Helvetica findfont 56.3093 sf 0 0 m ( ) show NC gr  0.413333 1 0 c 3 lw 1626 1340 m 79 X 51 Y -79 X f black
 gsave  2268 1103 0 472 C 1373.66 1275.96 t 0 r /Helvetica-Oblique findfont 56.3093 sf 0 0 m (Z) show NC gr 
 gsave  2268 1103 0 472 C 1352.93 1275.96 t 0 r /Helvetica-Oblique findfont 56.3093 sf 0 0 m (t) show NC gr  6 lw 1353 1320 m 21 X s
 gsave  2268 1103 0 472 C 1332.21 1275.96 t 0 r /Helvetica-Oblique findfont 56.3093 sf 0 0 m (t) show NC gr 
 gsave  2268 1103 0 472 C 1314.45 1275.96 t 0 r /Helvetica findfont 56.3093 sf 0 0 m ( ) show NC gr  0.6 0.2 1 c 3 lw 1219 1266 m 79 X 52 Y -79 X f 6 lw black
 gsave  2268 1103 0 472 C 1779.24 1275.96 t 0 r /Helvetica-Oblique findfont 56.3093 sf 0 0 m (W) show NC gr 
 gsave  2268 1103 0 472 C 1758.52 1275.96 t 0 r /Helvetica-Oblique findfont 56.3093 sf 0 0 m (t) show NC gr  6 lw 1759 1320 m 20 X s
 gsave  2268 1103 0 472 C 1737.79 1275.96 t 0 r /Helvetica-Oblique findfont 56.3093 sf 0 0 m (t) show NC gr 
 gsave  2268 1103 0 472 C 1720.03 1275.96 t 0 r /Helvetica findfont 56.3093 sf 0 0 m ( ) show NC gr  0.54 0.06 0.06 c 3 lw 1626 1266 m 79 X 52 Y -79 X f 6 lw black
 gsave  2268 1103 0 472 C 1332.21 1204.91 t 0 r /Helvetica-Oblique findfont 56.3093 sf 0 0 m (tZq) show NC gr 
 gsave  2268 1103 0 472 C 1314.45 1204.91 t 0 r /Helvetica findfont 56.3093 sf 0 0 m ( ) show NC gr  1 0 1 c 3 lw 1219 1193 m 79 X 51 Y -79 X f black
 gsave  2268 1103 0 472 C 1779.24 1204.91 t 0 r /Helvetica-Oblique findfont 56.3093 sf 0 0 m (H) show NC gr 
 gsave  2268 1103 0 472 C 1758.52 1204.91 t 0 r /Helvetica-Oblique findfont 56.3093 sf 0 0 m (t) show NC gr  6 lw 1759 1249 m 20 X s
 gsave  2268 1103 0 472 C 1737.79 1204.91 t 0 r /Helvetica-Oblique findfont 56.3093 sf 0 0 m (t) show NC gr 
 gsave  2268 1103 0 472 C 1720.03 1204.91 t 0 r /Helvetica findfont 56.3093 sf 0 0 m ( ) show NC gr  0 0 1 c 3 lw 1626 1193 m 79 X 51 Y -79 X f 6 lw black
 gsave  2268 1103 0 472 C 1332.21 1130.9 t 0 r /Helvetica-Oblique findfont 56.3093 sf 0 0 m (tWZ/tWH) show NC gr 
 gsave  2268 1103 0 472 C 1314.45 1130.9 t 0 r /Helvetica findfont 56.3093 sf 0 0 m ( ) show NC gr  0.2 0.8 0.8 c 3 lw 1219 1119 m 79 X 52 Y -79 X f black
 gsave  2268 1103 0 472 C 1737.79 1130.9 t 0 r /Helvetica-Oblique findfont 56.3093 sf 0 0 m (tHq) show NC gr 
 gsave  2268 1103 0 472 C 1720.03 1130.9 t 0 r /Helvetica findfont 56.3093 sf 0 0 m ( ) show NC gr  1 0 0 c 3 lw 1626 1119 m 79 X 52 Y -79 X f black
 gsave  2268 1103 0 472 C 1314.45 1056.89 t 0 r /Helvetica findfont 56.3093 sf 0 0 m ( Other) show NC gr  1 0.84 0 c 3 lw 1219 1046 m 79 X 51 Y -79 X f black
 gsave  2268 1103 0 472 C 1720.03 1056.89 t 0 r /Helvetica findfont 56.3093 sf 0 0 m ( Uncertainty) show NC gr  0.6 0.6 0.6 c 3 lw 1705 1061 m -15 -15 d s 1705 1080 m -34 -34 d s 1703 1097 m -51 -51 d s 1684 1097 m -51 -51 d s 1665 1097 m -39 -39 d s
 1646 1097 m -20 -20 d s 1626 1097 m s 1 0.84 0 c 0.6 0.6 0.6 c black
 gsave  2268 1103 0 472 C 894.061 1329.25 t 0 r /Helvetica findfont 41.4911 sf 0 0 m (\2551) show NC gr 
 gsave  2268 1103 0 472 C 399.663 1299.64 t 0 r /Helvetica findfont 62.2366 sf 0 0 m ( = 13 TeV,  139 fb) show NC gr 
 gsave  2268 1103 0 472 C 370.058 1299.64 t 0 r /Helvetica findfont 62.2366 sf 0 0 m (s) show NC gr  6 lw 349 1335 m 6 -38 d s 3 lw 355 1297 m 6 56 d s 361 1353 m 39 X s
 gsave  2268 1103 0 472 C 793.405 1201.95 t 0 r /Helvetica findfont 62.2366 sf 0 0 m (\)) show NC gr 
 gsave  2268 1103 0 472 C 737.156 1169.38 t 0 r /Helvetica findfont 41.4911 sf 0 0 m (HF) show NC gr 
 gsave  2268 1103 0 472 C 337.493 1201.95 t 0 r /Helvetica findfont 62.2366 sf 0 0 m ( 2L\(SS\), CR\(el) show NC gr 
 gsave  2268 1103 0 472 C 337.493 1400.3 t 0 r /Helvetica-BoldOblique findfont 71.1276 sf 0 0 m (ATLAS) show NC gr 
 gsave  2268 1103 0 472 C 633.54 1400.3 t 0 r /Helvetica findfont 71.1276 sf 0 0 m (Internal) show NC gr 
 gr  gr showpage
end
%%EOF
