%!PS-Adobe-2.0 EPSF-2.0
%%BoundingBox:  0 0 567 394
%%Title: /lhome/ific/c/cardillo/tHq/Plots/Plots-30-05-22-PLIV-SF/2LSS_MC/Njets_SRtHq.eps: Njets_SRtHq
%%Creator: ROOT Version 6.20/06
%%CreationDate: Mon May 30 19:26:16 2022
%%DocumentNeededResources: ProcSet (FontSetInit)
%%EndComments
%%BeginProlog
80 dict begin
/s {stroke} def /l {lineto} def /m {moveto} def /t {translate} def
/r {rotate} def /rl {roll}  def /R {repeat} def
/d {rlineto} def /rm {rmoveto} def /gr {grestore} def /f {eofill} def
/c {setrgbcolor} def /black {0 setgray} def /sd {setdash} def
/cl {closepath} def /sf {scalefont setfont} def /lw {setlinewidth} def
/box {m dup 0 exch d exch 0 d 0 exch neg d cl} def
/NC{systemdict begin initclip end}def/C{NC box clip newpath}def
/bl {box s} def /bf {gsave box gsave f grestore 1 lw [] 0 sd s grestore} def /Y { 0 exch d} def /X { 0 d} def 
/K {{pop pop 0 moveto} exch kshow} bind def
/ita {/ang 15 def gsave [1 0 ang dup sin exch cos div 1 0 0] concat} def 
/mp {newpath /y exch def /x exch def} def
/side {[w .77 mul w .23 mul] .385 w mul sd w 0 l currentpoint t -144 r} def
/mr {mp x y w2 0 360 arc} def /m24 {mr s} def /m20 {mr f} def
/mb {mp x y w2 add m w2 neg 0 d 0 w neg d w 0 d 0 w d cl} def
/mt {mp x y w2 add m w2 neg w neg d w 0 d cl} def
/w4 {w 4 div} def
/w6 {w 6 div} def
/w8 {w 8 div} def
/m21 {mb f} def /m25 {mb s} def /m22 {mt f} def /m26{mt s} def
/m23 {mp x y w2 sub m w2 w d w neg 0 d cl f} def
/m27 {mp x y w2 add m w3 neg w2 neg d w3 w2 neg d w3 w2 d cl s} def
/m28 {mp x w2 sub y w2 sub w3 add m w3 0 d  0 w3 neg d w3 0 d 0 w3 d w3 0 d  0 w3 d w3 neg 0 d 0 w3 d w3 neg 0 d 0 w3 neg d w3 neg 0 d cl s } def
/m29 {mp gsave x w2 sub y w2 add w3 sub m currentpoint t 4 {side} repeat cl fill gr} def
/m30 {mp gsave x w2 sub y w2 add w3 sub m currentpoint t 4 {side} repeat cl s gr} def
/m31 {mp x y w2 sub m 0 w d x w2 sub y m w 0 d x w2 sub y w2 add m w w neg d x w2 sub y w2 sub m w w d s} def
/m32 {mp x y w2 sub m w2 w d w neg 0 d cl s} def
/m33 {mp x y w2 add m w3 neg w2 neg d w3 w2 neg d w3 w2 d cl f} def
/m34 {mp x w2 sub y w2 sub w3 add m w3 0 d  0 w3 neg d w3 0 d 0 w3 d w3 0 d  0 w3 d w3 neg 0 d 0 w3 d w3 neg 0 d 0 w3 neg d w3 neg 0 d cl f } def
/m35 {mp x y w2 add m w2 neg w2 neg d w2 w2 neg d w2 w2 d w2 neg w2 d x y w2 sub m 0 w d x w2 sub y m w 0 d s} def
/m36 {mb x w2 sub y w2 add m w w neg d x w2 sub y w2 sub m w w d s} def
/m37 {mp x y m w4 neg w2 d w4 neg w2 neg d w2 0 d  w4 neg w2 neg d w2 0 d w4 neg w2 d w2 0 d w4 neg w2 d w4 neg w2 neg d cl s} def
/m38 {mp x w4 sub y w2 add m w4 neg w4 neg d 0 w2 neg d w4 w4 neg d w2 0 d w4 w4 d 0 w2 d w4 neg w4 d w2 neg 0 d x y w2 sub m 0 w d x w2 sub y m w 0 d cl s} def
/m39 {mp x y m w4 neg w2 d w4 neg w2 neg d w2 0 d  w4 neg w2 neg d w2 0 d w4 neg w2 d w2 0 d w4 neg w2 d w4 neg w2 neg d cl f} def
/m40 {mp x y m w4 w2 d w4 w4 neg d w2 neg w4 neg d w2 w4 neg d w4 neg w4 neg d w4 neg w2 d w4 neg w2 neg d w4 neg w4 d w2 w4 d w2 neg w4 d w4 w4 d w4 w2 neg d cl s} def
/m41 {mp x y m w4 w2 d w4 w4 neg d w2 neg w4 neg d w2 w4 neg d w4 neg w4 neg d w4 neg w2 d w4 neg w2 neg d w4 neg w4 d w2 w4 d w2 neg w4 d w4 w4 d w4 w2 neg d cl f} def
/m42 {mp x y w2 add m w8 neg w2 -3 4 div mul d w2 -3 4 div mul w8 neg d w2 3 4 div mul w8 neg d w8 w2 -3 4 div mul d w8 w2 3 4 div mul d w2 3 4 div mul w8 d w2 -3 4 div mul w8 d w8 neg w2 3 4 div mul d cl s} def
/m43 {mp x y w2 add m w8 neg w2 -3 4 div mul d w2 -3 4 div mul w8 neg d w2 3 4 div mul w8 neg d w8 w2 -3 4 div mul d w8 w2 3 4 div mul d w2 3 4 div mul w8 d w2 -3 4 div mul w8 d w8 neg w2 3 4 div mul d cl f} def
/m44 {mp x y m w6 neg w2 d w2 2 3 div mul 0 d w6 neg w2 neg d w2 w6 d 0 w2 -2 3 div mul d w2 neg w6 d w6 w2 neg d w2 -2 3 div mul 0 d w6 w2 d w2 neg w6 neg d 0 w2 2 3 div mul d w2 w6 neg d cl s} def
/m45 {mp x y m w6 neg w2 d w2 2 3 div mul 0 d w6 neg w2 neg d w2 w6 d 0 w2 -2 3 div mul d w2 neg w6 d w6 w2 neg d w2 -2 3 div mul 0 d w6 w2 d w2 neg w6 neg d 0 w2 2 3 div mul d w2 w6 neg d cl f} def
/m46 {mp x y w4 add m w4 neg w4 d w4 neg w4 neg d  w4 w4 neg d w4 neg w4 neg d w4 w4 neg d w4 w4 d w4 w4 neg d w4 w4 d w4 neg w4 d w4 w4 d w4 neg w4 d w4 neg w4 neg d cl s} def
/m47 {mp x y w4 add m w4 neg w4 d w4 neg w4 neg d w4 w4 neg d w4 neg w4 neg d  w4 w4 neg d w4 w4 d w4 w4 neg d w4 w4 d w4 neg w4 d w4 w4 d w4 neg w4 d w4 neg w4 neg d cl f} def
/m48 {mp x y w4 add m w4 neg w4 d w4 neg w4 neg d w4 w4 neg d  w4 neg w4 neg d w4 w4 neg d w4 w4 d w4 w4 neg d w4 w4 d w4 neg w4 d w4 w4 d w4 neg w4 d w4 neg w4 neg d  w4 w4 neg d w4 neg w4 neg d w4 neg w4 d w4 w4 d cl f} def
/m49 {mp x w2 sub w3 add y w2 sub w3 add m  0 w3 neg d w3 0 d 0 w3 d w3 0 d 0 w3 d w3 neg 0 d 0 w3 d w3 neg 0 d 0 w3 neg d w3 neg 0 d 0 w3 neg d w3 0 d 0 w3 d w3 0 d 0 w3 neg d w3 neg 0 d cl f } def
/m2 {mp x y w2 sub m 0 w d x w2 sub y m w 0 d s} def
/m5 {mp x w2 sub y w2 sub m w w d x w2 sub y w2 add m w w neg d s} def
%%IncludeResource: ProcSet (FontSetInit)
%%IncludeResource: font Times-Roman
%%IncludeResource: font Times-Italic
%%IncludeResource: font Times-Bold
%%IncludeResource: font Times-BoldItalic
%%IncludeResource: font Helvetica
%%IncludeResource: font Helvetica-Oblique
%%IncludeResource: font Helvetica-Bold
%%IncludeResource: font Helvetica-BoldOblique
%%IncludeResource: font Courier
%%IncludeResource: font Courier-Oblique
%%IncludeResource: font Courier-Bold
%%IncludeResource: font Courier-BoldOblique
%%IncludeResource: font Symbol
%%IncludeResource: font ZapfDingbats
/reEncode {exch findfont dup length dict begin {1 index /FID eq  {pop pop} {def} ifelse } forall /Encoding exch def currentdict end dup /FontName get exch definefont pop } def [/Times-Bold /Times-Italic /Times-BoldItalic /Helvetica /Helvetica-Oblique
 /Helvetica-Bold /Helvetica-BoldOblique /Courier /Courier-Oblique /Courier-Bold /Courier-BoldOblique /Times-Roman /AvantGarde-Book /AvantGarde-BookOblique /AvantGarde-Demi /AvantGarde-DemiOblique /Bookman-Demi /Bookman-DemiItalic /Bookman-Light
 /Bookman-LightItalic /Helvetica-Narrow /Helvetica-Narrow-Bold /Helvetica-Narrow-BoldOblique /Helvetica-Narrow-Oblique /NewCenturySchlbk-Roman /NewCenturySchlbk-Bold /NewCenturySchlbk-BoldItalic /NewCenturySchlbk-Italic /Palatino-Bold
 /Palatino-BoldItalic /Palatino-Italic /Palatino-Roman ] {ISOLatin1Encoding reEncode } forall
%%EndProlog
%%BeginSetup
%%EndSetup
newpath  gsave  .25 .25 scale  gsave  0 0 t black[  ] 0 sd 3 lw 1 1 1 c 2268 1575 0 0 bf black 1 1 1 c 2268 472 0 0 bf black 1 1 1 c 1927 274 227 189 bf black 1927 274 227 189 bl 227 189 m 1927 X s 227 201 m -12 Y s 291 195 m -6 Y s 355 195 m -6 Y s
 420 195 m -6 Y s 484 195 m -6 Y s 548 201 m -12 Y s 612 195 m -6 Y s 677 195 m -6 Y s 741 195 m -6 Y s 805 195 m -6 Y s 869 201 m -12 Y s 934 195 m -6 Y s 998 195 m -6 Y s 1062 195 m -6 Y s 1126 195 m -6 Y s 1191 201 m -12 Y s 1255 195 m -6 Y s 1319
 195 m -6 Y s 1383 195 m -6 Y s 1448 195 m -6 Y s 1512 201 m -12 Y s 1576 195 m -6 Y s 1640 195 m -6 Y s 1705 195 m -6 Y s 1769 195 m -6 Y s 1833 201 m -12 Y s 1897 195 m -6 Y s 1962 195 m -6 Y s 2026 195 m -6 Y s 2090 195 m -6 Y s 2154 201 m -12 Y s
 gsave  2268 472 0 0 C 213.154 127.3 t 0 r /Helvetica findfont 53.4895 sf 0 0 m (1) show NC gr 
 gsave  2268 472 0 0 C 532.884 127.3 t 0 r /Helvetica findfont 53.4895 sf 0 0 m (2) show NC gr 
 gsave  2268 472 0 0 C 852.614 127.3 t 0 r /Helvetica findfont 53.4895 sf 0 0 m (3) show NC gr 
 gsave  2268 472 0 0 C 1175.3 127.3 t 0 r /Helvetica findfont 53.4895 sf 0 0 m (4) show NC gr 
 gsave  2268 472 0 0 C 1495.04 127.3 t 0 r /Helvetica findfont 53.4895 sf 0 0 m (5) show NC gr 
 gsave  2268 472 0 0 C 1817.73 127.3 t 0 r /Helvetica findfont 53.4895 sf 0 0 m (6) show NC gr 
 gsave  2268 472 0 0 C 2137.46 127.3 t 0 r /Helvetica findfont 53.4895 sf 0 0 m (7) show NC gr 
 gsave  2268 472 0 0 C 2090.09 35.5256 t 0 r /Helvetica findfont 38.6313 sf 0 0 m (jets) show NC gr 
 gsave  2268 472 0 0 C 2042.72 53.2884 t 0 r /Helvetica-Oblique findfont 56.4611 sf 0 0 m (N) show NC gr  227 463 m 1927 X s 227 451 m 12 Y s 291 457 m 6 Y s 355 457 m 6 Y s 420 457 m 6 Y s 484 457 m 6 Y s 548 451 m 12 Y s 612 457 m 6 Y s 677 457 m 6
 Y s 741 457 m 6 Y s 805 457 m 6 Y s 869 451 m 12 Y s 934 457 m 6 Y s 998 457 m 6 Y s 1062 457 m 6 Y s 1126 457 m 6 Y s 1191 451 m 12 Y s 1255 457 m 6 Y s 1319 457 m 6 Y s 1383 457 m 6 Y s 1448 457 m 6 Y s 1512 451 m 12 Y s 1576 457 m 6 Y s 1640 457
 m 6 Y s 1705 457 m 6 Y s 1769 457 m 6 Y s 1833 451 m 12 Y s 1897 457 m 6 Y s 1962 457 m 6 Y s 2026 457 m 6 Y s 2090 457 m 6 Y s 2154 451 m 12 Y s 227 189 m 274 Y s 240 240 m -13 X s 240 326 m -13 X s 240 412 m -13 X s 240 240 m -13 X s 240 412 m -13
 X s
 gsave  2268 472 0 0 C 118.419 222.035 t 0 r /Helvetica findfont 53.4895 sf 0 0 m (0.5) show NC gr 
 gsave  2268 472 0 0 C 171.707 307.888 t 0 r /Helvetica findfont 53.4895 sf 0 0 m (1) show NC gr 
 gsave  2268 472 0 0 C 118.419 393.742 t 0 r /Helvetica findfont 53.4895 sf 0 0 m (1.5) show NC gr 
 gsave  2268 472 0 0 C 71.0512 230.916 t 90 r /Helvetica findfont 53.4895 sf 0 0 m (Data / SM) show NC gr  2154 189 m 274 Y s 2141 240 m 13 X s 2141 326 m 13 X s 2141 412 m 13 X s 2141 240 m 13 X s 2141 412 m 13 X s 227 189 m 1927 X s 227 463 m 1927
 X s 227 189 m 274 Y s[ 4 8] 0 sd 2154 240 m -1927 X s 2154 326 m -1927 X s 2154 412 m -1927 X s 2154 240 m -1927 X s 2154 412 m -1927 X s[  ] 0 sd 2154 189 m 274 Y s 1 1 0.6 c 321 0 227 326 bf 321 0 548 326 bf 322 0 869 326 bf 321 0 1191 326 bf 321
 0 1512 326 bf 321 0 1833 326 bf black 0.6 0.6 0.6 c 548 260 m -14 -13 d s 548 280 m -33 -33 d s 548 299 m -52 -52 d s 548 318 m -71 -71 d s 548 338 m -91 -91 d s 548 357 m -110 -110 d s 548 376 m -129 -129 d s 548 396 m -148 -149 d s 539 405 m -159
 -158 d s 519 405 m -158 -158 d s 500 405 m -158 -158 d s 481 405 m -158 -158 d s 462 405 m -159 -158 d s 442 405 m -158 -158 d s 423 405 m -158 -158 d s 404 405 m -158 -158 d s 385 405 m -158 -158 d s 365 405 m -138 -139 d s 346 405 m -119 -119 d s
 327 405 m -100 -100 d s 308 405 m -81 -81 d s 288 405 m -61 -61 d s 269 405 m -42 -42 d s 250 405 m -23 -23 d s 231 405 m -4 -4 d s 869 312 m -9 -9 d s 869 332 m -28 -29 d s 867 349 m -46 -46 d s 848 349 m -46 -46 d s 829 349 m -46 -46 d s 810 349 m
 -46 -46 d s 790 349 m -46 -46 d s 771 349 m -46 -46 d s 752 349 m -46 -46 d s 733 349 m -46 -46 d s 713 349 m -46 -46 d s 694 349 m -46 -46 d s 675 349 m -46 -46 d s 656 349 m -46 -46 d s 636 349 m -46 -46 d s 617 349 m -46 -46 d s 598 349 m -46 -46
 d s 579 349 m -31 -31 d s 559 349 m -11 -11 d s 1191 326 m -13 -13 d s 1184 339 m -25 -26 d s 1165 339 m -26 -26 d s 1146 339 m -26 -26 d s 1126 339 m -25 -26 d s 1107 339 m -25 -26 d s 1088 339 m -25 -26 d s 1069 339 m -26 -26 d s 1049 339 m -25
 -26 d s 1030 339 m -25 -26 d s 1011 339 m -25 -26 d s 992 339 m -26 -26 d s 973 339 m -26 -26 d s 953 339 m -25 -26 d s 934 339 m -25 -26 d s 915 339 m -26 -26 d s 896 339 m -26 -26 d s 876 339 m -7 -7 d s 1512 320 m -6 -6 d s 1511 338 m -24 -24 d s
 1491 338 m -24 -24 d s 1472 338 m -24 -24 d s 1453 338 m -24 -24 d s 1434 338 m -24 -24 d s 1414 338 m -24 -24 d s 1395 338 m -24 -24 d s 1376 338 m -24 -24 d s 1357 338 m -24 -24 d s 1337 338 m -24 -24 d s 1318 338 m -24 -24 d s 1299 338 m -24 -24
 d s 1280 338 m -24 -24 d s 1260 338 m -24 -24 d s 1241 338 m -24 -24 d s 1222 338 m -24 -24 d s 1203 338 m -12 -12 d s 1833 314 m s 1833 333 m -20 -19 d s 1819 338 m -25 -24 d s 1799 338 m -24 -24 d s 1780 338 m -24 -24 d s 1761 338 m -25 -24 d s
 1742 338 m -25 -24 d s 1722 338 m -24 -24 d s 1703 338 m -24 -24 d s 1684 338 m -25 -24 d s 1665 338 m -25 -24 d s 1646 338 m -25 -24 d s 1626 338 m -24 -24 d s 1607 338 m -24 -24 d s 1588 338 m -25 -24 d s 1569 338 m -25 -24 d s 1549 338 m -24 -24
 d s 1530 338 m -18 -18 d s 2154 328 m -17 -18 d s 2149 342 m -31 -32 d s 2130 342 m -31 -32 d s 2111 342 m -32 -32 d s 2091 342 m -31 -32 d s 2072 342 m -31 -32 d s 2053 342 m -31 -32 d s 2034 342 m -32 -32 d s 2014 342 m -31 -32 d s 1995 342 m -31
 -32 d s 1976 342 m -31 -32 d s 1957 342 m -31 -32 d s 1938 342 m -32 -32 d s 1918 342 m -31 -32 d s 1899 342 m -31 -32 d s 1880 342 m -31 -32 d s 1861 342 m -28 -28 d s 1841 342 m -8 -9 d s black 1 1 1 c black 709 259 m 92 Y s 709 375 m 88 Y s /w 26
 def /w2 {w 2 div} def /w3 {w 3 div} def 709 363 m20 1030 361 m 59 Y s 1030 444 m 19 Y s 1030 432 m20 1351 275 m 34 Y s 1351 333 m 34 Y s 1351 321 m20 1672 236 m 37 Y s 1672 297 m 37 Y s 1672 285 m20 1994 298 m 67 Y s 1994 388 m 67 Y s 1994 377 m20
 227 326 m 1927 X s 227 189 m 1927 X s 227 201 m -12 Y s 291 195 m -6 Y s 355 195 m -6 Y s 420 195 m -6 Y s 484 195 m -6 Y s 548 201 m -12 Y s 612 195 m -6 Y s 677 195 m -6 Y s 741 195 m -6 Y s 805 195 m -6 Y s 869 201 m -12 Y s 934 195 m -6 Y s 998
 195 m -6 Y s 1062 195 m -6 Y s 1126 195 m -6 Y s 1191 201 m -12 Y s 1255 195 m -6 Y s 1319 195 m -6 Y s 1383 195 m -6 Y s 1448 195 m -6 Y s 1512 201 m -12 Y s 1576 195 m -6 Y s 1640 195 m -6 Y s 1705 195 m -6 Y s 1769 195 m -6 Y s 1833 201 m -12 Y s
 1897 195 m -6 Y s 1962 195 m -6 Y s 2026 195 m -6 Y s 2090 195 m -6 Y s 2154 201 m -12 Y s 227 463 m 1927 X s 227 451 m 12 Y s 291 457 m 6 Y s 355 457 m 6 Y s 420 457 m 6 Y s 484 457 m 6 Y s 548 451 m 12 Y s 612 457 m 6 Y s 677 457 m 6 Y s 741 457 m
 6 Y s 805 457 m 6 Y s 869 451 m 12 Y s 934 457 m 6 Y s 998 457 m 6 Y s 1062 457 m 6 Y s 1126 457 m 6 Y s 1191 451 m 12 Y s 1255 457 m 6 Y s 1319 457 m 6 Y s 1383 457 m 6 Y s 1448 457 m 6 Y s 1512 451 m 12 Y s 1576 457 m 6 Y s 1640 457 m 6 Y s 1705
 457 m 6 Y s 1769 457 m 6 Y s 1833 451 m 12 Y s 1897 457 m 6 Y s 1962 457 m 6 Y s 2026 457 m 6 Y s 2090 457 m 6 Y s 2154 451 m 12 Y s 227 189 m 274 Y s 240 240 m -13 X s 240 326 m -13 X s 240 412 m -13 X s 240 240 m -13 X s 240 412 m -13 X s 2154 189
 m 274 Y s 2141 240 m 13 X s 2141 326 m 13 X s 2141 412 m 13 X s 2141 240 m 13 X s 2141 412 m 13 X s 1 1 1 c 2268 1103 0 472 bf black 1 1 1 c 1927 1036 227 484 bf black 1927 1036 227 484 bl 1 1 1 c black 3 lw 227 484 m 1927 X s 227 502 m -18 Y s 291
 493 m -9 Y s 355 493 m -9 Y s 420 493 m -9 Y s 484 493 m -9 Y s 548 502 m -18 Y s 612 493 m -9 Y s 677 493 m -9 Y s 741 493 m -9 Y s 805 493 m -9 Y s 869 502 m -18 Y s 934 493 m -9 Y s 998 493 m -9 Y s 1062 493 m -9 Y s 1126 493 m -9 Y s 1191 502 m
 -18 Y s 1255 493 m -9 Y s 1319 493 m -9 Y s 1383 493 m -9 Y s 1448 493 m -9 Y s 1512 502 m -18 Y s 1576 493 m -9 Y s 1640 493 m -9 Y s 1705 493 m -9 Y s 1769 493 m -9 Y s 1833 502 m -18 Y s 1897 493 m -9 Y s 1962 493 m -9 Y s 2026 493 m -9 Y s 2090
 493 m -9 Y s 2154 502 m -18 Y s
 gsave  2268 1103 0 472 C 2116.73 396.702 t 0 r /Helvetica findfont 20.7455 sf 0 0 m (jets) show NC gr 
 gsave  2268 1103 0 472 C 2090.09 405.584 t 0 r /Helvetica-Oblique findfont 29.6365 sf 0 0 m (N) show NC gr  227 1520 m 1927 X s 227 1501 m 19 Y s 291 1510 m 10 Y s 355 1510 m 10 Y s 420 1510 m 10 Y s 484 1510 m 10 Y s 548 1501 m 19 Y s 612 1510 m 10
 Y s 677 1510 m 10 Y s 741 1510 m 10 Y s 805 1510 m 10 Y s 869 1501 m 19 Y s 934 1510 m 10 Y s 998 1510 m 10 Y s 1062 1510 m 10 Y s 1126 1510 m 10 Y s 1191 1501 m 19 Y s 1255 1510 m 10 Y s 1319 1510 m 10 Y s 1383 1510 m 10 Y s 1448 1510 m 10 Y s 1512
 1501 m 19 Y s 1576 1510 m 10 Y s 1640 1510 m 10 Y s 1705 1510 m 10 Y s 1769 1510 m 10 Y s 1833 1501 m 19 Y s 1897 1510 m 10 Y s 1962 1510 m 10 Y s 2026 1510 m 10 Y s 2090 1510 m 10 Y s 2154 1501 m 19 Y s 227 484 m 1036 Y s 248 638 m -21 X s 237 669
 m -10 X s 237 700 m -10 X s 237 731 m -10 X s 237 762 m -10 X s 248 793 m -21 X s 237 824 m -10 X s 237 855 m -10 X s 237 886 m -10 X s 237 917 m -10 X s 248 948 m -21 X s 237 979 m -10 X s 237 1010 m -10 X s 237 1041 m -10 X s 237 1072 m -10 X s
 248 1103 m -21 X s 237 1134 m -10 X s 237 1165 m -10 X s 237 1196 m -10 X s 237 1227 m -10 X s 248 1258 m -21 X s 237 1289 m -10 X s 237 1320 m -10 X s 237 1351 m -10 X s 237 1382 m -10 X s 248 1413 m -21 X s 248 638 m -21 X s 237 607 m -10 X s 237
 576 m -10 X s 237 545 m -10 X s 237 514 m -10 X s 248 1413 m -21 X s 237 1444 m -10 X s 237 1475 m -10 X s 237 1506 m -10 X s
 gsave  2268 1103 0 472 C 174.667 618.737 t 0 r /Helvetica findfont 50.382 sf 0 0 m (5) show NC gr 
 gsave  2268 1103 0 472 C 145.063 772.682 t 0 r /Helvetica findfont 50.382 sf 0 0 m (10) show NC gr 
 gsave  2268 1103 0 472 C 145.063 929.586 t 0 r /Helvetica findfont 50.382 sf 0 0 m (15) show NC gr 
 gsave  2268 1103 0 472 C 145.063 1083.53 t 0 r /Helvetica findfont 50.382 sf 0 0 m (20) show NC gr 
 gsave  2268 1103 0 472 C 145.063 1240.44 t 0 r /Helvetica findfont 50.382 sf 0 0 m (25) show NC gr 
 gsave  2268 1103 0 472 C 145.063 1394.38 t 0 r /Helvetica findfont 50.382 sf 0 0 m (30) show NC gr 
 gsave  2268 1103 0 472 C 62.1698 1367.74 t 90 r /Helvetica findfont 50.382 sf 0 0 m (Events) show NC gr  2154 484 m 1036 Y s 2133 638 m 21 X s 2144 669 m 10 X s 2144 700 m 10 X s 2144 731 m 10 X s 2144 762 m 10 X s 2133 793 m 21 X s 2144 824 m 10 X
 s 2144 855 m 10 X s 2144 886 m 10 X s 2144 917 m 10 X s 2133 948 m 21 X s 2144 979 m 10 X s 2144 1010 m 10 X s 2144 1041 m 10 X s 2144 1072 m 10 X s 2133 1103 m 21 X s 2144 1134 m 10 X s 2144 1165 m 10 X s 2144 1196 m 10 X s 2144 1227 m 10 X s 2133
 1258 m 21 X s 2144 1289 m 10 X s 2144 1320 m 10 X s 2144 1351 m 10 X s 2144 1382 m 10 X s 2133 1413 m 21 X s 2133 638 m 21 X s 2144 607 m 10 X s 2144 576 m 10 X s 2144 545 m 10 X s 2144 514 m 10 X s 2133 1413 m 21 X s 2144 1444 m 10 X s 2144 1475 m
 10 X s 2144 1506 m 10 X s 0.06 0.54 0.06 c black 3 lw 0.06 0.54 0.06 c 227 484 m 9 Y 321 X 92 Y 321 X 185 Y 322 X 128 Y 321 X -129 Y 321 X -94 Y 321 X -191 Y f 1 0.653333 0 c 0.999 0.999 0.999 c black 3 lw 0.999 0.999 0.999 c 227 484 m 4 Y 321 X 45
 Y 321 X 121 Y 322 X 59 Y 321 X -42 Y 321 X -65 Y 321 X -122 Y f 1 0.653333 0 c 0.999 0.999 0.999 c 1 0.653333 0 c 1 1 1 c black 1 0.653333 0 c black 3 lw 1 0.653333 0 c 227 484 m 4 Y 321 X 45 Y 321 X 121 Y 322 X 59 Y 321 X -42 Y 321 X -65 Y 321 X
 -122 Y f 0.413333 1 0 c 0.999 0.999 0.999 c black 3 lw 0.999 0.999 0.999 c 227 484 m 2 Y 321 X 47 Y 321 X 120 Y 322 X 57 Y 321 X -40 Y 321 X -66 Y 321 X -120 Y f 0.413333 1 0 c 0.999 0.999 0.999 c 0.413333 1 0 c 1 1 1 c black 0.413333 1 0 c black 3
 lw 0.413333 1 0 c 227 484 m 2 Y 321 X 47 Y 321 X 120 Y 322 X 57 Y 321 X -40 Y 321 X -66 Y 321 X -120 Y f 0.6 0.2 1 c 0.999 0.999 0.999 c black 3 lw 0.999 0.999 0.999 c 227 484 m 1 Y 321 X 31 Y 321 X 103 Y 322 X 54 Y 321 X -30 Y 321 X -50 Y 321 X
 -109 Y f 0.6 0.2 1 c 0.999 0.999 0.999 c 0.6 0.2 1 c 1 1 1 c black 0.6 0.2 1 c black 3 lw 0.6 0.2 1 c 227 484 m 1 Y 321 X 31 Y 321 X 103 Y 322 X 54 Y 321 X -30 Y 321 X -50 Y 321 X -109 Y f 0.54 0.06 0.06 c 0.999 0.999 0.999 c black 3 lw 0.999 0.999
 0.999 c 227 484 m 1 Y 321 X 30 Y 321 X 98 Y 322 X 45 Y 321 X -35 Y 321 X -45 Y 321 X -94 Y f 0.54 0.06 0.06 c 0.999 0.999 0.999 c 0.54 0.06 0.06 c 1 1 1 c black 0.54 0.06 0.06 c black 3 lw 0.54 0.06 0.06 c 227 484 m 1 Y 321 X 30 Y 321 X 98 Y 322 X
 45 Y 321 X -35 Y 321 X -45 Y 321 X -94 Y f 1 0 1 c 0.999 0.999 0.999 c black 3 lw 0.999 0.999 0.999 c 227 484 m 321 X 28 Y 321 X 73 Y 322 X 16 Y 321 X -33 Y 321 X -39 Y 321 X -45 Y f 1 0 1 c 0.999 0.999 0.999 c 1 0 1 c 1 1 1 c black 1 0 1 c black 3
 lw 1 0 1 c 227 484 m 321 X 28 Y 321 X 73 Y 322 X 16 Y 321 X -33 Y 321 X -39 Y 321 X -45 Y f 0 0 1 c 0.999 0.999 0.999 c black 3 lw 0.999 0.999 0.999 c 227 484 m 321 X 5 Y 321 X 14 Y 322 X 13 Y 321 X 1 Y 321 X -9 Y 321 X -24 Y f 0 0 1 c 0.999 0.999
 0.999 c 0 0 1 c 1 1 1 c black 0 0 1 c black 3 lw 0 0 1 c 227 484 m 321 X 5 Y 321 X 14 Y 322 X 13 Y 321 X 1 Y 321 X -9 Y 321 X -24 Y f 0.2 0.8 0.8 c 0.999 0.999 0.999 c black 3 lw 0.999 0.999 0.999 c 227 484 m 321 X 5 Y 321 X 11 Y 322 X 7 Y 321 X -4
 Y 321 X -9 Y 321 X -10 Y f 0.2 0.8 0.8 c 0.999 0.999 0.999 c 0.2 0.8 0.8 c 1 1 1 c black 0.2 0.8 0.8 c black 3 lw 0.2 0.8 0.8 c 227 484 m 321 X 5 Y 321 X 11 Y 322 X 7 Y 321 X -4 Y 321 X -9 Y 321 X -10 Y f 1 0 0 c 0.999 0.999 0.999 c black 3 lw 0.999
 0.999 0.999 c 227 484 m 321 X 4 Y 321 X 11 Y 322 X 5 Y 321 X -3 Y 321 X -9 Y 321 X -8 Y f 1 0 0 c 0.999 0.999 0.999 c 1 0 0 c 1 1 1 c black 1 0 0 c black 3 lw 1 0 0 c 227 484 m 321 X 4 Y 321 X 11 Y 322 X 5 Y 321 X -3 Y 321 X -9 Y 321 X -8 Y f 1 0.84
 0 c 0.999 0.999 0.999 c black 3 lw 0.999 0.999 0.999 c 227 484 m 1927 X f 1 0.84 0 c 0.999 0.999 0.999 c 1 0.84 0 c 1 1 1 c black 1 0.84 0 c black 3 lw 1 0.84 0 c 227 484 m 1927 X f black 1 1 1 c black 0.6 0.6 0.6 c 3 lw 544 497 m -9 -9 d s 525 497
 m -9 -9 d s 506 497 m -9 -9 d s 486 497 m -8 -9 d s 467 497 m -9 -9 d s 448 497 m -9 -9 d s 429 497 m -9 -9 d s 409 497 m -8 -9 d s 390 497 m -9 -9 d s 371 497 m -9 -9 d s 352 497 m -9 -9 d s 332 497 m -8 -9 d s 313 497 m -9 -9 d s 294 497 m -9 -9 d
 s 275 497 m -9 -9 d s 255 497 m -8 -9 d s 236 497 m -9 -9 d s 3 lw 869 572 m s 869 591 m -19 -19 d s 858 599 m -28 -27 d s 839 599 m -28 -27 d s 819 599 m -27 -27 d s 800 599 m -27 -27 d s 781 599 m -28 -27 d s 762 599 m -28 -27 d s 742 599 m -27
 -27 d s 723 599 m -27 -27 d s 704 599 m -28 -27 d s 685 599 m -28 -27 d s 666 599 m -28 -27 d s 646 599 m -27 -27 d s 627 599 m -28 -27 d s 608 599 m -28 -27 d s 589 599 m -28 -27 d s 569 599 m -21 -21 d s 550 599 m -2 -2 d s 3 lw 1191 758 m -10 -9
 d s 1191 777 m -29 -28 d s 1186 792 m -43 -43 d s 1166 792 m -42 -43 d s 1147 792 m -43 -43 d s 1128 792 m -43 -43 d s 1109 792 m -43 -43 d s 1089 792 m -42 -43 d s 1070 792 m -43 -43 d s 1051 792 m -43 -43 d s 1032 792 m -43 -43 d s 1012 792 m -42
 -43 d s 993 792 m -43 -43 d s 974 792 m -43 -43 d s 955 792 m -43 -43 d s 936 792 m -43 -43 d s 916 792 m -43 -43 d s 897 792 m -28 -28 d s 878 792 m -9 -9 d s 3 lw 1512 887 m -18 -18 d s 1512 906 m -38 -37 d s 1512 925 m -57 -56 d s 1494 927 m -58
 -58 d s 1475 927 m -58 -58 d s 1456 927 m -59 -58 d s 1437 927 m -59 -58 d s 1417 927 m -58 -58 d s 1398 927 m -58 -58 d s 1379 927 m -59 -58 d s 1360 927 m -59 -58 d s 1340 927 m -58 -58 d s 1321 927 m -58 -58 d s 1302 927 m -59 -58 d s 1283 927 m
 -59 -58 d s 1264 927 m -59 -58 d s 1244 927 m -53 -54 d s 1225 927 m -34 -34 d s 1206 927 m -15 -15 d s 3 lw 1833 766 m -17 -18 d s 1833 785 m -37 -37 d s 1818 789 m -41 -41 d s 1799 789 m -41 -41 d s 1780 789 m -41 -41 d s 1761 789 m -41 -41 d s
 1741 789 m -41 -41 d s 1722 789 m -41 -41 d s 1703 789 m -41 -41 d s 1684 789 m -41 -41 d s 1664 789 m -41 -41 d s 1645 789 m -41 -41 d s 1626 789 m -41 -41 d s 1607 789 m -41 -41 d s 1587 789 m -41 -41 d s 1568 789 m -41 -41 d s 1549 789 m -37 -37
 d s 1530 789 m -18 -17 d s 3 lw 2154 664 m -6 -7 d s 2154 683 m -26 -26 d s 2144 692 m -35 -35 d s 2125 692 m -35 -35 d s 2106 692 m -35 -35 d s 2087 692 m -36 -35 d s 2067 692 m -35 -35 d s 2048 692 m -35 -35 d s 2029 692 m -35 -35 d s 2010 692 m
 -35 -35 d s 1990 692 m -35 -35 d s 1971 692 m -35 -35 d s 1952 692 m -35 -35 d s 1933 692 m -35 -35 d s 1913 692 m -35 -35 d s 1894 692 m -35 -35 d s 1875 692 m -35 -35 d s 1856 692 m -23 -22 d s 1836 692 m -3 -3 d s black 3 lw 1 1 1 c black 709 545
 m 50 Y s 709 619 m 50 Y s /w 24 def /w2 {w 2 div} def /w3 {w 3 div} def 709 607 m20 1030 828 m 108 Y s 1030 960 m 108 Y s 1030 948 m20 1351 774 m 100 Y s 1351 898 m 100 Y s 1351 886 m20 1672 618 m 70 Y s 1672 712 m 70 Y s 1672 700 m20 1994 644 m 75
 Y s 1994 743 m 76 Y s 1994 731 m20 227 484 m 1927 X s 227 502 m -18 Y s 291 493 m -9 Y s 355 493 m -9 Y s 420 493 m -9 Y s 484 493 m -9 Y s 548 502 m -18 Y s 612 493 m -9 Y s 677 493 m -9 Y s 741 493 m -9 Y s 805 493 m -9 Y s 869 502 m -18 Y s 934
 493 m -9 Y s 998 493 m -9 Y s 1062 493 m -9 Y s 1126 493 m -9 Y s 1191 502 m -18 Y s 1255 493 m -9 Y s 1319 493 m -9 Y s 1383 493 m -9 Y s 1448 493 m -9 Y s 1512 502 m -18 Y s 1576 493 m -9 Y s 1640 493 m -9 Y s 1705 493 m -9 Y s 1769 493 m -9 Y s
 1833 502 m -18 Y s 1897 493 m -9 Y s 1962 493 m -9 Y s 2026 493 m -9 Y s 2090 493 m -9 Y s 2154 502 m -18 Y s 227 1520 m 1927 X s 227 1501 m 19 Y s 291 1510 m 10 Y s 355 1510 m 10 Y s 420 1510 m 10 Y s 484 1510 m 10 Y s 548 1501 m 19 Y s 612 1510 m
 10 Y s 677 1510 m 10 Y s 741 1510 m 10 Y s 805 1510 m 10 Y s 869 1501 m 19 Y s 934 1510 m 10 Y s 998 1510 m 10 Y s 1062 1510 m 10 Y s 1126 1510 m 10 Y s 1191 1501 m 19 Y s 1255 1510 m 10 Y s 1319 1510 m 10 Y s 1383 1510 m 10 Y s 1448 1510 m 10 Y s
 1512 1501 m 19 Y s 1576 1510 m 10 Y s 1640 1510 m 10 Y s 1705 1510 m 10 Y s 1769 1510 m 10 Y s 1833 1501 m 19 Y s 1897 1510 m 10 Y s 1962 1510 m 10 Y s 2026 1510 m 10 Y s 2090 1510 m 10 Y s 2154 1501 m 19 Y s 227 484 m 1036 Y s 248 638 m -21 X s 237
 669 m -10 X s 237 700 m -10 X s 237 731 m -10 X s 237 762 m -10 X s 248 793 m -21 X s 237 824 m -10 X s 237 855 m -10 X s 237 886 m -10 X s 237 917 m -10 X s 248 948 m -21 X s 237 979 m -10 X s 237 1010 m -10 X s 237 1041 m -10 X s 237 1072 m -10 X
 s 248 1103 m -21 X s 237 1134 m -10 X s 237 1165 m -10 X s 237 1196 m -10 X s 237 1227 m -10 X s 248 1258 m -21 X s 237 1289 m -10 X s 237 1320 m -10 X s 237 1351 m -10 X s 237 1382 m -10 X s 248 1413 m -21 X s 248 638 m -21 X s 237 607 m -10 X s
 237 576 m -10 X s 237 545 m -10 X s 237 514 m -10 X s 248 1413 m -21 X s 237 1444 m -10 X s 237 1475 m -10 X s 237 1506 m -10 X s 2154 484 m 1036 Y s 2133 638 m 21 X s 2144 669 m 10 X s 2144 700 m 10 X s 2144 731 m 10 X s 2144 762 m 10 X s 2133 793
 m 21 X s 2144 824 m 10 X s 2144 855 m 10 X s 2144 886 m 10 X s 2144 917 m 10 X s 2133 948 m 21 X s 2144 979 m 10 X s 2144 1010 m 10 X s 2144 1041 m 10 X s 2144 1072 m 10 X s 2133 1103 m 21 X s 2144 1134 m 10 X s 2144 1165 m 10 X s 2144 1196 m 10 X s
 2144 1227 m 10 X s 2133 1258 m 21 X s 2144 1289 m 10 X s 2144 1320 m 10 X s 2144 1351 m 10 X s 2144 1382 m 10 X s 2133 1413 m 21 X s 2133 638 m 21 X s 2144 607 m 10 X s 2144 576 m 10 X s 2144 545 m 10 X s 2144 514 m 10 X s 2133 1413 m 21 X s 2144
 1444 m 10 X s 2144 1475 m 10 X s 2144 1506 m 10 X s
 gsave  2268 1103 0 472 C 1314.45 1423.98 t 0 r /Helvetica findfont 56.3093 sf 0 0 m ( Data) show NC gr  1259 1451 m 10 Y s 1259 1427 m -10 Y s 1259 1439 m20
 gsave  2268 1103 0 472 C 1808.84 1423.98 t 0 r /Helvetica findfont 56.3093 sf 0 0 m (single\255top) show NC gr 
 gsave  2268 1103 0 472 C 1779.24 1423.98 t 0 r /Helvetica-Oblique findfont 56.3093 sf 0 0 m (/) show NC gr 
 gsave  2268 1103 0 472 C 1758.52 1423.98 t 0 r /Helvetica-Oblique findfont 56.3093 sf 0 0 m (t) show NC gr  6 lw 1759 1468 m 20 X s
 gsave  2268 1103 0 472 C 1737.79 1423.98 t 0 r /Helvetica-Oblique findfont 56.3093 sf 0 0 m (t) show NC gr 
 gsave  2268 1103 0 472 C 1720.03 1423.98 t 0 r /Helvetica findfont 56.3093 sf 0 0 m ( ) show NC gr  0.06 0.54 0.06 c 3 lw 1626 1413 m 79 X 52 Y -79 X f 6 lw black
 gsave  2268 1103 0 472 C 1444.71 1349.97 t 0 r /Helvetica findfont 56.3093 sf 0 0 m (+jets) show NC gr 
 gsave  2268 1103 0 472 C 1332.21 1349.97 t 0 r /Helvetica-Oblique findfont 56.3093 sf 0 0 m (W/Z) show NC gr 
 gsave  2268 1103 0 472 C 1314.45 1349.97 t 0 r /Helvetica findfont 56.3093 sf 0 0 m ( ) show NC gr  1 0.653333 0 c 3 lw 1219 1340 m 79 X 51 Y -79 X f black
 gsave  2268 1103 0 472 C 1918.38 1349.97 t 0 r /Helvetica findfont 56.3093 sf 0 0 m (+jets) show NC gr 
 gsave  2268 1103 0 472 C 1737.79 1349.97 t 0 r /Helvetica-Oblique findfont 56.3093 sf 0 0 m (WZ/ZZ) show NC gr 
 gsave  2268 1103 0 472 C 1720.03 1349.97 t 0 r /Helvetica findfont 56.3093 sf 0 0 m ( ) show NC gr  0.413333 1 0 c 3 lw 1626 1340 m 79 X 51 Y -79 X f black
 gsave  2268 1103 0 472 C 1373.66 1275.96 t 0 r /Helvetica-Oblique findfont 56.3093 sf 0 0 m (Z) show NC gr 
 gsave  2268 1103 0 472 C 1352.93 1275.96 t 0 r /Helvetica-Oblique findfont 56.3093 sf 0 0 m (t) show NC gr  6 lw 1353 1320 m 21 X s
 gsave  2268 1103 0 472 C 1332.21 1275.96 t 0 r /Helvetica-Oblique findfont 56.3093 sf 0 0 m (t) show NC gr 
 gsave  2268 1103 0 472 C 1314.45 1275.96 t 0 r /Helvetica findfont 56.3093 sf 0 0 m ( ) show NC gr  0.6 0.2 1 c 3 lw 1219 1266 m 79 X 52 Y -79 X f 6 lw black
 gsave  2268 1103 0 472 C 1779.24 1275.96 t 0 r /Helvetica-Oblique findfont 56.3093 sf 0 0 m (W) show NC gr 
 gsave  2268 1103 0 472 C 1758.52 1275.96 t 0 r /Helvetica-Oblique findfont 56.3093 sf 0 0 m (t) show NC gr  6 lw 1759 1320 m 20 X s
 gsave  2268 1103 0 472 C 1737.79 1275.96 t 0 r /Helvetica-Oblique findfont 56.3093 sf 0 0 m (t) show NC gr 
 gsave  2268 1103 0 472 C 1720.03 1275.96 t 0 r /Helvetica findfont 56.3093 sf 0 0 m ( ) show NC gr  0.54 0.06 0.06 c 3 lw 1626 1266 m 79 X 52 Y -79 X f 6 lw black
 gsave  2268 1103 0 472 C 1332.21 1204.91 t 0 r /Helvetica-Oblique findfont 56.3093 sf 0 0 m (tZq) show NC gr 
 gsave  2268 1103 0 472 C 1314.45 1204.91 t 0 r /Helvetica findfont 56.3093 sf 0 0 m ( ) show NC gr  1 0 1 c 3 lw 1219 1193 m 79 X 51 Y -79 X f black
 gsave  2268 1103 0 472 C 1779.24 1204.91 t 0 r /Helvetica-Oblique findfont 56.3093 sf 0 0 m (H) show NC gr 
 gsave  2268 1103 0 472 C 1758.52 1204.91 t 0 r /Helvetica-Oblique findfont 56.3093 sf 0 0 m (t) show NC gr  6 lw 1759 1249 m 20 X s
 gsave  2268 1103 0 472 C 1737.79 1204.91 t 0 r /Helvetica-Oblique findfont 56.3093 sf 0 0 m (t) show NC gr 
 gsave  2268 1103 0 472 C 1720.03 1204.91 t 0 r /Helvetica findfont 56.3093 sf 0 0 m ( ) show NC gr  0 0 1 c 3 lw 1626 1193 m 79 X 51 Y -79 X f 6 lw black
 gsave  2268 1103 0 472 C 1332.21 1130.9 t 0 r /Helvetica-Oblique findfont 56.3093 sf 0 0 m (tWZ/tWH) show NC gr 
 gsave  2268 1103 0 472 C 1314.45 1130.9 t 0 r /Helvetica findfont 56.3093 sf 0 0 m ( ) show NC gr  0.2 0.8 0.8 c 3 lw 1219 1119 m 79 X 52 Y -79 X f black
 gsave  2268 1103 0 472 C 1737.79 1130.9 t 0 r /Helvetica-Oblique findfont 56.3093 sf 0 0 m (tHq) show NC gr 
 gsave  2268 1103 0 472 C 1720.03 1130.9 t 0 r /Helvetica findfont 56.3093 sf 0 0 m ( ) show NC gr  1 0 0 c 3 lw 1626 1119 m 79 X 52 Y -79 X f black
 gsave  2268 1103 0 472 C 1314.45 1056.89 t 0 r /Helvetica findfont 56.3093 sf 0 0 m ( Other) show NC gr  1 0.84 0 c 3 lw 1219 1046 m 79 X 51 Y -79 X f black
 gsave  2268 1103 0 472 C 1720.03 1056.89 t 0 r /Helvetica findfont 56.3093 sf 0 0 m ( Uncertainty) show NC gr  0.6 0.6 0.6 c 3 lw 1705 1061 m -15 -15 d s 1705 1080 m -34 -34 d s 1703 1097 m -51 -51 d s 1684 1097 m -51 -51 d s 1665 1097 m -39 -39 d s
 1646 1097 m -20 -20 d s 1626 1097 m s 1 0.84 0 c 0.6 0.6 0.6 c black
 gsave  2268 1103 0 472 C 894.061 1329.25 t 0 r /Helvetica findfont 41.4911 sf 0 0 m (\2551) show NC gr 
 gsave  2268 1103 0 472 C 399.663 1299.64 t 0 r /Helvetica findfont 62.2366 sf 0 0 m ( = 13 TeV,  139 fb) show NC gr 
 gsave  2268 1103 0 472 C 370.058 1299.64 t 0 r /Helvetica findfont 62.2366 sf 0 0 m (s) show NC gr  6 lw 349 1335 m 6 -38 d s 3 lw 355 1297 m 6 56 d s 361 1353 m 39 X s
 gsave  2268 1103 0 472 C 337.493 1201.95 t 0 r /Helvetica findfont 62.2366 sf 0 0 m ( 2L\(SS\), SR) show NC gr 
 gsave  2268 1103 0 472 C 337.493 1400.3 t 0 r /Helvetica-BoldOblique findfont 71.1276 sf 0 0 m (ATLAS) show NC gr 
 gsave  2268 1103 0 472 C 633.54 1400.3 t 0 r /Helvetica findfont 71.1276 sf 0 0 m (Internal) show NC gr 
 gr  gr showpage
end
%%EOF
