%!PS-Adobe-2.0 EPSF-2.0
%%BoundingBox:  0 0 567 394
%%Title: /lhome/ific/c/cardillo/tHq/Plots/Plots-30-05-22-PLIV-SF/2LSS_MC/Njets_CRVV.eps: Njets_CRVV
%%Creator: ROOT Version 6.20/06
%%CreationDate: Mon May 30 19:26:17 2022
%%DocumentNeededResources: ProcSet (FontSetInit)
%%EndComments
%%BeginProlog
80 dict begin
/s {stroke} def /l {lineto} def /m {moveto} def /t {translate} def
/r {rotate} def /rl {roll}  def /R {repeat} def
/d {rlineto} def /rm {rmoveto} def /gr {grestore} def /f {eofill} def
/c {setrgbcolor} def /black {0 setgray} def /sd {setdash} def
/cl {closepath} def /sf {scalefont setfont} def /lw {setlinewidth} def
/box {m dup 0 exch d exch 0 d 0 exch neg d cl} def
/NC{systemdict begin initclip end}def/C{NC box clip newpath}def
/bl {box s} def /bf {gsave box gsave f grestore 1 lw [] 0 sd s grestore} def /Y { 0 exch d} def /X { 0 d} def 
/K {{pop pop 0 moveto} exch kshow} bind def
/ita {/ang 15 def gsave [1 0 ang dup sin exch cos div 1 0 0] concat} def 
/mp {newpath /y exch def /x exch def} def
/side {[w .77 mul w .23 mul] .385 w mul sd w 0 l currentpoint t -144 r} def
/mr {mp x y w2 0 360 arc} def /m24 {mr s} def /m20 {mr f} def
/mb {mp x y w2 add m w2 neg 0 d 0 w neg d w 0 d 0 w d cl} def
/mt {mp x y w2 add m w2 neg w neg d w 0 d cl} def
/w4 {w 4 div} def
/w6 {w 6 div} def
/w8 {w 8 div} def
/m21 {mb f} def /m25 {mb s} def /m22 {mt f} def /m26{mt s} def
/m23 {mp x y w2 sub m w2 w d w neg 0 d cl f} def
/m27 {mp x y w2 add m w3 neg w2 neg d w3 w2 neg d w3 w2 d cl s} def
/m28 {mp x w2 sub y w2 sub w3 add m w3 0 d  0 w3 neg d w3 0 d 0 w3 d w3 0 d  0 w3 d w3 neg 0 d 0 w3 d w3 neg 0 d 0 w3 neg d w3 neg 0 d cl s } def
/m29 {mp gsave x w2 sub y w2 add w3 sub m currentpoint t 4 {side} repeat cl fill gr} def
/m30 {mp gsave x w2 sub y w2 add w3 sub m currentpoint t 4 {side} repeat cl s gr} def
/m31 {mp x y w2 sub m 0 w d x w2 sub y m w 0 d x w2 sub y w2 add m w w neg d x w2 sub y w2 sub m w w d s} def
/m32 {mp x y w2 sub m w2 w d w neg 0 d cl s} def
/m33 {mp x y w2 add m w3 neg w2 neg d w3 w2 neg d w3 w2 d cl f} def
/m34 {mp x w2 sub y w2 sub w3 add m w3 0 d  0 w3 neg d w3 0 d 0 w3 d w3 0 d  0 w3 d w3 neg 0 d 0 w3 d w3 neg 0 d 0 w3 neg d w3 neg 0 d cl f } def
/m35 {mp x y w2 add m w2 neg w2 neg d w2 w2 neg d w2 w2 d w2 neg w2 d x y w2 sub m 0 w d x w2 sub y m w 0 d s} def
/m36 {mb x w2 sub y w2 add m w w neg d x w2 sub y w2 sub m w w d s} def
/m37 {mp x y m w4 neg w2 d w4 neg w2 neg d w2 0 d  w4 neg w2 neg d w2 0 d w4 neg w2 d w2 0 d w4 neg w2 d w4 neg w2 neg d cl s} def
/m38 {mp x w4 sub y w2 add m w4 neg w4 neg d 0 w2 neg d w4 w4 neg d w2 0 d w4 w4 d 0 w2 d w4 neg w4 d w2 neg 0 d x y w2 sub m 0 w d x w2 sub y m w 0 d cl s} def
/m39 {mp x y m w4 neg w2 d w4 neg w2 neg d w2 0 d  w4 neg w2 neg d w2 0 d w4 neg w2 d w2 0 d w4 neg w2 d w4 neg w2 neg d cl f} def
/m40 {mp x y m w4 w2 d w4 w4 neg d w2 neg w4 neg d w2 w4 neg d w4 neg w4 neg d w4 neg w2 d w4 neg w2 neg d w4 neg w4 d w2 w4 d w2 neg w4 d w4 w4 d w4 w2 neg d cl s} def
/m41 {mp x y m w4 w2 d w4 w4 neg d w2 neg w4 neg d w2 w4 neg d w4 neg w4 neg d w4 neg w2 d w4 neg w2 neg d w4 neg w4 d w2 w4 d w2 neg w4 d w4 w4 d w4 w2 neg d cl f} def
/m42 {mp x y w2 add m w8 neg w2 -3 4 div mul d w2 -3 4 div mul w8 neg d w2 3 4 div mul w8 neg d w8 w2 -3 4 div mul d w8 w2 3 4 div mul d w2 3 4 div mul w8 d w2 -3 4 div mul w8 d w8 neg w2 3 4 div mul d cl s} def
/m43 {mp x y w2 add m w8 neg w2 -3 4 div mul d w2 -3 4 div mul w8 neg d w2 3 4 div mul w8 neg d w8 w2 -3 4 div mul d w8 w2 3 4 div mul d w2 3 4 div mul w8 d w2 -3 4 div mul w8 d w8 neg w2 3 4 div mul d cl f} def
/m44 {mp x y m w6 neg w2 d w2 2 3 div mul 0 d w6 neg w2 neg d w2 w6 d 0 w2 -2 3 div mul d w2 neg w6 d w6 w2 neg d w2 -2 3 div mul 0 d w6 w2 d w2 neg w6 neg d 0 w2 2 3 div mul d w2 w6 neg d cl s} def
/m45 {mp x y m w6 neg w2 d w2 2 3 div mul 0 d w6 neg w2 neg d w2 w6 d 0 w2 -2 3 div mul d w2 neg w6 d w6 w2 neg d w2 -2 3 div mul 0 d w6 w2 d w2 neg w6 neg d 0 w2 2 3 div mul d w2 w6 neg d cl f} def
/m46 {mp x y w4 add m w4 neg w4 d w4 neg w4 neg d  w4 w4 neg d w4 neg w4 neg d w4 w4 neg d w4 w4 d w4 w4 neg d w4 w4 d w4 neg w4 d w4 w4 d w4 neg w4 d w4 neg w4 neg d cl s} def
/m47 {mp x y w4 add m w4 neg w4 d w4 neg w4 neg d w4 w4 neg d w4 neg w4 neg d  w4 w4 neg d w4 w4 d w4 w4 neg d w4 w4 d w4 neg w4 d w4 w4 d w4 neg w4 d w4 neg w4 neg d cl f} def
/m48 {mp x y w4 add m w4 neg w4 d w4 neg w4 neg d w4 w4 neg d  w4 neg w4 neg d w4 w4 neg d w4 w4 d w4 w4 neg d w4 w4 d w4 neg w4 d w4 w4 d w4 neg w4 d w4 neg w4 neg d  w4 w4 neg d w4 neg w4 neg d w4 neg w4 d w4 w4 d cl f} def
/m49 {mp x w2 sub w3 add y w2 sub w3 add m  0 w3 neg d w3 0 d 0 w3 d w3 0 d 0 w3 d w3 neg 0 d 0 w3 d w3 neg 0 d 0 w3 neg d w3 neg 0 d 0 w3 neg d w3 0 d 0 w3 d w3 0 d 0 w3 neg d w3 neg 0 d cl f } def
/m2 {mp x y w2 sub m 0 w d x w2 sub y m w 0 d s} def
/m5 {mp x w2 sub y w2 sub m w w d x w2 sub y w2 add m w w neg d s} def
%%IncludeResource: ProcSet (FontSetInit)
%%IncludeResource: font Times-Roman
%%IncludeResource: font Times-Italic
%%IncludeResource: font Times-Bold
%%IncludeResource: font Times-BoldItalic
%%IncludeResource: font Helvetica
%%IncludeResource: font Helvetica-Oblique
%%IncludeResource: font Helvetica-Bold
%%IncludeResource: font Helvetica-BoldOblique
%%IncludeResource: font Courier
%%IncludeResource: font Courier-Oblique
%%IncludeResource: font Courier-Bold
%%IncludeResource: font Courier-BoldOblique
%%IncludeResource: font Symbol
%%IncludeResource: font ZapfDingbats
/reEncode {exch findfont dup length dict begin {1 index /FID eq  {pop pop} {def} ifelse } forall /Encoding exch def currentdict end dup /FontName get exch definefont pop } def [/Times-Bold /Times-Italic /Times-BoldItalic /Helvetica /Helvetica-Oblique
 /Helvetica-Bold /Helvetica-BoldOblique /Courier /Courier-Oblique /Courier-Bold /Courier-BoldOblique /Times-Roman /AvantGarde-Book /AvantGarde-BookOblique /AvantGarde-Demi /AvantGarde-DemiOblique /Bookman-Demi /Bookman-DemiItalic /Bookman-Light
 /Bookman-LightItalic /Helvetica-Narrow /Helvetica-Narrow-Bold /Helvetica-Narrow-BoldOblique /Helvetica-Narrow-Oblique /NewCenturySchlbk-Roman /NewCenturySchlbk-Bold /NewCenturySchlbk-BoldItalic /NewCenturySchlbk-Italic /Palatino-Bold
 /Palatino-BoldItalic /Palatino-Italic /Palatino-Roman ] {ISOLatin1Encoding reEncode } forall
%%EndProlog
%%BeginSetup
%%EndSetup
newpath  gsave  .25 .25 scale  gsave  0 0 t black[  ] 0 sd 3 lw 1 1 1 c 2268 1575 0 0 bf black 1 1 1 c 2268 472 0 0 bf black 1 1 1 c 1927 274 227 189 bf black 1927 274 227 189 bl 227 189 m 1927 X s 227 201 m -12 Y s 291 195 m -6 Y s 355 195 m -6 Y s
 420 195 m -6 Y s 484 195 m -6 Y s 548 201 m -12 Y s 612 195 m -6 Y s 677 195 m -6 Y s 741 195 m -6 Y s 805 195 m -6 Y s 869 201 m -12 Y s 934 195 m -6 Y s 998 195 m -6 Y s 1062 195 m -6 Y s 1126 195 m -6 Y s 1191 201 m -12 Y s 1255 195 m -6 Y s 1319
 195 m -6 Y s 1383 195 m -6 Y s 1448 195 m -6 Y s 1512 201 m -12 Y s 1576 195 m -6 Y s 1640 195 m -6 Y s 1705 195 m -6 Y s 1769 195 m -6 Y s 1833 201 m -12 Y s 1897 195 m -6 Y s 1962 195 m -6 Y s 2026 195 m -6 Y s 2090 195 m -6 Y s 2154 201 m -12 Y s
 gsave  2268 472 0 0 C 213.154 127.3 t 0 r /Helvetica findfont 53.4895 sf 0 0 m (1) show NC gr 
 gsave  2268 472 0 0 C 532.884 127.3 t 0 r /Helvetica findfont 53.4895 sf 0 0 m (2) show NC gr 
 gsave  2268 472 0 0 C 852.614 127.3 t 0 r /Helvetica findfont 53.4895 sf 0 0 m (3) show NC gr 
 gsave  2268 472 0 0 C 1175.3 127.3 t 0 r /Helvetica findfont 53.4895 sf 0 0 m (4) show NC gr 
 gsave  2268 472 0 0 C 1495.04 127.3 t 0 r /Helvetica findfont 53.4895 sf 0 0 m (5) show NC gr 
 gsave  2268 472 0 0 C 1817.73 127.3 t 0 r /Helvetica findfont 53.4895 sf 0 0 m (6) show NC gr 
 gsave  2268 472 0 0 C 2137.46 127.3 t 0 r /Helvetica findfont 53.4895 sf 0 0 m (7) show NC gr 
 gsave  2268 472 0 0 C 2090.09 35.5256 t 0 r /Helvetica findfont 38.6313 sf 0 0 m (jets) show NC gr 
 gsave  2268 472 0 0 C 2042.72 53.2884 t 0 r /Helvetica-Oblique findfont 56.4611 sf 0 0 m (N) show NC gr  227 463 m 1927 X s 227 451 m 12 Y s 291 457 m 6 Y s 355 457 m 6 Y s 420 457 m 6 Y s 484 457 m 6 Y s 548 451 m 12 Y s 612 457 m 6 Y s 677 457 m 6
 Y s 741 457 m 6 Y s 805 457 m 6 Y s 869 451 m 12 Y s 934 457 m 6 Y s 998 457 m 6 Y s 1062 457 m 6 Y s 1126 457 m 6 Y s 1191 451 m 12 Y s 1255 457 m 6 Y s 1319 457 m 6 Y s 1383 457 m 6 Y s 1448 457 m 6 Y s 1512 451 m 12 Y s 1576 457 m 6 Y s 1640 457
 m 6 Y s 1705 457 m 6 Y s 1769 457 m 6 Y s 1833 451 m 12 Y s 1897 457 m 6 Y s 1962 457 m 6 Y s 2026 457 m 6 Y s 2090 457 m 6 Y s 2154 451 m 12 Y s 227 189 m 274 Y s 240 240 m -13 X s 240 326 m -13 X s 240 412 m -13 X s 240 240 m -13 X s 240 412 m -13
 X s
 gsave  2268 472 0 0 C 118.419 222.035 t 0 r /Helvetica findfont 53.4895 sf 0 0 m (0.5) show NC gr 
 gsave  2268 472 0 0 C 171.707 307.888 t 0 r /Helvetica findfont 53.4895 sf 0 0 m (1) show NC gr 
 gsave  2268 472 0 0 C 118.419 393.742 t 0 r /Helvetica findfont 53.4895 sf 0 0 m (1.5) show NC gr 
 gsave  2268 472 0 0 C 71.0512 230.916 t 90 r /Helvetica findfont 53.4895 sf 0 0 m (Data / SM) show NC gr  2154 189 m 274 Y s 2141 240 m 13 X s 2141 326 m 13 X s 2141 412 m 13 X s 2141 240 m 13 X s 2141 412 m 13 X s 227 189 m 1927 X s 227 463 m 1927
 X s 227 189 m 274 Y s[ 4 8] 0 sd 2154 240 m -1927 X s 2154 326 m -1927 X s 2154 412 m -1927 X s 2154 240 m -1927 X s 2154 412 m -1927 X s[  ] 0 sd 2154 189 m 274 Y s 1 1 0.6 c 321 0 227 326 bf 321 0 548 326 bf 322 0 869 326 bf 321 0 1191 326 bf 321
 0 1512 326 bf 321 0 1833 326 bf black 0.6 0.6 0.6 c 548 318 m -6 -6 d s 548 338 m -26 -26 d s 531 340 m -28 -28 d s 512 340 m -28 -28 d s 493 340 m -28 -28 d s 474 340 m -29 -28 d s 454 340 m -28 -28 d s 435 340 m -28 -28 d s 416 340 m -28 -28 d s
 397 340 m -29 -28 d s 377 340 m -28 -28 d s 358 340 m -28 -28 d s 339 340 m -28 -28 d s 320 340 m -29 -28 d s 300 340 m -28 -28 d s 281 340 m -28 -28 d s 262 340 m -28 -28 d s 243 340 m -16 -16 d s 869 312 m -1 -1 d s 869 332 m -20 -21 d s 859 341 m
 -30 -30 d s 840 341 m -30 -30 d s 821 341 m -30 -30 d s 802 341 m -30 -30 d s 782 341 m -30 -30 d s 763 341 m -30 -30 d s 744 341 m -30 -30 d s 725 341 m -30 -30 d s 705 341 m -30 -30 d s 686 341 m -30 -30 d s 667 341 m -30 -30 d s 648 341 m -30 -30
 d s 628 341 m -30 -30 d s 609 341 m -30 -30 d s 590 341 m -30 -30 d s 571 341 m -23 -23 d s 551 341 m -3 -3 d s 1191 307 m -4 -4 d s 1191 326 m -24 -23 d s 1191 345 m -43 -42 d s 1176 349 m -47 -46 d s 1156 349 m -46 -46 d s 1137 349 m -47 -46 d s
 1118 349 m -47 -46 d s 1099 349 m -47 -46 d s 1079 349 m -46 -46 d s 1060 349 m -47 -46 d s 1041 349 m -47 -46 d s 1022 349 m -47 -46 d s 1002 349 m -46 -46 d s 983 349 m -47 -46 d s 964 349 m -47 -46 d s 945 349 m -47 -46 d s 925 349 m -46 -46 d s
 906 349 m -37 -37 d s 887 349 m -18 -17 d s 1512 320 m -9 -9 d s 1512 339 m -29 -28 d s 1495 341 m -31 -30 d s 1475 341 m -30 -30 d s 1456 341 m -30 -30 d s 1437 341 m -31 -30 d s 1418 341 m -31 -30 d s 1398 341 m -30 -30 d s 1379 341 m -30 -30 d s
 1360 341 m -31 -30 d s 1341 341 m -31 -30 d s 1321 341 m -30 -30 d s 1302 341 m -30 -30 d s 1283 341 m -31 -30 d s 1264 341 m -31 -30 d s 1244 341 m -30 -30 d s 1225 341 m -30 -30 d s 1206 341 m -15 -15 d s 1833 314 m -4 -4 d s 1833 333 m -23 -23 d
 s 1822 342 m -31 -32 d s 1803 342 m -32 -32 d s 1784 342 m -32 -32 d s 1764 342 m -31 -32 d s 1745 342 m -31 -32 d s 1726 342 m -31 -32 d s 1707 342 m -32 -32 d s 1687 342 m -31 -32 d s 1668 342 m -31 -32 d s 1649 342 m -31 -32 d s 1630 342 m -32
 -32 d s 1610 342 m -31 -32 d s 1591 342 m -31 -32 d s 1572 342 m -31 -32 d s 1553 342 m -32 -32 d s 1534 342 m -22 -22 d s 1514 342 m -2 -3 d s 2154 308 m -11 -11 d s 2154 328 m -30 -31 d s 2154 347 m -50 -50 d s 2143 355 m -58 -58 d s 2124 355 m
 -58 -58 d s 2105 355 m -58 -58 d s 2086 355 m -59 -58 d s 2066 355 m -58 -58 d s 2047 355 m -58 -58 d s 2028 355 m -58 -58 d s 2009 355 m -58 -58 d s 1990 355 m -59 -58 d s 1970 355 m -58 -58 d s 1951 355 m -58 -58 d s 1932 355 m -58 -58 d s 1913
 355 m -59 -58 d s 1893 355 m -58 -58 d s 1874 355 m -41 -41 d s 1855 355 m -22 -22 d s 1836 355 m -3 -2 d s black 1 1 1 c black 387 370 m 28 Y s 387 422 m 27 Y s /w 26 def /w2 {w 2 div} def /w3 {w 3 div} def 387 410 m20 709 407 m 26 Y s 709 457 m 6
 Y s 709 445 m20 1030 254 m 19 Y s 1030 297 m 19 Y s 1030 285 m20 1351 274 m 60 Y s 1351 358 m 60 Y s 1351 346 m20 1672 199 m 95 Y s 1672 317 m 95 Y s 1672 306 m20 1994 189 m 141 Y s 1994 354 m 109 Y s 1994 342 m20 227 326 m 1927 X s 227 189 m 1927 X
 s 227 201 m -12 Y s 291 195 m -6 Y s 355 195 m -6 Y s 420 195 m -6 Y s 484 195 m -6 Y s 548 201 m -12 Y s 612 195 m -6 Y s 677 195 m -6 Y s 741 195 m -6 Y s 805 195 m -6 Y s 869 201 m -12 Y s 934 195 m -6 Y s 998 195 m -6 Y s 1062 195 m -6 Y s 1126
 195 m -6 Y s 1191 201 m -12 Y s 1255 195 m -6 Y s 1319 195 m -6 Y s 1383 195 m -6 Y s 1448 195 m -6 Y s 1512 201 m -12 Y s 1576 195 m -6 Y s 1640 195 m -6 Y s 1705 195 m -6 Y s 1769 195 m -6 Y s 1833 201 m -12 Y s 1897 195 m -6 Y s 1962 195 m -6 Y s
 2026 195 m -6 Y s 2090 195 m -6 Y s 2154 201 m -12 Y s 227 463 m 1927 X s 227 451 m 12 Y s 291 457 m 6 Y s 355 457 m 6 Y s 420 457 m 6 Y s 484 457 m 6 Y s 548 451 m 12 Y s 612 457 m 6 Y s 677 457 m 6 Y s 741 457 m 6 Y s 805 457 m 6 Y s 869 451 m 12
 Y s 934 457 m 6 Y s 998 457 m 6 Y s 1062 457 m 6 Y s 1126 457 m 6 Y s 1191 451 m 12 Y s 1255 457 m 6 Y s 1319 457 m 6 Y s 1383 457 m 6 Y s 1448 457 m 6 Y s 1512 451 m 12 Y s 1576 457 m 6 Y s 1640 457 m 6 Y s 1705 457 m 6 Y s 1769 457 m 6 Y s 1833
 451 m 12 Y s 1897 457 m 6 Y s 1962 457 m 6 Y s 2026 457 m 6 Y s 2090 457 m 6 Y s 2154 451 m 12 Y s 227 189 m 274 Y s 240 240 m -13 X s 240 326 m -13 X s 240 412 m -13 X s 240 240 m -13 X s 240 412 m -13 X s 2154 189 m 274 Y s 2141 240 m 13 X s 2141
 326 m 13 X s 2141 412 m 13 X s 2141 240 m 13 X s 2141 412 m 13 X s 1 1 1 c 2268 1103 0 472 bf black 1 1 1 c 1927 1036 227 484 bf black 1927 1036 227 484 bl 1 1 1 c black 3 lw 227 484 m 1927 X s 227 502 m -18 Y s 291 493 m -9 Y s 355 493 m -9 Y s 420
 493 m -9 Y s 484 493 m -9 Y s 548 502 m -18 Y s 612 493 m -9 Y s 677 493 m -9 Y s 741 493 m -9 Y s 805 493 m -9 Y s 869 502 m -18 Y s 934 493 m -9 Y s 998 493 m -9 Y s 1062 493 m -9 Y s 1126 493 m -9 Y s 1191 502 m -18 Y s 1255 493 m -9 Y s 1319 493
 m -9 Y s 1383 493 m -9 Y s 1448 493 m -9 Y s 1512 502 m -18 Y s 1576 493 m -9 Y s 1640 493 m -9 Y s 1705 493 m -9 Y s 1769 493 m -9 Y s 1833 502 m -18 Y s 1897 493 m -9 Y s 1962 493 m -9 Y s 2026 493 m -9 Y s 2090 493 m -9 Y s 2154 502 m -18 Y s
 gsave  2268 1103 0 472 C 2116.73 396.702 t 0 r /Helvetica findfont 20.7455 sf 0 0 m (jets) show NC gr 
 gsave  2268 1103 0 472 C 2090.09 405.584 t 0 r /Helvetica-Oblique findfont 29.6365 sf 0 0 m (N) show NC gr  227 1520 m 1927 X s 227 1501 m 19 Y s 291 1510 m 10 Y s 355 1510 m 10 Y s 420 1510 m 10 Y s 484 1510 m 10 Y s 548 1501 m 19 Y s 612 1510 m 10
 Y s 677 1510 m 10 Y s 741 1510 m 10 Y s 805 1510 m 10 Y s 869 1501 m 19 Y s 934 1510 m 10 Y s 998 1510 m 10 Y s 1062 1510 m 10 Y s 1126 1510 m 10 Y s 1191 1501 m 19 Y s 1255 1510 m 10 Y s 1319 1510 m 10 Y s 1383 1510 m 10 Y s 1448 1510 m 10 Y s 1512
 1501 m 19 Y s 1576 1510 m 10 Y s 1640 1510 m 10 Y s 1705 1510 m 10 Y s 1769 1510 m 10 Y s 1833 1501 m 19 Y s 1897 1510 m 10 Y s 1962 1510 m 10 Y s 2026 1510 m 10 Y s 2090 1510 m 10 Y s 2154 1501 m 19 Y s 227 484 m 1036 Y s 248 602 m -21 X s 237 626
 m -10 X s 237 650 m -10 X s 237 674 m -10 X s 237 698 m -10 X s 248 722 m -21 X s 237 745 m -10 X s 237 769 m -10 X s 237 793 m -10 X s 237 817 m -10 X s 248 841 m -21 X s 237 864 m -10 X s 237 888 m -10 X s 237 912 m -10 X s 237 936 m -10 X s 248
 960 m -21 X s 237 983 m -10 X s 237 1007 m -10 X s 237 1031 m -10 X s 237 1055 m -10 X s 248 1079 m -21 X s 237 1103 m -10 X s 237 1126 m -10 X s 237 1150 m -10 X s 237 1174 m -10 X s 248 1198 m -21 X s 237 1222 m -10 X s 237 1245 m -10 X s 237 1269
 m -10 X s 237 1293 m -10 X s 248 1317 m -21 X s 237 1341 m -10 X s 237 1364 m -10 X s 237 1388 m -10 X s 237 1412 m -10 X s 248 1436 m -21 X s 248 602 m -21 X s 237 579 m -10 X s 237 555 m -10 X s 237 531 m -10 X s 237 507 m -10 X s 248 1436 m -21 X
 s 237 1460 m -10 X s 237 1484 m -10 X s 237 1507 m -10 X s
 gsave  2268 1103 0 472 C 145.063 583.212 t 0 r /Helvetica findfont 50.382 sf 0 0 m (10) show NC gr 
 gsave  2268 1103 0 472 C 145.063 701.63 t 0 r /Helvetica findfont 50.382 sf 0 0 m (20) show NC gr 
 gsave  2268 1103 0 472 C 145.063 820.049 t 0 r /Helvetica findfont 50.382 sf 0 0 m (30) show NC gr 
 gsave  2268 1103 0 472 C 145.063 941.428 t 0 r /Helvetica findfont 50.382 sf 0 0 m (40) show NC gr 
 gsave  2268 1103 0 472 C 145.063 1059.85 t 0 r /Helvetica findfont 50.382 sf 0 0 m (50) show NC gr 
 gsave  2268 1103 0 472 C 145.063 1178.27 t 0 r /Helvetica findfont 50.382 sf 0 0 m (60) show NC gr 
 gsave  2268 1103 0 472 C 145.063 1296.68 t 0 r /Helvetica findfont 50.382 sf 0 0 m (70) show NC gr 
 gsave  2268 1103 0 472 C 145.063 1418.06 t 0 r /Helvetica findfont 50.382 sf 0 0 m (80) show NC gr 
 gsave  2268 1103 0 472 C 62.1698 1367.74 t 90 r /Helvetica findfont 50.382 sf 0 0 m (Events) show NC gr  2154 484 m 1036 Y s 2133 602 m 21 X s 2144 626 m 10 X s 2144 650 m 10 X s 2144 674 m 10 X s 2144 698 m 10 X s 2133 722 m 21 X s 2144 745 m 10 X
 s 2144 769 m 10 X s 2144 793 m 10 X s 2144 817 m 10 X s 2133 841 m 21 X s 2144 864 m 10 X s 2144 888 m 10 X s 2144 912 m 10 X s 2144 936 m 10 X s 2133 960 m 21 X s 2144 983 m 10 X s 2144 1007 m 10 X s 2144 1031 m 10 X s 2144 1055 m 10 X s 2133 1079
 m 21 X s 2144 1103 m 10 X s 2144 1126 m 10 X s 2144 1150 m 10 X s 2144 1174 m 10 X s 2133 1198 m 21 X s 2144 1222 m 10 X s 2144 1245 m 10 X s 2144 1269 m 10 X s 2144 1293 m 10 X s 2133 1317 m 21 X s 2144 1341 m 10 X s 2144 1364 m 10 X s 2144 1388 m
 10 X s 2144 1412 m 10 X s 2133 1436 m 21 X s 2133 602 m 21 X s 2144 579 m 10 X s 2144 555 m 10 X s 2144 531 m 10 X s 2144 507 m 10 X s 2133 1436 m 21 X s 2144 1460 m 10 X s 2144 1484 m 10 X s 2144 1507 m 10 X s 0.06 0.54 0.06 c black 3 lw 0.06 0.54
 0.06 c 227 484 m 335 Y 321 X 79 Y 321 X -133 Y 322 X -207 Y 321 X -48 Y 321 X -16 Y 321 X -10 Y f 1 0.653333 0 c 0.999 0.999 0.999 c black 3 lw 0.999 0.999 0.999 c 227 484 m 296 Y 321 X 52 Y 321 X -109 Y 322 X -172 Y 321 X -42 Y 321 X -16 Y 321 X -9
 Y f 1 0.653333 0 c 0.999 0.999 0.999 c 1 0.653333 0 c 1 1 1 c black 1 0.653333 0 c black 3 lw 1 0.653333 0 c 227 484 m 296 Y 321 X 52 Y 321 X -109 Y 322 X -172 Y 321 X -42 Y 321 X -16 Y 321 X -9 Y f 0.413333 1 0 c 0.999 0.999 0.999 c black 3 lw
 0.999 0.999 0.999 c 227 484 m 269 Y 321 X 51 Y 321 X -141 Y 322 X -113 Y 321 X -42 Y 321 X -15 Y 321 X -9 Y f 0.413333 1 0 c 0.999 0.999 0.999 c 0.413333 1 0 c 1 1 1 c black 0.413333 1 0 c black 3 lw 0.413333 1 0 c 227 484 m 269 Y 321 X 51 Y 321 X
 -141 Y 322 X -113 Y 321 X -42 Y 321 X -15 Y 321 X -9 Y f 0.6 0.2 1 c 0.999 0.999 0.999 c black 3 lw 0.999 0.999 0.999 c 227 484 m 22 Y 321 X 34 Y 321 X -15 Y 322 X -24 Y 321 X -12 Y 321 X -3 Y 321 X -2 Y f 0.6 0.2 1 c 0.999 0.999 0.999 c 0.6 0.2 1 c
 1 1 1 c black 0.6 0.2 1 c black 3 lw 0.6 0.2 1 c 227 484 m 22 Y 321 X 34 Y 321 X -15 Y 322 X -24 Y 321 X -12 Y 321 X -3 Y 321 X -2 Y f 0.54 0.06 0.06 c 0.999 0.999 0.999 c black 3 lw 0.999 0.999 0.999 c 227 484 m 21 Y 321 X 33 Y 321 X -16 Y 322 X
 -23 Y 321 X -12 Y 321 X -1 Y 321 X -2 Y f 0.54 0.06 0.06 c 0.999 0.999 0.999 c 0.54 0.06 0.06 c 1 1 1 c black 0.54 0.06 0.06 c black 3 lw 0.54 0.06 0.06 c 227 484 m 21 Y 321 X 33 Y 321 X -16 Y 322 X -23 Y 321 X -12 Y 321 X -1 Y 321 X -2 Y f 1 0 1 c
 0.999 0.999 0.999 c black 3 lw 0.999 0.999 0.999 c 227 484 m 18 Y 321 X 23 Y 321 X -16 Y 322 X -16 Y 321 X -8 Y 321 X -1 Y 321 X f 1 0 1 c 0.999 0.999 0.999 c 1 0 1 c 1 1 1 c black 1 0 1 c black 3 lw 1 0 1 c 227 484 m 18 Y 321 X 23 Y 321 X -16 Y 322
 X -16 Y 321 X -8 Y 321 X -1 Y 321 X f 0 0 1 c 0.999 0.999 0.999 c black 3 lw 0.999 0.999 0.999 c 227 484 m 15 Y 321 X 19 Y 321 X -13 Y 322 X -14 Y 321 X -7 Y 642 X f 0 0 1 c 0.999 0.999 0.999 c 0 0 1 c 1 1 1 c black 0 0 1 c black 3 lw 0 0 1 c 227
 484 m 15 Y 321 X 19 Y 321 X -13 Y 322 X -14 Y 321 X -7 Y 642 X f 0.2 0.8 0.8 c 0.999 0.999 0.999 c black 3 lw 0.999 0.999 0.999 c 227 484 m 15 Y 321 X 18 Y 321 X -14 Y 322 X -13 Y 321 X -6 Y 642 X f 0.2 0.8 0.8 c 0.999 0.999 0.999 c 0.2 0.8 0.8 c 1
 1 1 c black 0.2 0.8 0.8 c black 3 lw 0.2 0.8 0.8 c 227 484 m 15 Y 321 X 18 Y 321 X -14 Y 322 X -13 Y 321 X -6 Y 642 X f 1 0 0 c 0.999 0.999 0.999 c black 3 lw 0.999 0.999 0.999 c 227 484 m 15 Y 321 X 17 Y 321 X -13 Y 322 X -14 Y 321 X -5 Y 642 X f 1
 0 0 c 0.999 0.999 0.999 c 1 0 0 c 1 1 1 c black 1 0 0 c black 3 lw 1 0 0 c 227 484 m 15 Y 321 X 17 Y 321 X -13 Y 322 X -14 Y 321 X -5 Y 642 X f 1 0.84 0 c 0.999 0.999 0.999 c black 3 lw 0.999 0.999 0.999 c 227 484 m 14 Y 321 X 17 Y 321 X -13 Y 322 X
 -13 Y 321 X -5 Y 642 X f 1 0.84 0 c 0.999 0.999 0.999 c 1 0.84 0 c 1 1 1 c black 1 0.84 0 c black 3 lw 1 0.84 0 c 227 484 m 14 Y 321 X 17 Y 321 X -13 Y 322 X -13 Y 321 X -5 Y 642 X f black 1 1 1 c black 0.6 0.6 0.6 c 3 lw 548 808 m -17 -17 d s 548
 828 m -36 -37 d s 548 847 m -55 -56 d s 529 847 m -56 -56 d s 510 847 m -56 -56 d s 491 847 m -56 -56 d s 471 847 m -55 -56 d s 452 847 m -56 -56 d s 433 847 m -56 -56 d s 414 847 m -56 -56 d s 394 847 m -55 -56 d s 375 847 m -56 -56 d s 356 847 m
 -56 -56 d s 337 847 m -56 -56 d s 317 847 m -55 -56 d s 298 847 m -56 -56 d s 279 847 m -52 -52 d s 260 847 m -33 -33 d s 240 847 m -13 -14 d s 3 lw 869 879 m -17 -17 d s 869 899 m -37 -37 d s 869 918 m -56 -56 d s 867 934 m -73 -72 d s 847 934 m
 -72 -72 d s 828 934 m -73 -72 d s 809 934 m -73 -72 d s 790 934 m -73 -72 d s 770 934 m -72 -72 d s 751 934 m -73 -72 d s 732 934 m -73 -72 d s 713 934 m -73 -72 d s 693 934 m -72 -72 d s 674 934 m -73 -72 d s 655 934 m -73 -72 d s 636 934 m -73 -72
 d s 617 934 m -69 -68 d s 597 934 m -49 -49 d s 578 934 m -30 -30 d s 559 934 m -11 -10 d s 3 lw 1191 739 m -13 -12 d s 1191 758 m -32 -31 d s 1191 777 m -51 -50 d s 1191 797 m -71 -70 d s 1178 804 m -77 -77 d s 1159 804 m -77 -77 d s 1140 804 m -77
 -77 d s 1121 804 m -78 -77 d s 1101 804 m -77 -77 d s 1082 804 m -77 -77 d s 1063 804 m -77 -77 d s 1044 804 m -78 -77 d s 1024 804 m -77 -77 d s 1005 804 m -77 -77 d s 986 804 m -77 -77 d s 967 804 m -78 -77 d s 947 804 m -77 -77 d s 928 804 m -59
 -59 d s 909 804 m -40 -40 d s 890 804 m -21 -21 d s 870 804 m -1 -2 d s 3 lw 1512 560 m -9 -9 d s 1497 565 m -13 -14 d s 1478 565 m -13 -14 d s 1459 565 m -14 -14 d s 1439 565 m -13 -14 d s 1420 565 m -13 -14 d s 1401 565 m -13 -14 d s 1382 565 m
 -14 -14 d s 1362 565 m -13 -14 d s 1343 565 m -13 -14 d s 1324 565 m -13 -14 d s 1305 565 m -14 -14 d s 1286 565 m -14 -14 d s 1266 565 m -13 -14 d s 1247 565 m -13 -14 d s 1228 565 m -14 -14 d s 1209 565 m -14 -14 d s 3 lw 1830 513 m -5 -5 d s 1811
 513 m -5 -5 d s 1792 513 m -5 -5 d s 1772 513 m -5 -5 d s 1753 513 m -5 -5 d s 1734 513 m -5 -5 d s 1715 513 m -5 -5 d s 1695 513 m -5 -5 d s 1676 513 m -5 -5 d s 1657 513 m -5 -5 d s 1638 513 m -5 -5 d s 1618 513 m -5 -5 d s 1599 513 m -5 -5 d s
 1580 513 m -5 -5 d s 1561 513 m -5 -5 d s 1541 513 m -5 -5 d s 1522 513 m -5 -5 d s 3 lw 2140 496 m -3 -4 d s 2121 496 m -4 -4 d s 2102 496 m -4 -4 d s 2083 496 m -4 -4 d s 2063 496 m -3 -4 d s 2044 496 m -4 -4 d s 2025 496 m -4 -4 d s 2006 496 m -4
 -4 d s 1986 496 m -3 -4 d s 1967 496 m -4 -4 d s 1948 496 m -4 -4 d s 1929 496 m -4 -4 d s 1909 496 m -3 -4 d s 1890 496 m -4 -4 d s 1871 496 m -4 -4 d s 1852 496 m -4 -4 d s black 3 lw 1 1 1 c black 387 906 m 66 Y s 387 995 m 66 Y s /w 24 def /w2
 {w 2 div} def /w3 {w 3 div} def 387 983 m20 709 1094 m 80 Y s 709 1198 m 79 Y s 709 1186 m20 1030 647 m 39 Y s 1030 710 m 38 Y s 1030 698 m20 1351 535 m 20 Y s 1351 579 m 19 Y s 1351 567 m20 1672 490 m 5 Y s 1672 519 m 5 Y s 1672 507 m20 1994 507 m
 s 1994 495 m20 227 484 m 1927 X s 227 502 m -18 Y s 291 493 m -9 Y s 355 493 m -9 Y s 420 493 m -9 Y s 484 493 m -9 Y s 548 502 m -18 Y s 612 493 m -9 Y s 677 493 m -9 Y s 741 493 m -9 Y s 805 493 m -9 Y s 869 502 m -18 Y s 934 493 m -9 Y s 998 493
 m -9 Y s 1062 493 m -9 Y s 1126 493 m -9 Y s 1191 502 m -18 Y s 1255 493 m -9 Y s 1319 493 m -9 Y s 1383 493 m -9 Y s 1448 493 m -9 Y s 1512 502 m -18 Y s 1576 493 m -9 Y s 1640 493 m -9 Y s 1705 493 m -9 Y s 1769 493 m -9 Y s 1833 502 m -18 Y s
 1897 493 m -9 Y s 1962 493 m -9 Y s 2026 493 m -9 Y s 2090 493 m -9 Y s 2154 502 m -18 Y s 227 1520 m 1927 X s 227 1501 m 19 Y s 291 1510 m 10 Y s 355 1510 m 10 Y s 420 1510 m 10 Y s 484 1510 m 10 Y s 548 1501 m 19 Y s 612 1510 m 10 Y s 677 1510 m
 10 Y s 741 1510 m 10 Y s 805 1510 m 10 Y s 869 1501 m 19 Y s 934 1510 m 10 Y s 998 1510 m 10 Y s 1062 1510 m 10 Y s 1126 1510 m 10 Y s 1191 1501 m 19 Y s 1255 1510 m 10 Y s 1319 1510 m 10 Y s 1383 1510 m 10 Y s 1448 1510 m 10 Y s 1512 1501 m 19 Y s
 1576 1510 m 10 Y s 1640 1510 m 10 Y s 1705 1510 m 10 Y s 1769 1510 m 10 Y s 1833 1501 m 19 Y s 1897 1510 m 10 Y s 1962 1510 m 10 Y s 2026 1510 m 10 Y s 2090 1510 m 10 Y s 2154 1501 m 19 Y s 227 484 m 1036 Y s 248 602 m -21 X s 237 626 m -10 X s 237
 650 m -10 X s 237 674 m -10 X s 237 698 m -10 X s 248 722 m -21 X s 237 745 m -10 X s 237 769 m -10 X s 237 793 m -10 X s 237 817 m -10 X s 248 841 m -21 X s 237 864 m -10 X s 237 888 m -10 X s 237 912 m -10 X s 237 936 m -10 X s 248 960 m -21 X s
 237 983 m -10 X s 237 1007 m -10 X s 237 1031 m -10 X s 237 1055 m -10 X s 248 1079 m -21 X s 237 1103 m -10 X s 237 1126 m -10 X s 237 1150 m -10 X s 237 1174 m -10 X s 248 1198 m -21 X s 237 1222 m -10 X s 237 1245 m -10 X s 237 1269 m -10 X s 237
 1293 m -10 X s 248 1317 m -21 X s 237 1341 m -10 X s 237 1364 m -10 X s 237 1388 m -10 X s 237 1412 m -10 X s 248 1436 m -21 X s 248 602 m -21 X s 237 579 m -10 X s 237 555 m -10 X s 237 531 m -10 X s 237 507 m -10 X s 248 1436 m -21 X s 237 1460 m
 -10 X s 237 1484 m -10 X s 237 1507 m -10 X s 2154 484 m 1036 Y s 2133 602 m 21 X s 2144 626 m 10 X s 2144 650 m 10 X s 2144 674 m 10 X s 2144 698 m 10 X s 2133 722 m 21 X s 2144 745 m 10 X s 2144 769 m 10 X s 2144 793 m 10 X s 2144 817 m 10 X s
 2133 841 m 21 X s 2144 864 m 10 X s 2144 888 m 10 X s 2144 912 m 10 X s 2144 936 m 10 X s 2133 960 m 21 X s 2144 983 m 10 X s 2144 1007 m 10 X s 2144 1031 m 10 X s 2144 1055 m 10 X s 2133 1079 m 21 X s 2144 1103 m 10 X s 2144 1126 m 10 X s 2144 1150
 m 10 X s 2144 1174 m 10 X s 2133 1198 m 21 X s 2144 1222 m 10 X s 2144 1245 m 10 X s 2144 1269 m 10 X s 2144 1293 m 10 X s 2133 1317 m 21 X s 2144 1341 m 10 X s 2144 1364 m 10 X s 2144 1388 m 10 X s 2144 1412 m 10 X s 2133 1436 m 21 X s 2133 602 m
 21 X s 2144 579 m 10 X s 2144 555 m 10 X s 2144 531 m 10 X s 2144 507 m 10 X s 2133 1436 m 21 X s 2144 1460 m 10 X s 2144 1484 m 10 X s 2144 1507 m 10 X s
 gsave  2268 1103 0 472 C 1314.45 1423.98 t 0 r /Helvetica findfont 56.3093 sf 0 0 m ( Data) show NC gr  1259 1451 m 10 Y s 1259 1427 m -10 Y s 1259 1439 m20
 gsave  2268 1103 0 472 C 1808.84 1423.98 t 0 r /Helvetica findfont 56.3093 sf 0 0 m (single\255top) show NC gr 
 gsave  2268 1103 0 472 C 1779.24 1423.98 t 0 r /Helvetica-Oblique findfont 56.3093 sf 0 0 m (/) show NC gr 
 gsave  2268 1103 0 472 C 1758.52 1423.98 t 0 r /Helvetica-Oblique findfont 56.3093 sf 0 0 m (t) show NC gr  6 lw 1759 1468 m 20 X s
 gsave  2268 1103 0 472 C 1737.79 1423.98 t 0 r /Helvetica-Oblique findfont 56.3093 sf 0 0 m (t) show NC gr 
 gsave  2268 1103 0 472 C 1720.03 1423.98 t 0 r /Helvetica findfont 56.3093 sf 0 0 m ( ) show NC gr  0.06 0.54 0.06 c 3 lw 1626 1413 m 79 X 52 Y -79 X f 6 lw black
 gsave  2268 1103 0 472 C 1444.71 1349.97 t 0 r /Helvetica findfont 56.3093 sf 0 0 m (+jets) show NC gr 
 gsave  2268 1103 0 472 C 1332.21 1349.97 t 0 r /Helvetica-Oblique findfont 56.3093 sf 0 0 m (W/Z) show NC gr 
 gsave  2268 1103 0 472 C 1314.45 1349.97 t 0 r /Helvetica findfont 56.3093 sf 0 0 m ( ) show NC gr  1 0.653333 0 c 3 lw 1219 1340 m 79 X 51 Y -79 X f black
 gsave  2268 1103 0 472 C 1918.38 1349.97 t 0 r /Helvetica findfont 56.3093 sf 0 0 m (+jets) show NC gr 
 gsave  2268 1103 0 472 C 1737.79 1349.97 t 0 r /Helvetica-Oblique findfont 56.3093 sf 0 0 m (WZ/ZZ) show NC gr 
 gsave  2268 1103 0 472 C 1720.03 1349.97 t 0 r /Helvetica findfont 56.3093 sf 0 0 m ( ) show NC gr  0.413333 1 0 c 3 lw 1626 1340 m 79 X 51 Y -79 X f black
 gsave  2268 1103 0 472 C 1373.66 1275.96 t 0 r /Helvetica-Oblique findfont 56.3093 sf 0 0 m (Z) show NC gr 
 gsave  2268 1103 0 472 C 1352.93 1275.96 t 0 r /Helvetica-Oblique findfont 56.3093 sf 0 0 m (t) show NC gr  6 lw 1353 1320 m 21 X s
 gsave  2268 1103 0 472 C 1332.21 1275.96 t 0 r /Helvetica-Oblique findfont 56.3093 sf 0 0 m (t) show NC gr 
 gsave  2268 1103 0 472 C 1314.45 1275.96 t 0 r /Helvetica findfont 56.3093 sf 0 0 m ( ) show NC gr  0.6 0.2 1 c 3 lw 1219 1266 m 79 X 52 Y -79 X f 6 lw black
 gsave  2268 1103 0 472 C 1779.24 1275.96 t 0 r /Helvetica-Oblique findfont 56.3093 sf 0 0 m (W) show NC gr 
 gsave  2268 1103 0 472 C 1758.52 1275.96 t 0 r /Helvetica-Oblique findfont 56.3093 sf 0 0 m (t) show NC gr  6 lw 1759 1320 m 20 X s
 gsave  2268 1103 0 472 C 1737.79 1275.96 t 0 r /Helvetica-Oblique findfont 56.3093 sf 0 0 m (t) show NC gr 
 gsave  2268 1103 0 472 C 1720.03 1275.96 t 0 r /Helvetica findfont 56.3093 sf 0 0 m ( ) show NC gr  0.54 0.06 0.06 c 3 lw 1626 1266 m 79 X 52 Y -79 X f 6 lw black
 gsave  2268 1103 0 472 C 1332.21 1204.91 t 0 r /Helvetica-Oblique findfont 56.3093 sf 0 0 m (tZq) show NC gr 
 gsave  2268 1103 0 472 C 1314.45 1204.91 t 0 r /Helvetica findfont 56.3093 sf 0 0 m ( ) show NC gr  1 0 1 c 3 lw 1219 1193 m 79 X 51 Y -79 X f black
 gsave  2268 1103 0 472 C 1779.24 1204.91 t 0 r /Helvetica-Oblique findfont 56.3093 sf 0 0 m (H) show NC gr 
 gsave  2268 1103 0 472 C 1758.52 1204.91 t 0 r /Helvetica-Oblique findfont 56.3093 sf 0 0 m (t) show NC gr  6 lw 1759 1249 m 20 X s
 gsave  2268 1103 0 472 C 1737.79 1204.91 t 0 r /Helvetica-Oblique findfont 56.3093 sf 0 0 m (t) show NC gr 
 gsave  2268 1103 0 472 C 1720.03 1204.91 t 0 r /Helvetica findfont 56.3093 sf 0 0 m ( ) show NC gr  0 0 1 c 3 lw 1626 1193 m 79 X 51 Y -79 X f 6 lw black
 gsave  2268 1103 0 472 C 1332.21 1130.9 t 0 r /Helvetica-Oblique findfont 56.3093 sf 0 0 m (tWZ/tWH) show NC gr 
 gsave  2268 1103 0 472 C 1314.45 1130.9 t 0 r /Helvetica findfont 56.3093 sf 0 0 m ( ) show NC gr  0.2 0.8 0.8 c 3 lw 1219 1119 m 79 X 52 Y -79 X f black
 gsave  2268 1103 0 472 C 1737.79 1130.9 t 0 r /Helvetica-Oblique findfont 56.3093 sf 0 0 m (tHq) show NC gr 
 gsave  2268 1103 0 472 C 1720.03 1130.9 t 0 r /Helvetica findfont 56.3093 sf 0 0 m ( ) show NC gr  1 0 0 c 3 lw 1626 1119 m 79 X 52 Y -79 X f black
 gsave  2268 1103 0 472 C 1314.45 1056.89 t 0 r /Helvetica findfont 56.3093 sf 0 0 m ( Other) show NC gr  1 0.84 0 c 3 lw 1219 1046 m 79 X 51 Y -79 X f black
 gsave  2268 1103 0 472 C 1720.03 1056.89 t 0 r /Helvetica findfont 56.3093 sf 0 0 m ( Uncertainty) show NC gr  0.6 0.6 0.6 c 3 lw 1705 1061 m -15 -15 d s 1705 1080 m -34 -34 d s 1703 1097 m -51 -51 d s 1684 1097 m -51 -51 d s 1665 1097 m -39 -39 d s
 1646 1097 m -20 -20 d s 1626 1097 m s 1 0.84 0 c 0.6 0.6 0.6 c black
 gsave  2268 1103 0 472 C 894.061 1329.25 t 0 r /Helvetica findfont 41.4911 sf 0 0 m (\2551) show NC gr 
 gsave  2268 1103 0 472 C 399.663 1299.64 t 0 r /Helvetica findfont 62.2366 sf 0 0 m ( = 13 TeV,  139 fb) show NC gr 
 gsave  2268 1103 0 472 C 370.058 1299.64 t 0 r /Helvetica findfont 62.2366 sf 0 0 m (s) show NC gr  6 lw 349 1335 m 6 -38 d s 3 lw 355 1297 m 6 56 d s 361 1353 m 39 X s
 gsave  2268 1103 0 472 C 337.493 1201.95 t 0 r /Helvetica findfont 62.2366 sf 0 0 m ( 2L\(SS\), VR\(di\255boson\)) show NC gr 
 gsave  2268 1103 0 472 C 337.493 1400.3 t 0 r /Helvetica-BoldOblique findfont 71.1276 sf 0 0 m (ATLAS) show NC gr 
 gsave  2268 1103 0 472 C 633.54 1400.3 t 0 r /Helvetica findfont 71.1276 sf 0 0 m (Internal) show NC gr 
 gr  gr showpage
end
%%EOF
