%!PS-Adobe-2.0 EPSF-2.0
%%BoundingBox:  0 0 567 394
%%Title: /lhome/ific/c/cardillo/tHq/Plots/Plots-30-05-22-PLIV-SF/2LSS_MM/BDTttbar_Pre.eps: BDTttbar_Pre
%%Creator: ROOT Version 6.20/06
%%CreationDate: Mon May 30 19:25:22 2022
%%DocumentNeededResources: ProcSet (FontSetInit)
%%EndComments
%%BeginProlog
80 dict begin
/s {stroke} def /l {lineto} def /m {moveto} def /t {translate} def
/r {rotate} def /rl {roll}  def /R {repeat} def
/d {rlineto} def /rm {rmoveto} def /gr {grestore} def /f {eofill} def
/c {setrgbcolor} def /black {0 setgray} def /sd {setdash} def
/cl {closepath} def /sf {scalefont setfont} def /lw {setlinewidth} def
/box {m dup 0 exch d exch 0 d 0 exch neg d cl} def
/NC{systemdict begin initclip end}def/C{NC box clip newpath}def
/bl {box s} def /bf {gsave box gsave f grestore 1 lw [] 0 sd s grestore} def /Y { 0 exch d} def /X { 0 d} def 
/K {{pop pop 0 moveto} exch kshow} bind def
/ita {/ang 15 def gsave [1 0 ang dup sin exch cos div 1 0 0] concat} def 
/mp {newpath /y exch def /x exch def} def
/side {[w .77 mul w .23 mul] .385 w mul sd w 0 l currentpoint t -144 r} def
/mr {mp x y w2 0 360 arc} def /m24 {mr s} def /m20 {mr f} def
/mb {mp x y w2 add m w2 neg 0 d 0 w neg d w 0 d 0 w d cl} def
/mt {mp x y w2 add m w2 neg w neg d w 0 d cl} def
/w4 {w 4 div} def
/w6 {w 6 div} def
/w8 {w 8 div} def
/m21 {mb f} def /m25 {mb s} def /m22 {mt f} def /m26{mt s} def
/m23 {mp x y w2 sub m w2 w d w neg 0 d cl f} def
/m27 {mp x y w2 add m w3 neg w2 neg d w3 w2 neg d w3 w2 d cl s} def
/m28 {mp x w2 sub y w2 sub w3 add m w3 0 d  0 w3 neg d w3 0 d 0 w3 d w3 0 d  0 w3 d w3 neg 0 d 0 w3 d w3 neg 0 d 0 w3 neg d w3 neg 0 d cl s } def
/m29 {mp gsave x w2 sub y w2 add w3 sub m currentpoint t 4 {side} repeat cl fill gr} def
/m30 {mp gsave x w2 sub y w2 add w3 sub m currentpoint t 4 {side} repeat cl s gr} def
/m31 {mp x y w2 sub m 0 w d x w2 sub y m w 0 d x w2 sub y w2 add m w w neg d x w2 sub y w2 sub m w w d s} def
/m32 {mp x y w2 sub m w2 w d w neg 0 d cl s} def
/m33 {mp x y w2 add m w3 neg w2 neg d w3 w2 neg d w3 w2 d cl f} def
/m34 {mp x w2 sub y w2 sub w3 add m w3 0 d  0 w3 neg d w3 0 d 0 w3 d w3 0 d  0 w3 d w3 neg 0 d 0 w3 d w3 neg 0 d 0 w3 neg d w3 neg 0 d cl f } def
/m35 {mp x y w2 add m w2 neg w2 neg d w2 w2 neg d w2 w2 d w2 neg w2 d x y w2 sub m 0 w d x w2 sub y m w 0 d s} def
/m36 {mb x w2 sub y w2 add m w w neg d x w2 sub y w2 sub m w w d s} def
/m37 {mp x y m w4 neg w2 d w4 neg w2 neg d w2 0 d  w4 neg w2 neg d w2 0 d w4 neg w2 d w2 0 d w4 neg w2 d w4 neg w2 neg d cl s} def
/m38 {mp x w4 sub y w2 add m w4 neg w4 neg d 0 w2 neg d w4 w4 neg d w2 0 d w4 w4 d 0 w2 d w4 neg w4 d w2 neg 0 d x y w2 sub m 0 w d x w2 sub y m w 0 d cl s} def
/m39 {mp x y m w4 neg w2 d w4 neg w2 neg d w2 0 d  w4 neg w2 neg d w2 0 d w4 neg w2 d w2 0 d w4 neg w2 d w4 neg w2 neg d cl f} def
/m40 {mp x y m w4 w2 d w4 w4 neg d w2 neg w4 neg d w2 w4 neg d w4 neg w4 neg d w4 neg w2 d w4 neg w2 neg d w4 neg w4 d w2 w4 d w2 neg w4 d w4 w4 d w4 w2 neg d cl s} def
/m41 {mp x y m w4 w2 d w4 w4 neg d w2 neg w4 neg d w2 w4 neg d w4 neg w4 neg d w4 neg w2 d w4 neg w2 neg d w4 neg w4 d w2 w4 d w2 neg w4 d w4 w4 d w4 w2 neg d cl f} def
/m42 {mp x y w2 add m w8 neg w2 -3 4 div mul d w2 -3 4 div mul w8 neg d w2 3 4 div mul w8 neg d w8 w2 -3 4 div mul d w8 w2 3 4 div mul d w2 3 4 div mul w8 d w2 -3 4 div mul w8 d w8 neg w2 3 4 div mul d cl s} def
/m43 {mp x y w2 add m w8 neg w2 -3 4 div mul d w2 -3 4 div mul w8 neg d w2 3 4 div mul w8 neg d w8 w2 -3 4 div mul d w8 w2 3 4 div mul d w2 3 4 div mul w8 d w2 -3 4 div mul w8 d w8 neg w2 3 4 div mul d cl f} def
/m44 {mp x y m w6 neg w2 d w2 2 3 div mul 0 d w6 neg w2 neg d w2 w6 d 0 w2 -2 3 div mul d w2 neg w6 d w6 w2 neg d w2 -2 3 div mul 0 d w6 w2 d w2 neg w6 neg d 0 w2 2 3 div mul d w2 w6 neg d cl s} def
/m45 {mp x y m w6 neg w2 d w2 2 3 div mul 0 d w6 neg w2 neg d w2 w6 d 0 w2 -2 3 div mul d w2 neg w6 d w6 w2 neg d w2 -2 3 div mul 0 d w6 w2 d w2 neg w6 neg d 0 w2 2 3 div mul d w2 w6 neg d cl f} def
/m46 {mp x y w4 add m w4 neg w4 d w4 neg w4 neg d  w4 w4 neg d w4 neg w4 neg d w4 w4 neg d w4 w4 d w4 w4 neg d w4 w4 d w4 neg w4 d w4 w4 d w4 neg w4 d w4 neg w4 neg d cl s} def
/m47 {mp x y w4 add m w4 neg w4 d w4 neg w4 neg d w4 w4 neg d w4 neg w4 neg d  w4 w4 neg d w4 w4 d w4 w4 neg d w4 w4 d w4 neg w4 d w4 w4 d w4 neg w4 d w4 neg w4 neg d cl f} def
/m48 {mp x y w4 add m w4 neg w4 d w4 neg w4 neg d w4 w4 neg d  w4 neg w4 neg d w4 w4 neg d w4 w4 d w4 w4 neg d w4 w4 d w4 neg w4 d w4 w4 d w4 neg w4 d w4 neg w4 neg d  w4 w4 neg d w4 neg w4 neg d w4 neg w4 d w4 w4 d cl f} def
/m49 {mp x w2 sub w3 add y w2 sub w3 add m  0 w3 neg d w3 0 d 0 w3 d w3 0 d 0 w3 d w3 neg 0 d 0 w3 d w3 neg 0 d 0 w3 neg d w3 neg 0 d 0 w3 neg d w3 0 d 0 w3 d w3 0 d 0 w3 neg d w3 neg 0 d cl f } def
/m2 {mp x y w2 sub m 0 w d x w2 sub y m w 0 d s} def
/m5 {mp x w2 sub y w2 sub m w w d x w2 sub y w2 add m w w neg d s} def
%%IncludeResource: ProcSet (FontSetInit)
%%IncludeResource: font Times-Roman
%%IncludeResource: font Times-Italic
%%IncludeResource: font Times-Bold
%%IncludeResource: font Times-BoldItalic
%%IncludeResource: font Helvetica
%%IncludeResource: font Helvetica-Oblique
%%IncludeResource: font Helvetica-Bold
%%IncludeResource: font Helvetica-BoldOblique
%%IncludeResource: font Courier
%%IncludeResource: font Courier-Oblique
%%IncludeResource: font Courier-Bold
%%IncludeResource: font Courier-BoldOblique
%%IncludeResource: font Symbol
%%IncludeResource: font ZapfDingbats
/reEncode {exch findfont dup length dict begin {1 index /FID eq  {pop pop} {def} ifelse } forall /Encoding exch def currentdict end dup /FontName get exch definefont pop } def [/Times-Bold /Times-Italic /Times-BoldItalic /Helvetica /Helvetica-Oblique
 /Helvetica-Bold /Helvetica-BoldOblique /Courier /Courier-Oblique /Courier-Bold /Courier-BoldOblique /Times-Roman /AvantGarde-Book /AvantGarde-BookOblique /AvantGarde-Demi /AvantGarde-DemiOblique /Bookman-Demi /Bookman-DemiItalic /Bookman-Light
 /Bookman-LightItalic /Helvetica-Narrow /Helvetica-Narrow-Bold /Helvetica-Narrow-BoldOblique /Helvetica-Narrow-Oblique /NewCenturySchlbk-Roman /NewCenturySchlbk-Bold /NewCenturySchlbk-BoldItalic /NewCenturySchlbk-Italic /Palatino-Bold
 /Palatino-BoldItalic /Palatino-Italic /Palatino-Roman ] {ISOLatin1Encoding reEncode } forall
%%EndProlog
%%BeginSetup
%%EndSetup
newpath  gsave  .25 .25 scale  gsave  0 0 t black[  ] 0 sd 3 lw 1 1 1 c 2268 1575 0 0 bf black 1 1 1 c 2268 472 0 0 bf black 1 1 1 c 1927 274 227 189 bf black 1927 274 227 189 bl 227 189 m 1927 X s 227 201 m -12 Y s 265 195 m -6 Y s 304 195 m -6 Y s
 342 195 m -6 Y s 381 195 m -6 Y s 420 201 m -12 Y s 458 195 m -6 Y s 497 195 m -6 Y s 535 195 m -6 Y s 574 195 m -6 Y s 612 201 m -12 Y s 651 195 m -6 Y s 689 195 m -6 Y s 728 195 m -6 Y s 766 195 m -6 Y s 805 201 m -12 Y s 844 195 m -6 Y s 882 195
 m -6 Y s 921 195 m -6 Y s 959 195 m -6 Y s 998 201 m -12 Y s 1036 195 m -6 Y s 1075 195 m -6 Y s 1113 195 m -6 Y s 1152 195 m -6 Y s 1191 201 m -12 Y s 1229 195 m -6 Y s 1268 195 m -6 Y s 1306 195 m -6 Y s 1345 195 m -6 Y s 1383 201 m -12 Y s 1422
 195 m -6 Y s 1460 195 m -6 Y s 1499 195 m -6 Y s 1538 195 m -6 Y s 1576 201 m -12 Y s 1615 195 m -6 Y s 1653 195 m -6 Y s 1692 195 m -6 Y s 1730 195 m -6 Y s 1769 201 m -12 Y s 1807 195 m -6 Y s 1846 195 m -6 Y s 1884 195 m -6 Y s 1923 195 m -6 Y s
 1962 201 m -12 Y s 2000 195 m -6 Y s 2039 195 m -6 Y s 2077 195 m -6 Y s 2116 195 m -6 Y s 2154 201 m -12 Y s
 gsave  2268 472 0 0 C 210.193 127.3 t 0 r /Helvetica findfont 53.4895 sf 0 0 m (0) show NC gr 
 gsave  2268 472 0 0 C 384.861 127.3 t 0 r /Helvetica findfont 53.4895 sf 0 0 m (0.1) show NC gr 
 gsave  2268 472 0 0 C 571.37 127.3 t 0 r /Helvetica findfont 53.4895 sf 0 0 m (0.2) show NC gr 
 gsave  2268 472 0 0 C 763.8 127.3 t 0 r /Helvetica findfont 53.4895 sf 0 0 m (0.3) show NC gr 
 gsave  2268 472 0 0 C 959.191 127.3 t 0 r /Helvetica findfont 53.4895 sf 0 0 m (0.4) show NC gr 
 gsave  2268 472 0 0 C 1151.62 127.3 t 0 r /Helvetica findfont 53.4895 sf 0 0 m (0.5) show NC gr 
 gsave  2268 472 0 0 C 1344.05 127.3 t 0 r /Helvetica findfont 53.4895 sf 0 0 m (0.6) show NC gr 
 gsave  2268 472 0 0 C 1536.48 127.3 t 0 r /Helvetica findfont 53.4895 sf 0 0 m (0.7) show NC gr 
 gsave  2268 472 0 0 C 1728.91 127.3 t 0 r /Helvetica findfont 53.4895 sf 0 0 m (0.8) show NC gr 
 gsave  2268 472 0 0 C 1921.34 127.3 t 0 r /Helvetica findfont 53.4895 sf 0 0 m (0.9) show NC gr 
 gsave  2268 472 0 0 C 2140.42 127.3 t 0 r /Helvetica findfont 53.4895 sf 0 0 m (1) show NC gr 
 gsave  2268 472 0 0 C 2137.46 38.4861 t 0 r /Helvetica findfont 56.4611 sf 0 0 m (\)) show NC gr 
 gsave  2268 472 0 0 C 2116.73 38.4861 t 0 r /Helvetica-Oblique findfont 56.4611 sf 0 0 m (t) show NC gr  6 lw 2117 83 m 20 X s
 gsave  2268 472 0 0 C 2096.01 38.4861 t 0 r /Helvetica-Oblique findfont 56.4611 sf 0 0 m (t) show NC gr 
 gsave  2268 472 0 0 C 1965.75 38.4861 t 0 r /Helvetica findfont 56.4611 sf 0 0 m (BDT\() show NC gr  3 lw 227 463 m 1927 X s 227 451 m 12 Y s 265 457 m 6 Y s 304 457 m 6 Y s 342 457 m 6 Y s 381 457 m 6 Y s 420 451 m 12 Y s 458 457 m 6 Y s 497 457 m
 6 Y s 535 457 m 6 Y s 574 457 m 6 Y s 612 451 m 12 Y s 651 457 m 6 Y s 689 457 m 6 Y s 728 457 m 6 Y s 766 457 m 6 Y s 805 451 m 12 Y s 844 457 m 6 Y s 882 457 m 6 Y s 921 457 m 6 Y s 959 457 m 6 Y s 998 451 m 12 Y s 1036 457 m 6 Y s 1075 457 m 6 Y
 s 1113 457 m 6 Y s 1152 457 m 6 Y s 1191 451 m 12 Y s 1229 457 m 6 Y s 1268 457 m 6 Y s 1306 457 m 6 Y s 1345 457 m 6 Y s 1383 451 m 12 Y s 1422 457 m 6 Y s 1460 457 m 6 Y s 1499 457 m 6 Y s 1538 457 m 6 Y s 1576 451 m 12 Y s 1615 457 m 6 Y s 1653
 457 m 6 Y s 1692 457 m 6 Y s 1730 457 m 6 Y s 1769 451 m 12 Y s 1807 457 m 6 Y s 1846 457 m 6 Y s 1884 457 m 6 Y s 1923 457 m 6 Y s 1962 451 m 12 Y s 2000 457 m 6 Y s 2039 457 m 6 Y s 2077 457 m 6 Y s 2116 457 m 6 Y s 2154 451 m 12 Y s 227 189 m 274
 Y s 240 240 m -13 X s 240 326 m -13 X s 240 412 m -13 X s 240 240 m -13 X s 240 412 m -13 X s
 gsave  2268 472 0 0 C 118.419 222.035 t 0 r /Helvetica findfont 53.4895 sf 0 0 m (0.5) show NC gr 
 gsave  2268 472 0 0 C 171.707 307.888 t 0 r /Helvetica findfont 53.4895 sf 0 0 m (1) show NC gr 
 gsave  2268 472 0 0 C 118.419 393.742 t 0 r /Helvetica findfont 53.4895 sf 0 0 m (1.5) show NC gr 
 gsave  2268 472 0 0 C 71.0512 230.916 t 90 r /Helvetica findfont 53.4895 sf 0 0 m (Data / SM) show NC gr  2154 189 m 274 Y s 2141 240 m 13 X s 2141 326 m 13 X s 2141 412 m 13 X s 2141 240 m 13 X s 2141 412 m 13 X s 227 189 m 1927 X s 227 463 m 1927
 X s 227 189 m 274 Y s[ 4 8] 0 sd 2154 240 m -1927 X s 2154 326 m -1927 X s 2154 412 m -1927 X s 2154 240 m -1927 X s 2154 412 m -1927 X s[  ] 0 sd 2154 189 m 274 Y s 1 1 0.6 c 193 0 227 326 bf 192 0 420 326 bf 193 0 612 326 bf 193 0 805 326 bf 193 0
 998 326 bf 192 0 1191 326 bf 193 0 1383 326 bf 193 0 1576 326 bf 193 0 1769 326 bf 192 0 1962 326 bf black 0.6 0.6 0.6 c 420 325 m -13 -13 d s 416 341 m -29 -29 d s 397 341 m -29 -29 d s 378 341 m -29 -29 d s 358 341 m -28 -29 d s 339 341 m -29 -29
 d s 320 341 m -29 -29 d s 301 341 m -29 -29 d s 282 341 m -29 -29 d s 262 341 m -29 -29 d s 243 341 m -16 -17 d s 612 325 m -3 -3 d s 599 330 m -9 -8 d s 579 330 m -8 -8 d s 560 330 m -9 -8 d s 541 330 m -9 -8 d s 522 330 m -9 -8 d s 502 330 m -8 -8
 d s 483 330 m -9 -8 d s 464 330 m -9 -8 d s 445 330 m -9 -8 d s 425 330 m -5 -5 d s 805 325 m -1 -1 d s 788 328 m -3 -4 d s 769 328 m -3 -4 d s 750 328 m -3 -4 d s 730 328 m -3 -4 d s 711 328 m -3 -4 d s 692 328 m -3 -4 d s 673 328 m -3 -4 d s 653
 328 m -3 -4 d s 634 328 m -3 -4 d s 615 328 m -3 -3 d s 998 326 m -1 -2 d s 981 328 m -3 -4 d s 961 328 m -3 -4 d s 942 328 m -3 -4 d s 923 328 m -3 -4 d s 904 328 m -3 -4 d s 884 328 m -3 -4 d s 865 328 m -3 -4 d s 846 328 m -3 -4 d s 827 328 m -3
 -4 d s 807 328 m -2 -3 d s 1191 326 m -2 -2 d s 1174 328 m -5 -4 d s 1154 328 m -4 -4 d s 1135 328 m -4 -4 d s 1116 328 m -4 -4 d s 1097 328 m -5 -4 d s 1077 328 m -4 -4 d s 1058 328 m -4 -4 d s 1039 328 m -4 -4 d s 1020 328 m -5 -4 d s 1000 328 m
 -2 -2 d s 1383 326 m -2 -2 d s 1366 328 m -4 -4 d s 1347 328 m -4 -4 d s 1327 328 m -3 -4 d s 1308 328 m -4 -4 d s 1289 328 m -4 -4 d s 1270 328 m -4 -4 d s 1250 328 m -3 -4 d s 1231 328 m -4 -4 d s 1212 328 m -4 -4 d s 1193 328 m -2 -2 d s 1576 327
 m -4 -4 d s 1559 329 m -6 -6 d s 1540 329 m -6 -6 d s 1521 329 m -6 -6 d s 1502 329 m -7 -6 d s 1483 329 m -7 -6 d s 1463 329 m -6 -6 d s 1444 329 m -6 -6 d s 1425 329 m -7 -6 d s 1406 329 m -7 -6 d s 1386 329 m -3 -3 d s 1769 327 m -7 -7 d s 1754
 332 m -11 -12 d s 1735 332 m -11 -12 d s 1716 332 m -11 -12 d s 1697 332 m -12 -12 d s 1677 332 m -11 -12 d s 1658 332 m -11 -12 d s 1639 332 m -11 -12 d s 1620 332 m -12 -12 d s 1600 332 m -11 -12 d s 1581 332 m -5 -5 d s 1962 327 m -16 -15 d s
 1956 340 m -29 -28 d s 1936 340 m -28 -28 d s 1917 340 m -29 -28 d s 1898 340 m -29 -28 d s 1879 340 m -29 -28 d s 1859 340 m -28 -28 d s 1840 340 m -29 -28 d s 1821 340 m -29 -28 d s 1802 340 m -29 -28 d s 1782 340 m -13 -13 d s 2153 326 m cl s
 2134 326 m cl s 2114 326 m cl s 2095 326 m cl s 2076 326 m cl s 2057 326 m cl s 2037 326 m cl s 2018 326 m cl s 1999 326 m cl s 1980 326 m cl s black 1 1 1 c black 323 333 m 1 Y s 323 358 m 2 Y s /w 26 def /w2 {w 2 div} def /w3 {w 3 div} def 323 346
 m20 516 335 m20 709 337 m20 901 331 m20 1094 307 m20 1287 305 m20 1480 304 m20 1672 307 m 5 Y s 1672 336 m 5 Y s 1672 324 m20 1865 267 m 25 Y s 1865 316 m 25 Y s 1865 304 m20 227 326 m 1927 X s 227 189 m 1927 X s 227 201 m -12 Y s 265 195 m -6 Y s
 304 195 m -6 Y s 342 195 m -6 Y s 381 195 m -6 Y s 420 201 m -12 Y s 458 195 m -6 Y s 497 195 m -6 Y s 535 195 m -6 Y s 574 195 m -6 Y s 612 201 m -12 Y s 651 195 m -6 Y s 689 195 m -6 Y s 728 195 m -6 Y s 766 195 m -6 Y s 805 201 m -12 Y s 844 195
 m -6 Y s 882 195 m -6 Y s 921 195 m -6 Y s 959 195 m -6 Y s 998 201 m -12 Y s 1036 195 m -6 Y s 1075 195 m -6 Y s 1113 195 m -6 Y s 1152 195 m -6 Y s 1191 201 m -12 Y s 1229 195 m -6 Y s 1268 195 m -6 Y s 1306 195 m -6 Y s 1345 195 m -6 Y s 1383 201
 m -12 Y s 1422 195 m -6 Y s 1460 195 m -6 Y s 1499 195 m -6 Y s 1538 195 m -6 Y s 1576 201 m -12 Y s 1615 195 m -6 Y s 1653 195 m -6 Y s 1692 195 m -6 Y s 1730 195 m -6 Y s 1769 201 m -12 Y s 1807 195 m -6 Y s 1846 195 m -6 Y s 1884 195 m -6 Y s
 1923 195 m -6 Y s 1962 201 m -12 Y s 2000 195 m -6 Y s 2039 195 m -6 Y s 2077 195 m -6 Y s 2116 195 m -6 Y s 2154 201 m -12 Y s 227 463 m 1927 X s 227 451 m 12 Y s 265 457 m 6 Y s 304 457 m 6 Y s 342 457 m 6 Y s 381 457 m 6 Y s 420 451 m 12 Y s 458
 457 m 6 Y s 497 457 m 6 Y s 535 457 m 6 Y s 574 457 m 6 Y s 612 451 m 12 Y s 651 457 m 6 Y s 689 457 m 6 Y s 728 457 m 6 Y s 766 457 m 6 Y s 805 451 m 12 Y s 844 457 m 6 Y s 882 457 m 6 Y s 921 457 m 6 Y s 959 457 m 6 Y s 998 451 m 12 Y s 1036 457 m
 6 Y s 1075 457 m 6 Y s 1113 457 m 6 Y s 1152 457 m 6 Y s 1191 451 m 12 Y s 1229 457 m 6 Y s 1268 457 m 6 Y s 1306 457 m 6 Y s 1345 457 m 6 Y s 1383 451 m 12 Y s 1422 457 m 6 Y s 1460 457 m 6 Y s 1499 457 m 6 Y s 1538 457 m 6 Y s 1576 451 m 12 Y s
 1615 457 m 6 Y s 1653 457 m 6 Y s 1692 457 m 6 Y s 1730 457 m 6 Y s 1769 451 m 12 Y s 1807 457 m 6 Y s 1846 457 m 6 Y s 1884 457 m 6 Y s 1923 457 m 6 Y s 1962 451 m 12 Y s 2000 457 m 6 Y s 2039 457 m 6 Y s 2077 457 m 6 Y s 2116 457 m 6 Y s 2154 451
 m 12 Y s 227 189 m 274 Y s 240 240 m -13 X s 240 326 m -13 X s 240 412 m -13 X s 240 240 m -13 X s 240 412 m -13 X s 2154 189 m 274 Y s 2141 240 m 13 X s 2141 326 m 13 X s 2141 412 m 13 X s 2141 240 m 13 X s 2141 412 m 13 X s 1 1 1 c 2268 1103 0 472
 bf black 1 1 1 c 1927 1036 227 484 bf black 1927 1036 227 484 bl 1 1 1 c black 3 lw 227 484 m 1927 X s 227 502 m -18 Y s 265 493 m -9 Y s 304 493 m -9 Y s 342 493 m -9 Y s 381 493 m -9 Y s 420 502 m -18 Y s 458 493 m -9 Y s 497 493 m -9 Y s 535 493
 m -9 Y s 574 493 m -9 Y s 612 502 m -18 Y s 651 493 m -9 Y s 689 493 m -9 Y s 728 493 m -9 Y s 766 493 m -9 Y s 805 502 m -18 Y s 844 493 m -9 Y s 882 493 m -9 Y s 921 493 m -9 Y s 959 493 m -9 Y s 998 502 m -18 Y s 1036 493 m -9 Y s 1075 493 m -9 Y
 s 1113 493 m -9 Y s 1152 493 m -9 Y s 1191 502 m -18 Y s 1229 493 m -9 Y s 1268 493 m -9 Y s 1306 493 m -9 Y s 1345 493 m -9 Y s 1383 502 m -18 Y s 1422 493 m -9 Y s 1460 493 m -9 Y s 1499 493 m -9 Y s 1538 493 m -9 Y s 1576 502 m -18 Y s 1615 493 m
 -9 Y s 1653 493 m -9 Y s 1692 493 m -9 Y s 1730 493 m -9 Y s 1769 502 m -18 Y s 1807 493 m -9 Y s 1846 493 m -9 Y s 1884 493 m -9 Y s 1923 493 m -9 Y s 1962 502 m -18 Y s 2000 493 m -9 Y s 2039 493 m -9 Y s 2077 493 m -9 Y s 2116 493 m -9 Y s 2154
 502 m -18 Y s
 gsave  2268 1103 0 472 C 2143.38 399.663 t 0 r /Helvetica findfont 29.6365 sf 0 0 m (\)) show NC gr 
 gsave  2268 1103 0 472 C 2131.54 399.663 t 0 r /Helvetica-Oblique findfont 29.6365 sf 0 0 m (t) show NC gr  6 lw
 gsave  2268 1103 0 472 C 2119.69 399.663 t 0 r /Helvetica-Oblique findfont 29.6365 sf 0 0 m (t) show NC gr 
 gsave  2268 1103 0 472 C 2051.6 399.663 t 0 r /Helvetica findfont 29.6365 sf 0 0 m (BDT\() show NC gr  3 lw 227 1520 m 1927 X s 227 1501 m 19 Y s 265 1510 m 10 Y s 304 1510 m 10 Y s 342 1510 m 10 Y s 381 1510 m 10 Y s 420 1501 m 19 Y s 458 1510 m 10
 Y s 497 1510 m 10 Y s 535 1510 m 10 Y s 574 1510 m 10 Y s 612 1501 m 19 Y s 651 1510 m 10 Y s 689 1510 m 10 Y s 728 1510 m 10 Y s 766 1510 m 10 Y s 805 1501 m 19 Y s 844 1510 m 10 Y s 882 1510 m 10 Y s 921 1510 m 10 Y s 959 1510 m 10 Y s 998 1501 m
 19 Y s 1036 1510 m 10 Y s 1075 1510 m 10 Y s 1113 1510 m 10 Y s 1152 1510 m 10 Y s 1191 1501 m 19 Y s 1229 1510 m 10 Y s 1268 1510 m 10 Y s 1306 1510 m 10 Y s 1345 1510 m 10 Y s 1383 1501 m 19 Y s 1422 1510 m 10 Y s 1460 1510 m 10 Y s 1499 1510 m 10
 Y s 1538 1510 m 10 Y s 1576 1501 m 19 Y s 1615 1510 m 10 Y s 1653 1510 m 10 Y s 1692 1510 m 10 Y s 1730 1510 m 10 Y s 1769 1501 m 19 Y s 1807 1510 m 10 Y s 1846 1510 m 10 Y s 1884 1510 m 10 Y s 1923 1510 m 10 Y s 1962 1501 m 19 Y s 2000 1510 m 10 Y
 s 2039 1510 m 10 Y s 2077 1510 m 10 Y s 2116 1510 m 10 Y s 2154 1501 m 19 Y s 227 484 m 1036 Y s 248 610 m -21 X s 237 641 m -10 X s 237 673 m -10 X s 237 705 m -10 X s 248 736 m -21 X s 237 768 m -10 X s 237 799 m -10 X s 237 831 m -10 X s 248 862
 m -21 X s 237 894 m -10 X s 237 926 m -10 X s 237 957 m -10 X s 248 989 m -21 X s 237 1020 m -10 X s 237 1052 m -10 X s 237 1083 m -10 X s 248 1115 m -21 X s 237 1147 m -10 X s 237 1178 m -10 X s 237 1210 m -10 X s 248 1241 m -21 X s 237 1273 m -10
 X s 237 1305 m -10 X s 237 1336 m -10 X s 248 1368 m -21 X s 237 1399 m -10 X s 237 1431 m -10 X s 237 1462 m -10 X s 248 1494 m -21 X s 248 610 m -21 X s 237 578 m -10 X s 237 547 m -10 X s 237 515 m -10 X s 248 1494 m -21 X s
 gsave  2268 1103 0 472 C 118.419 589.133 t 0 r /Helvetica findfont 50.382 sf 0 0 m (200) show NC gr 
 gsave  2268 1103 0 472 C 118.419 716.433 t 0 r /Helvetica findfont 50.382 sf 0 0 m (400) show NC gr 
 gsave  2268 1103 0 472 C 118.419 843.733 t 0 r /Helvetica findfont 50.382 sf 0 0 m (600) show NC gr 
 gsave  2268 1103 0 472 C 118.419 968.072 t 0 r /Helvetica findfont 50.382 sf 0 0 m (800) show NC gr 
 gsave  2268 1103 0 472 C 91.7744 1095.37 t 0 r /Helvetica findfont 50.382 sf 0 0 m (1000) show NC gr 
 gsave  2268 1103 0 472 C 91.7744 1222.67 t 0 r /Helvetica findfont 50.382 sf 0 0 m (1200) show NC gr 
 gsave  2268 1103 0 472 C 91.7744 1347.01 t 0 r /Helvetica findfont 50.382 sf 0 0 m (1400) show NC gr 
 gsave  2268 1103 0 472 C 91.7744 1474.31 t 0 r /Helvetica findfont 50.382 sf 0 0 m (1600) show NC gr 
 gsave  2268 1103 0 472 C 62.1698 1367.74 t 90 r /Helvetica findfont 50.382 sf 0 0 m (Events) show NC gr  2154 484 m 1036 Y s 2133 610 m 21 X s 2144 641 m 10 X s 2144 673 m 10 X s 2144 705 m 10 X s 2133 736 m 21 X s 2144 768 m 10 X s 2144 799 m 10 X
 s 2144 831 m 10 X s 2133 862 m 21 X s 2144 894 m 10 X s 2144 926 m 10 X s 2144 957 m 10 X s 2133 989 m 21 X s 2144 1020 m 10 X s 2144 1052 m 10 X s 2144 1083 m 10 X s 2133 1115 m 21 X s 2144 1147 m 10 X s 2144 1178 m 10 X s 2144 1210 m 10 X s 2133
 1241 m 21 X s 2144 1273 m 10 X s 2144 1305 m 10 X s 2144 1336 m 10 X s 2133 1368 m 21 X s 2144 1399 m 10 X s 2144 1431 m 10 X s 2144 1462 m 10 X s 2133 1494 m 21 X s 2133 610 m 21 X s 2144 578 m 10 X s 2144 547 m 10 X s 2144 515 m 10 X s 2133 1494 m
 21 X s 0.4 0.6 0.4 c black 3 lw 0.4 0.6 0.4 c 227 484 m 113 Y 193 X 155 Y 192 X 117 Y 193 X 29 Y 193 X -26 Y 193 X -119 Y 192 X -122 Y 193 X -83 Y 193 X -53 Y 193 X -11 Y 192 X f 0.06 0.54 0.06 c 0.999 0.999 0.999 c black 3 lw 0.999 0.999 0.999 c
 227 484 m 108 Y 193 X 120 Y 192 X 49 Y 193 X -13 Y 193 X -36 Y 193 X -70 Y 192 X -52 Y 193 X -47 Y 193 X -48 Y 193 X -11 Y 192 X f 0.06 0.54 0.06 c 0.999 0.999 0.999 c 0.06 0.54 0.06 c 1 1 1 c black 0.06 0.54 0.06 c black 3 lw 0.06 0.54 0.06 c 227
 484 m 108 Y 193 X 120 Y 192 X 49 Y 193 X -13 Y 193 X -36 Y 193 X -70 Y 192 X -52 Y 193 X -47 Y 193 X -48 Y 193 X -11 Y 192 X f 1 0.653333 0 c 0.999 0.999 0.999 c black 3 lw 0.999 0.999 0.999 c 227 484 m 107 Y 193 X 113 Y 192 X 35 Y 193 X -41 Y 193 X
 -63 Y 193 X -75 Y 192 X -47 Y 193 X -23 Y 193 X -6 Y 385 X f 1 0.653333 0 c 0.999 0.999 0.999 c 1 0.653333 0 c 1 1 1 c black 1 0.653333 0 c black 3 lw 1 0.653333 0 c 227 484 m 107 Y 193 X 113 Y 192 X 35 Y 193 X -41 Y 193 X -63 Y 193 X -75 Y 192 X
 -47 Y 193 X -23 Y 193 X -6 Y 385 X f 0.413333 1 0 c 0.999 0.999 0.999 c black 3 lw 0.999 0.999 0.999 c 227 484 m 9 Y 193 X 153 Y 192 X 81 Y 193 X -37 Y 193 X -59 Y 193 X -71 Y 192 X -49 Y 193 X -21 Y 193 X -6 Y 385 X f 0.413333 1 0 c 0.999 0.999
 0.999 c 0.413333 1 0 c 1 1 1 c black 0.413333 1 0 c black 3 lw 0.413333 1 0 c 227 484 m 9 Y 193 X 153 Y 192 X 81 Y 193 X -37 Y 193 X -59 Y 193 X -71 Y 192 X -49 Y 193 X -21 Y 193 X -6 Y 385 X f 0.6 0.2 1 c 0.999 0.999 0.999 c black 3 lw 0.999 0.999
 0.999 c 227 484 m 6 Y 193 X 117 Y 192 X 69 Y 193 X -23 Y 193 X -48 Y 193 X -58 Y 192 X -40 Y 193 X -18 Y 193 X -5 Y 385 X f 0.6 0.2 1 c 0.999 0.999 0.999 c 0.6 0.2 1 c 1 1 1 c black 0.6 0.2 1 c black 3 lw 0.6 0.2 1 c 227 484 m 6 Y 193 X 117 Y 192 X
 69 Y 193 X -23 Y 193 X -48 Y 193 X -58 Y 192 X -40 Y 193 X -18 Y 193 X -5 Y 385 X f 0.54 0.06 0.06 c 0.999 0.999 0.999 c black 3 lw 0.999 0.999 0.999 c 227 484 m 5 Y 193 X 102 Y 192 X 58 Y 193 X -21 Y 193 X -41 Y 193 X -50 Y 192 X -34 Y 193 X -14 Y
 193 X -5 Y 385 X f 0.54 0.06 0.06 c 0.999 0.999 0.999 c 0.54 0.06 0.06 c 1 1 1 c black 0.54 0.06 0.06 c black 3 lw 0.54 0.06 0.06 c 227 484 m 5 Y 193 X 102 Y 192 X 58 Y 193 X -21 Y 193 X -41 Y 193 X -50 Y 192 X -34 Y 193 X -14 Y 193 X -5 Y 385 X f 1
 0 1 c 0.999 0.999 0.999 c black 3 lw 0.999 0.999 0.999 c 227 484 m 1 Y 193 X 23 Y 192 X 18 Y 193 X -2 Y 193 X -9 Y 193 X -17 Y 192 X -10 Y 193 X -3 Y 193 X -1 Y 385 X f 1 0 1 c 0.999 0.999 0.999 c 1 0 1 c 1 1 1 c black 1 0 1 c black 3 lw 1 0 1 c 227
 484 m 1 Y 193 X 23 Y 192 X 18 Y 193 X -2 Y 193 X -9 Y 193 X -17 Y 192 X -10 Y 193 X -3 Y 193 X -1 Y 385 X f 0 0 1 c 0.999 0.999 0.999 c black 3 lw 0.999 0.999 0.999 c 227 484 m 1 Y 193 X 18 Y 192 X 11 Y 193 X -3 Y 193 X -7 Y 193 X -11 Y 192 X -7 Y
 193 X -2 Y 578 X f 0 0 1 c 0.999 0.999 0.999 c 0 0 1 c 1 1 1 c black 0 0 1 c black 3 lw 0 0 1 c 227 484 m 1 Y 193 X 18 Y 192 X 11 Y 193 X -3 Y 193 X -7 Y 193 X -11 Y 192 X -7 Y 193 X -2 Y 578 X f 0.2 0.8 0.8 c 0.999 0.999 0.999 c black 3 lw 0.999
 0.999 0.999 c 227 484 m 193 X 7 Y 192 X 1 Y 386 X -1 Y 193 X -5 Y 192 X -2 Y 771 X f 0.2 0.8 0.8 c 0.999 0.999 0.999 c 0.2 0.8 0.8 c 1 1 1 c black 0.2 0.8 0.8 c black 3 lw 0.2 0.8 0.8 c 227 484 m 193 X 7 Y 192 X 1 Y 386 X -1 Y 193 X -5 Y 192 X -2 Y
 771 X f 1 0 0 c 0.999 0.999 0.999 c black 3 lw 0.999 0.999 0.999 c 227 484 m 193 X 4 Y 771 X -3 Y 192 X -1 Y 771 X f 1 0 0 c 0.999 0.999 0.999 c 1 0 0 c 1 1 1 c black 1 0 0 c black 3 lw 1 0 0 c 227 484 m 193 X 4 Y 771 X -3 Y 192 X -1 Y 771 X f 1
 0.84 0 c 0.999 0.999 0.999 c black 3 lw 0.999 0.999 0.999 c 227 484 m 193 X 4 Y 192 X -1 Y 579 X -3 Y 963 X f 1 0.84 0 c 0.999 0.999 0.999 c 1 0.84 0 c 1 1 1 c black 1 0.84 0 c black 3 lw 1 0.84 0 c 227 484 m 193 X 4 Y 192 X -1 Y 579 X -3 Y 963 X f
 black 1 1 1 c black 0.6 0.6 0.6 c 3 lw 420 603 m -17 -16 d s 403 606 m -19 -19 d s 384 606 m -19 -19 d s 365 606 m -19 -19 d s 346 606 m -20 -19 d s 326 606 m -19 -19 d s 307 606 m -19 -19 d s 288 606 m -19 -19 d s 269 606 m -20 -19 d s 249 606 m
 -19 -19 d s 230 606 m -3 -3 d s 3 lw 612 757 m -12 -12 d s 594 759 m -13 -14 d s 575 759 m -14 -14 d s 556 759 m -14 -14 d s 537 759 m -14 -14 d s 517 759 m -13 -14 d s 498 759 m -14 -14 d s 479 759 m -14 -14 d s 460 759 m -14 -14 d s 441 759 m -14
 -14 d s 421 759 m -1 -2 d s 3 lw 805 873 m -7 -7 d s 786 873 m -7 -7 d s 766 873 m -7 -7 d s 747 873 m -7 -7 d s 728 873 m -7 -7 d s 709 873 m -7 -7 d s 689 873 m -7 -7 d s 670 873 m -7 -7 d s 651 873 m -7 -7 d s 632 873 m -7 -7 d s 612 873 m -1 Y s
 3 lw 988 902 m -7 -8 d s 969 902 m -8 -8 d s 949 902 m -7 -8 d s 930 902 m -7 -8 d s 911 902 m -7 -8 d s 892 902 m -8 -8 d s 873 902 m -8 -8 d s 853 902 m -7 -8 d s 834 902 m -7 -8 d s 815 902 m -8 -8 d s 3 lw 1191 873 m -7 -6 d s 1174 877 m -9 -10
 d s 1155 877 m -9 -10 d s 1136 877 m -9 -10 d s 1117 877 m -10 -10 d s 1098 877 m -10 -10 d s 1078 877 m -9 -10 d s 1059 877 m -9 -10 d s 1040 877 m -10 -10 d s 1021 877 m -10 -10 d s 1001 877 m -3 -4 d s 3 lw 1381 756 m -6 -6 d s 1361 756 m -6 -6 d
 s 1342 756 m -6 -6 d s 1323 756 m -6 -6 d s 1304 756 m -6 -6 d s 1284 756 m -6 -6 d s 1265 756 m -6 -6 d s 1246 756 m -6 -6 d s 1227 756 m -6 -6 d s 1207 756 m -6 -6 d s 3 lw 1567 634 m -6 -5 d s 1547 634 m -5 -5 d s 1528 634 m -5 -5 d s 1509 634 m
 -6 -5 d s 1490 634 m -6 -5 d s 1470 634 m -5 -5 d s 1451 634 m -5 -5 d s 1432 634 m -6 -5 d s 1413 634 m -6 -5 d s 1393 634 m -5 -5 d s 3 lw 1769 548 m -2 -2 d s 1752 550 m -4 -4 d s 1733 550 m -5 -4 d s 1713 550 m -4 -4 d s 1694 550 m -4 -4 d s
 1675 550 m -4 -4 d s 1656 550 m -5 -4 d s 1637 550 m -5 -4 d s 1617 550 m -4 -4 d s 1598 550 m -4 -4 d s 1579 550 m -3 -2 d s 3 lw 1948 496 m -2 -2 d s 1929 496 m -2 -2 d s 1909 496 m -2 -2 d s 1890 496 m -2 -2 d s 1871 496 m -2 -2 d s 1852 496 m -2
 -2 d s 1832 496 m -2 -2 d s 1813 496 m -2 -2 d s 1794 496 m -2 -2 d s 1775 496 m -2 -2 d s black 3 lw 1 1 1 c black /w 24 def /w2 {w 2 div} def /w3 {w 3 div} def 323 610 m20 516 752 m 2 Y s 516 778 m 1 Y s 516 766 m20 709 877 m 4 Y s 709 905 m 4 Y s
 709 893 m20 901 894 m 5 Y s 901 922 m 5 Y s 901 910 m20 1094 814 m 3 Y s 1094 841 m 3 Y s 1094 829 m20 1287 707 m s 1287 731 m s 1287 719 m20 1480 612 m20 1672 547 m20 1865 494 m20 227 484 m 1927 X s 227 502 m -18 Y s 265 493 m -9 Y s 304 493 m -9 Y
 s 342 493 m -9 Y s 381 493 m -9 Y s 420 502 m -18 Y s 458 493 m -9 Y s 497 493 m -9 Y s 535 493 m -9 Y s 574 493 m -9 Y s 612 502 m -18 Y s 651 493 m -9 Y s 689 493 m -9 Y s 728 493 m -9 Y s 766 493 m -9 Y s 805 502 m -18 Y s 844 493 m -9 Y s 882
 493 m -9 Y s 921 493 m -9 Y s 959 493 m -9 Y s 998 502 m -18 Y s 1036 493 m -9 Y s 1075 493 m -9 Y s 1113 493 m -9 Y s 1152 493 m -9 Y s 1191 502 m -18 Y s 1229 493 m -9 Y s 1268 493 m -9 Y s 1306 493 m -9 Y s 1345 493 m -9 Y s 1383 502 m -18 Y s
 1422 493 m -9 Y s 1460 493 m -9 Y s 1499 493 m -9 Y s 1538 493 m -9 Y s 1576 502 m -18 Y s 1615 493 m -9 Y s 1653 493 m -9 Y s 1692 493 m -9 Y s 1730 493 m -9 Y s 1769 502 m -18 Y s 1807 493 m -9 Y s 1846 493 m -9 Y s 1884 493 m -9 Y s 1923 493 m -9
 Y s 1962 502 m -18 Y s 2000 493 m -9 Y s 2039 493 m -9 Y s 2077 493 m -9 Y s 2116 493 m -9 Y s 2154 502 m -18 Y s 227 1520 m 1927 X s 227 1501 m 19 Y s 265 1510 m 10 Y s 304 1510 m 10 Y s 342 1510 m 10 Y s 381 1510 m 10 Y s 420 1501 m 19 Y s 458
 1510 m 10 Y s 497 1510 m 10 Y s 535 1510 m 10 Y s 574 1510 m 10 Y s 612 1501 m 19 Y s 651 1510 m 10 Y s 689 1510 m 10 Y s 728 1510 m 10 Y s 766 1510 m 10 Y s 805 1501 m 19 Y s 844 1510 m 10 Y s 882 1510 m 10 Y s 921 1510 m 10 Y s 959 1510 m 10 Y s
 998 1501 m 19 Y s 1036 1510 m 10 Y s 1075 1510 m 10 Y s 1113 1510 m 10 Y s 1152 1510 m 10 Y s 1191 1501 m 19 Y s 1229 1510 m 10 Y s 1268 1510 m 10 Y s 1306 1510 m 10 Y s 1345 1510 m 10 Y s 1383 1501 m 19 Y s 1422 1510 m 10 Y s 1460 1510 m 10 Y s
 1499 1510 m 10 Y s 1538 1510 m 10 Y s 1576 1501 m 19 Y s 1615 1510 m 10 Y s 1653 1510 m 10 Y s 1692 1510 m 10 Y s 1730 1510 m 10 Y s 1769 1501 m 19 Y s 1807 1510 m 10 Y s 1846 1510 m 10 Y s 1884 1510 m 10 Y s 1923 1510 m 10 Y s 1962 1501 m 19 Y s
 2000 1510 m 10 Y s 2039 1510 m 10 Y s 2077 1510 m 10 Y s 2116 1510 m 10 Y s 2154 1501 m 19 Y s 227 484 m 1036 Y s 248 610 m -21 X s 237 641 m -10 X s 237 673 m -10 X s 237 705 m -10 X s 248 736 m -21 X s 237 768 m -10 X s 237 799 m -10 X s 237 831 m
 -10 X s 248 862 m -21 X s 237 894 m -10 X s 237 926 m -10 X s 237 957 m -10 X s 248 989 m -21 X s 237 1020 m -10 X s 237 1052 m -10 X s 237 1083 m -10 X s 248 1115 m -21 X s 237 1147 m -10 X s 237 1178 m -10 X s 237 1210 m -10 X s 248 1241 m -21 X s
 237 1273 m -10 X s 237 1305 m -10 X s 237 1336 m -10 X s 248 1368 m -21 X s 237 1399 m -10 X s 237 1431 m -10 X s 237 1462 m -10 X s 248 1494 m -21 X s 248 610 m -21 X s 237 578 m -10 X s 237 547 m -10 X s 237 515 m -10 X s 248 1494 m -21 X s 2154
 484 m 1036 Y s 2133 610 m 21 X s 2144 641 m 10 X s 2144 673 m 10 X s 2144 705 m 10 X s 2133 736 m 21 X s 2144 768 m 10 X s 2144 799 m 10 X s 2144 831 m 10 X s 2133 862 m 21 X s 2144 894 m 10 X s 2144 926 m 10 X s 2144 957 m 10 X s 2133 989 m 21 X s
 2144 1020 m 10 X s 2144 1052 m 10 X s 2144 1083 m 10 X s 2133 1115 m 21 X s 2144 1147 m 10 X s 2144 1178 m 10 X s 2144 1210 m 10 X s 2133 1241 m 21 X s 2144 1273 m 10 X s 2144 1305 m 10 X s 2144 1336 m 10 X s 2133 1368 m 21 X s 2144 1399 m 10 X s
 2144 1431 m 10 X s 2144 1462 m 10 X s 2133 1494 m 21 X s 2133 610 m 21 X s 2144 578 m 10 X s 2144 547 m 10 X s 2144 515 m 10 X s 2133 1494 m 21 X s
 gsave  2268 1103 0 472 C 1314.45 1432.87 t 0 r /Helvetica findfont 56.3093 sf 0 0 m ( Data) show NC gr  1259 1456 m 7 Y s 1259 1432 m -7 Y s 1259 1444 m20
 gsave  2268 1103 0 472 C 1776.28 1432.87 t 0 r /Helvetica findfont 56.3093 sf 0 0 m ( Fakes \(MM\)) show NC gr  0.4 0.6 0.4 c 1682 1422 m 79 X 44 Y -79 X f black
 gsave  2268 1103 0 472 C 1403.26 1367.74 t 0 r /Helvetica findfont 56.3093 sf 0 0 m (single\255top) show NC gr 
 gsave  2268 1103 0 472 C 1373.66 1367.74 t 0 r /Helvetica-Oblique findfont 56.3093 sf 0 0 m (/) show NC gr 
 gsave  2268 1103 0 472 C 1352.93 1367.74 t 0 r /Helvetica-Oblique findfont 56.3093 sf 0 0 m (t) show NC gr  6 lw 1353 1412 m 21 X s
 gsave  2268 1103 0 472 C 1332.21 1367.74 t 0 r /Helvetica-Oblique findfont 56.3093 sf 0 0 m (t) show NC gr 
 gsave  2268 1103 0 472 C 1314.45 1367.74 t 0 r /Helvetica findfont 56.3093 sf 0 0 m ( ) show NC gr  0.06 0.54 0.06 c 3 lw 1219 1359 m 79 X 44 Y -79 X f 6 lw black
 gsave  2268 1103 0 472 C 1906.54 1367.74 t 0 r /Helvetica findfont 56.3093 sf 0 0 m (+jets) show NC gr 
 gsave  2268 1103 0 472 C 1794.04 1367.74 t 0 r /Helvetica-Oblique findfont 56.3093 sf 0 0 m (W/Z) show NC gr 
 gsave  2268 1103 0 472 C 1776.28 1367.74 t 0 r /Helvetica findfont 56.3093 sf 0 0 m ( ) show NC gr  1 0.653333 0 c 3 lw 1682 1359 m 79 X 44 Y -79 X f black
 gsave  2268 1103 0 472 C 1512.8 1305.57 t 0 r /Helvetica findfont 56.3093 sf 0 0 m (+jets) show NC gr 
 gsave  2268 1103 0 472 C 1332.21 1305.57 t 0 r /Helvetica-Oblique findfont 56.3093 sf 0 0 m (WZ/ZZ) show NC gr 
 gsave  2268 1103 0 472 C 1314.45 1305.57 t 0 r /Helvetica findfont 56.3093 sf 0 0 m ( ) show NC gr  0.413333 1 0 c 3 lw 1219 1296 m 79 X 44 Y -79 X f black
 gsave  2268 1103 0 472 C 1835.49 1305.57 t 0 r /Helvetica-Oblique findfont 56.3093 sf 0 0 m (Z) show NC gr 
 gsave  2268 1103 0 472 C 1814.77 1305.57 t 0 r /Helvetica-Oblique findfont 56.3093 sf 0 0 m (t) show NC gr  6 lw 1815 1350 m 20 X s
 gsave  2268 1103 0 472 C 1794.04 1305.57 t 0 r /Helvetica-Oblique findfont 56.3093 sf 0 0 m (t) show NC gr 
 gsave  2268 1103 0 472 C 1776.28 1305.57 t 0 r /Helvetica findfont 56.3093 sf 0 0 m ( ) show NC gr  0.6 0.2 1 c 3 lw 1682 1296 m 79 X 44 Y -79 X f 6 lw black
 gsave  2268 1103 0 472 C 1373.66 1243.4 t 0 r /Helvetica-Oblique findfont 56.3093 sf 0 0 m (W) show NC gr 
 gsave  2268 1103 0 472 C 1352.93 1243.4 t 0 r /Helvetica-Oblique findfont 56.3093 sf 0 0 m (t) show NC gr  6 lw 1353 1288 m 21 X s
 gsave  2268 1103 0 472 C 1332.21 1243.4 t 0 r /Helvetica-Oblique findfont 56.3093 sf 0 0 m (t) show NC gr 
 gsave  2268 1103 0 472 C 1314.45 1243.4 t 0 r /Helvetica findfont 56.3093 sf 0 0 m ( ) show NC gr  0.54 0.06 0.06 c 3 lw 1219 1233 m 79 X 44 Y -79 X f 6 lw black
 gsave  2268 1103 0 472 C 1794.04 1243.4 t 0 r /Helvetica-Oblique findfont 56.3093 sf 0 0 m (tZq) show NC gr 
 gsave  2268 1103 0 472 C 1776.28 1243.4 t 0 r /Helvetica findfont 56.3093 sf 0 0 m ( ) show NC gr  1 0 1 c 3 lw 1682 1233 m 79 X 44 Y -79 X f black
 gsave  2268 1103 0 472 C 1373.66 1178.27 t 0 r /Helvetica-Oblique findfont 56.3093 sf 0 0 m (H) show NC gr 
 gsave  2268 1103 0 472 C 1352.93 1178.27 t 0 r /Helvetica-Oblique findfont 56.3093 sf 0 0 m (t) show NC gr  6 lw 1353 1223 m 21 X s
 gsave  2268 1103 0 472 C 1332.21 1178.27 t 0 r /Helvetica-Oblique findfont 56.3093 sf 0 0 m (t) show NC gr 
 gsave  2268 1103 0 472 C 1314.45 1178.27 t 0 r /Helvetica findfont 56.3093 sf 0 0 m ( ) show NC gr  0 0 1 c 3 lw 1219 1170 m 79 X 44 Y -79 X f 6 lw black
 gsave  2268 1103 0 472 C 1794.04 1178.27 t 0 r /Helvetica-Oblique findfont 56.3093 sf 0 0 m (tWZ/tWH) show NC gr 
 gsave  2268 1103 0 472 C 1776.28 1178.27 t 0 r /Helvetica findfont 56.3093 sf 0 0 m ( ) show NC gr  0.2 0.8 0.8 c 3 lw 1682 1170 m 79 X 44 Y -79 X f black
 gsave  2268 1103 0 472 C 1332.21 1116.1 t 0 r /Helvetica-Oblique findfont 56.3093 sf 0 0 m (tHq) show NC gr 
 gsave  2268 1103 0 472 C 1314.45 1116.1 t 0 r /Helvetica findfont 56.3093 sf 0 0 m ( ) show NC gr  1 0 0 c 3 lw 1219 1107 m 79 X 44 Y -79 X f black
 gsave  2268 1103 0 472 C 1776.28 1116.1 t 0 r /Helvetica findfont 56.3093 sf 0 0 m ( Other) show NC gr  1 0.84 0 c 3 lw 1682 1107 m 79 X 44 Y -79 X f black
 gsave  2268 1103 0 472 C 1314.45 1053.93 t 0 r /Helvetica findfont 56.3093 sf 0 0 m ( Uncertainty) show NC gr  0.6 0.6 0.6 c 3 lw 1298 1058 m -13 -14 d s 1298 1077 m -33 -33 d s 1290 1088 m -44 -44 d s 1271 1088 m -44 -44 d s 1252 1088 m -33 -33 d s
 1233 1088 m -14 -13 d s 1 0.84 0 c 0.6 0.6 0.6 c black
 gsave  2268 1103 0 472 C 894.061 1329.25 t 0 r /Helvetica findfont 41.4911 sf 0 0 m (\2551) show NC gr 
 gsave  2268 1103 0 472 C 399.663 1299.64 t 0 r /Helvetica findfont 62.2366 sf 0 0 m ( = 13 TeV,  139 fb) show NC gr 
 gsave  2268 1103 0 472 C 370.058 1299.64 t 0 r /Helvetica findfont 62.2366 sf 0 0 m (s) show NC gr  6 lw 349 1335 m 6 -38 d s 3 lw 355 1297 m 6 56 d s 361 1353 m 39 X s
 gsave  2268 1103 0 472 C 337.493 1201.95 t 0 r /Helvetica findfont 62.2366 sf 0 0 m ( 2L\(SS\) pre\255selection) show NC gr 
 gsave  2268 1103 0 472 C 337.493 1400.3 t 0 r /Helvetica-BoldOblique findfont 71.1276 sf 0 0 m (ATLAS) show NC gr 
 gsave  2268 1103 0 472 C 633.54 1400.3 t 0 r /Helvetica findfont 71.1276 sf 0 0 m (Internal) show NC gr 
 gr  gr showpage
end
%%EOF
