%!PS-Adobe-2.0 EPSF-2.0
%%BoundingBox:  0 0 567 394
%%Title: /lhome/ific/c/cardillo/tHq/Plots/Plots-30-05-22-PLIV-SF/2LSS_MM/BDTtHq_Pre.eps: BDTtHq_Pre
%%Creator: ROOT Version 6.20/06
%%CreationDate: Mon May 30 19:25:22 2022
%%DocumentNeededResources: ProcSet (FontSetInit)
%%EndComments
%%BeginProlog
80 dict begin
/s {stroke} def /l {lineto} def /m {moveto} def /t {translate} def
/r {rotate} def /rl {roll}  def /R {repeat} def
/d {rlineto} def /rm {rmoveto} def /gr {grestore} def /f {eofill} def
/c {setrgbcolor} def /black {0 setgray} def /sd {setdash} def
/cl {closepath} def /sf {scalefont setfont} def /lw {setlinewidth} def
/box {m dup 0 exch d exch 0 d 0 exch neg d cl} def
/NC{systemdict begin initclip end}def/C{NC box clip newpath}def
/bl {box s} def /bf {gsave box gsave f grestore 1 lw [] 0 sd s grestore} def /Y { 0 exch d} def /X { 0 d} def 
/K {{pop pop 0 moveto} exch kshow} bind def
/ita {/ang 15 def gsave [1 0 ang dup sin exch cos div 1 0 0] concat} def 
/mp {newpath /y exch def /x exch def} def
/side {[w .77 mul w .23 mul] .385 w mul sd w 0 l currentpoint t -144 r} def
/mr {mp x y w2 0 360 arc} def /m24 {mr s} def /m20 {mr f} def
/mb {mp x y w2 add m w2 neg 0 d 0 w neg d w 0 d 0 w d cl} def
/mt {mp x y w2 add m w2 neg w neg d w 0 d cl} def
/w4 {w 4 div} def
/w6 {w 6 div} def
/w8 {w 8 div} def
/m21 {mb f} def /m25 {mb s} def /m22 {mt f} def /m26{mt s} def
/m23 {mp x y w2 sub m w2 w d w neg 0 d cl f} def
/m27 {mp x y w2 add m w3 neg w2 neg d w3 w2 neg d w3 w2 d cl s} def
/m28 {mp x w2 sub y w2 sub w3 add m w3 0 d  0 w3 neg d w3 0 d 0 w3 d w3 0 d  0 w3 d w3 neg 0 d 0 w3 d w3 neg 0 d 0 w3 neg d w3 neg 0 d cl s } def
/m29 {mp gsave x w2 sub y w2 add w3 sub m currentpoint t 4 {side} repeat cl fill gr} def
/m30 {mp gsave x w2 sub y w2 add w3 sub m currentpoint t 4 {side} repeat cl s gr} def
/m31 {mp x y w2 sub m 0 w d x w2 sub y m w 0 d x w2 sub y w2 add m w w neg d x w2 sub y w2 sub m w w d s} def
/m32 {mp x y w2 sub m w2 w d w neg 0 d cl s} def
/m33 {mp x y w2 add m w3 neg w2 neg d w3 w2 neg d w3 w2 d cl f} def
/m34 {mp x w2 sub y w2 sub w3 add m w3 0 d  0 w3 neg d w3 0 d 0 w3 d w3 0 d  0 w3 d w3 neg 0 d 0 w3 d w3 neg 0 d 0 w3 neg d w3 neg 0 d cl f } def
/m35 {mp x y w2 add m w2 neg w2 neg d w2 w2 neg d w2 w2 d w2 neg w2 d x y w2 sub m 0 w d x w2 sub y m w 0 d s} def
/m36 {mb x w2 sub y w2 add m w w neg d x w2 sub y w2 sub m w w d s} def
/m37 {mp x y m w4 neg w2 d w4 neg w2 neg d w2 0 d  w4 neg w2 neg d w2 0 d w4 neg w2 d w2 0 d w4 neg w2 d w4 neg w2 neg d cl s} def
/m38 {mp x w4 sub y w2 add m w4 neg w4 neg d 0 w2 neg d w4 w4 neg d w2 0 d w4 w4 d 0 w2 d w4 neg w4 d w2 neg 0 d x y w2 sub m 0 w d x w2 sub y m w 0 d cl s} def
/m39 {mp x y m w4 neg w2 d w4 neg w2 neg d w2 0 d  w4 neg w2 neg d w2 0 d w4 neg w2 d w2 0 d w4 neg w2 d w4 neg w2 neg d cl f} def
/m40 {mp x y m w4 w2 d w4 w4 neg d w2 neg w4 neg d w2 w4 neg d w4 neg w4 neg d w4 neg w2 d w4 neg w2 neg d w4 neg w4 d w2 w4 d w2 neg w4 d w4 w4 d w4 w2 neg d cl s} def
/m41 {mp x y m w4 w2 d w4 w4 neg d w2 neg w4 neg d w2 w4 neg d w4 neg w4 neg d w4 neg w2 d w4 neg w2 neg d w4 neg w4 d w2 w4 d w2 neg w4 d w4 w4 d w4 w2 neg d cl f} def
/m42 {mp x y w2 add m w8 neg w2 -3 4 div mul d w2 -3 4 div mul w8 neg d w2 3 4 div mul w8 neg d w8 w2 -3 4 div mul d w8 w2 3 4 div mul d w2 3 4 div mul w8 d w2 -3 4 div mul w8 d w8 neg w2 3 4 div mul d cl s} def
/m43 {mp x y w2 add m w8 neg w2 -3 4 div mul d w2 -3 4 div mul w8 neg d w2 3 4 div mul w8 neg d w8 w2 -3 4 div mul d w8 w2 3 4 div mul d w2 3 4 div mul w8 d w2 -3 4 div mul w8 d w8 neg w2 3 4 div mul d cl f} def
/m44 {mp x y m w6 neg w2 d w2 2 3 div mul 0 d w6 neg w2 neg d w2 w6 d 0 w2 -2 3 div mul d w2 neg w6 d w6 w2 neg d w2 -2 3 div mul 0 d w6 w2 d w2 neg w6 neg d 0 w2 2 3 div mul d w2 w6 neg d cl s} def
/m45 {mp x y m w6 neg w2 d w2 2 3 div mul 0 d w6 neg w2 neg d w2 w6 d 0 w2 -2 3 div mul d w2 neg w6 d w6 w2 neg d w2 -2 3 div mul 0 d w6 w2 d w2 neg w6 neg d 0 w2 2 3 div mul d w2 w6 neg d cl f} def
/m46 {mp x y w4 add m w4 neg w4 d w4 neg w4 neg d  w4 w4 neg d w4 neg w4 neg d w4 w4 neg d w4 w4 d w4 w4 neg d w4 w4 d w4 neg w4 d w4 w4 d w4 neg w4 d w4 neg w4 neg d cl s} def
/m47 {mp x y w4 add m w4 neg w4 d w4 neg w4 neg d w4 w4 neg d w4 neg w4 neg d  w4 w4 neg d w4 w4 d w4 w4 neg d w4 w4 d w4 neg w4 d w4 w4 d w4 neg w4 d w4 neg w4 neg d cl f} def
/m48 {mp x y w4 add m w4 neg w4 d w4 neg w4 neg d w4 w4 neg d  w4 neg w4 neg d w4 w4 neg d w4 w4 d w4 w4 neg d w4 w4 d w4 neg w4 d w4 w4 d w4 neg w4 d w4 neg w4 neg d  w4 w4 neg d w4 neg w4 neg d w4 neg w4 d w4 w4 d cl f} def
/m49 {mp x w2 sub w3 add y w2 sub w3 add m  0 w3 neg d w3 0 d 0 w3 d w3 0 d 0 w3 d w3 neg 0 d 0 w3 d w3 neg 0 d 0 w3 neg d w3 neg 0 d 0 w3 neg d w3 0 d 0 w3 d w3 0 d 0 w3 neg d w3 neg 0 d cl f } def
/m2 {mp x y w2 sub m 0 w d x w2 sub y m w 0 d s} def
/m5 {mp x w2 sub y w2 sub m w w d x w2 sub y w2 add m w w neg d s} def
%%IncludeResource: ProcSet (FontSetInit)
%%IncludeResource: font Times-Roman
%%IncludeResource: font Times-Italic
%%IncludeResource: font Times-Bold
%%IncludeResource: font Times-BoldItalic
%%IncludeResource: font Helvetica
%%IncludeResource: font Helvetica-Oblique
%%IncludeResource: font Helvetica-Bold
%%IncludeResource: font Helvetica-BoldOblique
%%IncludeResource: font Courier
%%IncludeResource: font Courier-Oblique
%%IncludeResource: font Courier-Bold
%%IncludeResource: font Courier-BoldOblique
%%IncludeResource: font Symbol
%%IncludeResource: font ZapfDingbats
/reEncode {exch findfont dup length dict begin {1 index /FID eq  {pop pop} {def} ifelse } forall /Encoding exch def currentdict end dup /FontName get exch definefont pop } def [/Times-Bold /Times-Italic /Times-BoldItalic /Helvetica /Helvetica-Oblique
 /Helvetica-Bold /Helvetica-BoldOblique /Courier /Courier-Oblique /Courier-Bold /Courier-BoldOblique /Times-Roman /AvantGarde-Book /AvantGarde-BookOblique /AvantGarde-Demi /AvantGarde-DemiOblique /Bookman-Demi /Bookman-DemiItalic /Bookman-Light
 /Bookman-LightItalic /Helvetica-Narrow /Helvetica-Narrow-Bold /Helvetica-Narrow-BoldOblique /Helvetica-Narrow-Oblique /NewCenturySchlbk-Roman /NewCenturySchlbk-Bold /NewCenturySchlbk-BoldItalic /NewCenturySchlbk-Italic /Palatino-Bold
 /Palatino-BoldItalic /Palatino-Italic /Palatino-Roman ] {ISOLatin1Encoding reEncode } forall
%%EndProlog
%%BeginSetup
%%EndSetup
newpath  gsave  .25 .25 scale  gsave  0 0 t black[  ] 0 sd 3 lw 1 1 1 c 2268 1575 0 0 bf black 1 1 1 c 2268 472 0 0 bf black 1 1 1 c 1927 274 227 189 bf black 1927 274 227 189 bl 227 189 m 1927 X s 227 201 m -12 Y s 265 195 m -6 Y s 304 195 m -6 Y s
 342 195 m -6 Y s 381 195 m -6 Y s 420 201 m -12 Y s 458 195 m -6 Y s 497 195 m -6 Y s 535 195 m -6 Y s 574 195 m -6 Y s 612 201 m -12 Y s 651 195 m -6 Y s 689 195 m -6 Y s 728 195 m -6 Y s 766 195 m -6 Y s 805 201 m -12 Y s 844 195 m -6 Y s 882 195
 m -6 Y s 921 195 m -6 Y s 959 195 m -6 Y s 998 201 m -12 Y s 1036 195 m -6 Y s 1075 195 m -6 Y s 1113 195 m -6 Y s 1152 195 m -6 Y s 1191 201 m -12 Y s 1229 195 m -6 Y s 1268 195 m -6 Y s 1306 195 m -6 Y s 1345 195 m -6 Y s 1383 201 m -12 Y s 1422
 195 m -6 Y s 1460 195 m -6 Y s 1499 195 m -6 Y s 1538 195 m -6 Y s 1576 201 m -12 Y s 1615 195 m -6 Y s 1653 195 m -6 Y s 1692 195 m -6 Y s 1730 195 m -6 Y s 1769 201 m -12 Y s 1807 195 m -6 Y s 1846 195 m -6 Y s 1884 195 m -6 Y s 1923 195 m -6 Y s
 1962 201 m -12 Y s 2000 195 m -6 Y s 2039 195 m -6 Y s 2077 195 m -6 Y s 2116 195 m -6 Y s 2154 201 m -12 Y s
 gsave  2268 472 0 0 C 210.193 127.3 t 0 r /Helvetica findfont 53.4895 sf 0 0 m (0) show NC gr 
 gsave  2268 472 0 0 C 384.861 127.3 t 0 r /Helvetica findfont 53.4895 sf 0 0 m (0.1) show NC gr 
 gsave  2268 472 0 0 C 571.37 127.3 t 0 r /Helvetica findfont 53.4895 sf 0 0 m (0.2) show NC gr 
 gsave  2268 472 0 0 C 763.8 127.3 t 0 r /Helvetica findfont 53.4895 sf 0 0 m (0.3) show NC gr 
 gsave  2268 472 0 0 C 959.191 127.3 t 0 r /Helvetica findfont 53.4895 sf 0 0 m (0.4) show NC gr 
 gsave  2268 472 0 0 C 1151.62 127.3 t 0 r /Helvetica findfont 53.4895 sf 0 0 m (0.5) show NC gr 
 gsave  2268 472 0 0 C 1344.05 127.3 t 0 r /Helvetica findfont 53.4895 sf 0 0 m (0.6) show NC gr 
 gsave  2268 472 0 0 C 1536.48 127.3 t 0 r /Helvetica findfont 53.4895 sf 0 0 m (0.7) show NC gr 
 gsave  2268 472 0 0 C 1728.91 127.3 t 0 r /Helvetica findfont 53.4895 sf 0 0 m (0.8) show NC gr 
 gsave  2268 472 0 0 C 1921.34 127.3 t 0 r /Helvetica findfont 53.4895 sf 0 0 m (0.9) show NC gr 
 gsave  2268 472 0 0 C 2140.42 127.3 t 0 r /Helvetica findfont 53.4895 sf 0 0 m (1) show NC gr 
 gsave  2268 472 0 0 C 2137.46 47.3674 t 0 r /Helvetica findfont 56.4611 sf 0 0 m (\)) show NC gr 
 gsave  2268 472 0 0 C 2045.68 47.3674 t 0 r /Helvetica-Oblique findfont 56.4611 sf 0 0 m (tHq) show NC gr 
 gsave  2268 472 0 0 C 1915.42 47.3674 t 0 r /Helvetica findfont 56.4611 sf 0 0 m (BDT\() show NC gr  227 463 m 1927 X s 227 451 m 12 Y s 265 457 m 6 Y s 304 457 m 6 Y s 342 457 m 6 Y s 381 457 m 6 Y s 420 451 m 12 Y s 458 457 m 6 Y s 497 457 m 6 Y s
 535 457 m 6 Y s 574 457 m 6 Y s 612 451 m 12 Y s 651 457 m 6 Y s 689 457 m 6 Y s 728 457 m 6 Y s 766 457 m 6 Y s 805 451 m 12 Y s 844 457 m 6 Y s 882 457 m 6 Y s 921 457 m 6 Y s 959 457 m 6 Y s 998 451 m 12 Y s 1036 457 m 6 Y s 1075 457 m 6 Y s 1113
 457 m 6 Y s 1152 457 m 6 Y s 1191 451 m 12 Y s 1229 457 m 6 Y s 1268 457 m 6 Y s 1306 457 m 6 Y s 1345 457 m 6 Y s 1383 451 m 12 Y s 1422 457 m 6 Y s 1460 457 m 6 Y s 1499 457 m 6 Y s 1538 457 m 6 Y s 1576 451 m 12 Y s 1615 457 m 6 Y s 1653 457 m 6
 Y s 1692 457 m 6 Y s 1730 457 m 6 Y s 1769 451 m 12 Y s 1807 457 m 6 Y s 1846 457 m 6 Y s 1884 457 m 6 Y s 1923 457 m 6 Y s 1962 451 m 12 Y s 2000 457 m 6 Y s 2039 457 m 6 Y s 2077 457 m 6 Y s 2116 457 m 6 Y s 2154 451 m 12 Y s 227 189 m 274 Y s 240
 240 m -13 X s 240 326 m -13 X s 240 412 m -13 X s 240 240 m -13 X s 240 412 m -13 X s
 gsave  2268 472 0 0 C 118.419 222.035 t 0 r /Helvetica findfont 53.4895 sf 0 0 m (0.5) show NC gr 
 gsave  2268 472 0 0 C 171.707 307.888 t 0 r /Helvetica findfont 53.4895 sf 0 0 m (1) show NC gr 
 gsave  2268 472 0 0 C 118.419 393.742 t 0 r /Helvetica findfont 53.4895 sf 0 0 m (1.5) show NC gr 
 gsave  2268 472 0 0 C 71.0512 230.916 t 90 r /Helvetica findfont 53.4895 sf 0 0 m (Data / SM) show NC gr  2154 189 m 274 Y s 2141 240 m 13 X s 2141 326 m 13 X s 2141 412 m 13 X s 2141 240 m 13 X s 2141 412 m 13 X s 227 189 m 1927 X s 227 463 m 1927
 X s 227 189 m 274 Y s[ 4 8] 0 sd 2154 240 m -1927 X s 2154 326 m -1927 X s 2154 412 m -1927 X s 2154 240 m -1927 X s 2154 412 m -1927 X s[  ] 0 sd 2154 189 m 274 Y s 1 1 0.6 c 193 0 227 326 bf 192 0 420 326 bf 193 0 612 326 bf 193 0 805 326 bf 193 0
 998 326 bf 192 0 1191 326 bf 193 0 1383 326 bf 193 0 1576 326 bf 193 0 1769 326 bf 192 0 1962 326 bf black 0.6 0.6 0.6 c 420 325 m -3 -3 d s 405 330 m -7 -8 d s 386 330 m -7 -8 d s 367 330 m -7 -8 d s 348 330 m -8 -8 d s 328 330 m -7 -8 d s 309 330
 m -7 -8 d s 290 330 m -7 -8 d s 271 330 m -8 -8 d s 252 330 m -8 -8 d s 232 330 m -5 -6 d s 612 325 m -1 -1 d s 597 328 m -5 -4 d s 577 328 m -5 -4 d s 558 328 m -5 -4 d s 539 328 m -5 -4 d s 520 328 m -5 -4 d s 500 328 m -4 -4 d s 481 328 m -5 -4 d
 s 462 328 m -5 -4 d s 443 328 m -5 -4 d s 423 328 m -3 -3 d s 805 325 m -1 -1 d s 789 328 m -4 -4 d s 769 328 m -4 -4 d s 750 328 m -4 -4 d s 731 328 m -4 -4 d s 712 328 m -4 -4 d s 692 328 m -4 -4 d s 673 328 m -4 -4 d s 654 328 m -4 -4 d s 635 328
 m -4 -4 d s 615 328 m -3 -3 d s 998 326 m -2 -2 d s 981 328 m -4 -4 d s 962 328 m -5 -4 d s 943 328 m -5 -4 d s 924 328 m -5 -4 d s 904 328 m -4 -4 d s 885 328 m -5 -4 d s 866 328 m -5 -4 d s 847 328 m -5 -4 d s 827 328 m -4 -4 d s 808 328 m -3 -3 d
 s 1191 326 m -3 -2 d s 1174 328 m -5 -4 d s 1154 328 m -4 -4 d s 1135 328 m -4 -4 d s 1116 328 m -5 -4 d s 1097 328 m -5 -4 d s 1077 328 m -4 -4 d s 1058 328 m -4 -4 d s 1039 328 m -4 -4 d s 1020 328 m -5 -4 d s 1001 328 m -3 -2 d s 1383 326 m -2 -2
 d s 1366 328 m -4 -4 d s 1347 328 m -5 -4 d s 1328 328 m -5 -4 d s 1308 328 m -4 -4 d s 1289 328 m -4 -4 d s 1270 328 m -5 -4 d s 1251 328 m -5 -4 d s 1231 328 m -4 -4 d s 1212 328 m -4 -4 d s 1193 328 m -2 -2 d s 1576 327 m -3 -3 d s 1559 328 m -5
 -4 d s 1539 328 m -4 -4 d s 1520 328 m -4 -4 d s 1501 328 m -5 -4 d s 1482 328 m -5 -4 d s 1462 328 m -4 -4 d s 1443 328 m -4 -4 d s 1424 328 m -5 -4 d s 1405 328 m -5 -4 d s 1385 328 m -2 -2 d s 1769 327 m -3 -3 d s 1751 328 m -5 -4 d s 1732 328 m
 -5 -4 d s 1713 328 m -5 -4 d s 1693 328 m -4 -4 d s 1674 328 m -5 -4 d s 1655 328 m -5 -4 d s 1636 328 m -5 -4 d s 1616 328 m -4 -4 d s 1597 328 m -5 -4 d s 1578 328 m -2 -1 d s 1962 327 m -4 -4 d s 1944 329 m -5 -6 d s 1925 329 m -6 -6 d s 1905 329
 m -5 -6 d s 1886 329 m -5 -6 d s 1867 329 m -5 -6 d s 1848 329 m -6 -6 d s 1828 329 m -5 -6 d s 1809 329 m -5 -6 d s 1790 329 m -5 -6 d s 1771 329 m -2 -2 d s 2154 328 m -6 -6 d s 2138 330 m -9 -8 d s 2119 330 m -9 -8 d s 2099 330 m -8 -8 d s 2080
 330 m -9 -8 d s 2061 330 m -9 -8 d s 2042 330 m -9 -8 d s 2022 330 m -8 -8 d s 2003 330 m -8 -8 d s 1984 330 m -9 -8 d s 1965 330 m -3 -3 d s black 1 1 1 c black /w 26 def /w2 {w 2 div} def /w3 {w 3 div} def 323 340 m20 516 329 m20 709 315 m20 901
 308 m20 1094 317 m20 1287 312 m20 1480 299 m s 1480 322 m s 1480 311 m20 1672 295 m 1 Y s 1672 319 m 2 Y s 1672 308 m20 1865 296 m 4 Y s 1865 323 m 5 Y s 1865 312 m20 2058 309 m 20 Y s 2058 353 m 20 Y s 2058 341 m20 227 326 m 1927 X s 227 189 m 1927
 X s 227 201 m -12 Y s 265 195 m -6 Y s 304 195 m -6 Y s 342 195 m -6 Y s 381 195 m -6 Y s 420 201 m -12 Y s 458 195 m -6 Y s 497 195 m -6 Y s 535 195 m -6 Y s 574 195 m -6 Y s 612 201 m -12 Y s 651 195 m -6 Y s 689 195 m -6 Y s 728 195 m -6 Y s 766
 195 m -6 Y s 805 201 m -12 Y s 844 195 m -6 Y s 882 195 m -6 Y s 921 195 m -6 Y s 959 195 m -6 Y s 998 201 m -12 Y s 1036 195 m -6 Y s 1075 195 m -6 Y s 1113 195 m -6 Y s 1152 195 m -6 Y s 1191 201 m -12 Y s 1229 195 m -6 Y s 1268 195 m -6 Y s 1306
 195 m -6 Y s 1345 195 m -6 Y s 1383 201 m -12 Y s 1422 195 m -6 Y s 1460 195 m -6 Y s 1499 195 m -6 Y s 1538 195 m -6 Y s 1576 201 m -12 Y s 1615 195 m -6 Y s 1653 195 m -6 Y s 1692 195 m -6 Y s 1730 195 m -6 Y s 1769 201 m -12 Y s 1807 195 m -6 Y s
 1846 195 m -6 Y s 1884 195 m -6 Y s 1923 195 m -6 Y s 1962 201 m -12 Y s 2000 195 m -6 Y s 2039 195 m -6 Y s 2077 195 m -6 Y s 2116 195 m -6 Y s 2154 201 m -12 Y s 227 463 m 1927 X s 227 451 m 12 Y s 265 457 m 6 Y s 304 457 m 6 Y s 342 457 m 6 Y s
 381 457 m 6 Y s 420 451 m 12 Y s 458 457 m 6 Y s 497 457 m 6 Y s 535 457 m 6 Y s 574 457 m 6 Y s 612 451 m 12 Y s 651 457 m 6 Y s 689 457 m 6 Y s 728 457 m 6 Y s 766 457 m 6 Y s 805 451 m 12 Y s 844 457 m 6 Y s 882 457 m 6 Y s 921 457 m 6 Y s 959
 457 m 6 Y s 998 451 m 12 Y s 1036 457 m 6 Y s 1075 457 m 6 Y s 1113 457 m 6 Y s 1152 457 m 6 Y s 1191 451 m 12 Y s 1229 457 m 6 Y s 1268 457 m 6 Y s 1306 457 m 6 Y s 1345 457 m 6 Y s 1383 451 m 12 Y s 1422 457 m 6 Y s 1460 457 m 6 Y s 1499 457 m 6 Y
 s 1538 457 m 6 Y s 1576 451 m 12 Y s 1615 457 m 6 Y s 1653 457 m 6 Y s 1692 457 m 6 Y s 1730 457 m 6 Y s 1769 451 m 12 Y s 1807 457 m 6 Y s 1846 457 m 6 Y s 1884 457 m 6 Y s 1923 457 m 6 Y s 1962 451 m 12 Y s 2000 457 m 6 Y s 2039 457 m 6 Y s 2077
 457 m 6 Y s 2116 457 m 6 Y s 2154 451 m 12 Y s 227 189 m 274 Y s 240 240 m -13 X s 240 326 m -13 X s 240 412 m -13 X s 240 240 m -13 X s 240 412 m -13 X s 2154 189 m 274 Y s 2141 240 m 13 X s 2141 326 m 13 X s 2141 412 m 13 X s 2141 240 m 13 X s
 2141 412 m 13 X s 1 1 1 c 2268 1103 0 472 bf black 1 1 1 c 1927 1036 227 484 bf black 1927 1036 227 484 bl 1 1 1 c black 3 lw 227 484 m 1927 X s 227 502 m -18 Y s 265 493 m -9 Y s 304 493 m -9 Y s 342 493 m -9 Y s 381 493 m -9 Y s 420 502 m -18 Y s
 458 493 m -9 Y s 497 493 m -9 Y s 535 493 m -9 Y s 574 493 m -9 Y s 612 502 m -18 Y s 651 493 m -9 Y s 689 493 m -9 Y s 728 493 m -9 Y s 766 493 m -9 Y s 805 502 m -18 Y s 844 493 m -9 Y s 882 493 m -9 Y s 921 493 m -9 Y s 959 493 m -9 Y s 998 502 m
 -18 Y s 1036 493 m -9 Y s 1075 493 m -9 Y s 1113 493 m -9 Y s 1152 493 m -9 Y s 1191 502 m -18 Y s 1229 493 m -9 Y s 1268 493 m -9 Y s 1306 493 m -9 Y s 1345 493 m -9 Y s 1383 502 m -18 Y s 1422 493 m -9 Y s 1460 493 m -9 Y s 1499 493 m -9 Y s 1538
 493 m -9 Y s 1576 502 m -18 Y s 1615 493 m -9 Y s 1653 493 m -9 Y s 1692 493 m -9 Y s 1730 493 m -9 Y s 1769 502 m -18 Y s 1807 493 m -9 Y s 1846 493 m -9 Y s 1884 493 m -9 Y s 1923 493 m -9 Y s 1962 502 m -18 Y s 2000 493 m -9 Y s 2039 493 m -9 Y s
 2077 493 m -9 Y s 2116 493 m -9 Y s 2154 502 m -18 Y s
 gsave  2268 1103 0 472 C 2143.38 402.623 t 0 r /Helvetica findfont 29.6365 sf 0 0 m (\)) show NC gr 
 gsave  2268 1103 0 472 C 2093.05 402.623 t 0 r /Helvetica-Oblique findfont 29.6365 sf 0 0 m (tHq) show NC gr 
 gsave  2268 1103 0 472 C 2024.96 402.623 t 0 r /Helvetica findfont 29.6365 sf 0 0 m (BDT\() show NC gr  227 1520 m 1927 X s 227 1501 m 19 Y s 265 1510 m 10 Y s 304 1510 m 10 Y s 342 1510 m 10 Y s 381 1510 m 10 Y s 420 1501 m 19 Y s 458 1510 m 10 Y s
 497 1510 m 10 Y s 535 1510 m 10 Y s 574 1510 m 10 Y s 612 1501 m 19 Y s 651 1510 m 10 Y s 689 1510 m 10 Y s 728 1510 m 10 Y s 766 1510 m 10 Y s 805 1501 m 19 Y s 844 1510 m 10 Y s 882 1510 m 10 Y s 921 1510 m 10 Y s 959 1510 m 10 Y s 998 1501 m 19 Y
 s 1036 1510 m 10 Y s 1075 1510 m 10 Y s 1113 1510 m 10 Y s 1152 1510 m 10 Y s 1191 1501 m 19 Y s 1229 1510 m 10 Y s 1268 1510 m 10 Y s 1306 1510 m 10 Y s 1345 1510 m 10 Y s 1383 1501 m 19 Y s 1422 1510 m 10 Y s 1460 1510 m 10 Y s 1499 1510 m 10 Y s
 1538 1510 m 10 Y s 1576 1501 m 19 Y s 1615 1510 m 10 Y s 1653 1510 m 10 Y s 1692 1510 m 10 Y s 1730 1510 m 10 Y s 1769 1501 m 19 Y s 1807 1510 m 10 Y s 1846 1510 m 10 Y s 1884 1510 m 10 Y s 1923 1510 m 10 Y s 1962 1501 m 19 Y s 2000 1510 m 10 Y s
 2039 1510 m 10 Y s 2077 1510 m 10 Y s 2116 1510 m 10 Y s 2154 1501 m 19 Y s 227 484 m 1036 Y s 248 577 m -21 X s 237 600 m -10 X s 237 623 m -10 X s 237 647 m -10 X s 248 670 m -21 X s 237 693 m -10 X s 237 716 m -10 X s 237 740 m -10 X s 248 763 m
 -21 X s 237 786 m -10 X s 237 810 m -10 X s 237 833 m -10 X s 248 856 m -21 X s 237 879 m -10 X s 237 903 m -10 X s 237 926 m -10 X s 248 949 m -21 X s 237 973 m -10 X s 237 996 m -10 X s 237 1019 m -10 X s 248 1043 m -21 X s 237 1066 m -10 X s 237
 1089 m -10 X s 237 1112 m -10 X s 248 1136 m -21 X s 237 1159 m -10 X s 237 1182 m -10 X s 237 1206 m -10 X s 248 1229 m -21 X s 237 1252 m -10 X s 237 1275 m -10 X s 237 1299 m -10 X s 248 1322 m -21 X s 237 1345 m -10 X s 237 1369 m -10 X s 237
 1392 m -10 X s 248 1415 m -21 X s 237 1439 m -10 X s 237 1462 m -10 X s 237 1485 m -10 X s 248 1508 m -21 X s 248 577 m -21 X s 237 553 m -10 X s 237 530 m -10 X s 237 507 m -10 X s 248 1508 m -21 X s
 gsave  2268 1103 0 472 C 118.419 556.568 t 0 r /Helvetica findfont 50.382 sf 0 0 m (200) show NC gr 
 gsave  2268 1103 0 472 C 118.419 651.302 t 0 r /Helvetica findfont 50.382 sf 0 0 m (400) show NC gr 
 gsave  2268 1103 0 472 C 118.419 743.077 t 0 r /Helvetica findfont 50.382 sf 0 0 m (600) show NC gr 
 gsave  2268 1103 0 472 C 118.419 837.812 t 0 r /Helvetica findfont 50.382 sf 0 0 m (800) show NC gr 
 gsave  2268 1103 0 472 C 91.7744 929.586 t 0 r /Helvetica findfont 50.382 sf 0 0 m (1000) show NC gr 
 gsave  2268 1103 0 472 C 91.7744 1024.32 t 0 r /Helvetica findfont 50.382 sf 0 0 m (1200) show NC gr 
 gsave  2268 1103 0 472 C 91.7744 1116.1 t 0 r /Helvetica findfont 50.382 sf 0 0 m (1400) show NC gr 
 gsave  2268 1103 0 472 C 91.7744 1210.83 t 0 r /Helvetica findfont 50.382 sf 0 0 m (1600) show NC gr 
 gsave  2268 1103 0 472 C 91.7744 1302.6 t 0 r /Helvetica findfont 50.382 sf 0 0 m (1800) show NC gr 
 gsave  2268 1103 0 472 C 91.7744 1397.34 t 0 r /Helvetica findfont 50.382 sf 0 0 m (2000) show NC gr 
 gsave  2268 1103 0 472 C 91.7744 1489.11 t 0 r /Helvetica findfont 50.382 sf 0 0 m (2200) show NC gr 
 gsave  2268 1103 0 472 C 62.1698 1367.74 t 90 r /Helvetica findfont 50.382 sf 0 0 m (Events) show NC gr  2154 484 m 1036 Y s 2133 577 m 21 X s 2144 600 m 10 X s 2144 623 m 10 X s 2144 647 m 10 X s 2133 670 m 21 X s 2144 693 m 10 X s 2144 716 m 10 X
 s 2144 740 m 10 X s 2133 763 m 21 X s 2144 786 m 10 X s 2144 810 m 10 X s 2144 833 m 10 X s 2133 856 m 21 X s 2144 879 m 10 X s 2144 903 m 10 X s 2144 926 m 10 X s 2133 949 m 21 X s 2144 973 m 10 X s 2144 996 m 10 X s 2144 1019 m 10 X s 2133 1043 m
 21 X s 2144 1066 m 10 X s 2144 1089 m 10 X s 2144 1112 m 10 X s 2133 1136 m 21 X s 2144 1159 m 10 X s 2144 1182 m 10 X s 2144 1206 m 10 X s 2133 1229 m 21 X s 2144 1252 m 10 X s 2144 1275 m 10 X s 2144 1299 m 10 X s 2133 1322 m 21 X s 2144 1345 m 10
 X s 2144 1369 m 10 X s 2144 1392 m 10 X s 2133 1415 m 21 X s 2144 1439 m 10 X s 2144 1462 m 10 X s 2144 1485 m 10 X s 2133 1508 m 21 X s 2133 577 m 21 X s 2144 553 m 10 X s 2144 530 m 10 X s 2144 507 m 10 X s 2133 1508 m 21 X s 0.4 0.6 0.4 c black 3
 lw 0.4 0.6 0.4 c 227 484 m 414 Y 193 X -137 Y 192 X -69 Y 193 X -50 Y 193 X -26 Y 193 X -25 Y 192 X -19 Y 193 X -16 Y 193 X -24 Y 193 X -34 Y 192 X -14 Y f 0.06 0.54 0.06 c 0.999 0.999 0.999 c black 3 lw 0.999 0.999 0.999 c 227 484 m 365 Y 193 X
 -158 Y 192 X -67 Y 193 X -43 Y 193 X -19 Y 193 X -18 Y 192 X -14 Y 193 X -9 Y 193 X -13 Y 193 X -17 Y 192 X -7 Y f 0.06 0.54 0.06 c 0.999 0.999 0.999 c 0.06 0.54 0.06 c 1 1 1 c black 0.06 0.54 0.06 c black 3 lw 0.06 0.54 0.06 c 227 484 m 365 Y 193 X
 -158 Y 192 X -67 Y 193 X -43 Y 193 X -19 Y 193 X -18 Y 192 X -14 Y 193 X -9 Y 193 X -13 Y 193 X -17 Y 192 X -7 Y f 1 0.653333 0 c 0.999 0.999 0.999 c black 3 lw 0.999 0.999 0.999 c 227 484 m 258 Y 193 X -113 Y 192 X -40 Y 193 X -31 Y 193 X -16 Y 193
 X -11 Y 192 X -10 Y 193 X -8 Y 193 X -9 Y 193 X -14 Y 192 X -6 Y f 1 0.653333 0 c 0.999 0.999 0.999 c 1 0.653333 0 c 1 1 1 c black 1 0.653333 0 c black 3 lw 1 0.653333 0 c 227 484 m 258 Y 193 X -113 Y 192 X -40 Y 193 X -31 Y 193 X -16 Y 193 X -11 Y
 192 X -10 Y 193 X -8 Y 193 X -9 Y 193 X -14 Y 192 X -6 Y f 0.413333 1 0 c 0.999 0.999 0.999 c black 3 lw 0.999 0.999 0.999 c 227 484 m 146 Y 193 X -12 Y 192 X -36 Y 193 X -25 Y 193 X -16 Y 193 X -11 Y 192 X -9 Y 193 X -9 Y 193 X -9 Y 193 X -13 Y 192
 X -6 Y f 0.413333 1 0 c 0.999 0.999 0.999 c 0.413333 1 0 c 1 1 1 c black 0.413333 1 0 c black 3 lw 0.413333 1 0 c 227 484 m 146 Y 193 X -12 Y 192 X -36 Y 193 X -25 Y 193 X -16 Y 193 X -11 Y 192 X -9 Y 193 X -9 Y 193 X -9 Y 193 X -13 Y 192 X -6 Y f
 0.6 0.2 1 c 0.999 0.999 0.999 c black 3 lw 0.999 0.999 0.999 c 227 484 m 121 Y 193 X -10 Y 192 X -32 Y 193 X -21 Y 193 X -14 Y 193 X -9 Y 192 X -8 Y 193 X -6 Y 193 X -6 Y 193 X -10 Y 192 X -5 Y f 0.6 0.2 1 c 0.999 0.999 0.999 c 0.6 0.2 1 c 1 1 1 c
 black 0.6 0.2 1 c black 3 lw 0.6 0.2 1 c 227 484 m 121 Y 193 X -10 Y 192 X -32 Y 193 X -21 Y 193 X -14 Y 193 X -9 Y 192 X -8 Y 193 X -6 Y 193 X -6 Y 193 X -10 Y 192 X -5 Y f 0.54 0.06 0.06 c 0.999 0.999 0.999 c black 3 lw 0.999 0.999 0.999 c 227 484
 m 104 Y 193 X -9 Y 192 X -27 Y 193 X -19 Y 193 X -12 Y 193 X -7 Y 192 X -7 Y 193 X -5 Y 193 X -5 Y 193 X -9 Y 192 X -4 Y f 0.54 0.06 0.06 c 0.999 0.999 0.999 c 0.54 0.06 0.06 c 1 1 1 c black 0.54 0.06 0.06 c black 3 lw 0.54 0.06 0.06 c 227 484 m 104
 Y 193 X -9 Y 192 X -27 Y 193 X -19 Y 193 X -12 Y 193 X -7 Y 192 X -7 Y 193 X -5 Y 193 X -5 Y 193 X -9 Y 192 X -4 Y f 1 0 1 c 0.999 0.999 0.999 c black 3 lw 0.999 0.999 0.999 c 227 484 m 18 Y 193 X 2 Y 192 X -4 Y 193 X -3 Y 193 X -2 Y 193 X -1 Y 192
 X -1 Y 193 X -1 Y 193 X -1 Y 193 X -4 Y 192 X -3 Y f 1 0 1 c 0.999 0.999 0.999 c 1 0 1 c 1 1 1 c black 1 0 1 c black 3 lw 1 0 1 c 227 484 m 18 Y 193 X 2 Y 192 X -4 Y 193 X -3 Y 193 X -2 Y 193 X -1 Y 192 X -1 Y 193 X -1 Y 193 X -1 Y 193 X -4 Y 192 X
 -3 Y f 0 0 1 c 0.999 0.999 0.999 c black 3 lw 0.999 0.999 0.999 c 227 484 m 16 Y 193 X 2 Y 192 X -5 Y 193 X -4 Y 193 X -2 Y 193 X -1 Y 192 X -2 Y 193 X -1 Y 193 X -1 Y 193 X -1 Y 192 X -1 Y f 0 0 1 c 0.999 0.999 0.999 c 0 0 1 c 1 1 1 c black 0 0 1 c
 black 3 lw 0 0 1 c 227 484 m 16 Y 193 X 2 Y 192 X -5 Y 193 X -4 Y 193 X -2 Y 193 X -1 Y 192 X -2 Y 193 X -1 Y 193 X -1 Y 193 X -1 Y 192 X -1 Y f 0.2 0.8 0.8 c 0.999 0.999 0.999 c black 3 lw 0.999 0.999 0.999 c 227 484 m 5 Y 193 X -1 Y 192 X -1 Y 193
 X -1 Y 578 X -1 Y 579 X -1 Y 192 X f 0.2 0.8 0.8 c 0.999 0.999 0.999 c 0.2 0.8 0.8 c 1 1 1 c black 0.2 0.8 0.8 c black 3 lw 0.2 0.8 0.8 c 227 484 m 5 Y 193 X -1 Y 192 X -1 Y 193 X -1 Y 578 X -1 Y 579 X -1 Y 192 X f 1 0 0 c 0.999 0.999 0.999 c black
 3 lw 0.999 0.999 0.999 c 227 484 m 3 Y 193 X -1 Y 385 X -1 Y 578 X -1 Y 771 X f 1 0 0 c 0.999 0.999 0.999 c 1 0 0 c 1 1 1 c black 1 0 0 c black 3 lw 1 0 0 c 227 484 m 3 Y 193 X -1 Y 385 X -1 Y 578 X -1 Y 771 X f 1 0.84 0 c 0.999 0.999 0.999 c black
 3 lw 0.999 0.999 0.999 c 227 484 m 3 Y 193 X -1 Y 385 X -2 Y 193 X 1 Y 385 X -1 Y 771 X f 1 0.84 0 c 0.999 0.999 0.999 c 1 0.84 0 c 1 1 1 c black 1 0.84 0 c black 3 lw 1 0.84 0 c 227 484 m 3 Y 193 X -1 Y 385 X -2 Y 193 X 1 Y 385 X -1 Y 771 X f black
 1 1 1 c black 0.6 0.6 0.6 c 3 lw 420 891 m -3 -2 d s 416 907 m -18 -18 d s 397 907 m -18 -18 d s 377 907 m -17 -18 d s 358 907 m -18 -18 d s 339 907 m -18 -18 d s 320 907 m -18 -18 d s 301 907 m -18 -18 d s 281 907 m -18 -18 d s 262 907 m -18 -18 d
 s 243 907 m -16 -16 d s 3 lw 601 765 m -8 -8 d s 582 765 m -8 -8 d s 563 765 m -8 -8 d s 543 765 m -8 -8 d s 524 765 m -8 -8 d s 505 765 m -8 -8 d s 486 765 m -8 -8 d s 467 765 m -9 -8 d s 447 765 m -8 -8 d s 428 765 m -8 -8 d s 3 lw 799 694 m -5 -5
 d s 780 694 m -5 -5 d s 761 694 m -5 -5 d s 741 694 m -4 -5 d s 722 694 m -5 -5 d s 703 694 m -5 -5 d s 684 694 m -5 -5 d s 664 694 m -4 -5 d s 645 694 m -5 -5 d s 626 694 m -5 -5 d s 3 lw 998 643 m -3 -3 d s 981 645 m -5 -5 d s 961 645 m -4 -5 d s
 942 645 m -4 -5 d s 923 645 m -5 -5 d s 904 645 m -5 -5 d s 884 645 m -4 -5 d s 865 645 m -4 -5 d s 846 645 m -5 -5 d s 827 645 m -5 -5 d s 807 645 m -2 -3 d s 3 lw 1185 618 m -4 -4 d s 1165 618 m -3 -4 d s 1146 618 m -3 -4 d s 1127 618 m -4 -4 d s
 1108 618 m -4 -4 d s 1088 618 m -3 -4 d s 1069 618 m -3 -4 d s 1050 618 m -4 -4 d s 1031 618 m -4 -4 d s 1011 618 m -3 -4 d s 3 lw 1371 592 m -3 -3 d s 1351 592 m -2 -3 d s 1332 592 m -3 -3 d s 1313 592 m -3 -3 d s 1294 592 m -3 -3 d s 1274 592 m -2
 -3 d s 1255 592 m -3 -3 d s 1236 592 m -3 -3 d s 1217 592 m -3 -3 d s 1198 592 m -3 -3 d s 3 lw 1563 573 m -2 -3 d s 1544 573 m -3 -3 d s 1524 573 m -2 -3 d s 1505 573 m -2 -3 d s 1486 573 m -2 -3 d s 1467 573 m -3 -3 d s 1447 573 m -2 -3 d s 1428
 573 m -2 -3 d s 1409 573 m -2 -3 d s 1390 573 m -3 -3 d s 3 lw 1758 557 m -2 -2 d s 1739 557 m -2 -2 d s 1720 557 m -2 -2 d s 1701 557 m -2 -2 d s 1681 557 m -2 -2 d s 1662 557 m -2 -2 d s 1643 557 m -2 -2 d s 1624 557 m -2 -2 d s 1604 557 m -2 -2 d
 s 1585 557 m -2 -2 d s 3 lw 1946 533 m -1 -1 d s 1927 533 m -1 -1 d s 1908 533 m -2 -1 d s 1889 533 m -2 -1 d s 1869 533 m -1 -1 d s 1850 533 m -1 -1 d s 1831 533 m -2 -1 d s 1812 533 m -2 -1 d s 1793 533 m -2 -1 d s 1773 533 m -1 -1 d s 3 lw 2143
 498 m -1 X s 2123 498 m s 2104 498 m -1 X s 2085 498 m -1 X s 2066 498 m -1 X s 2046 498 m s 2027 498 m -1 X s 2008 498 m -1 X s 1989 498 m -1 X s 1969 498 m s black 3 lw 1 1 1 c black 323 917 m 2 Y s 323 943 m 3 Y s /w 24 def /w2 {w 2 div} def /w3
 {w 3 div} def 323 931 m20 516 766 m20 709 678 m20 901 626 m20 1094 609 m20 1287 582 m20 1480 564 m20 1672 548 m20 1865 528 m20 2058 499 m20 227 484 m 1927 X s 227 502 m -18 Y s 265 493 m -9 Y s 304 493 m -9 Y s 342 493 m -9 Y s 381 493 m -9 Y s 420
 502 m -18 Y s 458 493 m -9 Y s 497 493 m -9 Y s 535 493 m -9 Y s 574 493 m -9 Y s 612 502 m -18 Y s 651 493 m -9 Y s 689 493 m -9 Y s 728 493 m -9 Y s 766 493 m -9 Y s 805 502 m -18 Y s 844 493 m -9 Y s 882 493 m -9 Y s 921 493 m -9 Y s 959 493 m -9
 Y s 998 502 m -18 Y s 1036 493 m -9 Y s 1075 493 m -9 Y s 1113 493 m -9 Y s 1152 493 m -9 Y s 1191 502 m -18 Y s 1229 493 m -9 Y s 1268 493 m -9 Y s 1306 493 m -9 Y s 1345 493 m -9 Y s 1383 502 m -18 Y s 1422 493 m -9 Y s 1460 493 m -9 Y s 1499 493
 m -9 Y s 1538 493 m -9 Y s 1576 502 m -18 Y s 1615 493 m -9 Y s 1653 493 m -9 Y s 1692 493 m -9 Y s 1730 493 m -9 Y s 1769 502 m -18 Y s 1807 493 m -9 Y s 1846 493 m -9 Y s 1884 493 m -9 Y s 1923 493 m -9 Y s 1962 502 m -18 Y s 2000 493 m -9 Y s
 2039 493 m -9 Y s 2077 493 m -9 Y s 2116 493 m -9 Y s 2154 502 m -18 Y s 227 1520 m 1927 X s 227 1501 m 19 Y s 265 1510 m 10 Y s 304 1510 m 10 Y s 342 1510 m 10 Y s 381 1510 m 10 Y s 420 1501 m 19 Y s 458 1510 m 10 Y s 497 1510 m 10 Y s 535 1510 m
 10 Y s 574 1510 m 10 Y s 612 1501 m 19 Y s 651 1510 m 10 Y s 689 1510 m 10 Y s 728 1510 m 10 Y s 766 1510 m 10 Y s 805 1501 m 19 Y s 844 1510 m 10 Y s 882 1510 m 10 Y s 921 1510 m 10 Y s 959 1510 m 10 Y s 998 1501 m 19 Y s 1036 1510 m 10 Y s 1075
 1510 m 10 Y s 1113 1510 m 10 Y s 1152 1510 m 10 Y s 1191 1501 m 19 Y s 1229 1510 m 10 Y s 1268 1510 m 10 Y s 1306 1510 m 10 Y s 1345 1510 m 10 Y s 1383 1501 m 19 Y s 1422 1510 m 10 Y s 1460 1510 m 10 Y s 1499 1510 m 10 Y s 1538 1510 m 10 Y s 1576
 1501 m 19 Y s 1615 1510 m 10 Y s 1653 1510 m 10 Y s 1692 1510 m 10 Y s 1730 1510 m 10 Y s 1769 1501 m 19 Y s 1807 1510 m 10 Y s 1846 1510 m 10 Y s 1884 1510 m 10 Y s 1923 1510 m 10 Y s 1962 1501 m 19 Y s 2000 1510 m 10 Y s 2039 1510 m 10 Y s 2077
 1510 m 10 Y s 2116 1510 m 10 Y s 2154 1501 m 19 Y s 227 484 m 1036 Y s 248 577 m -21 X s 237 600 m -10 X s 237 623 m -10 X s 237 647 m -10 X s 248 670 m -21 X s 237 693 m -10 X s 237 716 m -10 X s 237 740 m -10 X s 248 763 m -21 X s 237 786 m -10 X
 s 237 810 m -10 X s 237 833 m -10 X s 248 856 m -21 X s 237 879 m -10 X s 237 903 m -10 X s 237 926 m -10 X s 248 949 m -21 X s 237 973 m -10 X s 237 996 m -10 X s 237 1019 m -10 X s 248 1043 m -21 X s 237 1066 m -10 X s 237 1089 m -10 X s 237 1112
 m -10 X s 248 1136 m -21 X s 237 1159 m -10 X s 237 1182 m -10 X s 237 1206 m -10 X s 248 1229 m -21 X s 237 1252 m -10 X s 237 1275 m -10 X s 237 1299 m -10 X s 248 1322 m -21 X s 237 1345 m -10 X s 237 1369 m -10 X s 237 1392 m -10 X s 248 1415 m
 -21 X s 237 1439 m -10 X s 237 1462 m -10 X s 237 1485 m -10 X s 248 1508 m -21 X s 248 577 m -21 X s 237 553 m -10 X s 237 530 m -10 X s 237 507 m -10 X s 248 1508 m -21 X s 2154 484 m 1036 Y s 2133 577 m 21 X s 2144 600 m 10 X s 2144 623 m 10 X s
 2144 647 m 10 X s 2133 670 m 21 X s 2144 693 m 10 X s 2144 716 m 10 X s 2144 740 m 10 X s 2133 763 m 21 X s 2144 786 m 10 X s 2144 810 m 10 X s 2144 833 m 10 X s 2133 856 m 21 X s 2144 879 m 10 X s 2144 903 m 10 X s 2144 926 m 10 X s 2133 949 m 21 X
 s 2144 973 m 10 X s 2144 996 m 10 X s 2144 1019 m 10 X s 2133 1043 m 21 X s 2144 1066 m 10 X s 2144 1089 m 10 X s 2144 1112 m 10 X s 2133 1136 m 21 X s 2144 1159 m 10 X s 2144 1182 m 10 X s 2144 1206 m 10 X s 2133 1229 m 21 X s 2144 1252 m 10 X s
 2144 1275 m 10 X s 2144 1299 m 10 X s 2133 1322 m 21 X s 2144 1345 m 10 X s 2144 1369 m 10 X s 2144 1392 m 10 X s 2133 1415 m 21 X s 2144 1439 m 10 X s 2144 1462 m 10 X s 2144 1485 m 10 X s 2133 1508 m 21 X s 2133 577 m 21 X s 2144 553 m 10 X s 2144
 530 m 10 X s 2144 507 m 10 X s 2133 1508 m 21 X s
 gsave  2268 1103 0 472 C 1314.45 1432.87 t 0 r /Helvetica findfont 56.3093 sf 0 0 m ( Data) show NC gr  1259 1456 m 7 Y s 1259 1432 m -7 Y s 1259 1444 m20
 gsave  2268 1103 0 472 C 1776.28 1432.87 t 0 r /Helvetica findfont 56.3093 sf 0 0 m ( Fakes \(MM\)) show NC gr  0.4 0.6 0.4 c 1682 1422 m 79 X 44 Y -79 X f black
 gsave  2268 1103 0 472 C 1403.26 1367.74 t 0 r /Helvetica findfont 56.3093 sf 0 0 m (single\255top) show NC gr 
 gsave  2268 1103 0 472 C 1373.66 1367.74 t 0 r /Helvetica-Oblique findfont 56.3093 sf 0 0 m (/) show NC gr 
 gsave  2268 1103 0 472 C 1352.93 1367.74 t 0 r /Helvetica-Oblique findfont 56.3093 sf 0 0 m (t) show NC gr  6 lw 1353 1412 m 21 X s
 gsave  2268 1103 0 472 C 1332.21 1367.74 t 0 r /Helvetica-Oblique findfont 56.3093 sf 0 0 m (t) show NC gr 
 gsave  2268 1103 0 472 C 1314.45 1367.74 t 0 r /Helvetica findfont 56.3093 sf 0 0 m ( ) show NC gr  0.06 0.54 0.06 c 3 lw 1219 1359 m 79 X 44 Y -79 X f 6 lw black
 gsave  2268 1103 0 472 C 1906.54 1367.74 t 0 r /Helvetica findfont 56.3093 sf 0 0 m (+jets) show NC gr 
 gsave  2268 1103 0 472 C 1794.04 1367.74 t 0 r /Helvetica-Oblique findfont 56.3093 sf 0 0 m (W/Z) show NC gr 
 gsave  2268 1103 0 472 C 1776.28 1367.74 t 0 r /Helvetica findfont 56.3093 sf 0 0 m ( ) show NC gr  1 0.653333 0 c 3 lw 1682 1359 m 79 X 44 Y -79 X f black
 gsave  2268 1103 0 472 C 1512.8 1305.57 t 0 r /Helvetica findfont 56.3093 sf 0 0 m (+jets) show NC gr 
 gsave  2268 1103 0 472 C 1332.21 1305.57 t 0 r /Helvetica-Oblique findfont 56.3093 sf 0 0 m (WZ/ZZ) show NC gr 
 gsave  2268 1103 0 472 C 1314.45 1305.57 t 0 r /Helvetica findfont 56.3093 sf 0 0 m ( ) show NC gr  0.413333 1 0 c 3 lw 1219 1296 m 79 X 44 Y -79 X f black
 gsave  2268 1103 0 472 C 1835.49 1305.57 t 0 r /Helvetica-Oblique findfont 56.3093 sf 0 0 m (Z) show NC gr 
 gsave  2268 1103 0 472 C 1814.77 1305.57 t 0 r /Helvetica-Oblique findfont 56.3093 sf 0 0 m (t) show NC gr  6 lw 1815 1350 m 20 X s
 gsave  2268 1103 0 472 C 1794.04 1305.57 t 0 r /Helvetica-Oblique findfont 56.3093 sf 0 0 m (t) show NC gr 
 gsave  2268 1103 0 472 C 1776.28 1305.57 t 0 r /Helvetica findfont 56.3093 sf 0 0 m ( ) show NC gr  0.6 0.2 1 c 3 lw 1682 1296 m 79 X 44 Y -79 X f 6 lw black
 gsave  2268 1103 0 472 C 1373.66 1243.4 t 0 r /Helvetica-Oblique findfont 56.3093 sf 0 0 m (W) show NC gr 
 gsave  2268 1103 0 472 C 1352.93 1243.4 t 0 r /Helvetica-Oblique findfont 56.3093 sf 0 0 m (t) show NC gr  6 lw 1353 1288 m 21 X s
 gsave  2268 1103 0 472 C 1332.21 1243.4 t 0 r /Helvetica-Oblique findfont 56.3093 sf 0 0 m (t) show NC gr 
 gsave  2268 1103 0 472 C 1314.45 1243.4 t 0 r /Helvetica findfont 56.3093 sf 0 0 m ( ) show NC gr  0.54 0.06 0.06 c 3 lw 1219 1233 m 79 X 44 Y -79 X f 6 lw black
 gsave  2268 1103 0 472 C 1794.04 1243.4 t 0 r /Helvetica-Oblique findfont 56.3093 sf 0 0 m (tZq) show NC gr 
 gsave  2268 1103 0 472 C 1776.28 1243.4 t 0 r /Helvetica findfont 56.3093 sf 0 0 m ( ) show NC gr  1 0 1 c 3 lw 1682 1233 m 79 X 44 Y -79 X f black
 gsave  2268 1103 0 472 C 1373.66 1178.27 t 0 r /Helvetica-Oblique findfont 56.3093 sf 0 0 m (H) show NC gr 
 gsave  2268 1103 0 472 C 1352.93 1178.27 t 0 r /Helvetica-Oblique findfont 56.3093 sf 0 0 m (t) show NC gr  6 lw 1353 1223 m 21 X s
 gsave  2268 1103 0 472 C 1332.21 1178.27 t 0 r /Helvetica-Oblique findfont 56.3093 sf 0 0 m (t) show NC gr 
 gsave  2268 1103 0 472 C 1314.45 1178.27 t 0 r /Helvetica findfont 56.3093 sf 0 0 m ( ) show NC gr  0 0 1 c 3 lw 1219 1170 m 79 X 44 Y -79 X f 6 lw black
 gsave  2268 1103 0 472 C 1794.04 1178.27 t 0 r /Helvetica-Oblique findfont 56.3093 sf 0 0 m (tWZ/tWH) show NC gr 
 gsave  2268 1103 0 472 C 1776.28 1178.27 t 0 r /Helvetica findfont 56.3093 sf 0 0 m ( ) show NC gr  0.2 0.8 0.8 c 3 lw 1682 1170 m 79 X 44 Y -79 X f black
 gsave  2268 1103 0 472 C 1332.21 1116.1 t 0 r /Helvetica-Oblique findfont 56.3093 sf 0 0 m (tHq) show NC gr 
 gsave  2268 1103 0 472 C 1314.45 1116.1 t 0 r /Helvetica findfont 56.3093 sf 0 0 m ( ) show NC gr  1 0 0 c 3 lw 1219 1107 m 79 X 44 Y -79 X f black
 gsave  2268 1103 0 472 C 1776.28 1116.1 t 0 r /Helvetica findfont 56.3093 sf 0 0 m ( Other) show NC gr  1 0.84 0 c 3 lw 1682 1107 m 79 X 44 Y -79 X f black
 gsave  2268 1103 0 472 C 1314.45 1053.93 t 0 r /Helvetica findfont 56.3093 sf 0 0 m ( Uncertainty) show NC gr  0.6 0.6 0.6 c 3 lw 1298 1058 m -13 -14 d s 1298 1077 m -33 -33 d s 1290 1088 m -44 -44 d s 1271 1088 m -44 -44 d s 1252 1088 m -33 -33 d s
 1233 1088 m -14 -13 d s 1 0.84 0 c 0.6 0.6 0.6 c black
 gsave  2268 1103 0 472 C 894.061 1329.25 t 0 r /Helvetica findfont 41.4911 sf 0 0 m (\2551) show NC gr 
 gsave  2268 1103 0 472 C 399.663 1299.64 t 0 r /Helvetica findfont 62.2366 sf 0 0 m ( = 13 TeV,  139 fb) show NC gr 
 gsave  2268 1103 0 472 C 370.058 1299.64 t 0 r /Helvetica findfont 62.2366 sf 0 0 m (s) show NC gr  6 lw 349 1335 m 6 -38 d s 3 lw 355 1297 m 6 56 d s 361 1353 m 39 X s
 gsave  2268 1103 0 472 C 337.493 1201.95 t 0 r /Helvetica findfont 62.2366 sf 0 0 m ( 2L\(SS\) pre\255selection) show NC gr 
 gsave  2268 1103 0 472 C 337.493 1400.3 t 0 r /Helvetica-BoldOblique findfont 71.1276 sf 0 0 m (ATLAS) show NC gr 
 gsave  2268 1103 0 472 C 633.54 1400.3 t 0 r /Helvetica findfont 71.1276 sf 0 0 m (Internal) show NC gr 
 gr  gr showpage
end
%%EOF
