%!PS-Adobe-2.0 EPSF-2.0
%%BoundingBox:  0 0 567 394
%%Title: /lhome/ific/c/cardillo/tHq/Plots/Plots-30-05-22-PLIV-SF/2LSS_MM/BDTttW_Pre.eps: BDTttW_Pre
%%Creator: ROOT Version 6.20/06
%%CreationDate: Mon May 30 19:25:22 2022
%%DocumentNeededResources: ProcSet (FontSetInit)
%%EndComments
%%BeginProlog
80 dict begin
/s {stroke} def /l {lineto} def /m {moveto} def /t {translate} def
/r {rotate} def /rl {roll}  def /R {repeat} def
/d {rlineto} def /rm {rmoveto} def /gr {grestore} def /f {eofill} def
/c {setrgbcolor} def /black {0 setgray} def /sd {setdash} def
/cl {closepath} def /sf {scalefont setfont} def /lw {setlinewidth} def
/box {m dup 0 exch d exch 0 d 0 exch neg d cl} def
/NC{systemdict begin initclip end}def/C{NC box clip newpath}def
/bl {box s} def /bf {gsave box gsave f grestore 1 lw [] 0 sd s grestore} def /Y { 0 exch d} def /X { 0 d} def 
/K {{pop pop 0 moveto} exch kshow} bind def
/ita {/ang 15 def gsave [1 0 ang dup sin exch cos div 1 0 0] concat} def 
/mp {newpath /y exch def /x exch def} def
/side {[w .77 mul w .23 mul] .385 w mul sd w 0 l currentpoint t -144 r} def
/mr {mp x y w2 0 360 arc} def /m24 {mr s} def /m20 {mr f} def
/mb {mp x y w2 add m w2 neg 0 d 0 w neg d w 0 d 0 w d cl} def
/mt {mp x y w2 add m w2 neg w neg d w 0 d cl} def
/w4 {w 4 div} def
/w6 {w 6 div} def
/w8 {w 8 div} def
/m21 {mb f} def /m25 {mb s} def /m22 {mt f} def /m26{mt s} def
/m23 {mp x y w2 sub m w2 w d w neg 0 d cl f} def
/m27 {mp x y w2 add m w3 neg w2 neg d w3 w2 neg d w3 w2 d cl s} def
/m28 {mp x w2 sub y w2 sub w3 add m w3 0 d  0 w3 neg d w3 0 d 0 w3 d w3 0 d  0 w3 d w3 neg 0 d 0 w3 d w3 neg 0 d 0 w3 neg d w3 neg 0 d cl s } def
/m29 {mp gsave x w2 sub y w2 add w3 sub m currentpoint t 4 {side} repeat cl fill gr} def
/m30 {mp gsave x w2 sub y w2 add w3 sub m currentpoint t 4 {side} repeat cl s gr} def
/m31 {mp x y w2 sub m 0 w d x w2 sub y m w 0 d x w2 sub y w2 add m w w neg d x w2 sub y w2 sub m w w d s} def
/m32 {mp x y w2 sub m w2 w d w neg 0 d cl s} def
/m33 {mp x y w2 add m w3 neg w2 neg d w3 w2 neg d w3 w2 d cl f} def
/m34 {mp x w2 sub y w2 sub w3 add m w3 0 d  0 w3 neg d w3 0 d 0 w3 d w3 0 d  0 w3 d w3 neg 0 d 0 w3 d w3 neg 0 d 0 w3 neg d w3 neg 0 d cl f } def
/m35 {mp x y w2 add m w2 neg w2 neg d w2 w2 neg d w2 w2 d w2 neg w2 d x y w2 sub m 0 w d x w2 sub y m w 0 d s} def
/m36 {mb x w2 sub y w2 add m w w neg d x w2 sub y w2 sub m w w d s} def
/m37 {mp x y m w4 neg w2 d w4 neg w2 neg d w2 0 d  w4 neg w2 neg d w2 0 d w4 neg w2 d w2 0 d w4 neg w2 d w4 neg w2 neg d cl s} def
/m38 {mp x w4 sub y w2 add m w4 neg w4 neg d 0 w2 neg d w4 w4 neg d w2 0 d w4 w4 d 0 w2 d w4 neg w4 d w2 neg 0 d x y w2 sub m 0 w d x w2 sub y m w 0 d cl s} def
/m39 {mp x y m w4 neg w2 d w4 neg w2 neg d w2 0 d  w4 neg w2 neg d w2 0 d w4 neg w2 d w2 0 d w4 neg w2 d w4 neg w2 neg d cl f} def
/m40 {mp x y m w4 w2 d w4 w4 neg d w2 neg w4 neg d w2 w4 neg d w4 neg w4 neg d w4 neg w2 d w4 neg w2 neg d w4 neg w4 d w2 w4 d w2 neg w4 d w4 w4 d w4 w2 neg d cl s} def
/m41 {mp x y m w4 w2 d w4 w4 neg d w2 neg w4 neg d w2 w4 neg d w4 neg w4 neg d w4 neg w2 d w4 neg w2 neg d w4 neg w4 d w2 w4 d w2 neg w4 d w4 w4 d w4 w2 neg d cl f} def
/m42 {mp x y w2 add m w8 neg w2 -3 4 div mul d w2 -3 4 div mul w8 neg d w2 3 4 div mul w8 neg d w8 w2 -3 4 div mul d w8 w2 3 4 div mul d w2 3 4 div mul w8 d w2 -3 4 div mul w8 d w8 neg w2 3 4 div mul d cl s} def
/m43 {mp x y w2 add m w8 neg w2 -3 4 div mul d w2 -3 4 div mul w8 neg d w2 3 4 div mul w8 neg d w8 w2 -3 4 div mul d w8 w2 3 4 div mul d w2 3 4 div mul w8 d w2 -3 4 div mul w8 d w8 neg w2 3 4 div mul d cl f} def
/m44 {mp x y m w6 neg w2 d w2 2 3 div mul 0 d w6 neg w2 neg d w2 w6 d 0 w2 -2 3 div mul d w2 neg w6 d w6 w2 neg d w2 -2 3 div mul 0 d w6 w2 d w2 neg w6 neg d 0 w2 2 3 div mul d w2 w6 neg d cl s} def
/m45 {mp x y m w6 neg w2 d w2 2 3 div mul 0 d w6 neg w2 neg d w2 w6 d 0 w2 -2 3 div mul d w2 neg w6 d w6 w2 neg d w2 -2 3 div mul 0 d w6 w2 d w2 neg w6 neg d 0 w2 2 3 div mul d w2 w6 neg d cl f} def
/m46 {mp x y w4 add m w4 neg w4 d w4 neg w4 neg d  w4 w4 neg d w4 neg w4 neg d w4 w4 neg d w4 w4 d w4 w4 neg d w4 w4 d w4 neg w4 d w4 w4 d w4 neg w4 d w4 neg w4 neg d cl s} def
/m47 {mp x y w4 add m w4 neg w4 d w4 neg w4 neg d w4 w4 neg d w4 neg w4 neg d  w4 w4 neg d w4 w4 d w4 w4 neg d w4 w4 d w4 neg w4 d w4 w4 d w4 neg w4 d w4 neg w4 neg d cl f} def
/m48 {mp x y w4 add m w4 neg w4 d w4 neg w4 neg d w4 w4 neg d  w4 neg w4 neg d w4 w4 neg d w4 w4 d w4 w4 neg d w4 w4 d w4 neg w4 d w4 w4 d w4 neg w4 d w4 neg w4 neg d  w4 w4 neg d w4 neg w4 neg d w4 neg w4 d w4 w4 d cl f} def
/m49 {mp x w2 sub w3 add y w2 sub w3 add m  0 w3 neg d w3 0 d 0 w3 d w3 0 d 0 w3 d w3 neg 0 d 0 w3 d w3 neg 0 d 0 w3 neg d w3 neg 0 d 0 w3 neg d w3 0 d 0 w3 d w3 0 d 0 w3 neg d w3 neg 0 d cl f } def
/m2 {mp x y w2 sub m 0 w d x w2 sub y m w 0 d s} def
/m5 {mp x w2 sub y w2 sub m w w d x w2 sub y w2 add m w w neg d s} def
%%IncludeResource: ProcSet (FontSetInit)
%%IncludeResource: font Times-Roman
%%IncludeResource: font Times-Italic
%%IncludeResource: font Times-Bold
%%IncludeResource: font Times-BoldItalic
%%IncludeResource: font Helvetica
%%IncludeResource: font Helvetica-Oblique
%%IncludeResource: font Helvetica-Bold
%%IncludeResource: font Helvetica-BoldOblique
%%IncludeResource: font Courier
%%IncludeResource: font Courier-Oblique
%%IncludeResource: font Courier-Bold
%%IncludeResource: font Courier-BoldOblique
%%IncludeResource: font Symbol
%%IncludeResource: font ZapfDingbats
/reEncode {exch findfont dup length dict begin {1 index /FID eq  {pop pop} {def} ifelse } forall /Encoding exch def currentdict end dup /FontName get exch definefont pop } def [/Times-Bold /Times-Italic /Times-BoldItalic /Helvetica /Helvetica-Oblique
 /Helvetica-Bold /Helvetica-BoldOblique /Courier /Courier-Oblique /Courier-Bold /Courier-BoldOblique /Times-Roman /AvantGarde-Book /AvantGarde-BookOblique /AvantGarde-Demi /AvantGarde-DemiOblique /Bookman-Demi /Bookman-DemiItalic /Bookman-Light
 /Bookman-LightItalic /Helvetica-Narrow /Helvetica-Narrow-Bold /Helvetica-Narrow-BoldOblique /Helvetica-Narrow-Oblique /NewCenturySchlbk-Roman /NewCenturySchlbk-Bold /NewCenturySchlbk-BoldItalic /NewCenturySchlbk-Italic /Palatino-Bold
 /Palatino-BoldItalic /Palatino-Italic /Palatino-Roman ] {ISOLatin1Encoding reEncode } forall
%%EndProlog
%%BeginSetup
%%EndSetup
newpath  gsave  .25 .25 scale  gsave  0 0 t black[  ] 0 sd 3 lw 1 1 1 c 2268 1575 0 0 bf black 1 1 1 c 2268 472 0 0 bf black 1 1 1 c 1927 274 227 189 bf black 1927 274 227 189 bl 227 189 m 1927 X s 227 201 m -12 Y s 265 195 m -6 Y s 304 195 m -6 Y s
 342 195 m -6 Y s 381 195 m -6 Y s 420 201 m -12 Y s 458 195 m -6 Y s 497 195 m -6 Y s 535 195 m -6 Y s 574 195 m -6 Y s 612 201 m -12 Y s 651 195 m -6 Y s 689 195 m -6 Y s 728 195 m -6 Y s 766 195 m -6 Y s 805 201 m -12 Y s 844 195 m -6 Y s 882 195
 m -6 Y s 921 195 m -6 Y s 959 195 m -6 Y s 998 201 m -12 Y s 1036 195 m -6 Y s 1075 195 m -6 Y s 1113 195 m -6 Y s 1152 195 m -6 Y s 1191 201 m -12 Y s 1229 195 m -6 Y s 1268 195 m -6 Y s 1306 195 m -6 Y s 1345 195 m -6 Y s 1383 201 m -12 Y s 1422
 195 m -6 Y s 1460 195 m -6 Y s 1499 195 m -6 Y s 1538 195 m -6 Y s 1576 201 m -12 Y s 1615 195 m -6 Y s 1653 195 m -6 Y s 1692 195 m -6 Y s 1730 195 m -6 Y s 1769 201 m -12 Y s 1807 195 m -6 Y s 1846 195 m -6 Y s 1884 195 m -6 Y s 1923 195 m -6 Y s
 1962 201 m -12 Y s 2000 195 m -6 Y s 2039 195 m -6 Y s 2077 195 m -6 Y s 2116 195 m -6 Y s 2154 201 m -12 Y s
 gsave  2268 472 0 0 C 210.193 127.3 t 0 r /Helvetica findfont 53.4895 sf 0 0 m (0) show NC gr 
 gsave  2268 472 0 0 C 384.861 127.3 t 0 r /Helvetica findfont 53.4895 sf 0 0 m (0.1) show NC gr 
 gsave  2268 472 0 0 C 571.37 127.3 t 0 r /Helvetica findfont 53.4895 sf 0 0 m (0.2) show NC gr 
 gsave  2268 472 0 0 C 763.8 127.3 t 0 r /Helvetica findfont 53.4895 sf 0 0 m (0.3) show NC gr 
 gsave  2268 472 0 0 C 959.191 127.3 t 0 r /Helvetica findfont 53.4895 sf 0 0 m (0.4) show NC gr 
 gsave  2268 472 0 0 C 1151.62 127.3 t 0 r /Helvetica findfont 53.4895 sf 0 0 m (0.5) show NC gr 
 gsave  2268 472 0 0 C 1344.05 127.3 t 0 r /Helvetica findfont 53.4895 sf 0 0 m (0.6) show NC gr 
 gsave  2268 472 0 0 C 1536.48 127.3 t 0 r /Helvetica findfont 53.4895 sf 0 0 m (0.7) show NC gr 
 gsave  2268 472 0 0 C 1728.91 127.3 t 0 r /Helvetica findfont 53.4895 sf 0 0 m (0.8) show NC gr 
 gsave  2268 472 0 0 C 1921.34 127.3 t 0 r /Helvetica findfont 53.4895 sf 0 0 m (0.9) show NC gr 
 gsave  2268 472 0 0 C 2140.42 127.3 t 0 r /Helvetica findfont 53.4895 sf 0 0 m (1) show NC gr 
 gsave  2268 472 0 0 C 2137.46 38.4861 t 0 r /Helvetica findfont 56.4611 sf 0 0 m (\)) show NC gr 
 gsave  2268 472 0 0 C 2075.29 38.4861 t 0 r /Helvetica-Oblique findfont 56.4611 sf 0 0 m (W) show NC gr 
 gsave  2268 472 0 0 C 2054.56 38.4861 t 0 r /Helvetica-Oblique findfont 56.4611 sf 0 0 m (t) show NC gr  6 lw 2055 83 m 20 X s
 gsave  2268 472 0 0 C 2033.84 38.4861 t 0 r /Helvetica-Oblique findfont 56.4611 sf 0 0 m (t) show NC gr 
 gsave  2268 472 0 0 C 1903.58 38.4861 t 0 r /Helvetica findfont 56.4611 sf 0 0 m (BDT\() show NC gr  3 lw 227 463 m 1927 X s 227 451 m 12 Y s 265 457 m 6 Y s 304 457 m 6 Y s 342 457 m 6 Y s 381 457 m 6 Y s 420 451 m 12 Y s 458 457 m 6 Y s 497 457 m
 6 Y s 535 457 m 6 Y s 574 457 m 6 Y s 612 451 m 12 Y s 651 457 m 6 Y s 689 457 m 6 Y s 728 457 m 6 Y s 766 457 m 6 Y s 805 451 m 12 Y s 844 457 m 6 Y s 882 457 m 6 Y s 921 457 m 6 Y s 959 457 m 6 Y s 998 451 m 12 Y s 1036 457 m 6 Y s 1075 457 m 6 Y
 s 1113 457 m 6 Y s 1152 457 m 6 Y s 1191 451 m 12 Y s 1229 457 m 6 Y s 1268 457 m 6 Y s 1306 457 m 6 Y s 1345 457 m 6 Y s 1383 451 m 12 Y s 1422 457 m 6 Y s 1460 457 m 6 Y s 1499 457 m 6 Y s 1538 457 m 6 Y s 1576 451 m 12 Y s 1615 457 m 6 Y s 1653
 457 m 6 Y s 1692 457 m 6 Y s 1730 457 m 6 Y s 1769 451 m 12 Y s 1807 457 m 6 Y s 1846 457 m 6 Y s 1884 457 m 6 Y s 1923 457 m 6 Y s 1962 451 m 12 Y s 2000 457 m 6 Y s 2039 457 m 6 Y s 2077 457 m 6 Y s 2116 457 m 6 Y s 2154 451 m 12 Y s 227 189 m 274
 Y s 240 240 m -13 X s 240 326 m -13 X s 240 412 m -13 X s 240 240 m -13 X s 240 412 m -13 X s
 gsave  2268 472 0 0 C 118.419 222.035 t 0 r /Helvetica findfont 53.4895 sf 0 0 m (0.5) show NC gr 
 gsave  2268 472 0 0 C 171.707 307.888 t 0 r /Helvetica findfont 53.4895 sf 0 0 m (1) show NC gr 
 gsave  2268 472 0 0 C 118.419 393.742 t 0 r /Helvetica findfont 53.4895 sf 0 0 m (1.5) show NC gr 
 gsave  2268 472 0 0 C 71.0512 230.916 t 90 r /Helvetica findfont 53.4895 sf 0 0 m (Data / SM) show NC gr  2154 189 m 274 Y s 2141 240 m 13 X s 2141 326 m 13 X s 2141 412 m 13 X s 2141 240 m 13 X s 2141 412 m 13 X s 227 189 m 1927 X s 227 463 m 1927
 X s 227 189 m 274 Y s[ 4 8] 0 sd 2154 240 m -1927 X s 2154 326 m -1927 X s 2154 412 m -1927 X s 2154 240 m -1927 X s 2154 412 m -1927 X s[  ] 0 sd 2154 189 m 274 Y s 1 1 0.6 c 193 0 227 326 bf 192 0 420 326 bf 193 0 612 326 bf 193 0 805 326 bf 193 0
 998 326 bf 192 0 1191 326 bf 193 0 1383 326 bf 193 0 1576 326 bf 193 0 1769 326 bf 192 0 1962 326 bf black 0.6 0.6 0.6 c 420 325 m -8 -8 d s 410 335 m -17 -18 d s 391 335 m -17 -18 d s 372 335 m -17 -18 d s 353 335 m -18 -18 d s 333 335 m -17 -18 d
 s 314 335 m -17 -18 d s 295 335 m -17 -18 d s 276 335 m -18 -18 d s 257 335 m -18 -18 d s 237 335 m -10 -11 d s 612 325 m -1 -2 d s 597 329 m -5 -6 d s 578 329 m -6 -6 d s 558 329 m -5 -6 d s 539 329 m -5 -6 d s 520 329 m -5 -6 d s 501 329 m -6 -6 d
 s 481 329 m -5 -6 d s 462 329 m -5 -6 d s 443 329 m -5 -6 d s 424 329 m -4 -4 d s 805 325 m -1 -1 d s 788 328 m -3 -4 d s 769 328 m -3 -4 d s 750 328 m -4 -4 d s 731 328 m -4 -4 d s 711 328 m -3 -4 d s 692 328 m -3 -4 d s 673 328 m -4 -4 d s 654 328
 m -4 -4 d s 634 328 m -3 -4 d s 615 328 m -3 -3 d s 998 326 m -1 -2 d s 981 328 m -4 -4 d s 961 328 m -3 -4 d s 942 328 m -3 -4 d s 923 328 m -3 -4 d s 904 328 m -4 -4 d s 884 328 m -3 -4 d s 865 328 m -3 -4 d s 846 328 m -3 -4 d s 827 328 m -4 -4 d
 s 807 328 m -2 -3 d s 1191 326 m -2 -2 d s 1173 328 m -3 -4 d s 1154 328 m -3 -4 d s 1135 328 m -4 -4 d s 1115 328 m -3 -4 d s 1096 328 m -3 -4 d s 1077 328 m -3 -4 d s 1058 328 m -4 -4 d s 1038 328 m -3 -4 d s 1019 328 m -3 -4 d s 1000 328 m -2 -2
 d s 1383 326 m -1 -1 d s 1365 327 m -3 -2 d s 1346 327 m -3 -2 d s 1327 327 m -3 -2 d s 1308 327 m -3 -2 d s 1288 327 m -3 -2 d s 1269 327 m -3 -2 d s 1250 327 m -3 -2 d s 1231 327 m -3 -2 d s 1211 327 m -3 -2 d s 1192 327 m -1 -1 d s 1576 327 m -2
 -2 d s 1558 327 m -3 -2 d s 1538 327 m -2 -2 d s 1519 327 m -3 -2 d s 1500 327 m -3 -2 d s 1481 327 m -3 -2 d s 1462 327 m -3 -2 d s 1442 327 m -3 -2 d s 1423 327 m -3 -2 d s 1404 327 m -3 -2 d s 1385 327 m -2 -1 d s 1769 327 m -3 -3 d s 1750 328 m
 -3 -4 d s 1731 328 m -3 -4 d s 1712 328 m -4 -4 d s 1693 328 m -4 -4 d s 1674 328 m -4 -4 d s 1654 328 m -3 -4 d s 1635 328 m -4 -4 d s 1616 328 m -4 -4 d s 1597 328 m -4 -4 d s 1577 328 m -1 -1 d s 1962 327 m -7 -6 d s 1947 332 m -11 -11 d s 1927
 332 m -11 -11 d s 1908 332 m -11 -11 d s 1889 332 m -11 -11 d s 1870 332 m -11 -11 d s 1850 332 m -11 -11 d s 1831 332 m -11 -11 d s 1812 332 m -11 -11 d s 1793 332 m -11 -11 d s 1773 332 m -4 -5 d s 2153 326 m cl s 2134 326 m cl s 2114 326 m cl s
 2095 326 m cl s 2076 326 m cl s 2057 326 m cl s 2037 326 m cl s 2018 326 m cl s 1999 326 m cl s 1980 326 m cl s black 1 1 1 c black /w 26 def /w2 {w 2 div} def /w3 {w 3 div} def 323 339 m20 516 309 m20 709 314 m20 901 305 m20 1094 326 m20 1287 337
 m20 1480 351 m20 1672 331 m 3 Y s 1672 358 m 4 Y s 1672 346 m20 1865 264 m 42 Y s 1865 330 m 42 Y s 1865 318 m20 227 326 m 1927 X s 227 189 m 1927 X s 227 201 m -12 Y s 265 195 m -6 Y s 304 195 m -6 Y s 342 195 m -6 Y s 381 195 m -6 Y s 420 201 m
 -12 Y s 458 195 m -6 Y s 497 195 m -6 Y s 535 195 m -6 Y s 574 195 m -6 Y s 612 201 m -12 Y s 651 195 m -6 Y s 689 195 m -6 Y s 728 195 m -6 Y s 766 195 m -6 Y s 805 201 m -12 Y s 844 195 m -6 Y s 882 195 m -6 Y s 921 195 m -6 Y s 959 195 m -6 Y s
 998 201 m -12 Y s 1036 195 m -6 Y s 1075 195 m -6 Y s 1113 195 m -6 Y s 1152 195 m -6 Y s 1191 201 m -12 Y s 1229 195 m -6 Y s 1268 195 m -6 Y s 1306 195 m -6 Y s 1345 195 m -6 Y s 1383 201 m -12 Y s 1422 195 m -6 Y s 1460 195 m -6 Y s 1499 195 m -6
 Y s 1538 195 m -6 Y s 1576 201 m -12 Y s 1615 195 m -6 Y s 1653 195 m -6 Y s 1692 195 m -6 Y s 1730 195 m -6 Y s 1769 201 m -12 Y s 1807 195 m -6 Y s 1846 195 m -6 Y s 1884 195 m -6 Y s 1923 195 m -6 Y s 1962 201 m -12 Y s 2000 195 m -6 Y s 2039 195
 m -6 Y s 2077 195 m -6 Y s 2116 195 m -6 Y s 2154 201 m -12 Y s 227 463 m 1927 X s 227 451 m 12 Y s 265 457 m 6 Y s 304 457 m 6 Y s 342 457 m 6 Y s 381 457 m 6 Y s 420 451 m 12 Y s 458 457 m 6 Y s 497 457 m 6 Y s 535 457 m 6 Y s 574 457 m 6 Y s 612
 451 m 12 Y s 651 457 m 6 Y s 689 457 m 6 Y s 728 457 m 6 Y s 766 457 m 6 Y s 805 451 m 12 Y s 844 457 m 6 Y s 882 457 m 6 Y s 921 457 m 6 Y s 959 457 m 6 Y s 998 451 m 12 Y s 1036 457 m 6 Y s 1075 457 m 6 Y s 1113 457 m 6 Y s 1152 457 m 6 Y s 1191
 451 m 12 Y s 1229 457 m 6 Y s 1268 457 m 6 Y s 1306 457 m 6 Y s 1345 457 m 6 Y s 1383 451 m 12 Y s 1422 457 m 6 Y s 1460 457 m 6 Y s 1499 457 m 6 Y s 1538 457 m 6 Y s 1576 451 m 12 Y s 1615 457 m 6 Y s 1653 457 m 6 Y s 1692 457 m 6 Y s 1730 457 m 6
 Y s 1769 451 m 12 Y s 1807 457 m 6 Y s 1846 457 m 6 Y s 1884 457 m 6 Y s 1923 457 m 6 Y s 1962 451 m 12 Y s 2000 457 m 6 Y s 2039 457 m 6 Y s 2077 457 m 6 Y s 2116 457 m 6 Y s 2154 451 m 12 Y s 227 189 m 274 Y s 240 240 m -13 X s 240 326 m -13 X s
 240 412 m -13 X s 240 240 m -13 X s 240 412 m -13 X s 2154 189 m 274 Y s 2141 240 m 13 X s 2141 326 m 13 X s 2141 412 m 13 X s 2141 240 m 13 X s 2141 412 m 13 X s 1 1 1 c 2268 1103 0 472 bf black 1 1 1 c 1927 1036 227 484 bf black 1927 1036 227 484
 bl 1 1 1 c black 3 lw 227 484 m 1927 X s 227 502 m -18 Y s 265 493 m -9 Y s 304 493 m -9 Y s 342 493 m -9 Y s 381 493 m -9 Y s 420 502 m -18 Y s 458 493 m -9 Y s 497 493 m -9 Y s 535 493 m -9 Y s 574 493 m -9 Y s 612 502 m -18 Y s 651 493 m -9 Y s
 689 493 m -9 Y s 728 493 m -9 Y s 766 493 m -9 Y s 805 502 m -18 Y s 844 493 m -9 Y s 882 493 m -9 Y s 921 493 m -9 Y s 959 493 m -9 Y s 998 502 m -18 Y s 1036 493 m -9 Y s 1075 493 m -9 Y s 1113 493 m -9 Y s 1152 493 m -9 Y s 1191 502 m -18 Y s
 1229 493 m -9 Y s 1268 493 m -9 Y s 1306 493 m -9 Y s 1345 493 m -9 Y s 1383 502 m -18 Y s 1422 493 m -9 Y s 1460 493 m -9 Y s 1499 493 m -9 Y s 1538 493 m -9 Y s 1576 502 m -18 Y s 1615 493 m -9 Y s 1653 493 m -9 Y s 1692 493 m -9 Y s 1730 493 m -9
 Y s 1769 502 m -18 Y s 1807 493 m -9 Y s 1846 493 m -9 Y s 1884 493 m -9 Y s 1923 493 m -9 Y s 1962 502 m -18 Y s 2000 493 m -9 Y s 2039 493 m -9 Y s 2077 493 m -9 Y s 2116 493 m -9 Y s 2154 502 m -18 Y s
 gsave  2268 1103 0 472 C 2143.38 399.663 t 0 r /Helvetica findfont 29.6365 sf 0 0 m (\)) show NC gr 
 gsave  2268 1103 0 472 C 2110.81 399.663 t 0 r /Helvetica-Oblique findfont 29.6365 sf 0 0 m (W) show NC gr 
 gsave  2268 1103 0 472 C 2098.97 399.663 t 0 r /Helvetica-Oblique findfont 29.6365 sf 0 0 m (t) show NC gr  6 lw
 gsave  2268 1103 0 472 C 2087.13 399.663 t 0 r /Helvetica-Oblique findfont 29.6365 sf 0 0 m (t) show NC gr 
 gsave  2268 1103 0 472 C 2019.04 399.663 t 0 r /Helvetica findfont 29.6365 sf 0 0 m (BDT\() show NC gr  3 lw 227 1520 m 1927 X s 227 1501 m 19 Y s 265 1510 m 10 Y s 304 1510 m 10 Y s 342 1510 m 10 Y s 381 1510 m 10 Y s 420 1501 m 19 Y s 458 1510 m
 10 Y s 497 1510 m 10 Y s 535 1510 m 10 Y s 574 1510 m 10 Y s 612 1501 m 19 Y s 651 1510 m 10 Y s 689 1510 m 10 Y s 728 1510 m 10 Y s 766 1510 m 10 Y s 805 1501 m 19 Y s 844 1510 m 10 Y s 882 1510 m 10 Y s 921 1510 m 10 Y s 959 1510 m 10 Y s 998 1501
 m 19 Y s 1036 1510 m 10 Y s 1075 1510 m 10 Y s 1113 1510 m 10 Y s 1152 1510 m 10 Y s 1191 1501 m 19 Y s 1229 1510 m 10 Y s 1268 1510 m 10 Y s 1306 1510 m 10 Y s 1345 1510 m 10 Y s 1383 1501 m 19 Y s 1422 1510 m 10 Y s 1460 1510 m 10 Y s 1499 1510 m
 10 Y s 1538 1510 m 10 Y s 1576 1501 m 19 Y s 1615 1510 m 10 Y s 1653 1510 m 10 Y s 1692 1510 m 10 Y s 1730 1510 m 10 Y s 1769 1501 m 19 Y s 1807 1510 m 10 Y s 1846 1510 m 10 Y s 1884 1510 m 10 Y s 1923 1510 m 10 Y s 1962 1501 m 19 Y s 2000 1510 m 10
 Y s 2039 1510 m 10 Y s 2077 1510 m 10 Y s 2116 1510 m 10 Y s 2154 1501 m 19 Y s 227 484 m 1036 Y s 248 609 m -21 X s 237 640 m -10 X s 237 672 m -10 X s 237 703 m -10 X s 248 734 m -21 X s 237 766 m -10 X s 237 797 m -10 X s 237 828 m -10 X s 248
 860 m -21 X s 237 891 m -10 X s 237 923 m -10 X s 237 954 m -10 X s 248 985 m -21 X s 237 1017 m -10 X s 237 1048 m -10 X s 237 1079 m -10 X s 248 1111 m -21 X s 237 1142 m -10 X s 237 1173 m -10 X s 237 1205 m -10 X s 248 1236 m -21 X s 237 1268 m
 -10 X s 237 1299 m -10 X s 237 1330 m -10 X s 248 1362 m -21 X s 237 1393 m -10 X s 237 1424 m -10 X s 237 1456 m -10 X s 248 1487 m -21 X s 248 609 m -21 X s 237 578 m -10 X s 237 546 m -10 X s 237 515 m -10 X s 248 1487 m -21 X s 237 1518 m -10 X
 s
 gsave  2268 1103 0 472 C 118.419 589.133 t 0 r /Helvetica findfont 50.382 sf 0 0 m (200) show NC gr 
 gsave  2268 1103 0 472 C 118.419 716.433 t 0 r /Helvetica findfont 50.382 sf 0 0 m (400) show NC gr 
 gsave  2268 1103 0 472 C 118.419 840.772 t 0 r /Helvetica findfont 50.382 sf 0 0 m (600) show NC gr 
 gsave  2268 1103 0 472 C 118.419 965.112 t 0 r /Helvetica findfont 50.382 sf 0 0 m (800) show NC gr 
 gsave  2268 1103 0 472 C 91.7744 1092.41 t 0 r /Helvetica findfont 50.382 sf 0 0 m (1000) show NC gr 
 gsave  2268 1103 0 472 C 91.7744 1216.75 t 0 r /Helvetica findfont 50.382 sf 0 0 m (1200) show NC gr 
 gsave  2268 1103 0 472 C 91.7744 1341.09 t 0 r /Helvetica findfont 50.382 sf 0 0 m (1400) show NC gr 
 gsave  2268 1103 0 472 C 91.7744 1468.39 t 0 r /Helvetica findfont 50.382 sf 0 0 m (1600) show NC gr 
 gsave  2268 1103 0 472 C 62.1698 1367.74 t 90 r /Helvetica findfont 50.382 sf 0 0 m (Events) show NC gr  2154 484 m 1036 Y s 2133 609 m 21 X s 2144 640 m 10 X s 2144 672 m 10 X s 2144 703 m 10 X s 2133 734 m 21 X s 2144 766 m 10 X s 2144 797 m 10 X
 s 2144 828 m 10 X s 2133 860 m 21 X s 2144 891 m 10 X s 2144 923 m 10 X s 2144 954 m 10 X s 2133 985 m 21 X s 2144 1017 m 10 X s 2144 1048 m 10 X s 2144 1079 m 10 X s 2133 1111 m 21 X s 2144 1142 m 10 X s 2144 1173 m 10 X s 2144 1205 m 10 X s 2133
 1236 m 21 X s 2144 1268 m 10 X s 2144 1299 m 10 X s 2144 1330 m 10 X s 2133 1362 m 21 X s 2144 1393 m 10 X s 2144 1424 m 10 X s 2144 1456 m 10 X s 2133 1487 m 21 X s 2133 609 m 21 X s 2144 578 m 10 X s 2144 546 m 10 X s 2144 515 m 10 X s 2133 1487 m
 21 X s 2144 1518 m 10 X s 0.4 0.6 0.4 c black 3 lw 0.4 0.6 0.4 c 227 484 m 230 Y 193 X 184 Y 192 X -105 Y 193 X -18 Y 193 X -14 Y 193 X -28 Y 192 X -70 Y 193 X -95 Y 193 X -79 Y 193 X -5 Y 192 X f 0.06 0.54 0.06 c 0.999 0.999 0.999 c black 3 lw
 0.999 0.999 0.999 c 227 484 m 172 Y 193 X 85 Y 192 X -74 Y 193 X -1 Y 193 X 15 Y 193 X 1 Y 192 X -42 Y 193 X -78 Y 193 X -73 Y 193 X -5 Y 192 X f 0.06 0.54 0.06 c 0.999 0.999 0.999 c 0.06 0.54 0.06 c 1 1 1 c black 0.06 0.54 0.06 c black 3 lw 0.06
 0.54 0.06 c 227 484 m 172 Y 193 X 85 Y 192 X -74 Y 193 X -1 Y 193 X 15 Y 193 X 1 Y 192 X -42 Y 193 X -78 Y 193 X -73 Y 193 X -5 Y 192 X f 1 0.653333 0 c 0.999 0.999 0.999 c black 3 lw 0.999 0.999 0.999 c 227 484 m 143 Y 193 X 7 Y 192 X -43 Y 193 X
 12 Y 193 X 28 Y 193 X 19 Y 192 X -26 Y 193 X -66 Y 193 X -69 Y 193 X -5 Y 192 X f 1 0.653333 0 c 0.999 0.999 0.999 c 1 0.653333 0 c 1 1 1 c black 1 0.653333 0 c black 3 lw 1 0.653333 0 c 227 484 m 143 Y 193 X 7 Y 192 X -43 Y 193 X 12 Y 193 X 28 Y
 193 X 19 Y 192 X -26 Y 193 X -66 Y 193 X -69 Y 193 X -5 Y 192 X f 0.413333 1 0 c 0.999 0.999 0.999 c black 3 lw 0.999 0.999 0.999 c 227 484 m 32 Y 193 X 71 Y 192 X -13 Y 193 X 25 Y 193 X 31 Y 193 X 20 Y 192 X -26 Y 193 X -66 Y 193 X -69 Y 193 X -5 Y
 192 X f 0.413333 1 0 c 0.999 0.999 0.999 c 0.413333 1 0 c 1 1 1 c black 0.413333 1 0 c black 3 lw 0.413333 1 0 c 227 484 m 32 Y 193 X 71 Y 192 X -13 Y 193 X 25 Y 193 X 31 Y 193 X 20 Y 192 X -26 Y 193 X -66 Y 193 X -69 Y 193 X -5 Y 192 X f 0.6 0.2 1
 c 0.999 0.999 0.999 c black 3 lw 0.999 0.999 0.999 c 227 484 m 5 Y 193 X 43 Y 192 X 14 Y 193 X 30 Y 193 X 35 Y 193 X 25 Y 192 X -19 Y 193 X -62 Y 193 X -66 Y 193 X -5 Y 192 X f 0.6 0.2 1 c 0.999 0.999 0.999 c 0.6 0.2 1 c 1 1 1 c black 0.6 0.2 1 c
 black 3 lw 0.6 0.2 1 c 227 484 m 5 Y 193 X 43 Y 192 X 14 Y 193 X 30 Y 193 X 35 Y 193 X 25 Y 192 X -19 Y 193 X -62 Y 193 X -66 Y 193 X -5 Y 192 X f 0.54 0.06 0.06 c 0.999 0.999 0.999 c black 3 lw 0.999 0.999 0.999 c 227 484 m 5 Y 193 X 39 Y 192 X 9 Y
 193 X 23 Y 193 X 29 Y 193 X 23 Y 192 X -12 Y 193 X -52 Y 193 X -59 Y 193 X -5 Y 192 X f 0.54 0.06 0.06 c 0.999 0.999 0.999 c 0.54 0.06 0.06 c 1 1 1 c black 0.54 0.06 0.06 c black 3 lw 0.54 0.06 0.06 c 227 484 m 5 Y 193 X 39 Y 192 X 9 Y 193 X 23 Y
 193 X 29 Y 193 X 23 Y 192 X -12 Y 193 X -52 Y 193 X -59 Y 193 X -5 Y 192 X f 1 0 1 c 0.999 0.999 0.999 c black 3 lw 0.999 0.999 0.999 c 227 484 m 3 Y 193 X 23 Y 192 X -6 Y 193 X 2 Y 193 X 5 Y 193 X 2 Y 192 X -8 Y 193 X -12 Y 193 X -9 Y 385 X f 1 0 1
 c 0.999 0.999 0.999 c 1 0 1 c 1 1 1 c black 1 0 1 c black 3 lw 1 0 1 c 227 484 m 3 Y 193 X 23 Y 192 X -6 Y 193 X 2 Y 193 X 5 Y 193 X 2 Y 192 X -8 Y 193 X -12 Y 193 X -9 Y 385 X f 0 0 1 c 0.999 0.999 0.999 c black 3 lw 0.999 0.999 0.999 c 227 484 m 1
 Y 193 X 10 Y 192 X -3 Y 193 X 5 Y 193 X 8 Y 193 X 4 Y 192 X -5 Y 193 X -12 Y 193 X -8 Y 385 X f 0 0 1 c 0.999 0.999 0.999 c 0 0 1 c 1 1 1 c black 0 0 1 c black 3 lw 0 0 1 c 227 484 m 1 Y 193 X 10 Y 192 X -3 Y 193 X 5 Y 193 X 8 Y 193 X 4 Y 192 X -5 Y
 193 X -12 Y 193 X -8 Y 385 X f 0.2 0.8 0.8 c 0.999 0.999 0.999 c black 3 lw 0.999 0.999 0.999 c 227 484 m 1 Y 193 X 8 Y 192 X -6 Y 193 X 1 Y 193 X 1 Y 385 X -2 Y 193 X -2 Y 193 X -1 Y 385 X f 0.2 0.8 0.8 c 0.999 0.999 0.999 c 0.2 0.8 0.8 c 1 1 1 c
 black 0.2 0.8 0.8 c black 3 lw 0.2 0.8 0.8 c 227 484 m 1 Y 193 X 8 Y 192 X -6 Y 193 X 1 Y 193 X 1 Y 385 X -2 Y 193 X -2 Y 193 X -1 Y 385 X f 1 0 0 c 0.999 0.999 0.999 c black 3 lw 0.999 0.999 0.999 c 227 484 m 1 Y 193 X 7 Y 192 X -6 Y 193 X -1 Y 193
 X 1 Y 385 X -1 Y 193 X -1 Y 578 X f 1 0 0 c 0.999 0.999 0.999 c 1 0 0 c 1 1 1 c black 1 0 0 c black 3 lw 1 0 0 c 227 484 m 1 Y 193 X 7 Y 192 X -6 Y 193 X -1 Y 193 X 1 Y 385 X -1 Y 193 X -1 Y 578 X f 1 0.84 0 c 0.999 0.999 0.999 c black 3 lw 0.999
 0.999 0.999 c 227 484 m 1 Y 193 X 5 Y 192 X -5 Y 193 X -1 Y 193 X 1 Y 193 X 1 Y 192 X -2 Y 771 X f 1 0.84 0 c 0.999 0.999 0.999 c 1 0.84 0 c 1 1 1 c black 1 0.84 0 c black 3 lw 1 0.84 0 c 227 484 m 1 Y 193 X 5 Y 192 X -5 Y 193 X -1 Y 193 X 1 Y 193 X
 1 Y 192 X -2 Y 771 X f black 1 1 1 c black 0.6 0.6 0.6 c 3 lw 420 718 m -17 -16 d s 407 725 m -23 -23 d s 388 725 m -24 -23 d s 369 725 m -24 -23 d s 349 725 m -23 -23 d s 330 725 m -23 -23 d s 311 725 m -23 -23 d s 292 725 m -24 -23 d s 272 725 m
 -23 -23 d s 253 725 m -23 -23 d s 234 725 m -7 -7 d s 3 lw 606 904 m -13 -12 d s 586 904 m -12 -12 d s 567 904 m -12 -12 d s 548 904 m -13 -12 d s 529 904 m -13 -12 d s 509 904 m -12 -12 d s 490 904 m -12 -12 d s 471 904 m -13 -12 d s 452 904 m -13
 -12 d s 432 904 m -12 -12 d s 3 lw 805 796 m -7 -7 d s 786 796 m -7 -7 d s 766 796 m -6 -7 d s 747 796 m -6 -7 d s 728 796 m -6 -7 d s 709 796 m -7 -7 d s 690 796 m -7 -7 d s 670 796 m -6 -7 d s 651 796 m -6 -7 d s 632 796 m -7 -7 d s 613 796 m -1 X
 s 3 lw 998 777 m -5 -5 d s 979 777 m -6 -5 d s 960 777 m -6 -5 d s 940 777 m -5 -5 d s 921 777 m -5 -5 d s 902 777 m -6 -5 d s 883 777 m -6 -5 d s 863 777 m -5 -5 d s 844 777 m -5 -5 d s 825 777 m -6 -5 d s 806 777 m -1 X s 3 lw 1177 764 m -5 -5 d s
 1158 764 m -5 -5 d s 1139 764 m -5 -5 d s 1119 764 m -5 -5 d s 1100 764 m -5 -5 d s 1081 764 m -5 -5 d s 1062 764 m -5 -5 d s 1042 764 m -5 -5 d s 1023 764 m -5 -5 d s 1004 764 m -5 -5 d s 3 lw 1379 735 m -4 -4 d s 1360 735 m -4 -4 d s 1341 735 m -4
 -4 d s 1322 735 m -5 -4 d s 1302 735 m -4 -4 d s 1283 735 m -4 -4 d s 1264 735 m -4 -4 d s 1245 735 m -5 -4 d s 1225 735 m -4 -4 d s 1206 735 m -4 -4 d s 3 lw 1576 663 m -1 -1 d s 1559 665 m -3 -3 d s 1540 665 m -3 -3 d s 1520 665 m -3 -3 d s 1501
 665 m -3 -3 d s 1482 665 m -3 -3 d s 1463 665 m -3 -3 d s 1443 665 m -3 -3 d s 1424 665 m -3 -3 d s 1405 665 m -3 -3 d s 1386 665 m -3 -3 d s 3 lw 1752 569 m -2 -2 d s 1732 569 m -1 -2 d s 1713 569 m -2 -2 d s 1694 569 m -2 -2 d s 1675 569 m -2 -2 d
 s 1655 569 m -1 -2 d s 1636 569 m -2 -2 d s 1617 569 m -2 -2 d s 1598 569 m -2 -2 d s 1578 569 m -1 -2 d s 3 lw 1961 490 m -1 -1 d s 1941 490 m -1 Y s 1922 490 m -1 Y s 1903 490 m -1 Y s 1884 490 m -1 -1 d s 1864 490 m -1 Y s 1845 490 m -1 Y s 1826
 490 m -1 Y s 1807 490 m -1 -1 d s 1787 490 m -1 Y s black 3 lw 1 1 1 c black 323 719 m s 323 743 m 1 Y s /w 24 def /w2 {w 2 div} def /w3 {w 3 div} def 323 731 m20 516 842 m 3 Y s 516 869 m 4 Y s 516 857 m20 709 757 m 2 Y s 709 783 m 1 Y s 709 771
 m20 901 727 m 1 Y s 901 751 m 1 Y s 901 739 m20 1094 748 m 2 Y s 1094 773 m 2 Y s 1094 761 m20 1287 737 m 1 Y s 1287 761 m 1 Y s 1287 749 m20 1480 689 m20 1672 578 m20 1865 489 m20 227 484 m 1927 X s 227 502 m -18 Y s 265 493 m -9 Y s 304 493 m -9 Y
 s 342 493 m -9 Y s 381 493 m -9 Y s 420 502 m -18 Y s 458 493 m -9 Y s 497 493 m -9 Y s 535 493 m -9 Y s 574 493 m -9 Y s 612 502 m -18 Y s 651 493 m -9 Y s 689 493 m -9 Y s 728 493 m -9 Y s 766 493 m -9 Y s 805 502 m -18 Y s 844 493 m -9 Y s 882
 493 m -9 Y s 921 493 m -9 Y s 959 493 m -9 Y s 998 502 m -18 Y s 1036 493 m -9 Y s 1075 493 m -9 Y s 1113 493 m -9 Y s 1152 493 m -9 Y s 1191 502 m -18 Y s 1229 493 m -9 Y s 1268 493 m -9 Y s 1306 493 m -9 Y s 1345 493 m -9 Y s 1383 502 m -18 Y s
 1422 493 m -9 Y s 1460 493 m -9 Y s 1499 493 m -9 Y s 1538 493 m -9 Y s 1576 502 m -18 Y s 1615 493 m -9 Y s 1653 493 m -9 Y s 1692 493 m -9 Y s 1730 493 m -9 Y s 1769 502 m -18 Y s 1807 493 m -9 Y s 1846 493 m -9 Y s 1884 493 m -9 Y s 1923 493 m -9
 Y s 1962 502 m -18 Y s 2000 493 m -9 Y s 2039 493 m -9 Y s 2077 493 m -9 Y s 2116 493 m -9 Y s 2154 502 m -18 Y s 227 1520 m 1927 X s 227 1501 m 19 Y s 265 1510 m 10 Y s 304 1510 m 10 Y s 342 1510 m 10 Y s 381 1510 m 10 Y s 420 1501 m 19 Y s 458
 1510 m 10 Y s 497 1510 m 10 Y s 535 1510 m 10 Y s 574 1510 m 10 Y s 612 1501 m 19 Y s 651 1510 m 10 Y s 689 1510 m 10 Y s 728 1510 m 10 Y s 766 1510 m 10 Y s 805 1501 m 19 Y s 844 1510 m 10 Y s 882 1510 m 10 Y s 921 1510 m 10 Y s 959 1510 m 10 Y s
 998 1501 m 19 Y s 1036 1510 m 10 Y s 1075 1510 m 10 Y s 1113 1510 m 10 Y s 1152 1510 m 10 Y s 1191 1501 m 19 Y s 1229 1510 m 10 Y s 1268 1510 m 10 Y s 1306 1510 m 10 Y s 1345 1510 m 10 Y s 1383 1501 m 19 Y s 1422 1510 m 10 Y s 1460 1510 m 10 Y s
 1499 1510 m 10 Y s 1538 1510 m 10 Y s 1576 1501 m 19 Y s 1615 1510 m 10 Y s 1653 1510 m 10 Y s 1692 1510 m 10 Y s 1730 1510 m 10 Y s 1769 1501 m 19 Y s 1807 1510 m 10 Y s 1846 1510 m 10 Y s 1884 1510 m 10 Y s 1923 1510 m 10 Y s 1962 1501 m 19 Y s
 2000 1510 m 10 Y s 2039 1510 m 10 Y s 2077 1510 m 10 Y s 2116 1510 m 10 Y s 2154 1501 m 19 Y s 227 484 m 1036 Y s 248 609 m -21 X s 237 640 m -10 X s 237 672 m -10 X s 237 703 m -10 X s 248 734 m -21 X s 237 766 m -10 X s 237 797 m -10 X s 237 828 m
 -10 X s 248 860 m -21 X s 237 891 m -10 X s 237 923 m -10 X s 237 954 m -10 X s 248 985 m -21 X s 237 1017 m -10 X s 237 1048 m -10 X s 237 1079 m -10 X s 248 1111 m -21 X s 237 1142 m -10 X s 237 1173 m -10 X s 237 1205 m -10 X s 248 1236 m -21 X s
 237 1268 m -10 X s 237 1299 m -10 X s 237 1330 m -10 X s 248 1362 m -21 X s 237 1393 m -10 X s 237 1424 m -10 X s 237 1456 m -10 X s 248 1487 m -21 X s 248 609 m -21 X s 237 578 m -10 X s 237 546 m -10 X s 237 515 m -10 X s 248 1487 m -21 X s 237
 1518 m -10 X s 2154 484 m 1036 Y s 2133 609 m 21 X s 2144 640 m 10 X s 2144 672 m 10 X s 2144 703 m 10 X s 2133 734 m 21 X s 2144 766 m 10 X s 2144 797 m 10 X s 2144 828 m 10 X s 2133 860 m 21 X s 2144 891 m 10 X s 2144 923 m 10 X s 2144 954 m 10 X
 s 2133 985 m 21 X s 2144 1017 m 10 X s 2144 1048 m 10 X s 2144 1079 m 10 X s 2133 1111 m 21 X s 2144 1142 m 10 X s 2144 1173 m 10 X s 2144 1205 m 10 X s 2133 1236 m 21 X s 2144 1268 m 10 X s 2144 1299 m 10 X s 2144 1330 m 10 X s 2133 1362 m 21 X s
 2144 1393 m 10 X s 2144 1424 m 10 X s 2144 1456 m 10 X s 2133 1487 m 21 X s 2133 609 m 21 X s 2144 578 m 10 X s 2144 546 m 10 X s 2144 515 m 10 X s 2133 1487 m 21 X s 2144 1518 m 10 X s
 gsave  2268 1103 0 472 C 1314.45 1432.87 t 0 r /Helvetica findfont 56.3093 sf 0 0 m ( Data) show NC gr  1259 1456 m 7 Y s 1259 1432 m -7 Y s 1259 1444 m20
 gsave  2268 1103 0 472 C 1776.28 1432.87 t 0 r /Helvetica findfont 56.3093 sf 0 0 m ( Fakes \(MM\)) show NC gr  0.4 0.6 0.4 c 1682 1422 m 79 X 44 Y -79 X f black
 gsave  2268 1103 0 472 C 1403.26 1367.74 t 0 r /Helvetica findfont 56.3093 sf 0 0 m (single\255top) show NC gr 
 gsave  2268 1103 0 472 C 1373.66 1367.74 t 0 r /Helvetica-Oblique findfont 56.3093 sf 0 0 m (/) show NC gr 
 gsave  2268 1103 0 472 C 1352.93 1367.74 t 0 r /Helvetica-Oblique findfont 56.3093 sf 0 0 m (t) show NC gr  6 lw 1353 1412 m 21 X s
 gsave  2268 1103 0 472 C 1332.21 1367.74 t 0 r /Helvetica-Oblique findfont 56.3093 sf 0 0 m (t) show NC gr 
 gsave  2268 1103 0 472 C 1314.45 1367.74 t 0 r /Helvetica findfont 56.3093 sf 0 0 m ( ) show NC gr  0.06 0.54 0.06 c 3 lw 1219 1359 m 79 X 44 Y -79 X f 6 lw black
 gsave  2268 1103 0 472 C 1906.54 1367.74 t 0 r /Helvetica findfont 56.3093 sf 0 0 m (+jets) show NC gr 
 gsave  2268 1103 0 472 C 1794.04 1367.74 t 0 r /Helvetica-Oblique findfont 56.3093 sf 0 0 m (W/Z) show NC gr 
 gsave  2268 1103 0 472 C 1776.28 1367.74 t 0 r /Helvetica findfont 56.3093 sf 0 0 m ( ) show NC gr  1 0.653333 0 c 3 lw 1682 1359 m 79 X 44 Y -79 X f black
 gsave  2268 1103 0 472 C 1512.8 1305.57 t 0 r /Helvetica findfont 56.3093 sf 0 0 m (+jets) show NC gr 
 gsave  2268 1103 0 472 C 1332.21 1305.57 t 0 r /Helvetica-Oblique findfont 56.3093 sf 0 0 m (WZ/ZZ) show NC gr 
 gsave  2268 1103 0 472 C 1314.45 1305.57 t 0 r /Helvetica findfont 56.3093 sf 0 0 m ( ) show NC gr  0.413333 1 0 c 3 lw 1219 1296 m 79 X 44 Y -79 X f black
 gsave  2268 1103 0 472 C 1835.49 1305.57 t 0 r /Helvetica-Oblique findfont 56.3093 sf 0 0 m (Z) show NC gr 
 gsave  2268 1103 0 472 C 1814.77 1305.57 t 0 r /Helvetica-Oblique findfont 56.3093 sf 0 0 m (t) show NC gr  6 lw 1815 1350 m 20 X s
 gsave  2268 1103 0 472 C 1794.04 1305.57 t 0 r /Helvetica-Oblique findfont 56.3093 sf 0 0 m (t) show NC gr 
 gsave  2268 1103 0 472 C 1776.28 1305.57 t 0 r /Helvetica findfont 56.3093 sf 0 0 m ( ) show NC gr  0.6 0.2 1 c 3 lw 1682 1296 m 79 X 44 Y -79 X f 6 lw black
 gsave  2268 1103 0 472 C 1373.66 1243.4 t 0 r /Helvetica-Oblique findfont 56.3093 sf 0 0 m (W) show NC gr 
 gsave  2268 1103 0 472 C 1352.93 1243.4 t 0 r /Helvetica-Oblique findfont 56.3093 sf 0 0 m (t) show NC gr  6 lw 1353 1288 m 21 X s
 gsave  2268 1103 0 472 C 1332.21 1243.4 t 0 r /Helvetica-Oblique findfont 56.3093 sf 0 0 m (t) show NC gr 
 gsave  2268 1103 0 472 C 1314.45 1243.4 t 0 r /Helvetica findfont 56.3093 sf 0 0 m ( ) show NC gr  0.54 0.06 0.06 c 3 lw 1219 1233 m 79 X 44 Y -79 X f 6 lw black
 gsave  2268 1103 0 472 C 1794.04 1243.4 t 0 r /Helvetica-Oblique findfont 56.3093 sf 0 0 m (tZq) show NC gr 
 gsave  2268 1103 0 472 C 1776.28 1243.4 t 0 r /Helvetica findfont 56.3093 sf 0 0 m ( ) show NC gr  1 0 1 c 3 lw 1682 1233 m 79 X 44 Y -79 X f black
 gsave  2268 1103 0 472 C 1373.66 1178.27 t 0 r /Helvetica-Oblique findfont 56.3093 sf 0 0 m (H) show NC gr 
 gsave  2268 1103 0 472 C 1352.93 1178.27 t 0 r /Helvetica-Oblique findfont 56.3093 sf 0 0 m (t) show NC gr  6 lw 1353 1223 m 21 X s
 gsave  2268 1103 0 472 C 1332.21 1178.27 t 0 r /Helvetica-Oblique findfont 56.3093 sf 0 0 m (t) show NC gr 
 gsave  2268 1103 0 472 C 1314.45 1178.27 t 0 r /Helvetica findfont 56.3093 sf 0 0 m ( ) show NC gr  0 0 1 c 3 lw 1219 1170 m 79 X 44 Y -79 X f 6 lw black
 gsave  2268 1103 0 472 C 1794.04 1178.27 t 0 r /Helvetica-Oblique findfont 56.3093 sf 0 0 m (tWZ/tWH) show NC gr 
 gsave  2268 1103 0 472 C 1776.28 1178.27 t 0 r /Helvetica findfont 56.3093 sf 0 0 m ( ) show NC gr  0.2 0.8 0.8 c 3 lw 1682 1170 m 79 X 44 Y -79 X f black
 gsave  2268 1103 0 472 C 1332.21 1116.1 t 0 r /Helvetica-Oblique findfont 56.3093 sf 0 0 m (tHq) show NC gr 
 gsave  2268 1103 0 472 C 1314.45 1116.1 t 0 r /Helvetica findfont 56.3093 sf 0 0 m ( ) show NC gr  1 0 0 c 3 lw 1219 1107 m 79 X 44 Y -79 X f black
 gsave  2268 1103 0 472 C 1776.28 1116.1 t 0 r /Helvetica findfont 56.3093 sf 0 0 m ( Other) show NC gr  1 0.84 0 c 3 lw 1682 1107 m 79 X 44 Y -79 X f black
 gsave  2268 1103 0 472 C 1314.45 1053.93 t 0 r /Helvetica findfont 56.3093 sf 0 0 m ( Uncertainty) show NC gr  0.6 0.6 0.6 c 3 lw 1298 1058 m -13 -14 d s 1298 1077 m -33 -33 d s 1290 1088 m -44 -44 d s 1271 1088 m -44 -44 d s 1252 1088 m -33 -33 d s
 1233 1088 m -14 -13 d s 1 0.84 0 c 0.6 0.6 0.6 c black
 gsave  2268 1103 0 472 C 894.061 1329.25 t 0 r /Helvetica findfont 41.4911 sf 0 0 m (\2551) show NC gr 
 gsave  2268 1103 0 472 C 399.663 1299.64 t 0 r /Helvetica findfont 62.2366 sf 0 0 m ( = 13 TeV,  139 fb) show NC gr 
 gsave  2268 1103 0 472 C 370.058 1299.64 t 0 r /Helvetica findfont 62.2366 sf 0 0 m (s) show NC gr  6 lw 349 1335 m 6 -38 d s 3 lw 355 1297 m 6 56 d s 361 1353 m 39 X s
 gsave  2268 1103 0 472 C 337.493 1201.95 t 0 r /Helvetica findfont 62.2366 sf 0 0 m ( 2L\(SS\) pre\255selection) show NC gr 
 gsave  2268 1103 0 472 C 337.493 1400.3 t 0 r /Helvetica-BoldOblique findfont 71.1276 sf 0 0 m (ATLAS) show NC gr 
 gsave  2268 1103 0 472 C 633.54 1400.3 t 0 r /Helvetica findfont 71.1276 sf 0 0 m (Internal) show NC gr 
 gr  gr showpage
end
%%EOF
