%!PS-Adobe-2.0 EPSF-2.0
%%BoundingBox:  0 0 567 394
%%Title: /lhome/ific/c/cardillo/tHq/Plots/Plots-30-05-22-PLIV-SF/2LSS_MM/BDTVV_Pre.eps: BDTVV_Pre
%%Creator: ROOT Version 6.20/06
%%CreationDate: Mon May 30 19:25:22 2022
%%DocumentNeededResources: ProcSet (FontSetInit)
%%EndComments
%%BeginProlog
80 dict begin
/s {stroke} def /l {lineto} def /m {moveto} def /t {translate} def
/r {rotate} def /rl {roll}  def /R {repeat} def
/d {rlineto} def /rm {rmoveto} def /gr {grestore} def /f {eofill} def
/c {setrgbcolor} def /black {0 setgray} def /sd {setdash} def
/cl {closepath} def /sf {scalefont setfont} def /lw {setlinewidth} def
/box {m dup 0 exch d exch 0 d 0 exch neg d cl} def
/NC{systemdict begin initclip end}def/C{NC box clip newpath}def
/bl {box s} def /bf {gsave box gsave f grestore 1 lw [] 0 sd s grestore} def /Y { 0 exch d} def /X { 0 d} def 
/K {{pop pop 0 moveto} exch kshow} bind def
/ita {/ang 15 def gsave [1 0 ang dup sin exch cos div 1 0 0] concat} def 
/mp {newpath /y exch def /x exch def} def
/side {[w .77 mul w .23 mul] .385 w mul sd w 0 l currentpoint t -144 r} def
/mr {mp x y w2 0 360 arc} def /m24 {mr s} def /m20 {mr f} def
/mb {mp x y w2 add m w2 neg 0 d 0 w neg d w 0 d 0 w d cl} def
/mt {mp x y w2 add m w2 neg w neg d w 0 d cl} def
/w4 {w 4 div} def
/w6 {w 6 div} def
/w8 {w 8 div} def
/m21 {mb f} def /m25 {mb s} def /m22 {mt f} def /m26{mt s} def
/m23 {mp x y w2 sub m w2 w d w neg 0 d cl f} def
/m27 {mp x y w2 add m w3 neg w2 neg d w3 w2 neg d w3 w2 d cl s} def
/m28 {mp x w2 sub y w2 sub w3 add m w3 0 d  0 w3 neg d w3 0 d 0 w3 d w3 0 d  0 w3 d w3 neg 0 d 0 w3 d w3 neg 0 d 0 w3 neg d w3 neg 0 d cl s } def
/m29 {mp gsave x w2 sub y w2 add w3 sub m currentpoint t 4 {side} repeat cl fill gr} def
/m30 {mp gsave x w2 sub y w2 add w3 sub m currentpoint t 4 {side} repeat cl s gr} def
/m31 {mp x y w2 sub m 0 w d x w2 sub y m w 0 d x w2 sub y w2 add m w w neg d x w2 sub y w2 sub m w w d s} def
/m32 {mp x y w2 sub m w2 w d w neg 0 d cl s} def
/m33 {mp x y w2 add m w3 neg w2 neg d w3 w2 neg d w3 w2 d cl f} def
/m34 {mp x w2 sub y w2 sub w3 add m w3 0 d  0 w3 neg d w3 0 d 0 w3 d w3 0 d  0 w3 d w3 neg 0 d 0 w3 d w3 neg 0 d 0 w3 neg d w3 neg 0 d cl f } def
/m35 {mp x y w2 add m w2 neg w2 neg d w2 w2 neg d w2 w2 d w2 neg w2 d x y w2 sub m 0 w d x w2 sub y m w 0 d s} def
/m36 {mb x w2 sub y w2 add m w w neg d x w2 sub y w2 sub m w w d s} def
/m37 {mp x y m w4 neg w2 d w4 neg w2 neg d w2 0 d  w4 neg w2 neg d w2 0 d w4 neg w2 d w2 0 d w4 neg w2 d w4 neg w2 neg d cl s} def
/m38 {mp x w4 sub y w2 add m w4 neg w4 neg d 0 w2 neg d w4 w4 neg d w2 0 d w4 w4 d 0 w2 d w4 neg w4 d w2 neg 0 d x y w2 sub m 0 w d x w2 sub y m w 0 d cl s} def
/m39 {mp x y m w4 neg w2 d w4 neg w2 neg d w2 0 d  w4 neg w2 neg d w2 0 d w4 neg w2 d w2 0 d w4 neg w2 d w4 neg w2 neg d cl f} def
/m40 {mp x y m w4 w2 d w4 w4 neg d w2 neg w4 neg d w2 w4 neg d w4 neg w4 neg d w4 neg w2 d w4 neg w2 neg d w4 neg w4 d w2 w4 d w2 neg w4 d w4 w4 d w4 w2 neg d cl s} def
/m41 {mp x y m w4 w2 d w4 w4 neg d w2 neg w4 neg d w2 w4 neg d w4 neg w4 neg d w4 neg w2 d w4 neg w2 neg d w4 neg w4 d w2 w4 d w2 neg w4 d w4 w4 d w4 w2 neg d cl f} def
/m42 {mp x y w2 add m w8 neg w2 -3 4 div mul d w2 -3 4 div mul w8 neg d w2 3 4 div mul w8 neg d w8 w2 -3 4 div mul d w8 w2 3 4 div mul d w2 3 4 div mul w8 d w2 -3 4 div mul w8 d w8 neg w2 3 4 div mul d cl s} def
/m43 {mp x y w2 add m w8 neg w2 -3 4 div mul d w2 -3 4 div mul w8 neg d w2 3 4 div mul w8 neg d w8 w2 -3 4 div mul d w8 w2 3 4 div mul d w2 3 4 div mul w8 d w2 -3 4 div mul w8 d w8 neg w2 3 4 div mul d cl f} def
/m44 {mp x y m w6 neg w2 d w2 2 3 div mul 0 d w6 neg w2 neg d w2 w6 d 0 w2 -2 3 div mul d w2 neg w6 d w6 w2 neg d w2 -2 3 div mul 0 d w6 w2 d w2 neg w6 neg d 0 w2 2 3 div mul d w2 w6 neg d cl s} def
/m45 {mp x y m w6 neg w2 d w2 2 3 div mul 0 d w6 neg w2 neg d w2 w6 d 0 w2 -2 3 div mul d w2 neg w6 d w6 w2 neg d w2 -2 3 div mul 0 d w6 w2 d w2 neg w6 neg d 0 w2 2 3 div mul d w2 w6 neg d cl f} def
/m46 {mp x y w4 add m w4 neg w4 d w4 neg w4 neg d  w4 w4 neg d w4 neg w4 neg d w4 w4 neg d w4 w4 d w4 w4 neg d w4 w4 d w4 neg w4 d w4 w4 d w4 neg w4 d w4 neg w4 neg d cl s} def
/m47 {mp x y w4 add m w4 neg w4 d w4 neg w4 neg d w4 w4 neg d w4 neg w4 neg d  w4 w4 neg d w4 w4 d w4 w4 neg d w4 w4 d w4 neg w4 d w4 w4 d w4 neg w4 d w4 neg w4 neg d cl f} def
/m48 {mp x y w4 add m w4 neg w4 d w4 neg w4 neg d w4 w4 neg d  w4 neg w4 neg d w4 w4 neg d w4 w4 d w4 w4 neg d w4 w4 d w4 neg w4 d w4 w4 d w4 neg w4 d w4 neg w4 neg d  w4 w4 neg d w4 neg w4 neg d w4 neg w4 d w4 w4 d cl f} def
/m49 {mp x w2 sub w3 add y w2 sub w3 add m  0 w3 neg d w3 0 d 0 w3 d w3 0 d 0 w3 d w3 neg 0 d 0 w3 d w3 neg 0 d 0 w3 neg d w3 neg 0 d 0 w3 neg d w3 0 d 0 w3 d w3 0 d 0 w3 neg d w3 neg 0 d cl f } def
/m2 {mp x y w2 sub m 0 w d x w2 sub y m w 0 d s} def
/m5 {mp x w2 sub y w2 sub m w w d x w2 sub y w2 add m w w neg d s} def
%%IncludeResource: ProcSet (FontSetInit)
%%IncludeResource: font Times-Roman
%%IncludeResource: font Times-Italic
%%IncludeResource: font Times-Bold
%%IncludeResource: font Times-BoldItalic
%%IncludeResource: font Helvetica
%%IncludeResource: font Helvetica-Oblique
%%IncludeResource: font Helvetica-Bold
%%IncludeResource: font Helvetica-BoldOblique
%%IncludeResource: font Courier
%%IncludeResource: font Courier-Oblique
%%IncludeResource: font Courier-Bold
%%IncludeResource: font Courier-BoldOblique
%%IncludeResource: font Symbol
%%IncludeResource: font ZapfDingbats
/reEncode {exch findfont dup length dict begin {1 index /FID eq  {pop pop} {def} ifelse } forall /Encoding exch def currentdict end dup /FontName get exch definefont pop } def [/Times-Bold /Times-Italic /Times-BoldItalic /Helvetica /Helvetica-Oblique
 /Helvetica-Bold /Helvetica-BoldOblique /Courier /Courier-Oblique /Courier-Bold /Courier-BoldOblique /Times-Roman /AvantGarde-Book /AvantGarde-BookOblique /AvantGarde-Demi /AvantGarde-DemiOblique /Bookman-Demi /Bookman-DemiItalic /Bookman-Light
 /Bookman-LightItalic /Helvetica-Narrow /Helvetica-Narrow-Bold /Helvetica-Narrow-BoldOblique /Helvetica-Narrow-Oblique /NewCenturySchlbk-Roman /NewCenturySchlbk-Bold /NewCenturySchlbk-BoldItalic /NewCenturySchlbk-Italic /Palatino-Bold
 /Palatino-BoldItalic /Palatino-Italic /Palatino-Roman ] {ISOLatin1Encoding reEncode } forall
%%EndProlog
%%BeginSetup
%%EndSetup
newpath  gsave  .25 .25 scale  gsave  0 0 t black[  ] 0 sd 3 lw 1 1 1 c 2268 1575 0 0 bf black 1 1 1 c 2268 472 0 0 bf black 1 1 1 c 1927 274 227 189 bf black 1927 274 227 189 bl 227 189 m 1927 X s 227 201 m -12 Y s 265 195 m -6 Y s 304 195 m -6 Y s
 342 195 m -6 Y s 381 195 m -6 Y s 420 201 m -12 Y s 458 195 m -6 Y s 497 195 m -6 Y s 535 195 m -6 Y s 574 195 m -6 Y s 612 201 m -12 Y s 651 195 m -6 Y s 689 195 m -6 Y s 728 195 m -6 Y s 766 195 m -6 Y s 805 201 m -12 Y s 844 195 m -6 Y s 882 195
 m -6 Y s 921 195 m -6 Y s 959 195 m -6 Y s 998 201 m -12 Y s 1036 195 m -6 Y s 1075 195 m -6 Y s 1113 195 m -6 Y s 1152 195 m -6 Y s 1191 201 m -12 Y s 1229 195 m -6 Y s 1268 195 m -6 Y s 1306 195 m -6 Y s 1345 195 m -6 Y s 1383 201 m -12 Y s 1422
 195 m -6 Y s 1460 195 m -6 Y s 1499 195 m -6 Y s 1538 195 m -6 Y s 1576 201 m -12 Y s 1615 195 m -6 Y s 1653 195 m -6 Y s 1692 195 m -6 Y s 1730 195 m -6 Y s 1769 201 m -12 Y s 1807 195 m -6 Y s 1846 195 m -6 Y s 1884 195 m -6 Y s 1923 195 m -6 Y s
 1962 201 m -12 Y s 2000 195 m -6 Y s 2039 195 m -6 Y s 2077 195 m -6 Y s 2116 195 m -6 Y s 2154 201 m -12 Y s
 gsave  2268 472 0 0 C 210.193 127.3 t 0 r /Helvetica findfont 53.4895 sf 0 0 m (0) show NC gr 
 gsave  2268 472 0 0 C 384.861 127.3 t 0 r /Helvetica findfont 53.4895 sf 0 0 m (0.1) show NC gr 
 gsave  2268 472 0 0 C 571.37 127.3 t 0 r /Helvetica findfont 53.4895 sf 0 0 m (0.2) show NC gr 
 gsave  2268 472 0 0 C 763.8 127.3 t 0 r /Helvetica findfont 53.4895 sf 0 0 m (0.3) show NC gr 
 gsave  2268 472 0 0 C 959.191 127.3 t 0 r /Helvetica findfont 53.4895 sf 0 0 m (0.4) show NC gr 
 gsave  2268 472 0 0 C 1151.62 127.3 t 0 r /Helvetica findfont 53.4895 sf 0 0 m (0.5) show NC gr 
 gsave  2268 472 0 0 C 1344.05 127.3 t 0 r /Helvetica findfont 53.4895 sf 0 0 m (0.6) show NC gr 
 gsave  2268 472 0 0 C 1536.48 127.3 t 0 r /Helvetica findfont 53.4895 sf 0 0 m (0.7) show NC gr 
 gsave  2268 472 0 0 C 1728.91 127.3 t 0 r /Helvetica findfont 53.4895 sf 0 0 m (0.8) show NC gr 
 gsave  2268 472 0 0 C 1921.34 127.3 t 0 r /Helvetica findfont 53.4895 sf 0 0 m (0.9) show NC gr 
 gsave  2268 472 0 0 C 2140.42 127.3 t 0 r /Helvetica findfont 53.4895 sf 0 0 m (1) show NC gr 
 gsave  2268 472 0 0 C 2137.46 47.3674 t 0 r /Helvetica findfont 56.4611 sf 0 0 m (\)) show NC gr 
 gsave  2268 472 0 0 C 1956.87 47.3674 t 0 r /Helvetica-Oblique findfont 56.4611 sf 0 0 m (WZ/ZZ) show NC gr 
 gsave  2268 472 0 0 C 1826.61 47.3674 t 0 r /Helvetica findfont 56.4611 sf 0 0 m (BDT\() show NC gr  227 463 m 1927 X s 227 451 m 12 Y s 265 457 m 6 Y s 304 457 m 6 Y s 342 457 m 6 Y s 381 457 m 6 Y s 420 451 m 12 Y s 458 457 m 6 Y s 497 457 m 6 Y s
 535 457 m 6 Y s 574 457 m 6 Y s 612 451 m 12 Y s 651 457 m 6 Y s 689 457 m 6 Y s 728 457 m 6 Y s 766 457 m 6 Y s 805 451 m 12 Y s 844 457 m 6 Y s 882 457 m 6 Y s 921 457 m 6 Y s 959 457 m 6 Y s 998 451 m 12 Y s 1036 457 m 6 Y s 1075 457 m 6 Y s 1113
 457 m 6 Y s 1152 457 m 6 Y s 1191 451 m 12 Y s 1229 457 m 6 Y s 1268 457 m 6 Y s 1306 457 m 6 Y s 1345 457 m 6 Y s 1383 451 m 12 Y s 1422 457 m 6 Y s 1460 457 m 6 Y s 1499 457 m 6 Y s 1538 457 m 6 Y s 1576 451 m 12 Y s 1615 457 m 6 Y s 1653 457 m 6
 Y s 1692 457 m 6 Y s 1730 457 m 6 Y s 1769 451 m 12 Y s 1807 457 m 6 Y s 1846 457 m 6 Y s 1884 457 m 6 Y s 1923 457 m 6 Y s 1962 451 m 12 Y s 2000 457 m 6 Y s 2039 457 m 6 Y s 2077 457 m 6 Y s 2116 457 m 6 Y s 2154 451 m 12 Y s 227 189 m 274 Y s 240
 240 m -13 X s 240 326 m -13 X s 240 412 m -13 X s 240 240 m -13 X s 240 412 m -13 X s
 gsave  2268 472 0 0 C 118.419 222.035 t 0 r /Helvetica findfont 53.4895 sf 0 0 m (0.5) show NC gr 
 gsave  2268 472 0 0 C 171.707 307.888 t 0 r /Helvetica findfont 53.4895 sf 0 0 m (1) show NC gr 
 gsave  2268 472 0 0 C 118.419 393.742 t 0 r /Helvetica findfont 53.4895 sf 0 0 m (1.5) show NC gr 
 gsave  2268 472 0 0 C 71.0512 230.916 t 90 r /Helvetica findfont 53.4895 sf 0 0 m (Data / SM) show NC gr  2154 189 m 274 Y s 2141 240 m 13 X s 2141 326 m 13 X s 2141 412 m 13 X s 2141 240 m 13 X s 2141 412 m 13 X s 227 189 m 1927 X s 227 463 m 1927
 X s 227 189 m 274 Y s[ 4 8] 0 sd 2154 240 m -1927 X s 2154 326 m -1927 X s 2154 412 m -1927 X s 2154 240 m -1927 X s 2154 412 m -1927 X s[  ] 0 sd 2154 189 m 274 Y s 1 1 0.6 c 193 0 227 326 bf 192 0 420 326 bf 193 0 612 326 bf 193 0 805 326 bf 193 0
 998 326 bf 192 0 1191 326 bf 193 0 1383 326 bf 193 0 1576 326 bf 193 0 1769 326 bf 192 0 1962 326 bf black 0.6 0.6 0.6 c 420 325 m -1 -1 d s 404 328 m -4 -4 d s 385 328 m -5 -4 d s 365 328 m -4 -4 d s 346 328 m -4 -4 d s 327 328 m -4 -4 d s 308 328
 m -5 -4 d s 288 328 m -4 -4 d s 269 328 m -4 -4 d s 250 328 m -4 -4 d s 231 328 m -4 -4 d s 612 325 m -2 -2 d s 597 329 m -6 -6 d s 578 329 m -6 -6 d s 559 329 m -6 -6 d s 540 329 m -7 -6 d s 520 329 m -6 -6 d s 501 329 m -6 -6 d s 482 329 m -6 -6 d
 s 463 329 m -7 -6 d s 443 329 m -6 -6 d s 424 329 m -4 -4 d s 805 325 m -3 -3 d s 790 330 m -7 -8 d s 771 330 m -7 -8 d s 752 330 m -7 -8 d s 732 330 m -7 -8 d s 713 330 m -7 -8 d s 694 330 m -7 -8 d s 675 330 m -7 -8 d s 655 330 m -7 -8 d s 636 330
 m -7 -8 d s 617 330 m -5 -5 d s 998 326 m -3 -3 d s 983 330 m -7 -7 d s 963 330 m -7 -7 d s 944 330 m -7 -7 d s 925 330 m -7 -7 d s 906 330 m -7 -7 d s 886 330 m -7 -7 d s 867 330 m -7 -7 d s 848 330 m -7 -7 d s 829 330 m -7 -7 d s 809 330 m -4 -5 d
 s 1191 326 m -6 -6 d s 1177 332 m -11 -12 d s 1158 332 m -11 -12 d s 1139 332 m -12 -12 d s 1119 332 m -11 -12 d s 1100 332 m -11 -12 d s 1081 332 m -11 -12 d s 1062 332 m -12 -12 d s 1042 332 m -11 -12 d s 1023 332 m -11 -12 d s 1004 332 m -6 -6 d
 s 1383 326 m -3 -3 d s 1367 329 m -7 -6 d s 1348 329 m -7 -6 d s 1329 329 m -7 -6 d s 1310 329 m -7 -6 d s 1290 329 m -7 -6 d s 1271 329 m -7 -6 d s 1252 329 m -7 -6 d s 1233 329 m -7 -6 d s 1213 329 m -7 -6 d s 1194 329 m -3 -3 d s 1576 327 m -6 -6
 d s 1561 331 m -10 -10 d s 1542 331 m -10 -10 d s 1523 331 m -10 -10 d s 1504 331 m -11 -10 d s 1485 331 m -11 -10 d s 1465 331 m -10 -10 d s 1446 331 m -10 -10 d s 1427 331 m -11 -10 d s 1408 331 m -11 -10 d s 1388 331 m -5 -5 d s 1769 327 m -5 -5
 d s 1752 330 m -7 -8 d s 1733 330 m -7 -8 d s 1714 330 m -7 -8 d s 1695 330 m -8 -8 d s 1675 330 m -7 -8 d s 1656 330 m -7 -8 d s 1637 330 m -7 -8 d s 1618 330 m -8 -8 d s 1598 330 m -7 -8 d s 1579 330 m -3 -3 d s 1962 327 m -6 -6 d s 1946 331 m -9
 -10 d s 1926 331 m -9 -10 d s 1907 331 m -9 -10 d s 1888 331 m -9 -10 d s 1869 331 m -9 -10 d s 1849 331 m -9 -10 d s 1830 331 m -9 -10 d s 1811 331 m -9 -10 d s 1792 331 m -9 -10 d s 1772 331 m -3 -4 d s 2154 328 m -6 -7 d s 2139 331 m -11 -10 d s
 2120 331 m -11 -10 d s 2100 331 m -10 -10 d s 2081 331 m -10 -10 d s 2062 331 m -11 -10 d s 2043 331 m -11 -10 d s 2023 331 m -10 -10 d s 2004 331 m -10 -10 d s 1985 331 m -11 -10 d s 1966 331 m -4 -4 d s black 1 1 1 c black /w 26 def /w2 {w 2 div}
 def /w3 {w 3 div} def 323 324 m20 516 327 m20 709 319 m20 901 300 m20 1094 314 m20 1287 326 m 2 Y s 1287 351 m 3 Y s 1287 340 m20 1480 327 m 3 Y s 1480 354 m 3 Y s 1480 342 m20 1672 304 m 2 Y s 1672 330 m 2 Y s 1672 318 m20 1865 312 m 3 Y s 1865 339
 m 3 Y s 1865 327 m20 2058 327 m 4 Y s 2058 355 m 5 Y s 2058 343 m20 227 326 m 1927 X s 227 189 m 1927 X s 227 201 m -12 Y s 265 195 m -6 Y s 304 195 m -6 Y s 342 195 m -6 Y s 381 195 m -6 Y s 420 201 m -12 Y s 458 195 m -6 Y s 497 195 m -6 Y s 535
 195 m -6 Y s 574 195 m -6 Y s 612 201 m -12 Y s 651 195 m -6 Y s 689 195 m -6 Y s 728 195 m -6 Y s 766 195 m -6 Y s 805 201 m -12 Y s 844 195 m -6 Y s 882 195 m -6 Y s 921 195 m -6 Y s 959 195 m -6 Y s 998 201 m -12 Y s 1036 195 m -6 Y s 1075 195 m
 -6 Y s 1113 195 m -6 Y s 1152 195 m -6 Y s 1191 201 m -12 Y s 1229 195 m -6 Y s 1268 195 m -6 Y s 1306 195 m -6 Y s 1345 195 m -6 Y s 1383 201 m -12 Y s 1422 195 m -6 Y s 1460 195 m -6 Y s 1499 195 m -6 Y s 1538 195 m -6 Y s 1576 201 m -12 Y s 1615
 195 m -6 Y s 1653 195 m -6 Y s 1692 195 m -6 Y s 1730 195 m -6 Y s 1769 201 m -12 Y s 1807 195 m -6 Y s 1846 195 m -6 Y s 1884 195 m -6 Y s 1923 195 m -6 Y s 1962 201 m -12 Y s 2000 195 m -6 Y s 2039 195 m -6 Y s 2077 195 m -6 Y s 2116 195 m -6 Y s
 2154 201 m -12 Y s 227 463 m 1927 X s 227 451 m 12 Y s 265 457 m 6 Y s 304 457 m 6 Y s 342 457 m 6 Y s 381 457 m 6 Y s 420 451 m 12 Y s 458 457 m 6 Y s 497 457 m 6 Y s 535 457 m 6 Y s 574 457 m 6 Y s 612 451 m 12 Y s 651 457 m 6 Y s 689 457 m 6 Y s
 728 457 m 6 Y s 766 457 m 6 Y s 805 451 m 12 Y s 844 457 m 6 Y s 882 457 m 6 Y s 921 457 m 6 Y s 959 457 m 6 Y s 998 451 m 12 Y s 1036 457 m 6 Y s 1075 457 m 6 Y s 1113 457 m 6 Y s 1152 457 m 6 Y s 1191 451 m 12 Y s 1229 457 m 6 Y s 1268 457 m 6 Y s
 1306 457 m 6 Y s 1345 457 m 6 Y s 1383 451 m 12 Y s 1422 457 m 6 Y s 1460 457 m 6 Y s 1499 457 m 6 Y s 1538 457 m 6 Y s 1576 451 m 12 Y s 1615 457 m 6 Y s 1653 457 m 6 Y s 1692 457 m 6 Y s 1730 457 m 6 Y s 1769 451 m 12 Y s 1807 457 m 6 Y s 1846 457
 m 6 Y s 1884 457 m 6 Y s 1923 457 m 6 Y s 1962 451 m 12 Y s 2000 457 m 6 Y s 2039 457 m 6 Y s 2077 457 m 6 Y s 2116 457 m 6 Y s 2154 451 m 12 Y s 227 189 m 274 Y s 240 240 m -13 X s 240 326 m -13 X s 240 412 m -13 X s 240 240 m -13 X s 240 412 m -13
 X s 2154 189 m 274 Y s 2141 240 m 13 X s 2141 326 m 13 X s 2141 412 m 13 X s 2141 240 m 13 X s 2141 412 m 13 X s 1 1 1 c 2268 1103 0 472 bf black 1 1 1 c 1927 1036 227 484 bf black 1927 1036 227 484 bl 1 1 1 c black 3 lw 227 484 m 1927 X s 227 502 m
 -18 Y s 265 493 m -9 Y s 304 493 m -9 Y s 342 493 m -9 Y s 381 493 m -9 Y s 420 502 m -18 Y s 458 493 m -9 Y s 497 493 m -9 Y s 535 493 m -9 Y s 574 493 m -9 Y s 612 502 m -18 Y s 651 493 m -9 Y s 689 493 m -9 Y s 728 493 m -9 Y s 766 493 m -9 Y s
 805 502 m -18 Y s 844 493 m -9 Y s 882 493 m -9 Y s 921 493 m -9 Y s 959 493 m -9 Y s 998 502 m -18 Y s 1036 493 m -9 Y s 1075 493 m -9 Y s 1113 493 m -9 Y s 1152 493 m -9 Y s 1191 502 m -18 Y s 1229 493 m -9 Y s 1268 493 m -9 Y s 1306 493 m -9 Y s
 1345 493 m -9 Y s 1383 502 m -18 Y s 1422 493 m -9 Y s 1460 493 m -9 Y s 1499 493 m -9 Y s 1538 493 m -9 Y s 1576 502 m -18 Y s 1615 493 m -9 Y s 1653 493 m -9 Y s 1692 493 m -9 Y s 1730 493 m -9 Y s 1769 502 m -18 Y s 1807 493 m -9 Y s 1846 493 m
 -9 Y s 1884 493 m -9 Y s 1923 493 m -9 Y s 1962 502 m -18 Y s 2000 493 m -9 Y s 2039 493 m -9 Y s 2077 493 m -9 Y s 2116 493 m -9 Y s 2154 502 m -18 Y s
 gsave  2268 1103 0 472 C 2143.38 402.623 t 0 r /Helvetica findfont 29.6365 sf 0 0 m (\)) show NC gr 
 gsave  2268 1103 0 472 C 2048.64 402.623 t 0 r /Helvetica-Oblique findfont 29.6365 sf 0 0 m (WZ/ZZ) show NC gr 
 gsave  2268 1103 0 472 C 1980.55 402.623 t 0 r /Helvetica findfont 29.6365 sf 0 0 m (BDT\() show NC gr  227 1520 m 1927 X s 227 1501 m 19 Y s 265 1510 m 10 Y s 304 1510 m 10 Y s 342 1510 m 10 Y s 381 1510 m 10 Y s 420 1501 m 19 Y s 458 1510 m 10 Y s
 497 1510 m 10 Y s 535 1510 m 10 Y s 574 1510 m 10 Y s 612 1501 m 19 Y s 651 1510 m 10 Y s 689 1510 m 10 Y s 728 1510 m 10 Y s 766 1510 m 10 Y s 805 1501 m 19 Y s 844 1510 m 10 Y s 882 1510 m 10 Y s 921 1510 m 10 Y s 959 1510 m 10 Y s 998 1501 m 19 Y
 s 1036 1510 m 10 Y s 1075 1510 m 10 Y s 1113 1510 m 10 Y s 1152 1510 m 10 Y s 1191 1501 m 19 Y s 1229 1510 m 10 Y s 1268 1510 m 10 Y s 1306 1510 m 10 Y s 1345 1510 m 10 Y s 1383 1501 m 19 Y s 1422 1510 m 10 Y s 1460 1510 m 10 Y s 1499 1510 m 10 Y s
 1538 1510 m 10 Y s 1576 1501 m 19 Y s 1615 1510 m 10 Y s 1653 1510 m 10 Y s 1692 1510 m 10 Y s 1730 1510 m 10 Y s 1769 1501 m 19 Y s 1807 1510 m 10 Y s 1846 1510 m 10 Y s 1884 1510 m 10 Y s 1923 1510 m 10 Y s 1962 1501 m 19 Y s 2000 1510 m 10 Y s
 2039 1510 m 10 Y s 2077 1510 m 10 Y s 2116 1510 m 10 Y s 2154 1501 m 19 Y s 227 484 m 1036 Y s 248 661 m -21 X s 237 697 m -10 X s 237 733 m -10 X s 237 768 m -10 X s 237 804 m -10 X s 248 839 m -21 X s 237 875 m -10 X s 237 911 m -10 X s 237 946 m
 -10 X s 237 982 m -10 X s 248 1017 m -21 X s 237 1053 m -10 X s 237 1088 m -10 X s 237 1124 m -10 X s 237 1160 m -10 X s 248 1195 m -21 X s 237 1231 m -10 X s 237 1266 m -10 X s 237 1302 m -10 X s 237 1338 m -10 X s 248 1373 m -21 X s 248 661 m -21
 X s 237 626 m -10 X s 237 590 m -10 X s 237 555 m -10 X s 237 519 m -10 X s 248 1373 m -21 X s 237 1409 m -10 X s 237 1444 m -10 X s 237 1480 m -10 X s 237 1516 m -10 X s
 gsave  2268 1103 0 472 C 118.419 642.421 t 0 r /Helvetica findfont 50.382 sf 0 0 m (500) show NC gr 
 gsave  2268 1103 0 472 C 91.7744 820.049 t 0 r /Helvetica findfont 50.382 sf 0 0 m (1000) show NC gr 
 gsave  2268 1103 0 472 C 91.7744 997.677 t 0 r /Helvetica findfont 50.382 sf 0 0 m (1500) show NC gr 
 gsave  2268 1103 0 472 C 91.7744 1175.3 t 0 r /Helvetica findfont 50.382 sf 0 0 m (2000) show NC gr 
 gsave  2268 1103 0 472 C 91.7744 1352.93 t 0 r /Helvetica findfont 50.382 sf 0 0 m (2500) show NC gr 
 gsave  2268 1103 0 472 C 62.1698 1367.74 t 90 r /Helvetica findfont 50.382 sf 0 0 m (Events) show NC gr  2154 484 m 1036 Y s 2133 661 m 21 X s 2144 697 m 10 X s 2144 733 m 10 X s 2144 768 m 10 X s 2144 804 m 10 X s 2133 839 m 21 X s 2144 875 m 10 X
 s 2144 911 m 10 X s 2144 946 m 10 X s 2144 982 m 10 X s 2133 1017 m 21 X s 2144 1053 m 10 X s 2144 1088 m 10 X s 2144 1124 m 10 X s 2144 1160 m 10 X s 2133 1195 m 21 X s 2144 1231 m 10 X s 2144 1266 m 10 X s 2144 1302 m 10 X s 2144 1338 m 10 X s
 2133 1373 m 21 X s 2133 661 m 21 X s 2144 626 m 10 X s 2144 590 m 10 X s 2144 555 m 10 X s 2144 519 m 10 X s 2133 1373 m 21 X s 2144 1409 m 10 X s 2144 1444 m 10 X s 2144 1480 m 10 X s 2144 1516 m 10 X s 0.4 0.6 0.4 c black 3 lw 0.4 0.6 0.4 c 227
 484 m 414 Y 193 X -209 Y 192 X -77 Y 193 X -38 Y 193 X -17 Y 193 X -15 Y 192 X -8 Y 193 X -3 Y 386 X -5 Y 192 X -42 Y f 0.06 0.54 0.06 c 0.999 0.999 0.999 c black 3 lw 0.999 0.999 0.999 c 227 484 m 336 Y 193 X -195 Y 192 X -58 Y 193 X -28 Y 193 X
 -11 Y 193 X -10 Y 192 X -6 Y 386 X 1 Y 193 X 1 Y 192 X -30 Y f 0.06 0.54 0.06 c 0.999 0.999 0.999 c 0.06 0.54 0.06 c 1 1 1 c black 0.06 0.54 0.06 c black 3 lw 0.06 0.54 0.06 c 227 484 m 336 Y 193 X -195 Y 192 X -58 Y 193 X -28 Y 193 X -11 Y 193 X
 -10 Y 192 X -6 Y 386 X 1 Y 193 X 1 Y 192 X -30 Y f 1 0.653333 0 c 0.999 0.999 0.999 c black 3 lw 0.999 0.999 0.999 c 227 484 m 230 Y 193 X -127 Y 192 X -44 Y 193 X -18 Y 193 X -7 Y 193 X -7 Y 192 X -5 Y 193 X 1 Y 193 X 3 Y 193 X 3 Y 192 X -29 Y f 1
 0.653333 0 c 0.999 0.999 0.999 c 1 0.653333 0 c 1 1 1 c black 1 0.653333 0 c black 3 lw 1 0.653333 0 c 227 484 m 230 Y 193 X -127 Y 192 X -44 Y 193 X -18 Y 193 X -7 Y 193 X -7 Y 192 X -5 Y 193 X 1 Y 193 X 3 Y 193 X 3 Y 192 X -29 Y f 0.413333 1 0 c
 0.999 0.999 0.999 c black 3 lw 0.999 0.999 0.999 c 227 484 m 184 Y 193 X -106 Y 192 X -31 Y 193 X -12 Y 193 X -7 Y 193 X -4 Y 192 X -2 Y 386 X 3 Y 193 X 2 Y 192 X -27 Y f 0.413333 1 0 c 0.999 0.999 0.999 c 0.413333 1 0 c 1 1 1 c black 0.413333 1 0 c
 black 3 lw 0.413333 1 0 c 227 484 m 184 Y 193 X -106 Y 192 X -31 Y 193 X -12 Y 193 X -7 Y 193 X -4 Y 192 X -2 Y 386 X 3 Y 193 X 2 Y 192 X -27 Y f 0.6 0.2 1 c 0.999 0.999 0.999 c black 3 lw 0.999 0.999 0.999 c 227 484 m 180 Y 193 X -108 Y 192 X -31 Y
 193 X -12 Y 193 X -8 Y 193 X -5 Y 192 X -4 Y 193 X -3 Y 193 X -1 Y 193 X -4 Y 192 X -4 Y f 0.6 0.2 1 c 0.999 0.999 0.999 c 0.6 0.2 1 c 1 1 1 c black 0.6 0.2 1 c black 3 lw 0.6 0.2 1 c 227 484 m 180 Y 193 X -108 Y 192 X -31 Y 193 X -12 Y 193 X -8 Y
 193 X -5 Y 192 X -4 Y 193 X -3 Y 193 X -1 Y 193 X -4 Y 192 X -4 Y f 0.54 0.06 0.06 c 0.999 0.999 0.999 c black 3 lw 0.999 0.999 0.999 c 227 484 m 153 Y 193 X -91 Y 192 X -27 Y 193 X -10 Y 193 X -7 Y 193 X -4 Y 192 X -3 Y 193 X -3 Y 193 X -1 Y 193 X
 -3 Y 192 X -4 Y f 0.54 0.06 0.06 c 0.999 0.999 0.999 c 0.54 0.06 0.06 c 1 1 1 c black 0.54 0.06 0.06 c black 3 lw 0.54 0.06 0.06 c 227 484 m 153 Y 193 X -91 Y 192 X -27 Y 193 X -10 Y 193 X -7 Y 193 X -4 Y 192 X -3 Y 193 X -3 Y 193 X -1 Y 193 X -3 Y
 192 X -4 Y f 1 0 1 c 0.999 0.999 0.999 c black 3 lw 0.999 0.999 0.999 c 227 484 m 35 Y 193 X -20 Y 192 X -6 Y 193 X -2 Y 193 X -2 Y 193 X -1 Y 192 X -1 Y 771 X -3 Y f 1 0 1 c 0.999 0.999 0.999 c 1 0 1 c 1 1 1 c black 1 0 1 c black 3 lw 1 0 1 c 227
 484 m 35 Y 193 X -20 Y 192 X -6 Y 193 X -2 Y 193 X -2 Y 193 X -1 Y 192 X -1 Y 771 X -3 Y f 0 0 1 c 0.999 0.999 0.999 c black 3 lw 0.999 0.999 0.999 c 227 484 m 29 Y 193 X -20 Y 192 X -4 Y 193 X -2 Y 386 X -1 Y 192 X -1 Y 386 X 1 Y 385 X -2 Y f 0 0 1
 c 0.999 0.999 0.999 c 0 0 1 c 1 1 1 c black 0 0 1 c black 3 lw 0 0 1 c 227 484 m 29 Y 193 X -20 Y 192 X -4 Y 193 X -2 Y 386 X -1 Y 192 X -1 Y 386 X 1 Y 385 X -2 Y f 0.2 0.8 0.8 c 0.999 0.999 0.999 c black 3 lw 0.999 0.999 0.999 c 227 484 m 4 Y 193 X
 -2 Y 192 X -1 Y 1157 X 1 Y 385 X -2 Y f 0.2 0.8 0.8 c 0.999 0.999 0.999 c 0.2 0.8 0.8 c 1 1 1 c black 0.2 0.8 0.8 c black 3 lw 0.2 0.8 0.8 c 227 484 m 4 Y 193 X -2 Y 192 X -1 Y 1157 X 1 Y 385 X -2 Y f 1 0 0 c 0.999 0.999 0.999 c black 3 lw 0.999
 0.999 0.999 c 227 484 m 2 Y 193 X -2 Y 1349 X 1 Y 193 X 1 Y 192 X -2 Y f 1 0 0 c 0.999 0.999 0.999 c 1 0 0 c 1 1 1 c black 1 0 0 c black 3 lw 1 0 0 c 227 484 m 2 Y 193 X -2 Y 1349 X 1 Y 193 X 1 Y 192 X -2 Y f 1 0.84 0 c 0.999 0.999 0.999 c black 3
 lw 0.999 0.999 0.999 c 227 484 m 1 Y 193 X -1 Y 1349 X 1 Y 193 X 1 Y 192 X -2 Y f 1 0.84 0 c 0.999 0.999 0.999 c 1 0.84 0 c 1 1 1 c black 1 0.84 0 c black 3 lw 1 0.84 0 c 227 484 m 1 Y 193 X -1 Y 1349 X 1 Y 193 X 1 Y 192 X -2 Y f black 1 1 1 c black
 0.6 0.6 0.6 c 3 lw 412 903 m -10 -10 d s 393 903 m -11 -10 d s 374 903 m -11 -10 d s 355 903 m -11 -10 d s 335 903 m -10 -10 d s 316 903 m -10 -10 d s 297 903 m -11 -10 d s 278 903 m -11 -10 d s 258 903 m -10 -10 d s 239 903 m -10 -10 d s 3 lw 606
 693 m -8 -8 d s 587 693 m -8 -8 d s 567 693 m -7 -8 d s 548 693 m -8 -8 d s 529 693 m -8 -8 d s 510 693 m -8 -8 d s 490 693 m -7 -8 d s 471 693 m -8 -8 d s 452 693 m -8 -8 d s 433 693 m -8 -8 d s 3 lw 797 615 m -6 -6 d s 777 615 m -5 -6 d s 758 615
 m -5 -6 d s 739 615 m -5 -6 d s 720 615 m -6 -6 d s 700 615 m -5 -6 d s 681 615 m -5 -6 d s 662 615 m -5 -6 d s 643 615 m -6 -6 d s 623 615 m -5 -6 d s 3 lw 989 576 m -4 -4 d s 969 576 m -3 -4 d s 950 576 m -3 -4 d s 931 576 m -4 -4 d s 912 576 m -4
 -4 d s 893 576 m -4 -4 d s 873 576 m -3 -4 d s 854 576 m -4 -4 d s 835 576 m -4 -4 d s 816 576 m -4 -4 d s 3 lw 1184 560 m -5 -5 d s 1165 560 m -5 -5 d s 1146 560 m -5 -5 d s 1127 560 m -5 -5 d s 1107 560 m -5 -5 d s 1088 560 m -5 -5 d s 1069 560 m
 -5 -5 d s 1050 560 m -5 -5 d s 1030 560 m -5 -5 d s 1011 560 m -5 -5 d s 3 lw 1379 543 m -2 -2 d s 1360 543 m -2 -2 d s 1341 543 m -3 -2 d s 1321 543 m -2 -2 d s 1302 543 m -2 -2 d s 1283 543 m -2 -2 d s 1264 543 m -3 -2 d s 1244 543 m -2 -2 d s
 1225 543 m -2 -2 d s 1206 543 m -2 -2 d s 3 lw 1564 536 m -3 -3 d s 1545 536 m -3 -3 d s 1526 536 m -3 -3 d s 1507 536 m -3 -3 d s 1487 536 m -3 -3 d s 1468 536 m -3 -3 d s 1449 536 m -3 -3 d s 1430 536 m -3 -3 d s 1410 536 m -3 -3 d s 1391 536 m -3
 -3 d s 3 lw 1753 532 m -2 -2 d s 1734 532 m -2 -2 d s 1715 532 m -2 -2 d s 1695 532 m -2 -2 d s 1676 532 m -2 -2 d s 1657 532 m -2 -2 d s 1638 532 m -2 -2 d s 1619 532 m -2 -2 d s 1599 532 m -2 -2 d s 1580 532 m -2 -2 d s 3 lw 1946 532 m -3 -2 d s
 1926 532 m -2 -2 d s 1907 532 m -3 -2 d s 1888 532 m -3 -2 d s 1869 532 m -3 -2 d s 1849 532 m -2 -2 d s 1830 532 m -2 -2 d s 1811 532 m -3 -2 d s 1792 532 m -3 -2 d s 1772 532 m -2 -2 d s 3 lw 2152 527 m -2 -2 d s 2133 527 m -3 -2 d s 2114 527 m -3
 -2 d s 2094 527 m -2 -2 d s 2075 527 m -2 -2 d s 2056 527 m -3 -2 d s 2037 527 m -3 -2 d s 2018 527 m -3 -2 d s 1998 527 m -2 -2 d s 1979 527 m -3 -2 d s black 3 lw 1 1 1 c black 323 881 m s 323 905 m s /w 24 def /w2 {w 2 div} def /w3 {w 3 div} def
 323 893 m20 516 690 m20 709 607 m20 901 560 m20 1094 552 m20 1287 546 m20 1480 539 m20 1672 529 m20 1865 531 m20 2058 530 m20 227 484 m 1927 X s 227 502 m -18 Y s 265 493 m -9 Y s 304 493 m -9 Y s 342 493 m -9 Y s 381 493 m -9 Y s 420 502 m -18 Y s
 458 493 m -9 Y s 497 493 m -9 Y s 535 493 m -9 Y s 574 493 m -9 Y s 612 502 m -18 Y s 651 493 m -9 Y s 689 493 m -9 Y s 728 493 m -9 Y s 766 493 m -9 Y s 805 502 m -18 Y s 844 493 m -9 Y s 882 493 m -9 Y s 921 493 m -9 Y s 959 493 m -9 Y s 998 502 m
 -18 Y s 1036 493 m -9 Y s 1075 493 m -9 Y s 1113 493 m -9 Y s 1152 493 m -9 Y s 1191 502 m -18 Y s 1229 493 m -9 Y s 1268 493 m -9 Y s 1306 493 m -9 Y s 1345 493 m -9 Y s 1383 502 m -18 Y s 1422 493 m -9 Y s 1460 493 m -9 Y s 1499 493 m -9 Y s 1538
 493 m -9 Y s 1576 502 m -18 Y s 1615 493 m -9 Y s 1653 493 m -9 Y s 1692 493 m -9 Y s 1730 493 m -9 Y s 1769 502 m -18 Y s 1807 493 m -9 Y s 1846 493 m -9 Y s 1884 493 m -9 Y s 1923 493 m -9 Y s 1962 502 m -18 Y s 2000 493 m -9 Y s 2039 493 m -9 Y s
 2077 493 m -9 Y s 2116 493 m -9 Y s 2154 502 m -18 Y s 227 1520 m 1927 X s 227 1501 m 19 Y s 265 1510 m 10 Y s 304 1510 m 10 Y s 342 1510 m 10 Y s 381 1510 m 10 Y s 420 1501 m 19 Y s 458 1510 m 10 Y s 497 1510 m 10 Y s 535 1510 m 10 Y s 574 1510 m
 10 Y s 612 1501 m 19 Y s 651 1510 m 10 Y s 689 1510 m 10 Y s 728 1510 m 10 Y s 766 1510 m 10 Y s 805 1501 m 19 Y s 844 1510 m 10 Y s 882 1510 m 10 Y s 921 1510 m 10 Y s 959 1510 m 10 Y s 998 1501 m 19 Y s 1036 1510 m 10 Y s 1075 1510 m 10 Y s 1113
 1510 m 10 Y s 1152 1510 m 10 Y s 1191 1501 m 19 Y s 1229 1510 m 10 Y s 1268 1510 m 10 Y s 1306 1510 m 10 Y s 1345 1510 m 10 Y s 1383 1501 m 19 Y s 1422 1510 m 10 Y s 1460 1510 m 10 Y s 1499 1510 m 10 Y s 1538 1510 m 10 Y s 1576 1501 m 19 Y s 1615
 1510 m 10 Y s 1653 1510 m 10 Y s 1692 1510 m 10 Y s 1730 1510 m 10 Y s 1769 1501 m 19 Y s 1807 1510 m 10 Y s 1846 1510 m 10 Y s 1884 1510 m 10 Y s 1923 1510 m 10 Y s 1962 1501 m 19 Y s 2000 1510 m 10 Y s 2039 1510 m 10 Y s 2077 1510 m 10 Y s 2116
 1510 m 10 Y s 2154 1501 m 19 Y s 227 484 m 1036 Y s 248 661 m -21 X s 237 697 m -10 X s 237 733 m -10 X s 237 768 m -10 X s 237 804 m -10 X s 248 839 m -21 X s 237 875 m -10 X s 237 911 m -10 X s 237 946 m -10 X s 237 982 m -10 X s 248 1017 m -21 X
 s 237 1053 m -10 X s 237 1088 m -10 X s 237 1124 m -10 X s 237 1160 m -10 X s 248 1195 m -21 X s 237 1231 m -10 X s 237 1266 m -10 X s 237 1302 m -10 X s 237 1338 m -10 X s 248 1373 m -21 X s 248 661 m -21 X s 237 626 m -10 X s 237 590 m -10 X s 237
 555 m -10 X s 237 519 m -10 X s 248 1373 m -21 X s 237 1409 m -10 X s 237 1444 m -10 X s 237 1480 m -10 X s 237 1516 m -10 X s 2154 484 m 1036 Y s 2133 661 m 21 X s 2144 697 m 10 X s 2144 733 m 10 X s 2144 768 m 10 X s 2144 804 m 10 X s 2133 839 m
 21 X s 2144 875 m 10 X s 2144 911 m 10 X s 2144 946 m 10 X s 2144 982 m 10 X s 2133 1017 m 21 X s 2144 1053 m 10 X s 2144 1088 m 10 X s 2144 1124 m 10 X s 2144 1160 m 10 X s 2133 1195 m 21 X s 2144 1231 m 10 X s 2144 1266 m 10 X s 2144 1302 m 10 X s
 2144 1338 m 10 X s 2133 1373 m 21 X s 2133 661 m 21 X s 2144 626 m 10 X s 2144 590 m 10 X s 2144 555 m 10 X s 2144 519 m 10 X s 2133 1373 m 21 X s 2144 1409 m 10 X s 2144 1444 m 10 X s 2144 1480 m 10 X s 2144 1516 m 10 X s
 gsave  2268 1103 0 472 C 1314.45 1432.87 t 0 r /Helvetica findfont 56.3093 sf 0 0 m ( Data) show NC gr  1259 1456 m 7 Y s 1259 1432 m -7 Y s 1259 1444 m20
 gsave  2268 1103 0 472 C 1776.28 1432.87 t 0 r /Helvetica findfont 56.3093 sf 0 0 m ( Fakes \(MM\)) show NC gr  0.4 0.6 0.4 c 1682 1422 m 79 X 44 Y -79 X f black
 gsave  2268 1103 0 472 C 1403.26 1367.74 t 0 r /Helvetica findfont 56.3093 sf 0 0 m (single\255top) show NC gr 
 gsave  2268 1103 0 472 C 1373.66 1367.74 t 0 r /Helvetica-Oblique findfont 56.3093 sf 0 0 m (/) show NC gr 
 gsave  2268 1103 0 472 C 1352.93 1367.74 t 0 r /Helvetica-Oblique findfont 56.3093 sf 0 0 m (t) show NC gr  6 lw 1353 1412 m 21 X s
 gsave  2268 1103 0 472 C 1332.21 1367.74 t 0 r /Helvetica-Oblique findfont 56.3093 sf 0 0 m (t) show NC gr 
 gsave  2268 1103 0 472 C 1314.45 1367.74 t 0 r /Helvetica findfont 56.3093 sf 0 0 m ( ) show NC gr  0.06 0.54 0.06 c 3 lw 1219 1359 m 79 X 44 Y -79 X f 6 lw black
 gsave  2268 1103 0 472 C 1906.54 1367.74 t 0 r /Helvetica findfont 56.3093 sf 0 0 m (+jets) show NC gr 
 gsave  2268 1103 0 472 C 1794.04 1367.74 t 0 r /Helvetica-Oblique findfont 56.3093 sf 0 0 m (W/Z) show NC gr 
 gsave  2268 1103 0 472 C 1776.28 1367.74 t 0 r /Helvetica findfont 56.3093 sf 0 0 m ( ) show NC gr  1 0.653333 0 c 3 lw 1682 1359 m 79 X 44 Y -79 X f black
 gsave  2268 1103 0 472 C 1512.8 1305.57 t 0 r /Helvetica findfont 56.3093 sf 0 0 m (+jets) show NC gr 
 gsave  2268 1103 0 472 C 1332.21 1305.57 t 0 r /Helvetica-Oblique findfont 56.3093 sf 0 0 m (WZ/ZZ) show NC gr 
 gsave  2268 1103 0 472 C 1314.45 1305.57 t 0 r /Helvetica findfont 56.3093 sf 0 0 m ( ) show NC gr  0.413333 1 0 c 3 lw 1219 1296 m 79 X 44 Y -79 X f black
 gsave  2268 1103 0 472 C 1835.49 1305.57 t 0 r /Helvetica-Oblique findfont 56.3093 sf 0 0 m (Z) show NC gr 
 gsave  2268 1103 0 472 C 1814.77 1305.57 t 0 r /Helvetica-Oblique findfont 56.3093 sf 0 0 m (t) show NC gr  6 lw 1815 1350 m 20 X s
 gsave  2268 1103 0 472 C 1794.04 1305.57 t 0 r /Helvetica-Oblique findfont 56.3093 sf 0 0 m (t) show NC gr 
 gsave  2268 1103 0 472 C 1776.28 1305.57 t 0 r /Helvetica findfont 56.3093 sf 0 0 m ( ) show NC gr  0.6 0.2 1 c 3 lw 1682 1296 m 79 X 44 Y -79 X f 6 lw black
 gsave  2268 1103 0 472 C 1373.66 1243.4 t 0 r /Helvetica-Oblique findfont 56.3093 sf 0 0 m (W) show NC gr 
 gsave  2268 1103 0 472 C 1352.93 1243.4 t 0 r /Helvetica-Oblique findfont 56.3093 sf 0 0 m (t) show NC gr  6 lw 1353 1288 m 21 X s
 gsave  2268 1103 0 472 C 1332.21 1243.4 t 0 r /Helvetica-Oblique findfont 56.3093 sf 0 0 m (t) show NC gr 
 gsave  2268 1103 0 472 C 1314.45 1243.4 t 0 r /Helvetica findfont 56.3093 sf 0 0 m ( ) show NC gr  0.54 0.06 0.06 c 3 lw 1219 1233 m 79 X 44 Y -79 X f 6 lw black
 gsave  2268 1103 0 472 C 1794.04 1243.4 t 0 r /Helvetica-Oblique findfont 56.3093 sf 0 0 m (tZq) show NC gr 
 gsave  2268 1103 0 472 C 1776.28 1243.4 t 0 r /Helvetica findfont 56.3093 sf 0 0 m ( ) show NC gr  1 0 1 c 3 lw 1682 1233 m 79 X 44 Y -79 X f black
 gsave  2268 1103 0 472 C 1373.66 1178.27 t 0 r /Helvetica-Oblique findfont 56.3093 sf 0 0 m (H) show NC gr 
 gsave  2268 1103 0 472 C 1352.93 1178.27 t 0 r /Helvetica-Oblique findfont 56.3093 sf 0 0 m (t) show NC gr  6 lw 1353 1223 m 21 X s
 gsave  2268 1103 0 472 C 1332.21 1178.27 t 0 r /Helvetica-Oblique findfont 56.3093 sf 0 0 m (t) show NC gr 
 gsave  2268 1103 0 472 C 1314.45 1178.27 t 0 r /Helvetica findfont 56.3093 sf 0 0 m ( ) show NC gr  0 0 1 c 3 lw 1219 1170 m 79 X 44 Y -79 X f 6 lw black
 gsave  2268 1103 0 472 C 1794.04 1178.27 t 0 r /Helvetica-Oblique findfont 56.3093 sf 0 0 m (tWZ/tWH) show NC gr 
 gsave  2268 1103 0 472 C 1776.28 1178.27 t 0 r /Helvetica findfont 56.3093 sf 0 0 m ( ) show NC gr  0.2 0.8 0.8 c 3 lw 1682 1170 m 79 X 44 Y -79 X f black
 gsave  2268 1103 0 472 C 1332.21 1116.1 t 0 r /Helvetica-Oblique findfont 56.3093 sf 0 0 m (tHq) show NC gr 
 gsave  2268 1103 0 472 C 1314.45 1116.1 t 0 r /Helvetica findfont 56.3093 sf 0 0 m ( ) show NC gr  1 0 0 c 3 lw 1219 1107 m 79 X 44 Y -79 X f black
 gsave  2268 1103 0 472 C 1776.28 1116.1 t 0 r /Helvetica findfont 56.3093 sf 0 0 m ( Other) show NC gr  1 0.84 0 c 3 lw 1682 1107 m 79 X 44 Y -79 X f black
 gsave  2268 1103 0 472 C 1314.45 1053.93 t 0 r /Helvetica findfont 56.3093 sf 0 0 m ( Uncertainty) show NC gr  0.6 0.6 0.6 c 3 lw 1298 1058 m -13 -14 d s 1298 1077 m -33 -33 d s 1290 1088 m -44 -44 d s 1271 1088 m -44 -44 d s 1252 1088 m -33 -33 d s
 1233 1088 m -14 -13 d s 1 0.84 0 c 0.6 0.6 0.6 c black
 gsave  2268 1103 0 472 C 894.061 1329.25 t 0 r /Helvetica findfont 41.4911 sf 0 0 m (\2551) show NC gr 
 gsave  2268 1103 0 472 C 399.663 1299.64 t 0 r /Helvetica findfont 62.2366 sf 0 0 m ( = 13 TeV,  139 fb) show NC gr 
 gsave  2268 1103 0 472 C 370.058 1299.64 t 0 r /Helvetica findfont 62.2366 sf 0 0 m (s) show NC gr  6 lw 349 1335 m 6 -38 d s 3 lw 355 1297 m 6 56 d s 361 1353 m 39 X s
 gsave  2268 1103 0 472 C 337.493 1201.95 t 0 r /Helvetica findfont 62.2366 sf 0 0 m ( 2L\(SS\) pre\255selection) show NC gr 
 gsave  2268 1103 0 472 C 337.493 1400.3 t 0 r /Helvetica-BoldOblique findfont 71.1276 sf 0 0 m (ATLAS) show NC gr 
 gsave  2268 1103 0 472 C 633.54 1400.3 t 0 r /Helvetica findfont 71.1276 sf 0 0 m (Internal) show NC gr 
 gr  gr showpage
end
%%EOF
