%!PS-Adobe-2.0 EPSF-2.0
%%BoundingBox:  0 0 567 394
%%Title: : EtMiss_CRttbarMu
%%Creator: ROOT Version 6.20/06
%%CreationDate: Mon May 30 19:25:23 2022
%%DocumentNeededResources: ProcSet (FontSetInit)
%%EndComments
%%BeginProlog
80 dict begin
/s {stroke} def /l {lineto} def /m {moveto} def /t {translate} def
/r {rotate} def /rl {roll}  def /R {repeat} def
/d {rlineto} def /rm {rmoveto} def /gr {grestore} def /f {eofill} def
/c {setrgbcolor} def /black {0 setgray} def /sd {setdash} def
/cl {closepath} def /sf {scalefont setfont} def /lw {setlinewidth} def
/box {m dup 0 exch d exch 0 d 0 exch neg d cl} def
/NC{systemdict begin initclip end}def/C{NC box clip newpath}def
/bl {box s} def /bf {gsave box gsave f grestore 1 lw [] 0 sd s grestore} def /Y { 0 exch d} def /X { 0 d} def 
/K {{pop pop 0 moveto} exch kshow} bind def
/ita {/ang 15 def gsave [1 0 ang dup sin exch cos div 1 0 0] concat} def 
/mp {newpath /y exch def /x exch def} def
/side {[w .77 mul w .23 mul] .385 w mul sd w 0 l currentpoint t -144 r} def
/mr {mp x y w2 0 360 arc} def /m24 {mr s} def /m20 {mr f} def
/mb {mp x y w2 add m w2 neg 0 d 0 w neg d w 0 d 0 w d cl} def
/mt {mp x y w2 add m w2 neg w neg d w 0 d cl} def
/w4 {w 4 div} def
/w6 {w 6 div} def
/w8 {w 8 div} def
/m21 {mb f} def /m25 {mb s} def /m22 {mt f} def /m26{mt s} def
/m23 {mp x y w2 sub m w2 w d w neg 0 d cl f} def
/m27 {mp x y w2 add m w3 neg w2 neg d w3 w2 neg d w3 w2 d cl s} def
/m28 {mp x w2 sub y w2 sub w3 add m w3 0 d  0 w3 neg d w3 0 d 0 w3 d w3 0 d  0 w3 d w3 neg 0 d 0 w3 d w3 neg 0 d 0 w3 neg d w3 neg 0 d cl s } def
/m29 {mp gsave x w2 sub y w2 add w3 sub m currentpoint t 4 {side} repeat cl fill gr} def
/m30 {mp gsave x w2 sub y w2 add w3 sub m currentpoint t 4 {side} repeat cl s gr} def
/m31 {mp x y w2 sub m 0 w d x w2 sub y m w 0 d x w2 sub y w2 add m w w neg d x w2 sub y w2 sub m w w d s} def
/m32 {mp x y w2 sub m w2 w d w neg 0 d cl s} def
/m33 {mp x y w2 add m w3 neg w2 neg d w3 w2 neg d w3 w2 d cl f} def
/m34 {mp x w2 sub y w2 sub w3 add m w3 0 d  0 w3 neg d w3 0 d 0 w3 d w3 0 d  0 w3 d w3 neg 0 d 0 w3 d w3 neg 0 d 0 w3 neg d w3 neg 0 d cl f } def
/m35 {mp x y w2 add m w2 neg w2 neg d w2 w2 neg d w2 w2 d w2 neg w2 d x y w2 sub m 0 w d x w2 sub y m w 0 d s} def
/m36 {mb x w2 sub y w2 add m w w neg d x w2 sub y w2 sub m w w d s} def
/m37 {mp x y m w4 neg w2 d w4 neg w2 neg d w2 0 d  w4 neg w2 neg d w2 0 d w4 neg w2 d w2 0 d w4 neg w2 d w4 neg w2 neg d cl s} def
/m38 {mp x w4 sub y w2 add m w4 neg w4 neg d 0 w2 neg d w4 w4 neg d w2 0 d w4 w4 d 0 w2 d w4 neg w4 d w2 neg 0 d x y w2 sub m 0 w d x w2 sub y m w 0 d cl s} def
/m39 {mp x y m w4 neg w2 d w4 neg w2 neg d w2 0 d  w4 neg w2 neg d w2 0 d w4 neg w2 d w2 0 d w4 neg w2 d w4 neg w2 neg d cl f} def
/m40 {mp x y m w4 w2 d w4 w4 neg d w2 neg w4 neg d w2 w4 neg d w4 neg w4 neg d w4 neg w2 d w4 neg w2 neg d w4 neg w4 d w2 w4 d w2 neg w4 d w4 w4 d w4 w2 neg d cl s} def
/m41 {mp x y m w4 w2 d w4 w4 neg d w2 neg w4 neg d w2 w4 neg d w4 neg w4 neg d w4 neg w2 d w4 neg w2 neg d w4 neg w4 d w2 w4 d w2 neg w4 d w4 w4 d w4 w2 neg d cl f} def
/m42 {mp x y w2 add m w8 neg w2 -3 4 div mul d w2 -3 4 div mul w8 neg d w2 3 4 div mul w8 neg d w8 w2 -3 4 div mul d w8 w2 3 4 div mul d w2 3 4 div mul w8 d w2 -3 4 div mul w8 d w8 neg w2 3 4 div mul d cl s} def
/m43 {mp x y w2 add m w8 neg w2 -3 4 div mul d w2 -3 4 div mul w8 neg d w2 3 4 div mul w8 neg d w8 w2 -3 4 div mul d w8 w2 3 4 div mul d w2 3 4 div mul w8 d w2 -3 4 div mul w8 d w8 neg w2 3 4 div mul d cl f} def
/m44 {mp x y m w6 neg w2 d w2 2 3 div mul 0 d w6 neg w2 neg d w2 w6 d 0 w2 -2 3 div mul d w2 neg w6 d w6 w2 neg d w2 -2 3 div mul 0 d w6 w2 d w2 neg w6 neg d 0 w2 2 3 div mul d w2 w6 neg d cl s} def
/m45 {mp x y m w6 neg w2 d w2 2 3 div mul 0 d w6 neg w2 neg d w2 w6 d 0 w2 -2 3 div mul d w2 neg w6 d w6 w2 neg d w2 -2 3 div mul 0 d w6 w2 d w2 neg w6 neg d 0 w2 2 3 div mul d w2 w6 neg d cl f} def
/m46 {mp x y w4 add m w4 neg w4 d w4 neg w4 neg d  w4 w4 neg d w4 neg w4 neg d w4 w4 neg d w4 w4 d w4 w4 neg d w4 w4 d w4 neg w4 d w4 w4 d w4 neg w4 d w4 neg w4 neg d cl s} def
/m47 {mp x y w4 add m w4 neg w4 d w4 neg w4 neg d w4 w4 neg d w4 neg w4 neg d  w4 w4 neg d w4 w4 d w4 w4 neg d w4 w4 d w4 neg w4 d w4 w4 d w4 neg w4 d w4 neg w4 neg d cl f} def
/m48 {mp x y w4 add m w4 neg w4 d w4 neg w4 neg d w4 w4 neg d  w4 neg w4 neg d w4 w4 neg d w4 w4 d w4 w4 neg d w4 w4 d w4 neg w4 d w4 w4 d w4 neg w4 d w4 neg w4 neg d  w4 w4 neg d w4 neg w4 neg d w4 neg w4 d w4 w4 d cl f} def
/m49 {mp x w2 sub w3 add y w2 sub w3 add m  0 w3 neg d w3 0 d 0 w3 d w3 0 d 0 w3 d w3 neg 0 d 0 w3 d w3 neg 0 d 0 w3 neg d w3 neg 0 d 0 w3 neg d w3 0 d 0 w3 d w3 0 d 0 w3 neg d w3 neg 0 d cl f } def
/m2 {mp x y w2 sub m 0 w d x w2 sub y m w 0 d s} def
/m5 {mp x w2 sub y w2 sub m w w d x w2 sub y w2 add m w w neg d s} def
%%IncludeResource: ProcSet (FontSetInit)
%%IncludeResource: font Times-Roman
%%IncludeResource: font Times-Italic
%%IncludeResource: font Times-Bold
%%IncludeResource: font Times-BoldItalic
%%IncludeResource: font Helvetica
%%IncludeResource: font Helvetica-Oblique
%%IncludeResource: font Helvetica-Bold
%%IncludeResource: font Helvetica-BoldOblique
%%IncludeResource: font Courier
%%IncludeResource: font Courier-Oblique
%%IncludeResource: font Courier-Bold
%%IncludeResource: font Courier-BoldOblique
%%IncludeResource: font Symbol
%%IncludeResource: font ZapfDingbats
/reEncode {exch findfont dup length dict begin {1 index /FID eq  {pop pop} {def} ifelse } forall /Encoding exch def currentdict end dup /FontName get exch definefont pop } def [/Times-Bold /Times-Italic /Times-BoldItalic /Helvetica /Helvetica-Oblique
 /Helvetica-Bold /Helvetica-BoldOblique /Courier /Courier-Oblique /Courier-Bold /Courier-BoldOblique /Times-Roman /AvantGarde-Book /AvantGarde-BookOblique /AvantGarde-Demi /AvantGarde-DemiOblique /Bookman-Demi /Bookman-DemiItalic /Bookman-Light
 /Bookman-LightItalic /Helvetica-Narrow /Helvetica-Narrow-Bold /Helvetica-Narrow-BoldOblique /Helvetica-Narrow-Oblique /NewCenturySchlbk-Roman /NewCenturySchlbk-Bold /NewCenturySchlbk-BoldItalic /NewCenturySchlbk-Italic /Palatino-Bold
 /Palatino-BoldItalic /Palatino-Italic /Palatino-Roman ] {ISOLatin1Encoding reEncode } forall
%%EndProlog
%%BeginSetup
%%EndSetup
newpath  gsave  .25 .25 scale  gsave  0 0 t black[  ] 0 sd 3 lw 1 1 1 c 2268 1575 0 0 bf black 1 1 1 c 2268 472 0 0 bf black 1 1 1 c 1927 274 227 189 bf black 1927 274 227 189 bl 227 189 m 1927 X s 227 201 m -12 Y s 291 195 m -6 Y s 355 195 m -6 Y s
 420 195 m -6 Y s 484 195 m -6 Y s 548 201 m -12 Y s 612 195 m -6 Y s 677 195 m -6 Y s 741 195 m -6 Y s 805 195 m -6 Y s 869 201 m -12 Y s 934 195 m -6 Y s 998 195 m -6 Y s 1062 195 m -6 Y s 1126 195 m -6 Y s 1191 201 m -12 Y s 1255 195 m -6 Y s 1319
 195 m -6 Y s 1383 195 m -6 Y s 1448 195 m -6 Y s 1512 201 m -12 Y s 1576 195 m -6 Y s 1640 195 m -6 Y s 1705 195 m -6 Y s 1769 195 m -6 Y s 1833 201 m -12 Y s 1897 195 m -6 Y s 1962 195 m -6 Y s 2026 195 m -6 Y s 2090 195 m -6 Y s 2154 201 m -12 Y s
 gsave  2268 472 0 0 C 210.193 127.3 t 0 r /Helvetica findfont 53.4895 sf 0 0 m (0) show NC gr 
 gsave  2268 472 0 0 C 518.081 127.3 t 0 r /Helvetica findfont 53.4895 sf 0 0 m (50) show NC gr 
 gsave  2268 472 0 0 C 823.009 127.3 t 0 r /Helvetica findfont 53.4895 sf 0 0 m (100) show NC gr 
 gsave  2268 472 0 0 C 1145.7 127.3 t 0 r /Helvetica findfont 53.4895 sf 0 0 m (150) show NC gr 
 gsave  2268 472 0 0 C 1465.43 127.3 t 0 r /Helvetica findfont 53.4895 sf 0 0 m (200) show NC gr 
 gsave  2268 472 0 0 C 1788.12 127.3 t 0 r /Helvetica findfont 53.4895 sf 0 0 m (250) show NC gr 
 gsave  2268 472 0 0 C 2107.85 127.3 t 0 r /Helvetica findfont 53.4895 sf 0 0 m (300) show NC gr 
 gsave  2268 472 0 0 C 1995.35 41.4465 t 0 r /Helvetica findfont 56.4611 sf 0 0 m ( [GeV]) show NC gr 
 gsave  2268 472 0 0 C 1915.42 68.0907 t 0 r /Helvetica findfont 38.6313 sf 0 0 m (miss) show NC gr 
 gsave  2268 472 0 0 C 1915.42 23.6837 t 0 r /Helvetica findfont 38.6313 sf 0 0 m (T) show NC gr 
 gsave  2268 472 0 0 C 1871.01 41.4465 t 0 r /Helvetica-Oblique findfont 56.4611 sf 0 0 m (E) show NC gr  227 463 m 1927 X s 227 451 m 12 Y s 291 457 m 6 Y s 355 457 m 6 Y s 420 457 m 6 Y s 484 457 m 6 Y s 548 451 m 12 Y s 612 457 m 6 Y s 677 457 m 6
 Y s 741 457 m 6 Y s 805 457 m 6 Y s 869 451 m 12 Y s 934 457 m 6 Y s 998 457 m 6 Y s 1062 457 m 6 Y s 1126 457 m 6 Y s 1191 451 m 12 Y s 1255 457 m 6 Y s 1319 457 m 6 Y s 1383 457 m 6 Y s 1448 457 m 6 Y s 1512 451 m 12 Y s 1576 457 m 6 Y s 1640 457
 m 6 Y s 1705 457 m 6 Y s 1769 457 m 6 Y s 1833 451 m 12 Y s 1897 457 m 6 Y s 1962 457 m 6 Y s 2026 457 m 6 Y s 2090 457 m 6 Y s 2154 451 m 12 Y s 227 189 m 274 Y s 240 240 m -13 X s 240 326 m -13 X s 240 412 m -13 X s 240 240 m -13 X s 240 412 m -13
 X s
 gsave  2268 472 0 0 C 118.419 222.035 t 0 r /Helvetica findfont 53.4895 sf 0 0 m (0.5) show NC gr 
 gsave  2268 472 0 0 C 171.707 307.888 t 0 r /Helvetica findfont 53.4895 sf 0 0 m (1) show NC gr 
 gsave  2268 472 0 0 C 118.419 393.742 t 0 r /Helvetica findfont 53.4895 sf 0 0 m (1.5) show NC gr 
 gsave  2268 472 0 0 C 71.0512 230.916 t 90 r /Helvetica findfont 53.4895 sf 0 0 m (Data / SM) show NC gr  2154 189 m 274 Y s 2141 240 m 13 X s 2141 326 m 13 X s 2141 412 m 13 X s 2141 240 m 13 X s 2141 412 m 13 X s 227 189 m 1927 X s 227 463 m 1927
 X s 227 189 m 274 Y s[ 4 8] 0 sd 2154 240 m -1927 X s 2154 326 m -1927 X s 2154 412 m -1927 X s 2154 240 m -1927 X s 2154 412 m -1927 X s[  ] 0 sd 2154 189 m 274 Y s 1 1 0.6 c 193 0 227 326 bf 192 0 420 326 bf 193 0 612 326 bf 193 0 805 326 bf 193 0
 998 326 bf 192 0 1191 326 bf 193 0 1383 326 bf 193 0 1576 326 bf 193 0 1769 326 bf 192 0 1962 326 bf black 0.6 0.6 0.6 c 420 325 m -3 -3 d s 406 330 m -8 -8 d s 387 330 m -9 -8 d s 368 330 m -9 -8 d s 348 330 m -8 -8 d s 329 330 m -8 -8 d s 310 330
 m -9 -8 d s 291 330 m -9 -8 d s 271 330 m -8 -8 d s 252 330 m -8 -8 d s 233 330 m -6 -6 d s 612 325 m -1 -1 d s 597 329 m -5 -5 d s 577 329 m -5 -5 d s 558 329 m -5 -5 d s 539 329 m -5 -5 d s 520 329 m -5 -5 d s 500 329 m -5 -5 d s 481 329 m -5 -5 d
 s 462 329 m -5 -5 d s 443 329 m -5 -5 d s 423 329 m -3 -4 d s 805 325 m -2 -2 d s 789 329 m -5 -6 d s 770 329 m -6 -6 d s 751 329 m -6 -6 d s 732 329 m -6 -6 d s 713 329 m -6 -6 d s 693 329 m -5 -6 d s 674 329 m -6 -6 d s 655 329 m -6 -6 d s 636 329
 m -6 -6 d s 616 329 m -4 -4 d s 998 326 m -4 -4 d s 983 330 m -8 -8 d s 964 330 m -9 -8 d s 945 330 m -9 -8 d s 926 330 m -9 -8 d s 907 330 m -9 -8 d s 887 330 m -9 -8 d s 868 330 m -9 -8 d s 849 330 m -9 -8 d s 830 330 m -9 -8 d s 810 330 m -5 -5 d
 s 1191 326 m -8 -7 d s 1179 333 m -15 -14 d s 1160 333 m -15 -14 d s 1140 333 m -14 -14 d s 1121 333 m -15 -14 d s 1102 333 m -15 -14 d s 1083 333 m -15 -14 d s 1063 333 m -14 -14 d s 1044 333 m -15 -14 d s 1025 333 m -15 -14 d s 1006 333 m -8 -7 d
 s 1383 326 m -12 -12 d s 1376 338 m -24 -24 d s 1356 338 m -23 -24 d s 1337 338 m -23 -24 d s 1318 338 m -24 -24 d s 1299 338 m -24 -24 d s 1279 338 m -23 -24 d s 1260 338 m -23 -24 d s 1241 338 m -24 -24 d s 1222 338 m -24 -24 d s 1202 338 m -11
 -12 d s 1576 307 m -2 -2 d s 1576 327 m -21 -22 d s 1576 346 m -40 -41 d s 1558 347 m -42 -42 d s 1538 347 m -41 -42 d s 1519 347 m -41 -42 d s 1500 347 m -41 -42 d s 1481 347 m -42 -42 d s 1462 347 m -42 -42 d s 1442 347 m -41 -42 d s 1423 347 m
 -40 -40 d s 1404 347 m -21 -21 d s 1385 347 m -2 -1 d s 1769 308 m -11 -11 d s 1769 327 m -30 -30 d s 1769 346 m -50 -49 d s 1759 355 m -59 -58 d s 1740 355 m -59 -58 d s 1720 355 m -58 -58 d s 1701 355 m -59 -58 d s 1682 355 m -59 -58 d s 1663 355
 m -59 -58 d s 1643 355 m -58 -58 d s 1624 355 m -48 -48 d s 1605 355 m -29 -28 d s 1586 355 m -10 -9 d s 1962 289 m -9 -9 d s 1962 308 m -28 -28 d s 1962 327 m -47 -47 d s 1962 347 m -66 -67 d s 1962 366 m -85 -86 d s 1948 372 m -91 -92 d s 1929 372
 m -91 -92 d s 1910 372 m -91 -92 d s 1890 372 m -90 -92 d s 1871 372 m -91 -92 d s 1852 372 m -83 -84 d s 1833 372 m -64 -64 d s 1813 372 m -44 -45 d s 1794 372 m -25 -26 d s 1775 372 m -6 -6 d s 2154 308 m -3 -3 d s 2154 328 m -23 -23 d s 2154 347
 m -42 -42 d s 2136 348 m -43 -43 d s 2116 348 m -42 -43 d s 2097 348 m -43 -43 d s 2078 348 m -43 -43 d s 2059 348 m -43 -43 d s 2040 348 m -43 -43 d s 2020 348 m -43 -43 d s 2001 348 m -39 -40 d s 1982 348 m -20 -21 d s 1963 348 m -1 -1 d s black 1
 1 1 c black 323 263 m 19 Y s 323 306 m 20 Y s /w 26 def /w2 {w 2 div} def /w3 {w 3 div} def 323 294 m20 516 288 m 9 Y s 516 320 m 9 Y s 516 309 m20 709 284 m 13 Y s 709 321 m 12 Y s 709 309 m20 901 274 m 27 Y s 901 325 m 26 Y s 901 313 m20 1094 234
 m 53 Y s 1094 310 m 53 Y s 1094 299 m20 227 326 m 1927 X s 227 189 m 1927 X s 227 201 m -12 Y s 291 195 m -6 Y s 355 195 m -6 Y s 420 195 m -6 Y s 484 195 m -6 Y s 548 201 m -12 Y s 612 195 m -6 Y s 677 195 m -6 Y s 741 195 m -6 Y s 805 195 m -6 Y s
 869 201 m -12 Y s 934 195 m -6 Y s 998 195 m -6 Y s 1062 195 m -6 Y s 1126 195 m -6 Y s 1191 201 m -12 Y s 1255 195 m -6 Y s 1319 195 m -6 Y s 1383 195 m -6 Y s 1448 195 m -6 Y s 1512 201 m -12 Y s 1576 195 m -6 Y s 1640 195 m -6 Y s 1705 195 m -6 Y
 s 1769 195 m -6 Y s 1833 201 m -12 Y s 1897 195 m -6 Y s 1962 195 m -6 Y s 2026 195 m -6 Y s 2090 195 m -6 Y s 2154 201 m -12 Y s 227 463 m 1927 X s 227 451 m 12 Y s 291 457 m 6 Y s 355 457 m 6 Y s 420 457 m 6 Y s 484 457 m 6 Y s 548 451 m 12 Y s
 612 457 m 6 Y s 677 457 m 6 Y s 741 457 m 6 Y s 805 457 m 6 Y s 869 451 m 12 Y s 934 457 m 6 Y s 998 457 m 6 Y s 1062 457 m 6 Y s 1126 457 m 6 Y s 1191 451 m 12 Y s 1255 457 m 6 Y s 1319 457 m 6 Y s 1383 457 m 6 Y s 1448 457 m 6 Y s 1512 451 m 12 Y
 s 1576 457 m 6 Y s 1640 457 m 6 Y s 1705 457 m 6 Y s 1769 457 m 6 Y s 1833 451 m 12 Y s 1897 457 m 6 Y s 1962 457 m 6 Y s 2026 457 m 6 Y s 2090 457 m 6 Y s 2154 451 m 12 Y s 227 189 m 274 Y s 240 240 m -13 X s 240 326 m -13 X s 240 412 m -13 X s 240
 240 m -13 X s 240 412 m -13 X s 2154 189 m 274 Y s 2141 240 m 13 X s 2141 326 m 13 X s 2141 412 m 13 X s 2141 240 m 13 X s 2141 412 m 13 X s 1 1 1 c 2268 1103 0 472 bf black 1 1 1 c 1927 1036 227 484 bf black 1927 1036 227 484 bl 1 1 1 c black 3 lw
 227 484 m 1927 X s 227 502 m -18 Y s 291 493 m -9 Y s 355 493 m -9 Y s 420 493 m -9 Y s 484 493 m -9 Y s 548 502 m -18 Y s 612 493 m -9 Y s 677 493 m -9 Y s 741 493 m -9 Y s 805 493 m -9 Y s 869 502 m -18 Y s 934 493 m -9 Y s 998 493 m -9 Y s 1062
 493 m -9 Y s 1126 493 m -9 Y s 1191 502 m -18 Y s 1255 493 m -9 Y s 1319 493 m -9 Y s 1383 493 m -9 Y s 1448 493 m -9 Y s 1512 502 m -18 Y s 1576 493 m -9 Y s 1640 493 m -9 Y s 1705 493 m -9 Y s 1769 493 m -9 Y s 1833 502 m -18 Y s 1897 493 m -9 Y s
 1962 493 m -9 Y s 2026 493 m -9 Y s 2090 493 m -9 Y s 2154 502 m -18 Y s
 gsave  2268 1103 0 472 C 2069.37 396.702 t 0 r /Helvetica findfont 29.6365 sf 0 0 m ( [GeV]) show NC gr 
 gsave  2268 1103 0 472 C 2024.96 414.465 t 0 r /Helvetica findfont 20.7455 sf 0 0 m (miss) show NC gr 
 gsave  2268 1103 0 472 C 2024.96 387.821 t 0 r /Helvetica findfont 20.7455 sf 0 0 m (T) show NC gr 
 gsave  2268 1103 0 472 C 2001.27 396.702 t 0 r /Helvetica-Oblique findfont 29.6365 sf 0 0 m (E) show NC gr  227 1520 m 1927 X s 227 1501 m 19 Y s 291 1510 m 10 Y s 355 1510 m 10 Y s 420 1510 m 10 Y s 484 1510 m 10 Y s 548 1501 m 19 Y s 612 1510 m 10
 Y s 677 1510 m 10 Y s 741 1510 m 10 Y s 805 1510 m 10 Y s 869 1501 m 19 Y s 934 1510 m 10 Y s 998 1510 m 10 Y s 1062 1510 m 10 Y s 1126 1510 m 10 Y s 1191 1501 m 19 Y s 1255 1510 m 10 Y s 1319 1510 m 10 Y s 1383 1510 m 10 Y s 1448 1510 m 10 Y s 1512
 1501 m 19 Y s 1576 1510 m 10 Y s 1640 1510 m 10 Y s 1705 1510 m 10 Y s 1769 1510 m 10 Y s 1833 1501 m 19 Y s 1897 1510 m 10 Y s 1962 1510 m 10 Y s 2026 1510 m 10 Y s 2090 1510 m 10 Y s 2154 1501 m 19 Y s 227 484 m 1036 Y s 248 621 m -21 X s 237 656
 m -10 X s 237 690 m -10 X s 237 725 m -10 X s 248 759 m -21 X s 237 794 m -10 X s 237 828 m -10 X s 237 863 m -10 X s 248 897 m -21 X s 237 932 m -10 X s 237 966 m -10 X s 237 1001 m -10 X s 248 1035 m -21 X s 237 1069 m -10 X s 237 1104 m -10 X s
 237 1138 m -10 X s 248 1173 m -21 X s 237 1207 m -10 X s 237 1242 m -10 X s 237 1276 m -10 X s 248 1311 m -21 X s 237 1345 m -10 X s 237 1380 m -10 X s 237 1414 m -10 X s 248 1449 m -21 X s 248 621 m -21 X s 237 587 m -10 X s 237 552 m -10 X s 237
 518 m -10 X s 248 1449 m -21 X s 237 1483 m -10 X s 237 1518 m -10 X s
 gsave  2268 1103 0 472 C 145.063 600.974 t 0 r /Helvetica findfont 50.382 sf 0 0 m (20) show NC gr 
 gsave  2268 1103 0 472 C 145.063 740.116 t 0 r /Helvetica findfont 50.382 sf 0 0 m (40) show NC gr 
 gsave  2268 1103 0 472 C 145.063 879.258 t 0 r /Helvetica findfont 50.382 sf 0 0 m (60) show NC gr 
 gsave  2268 1103 0 472 C 145.063 1015.44 t 0 r /Helvetica findfont 50.382 sf 0 0 m (80) show NC gr 
 gsave  2268 1103 0 472 C 118.419 1154.58 t 0 r /Helvetica findfont 50.382 sf 0 0 m (100) show NC gr 
 gsave  2268 1103 0 472 C 118.419 1290.76 t 0 r /Helvetica findfont 50.382 sf 0 0 m (120) show NC gr 
 gsave  2268 1103 0 472 C 118.419 1429.9 t 0 r /Helvetica findfont 50.382 sf 0 0 m (140) show NC gr 
 gsave  2268 1103 0 472 C 62.1698 1154.58 t 90 r /Helvetica findfont 50.382 sf 0 0 m (Events / 30 GeV) show NC gr  2154 484 m 1036 Y s 2133 621 m 21 X s 2144 656 m 10 X s 2144 690 m 10 X s 2144 725 m 10 X s 2133 759 m 21 X s 2144 794 m 10 X s 2144
 828 m 10 X s 2144 863 m 10 X s 2133 897 m 21 X s 2144 932 m 10 X s 2144 966 m 10 X s 2144 1001 m 10 X s 2133 1035 m 21 X s 2144 1069 m 10 X s 2144 1104 m 10 X s 2144 1138 m 10 X s 2133 1173 m 21 X s 2144 1207 m 10 X s 2144 1242 m 10 X s 2144 1276 m
 10 X s 2133 1311 m 21 X s 2144 1345 m 10 X s 2144 1380 m 10 X s 2144 1414 m 10 X s 2133 1449 m 21 X s 2133 621 m 21 X s 2144 587 m 10 X s 2144 552 m 10 X s 2144 518 m 10 X s 2133 1449 m 21 X s 2144 1483 m 10 X s 2144 1518 m 10 X s 0.4 0.6 0.4 c
 black 3 lw 0.4 0.6 0.4 c 227 484 m 169 Y 193 X 245 Y 192 X -108 Y 193 X -180 Y 193 X -85 Y 193 X -26 Y 192 X -10 Y 193 X -3 Y 193 X -2 Y 385 X f 0.06 0.54 0.06 c 0.999 0.999 0.999 c black 3 lw 0.999 0.999 0.999 c 227 484 m 57 Y 193 X 86 Y 192 X -21
 Y 193 X -65 Y 193 X -35 Y 193 X -13 Y 192 X -6 Y 193 X -2 Y 193 X -1 Y 385 X f 0.06 0.54 0.06 c 0.999 0.999 0.999 c 0.06 0.54 0.06 c 1 1 1 c black 0.06 0.54 0.06 c black 3 lw 0.06 0.54 0.06 c 227 484 m 57 Y 193 X 86 Y 192 X -21 Y 193 X -65 Y 193 X
 -35 Y 193 X -13 Y 192 X -6 Y 193 X -2 Y 193 X -1 Y 385 X f 1 0.653333 0 c 0.999 0.999 0.999 c black 3 lw 0.999 0.999 0.999 c 227 484 m 57 Y 193 X 85 Y 192 X -22 Y 193 X -64 Y 193 X -34 Y 193 X -13 Y 192 X -6 Y 193 X -2 Y 193 X -1 Y 385 X f 1
 0.653333 0 c 0.999 0.999 0.999 c 1 0.653333 0 c 1 1 1 c black 1 0.653333 0 c black 3 lw 1 0.653333 0 c 227 484 m 57 Y 193 X 85 Y 192 X -22 Y 193 X -64 Y 193 X -34 Y 193 X -13 Y 192 X -6 Y 193 X -2 Y 193 X -1 Y 385 X f 0.413333 1 0 c 0.999 0.999
 0.999 c black 3 lw 0.999 0.999 0.999 c 227 484 m 57 Y 193 X 85 Y 192 X -22 Y 193 X -64 Y 193 X -34 Y 193 X -13 Y 192 X -6 Y 193 X -2 Y 193 X -1 Y 385 X f 0.413333 1 0 c 0.999 0.999 0.999 c 0.413333 1 0 c 1 1 1 c black 0.413333 1 0 c black 3 lw
 0.413333 1 0 c 227 484 m 57 Y 193 X 85 Y 192 X -22 Y 193 X -64 Y 193 X -34 Y 193 X -13 Y 192 X -6 Y 193 X -2 Y 193 X -1 Y 385 X f 0.6 0.2 1 c 0.999 0.999 0.999 c black 3 lw 0.999 0.999 0.999 c 227 484 m 48 Y 193 X 70 Y 192 X -16 Y 193 X -52 Y 193 X
 -31 Y 193 X -11 Y 192 X -6 Y 193 X -1 Y 193 X -1 Y 385 X f 0.6 0.2 1 c 0.999 0.999 0.999 c 0.6 0.2 1 c 1 1 1 c black 0.6 0.2 1 c black 3 lw 0.6 0.2 1 c 227 484 m 48 Y 193 X 70 Y 192 X -16 Y 193 X -52 Y 193 X -31 Y 193 X -11 Y 192 X -6 Y 193 X -1 Y
 193 X -1 Y 385 X f 0.54 0.06 0.06 c 0.999 0.999 0.999 c black 3 lw 0.999 0.999 0.999 c 227 484 m 41 Y 193 X 57 Y 192 X -12 Y 193 X -43 Y 193 X -26 Y 193 X -10 Y 192 X -5 Y 193 X -1 Y 193 X -1 Y 385 X f 0.54 0.06 0.06 c 0.999 0.999 0.999 c 0.54 0.06
 0.06 c 1 1 1 c black 0.54 0.06 0.06 c black 3 lw 0.54 0.06 0.06 c 227 484 m 41 Y 193 X 57 Y 192 X -12 Y 193 X -43 Y 193 X -26 Y 193 X -10 Y 192 X -5 Y 193 X -1 Y 193 X -1 Y 385 X f 1 0 1 c 0.999 0.999 0.999 c black 3 lw 0.999 0.999 0.999 c 227 484 m
 12 Y 193 X 16 Y 192 X -5 Y 193 X -12 Y 193 X -7 Y 193 X -3 Y 192 X -1 Y 771 X f 1 0 1 c 0.999 0.999 0.999 c 1 0 1 c 1 1 1 c black 1 0 1 c black 3 lw 1 0 1 c 227 484 m 12 Y 193 X 16 Y 192 X -5 Y 193 X -12 Y 193 X -7 Y 193 X -3 Y 192 X -1 Y 771 X f 0
 0 1 c 0.999 0.999 0.999 c black 3 lw 0.999 0.999 0.999 c 227 484 m 8 Y 193 X 10 Y 192 X -3 Y 193 X -8 Y 193 X -4 Y 193 X -2 Y 192 X -1 Y 771 X f 0 0 1 c 0.999 0.999 0.999 c 0 0 1 c 1 1 1 c black 0 0 1 c black 3 lw 0 0 1 c 227 484 m 8 Y 193 X 10 Y
 192 X -3 Y 193 X -8 Y 193 X -4 Y 193 X -2 Y 192 X -1 Y 771 X f 0.2 0.8 0.8 c 0.999 0.999 0.999 c black 3 lw 0.999 0.999 0.999 c 227 484 m 1 Y 193 X 2 Y 385 X -2 Y 193 X -1 Y 1156 X f 0.2 0.8 0.8 c 0.999 0.999 0.999 c 0.2 0.8 0.8 c 1 1 1 c black 0.2
 0.8 0.8 c black 3 lw 0.2 0.8 0.8 c 227 484 m 1 Y 193 X 2 Y 385 X -2 Y 193 X -1 Y 1156 X f 1 0 0 c 0.999 0.999 0.999 c black 3 lw 0.999 0.999 0.999 c 227 484 m 193 X 1 Y 385 X -1 Y 1349 X f 1 0 0 c 0.999 0.999 0.999 c 1 0 0 c 1 1 1 c black 1 0 0 c
 black 3 lw 1 0 0 c 227 484 m 193 X 1 Y 385 X -1 Y 1349 X f 1 0.84 0 c 0.999 0.999 0.999 c black 3 lw 0.999 0.999 0.999 c 227 484 m 1927 X f 1 0.84 0 c 0.999 0.999 0.999 c 1 0.84 0 c 1 1 1 c black 1 0.84 0 c black 3 lw 1 0.84 0 c 227 484 m 1927 X f
 black 1 1 1 c black 0.6 0.6 0.6 c 3 lw 416 657 m -9 -9 d s 396 657 m -8 -9 d s 377 657 m -8 -9 d s 358 657 m -9 -9 d s 339 657 m -9 -9 d s 319 657 m -8 -9 d s 300 657 m -8 -9 d s 281 657 m -9 -9 d s 262 657 m -9 -9 d s 242 657 m -8 -9 d s 3 lw 605
 904 m -12 -12 d s 586 904 m -12 -12 d s 567 904 m -12 -12 d s 548 904 m -12 -12 d s 528 904 m -12 -12 d s 509 904 m -12 -12 d s 490 904 m -12 -12 d s 471 904 m -12 -12 d s 451 904 m -12 -12 d s 432 904 m -12 -12 d s 3 lw 804 795 m -10 -10 d s 785
 795 m -10 -10 d s 766 795 m -10 -10 d s 747 795 m -11 -10 d s 727 795 m -10 -10 d s 708 795 m -10 -10 d s 689 795 m -10 -10 d s 670 795 m -11 -10 d s 650 795 m -10 -10 d s 631 795 m -10 -10 d s 3 lw 988 614 m -7 -7 d s 969 614 m -7 -7 d s 950 614 m
 -7 -7 d s 930 614 m -6 -7 d s 911 614 m -6 -7 d s 892 614 m -7 -7 d s 873 614 m -7 -7 d s 853 614 m -6 -7 d s 834 614 m -6 -7 d s 815 614 m -7 -7 d s 3 lw 1189 526 m -3 -3 d s 1170 526 m -4 -3 d s 1151 526 m -4 -3 d s 1131 526 m -3 -3 d s 1112 526 m
 -3 -3 d s 1093 526 m -4 -3 d s 1074 526 m -4 -3 d s 1054 526 m -3 -3 d s 1035 526 m -3 -3 d s 1016 526 m -4 -3 d s 3 lw 1374 500 m -2 -2 d s 1355 500 m -2 -2 d s 1336 500 m -2 -2 d s 1317 500 m -2 -2 d s 1297 500 m -2 -2 d s 1278 500 m -2 -2 d s
 1259 500 m -2 -2 d s 1240 500 m -2 -2 d s 1220 500 m -2 -2 d s 1201 500 m -2 -2 d s 3 lw 1576 489 m -2 -1 d s 1556 489 m -1 -1 d s 1537 489 m -1 -1 d s 1518 489 m -1 -1 d s 1499 489 m -2 -1 d s 1479 489 m -1 -1 d s 1460 489 m -1 -1 d s 1441 489 m -1
 -1 d s 1422 489 m -2 -1 d s 1402 489 m -1 -1 d s 3 lw 1765 486 m -1 X s 1746 486 m -1 X s 1727 486 m -1 X s 1707 486 m -1 X s 1688 486 m -1 X s 1669 486 m -1 X s 1650 486 m -1 X s 1630 486 m -1 X s 1611 486 m -1 X s 1592 486 m -1 X s 3 lw 1956 485 m
 -1 -1 d s 1936 485 m -1 Y s 1917 485 m -1 Y s 1898 485 m -1 -1 d s 1879 485 m -1 -1 d s 1859 485 m -1 Y s 1840 485 m -1 Y s 1821 485 m -1 -1 d s 1802 485 m -1 -1 d s 1782 485 m -1 Y s 3 lw 2148 484 m s 2129 484 m -1 X s 2109 484 m s 2090 484 m s
 2071 484 m s 2052 484 m -1 X s 2032 484 m s 2013 484 m s 1994 484 m s 1975 484 m -1 X s black 3 lw 1 1 1 c black 323 591 m 18 Y s 323 633 m 19 Y s /w 24 def /w2 {w 2 div} def /w3 {w 3 div} def 323 621 m20 516 805 m 39 Y s 516 868 m 38 Y s 516 856
 m20 709 716 m 31 Y s 709 771 m 32 Y s 709 759 m20 901 572 m 17 Y s 901 612 m 17 Y s 901 601 m20 1094 503 m 3 Y s 1094 530 m 3 Y s 1094 518 m20 1287 503 m 3 Y s 1287 530 m 3 Y s 1287 518 m20 1480 497 m20 227 484 m 1927 X s 227 502 m -18 Y s 291 493 m
 -9 Y s 355 493 m -9 Y s 420 493 m -9 Y s 484 493 m -9 Y s 548 502 m -18 Y s 612 493 m -9 Y s 677 493 m -9 Y s 741 493 m -9 Y s 805 493 m -9 Y s 869 502 m -18 Y s 934 493 m -9 Y s 998 493 m -9 Y s 1062 493 m -9 Y s 1126 493 m -9 Y s 1191 502 m -18 Y
 s 1255 493 m -9 Y s 1319 493 m -9 Y s 1383 493 m -9 Y s 1448 493 m -9 Y s 1512 502 m -18 Y s 1576 493 m -9 Y s 1640 493 m -9 Y s 1705 493 m -9 Y s 1769 493 m -9 Y s 1833 502 m -18 Y s 1897 493 m -9 Y s 1962 493 m -9 Y s 2026 493 m -9 Y s 2090 493 m
 -9 Y s 2154 502 m -18 Y s 227 1520 m 1927 X s 227 1501 m 19 Y s 291 1510 m 10 Y s 355 1510 m 10 Y s 420 1510 m 10 Y s 484 1510 m 10 Y s 548 1501 m 19 Y s 612 1510 m 10 Y s 677 1510 m 10 Y s 741 1510 m 10 Y s 805 1510 m 10 Y s 869 1501 m 19 Y s 934
 1510 m 10 Y s 998 1510 m 10 Y s 1062 1510 m 10 Y s 1126 1510 m 10 Y s 1191 1501 m 19 Y s 1255 1510 m 10 Y s 1319 1510 m 10 Y s 1383 1510 m 10 Y s 1448 1510 m 10 Y s 1512 1501 m 19 Y s 1576 1510 m 10 Y s 1640 1510 m 10 Y s 1705 1510 m 10 Y s 1769
 1510 m 10 Y s 1833 1501 m 19 Y s 1897 1510 m 10 Y s 1962 1510 m 10 Y s 2026 1510 m 10 Y s 2090 1510 m 10 Y s 2154 1501 m 19 Y s 227 484 m 1036 Y s 248 621 m -21 X s 237 656 m -10 X s 237 690 m -10 X s 237 725 m -10 X s 248 759 m -21 X s 237 794 m
 -10 X s 237 828 m -10 X s 237 863 m -10 X s 248 897 m -21 X s 237 932 m -10 X s 237 966 m -10 X s 237 1001 m -10 X s 248 1035 m -21 X s 237 1069 m -10 X s 237 1104 m -10 X s 237 1138 m -10 X s 248 1173 m -21 X s 237 1207 m -10 X s 237 1242 m -10 X s
 237 1276 m -10 X s 248 1311 m -21 X s 237 1345 m -10 X s 237 1380 m -10 X s 237 1414 m -10 X s 248 1449 m -21 X s 248 621 m -21 X s 237 587 m -10 X s 237 552 m -10 X s 237 518 m -10 X s 248 1449 m -21 X s 237 1483 m -10 X s 237 1518 m -10 X s 2154
 484 m 1036 Y s 2133 621 m 21 X s 2144 656 m 10 X s 2144 690 m 10 X s 2144 725 m 10 X s 2133 759 m 21 X s 2144 794 m 10 X s 2144 828 m 10 X s 2144 863 m 10 X s 2133 897 m 21 X s 2144 932 m 10 X s 2144 966 m 10 X s 2144 1001 m 10 X s 2133 1035 m 21 X
 s 2144 1069 m 10 X s 2144 1104 m 10 X s 2144 1138 m 10 X s 2133 1173 m 21 X s 2144 1207 m 10 X s 2144 1242 m 10 X s 2144 1276 m 10 X s 2133 1311 m 21 X s 2144 1345 m 10 X s 2144 1380 m 10 X s 2144 1414 m 10 X s 2133 1449 m 21 X s 2133 621 m 21 X s
 2144 587 m 10 X s 2144 552 m 10 X s 2144 518 m 10 X s 2133 1449 m 21 X s 2144 1483 m 10 X s 2144 1518 m 10 X s
 gsave  2268 1103 0 472 C 1314.45 1432.87 t 0 r /Helvetica findfont 56.3093 sf 0 0 m ( Data) show NC gr  1259 1456 m 7 Y s 1259 1432 m -7 Y s 1259 1444 m20
 gsave  2268 1103 0 472 C 1776.28 1432.87 t 0 r /Helvetica findfont 56.3093 sf 0 0 m ( Fakes \(MM\)) show NC gr  0.4 0.6 0.4 c 1682 1422 m 79 X 44 Y -79 X f black
 gsave  2268 1103 0 472 C 1403.26 1367.74 t 0 r /Helvetica findfont 56.3093 sf 0 0 m (single\255top) show NC gr 
 gsave  2268 1103 0 472 C 1373.66 1367.74 t 0 r /Helvetica-Oblique findfont 56.3093 sf 0 0 m (/) show NC gr 
 gsave  2268 1103 0 472 C 1352.93 1367.74 t 0 r /Helvetica-Oblique findfont 56.3093 sf 0 0 m (t) show NC gr  6 lw 1353 1412 m 21 X s
 gsave  2268 1103 0 472 C 1332.21 1367.74 t 0 r /Helvetica-Oblique findfont 56.3093 sf 0 0 m (t) show NC gr 
 gsave  2268 1103 0 472 C 1314.45 1367.74 t 0 r /Helvetica findfont 56.3093 sf 0 0 m ( ) show NC gr  0.06 0.54 0.06 c 3 lw 1219 1359 m 79 X 44 Y -79 X f 6 lw black
 gsave  2268 1103 0 472 C 1906.54 1367.74 t 0 r /Helvetica findfont 56.3093 sf 0 0 m (+jets) show NC gr 
 gsave  2268 1103 0 472 C 1794.04 1367.74 t 0 r /Helvetica-Oblique findfont 56.3093 sf 0 0 m (W/Z) show NC gr 
 gsave  2268 1103 0 472 C 1776.28 1367.74 t 0 r /Helvetica findfont 56.3093 sf 0 0 m ( ) show NC gr  1 0.653333 0 c 3 lw 1682 1359 m 79 X 44 Y -79 X f black
 gsave  2268 1103 0 472 C 1512.8 1305.57 t 0 r /Helvetica findfont 56.3093 sf 0 0 m (+jets) show NC gr 
 gsave  2268 1103 0 472 C 1332.21 1305.57 t 0 r /Helvetica-Oblique findfont 56.3093 sf 0 0 m (WZ/ZZ) show NC gr 
 gsave  2268 1103 0 472 C 1314.45 1305.57 t 0 r /Helvetica findfont 56.3093 sf 0 0 m ( ) show NC gr  0.413333 1 0 c 3 lw 1219 1296 m 79 X 44 Y -79 X f black
 gsave  2268 1103 0 472 C 1835.49 1305.57 t 0 r /Helvetica-Oblique findfont 56.3093 sf 0 0 m (Z) show NC gr 
 gsave  2268 1103 0 472 C 1814.77 1305.57 t 0 r /Helvetica-Oblique findfont 56.3093 sf 0 0 m (t) show NC gr  6 lw 1815 1350 m 20 X s
 gsave  2268 1103 0 472 C 1794.04 1305.57 t 0 r /Helvetica-Oblique findfont 56.3093 sf 0 0 m (t) show NC gr 
 gsave  2268 1103 0 472 C 1776.28 1305.57 t 0 r /Helvetica findfont 56.3093 sf 0 0 m ( ) show NC gr  0.6 0.2 1 c 3 lw 1682 1296 m 79 X 44 Y -79 X f 6 lw black
 gsave  2268 1103 0 472 C 1373.66 1243.4 t 0 r /Helvetica-Oblique findfont 56.3093 sf 0 0 m (W) show NC gr 
 gsave  2268 1103 0 472 C 1352.93 1243.4 t 0 r /Helvetica-Oblique findfont 56.3093 sf 0 0 m (t) show NC gr  6 lw 1353 1288 m 21 X s
 gsave  2268 1103 0 472 C 1332.21 1243.4 t 0 r /Helvetica-Oblique findfont 56.3093 sf 0 0 m (t) show NC gr 
 gsave  2268 1103 0 472 C 1314.45 1243.4 t 0 r /Helvetica findfont 56.3093 sf 0 0 m ( ) show NC gr  0.54 0.06 0.06 c 3 lw 1219 1233 m 79 X 44 Y -79 X f 6 lw black
 gsave  2268 1103 0 472 C 1794.04 1243.4 t 0 r /Helvetica-Oblique findfont 56.3093 sf 0 0 m (tZq) show NC gr 
 gsave  2268 1103 0 472 C 1776.28 1243.4 t 0 r /Helvetica findfont 56.3093 sf 0 0 m ( ) show NC gr  1 0 1 c 3 lw 1682 1233 m 79 X 44 Y -79 X f black
 gsave  2268 1103 0 472 C 1373.66 1178.27 t 0 r /Helvetica-Oblique findfont 56.3093 sf 0 0 m (H) show NC gr 
 gsave  2268 1103 0 472 C 1352.93 1178.27 t 0 r /Helvetica-Oblique findfont 56.3093 sf 0 0 m (t) show NC gr  6 lw 1353 1223 m 21 X s
 gsave  2268 1103 0 472 C 1332.21 1178.27 t 0 r /Helvetica-Oblique findfont 56.3093 sf 0 0 m (t) show NC gr 
 gsave  2268 1103 0 472 C 1314.45 1178.27 t 0 r /Helvetica findfont 56.3093 sf 0 0 m ( ) show NC gr  0 0 1 c 3 lw 1219 1170 m 79 X 44 Y -79 X f 6 lw black
 gsave  2268 1103 0 472 C 1794.04 1178.27 t 0 r /Helvetica-Oblique findfont 56.3093 sf 0 0 m (tWZ/tWH) show NC gr 
 gsave  2268 1103 0 472 C 1776.28 1178.27 t 0 r /Helvetica findfont 56.3093 sf 0 0 m ( ) show NC gr  0.2 0.8 0.8 c 3 lw 1682 1170 m 79 X 44 Y -79 X f black
 gsave  2268 1103 0 472 C 1332.21 1116.1 t 0 r /Helvetica-Oblique findfont 56.3093 sf 0 0 m (tHq) show NC gr 
 gsave  2268 1103 0 472 C 1314.45 1116.1 t 0 r /Helvetica findfont 56.3093 sf 0 0 m ( ) show NC gr  1 0 0 c 3 lw 1219 1107 m 79 X 44 Y -79 X f black
 gsave  2268 1103 0 472 C 1776.28 1116.1 t 0 r /Helvetica findfont 56.3093 sf 0 0 m ( Other) show NC gr  1 0.84 0 c 3 lw 1682 1107 m 79 X 44 Y -79 X f black
 gsave  2268 1103 0 472 C 1314.45 1053.93 t 0 r /Helvetica findfont 56.3093 sf 0 0 m ( Uncertainty) show NC gr  0.6 0.6 0.6 c 3 lw 1298 1058 m -13 -14 d s 1298 1077 m -33 -33 d s 1290 1088 m -44 -44 d s 1271 1088 m -44 -44 d s 1252 1088 m -33 -33 d s
 1233 1088 m -14 -13 d s 1 0.84 0 c 0.6 0.6 0.6 c black
 gsave  2268 1103 0 472 C 894.061 1329.25 t 0 r /Helvetica findfont 41.4911 sf 0 0 m (\2551) show NC gr 
 gsave  2268 1103 0 472 C 399.663 1299.64 t 0 r /Helvetica findfont 62.2366 sf 0 0 m ( = 13 TeV,  139 fb) show NC gr 
 gsave  2268 1103 0 472 C 370.058 1299.64 t 0 r /Helvetica findfont 62.2366 sf 0 0 m (s) show NC gr  6 lw 349 1335 m 6 -38 d s 3 lw 355 1297 m 6 56 d s 361 1353 m 39 X s
 gsave  2268 1103 0 472 C 831.891 1201.95 t 0 r /Helvetica findfont 62.2366 sf 0 0 m (\)) show NC gr 
 gsave  2268 1103 0 472 C 775.642 1169.38 t 0 r /Helvetica findfont 41.4911 sf 0 0 m (HF) show NC gr 
 gsave  2268 1103 0 472 C 337.493 1201.95 t 0 r /Helvetica findfont 62.2366 sf 0 0 m ( 2L\(SS\), CR\(mu) show NC gr 
 gsave  2268 1103 0 472 C 337.493 1400.3 t 0 r /Helvetica-BoldOblique findfont 71.1276 sf 0 0 m (ATLAS) show NC gr 
 gsave  2268 1103 0 472 C 633.54 1400.3 t 0 r /Helvetica findfont 71.1276 sf 0 0 m (Internal) show NC gr 
 gr  gr showpage
end
%%EOF
