%!PS-Adobe-2.0 EPSF-2.0
%%BoundingBox:  0 0 567 394
%%Title: /lhome/ific/c/cardillo/tHq/Plots/Plots-30-05-22-PLIV-SF/2LSS_MM/EtMiss_CRVV.eps: EtMiss_CRVV
%%Creator: ROOT Version 6.20/06
%%CreationDate: Mon May 30 19:25:23 2022
%%DocumentNeededResources: ProcSet (FontSetInit)
%%EndComments
%%BeginProlog
80 dict begin
/s {stroke} def /l {lineto} def /m {moveto} def /t {translate} def
/r {rotate} def /rl {roll}  def /R {repeat} def
/d {rlineto} def /rm {rmoveto} def /gr {grestore} def /f {eofill} def
/c {setrgbcolor} def /black {0 setgray} def /sd {setdash} def
/cl {closepath} def /sf {scalefont setfont} def /lw {setlinewidth} def
/box {m dup 0 exch d exch 0 d 0 exch neg d cl} def
/NC{systemdict begin initclip end}def/C{NC box clip newpath}def
/bl {box s} def /bf {gsave box gsave f grestore 1 lw [] 0 sd s grestore} def /Y { 0 exch d} def /X { 0 d} def 
/K {{pop pop 0 moveto} exch kshow} bind def
/ita {/ang 15 def gsave [1 0 ang dup sin exch cos div 1 0 0] concat} def 
/mp {newpath /y exch def /x exch def} def
/side {[w .77 mul w .23 mul] .385 w mul sd w 0 l currentpoint t -144 r} def
/mr {mp x y w2 0 360 arc} def /m24 {mr s} def /m20 {mr f} def
/mb {mp x y w2 add m w2 neg 0 d 0 w neg d w 0 d 0 w d cl} def
/mt {mp x y w2 add m w2 neg w neg d w 0 d cl} def
/w4 {w 4 div} def
/w6 {w 6 div} def
/w8 {w 8 div} def
/m21 {mb f} def /m25 {mb s} def /m22 {mt f} def /m26{mt s} def
/m23 {mp x y w2 sub m w2 w d w neg 0 d cl f} def
/m27 {mp x y w2 add m w3 neg w2 neg d w3 w2 neg d w3 w2 d cl s} def
/m28 {mp x w2 sub y w2 sub w3 add m w3 0 d  0 w3 neg d w3 0 d 0 w3 d w3 0 d  0 w3 d w3 neg 0 d 0 w3 d w3 neg 0 d 0 w3 neg d w3 neg 0 d cl s } def
/m29 {mp gsave x w2 sub y w2 add w3 sub m currentpoint t 4 {side} repeat cl fill gr} def
/m30 {mp gsave x w2 sub y w2 add w3 sub m currentpoint t 4 {side} repeat cl s gr} def
/m31 {mp x y w2 sub m 0 w d x w2 sub y m w 0 d x w2 sub y w2 add m w w neg d x w2 sub y w2 sub m w w d s} def
/m32 {mp x y w2 sub m w2 w d w neg 0 d cl s} def
/m33 {mp x y w2 add m w3 neg w2 neg d w3 w2 neg d w3 w2 d cl f} def
/m34 {mp x w2 sub y w2 sub w3 add m w3 0 d  0 w3 neg d w3 0 d 0 w3 d w3 0 d  0 w3 d w3 neg 0 d 0 w3 d w3 neg 0 d 0 w3 neg d w3 neg 0 d cl f } def
/m35 {mp x y w2 add m w2 neg w2 neg d w2 w2 neg d w2 w2 d w2 neg w2 d x y w2 sub m 0 w d x w2 sub y m w 0 d s} def
/m36 {mb x w2 sub y w2 add m w w neg d x w2 sub y w2 sub m w w d s} def
/m37 {mp x y m w4 neg w2 d w4 neg w2 neg d w2 0 d  w4 neg w2 neg d w2 0 d w4 neg w2 d w2 0 d w4 neg w2 d w4 neg w2 neg d cl s} def
/m38 {mp x w4 sub y w2 add m w4 neg w4 neg d 0 w2 neg d w4 w4 neg d w2 0 d w4 w4 d 0 w2 d w4 neg w4 d w2 neg 0 d x y w2 sub m 0 w d x w2 sub y m w 0 d cl s} def
/m39 {mp x y m w4 neg w2 d w4 neg w2 neg d w2 0 d  w4 neg w2 neg d w2 0 d w4 neg w2 d w2 0 d w4 neg w2 d w4 neg w2 neg d cl f} def
/m40 {mp x y m w4 w2 d w4 w4 neg d w2 neg w4 neg d w2 w4 neg d w4 neg w4 neg d w4 neg w2 d w4 neg w2 neg d w4 neg w4 d w2 w4 d w2 neg w4 d w4 w4 d w4 w2 neg d cl s} def
/m41 {mp x y m w4 w2 d w4 w4 neg d w2 neg w4 neg d w2 w4 neg d w4 neg w4 neg d w4 neg w2 d w4 neg w2 neg d w4 neg w4 d w2 w4 d w2 neg w4 d w4 w4 d w4 w2 neg d cl f} def
/m42 {mp x y w2 add m w8 neg w2 -3 4 div mul d w2 -3 4 div mul w8 neg d w2 3 4 div mul w8 neg d w8 w2 -3 4 div mul d w8 w2 3 4 div mul d w2 3 4 div mul w8 d w2 -3 4 div mul w8 d w8 neg w2 3 4 div mul d cl s} def
/m43 {mp x y w2 add m w8 neg w2 -3 4 div mul d w2 -3 4 div mul w8 neg d w2 3 4 div mul w8 neg d w8 w2 -3 4 div mul d w8 w2 3 4 div mul d w2 3 4 div mul w8 d w2 -3 4 div mul w8 d w8 neg w2 3 4 div mul d cl f} def
/m44 {mp x y m w6 neg w2 d w2 2 3 div mul 0 d w6 neg w2 neg d w2 w6 d 0 w2 -2 3 div mul d w2 neg w6 d w6 w2 neg d w2 -2 3 div mul 0 d w6 w2 d w2 neg w6 neg d 0 w2 2 3 div mul d w2 w6 neg d cl s} def
/m45 {mp x y m w6 neg w2 d w2 2 3 div mul 0 d w6 neg w2 neg d w2 w6 d 0 w2 -2 3 div mul d w2 neg w6 d w6 w2 neg d w2 -2 3 div mul 0 d w6 w2 d w2 neg w6 neg d 0 w2 2 3 div mul d w2 w6 neg d cl f} def
/m46 {mp x y w4 add m w4 neg w4 d w4 neg w4 neg d  w4 w4 neg d w4 neg w4 neg d w4 w4 neg d w4 w4 d w4 w4 neg d w4 w4 d w4 neg w4 d w4 w4 d w4 neg w4 d w4 neg w4 neg d cl s} def
/m47 {mp x y w4 add m w4 neg w4 d w4 neg w4 neg d w4 w4 neg d w4 neg w4 neg d  w4 w4 neg d w4 w4 d w4 w4 neg d w4 w4 d w4 neg w4 d w4 w4 d w4 neg w4 d w4 neg w4 neg d cl f} def
/m48 {mp x y w4 add m w4 neg w4 d w4 neg w4 neg d w4 w4 neg d  w4 neg w4 neg d w4 w4 neg d w4 w4 d w4 w4 neg d w4 w4 d w4 neg w4 d w4 w4 d w4 neg w4 d w4 neg w4 neg d  w4 w4 neg d w4 neg w4 neg d w4 neg w4 d w4 w4 d cl f} def
/m49 {mp x w2 sub w3 add y w2 sub w3 add m  0 w3 neg d w3 0 d 0 w3 d w3 0 d 0 w3 d w3 neg 0 d 0 w3 d w3 neg 0 d 0 w3 neg d w3 neg 0 d 0 w3 neg d w3 0 d 0 w3 d w3 0 d 0 w3 neg d w3 neg 0 d cl f } def
/m2 {mp x y w2 sub m 0 w d x w2 sub y m w 0 d s} def
/m5 {mp x w2 sub y w2 sub m w w d x w2 sub y w2 add m w w neg d s} def
%%IncludeResource: ProcSet (FontSetInit)
%%IncludeResource: font Times-Roman
%%IncludeResource: font Times-Italic
%%IncludeResource: font Times-Bold
%%IncludeResource: font Times-BoldItalic
%%IncludeResource: font Helvetica
%%IncludeResource: font Helvetica-Oblique
%%IncludeResource: font Helvetica-Bold
%%IncludeResource: font Helvetica-BoldOblique
%%IncludeResource: font Courier
%%IncludeResource: font Courier-Oblique
%%IncludeResource: font Courier-Bold
%%IncludeResource: font Courier-BoldOblique
%%IncludeResource: font Symbol
%%IncludeResource: font ZapfDingbats
/reEncode {exch findfont dup length dict begin {1 index /FID eq  {pop pop} {def} ifelse } forall /Encoding exch def currentdict end dup /FontName get exch definefont pop } def [/Times-Bold /Times-Italic /Times-BoldItalic /Helvetica /Helvetica-Oblique
 /Helvetica-Bold /Helvetica-BoldOblique /Courier /Courier-Oblique /Courier-Bold /Courier-BoldOblique /Times-Roman /AvantGarde-Book /AvantGarde-BookOblique /AvantGarde-Demi /AvantGarde-DemiOblique /Bookman-Demi /Bookman-DemiItalic /Bookman-Light
 /Bookman-LightItalic /Helvetica-Narrow /Helvetica-Narrow-Bold /Helvetica-Narrow-BoldOblique /Helvetica-Narrow-Oblique /NewCenturySchlbk-Roman /NewCenturySchlbk-Bold /NewCenturySchlbk-BoldItalic /NewCenturySchlbk-Italic /Palatino-Bold
 /Palatino-BoldItalic /Palatino-Italic /Palatino-Roman ] {ISOLatin1Encoding reEncode } forall
%%EndProlog
%%BeginSetup
%%EndSetup
newpath  gsave  .25 .25 scale  gsave  0 0 t black[  ] 0 sd 3 lw 1 1 1 c 2268 1575 0 0 bf black 1 1 1 c 2268 472 0 0 bf black 1 1 1 c 1927 274 227 189 bf black 1927 274 227 189 bl 227 189 m 1927 X s 227 201 m -12 Y s 291 195 m -6 Y s 355 195 m -6 Y s
 420 195 m -6 Y s 484 195 m -6 Y s 548 201 m -12 Y s 612 195 m -6 Y s 677 195 m -6 Y s 741 195 m -6 Y s 805 195 m -6 Y s 869 201 m -12 Y s 934 195 m -6 Y s 998 195 m -6 Y s 1062 195 m -6 Y s 1126 195 m -6 Y s 1191 201 m -12 Y s 1255 195 m -6 Y s 1319
 195 m -6 Y s 1383 195 m -6 Y s 1448 195 m -6 Y s 1512 201 m -12 Y s 1576 195 m -6 Y s 1640 195 m -6 Y s 1705 195 m -6 Y s 1769 195 m -6 Y s 1833 201 m -12 Y s 1897 195 m -6 Y s 1962 195 m -6 Y s 2026 195 m -6 Y s 2090 195 m -6 Y s 2154 201 m -12 Y s
 gsave  2268 472 0 0 C 210.193 127.3 t 0 r /Helvetica findfont 53.4895 sf 0 0 m (0) show NC gr 
 gsave  2268 472 0 0 C 518.081 127.3 t 0 r /Helvetica findfont 53.4895 sf 0 0 m (50) show NC gr 
 gsave  2268 472 0 0 C 823.009 127.3 t 0 r /Helvetica findfont 53.4895 sf 0 0 m (100) show NC gr 
 gsave  2268 472 0 0 C 1145.7 127.3 t 0 r /Helvetica findfont 53.4895 sf 0 0 m (150) show NC gr 
 gsave  2268 472 0 0 C 1465.43 127.3 t 0 r /Helvetica findfont 53.4895 sf 0 0 m (200) show NC gr 
 gsave  2268 472 0 0 C 1788.12 127.3 t 0 r /Helvetica findfont 53.4895 sf 0 0 m (250) show NC gr 
 gsave  2268 472 0 0 C 2107.85 127.3 t 0 r /Helvetica findfont 53.4895 sf 0 0 m (300) show NC gr 
 gsave  2268 472 0 0 C 1995.35 41.4465 t 0 r /Helvetica findfont 56.4611 sf 0 0 m ( [GeV]) show NC gr 
 gsave  2268 472 0 0 C 1915.42 68.0907 t 0 r /Helvetica findfont 38.6313 sf 0 0 m (miss) show NC gr 
 gsave  2268 472 0 0 C 1915.42 23.6837 t 0 r /Helvetica findfont 38.6313 sf 0 0 m (T) show NC gr 
 gsave  2268 472 0 0 C 1871.01 41.4465 t 0 r /Helvetica-Oblique findfont 56.4611 sf 0 0 m (E) show NC gr  227 463 m 1927 X s 227 451 m 12 Y s 291 457 m 6 Y s 355 457 m 6 Y s 420 457 m 6 Y s 484 457 m 6 Y s 548 451 m 12 Y s 612 457 m 6 Y s 677 457 m 6
 Y s 741 457 m 6 Y s 805 457 m 6 Y s 869 451 m 12 Y s 934 457 m 6 Y s 998 457 m 6 Y s 1062 457 m 6 Y s 1126 457 m 6 Y s 1191 451 m 12 Y s 1255 457 m 6 Y s 1319 457 m 6 Y s 1383 457 m 6 Y s 1448 457 m 6 Y s 1512 451 m 12 Y s 1576 457 m 6 Y s 1640 457
 m 6 Y s 1705 457 m 6 Y s 1769 457 m 6 Y s 1833 451 m 12 Y s 1897 457 m 6 Y s 1962 457 m 6 Y s 2026 457 m 6 Y s 2090 457 m 6 Y s 2154 451 m 12 Y s 227 189 m 274 Y s 240 240 m -13 X s 240 326 m -13 X s 240 412 m -13 X s 240 240 m -13 X s 240 412 m -13
 X s
 gsave  2268 472 0 0 C 118.419 222.035 t 0 r /Helvetica findfont 53.4895 sf 0 0 m (0.5) show NC gr 
 gsave  2268 472 0 0 C 171.707 307.888 t 0 r /Helvetica findfont 53.4895 sf 0 0 m (1) show NC gr 
 gsave  2268 472 0 0 C 118.419 393.742 t 0 r /Helvetica findfont 53.4895 sf 0 0 m (1.5) show NC gr 
 gsave  2268 472 0 0 C 71.0512 230.916 t 90 r /Helvetica findfont 53.4895 sf 0 0 m (Data / SM) show NC gr  2154 189 m 274 Y s 2141 240 m 13 X s 2141 326 m 13 X s 2141 412 m 13 X s 2141 240 m 13 X s 2141 412 m 13 X s 227 189 m 1927 X s 227 463 m 1927
 X s 227 189 m 274 Y s[ 4 8] 0 sd 2154 240 m -1927 X s 2154 326 m -1927 X s 2154 412 m -1927 X s 2154 240 m -1927 X s 2154 412 m -1927 X s[  ] 0 sd 2154 189 m 274 Y s 1 1 0.6 c 193 0 227 326 bf 192 0 420 326 bf 193 0 612 326 bf 193 0 805 326 bf 193 0
 998 326 bf 192 0 1191 326 bf 193 0 1383 326 bf 193 0 1576 326 bf 193 0 1769 326 bf 192 0 1962 326 bf black 0.6 0.6 0.6 c 420 325 m -9 -9 d s 412 336 m -21 -20 d s 393 336 m -21 -20 d s 374 336 m -21 -20 d s 354 336 m -20 -20 d s 335 336 m -21 -20 d
 s 316 336 m -21 -20 d s 297 336 m -21 -20 d s 277 336 m -20 -20 d s 258 336 m -21 -20 d s 239 336 m -12 -12 d s 612 325 m -7 -8 d s 603 335 m -18 -18 d s 584 335 m -18 -18 d s 564 335 m -17 -18 d s 545 335 m -17 -18 d s 526 335 m -18 -18 d s 507 335
 m -18 -18 d s 487 335 m -17 -18 d s 468 335 m -17 -18 d s 449 335 m -18 -18 d s 430 335 m -10 -10 d s 805 325 m -13 -13 d s 801 340 m -28 -28 d s 781 340 m -28 -28 d s 762 340 m -28 -28 d s 743 340 m -28 -28 d s 724 340 m -28 -28 d s 704 340 m -28
 -28 d s 685 340 m -28 -28 d s 666 340 m -28 -28 d s 647 340 m -28 -28 d s 627 340 m -15 -15 d s 998 326 m -11 -11 d s 990 337 m -22 -22 d s 971 337 m -23 -22 d s 952 337 m -23 -22 d s 933 337 m -23 -22 d s 913 337 m -22 -22 d s 894 337 m -23 -22 d s
 875 337 m -23 -22 d s 856 337 m -23 -22 d s 836 337 m -22 -22 d s 817 337 m -12 -12 d s 1191 326 m -19 -19 d s 1190 345 m -38 -38 d s 1171 345 m -38 -38 d s 1152 345 m -38 -38 d s 1133 345 m -38 -38 d s 1113 345 m -38 -38 d s 1094 345 m -38 -38 d s
 1075 345 m -38 -38 d s 1056 345 m -38 -38 d s 1037 345 m -38 -38 d s 1017 345 m -19 -19 d s 998 345 m s 1383 326 m -16 -16 d s 1380 342 m -32 -32 d s 1361 342 m -32 -32 d s 1341 342 m -32 -32 d s 1322 342 m -32 -32 d s 1303 342 m -32 -32 d s 1284
 342 m -32 -32 d s 1264 342 m -31 -32 d s 1245 342 m -32 -32 d s 1226 342 m -32 -32 d s 1207 342 m -16 -16 d s 1576 307 m -4 -3 d s 1576 327 m -23 -23 d s 1576 346 m -42 -42 d s 1559 349 m -44 -45 d s 1540 349 m -45 -45 d s 1521 349 m -45 -45 d s
 1502 349 m -45 -45 d s 1482 349 m -44 -45 d s 1463 349 m -45 -45 d s 1444 349 m -45 -45 d s 1425 349 m -42 -42 d s 1406 349 m -23 -23 d s 1386 349 m -3 -3 d s 1769 308 m -5 -6 d s 1769 327 m -25 -25 d s 1769 346 m -44 -44 d s 1753 350 m -47 -48 d s
 1734 350 m -47 -48 d s 1715 350 m -48 -48 d s 1695 350 m -47 -48 d s 1676 350 m -47 -48 d s 1657 350 m -47 -48 d s 1638 350 m -48 -48 d s 1618 350 m -42 -43 d s 1599 350 m -23 -23 d s 1580 350 m -4 -4 d s 1962 308 m -16 -16 d s 1962 327 m -35 -35 d
 s 1962 347 m -55 -55 d s 1956 360 m -68 -68 d s 1936 360 m -67 -68 d s 1917 360 m -67 -68 d s 1898 360 m -67 -68 d s 1879 360 m -68 -68 d s 1859 360 m -67 -68 d s 1840 360 m -67 -68 d s 1821 360 m -52 -52 d s 1802 360 m -33 -33 d s 1782 360 m -13
 -14 d s 2154 328 m -12 -13 d s 2144 337 m -21 -22 d s 2125 337 m -22 -22 d s 2106 337 m -22 -22 d s 2087 337 m -22 -22 d s 2067 337 m -21 -22 d s 2048 337 m -21 -22 d s 2029 337 m -22 -22 d s 2010 337 m -22 -22 d s 1990 337 m -21 -22 d s 1971 337 m
 -9 -10 d s black 1 1 1 c black 323 305 m 18 Y s 323 346 m 18 Y s /w 26 def /w2 {w 2 div} def /w3 {w 3 div} def 323 334 m20 516 346 m 16 Y s 516 386 m 16 Y s 516 374 m20 709 297 m 32 Y s 709 352 m 32 Y s 709 341 m20 901 243 m 59 Y s 901 326 m 59 Y s
 901 314 m20 1094 189 m 38 Y s 1094 251 m 72 Y s 1094 239 m20 227 326 m 1927 X s 227 189 m 1927 X s 227 201 m -12 Y s 291 195 m -6 Y s 355 195 m -6 Y s 420 195 m -6 Y s 484 195 m -6 Y s 548 201 m -12 Y s 612 195 m -6 Y s 677 195 m -6 Y s 741 195 m -6
 Y s 805 195 m -6 Y s 869 201 m -12 Y s 934 195 m -6 Y s 998 195 m -6 Y s 1062 195 m -6 Y s 1126 195 m -6 Y s 1191 201 m -12 Y s 1255 195 m -6 Y s 1319 195 m -6 Y s 1383 195 m -6 Y s 1448 195 m -6 Y s 1512 201 m -12 Y s 1576 195 m -6 Y s 1640 195 m
 -6 Y s 1705 195 m -6 Y s 1769 195 m -6 Y s 1833 201 m -12 Y s 1897 195 m -6 Y s 1962 195 m -6 Y s 2026 195 m -6 Y s 2090 195 m -6 Y s 2154 201 m -12 Y s 227 463 m 1927 X s 227 451 m 12 Y s 291 457 m 6 Y s 355 457 m 6 Y s 420 457 m 6 Y s 484 457 m 6
 Y s 548 451 m 12 Y s 612 457 m 6 Y s 677 457 m 6 Y s 741 457 m 6 Y s 805 457 m 6 Y s 869 451 m 12 Y s 934 457 m 6 Y s 998 457 m 6 Y s 1062 457 m 6 Y s 1126 457 m 6 Y s 1191 451 m 12 Y s 1255 457 m 6 Y s 1319 457 m 6 Y s 1383 457 m 6 Y s 1448 457 m 6
 Y s 1512 451 m 12 Y s 1576 457 m 6 Y s 1640 457 m 6 Y s 1705 457 m 6 Y s 1769 457 m 6 Y s 1833 451 m 12 Y s 1897 457 m 6 Y s 1962 457 m 6 Y s 2026 457 m 6 Y s 2090 457 m 6 Y s 2154 451 m 12 Y s 227 189 m 274 Y s 240 240 m -13 X s 240 326 m -13 X s
 240 412 m -13 X s 240 240 m -13 X s 240 412 m -13 X s 2154 189 m 274 Y s 2141 240 m 13 X s 2141 326 m 13 X s 2141 412 m 13 X s 2141 240 m 13 X s 2141 412 m 13 X s 1 1 1 c 2268 1103 0 472 bf black 1 1 1 c 1927 1036 227 484 bf black 1927 1036 227 484
 bl 1 1 1 c black 3 lw 227 484 m 1927 X s 227 502 m -18 Y s 291 493 m -9 Y s 355 493 m -9 Y s 420 493 m -9 Y s 484 493 m -9 Y s 548 502 m -18 Y s 612 493 m -9 Y s 677 493 m -9 Y s 741 493 m -9 Y s 805 493 m -9 Y s 869 502 m -18 Y s 934 493 m -9 Y s
 998 493 m -9 Y s 1062 493 m -9 Y s 1126 493 m -9 Y s 1191 502 m -18 Y s 1255 493 m -9 Y s 1319 493 m -9 Y s 1383 493 m -9 Y s 1448 493 m -9 Y s 1512 502 m -18 Y s 1576 493 m -9 Y s 1640 493 m -9 Y s 1705 493 m -9 Y s 1769 493 m -9 Y s 1833 502 m -18
 Y s 1897 493 m -9 Y s 1962 493 m -9 Y s 2026 493 m -9 Y s 2090 493 m -9 Y s 2154 502 m -18 Y s
 gsave  2268 1103 0 472 C 2069.37 396.702 t 0 r /Helvetica findfont 29.6365 sf 0 0 m ( [GeV]) show NC gr 
 gsave  2268 1103 0 472 C 2024.96 414.465 t 0 r /Helvetica findfont 20.7455 sf 0 0 m (miss) show NC gr 
 gsave  2268 1103 0 472 C 2024.96 387.821 t 0 r /Helvetica findfont 20.7455 sf 0 0 m (T) show NC gr 
 gsave  2268 1103 0 472 C 2001.27 396.702 t 0 r /Helvetica-Oblique findfont 29.6365 sf 0 0 m (E) show NC gr  227 1520 m 1927 X s 227 1501 m 19 Y s 291 1510 m 10 Y s 355 1510 m 10 Y s 420 1510 m 10 Y s 484 1510 m 10 Y s 548 1501 m 19 Y s 612 1510 m 10
 Y s 677 1510 m 10 Y s 741 1510 m 10 Y s 805 1510 m 10 Y s 869 1501 m 19 Y s 934 1510 m 10 Y s 998 1510 m 10 Y s 1062 1510 m 10 Y s 1126 1510 m 10 Y s 1191 1501 m 19 Y s 1255 1510 m 10 Y s 1319 1510 m 10 Y s 1383 1510 m 10 Y s 1448 1510 m 10 Y s 1512
 1501 m 19 Y s 1576 1510 m 10 Y s 1640 1510 m 10 Y s 1705 1510 m 10 Y s 1769 1510 m 10 Y s 1833 1501 m 19 Y s 1897 1510 m 10 Y s 1962 1510 m 10 Y s 2026 1510 m 10 Y s 2090 1510 m 10 Y s 2154 1501 m 19 Y s 227 484 m 1036 Y s 248 652 m -21 X s 237 694
 m -10 X s 237 736 m -10 X s 237 778 m -10 X s 248 820 m -21 X s 237 863 m -10 X s 237 905 m -10 X s 237 947 m -10 X s 248 989 m -21 X s 237 1031 m -10 X s 237 1073 m -10 X s 237 1115 m -10 X s 248 1157 m -21 X s 237 1200 m -10 X s 237 1242 m -10 X s
 237 1284 m -10 X s 248 1326 m -21 X s 237 1368 m -10 X s 237 1410 m -10 X s 237 1452 m -10 X s 248 1494 m -21 X s 248 652 m -21 X s 237 610 m -10 X s 237 568 m -10 X s 237 526 m -10 X s 248 1494 m -21 X s
 gsave  2268 1103 0 472 C 145.063 633.54 t 0 r /Helvetica findfont 50.382 sf 0 0 m (20) show NC gr 
 gsave  2268 1103 0 472 C 145.063 802.286 t 0 r /Helvetica findfont 50.382 sf 0 0 m (40) show NC gr 
 gsave  2268 1103 0 472 C 145.063 971.033 t 0 r /Helvetica findfont 50.382 sf 0 0 m (60) show NC gr 
 gsave  2268 1103 0 472 C 145.063 1136.82 t 0 r /Helvetica findfont 50.382 sf 0 0 m (80) show NC gr 
 gsave  2268 1103 0 472 C 118.419 1305.57 t 0 r /Helvetica findfont 50.382 sf 0 0 m (100) show NC gr 
 gsave  2268 1103 0 472 C 118.419 1474.31 t 0 r /Helvetica findfont 50.382 sf 0 0 m (120) show NC gr 
 gsave  2268 1103 0 472 C 62.1698 1154.58 t 90 r /Helvetica findfont 50.382 sf 0 0 m (Events / 30 GeV) show NC gr  2154 484 m 1036 Y s 2133 652 m 21 X s 2144 694 m 10 X s 2144 736 m 10 X s 2144 778 m 10 X s 2133 820 m 21 X s 2144 863 m 10 X s 2144
 905 m 10 X s 2144 947 m 10 X s 2133 989 m 21 X s 2144 1031 m 10 X s 2144 1073 m 10 X s 2144 1115 m 10 X s 2133 1157 m 21 X s 2144 1200 m 10 X s 2144 1242 m 10 X s 2144 1284 m 10 X s 2133 1326 m 21 X s 2144 1368 m 10 X s 2144 1410 m 10 X s 2144 1452
 m 10 X s 2133 1494 m 21 X s 2133 652 m 21 X s 2144 610 m 10 X s 2144 568 m 10 X s 2144 526 m 10 X s 2133 1494 m 21 X s 0.4 0.6 0.4 c black 3 lw 0.4 0.6 0.4 c 227 484 m 297 Y 193 X 117 Y 192 X -275 Y 193 X -94 Y 193 X -28 Y 193 X -8 Y 192 X -4 Y 193
 X -2 Y 386 X 5 Y 192 X -8 Y f 0.06 0.54 0.06 c 0.999 0.999 0.999 c black 3 lw 0.999 0.999 0.999 c 227 484 m 203 Y 193 X 89 Y 192 X -190 Y 193 X -66 Y 193 X -22 Y 193 X -6 Y 192 X -3 Y 193 X -2 Y 193 X -1 Y 193 X 5 Y 192 X -7 Y f 0.06 0.54 0.06 c
 0.999 0.999 0.999 c 0.06 0.54 0.06 c 1 1 1 c black 0.06 0.54 0.06 c black 3 lw 0.06 0.54 0.06 c 227 484 m 203 Y 193 X 89 Y 192 X -190 Y 193 X -66 Y 193 X -22 Y 193 X -6 Y 192 X -3 Y 193 X -2 Y 193 X -1 Y 193 X 5 Y 192 X -7 Y f 1 0.653333 0 c 0.999
 0.999 0.999 c black 3 lw 0.999 0.999 0.999 c 227 484 m 200 Y 193 X 81 Y 192 X -186 Y 193 X -61 Y 193 X -21 Y 193 X -5 Y 192 X -3 Y 193 X -2 Y 193 X -1 Y 193 X 3 Y 192 X -5 Y f 1 0.653333 0 c 0.999 0.999 0.999 c 1 0.653333 0 c 1 1 1 c black 1
 0.653333 0 c black 3 lw 1 0.653333 0 c 227 484 m 200 Y 193 X 81 Y 192 X -186 Y 193 X -61 Y 193 X -21 Y 193 X -5 Y 192 X -3 Y 193 X -2 Y 193 X -1 Y 193 X 3 Y 192 X -5 Y f 0.413333 1 0 c 0.999 0.999 0.999 c black 3 lw 0.999 0.999 0.999 c 227 484 m 175
 Y 193 X 91 Y 192 X -171 Y 193 X -61 Y 193 X -22 Y 193 X -4 Y 192 X -3 Y 193 X -2 Y 193 X -1 Y 193 X 3 Y 192 X -5 Y f 0.413333 1 0 c 0.999 0.999 0.999 c 0.413333 1 0 c 1 1 1 c black 0.413333 1 0 c black 3 lw 0.413333 1 0 c 227 484 m 175 Y 193 X 91 Y
 192 X -171 Y 193 X -61 Y 193 X -22 Y 193 X -4 Y 192 X -3 Y 193 X -2 Y 193 X -1 Y 193 X 3 Y 192 X -5 Y f 0.6 0.2 1 c 0.999 0.999 0.999 c black 3 lw 0.999 0.999 0.999 c 227 484 m 18 Y 193 X 27 Y 192 X -20 Y 193 X -20 Y 193 X -3 Y 193 X -1 Y 192 X -1 Y
 579 X 1 Y 192 X -1 Y f 0.6 0.2 1 c 0.999 0.999 0.999 c 0.6 0.2 1 c 1 1 1 c black 0.6 0.2 1 c black 3 lw 0.6 0.2 1 c 227 484 m 18 Y 193 X 27 Y 192 X -20 Y 193 X -20 Y 193 X -3 Y 193 X -1 Y 192 X -1 Y 579 X 1 Y 192 X -1 Y f 0.54 0.06 0.06 c 0.999
 0.999 0.999 c black 3 lw 0.999 0.999 0.999 c 227 484 m 17 Y 193 X 25 Y 192 X -18 Y 193 X -20 Y 193 X -2 Y 193 X -1 Y 192 X -1 Y 771 X f 0.54 0.06 0.06 c 0.999 0.999 0.999 c 0.54 0.06 0.06 c 1 1 1 c black 0.54 0.06 0.06 c black 3 lw 0.54 0.06 0.06 c
 227 484 m 17 Y 193 X 25 Y 192 X -18 Y 193 X -20 Y 193 X -2 Y 193 X -1 Y 192 X -1 Y 771 X f 1 0 1 c 0.999 0.999 0.999 c black 3 lw 0.999 0.999 0.999 c 227 484 m 11 Y 193 X 23 Y 192 X -16 Y 193 X -17 Y 386 X -1 Y 963 X f 1 0 1 c 0.999 0.999 0.999 c 1
 0 1 c 1 1 1 c black 1 0 1 c black 3 lw 1 0 1 c 227 484 m 11 Y 193 X 23 Y 192 X -16 Y 193 X -17 Y 386 X -1 Y 963 X f 0 0 1 c 0.999 0.999 0.999 c black 3 lw 0.999 0.999 0.999 c 227 484 m 9 Y 193 X 20 Y 192 X -14 Y 193 X -15 Y 1349 X f 0 0 1 c 0.999
 0.999 0.999 c 0 0 1 c 1 1 1 c black 0 0 1 c black 3 lw 0 0 1 c 227 484 m 9 Y 193 X 20 Y 192 X -14 Y 193 X -15 Y 1349 X f 0.2 0.8 0.8 c 0.999 0.999 0.999 c black 3 lw 0.999 0.999 0.999 c 227 484 m 8 Y 193 X 20 Y 192 X -13 Y 193 X -15 Y 1349 X f 0.2
 0.8 0.8 c 0.999 0.999 0.999 c 0.2 0.8 0.8 c 1 1 1 c black 0.2 0.8 0.8 c black 3 lw 0.2 0.8 0.8 c 227 484 m 8 Y 193 X 20 Y 192 X -13 Y 193 X -15 Y 1349 X f 1 0 0 c 0.999 0.999 0.999 c black 3 lw 0.999 0.999 0.999 c 227 484 m 8 Y 193 X 19 Y 192 X -13
 Y 193 X -14 Y 1349 X f 1 0 0 c 0.999 0.999 0.999 c 1 0 0 c 1 1 1 c black 1 0 0 c black 3 lw 1 0 0 c 227 484 m 8 Y 193 X 19 Y 192 X -13 Y 193 X -14 Y 1349 X f 1 0.84 0 c 0.999 0.999 0.999 c black 3 lw 0.999 0.999 0.999 c 227 484 m 7 Y 193 X 19 Y 192
 X -12 Y 193 X -14 Y 1349 X f 1 0.84 0 c 0.999 0.999 0.999 c 1 0.84 0 c 1 1 1 c black 1 0.84 0 c black 3 lw 1 0.84 0 c 227 484 m 7 Y 193 X 19 Y 192 X -12 Y 193 X -14 Y 1349 X f black 1 1 1 c black 0.6 0.6 0.6 c 3 lw 420 776 m -14 -13 d s 420 795 m
 -33 -32 d s 404 799 m -36 -36 d s 384 799 m -36 -36 d s 365 799 m -36 -36 d s 346 799 m -36 -36 d s 327 799 m -36 -36 d s 307 799 m -36 -36 d s 288 799 m -36 -36 d s 269 799 m -36 -36 d s 250 799 m -23 -23 d s 230 799 m -3 -4 d s 3 lw 612 892 m -15
 -15 d s 612 911 m -34 -34 d s 601 919 m -42 -42 d s 582 919 m -42 -42 d s 563 919 m -43 -42 d s 544 919 m -43 -42 d s 524 919 m -42 -42 d s 505 919 m -42 -42 d s 486 919 m -43 -42 d s 467 919 m -43 -42 d s 448 919 m -28 -28 d s 428 919 m -8 -8 d s 3
 lw 805 623 m -11 -11 d s 797 635 m -23 -23 d s 778 635 m -23 -23 d s 759 635 m -23 -23 d s 740 635 m -23 -23 d s 720 635 m -22 -23 d s 701 635 m -23 -23 d s 682 635 m -23 -23 d s 663 635 m -23 -23 d s 644 635 m -23 -23 d s 624 635 m -12 -12 d s 3 lw
 998 527 m -2 -1 d s 983 532 m -6 -6 d s 964 532 m -6 -6 d s 945 532 m -6 -6 d s 925 532 m -6 -6 d s 906 532 m -6 -6 d s 887 532 m -6 -6 d s 868 532 m -6 -6 d s 848 532 m -6 -6 d s 829 532 m -6 -6 d s 810 532 m -5 -5 d s 3 lw 1185 502 m -4 -3 d s
 1165 502 m -4 -3 d s 1146 502 m -4 -3 d s 1127 502 m -4 -3 d s 1108 502 m -4 -3 d s 1088 502 m -3 -3 d s 1069 502 m -4 -3 d s 1050 502 m -4 -3 d s 1031 502 m -4 -3 d s 1011 502 m -3 -3 d s 3 lw 1369 494 m -2 -2 d s 1349 494 m -1 -2 d s 1330 494 m -2
 -2 d s 1311 494 m -2 -2 d s 1292 494 m -2 -2 d s 1272 494 m -1 -2 d s 1253 494 m -2 -2 d s 1234 494 m -2 -2 d s 1215 494 m -2 -2 d s 1196 494 m -2 -2 d s 3 lw 1576 490 m -1 -1 d s 1557 490 m -1 -1 d s 1538 490 m -2 -1 d s 1519 490 m -2 -1 d s 1499
 490 m -1 -1 d s 1480 490 m -1 -1 d s 1461 490 m -2 -1 d s 1442 490 m -2 -1 d s 1422 490 m -1 -1 d s 1403 490 m -1 -1 d s 1384 490 m -1 X s 3 lw 1766 488 m -1 -1 d s 1747 488 m -1 -1 d s 1728 488 m -1 -1 d s 1709 488 m -1 -1 d s 1689 488 m -1 -1 d s
 1670 488 m -1 -1 d s 1651 488 m -1 -1 d s 1632 488 m -1 -1 d s 1613 488 m -2 -1 d s 1593 488 m -1 -1 d s 3 lw 1958 487 m -1 -1 d s 1939 487 m -1 -1 d s 1920 487 m -2 -1 d s 1901 487 m -2 -1 d s 1881 487 m -1 -1 d s 1862 487 m -1 -1 d s 1843 487 m -1
 -1 d s 1824 487 m -2 -1 d s 1804 487 m -1 -1 d s 1785 487 m -1 -1 d s 3 lw 2137 492 m -2 -1 d s 2117 492 m -1 -1 d s 2098 492 m -1 -1 d s 2079 492 m -1 -1 d s 2060 492 m -1 -1 d s 2040 492 m -1 -1 d s 2021 492 m -1 -1 d s 2002 492 m -1 -1 d s 1983
 492 m -1 -1 d s 1963 492 m -1 -1 d s black 3 lw 1 1 1 c black 323 744 m 39 Y s 323 807 m 39 Y s /w 24 def /w2 {w 2 div} def /w3 {w 3 div} def 323 795 m20 516 947 m 55 Y s 516 1026 m 55 Y s 516 1014 m20 709 599 m 24 Y s 709 647 m 24 Y s 709 635 m20
 901 507 m 7 Y s 901 537 m 7 Y s 901 526 m20 1094 492 m20 1480 494 m 3 Y s 1480 521 m 2 Y s 1480 509 m20 2058 488 m s 2058 512 m s 2058 500 m20 227 484 m 1927 X s 227 502 m -18 Y s 291 493 m -9 Y s 355 493 m -9 Y s 420 493 m -9 Y s 484 493 m -9 Y s
 548 502 m -18 Y s 612 493 m -9 Y s 677 493 m -9 Y s 741 493 m -9 Y s 805 493 m -9 Y s 869 502 m -18 Y s 934 493 m -9 Y s 998 493 m -9 Y s 1062 493 m -9 Y s 1126 493 m -9 Y s 1191 502 m -18 Y s 1255 493 m -9 Y s 1319 493 m -9 Y s 1383 493 m -9 Y s
 1448 493 m -9 Y s 1512 502 m -18 Y s 1576 493 m -9 Y s 1640 493 m -9 Y s 1705 493 m -9 Y s 1769 493 m -9 Y s 1833 502 m -18 Y s 1897 493 m -9 Y s 1962 493 m -9 Y s 2026 493 m -9 Y s 2090 493 m -9 Y s 2154 502 m -18 Y s 227 1520 m 1927 X s 227 1501 m
 19 Y s 291 1510 m 10 Y s 355 1510 m 10 Y s 420 1510 m 10 Y s 484 1510 m 10 Y s 548 1501 m 19 Y s 612 1510 m 10 Y s 677 1510 m 10 Y s 741 1510 m 10 Y s 805 1510 m 10 Y s 869 1501 m 19 Y s 934 1510 m 10 Y s 998 1510 m 10 Y s 1062 1510 m 10 Y s 1126
 1510 m 10 Y s 1191 1501 m 19 Y s 1255 1510 m 10 Y s 1319 1510 m 10 Y s 1383 1510 m 10 Y s 1448 1510 m 10 Y s 1512 1501 m 19 Y s 1576 1510 m 10 Y s 1640 1510 m 10 Y s 1705 1510 m 10 Y s 1769 1510 m 10 Y s 1833 1501 m 19 Y s 1897 1510 m 10 Y s 1962
 1510 m 10 Y s 2026 1510 m 10 Y s 2090 1510 m 10 Y s 2154 1501 m 19 Y s 227 484 m 1036 Y s 248 652 m -21 X s 237 694 m -10 X s 237 736 m -10 X s 237 778 m -10 X s 248 820 m -21 X s 237 863 m -10 X s 237 905 m -10 X s 237 947 m -10 X s 248 989 m -21 X
 s 237 1031 m -10 X s 237 1073 m -10 X s 237 1115 m -10 X s 248 1157 m -21 X s 237 1200 m -10 X s 237 1242 m -10 X s 237 1284 m -10 X s 248 1326 m -21 X s 237 1368 m -10 X s 237 1410 m -10 X s 237 1452 m -10 X s 248 1494 m -21 X s 248 652 m -21 X s
 237 610 m -10 X s 237 568 m -10 X s 237 526 m -10 X s 248 1494 m -21 X s 2154 484 m 1036 Y s 2133 652 m 21 X s 2144 694 m 10 X s 2144 736 m 10 X s 2144 778 m 10 X s 2133 820 m 21 X s 2144 863 m 10 X s 2144 905 m 10 X s 2144 947 m 10 X s 2133 989 m
 21 X s 2144 1031 m 10 X s 2144 1073 m 10 X s 2144 1115 m 10 X s 2133 1157 m 21 X s 2144 1200 m 10 X s 2144 1242 m 10 X s 2144 1284 m 10 X s 2133 1326 m 21 X s 2144 1368 m 10 X s 2144 1410 m 10 X s 2144 1452 m 10 X s 2133 1494 m 21 X s 2133 652 m 21
 X s 2144 610 m 10 X s 2144 568 m 10 X s 2144 526 m 10 X s 2133 1494 m 21 X s
 gsave  2268 1103 0 472 C 1314.45 1432.87 t 0 r /Helvetica findfont 56.3093 sf 0 0 m ( Data) show NC gr  1259 1456 m 7 Y s 1259 1432 m -7 Y s 1259 1444 m20
 gsave  2268 1103 0 472 C 1776.28 1432.87 t 0 r /Helvetica findfont 56.3093 sf 0 0 m ( Fakes \(MM\)) show NC gr  0.4 0.6 0.4 c 1682 1422 m 79 X 44 Y -79 X f black
 gsave  2268 1103 0 472 C 1403.26 1367.74 t 0 r /Helvetica findfont 56.3093 sf 0 0 m (single\255top) show NC gr 
 gsave  2268 1103 0 472 C 1373.66 1367.74 t 0 r /Helvetica-Oblique findfont 56.3093 sf 0 0 m (/) show NC gr 
 gsave  2268 1103 0 472 C 1352.93 1367.74 t 0 r /Helvetica-Oblique findfont 56.3093 sf 0 0 m (t) show NC gr  6 lw 1353 1412 m 21 X s
 gsave  2268 1103 0 472 C 1332.21 1367.74 t 0 r /Helvetica-Oblique findfont 56.3093 sf 0 0 m (t) show NC gr 
 gsave  2268 1103 0 472 C 1314.45 1367.74 t 0 r /Helvetica findfont 56.3093 sf 0 0 m ( ) show NC gr  0.06 0.54 0.06 c 3 lw 1219 1359 m 79 X 44 Y -79 X f 6 lw black
 gsave  2268 1103 0 472 C 1906.54 1367.74 t 0 r /Helvetica findfont 56.3093 sf 0 0 m (+jets) show NC gr 
 gsave  2268 1103 0 472 C 1794.04 1367.74 t 0 r /Helvetica-Oblique findfont 56.3093 sf 0 0 m (W/Z) show NC gr 
 gsave  2268 1103 0 472 C 1776.28 1367.74 t 0 r /Helvetica findfont 56.3093 sf 0 0 m ( ) show NC gr  1 0.653333 0 c 3 lw 1682 1359 m 79 X 44 Y -79 X f black
 gsave  2268 1103 0 472 C 1512.8 1305.57 t 0 r /Helvetica findfont 56.3093 sf 0 0 m (+jets) show NC gr 
 gsave  2268 1103 0 472 C 1332.21 1305.57 t 0 r /Helvetica-Oblique findfont 56.3093 sf 0 0 m (WZ/ZZ) show NC gr 
 gsave  2268 1103 0 472 C 1314.45 1305.57 t 0 r /Helvetica findfont 56.3093 sf 0 0 m ( ) show NC gr  0.413333 1 0 c 3 lw 1219 1296 m 79 X 44 Y -79 X f black
 gsave  2268 1103 0 472 C 1835.49 1305.57 t 0 r /Helvetica-Oblique findfont 56.3093 sf 0 0 m (Z) show NC gr 
 gsave  2268 1103 0 472 C 1814.77 1305.57 t 0 r /Helvetica-Oblique findfont 56.3093 sf 0 0 m (t) show NC gr  6 lw 1815 1350 m 20 X s
 gsave  2268 1103 0 472 C 1794.04 1305.57 t 0 r /Helvetica-Oblique findfont 56.3093 sf 0 0 m (t) show NC gr 
 gsave  2268 1103 0 472 C 1776.28 1305.57 t 0 r /Helvetica findfont 56.3093 sf 0 0 m ( ) show NC gr  0.6 0.2 1 c 3 lw 1682 1296 m 79 X 44 Y -79 X f 6 lw black
 gsave  2268 1103 0 472 C 1373.66 1243.4 t 0 r /Helvetica-Oblique findfont 56.3093 sf 0 0 m (W) show NC gr 
 gsave  2268 1103 0 472 C 1352.93 1243.4 t 0 r /Helvetica-Oblique findfont 56.3093 sf 0 0 m (t) show NC gr  6 lw 1353 1288 m 21 X s
 gsave  2268 1103 0 472 C 1332.21 1243.4 t 0 r /Helvetica-Oblique findfont 56.3093 sf 0 0 m (t) show NC gr 
 gsave  2268 1103 0 472 C 1314.45 1243.4 t 0 r /Helvetica findfont 56.3093 sf 0 0 m ( ) show NC gr  0.54 0.06 0.06 c 3 lw 1219 1233 m 79 X 44 Y -79 X f 6 lw black
 gsave  2268 1103 0 472 C 1794.04 1243.4 t 0 r /Helvetica-Oblique findfont 56.3093 sf 0 0 m (tZq) show NC gr 
 gsave  2268 1103 0 472 C 1776.28 1243.4 t 0 r /Helvetica findfont 56.3093 sf 0 0 m ( ) show NC gr  1 0 1 c 3 lw 1682 1233 m 79 X 44 Y -79 X f black
 gsave  2268 1103 0 472 C 1373.66 1178.27 t 0 r /Helvetica-Oblique findfont 56.3093 sf 0 0 m (H) show NC gr 
 gsave  2268 1103 0 472 C 1352.93 1178.27 t 0 r /Helvetica-Oblique findfont 56.3093 sf 0 0 m (t) show NC gr  6 lw 1353 1223 m 21 X s
 gsave  2268 1103 0 472 C 1332.21 1178.27 t 0 r /Helvetica-Oblique findfont 56.3093 sf 0 0 m (t) show NC gr 
 gsave  2268 1103 0 472 C 1314.45 1178.27 t 0 r /Helvetica findfont 56.3093 sf 0 0 m ( ) show NC gr  0 0 1 c 3 lw 1219 1170 m 79 X 44 Y -79 X f 6 lw black
 gsave  2268 1103 0 472 C 1794.04 1178.27 t 0 r /Helvetica-Oblique findfont 56.3093 sf 0 0 m (tWZ/tWH) show NC gr 
 gsave  2268 1103 0 472 C 1776.28 1178.27 t 0 r /Helvetica findfont 56.3093 sf 0 0 m ( ) show NC gr  0.2 0.8 0.8 c 3 lw 1682 1170 m 79 X 44 Y -79 X f black
 gsave  2268 1103 0 472 C 1332.21 1116.1 t 0 r /Helvetica-Oblique findfont 56.3093 sf 0 0 m (tHq) show NC gr 
 gsave  2268 1103 0 472 C 1314.45 1116.1 t 0 r /Helvetica findfont 56.3093 sf 0 0 m ( ) show NC gr  1 0 0 c 3 lw 1219 1107 m 79 X 44 Y -79 X f black
 gsave  2268 1103 0 472 C 1776.28 1116.1 t 0 r /Helvetica findfont 56.3093 sf 0 0 m ( Other) show NC gr  1 0.84 0 c 3 lw 1682 1107 m 79 X 44 Y -79 X f black
 gsave  2268 1103 0 472 C 1314.45 1053.93 t 0 r /Helvetica findfont 56.3093 sf 0 0 m ( Uncertainty) show NC gr  0.6 0.6 0.6 c 3 lw 1298 1058 m -13 -14 d s 1298 1077 m -33 -33 d s 1290 1088 m -44 -44 d s 1271 1088 m -44 -44 d s 1252 1088 m -33 -33 d s
 1233 1088 m -14 -13 d s 1 0.84 0 c 0.6 0.6 0.6 c black
 gsave  2268 1103 0 472 C 894.061 1329.25 t 0 r /Helvetica findfont 41.4911 sf 0 0 m (\2551) show NC gr 
 gsave  2268 1103 0 472 C 399.663 1299.64 t 0 r /Helvetica findfont 62.2366 sf 0 0 m ( = 13 TeV,  139 fb) show NC gr 
 gsave  2268 1103 0 472 C 370.058 1299.64 t 0 r /Helvetica findfont 62.2366 sf 0 0 m (s) show NC gr  6 lw 349 1335 m 6 -38 d s 3 lw 355 1297 m 6 56 d s 361 1353 m 39 X s
 gsave  2268 1103 0 472 C 337.493 1201.95 t 0 r /Helvetica findfont 62.2366 sf 0 0 m ( 2L\(SS\), VR\(di\255boson\)) show NC gr 
 gsave  2268 1103 0 472 C 337.493 1400.3 t 0 r /Helvetica-BoldOblique findfont 71.1276 sf 0 0 m (ATLAS) show NC gr 
 gsave  2268 1103 0 472 C 633.54 1400.3 t 0 r /Helvetica findfont 71.1276 sf 0 0 m (Internal) show NC gr 
 gr  gr showpage
end
%%EOF
