%!PS-Adobe-2.0 EPSF-2.0
%%BoundingBox:  0 0 567 394
%%Title: /lhome/ific/c/cardillo/tHq/Plots/Plots-30-05-22-PLIV-SF/2LSS_MM/EtMiss_SRtHq.eps: EtMiss_SRtHq
%%Creator: ROOT Version 6.20/06
%%CreationDate: Mon May 30 19:25:22 2022
%%DocumentNeededResources: ProcSet (FontSetInit)
%%EndComments
%%BeginProlog
80 dict begin
/s {stroke} def /l {lineto} def /m {moveto} def /t {translate} def
/r {rotate} def /rl {roll}  def /R {repeat} def
/d {rlineto} def /rm {rmoveto} def /gr {grestore} def /f {eofill} def
/c {setrgbcolor} def /black {0 setgray} def /sd {setdash} def
/cl {closepath} def /sf {scalefont setfont} def /lw {setlinewidth} def
/box {m dup 0 exch d exch 0 d 0 exch neg d cl} def
/NC{systemdict begin initclip end}def/C{NC box clip newpath}def
/bl {box s} def /bf {gsave box gsave f grestore 1 lw [] 0 sd s grestore} def /Y { 0 exch d} def /X { 0 d} def 
/K {{pop pop 0 moveto} exch kshow} bind def
/ita {/ang 15 def gsave [1 0 ang dup sin exch cos div 1 0 0] concat} def 
/mp {newpath /y exch def /x exch def} def
/side {[w .77 mul w .23 mul] .385 w mul sd w 0 l currentpoint t -144 r} def
/mr {mp x y w2 0 360 arc} def /m24 {mr s} def /m20 {mr f} def
/mb {mp x y w2 add m w2 neg 0 d 0 w neg d w 0 d 0 w d cl} def
/mt {mp x y w2 add m w2 neg w neg d w 0 d cl} def
/w4 {w 4 div} def
/w6 {w 6 div} def
/w8 {w 8 div} def
/m21 {mb f} def /m25 {mb s} def /m22 {mt f} def /m26{mt s} def
/m23 {mp x y w2 sub m w2 w d w neg 0 d cl f} def
/m27 {mp x y w2 add m w3 neg w2 neg d w3 w2 neg d w3 w2 d cl s} def
/m28 {mp x w2 sub y w2 sub w3 add m w3 0 d  0 w3 neg d w3 0 d 0 w3 d w3 0 d  0 w3 d w3 neg 0 d 0 w3 d w3 neg 0 d 0 w3 neg d w3 neg 0 d cl s } def
/m29 {mp gsave x w2 sub y w2 add w3 sub m currentpoint t 4 {side} repeat cl fill gr} def
/m30 {mp gsave x w2 sub y w2 add w3 sub m currentpoint t 4 {side} repeat cl s gr} def
/m31 {mp x y w2 sub m 0 w d x w2 sub y m w 0 d x w2 sub y w2 add m w w neg d x w2 sub y w2 sub m w w d s} def
/m32 {mp x y w2 sub m w2 w d w neg 0 d cl s} def
/m33 {mp x y w2 add m w3 neg w2 neg d w3 w2 neg d w3 w2 d cl f} def
/m34 {mp x w2 sub y w2 sub w3 add m w3 0 d  0 w3 neg d w3 0 d 0 w3 d w3 0 d  0 w3 d w3 neg 0 d 0 w3 d w3 neg 0 d 0 w3 neg d w3 neg 0 d cl f } def
/m35 {mp x y w2 add m w2 neg w2 neg d w2 w2 neg d w2 w2 d w2 neg w2 d x y w2 sub m 0 w d x w2 sub y m w 0 d s} def
/m36 {mb x w2 sub y w2 add m w w neg d x w2 sub y w2 sub m w w d s} def
/m37 {mp x y m w4 neg w2 d w4 neg w2 neg d w2 0 d  w4 neg w2 neg d w2 0 d w4 neg w2 d w2 0 d w4 neg w2 d w4 neg w2 neg d cl s} def
/m38 {mp x w4 sub y w2 add m w4 neg w4 neg d 0 w2 neg d w4 w4 neg d w2 0 d w4 w4 d 0 w2 d w4 neg w4 d w2 neg 0 d x y w2 sub m 0 w d x w2 sub y m w 0 d cl s} def
/m39 {mp x y m w4 neg w2 d w4 neg w2 neg d w2 0 d  w4 neg w2 neg d w2 0 d w4 neg w2 d w2 0 d w4 neg w2 d w4 neg w2 neg d cl f} def
/m40 {mp x y m w4 w2 d w4 w4 neg d w2 neg w4 neg d w2 w4 neg d w4 neg w4 neg d w4 neg w2 d w4 neg w2 neg d w4 neg w4 d w2 w4 d w2 neg w4 d w4 w4 d w4 w2 neg d cl s} def
/m41 {mp x y m w4 w2 d w4 w4 neg d w2 neg w4 neg d w2 w4 neg d w4 neg w4 neg d w4 neg w2 d w4 neg w2 neg d w4 neg w4 d w2 w4 d w2 neg w4 d w4 w4 d w4 w2 neg d cl f} def
/m42 {mp x y w2 add m w8 neg w2 -3 4 div mul d w2 -3 4 div mul w8 neg d w2 3 4 div mul w8 neg d w8 w2 -3 4 div mul d w8 w2 3 4 div mul d w2 3 4 div mul w8 d w2 -3 4 div mul w8 d w8 neg w2 3 4 div mul d cl s} def
/m43 {mp x y w2 add m w8 neg w2 -3 4 div mul d w2 -3 4 div mul w8 neg d w2 3 4 div mul w8 neg d w8 w2 -3 4 div mul d w8 w2 3 4 div mul d w2 3 4 div mul w8 d w2 -3 4 div mul w8 d w8 neg w2 3 4 div mul d cl f} def
/m44 {mp x y m w6 neg w2 d w2 2 3 div mul 0 d w6 neg w2 neg d w2 w6 d 0 w2 -2 3 div mul d w2 neg w6 d w6 w2 neg d w2 -2 3 div mul 0 d w6 w2 d w2 neg w6 neg d 0 w2 2 3 div mul d w2 w6 neg d cl s} def
/m45 {mp x y m w6 neg w2 d w2 2 3 div mul 0 d w6 neg w2 neg d w2 w6 d 0 w2 -2 3 div mul d w2 neg w6 d w6 w2 neg d w2 -2 3 div mul 0 d w6 w2 d w2 neg w6 neg d 0 w2 2 3 div mul d w2 w6 neg d cl f} def
/m46 {mp x y w4 add m w4 neg w4 d w4 neg w4 neg d  w4 w4 neg d w4 neg w4 neg d w4 w4 neg d w4 w4 d w4 w4 neg d w4 w4 d w4 neg w4 d w4 w4 d w4 neg w4 d w4 neg w4 neg d cl s} def
/m47 {mp x y w4 add m w4 neg w4 d w4 neg w4 neg d w4 w4 neg d w4 neg w4 neg d  w4 w4 neg d w4 w4 d w4 w4 neg d w4 w4 d w4 neg w4 d w4 w4 d w4 neg w4 d w4 neg w4 neg d cl f} def
/m48 {mp x y w4 add m w4 neg w4 d w4 neg w4 neg d w4 w4 neg d  w4 neg w4 neg d w4 w4 neg d w4 w4 d w4 w4 neg d w4 w4 d w4 neg w4 d w4 w4 d w4 neg w4 d w4 neg w4 neg d  w4 w4 neg d w4 neg w4 neg d w4 neg w4 d w4 w4 d cl f} def
/m49 {mp x w2 sub w3 add y w2 sub w3 add m  0 w3 neg d w3 0 d 0 w3 d w3 0 d 0 w3 d w3 neg 0 d 0 w3 d w3 neg 0 d 0 w3 neg d w3 neg 0 d 0 w3 neg d w3 0 d 0 w3 d w3 0 d 0 w3 neg d w3 neg 0 d cl f } def
/m2 {mp x y w2 sub m 0 w d x w2 sub y m w 0 d s} def
/m5 {mp x w2 sub y w2 sub m w w d x w2 sub y w2 add m w w neg d s} def
%%IncludeResource: ProcSet (FontSetInit)
%%IncludeResource: font Times-Roman
%%IncludeResource: font Times-Italic
%%IncludeResource: font Times-Bold
%%IncludeResource: font Times-BoldItalic
%%IncludeResource: font Helvetica
%%IncludeResource: font Helvetica-Oblique
%%IncludeResource: font Helvetica-Bold
%%IncludeResource: font Helvetica-BoldOblique
%%IncludeResource: font Courier
%%IncludeResource: font Courier-Oblique
%%IncludeResource: font Courier-Bold
%%IncludeResource: font Courier-BoldOblique
%%IncludeResource: font Symbol
%%IncludeResource: font ZapfDingbats
/reEncode {exch findfont dup length dict begin {1 index /FID eq  {pop pop} {def} ifelse } forall /Encoding exch def currentdict end dup /FontName get exch definefont pop } def [/Times-Bold /Times-Italic /Times-BoldItalic /Helvetica /Helvetica-Oblique
 /Helvetica-Bold /Helvetica-BoldOblique /Courier /Courier-Oblique /Courier-Bold /Courier-BoldOblique /Times-Roman /AvantGarde-Book /AvantGarde-BookOblique /AvantGarde-Demi /AvantGarde-DemiOblique /Bookman-Demi /Bookman-DemiItalic /Bookman-Light
 /Bookman-LightItalic /Helvetica-Narrow /Helvetica-Narrow-Bold /Helvetica-Narrow-BoldOblique /Helvetica-Narrow-Oblique /NewCenturySchlbk-Roman /NewCenturySchlbk-Bold /NewCenturySchlbk-BoldItalic /NewCenturySchlbk-Italic /Palatino-Bold
 /Palatino-BoldItalic /Palatino-Italic /Palatino-Roman ] {ISOLatin1Encoding reEncode } forall
%%EndProlog
%%BeginSetup
%%EndSetup
newpath  gsave  .25 .25 scale  gsave  0 0 t black[  ] 0 sd 3 lw 1 1 1 c 2268 1575 0 0 bf black 1 1 1 c 2268 472 0 0 bf black 1 1 1 c 1927 274 227 189 bf black 1927 274 227 189 bl 227 189 m 1927 X s 227 201 m -12 Y s 291 195 m -6 Y s 355 195 m -6 Y s
 420 195 m -6 Y s 484 195 m -6 Y s 548 201 m -12 Y s 612 195 m -6 Y s 677 195 m -6 Y s 741 195 m -6 Y s 805 195 m -6 Y s 869 201 m -12 Y s 934 195 m -6 Y s 998 195 m -6 Y s 1062 195 m -6 Y s 1126 195 m -6 Y s 1191 201 m -12 Y s 1255 195 m -6 Y s 1319
 195 m -6 Y s 1383 195 m -6 Y s 1448 195 m -6 Y s 1512 201 m -12 Y s 1576 195 m -6 Y s 1640 195 m -6 Y s 1705 195 m -6 Y s 1769 195 m -6 Y s 1833 201 m -12 Y s 1897 195 m -6 Y s 1962 195 m -6 Y s 2026 195 m -6 Y s 2090 195 m -6 Y s 2154 201 m -12 Y s
 gsave  2268 472 0 0 C 210.193 127.3 t 0 r /Helvetica findfont 53.4895 sf 0 0 m (0) show NC gr 
 gsave  2268 472 0 0 C 518.081 127.3 t 0 r /Helvetica findfont 53.4895 sf 0 0 m (50) show NC gr 
 gsave  2268 472 0 0 C 823.009 127.3 t 0 r /Helvetica findfont 53.4895 sf 0 0 m (100) show NC gr 
 gsave  2268 472 0 0 C 1145.7 127.3 t 0 r /Helvetica findfont 53.4895 sf 0 0 m (150) show NC gr 
 gsave  2268 472 0 0 C 1465.43 127.3 t 0 r /Helvetica findfont 53.4895 sf 0 0 m (200) show NC gr 
 gsave  2268 472 0 0 C 1788.12 127.3 t 0 r /Helvetica findfont 53.4895 sf 0 0 m (250) show NC gr 
 gsave  2268 472 0 0 C 2107.85 127.3 t 0 r /Helvetica findfont 53.4895 sf 0 0 m (300) show NC gr 
 gsave  2268 472 0 0 C 1995.35 41.4465 t 0 r /Helvetica findfont 56.4611 sf 0 0 m ( [GeV]) show NC gr 
 gsave  2268 472 0 0 C 1915.42 68.0907 t 0 r /Helvetica findfont 38.6313 sf 0 0 m (miss) show NC gr 
 gsave  2268 472 0 0 C 1915.42 23.6837 t 0 r /Helvetica findfont 38.6313 sf 0 0 m (T) show NC gr 
 gsave  2268 472 0 0 C 1871.01 41.4465 t 0 r /Helvetica-Oblique findfont 56.4611 sf 0 0 m (E) show NC gr  227 463 m 1927 X s 227 451 m 12 Y s 291 457 m 6 Y s 355 457 m 6 Y s 420 457 m 6 Y s 484 457 m 6 Y s 548 451 m 12 Y s 612 457 m 6 Y s 677 457 m 6
 Y s 741 457 m 6 Y s 805 457 m 6 Y s 869 451 m 12 Y s 934 457 m 6 Y s 998 457 m 6 Y s 1062 457 m 6 Y s 1126 457 m 6 Y s 1191 451 m 12 Y s 1255 457 m 6 Y s 1319 457 m 6 Y s 1383 457 m 6 Y s 1448 457 m 6 Y s 1512 451 m 12 Y s 1576 457 m 6 Y s 1640 457
 m 6 Y s 1705 457 m 6 Y s 1769 457 m 6 Y s 1833 451 m 12 Y s 1897 457 m 6 Y s 1962 457 m 6 Y s 2026 457 m 6 Y s 2090 457 m 6 Y s 2154 451 m 12 Y s 227 189 m 274 Y s 240 240 m -13 X s 240 326 m -13 X s 240 412 m -13 X s 240 240 m -13 X s 240 412 m -13
 X s
 gsave  2268 472 0 0 C 118.419 222.035 t 0 r /Helvetica findfont 53.4895 sf 0 0 m (0.5) show NC gr 
 gsave  2268 472 0 0 C 171.707 307.888 t 0 r /Helvetica findfont 53.4895 sf 0 0 m (1) show NC gr 
 gsave  2268 472 0 0 C 118.419 393.742 t 0 r /Helvetica findfont 53.4895 sf 0 0 m (1.5) show NC gr 
 gsave  2268 472 0 0 C 71.0512 230.916 t 90 r /Helvetica findfont 53.4895 sf 0 0 m (Data / SM) show NC gr  2154 189 m 274 Y s 2141 240 m 13 X s 2141 326 m 13 X s 2141 412 m 13 X s 2141 240 m 13 X s 2141 412 m 13 X s 227 189 m 1927 X s 227 463 m 1927
 X s 227 189 m 274 Y s[ 4 8] 0 sd 2154 240 m -1927 X s 2154 326 m -1927 X s 2154 412 m -1927 X s 2154 240 m -1927 X s 2154 412 m -1927 X s[  ] 0 sd 2154 189 m 274 Y s 1 1 0.6 c 193 0 227 326 bf 192 0 420 326 bf 193 0 612 326 bf 193 0 805 326 bf 193 0
 998 326 bf 192 0 1191 326 bf 193 0 1383 326 bf 193 0 1576 326 bf 193 0 1769 326 bf 192 0 1962 326 bf black 0.6 0.6 0.6 c 420 325 m -7 -8 d s 410 335 m -17 -18 d s 391 335 m -17 -18 d s 372 335 m -17 -18 d s 353 335 m -17 -18 d s 333 335 m -17 -18 d
 s 314 335 m -17 -18 d s 295 335 m -17 -18 d s 276 335 m -17 -18 d s 256 335 m -17 -18 d s 237 335 m -10 -11 d s 612 325 m -4 -5 d s 600 332 m -11 -12 d s 581 332 m -12 -12 d s 561 332 m -11 -12 d s 542 332 m -11 -12 d s 523 332 m -11 -12 d s 504 332
 m -12 -12 d s 484 332 m -11 -12 d s 465 332 m -11 -12 d s 446 332 m -11 -12 d s 427 332 m -7 -7 d s 805 325 m -6 -6 d s 793 333 m -13 -14 d s 774 333 m -13 -14 d s 755 333 m -14 -14 d s 736 333 m -14 -14 d s 716 333 m -13 -14 d s 697 333 m -13 -14 d
 s 678 333 m -14 -14 d s 659 333 m -14 -14 d s 639 333 m -13 -14 d s 620 333 m -8 -8 d s 998 326 m -9 -9 d s 988 335 m -18 -18 d s 969 335 m -19 -18 d s 950 335 m -19 -18 d s 931 335 m -19 -18 d s 911 335 m -18 -18 d s 892 335 m -19 -18 d s 873 335 m
 -19 -18 d s 854 335 m -19 -18 d s 835 335 m -19 -18 d s 815 335 m -10 -10 d s 1191 326 m -11 -11 d s 1182 337 m -21 -22 d s 1163 337 m -21 -22 d s 1144 337 m -22 -22 d s 1124 337 m -21 -22 d s 1105 337 m -21 -22 d s 1086 337 m -21 -22 d s 1067 337 m
 -22 -22 d s 1047 337 m -21 -22 d s 1028 337 m -21 -22 d s 1009 337 m -11 -11 d s 1383 326 m -18 -18 d s 1382 344 m -36 -36 d s 1363 344 m -37 -36 d s 1344 344 m -37 -36 d s 1324 344 m -36 -36 d s 1305 344 m -36 -36 d s 1286 344 m -37 -36 d s 1267
 344 m -37 -36 d s 1248 344 m -37 -36 d s 1228 344 m -36 -36 d s 1209 344 m -18 -18 d s 1576 307 m -9 -9 d s 1576 327 m -28 -29 d s 1576 346 m -47 -48 d s 1565 354 m -56 -56 d s 1545 354 m -55 -56 d s 1526 354 m -55 -56 d s 1507 354 m -55 -56 d s
 1488 354 m -55 -56 d s 1468 354 m -55 -56 d s 1449 354 m -55 -56 d s 1430 354 m -47 -47 d s 1411 354 m -28 -28 d s 1391 354 m -8 -8 d s 1769 288 m -4 -4 d s 1769 308 m -23 -24 d s 1769 327 m -43 -43 d s 1769 346 m -62 -62 d s 1769 366 m -81 -82 d s
 1752 368 m -83 -84 d s 1733 368 m -84 -84 d s 1713 368 m -83 -84 d s 1694 368 m -83 -84 d s 1675 368 m -83 -84 d s 1656 368 m -80 -80 d s 1636 368 m -60 -61 d s 1617 368 m -41 -41 d s 1598 368 m -22 -22 d s 1579 368 m -3 -3 d s 1962 269 m -4 -3 d s
 1962 289 m -23 -23 d s 1962 308 m -43 -42 d s 1962 327 m -62 -61 d s 1962 347 m -81 -81 d s 1962 366 m -100 -100 d s 1962 385 m -120 -119 d s 1944 386 m -121 -120 d s 1924 386 m -120 -120 d s 1905 386 m -120 -120 d s 1886 386 m -117 -117 d s 1867
 386 m -98 -98 d s 1847 386 m -78 -78 d s 1828 386 m -59 -59 d s 1809 386 m -40 -40 d s 1790 386 m -21 -20 d s 1770 386 m -1 -1 d s 2154 308 m -6 -6 d s 2154 328 m -25 -26 d s 2154 347 m -44 -45 d s 2138 350 m -47 -48 d s 2119 350 m -48 -48 d s 2100
 350 m -48 -48 d s 2080 350 m -47 -48 d s 2061 350 m -47 -48 d s 2042 350 m -48 -48 d s 2023 350 m -48 -48 d s 2003 350 m -41 -42 d s 1984 350 m -22 -23 d s 1965 350 m -3 -3 d s black 1 1 1 c black 323 311 m 61 Y s 323 396 m 60 Y s /w 26 def /w2 {w 2
 div} def /w3 {w 3 div} def 323 384 m20 516 240 m 23 Y s 516 286 m 23 Y s 516 274 m20 709 264 m 30 Y s 709 317 m 30 Y s 709 306 m20 901 269 m 50 Y s 901 343 m 51 Y s 901 331 m20 1094 195 m 84 Y s 1094 302 m 84 Y s 1094 290 m20 1287 189 m 121 Y s 1287
 334 m 129 Y s 1287 322 m20 227 326 m 1927 X s 227 189 m 1927 X s 227 201 m -12 Y s 291 195 m -6 Y s 355 195 m -6 Y s 420 195 m -6 Y s 484 195 m -6 Y s 548 201 m -12 Y s 612 195 m -6 Y s 677 195 m -6 Y s 741 195 m -6 Y s 805 195 m -6 Y s 869 201 m
 -12 Y s 934 195 m -6 Y s 998 195 m -6 Y s 1062 195 m -6 Y s 1126 195 m -6 Y s 1191 201 m -12 Y s 1255 195 m -6 Y s 1319 195 m -6 Y s 1383 195 m -6 Y s 1448 195 m -6 Y s 1512 201 m -12 Y s 1576 195 m -6 Y s 1640 195 m -6 Y s 1705 195 m -6 Y s 1769
 195 m -6 Y s 1833 201 m -12 Y s 1897 195 m -6 Y s 1962 195 m -6 Y s 2026 195 m -6 Y s 2090 195 m -6 Y s 2154 201 m -12 Y s 227 463 m 1927 X s 227 451 m 12 Y s 291 457 m 6 Y s 355 457 m 6 Y s 420 457 m 6 Y s 484 457 m 6 Y s 548 451 m 12 Y s 612 457 m
 6 Y s 677 457 m 6 Y s 741 457 m 6 Y s 805 457 m 6 Y s 869 451 m 12 Y s 934 457 m 6 Y s 998 457 m 6 Y s 1062 457 m 6 Y s 1126 457 m 6 Y s 1191 451 m 12 Y s 1255 457 m 6 Y s 1319 457 m 6 Y s 1383 457 m 6 Y s 1448 457 m 6 Y s 1512 451 m 12 Y s 1576 457
 m 6 Y s 1640 457 m 6 Y s 1705 457 m 6 Y s 1769 457 m 6 Y s 1833 451 m 12 Y s 1897 457 m 6 Y s 1962 457 m 6 Y s 2026 457 m 6 Y s 2090 457 m 6 Y s 2154 451 m 12 Y s 227 189 m 274 Y s 240 240 m -13 X s 240 326 m -13 X s 240 412 m -13 X s 240 240 m -13
 X s 240 412 m -13 X s 2154 189 m 274 Y s 2141 240 m 13 X s 2141 326 m 13 X s 2141 412 m 13 X s 2141 240 m 13 X s 2141 412 m 13 X s 1 1 1 c 2268 1103 0 472 bf black 1 1 1 c 1927 1036 227 484 bf black 1927 1036 227 484 bl 1 1 1 c black 3 lw 227 484 m
 1927 X s 227 502 m -18 Y s 291 493 m -9 Y s 355 493 m -9 Y s 420 493 m -9 Y s 484 493 m -9 Y s 548 502 m -18 Y s 612 493 m -9 Y s 677 493 m -9 Y s 741 493 m -9 Y s 805 493 m -9 Y s 869 502 m -18 Y s 934 493 m -9 Y s 998 493 m -9 Y s 1062 493 m -9 Y
 s 1126 493 m -9 Y s 1191 502 m -18 Y s 1255 493 m -9 Y s 1319 493 m -9 Y s 1383 493 m -9 Y s 1448 493 m -9 Y s 1512 502 m -18 Y s 1576 493 m -9 Y s 1640 493 m -9 Y s 1705 493 m -9 Y s 1769 493 m -9 Y s 1833 502 m -18 Y s 1897 493 m -9 Y s 1962 493 m
 -9 Y s 2026 493 m -9 Y s 2090 493 m -9 Y s 2154 502 m -18 Y s
 gsave  2268 1103 0 472 C 2069.37 396.702 t 0 r /Helvetica findfont 29.6365 sf 0 0 m ( [GeV]) show NC gr 
 gsave  2268 1103 0 472 C 2024.96 414.465 t 0 r /Helvetica findfont 20.7455 sf 0 0 m (miss) show NC gr 
 gsave  2268 1103 0 472 C 2024.96 387.821 t 0 r /Helvetica findfont 20.7455 sf 0 0 m (T) show NC gr 
 gsave  2268 1103 0 472 C 2001.27 396.702 t 0 r /Helvetica-Oblique findfont 29.6365 sf 0 0 m (E) show NC gr  227 1520 m 1927 X s 227 1501 m 19 Y s 291 1510 m 10 Y s 355 1510 m 10 Y s 420 1510 m 10 Y s 484 1510 m 10 Y s 548 1501 m 19 Y s 612 1510 m 10
 Y s 677 1510 m 10 Y s 741 1510 m 10 Y s 805 1510 m 10 Y s 869 1501 m 19 Y s 934 1510 m 10 Y s 998 1510 m 10 Y s 1062 1510 m 10 Y s 1126 1510 m 10 Y s 1191 1501 m 19 Y s 1255 1510 m 10 Y s 1319 1510 m 10 Y s 1383 1510 m 10 Y s 1448 1510 m 10 Y s 1512
 1501 m 19 Y s 1576 1510 m 10 Y s 1640 1510 m 10 Y s 1705 1510 m 10 Y s 1769 1510 m 10 Y s 1833 1501 m 19 Y s 1897 1510 m 10 Y s 1962 1510 m 10 Y s 2026 1510 m 10 Y s 2090 1510 m 10 Y s 2154 1501 m 19 Y s 227 484 m 1036 Y s 248 604 m -21 X s 237 628
 m -10 X s 237 652 m -10 X s 237 676 m -10 X s 237 701 m -10 X s 248 725 m -21 X s 237 749 m -10 X s 237 773 m -10 X s 237 797 m -10 X s 237 821 m -10 X s 248 845 m -21 X s 237 870 m -10 X s 237 894 m -10 X s 237 918 m -10 X s 237 942 m -10 X s 248
 966 m -21 X s 237 990 m -10 X s 237 1015 m -10 X s 237 1039 m -10 X s 237 1063 m -10 X s 248 1087 m -21 X s 237 1111 m -10 X s 237 1135 m -10 X s 237 1159 m -10 X s 237 1184 m -10 X s 248 1208 m -21 X s 237 1232 m -10 X s 237 1256 m -10 X s 237 1280
 m -10 X s 237 1304 m -10 X s 248 1328 m -21 X s 237 1353 m -10 X s 237 1377 m -10 X s 237 1401 m -10 X s 237 1425 m -10 X s 248 1449 m -21 X s 248 604 m -21 X s 237 580 m -10 X s 237 556 m -10 X s 237 532 m -10 X s 237 507 m -10 X s 248 1449 m -21 X
 s 237 1473 m -10 X s 237 1497 m -10 X s
 gsave  2268 1103 0 472 C 174.667 586.172 t 0 r /Helvetica findfont 50.382 sf 0 0 m (5) show NC gr 
 gsave  2268 1103 0 472 C 145.063 704.591 t 0 r /Helvetica findfont 50.382 sf 0 0 m (10) show NC gr 
 gsave  2268 1103 0 472 C 145.063 825.97 t 0 r /Helvetica findfont 50.382 sf 0 0 m (15) show NC gr 
 gsave  2268 1103 0 472 C 145.063 947.349 t 0 r /Helvetica findfont 50.382 sf 0 0 m (20) show NC gr 
 gsave  2268 1103 0 472 C 145.063 1068.73 t 0 r /Helvetica findfont 50.382 sf 0 0 m (25) show NC gr 
 gsave  2268 1103 0 472 C 145.063 1187.15 t 0 r /Helvetica findfont 50.382 sf 0 0 m (30) show NC gr 
 gsave  2268 1103 0 472 C 145.063 1308.53 t 0 r /Helvetica findfont 50.382 sf 0 0 m (35) show NC gr 
 gsave  2268 1103 0 472 C 145.063 1429.9 t 0 r /Helvetica findfont 50.382 sf 0 0 m (40) show NC gr 
 gsave  2268 1103 0 472 C 62.1698 1154.58 t 90 r /Helvetica findfont 50.382 sf 0 0 m (Events / 30 GeV) show NC gr  2154 484 m 1036 Y s 2133 604 m 21 X s 2144 628 m 10 X s 2144 652 m 10 X s 2144 676 m 10 X s 2144 701 m 10 X s 2133 725 m 21 X s 2144
 749 m 10 X s 2144 773 m 10 X s 2144 797 m 10 X s 2144 821 m 10 X s 2133 845 m 21 X s 2144 870 m 10 X s 2144 894 m 10 X s 2144 918 m 10 X s 2144 942 m 10 X s 2133 966 m 21 X s 2144 990 m 10 X s 2144 1015 m 10 X s 2144 1039 m 10 X s 2144 1063 m 10 X s
 2133 1087 m 21 X s 2144 1111 m 10 X s 2144 1135 m 10 X s 2144 1159 m 10 X s 2144 1184 m 10 X s 2133 1208 m 21 X s 2144 1232 m 10 X s 2144 1256 m 10 X s 2144 1280 m 10 X s 2144 1304 m 10 X s 2133 1328 m 21 X s 2144 1353 m 10 X s 2144 1377 m 10 X s
 2144 1401 m 10 X s 2144 1425 m 10 X s 2133 1449 m 21 X s 2133 604 m 21 X s 2144 580 m 10 X s 2144 556 m 10 X s 2144 532 m 10 X s 2144 507 m 10 X s 2133 1449 m 21 X s 2144 1473 m 10 X s 2144 1497 m 10 X s 0.4 0.6 0.4 c black 3 lw 0.4 0.6 0.4 c 227
 484 m 180 Y 193 X 234 Y 192 X -58 Y 193 X -169 Y 193 X -127 Y 193 X -36 Y 192 X -17 Y 193 X -3 Y 193 X -3 Y 385 X -1 Y f 0.06 0.54 0.06 c 0.999 0.999 0.999 c black 3 lw 0.999 0.999 0.999 c 227 484 m 79 Y 193 X 113 Y 192 X 6 Y 193 X -87 Y 193 X -70 Y
 193 X -25 Y 192 X -10 Y 193 X -2 Y 193 X -3 Y 385 X -1 Y f 0.06 0.54 0.06 c 0.999 0.999 0.999 c 0.06 0.54 0.06 c 1 1 1 c black 0.06 0.54 0.06 c black 3 lw 0.06 0.54 0.06 c 227 484 m 79 Y 193 X 113 Y 192 X 6 Y 193 X -87 Y 193 X -70 Y 193 X -25 Y 192
 X -10 Y 193 X -2 Y 193 X -3 Y 385 X -1 Y f 1 0.653333 0 c 0.999 0.999 0.999 c black 3 lw 0.999 0.999 0.999 c 227 484 m 76 Y 193 X 100 Y 192 X -16 Y 193 X -61 Y 193 X -58 Y 193 X -25 Y 192 X -10 Y 193 X -2 Y 193 X -3 Y 385 X -1 Y f 1 0.653333 0 c
 0.999 0.999 0.999 c 1 0.653333 0 c 1 1 1 c black 1 0.653333 0 c black 3 lw 1 0.653333 0 c 227 484 m 76 Y 193 X 100 Y 192 X -16 Y 193 X -61 Y 193 X -58 Y 193 X -25 Y 192 X -10 Y 193 X -2 Y 193 X -3 Y 385 X -1 Y f 0.413333 1 0 c 0.999 0.999 0.999 c
 black 3 lw 0.999 0.999 0.999 c 227 484 m 76 Y 193 X 100 Y 192 X -16 Y 193 X -61 Y 193 X -58 Y 193 X -25 Y 192 X -10 Y 193 X -2 Y 193 X -3 Y 385 X -1 Y f 0.413333 1 0 c 0.999 0.999 0.999 c 0.413333 1 0 c 1 1 1 c black 0.413333 1 0 c black 3 lw
 0.413333 1 0 c 227 484 m 76 Y 193 X 100 Y 192 X -16 Y 193 X -61 Y 193 X -58 Y 193 X -25 Y 192 X -10 Y 193 X -2 Y 193 X -3 Y 385 X -1 Y f 0.6 0.2 1 c 0.999 0.999 0.999 c black 3 lw 0.999 0.999 0.999 c 227 484 m 62 Y 193 X 78 Y 192 X -3 Y 193 X -53 Y
 193 X -47 Y 193 X -23 Y 192 X -9 Y 193 X -2 Y 193 X -2 Y 385 X -1 Y f 0.6 0.2 1 c 0.999 0.999 0.999 c 0.6 0.2 1 c 1 1 1 c black 0.6 0.2 1 c black 3 lw 0.6 0.2 1 c 227 484 m 62 Y 193 X 78 Y 192 X -3 Y 193 X -53 Y 193 X -47 Y 193 X -23 Y 192 X -9 Y
 193 X -2 Y 193 X -2 Y 385 X -1 Y f 0.54 0.06 0.06 c 0.999 0.999 0.999 c black 3 lw 0.999 0.999 0.999 c 227 484 m 58 Y 193 X 69 Y 192 X -2 Y 193 X -49 Y 193 X -42 Y 193 X -23 Y 192 X -7 Y 193 X -2 Y 193 X -1 Y 385 X -1 Y f 0.54 0.06 0.06 c 0.999
 0.999 0.999 c 0.54 0.06 0.06 c 1 1 1 c black 0.54 0.06 0.06 c black 3 lw 0.54 0.06 0.06 c 227 484 m 58 Y 193 X 69 Y 192 X -2 Y 193 X -49 Y 193 X -42 Y 193 X -23 Y 192 X -7 Y 193 X -2 Y 193 X -1 Y 385 X -1 Y f 1 0 1 c 0.999 0.999 0.999 c black 3 lw
 0.999 0.999 0.999 c 227 484 m 41 Y 193 X 50 Y 192 X -9 Y 193 X -34 Y 193 X -31 Y 193 X -10 Y 192 X -5 Y 193 X -2 Y 578 X f 1 0 1 c 0.999 0.999 0.999 c 1 0 1 c 1 1 1 c black 1 0 1 c black 3 lw 1 0 1 c 227 484 m 41 Y 193 X 50 Y 192 X -9 Y 193 X -34 Y
 193 X -31 Y 193 X -10 Y 192 X -5 Y 193 X -2 Y 578 X f 0 0 1 c 0.999 0.999 0.999 c black 3 lw 0.999 0.999 0.999 c 227 484 m 10 Y 193 X 16 Y 192 X -1 Y 193 X -10 Y 193 X -9 Y 193 X -4 Y 192 X -1 Y 193 X -1 Y 578 X f 0 0 1 c 0.999 0.999 0.999 c 0 0 1 c
 1 1 1 c black 0 0 1 c black 3 lw 0 0 1 c 227 484 m 10 Y 193 X 16 Y 192 X -1 Y 193 X -10 Y 193 X -9 Y 193 X -4 Y 192 X -1 Y 193 X -1 Y 578 X f 0.2 0.8 0.8 c 0.999 0.999 0.999 c black 3 lw 0.999 0.999 0.999 c 227 484 m 7 Y 193 X 11 Y 192 X -1 Y 193 X
 -8 Y 193 X -6 Y 193 X -2 Y 192 X -1 Y 771 X f 0.2 0.8 0.8 c 0.999 0.999 0.999 c 0.2 0.8 0.8 c 1 1 1 c black 0.2 0.8 0.8 c black 3 lw 0.2 0.8 0.8 c 227 484 m 7 Y 193 X 11 Y 192 X -1 Y 193 X -8 Y 193 X -6 Y 193 X -2 Y 192 X -1 Y 771 X f 1 0 0 c 0.999
 0.999 0.999 c black 3 lw 0.999 0.999 0.999 c 227 484 m 7 Y 193 X 9 Y 192 X -1 Y 193 X -7 Y 193 X -5 Y 193 X -3 Y 963 X f 1 0 0 c 0.999 0.999 0.999 c 1 0 0 c 1 1 1 c black 1 0 0 c black 3 lw 1 0 0 c 227 484 m 7 Y 193 X 9 Y 192 X -1 Y 193 X -7 Y 193 X
 -5 Y 193 X -3 Y 963 X f 1 0.84 0 c 0.999 0.999 0.999 c black 3 lw 0.999 0.999 0.999 c 227 484 m 1927 X f 1 0.84 0 c 0.999 0.999 0.999 c 1 0.84 0 c 1 1 1 c black 1 0.84 0 c black 3 lw 1 0.84 0 c 227 484 m 1927 X f black 1 1 1 c black 0.6 0.6 0.6 c 3
 lw 420 661 m -6 -6 d s 412 673 m -18 -18 d s 393 673 m -18 -18 d s 374 673 m -18 -18 d s 355 673 m -18 -18 d s 335 673 m -18 -18 d s 316 673 m -18 -18 d s 297 673 m -18 -18 d s 278 673 m -18 -18 d s 258 673 m -18 -18 d s 239 673 m -12 -13 d s 3 lw
 612 892 m -7 -8 d s 612 911 m -26 -27 d s 594 911 m -28 -27 d s 574 911 m -27 -27 d s 555 911 m -27 -27 d s 536 911 m -27 -27 d s 517 911 m -28 -27 d s 497 911 m -27 -27 d s 478 911 m -27 -27 d s 459 911 m -27 -27 d s 440 911 m -20 -20 d s 420 911 m
 s 3 lw 805 834 m -9 -9 d s 805 854 m -28 -29 d s 786 854 m -28 -29 d s 767 854 m -29 -29 d s 748 854 m -29 -29 d s 729 854 m -29 -29 d s 709 854 m -28 -29 d s 690 854 m -29 -29 d s 671 854 m -29 -29 d s 652 854 m -29 -29 d s 632 854 m -20 -20 d s
 613 854 m -1 -1 d s 3 lw 998 662 m -2 -2 d s 998 681 m -21 -21 d s 979 681 m -21 -21 d s 959 681 m -20 -21 d s 940 681 m -21 -21 d s 921 681 m -21 -21 d s 902 681 m -21 -21 d s 883 681 m -21 -21 d s 863 681 m -20 -21 d s 844 681 m -21 -21 d s 825
 681 m -20 -20 d s 806 681 m -1 X s 3 lw 1191 547 m -7 -7 d s 1172 548 m -7 -8 d s 1153 548 m -7 -8 d s 1134 548 m -8 -8 d s 1115 548 m -8 -8 d s 1095 548 m -7 -8 d s 1076 548 m -7 -8 d s 1057 548 m -8 -8 d s 1038 548 m -8 -8 d s 1019 548 m -8 -8 d s
 999 548 m -1 -1 d s 3 lw 1383 509 m -3 -4 d s 1366 511 m -5 -6 d s 1347 511 m -6 -6 d s 1328 511 m -6 -6 d s 1308 511 m -5 -6 d s 1289 511 m -5 -6 d s 1270 511 m -6 -6 d s 1251 511 m -6 -6 d s 1231 511 m -5 -6 d s 1212 511 m -5 -6 d s 1193 511 m -2
 -3 d s 3 lw 1576 490 m s 1559 492 m -3 -2 d s 1540 492 m -3 -2 d s 1520 492 m -2 -2 d s 1501 492 m -2 -2 d s 1482 492 m -2 -2 d s 1463 492 m -3 -2 d s 1443 492 m -2 -2 d s 1424 492 m -2 -2 d s 1405 492 m -2 -2 d s 1386 492 m -3 -2 d s 3 lw 1768 489
 m -3 -2 d s 1748 489 m -2 -2 d s 1729 489 m -2 -2 d s 1710 489 m -2 -2 d s 1691 489 m -3 -2 d s 1671 489 m -2 -2 d s 1652 489 m -2 -2 d s 1633 489 m -2 -2 d s 1614 489 m -3 -2 d s 1594 489 m -2 -2 d s 3 lw 1957 486 m -2 -2 d s 1938 486 m -2 -2 d s
 1918 486 m -1 -2 d s 1899 486 m -1 -2 d s 1880 486 m -1 -2 d s 1861 486 m -2 -2 d s 1841 486 m -1 -2 d s 1822 486 m -1 -2 d s 1803 486 m -1 -2 d s 1784 486 m -2 -2 d s 3 lw 2149 486 m -1 -1 d s 2130 486 m -1 -1 d s 2111 486 m -1 -1 d s 2091 486 m -1
 Y s 2072 486 m -1 Y s 2053 486 m -1 -1 d s 2034 486 m -1 -1 d s 2014 486 m -1 Y s 1995 486 m -1 Y s 1976 486 m -1 -1 d s black 3 lw 1 1 1 c black 323 648 m 65 Y s 323 737 m 64 Y s /w 24 def /w2 {w 2 div} def /w3 {w 3 div} def 323 725 m20 516 689 m
 72 Y s 516 785 m 72 Y s 516 773 m20 709 710 m 75 Y s 709 809 m 75 Y s 709 797 m20 901 608 m 57 Y s 901 688 m 57 Y s 901 676 m20 1094 497 m 23 Y s 1094 543 m 23 Y s 1094 532 m20 1287 484 m 12 Y s 1287 519 m 13 Y s 1287 507 m20 1480 484 m 12 Y s 1480
 519 m 13 Y s 1480 507 m20 227 484 m 1927 X s 227 502 m -18 Y s 291 493 m -9 Y s 355 493 m -9 Y s 420 493 m -9 Y s 484 493 m -9 Y s 548 502 m -18 Y s 612 493 m -9 Y s 677 493 m -9 Y s 741 493 m -9 Y s 805 493 m -9 Y s 869 502 m -18 Y s 934 493 m -9 Y
 s 998 493 m -9 Y s 1062 493 m -9 Y s 1126 493 m -9 Y s 1191 502 m -18 Y s 1255 493 m -9 Y s 1319 493 m -9 Y s 1383 493 m -9 Y s 1448 493 m -9 Y s 1512 502 m -18 Y s 1576 493 m -9 Y s 1640 493 m -9 Y s 1705 493 m -9 Y s 1769 493 m -9 Y s 1833 502 m
 -18 Y s 1897 493 m -9 Y s 1962 493 m -9 Y s 2026 493 m -9 Y s 2090 493 m -9 Y s 2154 502 m -18 Y s 227 1520 m 1927 X s 227 1501 m 19 Y s 291 1510 m 10 Y s 355 1510 m 10 Y s 420 1510 m 10 Y s 484 1510 m 10 Y s 548 1501 m 19 Y s 612 1510 m 10 Y s 677
 1510 m 10 Y s 741 1510 m 10 Y s 805 1510 m 10 Y s 869 1501 m 19 Y s 934 1510 m 10 Y s 998 1510 m 10 Y s 1062 1510 m 10 Y s 1126 1510 m 10 Y s 1191 1501 m 19 Y s 1255 1510 m 10 Y s 1319 1510 m 10 Y s 1383 1510 m 10 Y s 1448 1510 m 10 Y s 1512 1501 m
 19 Y s 1576 1510 m 10 Y s 1640 1510 m 10 Y s 1705 1510 m 10 Y s 1769 1510 m 10 Y s 1833 1501 m 19 Y s 1897 1510 m 10 Y s 1962 1510 m 10 Y s 2026 1510 m 10 Y s 2090 1510 m 10 Y s 2154 1501 m 19 Y s 227 484 m 1036 Y s 248 604 m -21 X s 237 628 m -10 X
 s 237 652 m -10 X s 237 676 m -10 X s 237 701 m -10 X s 248 725 m -21 X s 237 749 m -10 X s 237 773 m -10 X s 237 797 m -10 X s 237 821 m -10 X s 248 845 m -21 X s 237 870 m -10 X s 237 894 m -10 X s 237 918 m -10 X s 237 942 m -10 X s 248 966 m -21
 X s 237 990 m -10 X s 237 1015 m -10 X s 237 1039 m -10 X s 237 1063 m -10 X s 248 1087 m -21 X s 237 1111 m -10 X s 237 1135 m -10 X s 237 1159 m -10 X s 237 1184 m -10 X s 248 1208 m -21 X s 237 1232 m -10 X s 237 1256 m -10 X s 237 1280 m -10 X s
 237 1304 m -10 X s 248 1328 m -21 X s 237 1353 m -10 X s 237 1377 m -10 X s 237 1401 m -10 X s 237 1425 m -10 X s 248 1449 m -21 X s 248 604 m -21 X s 237 580 m -10 X s 237 556 m -10 X s 237 532 m -10 X s 237 507 m -10 X s 248 1449 m -21 X s 237
 1473 m -10 X s 237 1497 m -10 X s 2154 484 m 1036 Y s 2133 604 m 21 X s 2144 628 m 10 X s 2144 652 m 10 X s 2144 676 m 10 X s 2144 701 m 10 X s 2133 725 m 21 X s 2144 749 m 10 X s 2144 773 m 10 X s 2144 797 m 10 X s 2144 821 m 10 X s 2133 845 m 21 X
 s 2144 870 m 10 X s 2144 894 m 10 X s 2144 918 m 10 X s 2144 942 m 10 X s 2133 966 m 21 X s 2144 990 m 10 X s 2144 1015 m 10 X s 2144 1039 m 10 X s 2144 1063 m 10 X s 2133 1087 m 21 X s 2144 1111 m 10 X s 2144 1135 m 10 X s 2144 1159 m 10 X s 2144
 1184 m 10 X s 2133 1208 m 21 X s 2144 1232 m 10 X s 2144 1256 m 10 X s 2144 1280 m 10 X s 2144 1304 m 10 X s 2133 1328 m 21 X s 2144 1353 m 10 X s 2144 1377 m 10 X s 2144 1401 m 10 X s 2144 1425 m 10 X s 2133 1449 m 21 X s 2133 604 m 21 X s 2144 580
 m 10 X s 2144 556 m 10 X s 2144 532 m 10 X s 2144 507 m 10 X s 2133 1449 m 21 X s 2144 1473 m 10 X s 2144 1497 m 10 X s
 gsave  2268 1103 0 472 C 1314.45 1432.87 t 0 r /Helvetica findfont 56.3093 sf 0 0 m ( Data) show NC gr  1259 1456 m 7 Y s 1259 1432 m -7 Y s 1259 1444 m20
 gsave  2268 1103 0 472 C 1776.28 1432.87 t 0 r /Helvetica findfont 56.3093 sf 0 0 m ( Fakes \(MM\)) show NC gr  0.4 0.6 0.4 c 1682 1422 m 79 X 44 Y -79 X f black
 gsave  2268 1103 0 472 C 1403.26 1367.74 t 0 r /Helvetica findfont 56.3093 sf 0 0 m (single\255top) show NC gr 
 gsave  2268 1103 0 472 C 1373.66 1367.74 t 0 r /Helvetica-Oblique findfont 56.3093 sf 0 0 m (/) show NC gr 
 gsave  2268 1103 0 472 C 1352.93 1367.74 t 0 r /Helvetica-Oblique findfont 56.3093 sf 0 0 m (t) show NC gr  6 lw 1353 1412 m 21 X s
 gsave  2268 1103 0 472 C 1332.21 1367.74 t 0 r /Helvetica-Oblique findfont 56.3093 sf 0 0 m (t) show NC gr 
 gsave  2268 1103 0 472 C 1314.45 1367.74 t 0 r /Helvetica findfont 56.3093 sf 0 0 m ( ) show NC gr  0.06 0.54 0.06 c 3 lw 1219 1359 m 79 X 44 Y -79 X f 6 lw black
 gsave  2268 1103 0 472 C 1906.54 1367.74 t 0 r /Helvetica findfont 56.3093 sf 0 0 m (+jets) show NC gr 
 gsave  2268 1103 0 472 C 1794.04 1367.74 t 0 r /Helvetica-Oblique findfont 56.3093 sf 0 0 m (W/Z) show NC gr 
 gsave  2268 1103 0 472 C 1776.28 1367.74 t 0 r /Helvetica findfont 56.3093 sf 0 0 m ( ) show NC gr  1 0.653333 0 c 3 lw 1682 1359 m 79 X 44 Y -79 X f black
 gsave  2268 1103 0 472 C 1512.8 1305.57 t 0 r /Helvetica findfont 56.3093 sf 0 0 m (+jets) show NC gr 
 gsave  2268 1103 0 472 C 1332.21 1305.57 t 0 r /Helvetica-Oblique findfont 56.3093 sf 0 0 m (WZ/ZZ) show NC gr 
 gsave  2268 1103 0 472 C 1314.45 1305.57 t 0 r /Helvetica findfont 56.3093 sf 0 0 m ( ) show NC gr  0.413333 1 0 c 3 lw 1219 1296 m 79 X 44 Y -79 X f black
 gsave  2268 1103 0 472 C 1835.49 1305.57 t 0 r /Helvetica-Oblique findfont 56.3093 sf 0 0 m (Z) show NC gr 
 gsave  2268 1103 0 472 C 1814.77 1305.57 t 0 r /Helvetica-Oblique findfont 56.3093 sf 0 0 m (t) show NC gr  6 lw 1815 1350 m 20 X s
 gsave  2268 1103 0 472 C 1794.04 1305.57 t 0 r /Helvetica-Oblique findfont 56.3093 sf 0 0 m (t) show NC gr 
 gsave  2268 1103 0 472 C 1776.28 1305.57 t 0 r /Helvetica findfont 56.3093 sf 0 0 m ( ) show NC gr  0.6 0.2 1 c 3 lw 1682 1296 m 79 X 44 Y -79 X f 6 lw black
 gsave  2268 1103 0 472 C 1373.66 1243.4 t 0 r /Helvetica-Oblique findfont 56.3093 sf 0 0 m (W) show NC gr 
 gsave  2268 1103 0 472 C 1352.93 1243.4 t 0 r /Helvetica-Oblique findfont 56.3093 sf 0 0 m (t) show NC gr  6 lw 1353 1288 m 21 X s
 gsave  2268 1103 0 472 C 1332.21 1243.4 t 0 r /Helvetica-Oblique findfont 56.3093 sf 0 0 m (t) show NC gr 
 gsave  2268 1103 0 472 C 1314.45 1243.4 t 0 r /Helvetica findfont 56.3093 sf 0 0 m ( ) show NC gr  0.54 0.06 0.06 c 3 lw 1219 1233 m 79 X 44 Y -79 X f 6 lw black
 gsave  2268 1103 0 472 C 1794.04 1243.4 t 0 r /Helvetica-Oblique findfont 56.3093 sf 0 0 m (tZq) show NC gr 
 gsave  2268 1103 0 472 C 1776.28 1243.4 t 0 r /Helvetica findfont 56.3093 sf 0 0 m ( ) show NC gr  1 0 1 c 3 lw 1682 1233 m 79 X 44 Y -79 X f black
 gsave  2268 1103 0 472 C 1373.66 1178.27 t 0 r /Helvetica-Oblique findfont 56.3093 sf 0 0 m (H) show NC gr 
 gsave  2268 1103 0 472 C 1352.93 1178.27 t 0 r /Helvetica-Oblique findfont 56.3093 sf 0 0 m (t) show NC gr  6 lw 1353 1223 m 21 X s
 gsave  2268 1103 0 472 C 1332.21 1178.27 t 0 r /Helvetica-Oblique findfont 56.3093 sf 0 0 m (t) show NC gr 
 gsave  2268 1103 0 472 C 1314.45 1178.27 t 0 r /Helvetica findfont 56.3093 sf 0 0 m ( ) show NC gr  0 0 1 c 3 lw 1219 1170 m 79 X 44 Y -79 X f 6 lw black
 gsave  2268 1103 0 472 C 1794.04 1178.27 t 0 r /Helvetica-Oblique findfont 56.3093 sf 0 0 m (tWZ/tWH) show NC gr 
 gsave  2268 1103 0 472 C 1776.28 1178.27 t 0 r /Helvetica findfont 56.3093 sf 0 0 m ( ) show NC gr  0.2 0.8 0.8 c 3 lw 1682 1170 m 79 X 44 Y -79 X f black
 gsave  2268 1103 0 472 C 1332.21 1116.1 t 0 r /Helvetica-Oblique findfont 56.3093 sf 0 0 m (tHq) show NC gr 
 gsave  2268 1103 0 472 C 1314.45 1116.1 t 0 r /Helvetica findfont 56.3093 sf 0 0 m ( ) show NC gr  1 0 0 c 3 lw 1219 1107 m 79 X 44 Y -79 X f black
 gsave  2268 1103 0 472 C 1776.28 1116.1 t 0 r /Helvetica findfont 56.3093 sf 0 0 m ( Other) show NC gr  1 0.84 0 c 3 lw 1682 1107 m 79 X 44 Y -79 X f black
 gsave  2268 1103 0 472 C 1314.45 1053.93 t 0 r /Helvetica findfont 56.3093 sf 0 0 m ( Uncertainty) show NC gr  0.6 0.6 0.6 c 3 lw 1298 1058 m -13 -14 d s 1298 1077 m -33 -33 d s 1290 1088 m -44 -44 d s 1271 1088 m -44 -44 d s 1252 1088 m -33 -33 d s
 1233 1088 m -14 -13 d s 1 0.84 0 c 0.6 0.6 0.6 c black
 gsave  2268 1103 0 472 C 894.061 1329.25 t 0 r /Helvetica findfont 41.4911 sf 0 0 m (\2551) show NC gr 
 gsave  2268 1103 0 472 C 399.663 1299.64 t 0 r /Helvetica findfont 62.2366 sf 0 0 m ( = 13 TeV,  139 fb) show NC gr 
 gsave  2268 1103 0 472 C 370.058 1299.64 t 0 r /Helvetica findfont 62.2366 sf 0 0 m (s) show NC gr  6 lw 349 1335 m 6 -38 d s 3 lw 355 1297 m 6 56 d s 361 1353 m 39 X s
 gsave  2268 1103 0 472 C 337.493 1201.95 t 0 r /Helvetica findfont 62.2366 sf 0 0 m ( 2L\(SS\), SR) show NC gr 
 gsave  2268 1103 0 472 C 337.493 1400.3 t 0 r /Helvetica-BoldOblique findfont 71.1276 sf 0 0 m (ATLAS) show NC gr 
 gsave  2268 1103 0 472 C 633.54 1400.3 t 0 r /Helvetica findfont 71.1276 sf 0 0 m (Internal) show NC gr 
 gr  gr showpage
end
%%EOF
