%!PS-Adobe-2.0 EPSF-2.0
%%BoundingBox:  0 0 567 394
%%Title: : EtMiss_CR1b3j
%%Creator: ROOT Version 6.20/06
%%CreationDate: Mon May 30 19:25:21 2022
%%DocumentNeededResources: ProcSet (FontSetInit)
%%EndComments
%%BeginProlog
80 dict begin
/s {stroke} def /l {lineto} def /m {moveto} def /t {translate} def
/r {rotate} def /rl {roll}  def /R {repeat} def
/d {rlineto} def /rm {rmoveto} def /gr {grestore} def /f {eofill} def
/c {setrgbcolor} def /black {0 setgray} def /sd {setdash} def
/cl {closepath} def /sf {scalefont setfont} def /lw {setlinewidth} def
/box {m dup 0 exch d exch 0 d 0 exch neg d cl} def
/NC{systemdict begin initclip end}def/C{NC box clip newpath}def
/bl {box s} def /bf {gsave box gsave f grestore 1 lw [] 0 sd s grestore} def /Y { 0 exch d} def /X { 0 d} def 
/K {{pop pop 0 moveto} exch kshow} bind def
/ita {/ang 15 def gsave [1 0 ang dup sin exch cos div 1 0 0] concat} def 
/mp {newpath /y exch def /x exch def} def
/side {[w .77 mul w .23 mul] .385 w mul sd w 0 l currentpoint t -144 r} def
/mr {mp x y w2 0 360 arc} def /m24 {mr s} def /m20 {mr f} def
/mb {mp x y w2 add m w2 neg 0 d 0 w neg d w 0 d 0 w d cl} def
/mt {mp x y w2 add m w2 neg w neg d w 0 d cl} def
/w4 {w 4 div} def
/w6 {w 6 div} def
/w8 {w 8 div} def
/m21 {mb f} def /m25 {mb s} def /m22 {mt f} def /m26{mt s} def
/m23 {mp x y w2 sub m w2 w d w neg 0 d cl f} def
/m27 {mp x y w2 add m w3 neg w2 neg d w3 w2 neg d w3 w2 d cl s} def
/m28 {mp x w2 sub y w2 sub w3 add m w3 0 d  0 w3 neg d w3 0 d 0 w3 d w3 0 d  0 w3 d w3 neg 0 d 0 w3 d w3 neg 0 d 0 w3 neg d w3 neg 0 d cl s } def
/m29 {mp gsave x w2 sub y w2 add w3 sub m currentpoint t 4 {side} repeat cl fill gr} def
/m30 {mp gsave x w2 sub y w2 add w3 sub m currentpoint t 4 {side} repeat cl s gr} def
/m31 {mp x y w2 sub m 0 w d x w2 sub y m w 0 d x w2 sub y w2 add m w w neg d x w2 sub y w2 sub m w w d s} def
/m32 {mp x y w2 sub m w2 w d w neg 0 d cl s} def
/m33 {mp x y w2 add m w3 neg w2 neg d w3 w2 neg d w3 w2 d cl f} def
/m34 {mp x w2 sub y w2 sub w3 add m w3 0 d  0 w3 neg d w3 0 d 0 w3 d w3 0 d  0 w3 d w3 neg 0 d 0 w3 d w3 neg 0 d 0 w3 neg d w3 neg 0 d cl f } def
/m35 {mp x y w2 add m w2 neg w2 neg d w2 w2 neg d w2 w2 d w2 neg w2 d x y w2 sub m 0 w d x w2 sub y m w 0 d s} def
/m36 {mb x w2 sub y w2 add m w w neg d x w2 sub y w2 sub m w w d s} def
/m37 {mp x y m w4 neg w2 d w4 neg w2 neg d w2 0 d  w4 neg w2 neg d w2 0 d w4 neg w2 d w2 0 d w4 neg w2 d w4 neg w2 neg d cl s} def
/m38 {mp x w4 sub y w2 add m w4 neg w4 neg d 0 w2 neg d w4 w4 neg d w2 0 d w4 w4 d 0 w2 d w4 neg w4 d w2 neg 0 d x y w2 sub m 0 w d x w2 sub y m w 0 d cl s} def
/m39 {mp x y m w4 neg w2 d w4 neg w2 neg d w2 0 d  w4 neg w2 neg d w2 0 d w4 neg w2 d w2 0 d w4 neg w2 d w4 neg w2 neg d cl f} def
/m40 {mp x y m w4 w2 d w4 w4 neg d w2 neg w4 neg d w2 w4 neg d w4 neg w4 neg d w4 neg w2 d w4 neg w2 neg d w4 neg w4 d w2 w4 d w2 neg w4 d w4 w4 d w4 w2 neg d cl s} def
/m41 {mp x y m w4 w2 d w4 w4 neg d w2 neg w4 neg d w2 w4 neg d w4 neg w4 neg d w4 neg w2 d w4 neg w2 neg d w4 neg w4 d w2 w4 d w2 neg w4 d w4 w4 d w4 w2 neg d cl f} def
/m42 {mp x y w2 add m w8 neg w2 -3 4 div mul d w2 -3 4 div mul w8 neg d w2 3 4 div mul w8 neg d w8 w2 -3 4 div mul d w8 w2 3 4 div mul d w2 3 4 div mul w8 d w2 -3 4 div mul w8 d w8 neg w2 3 4 div mul d cl s} def
/m43 {mp x y w2 add m w8 neg w2 -3 4 div mul d w2 -3 4 div mul w8 neg d w2 3 4 div mul w8 neg d w8 w2 -3 4 div mul d w8 w2 3 4 div mul d w2 3 4 div mul w8 d w2 -3 4 div mul w8 d w8 neg w2 3 4 div mul d cl f} def
/m44 {mp x y m w6 neg w2 d w2 2 3 div mul 0 d w6 neg w2 neg d w2 w6 d 0 w2 -2 3 div mul d w2 neg w6 d w6 w2 neg d w2 -2 3 div mul 0 d w6 w2 d w2 neg w6 neg d 0 w2 2 3 div mul d w2 w6 neg d cl s} def
/m45 {mp x y m w6 neg w2 d w2 2 3 div mul 0 d w6 neg w2 neg d w2 w6 d 0 w2 -2 3 div mul d w2 neg w6 d w6 w2 neg d w2 -2 3 div mul 0 d w6 w2 d w2 neg w6 neg d 0 w2 2 3 div mul d w2 w6 neg d cl f} def
/m46 {mp x y w4 add m w4 neg w4 d w4 neg w4 neg d  w4 w4 neg d w4 neg w4 neg d w4 w4 neg d w4 w4 d w4 w4 neg d w4 w4 d w4 neg w4 d w4 w4 d w4 neg w4 d w4 neg w4 neg d cl s} def
/m47 {mp x y w4 add m w4 neg w4 d w4 neg w4 neg d w4 w4 neg d w4 neg w4 neg d  w4 w4 neg d w4 w4 d w4 w4 neg d w4 w4 d w4 neg w4 d w4 w4 d w4 neg w4 d w4 neg w4 neg d cl f} def
/m48 {mp x y w4 add m w4 neg w4 d w4 neg w4 neg d w4 w4 neg d  w4 neg w4 neg d w4 w4 neg d w4 w4 d w4 w4 neg d w4 w4 d w4 neg w4 d w4 w4 d w4 neg w4 d w4 neg w4 neg d  w4 w4 neg d w4 neg w4 neg d w4 neg w4 d w4 w4 d cl f} def
/m49 {mp x w2 sub w3 add y w2 sub w3 add m  0 w3 neg d w3 0 d 0 w3 d w3 0 d 0 w3 d w3 neg 0 d 0 w3 d w3 neg 0 d 0 w3 neg d w3 neg 0 d 0 w3 neg d w3 0 d 0 w3 d w3 0 d 0 w3 neg d w3 neg 0 d cl f } def
/m2 {mp x y w2 sub m 0 w d x w2 sub y m w 0 d s} def
/m5 {mp x w2 sub y w2 sub m w w d x w2 sub y w2 add m w w neg d s} def
%%IncludeResource: ProcSet (FontSetInit)
%%IncludeResource: font Times-Roman
%%IncludeResource: font Times-Italic
%%IncludeResource: font Times-Bold
%%IncludeResource: font Times-BoldItalic
%%IncludeResource: font Helvetica
%%IncludeResource: font Helvetica-Oblique
%%IncludeResource: font Helvetica-Bold
%%IncludeResource: font Helvetica-BoldOblique
%%IncludeResource: font Courier
%%IncludeResource: font Courier-Oblique
%%IncludeResource: font Courier-Bold
%%IncludeResource: font Courier-BoldOblique
%%IncludeResource: font Symbol
%%IncludeResource: font ZapfDingbats
/reEncode {exch findfont dup length dict begin {1 index /FID eq  {pop pop} {def} ifelse } forall /Encoding exch def currentdict end dup /FontName get exch definefont pop } def [/Times-Bold /Times-Italic /Times-BoldItalic /Helvetica /Helvetica-Oblique
 /Helvetica-Bold /Helvetica-BoldOblique /Courier /Courier-Oblique /Courier-Bold /Courier-BoldOblique /Times-Roman /AvantGarde-Book /AvantGarde-BookOblique /AvantGarde-Demi /AvantGarde-DemiOblique /Bookman-Demi /Bookman-DemiItalic /Bookman-Light
 /Bookman-LightItalic /Helvetica-Narrow /Helvetica-Narrow-Bold /Helvetica-Narrow-BoldOblique /Helvetica-Narrow-Oblique /NewCenturySchlbk-Roman /NewCenturySchlbk-Bold /NewCenturySchlbk-BoldItalic /NewCenturySchlbk-Italic /Palatino-Bold
 /Palatino-BoldItalic /Palatino-Italic /Palatino-Roman ] {ISOLatin1Encoding reEncode } forall
%%EndProlog
%%BeginSetup
%%EndSetup
newpath  gsave  .25 .25 scale  gsave  0 0 t black[  ] 0 sd 3 lw 1 1 1 c 2268 1575 0 0 bf black 1 1 1 c 2268 472 0 0 bf black 1 1 1 c 1927 274 227 189 bf black 1927 274 227 189 bl 227 189 m 1927 X s 227 201 m -12 Y s 291 195 m -6 Y s 355 195 m -6 Y s
 420 195 m -6 Y s 484 195 m -6 Y s 548 201 m -12 Y s 612 195 m -6 Y s 677 195 m -6 Y s 741 195 m -6 Y s 805 195 m -6 Y s 869 201 m -12 Y s 934 195 m -6 Y s 998 195 m -6 Y s 1062 195 m -6 Y s 1126 195 m -6 Y s 1191 201 m -12 Y s 1255 195 m -6 Y s 1319
 195 m -6 Y s 1383 195 m -6 Y s 1448 195 m -6 Y s 1512 201 m -12 Y s 1576 195 m -6 Y s 1640 195 m -6 Y s 1705 195 m -6 Y s 1769 195 m -6 Y s 1833 201 m -12 Y s 1897 195 m -6 Y s 1962 195 m -6 Y s 2026 195 m -6 Y s 2090 195 m -6 Y s 2154 201 m -12 Y s
 gsave  2268 472 0 0 C 210.193 127.3 t 0 r /Helvetica findfont 53.4895 sf 0 0 m (0) show NC gr 
 gsave  2268 472 0 0 C 518.081 127.3 t 0 r /Helvetica findfont 53.4895 sf 0 0 m (50) show NC gr 
 gsave  2268 472 0 0 C 823.009 127.3 t 0 r /Helvetica findfont 53.4895 sf 0 0 m (100) show NC gr 
 gsave  2268 472 0 0 C 1145.7 127.3 t 0 r /Helvetica findfont 53.4895 sf 0 0 m (150) show NC gr 
 gsave  2268 472 0 0 C 1465.43 127.3 t 0 r /Helvetica findfont 53.4895 sf 0 0 m (200) show NC gr 
 gsave  2268 472 0 0 C 1788.12 127.3 t 0 r /Helvetica findfont 53.4895 sf 0 0 m (250) show NC gr 
 gsave  2268 472 0 0 C 2107.85 127.3 t 0 r /Helvetica findfont 53.4895 sf 0 0 m (300) show NC gr 
 gsave  2268 472 0 0 C 1995.35 41.4465 t 0 r /Helvetica findfont 56.4611 sf 0 0 m ( [GeV]) show NC gr 
 gsave  2268 472 0 0 C 1915.42 68.0907 t 0 r /Helvetica findfont 38.6313 sf 0 0 m (miss) show NC gr 
 gsave  2268 472 0 0 C 1915.42 23.6837 t 0 r /Helvetica findfont 38.6313 sf 0 0 m (T) show NC gr 
 gsave  2268 472 0 0 C 1871.01 41.4465 t 0 r /Helvetica-Oblique findfont 56.4611 sf 0 0 m (E) show NC gr  227 463 m 1927 X s 227 451 m 12 Y s 291 457 m 6 Y s 355 457 m 6 Y s 420 457 m 6 Y s 484 457 m 6 Y s 548 451 m 12 Y s 612 457 m 6 Y s 677 457 m 6
 Y s 741 457 m 6 Y s 805 457 m 6 Y s 869 451 m 12 Y s 934 457 m 6 Y s 998 457 m 6 Y s 1062 457 m 6 Y s 1126 457 m 6 Y s 1191 451 m 12 Y s 1255 457 m 6 Y s 1319 457 m 6 Y s 1383 457 m 6 Y s 1448 457 m 6 Y s 1512 451 m 12 Y s 1576 457 m 6 Y s 1640 457
 m 6 Y s 1705 457 m 6 Y s 1769 457 m 6 Y s 1833 451 m 12 Y s 1897 457 m 6 Y s 1962 457 m 6 Y s 2026 457 m 6 Y s 2090 457 m 6 Y s 2154 451 m 12 Y s 227 189 m 274 Y s 240 240 m -13 X s 240 326 m -13 X s 240 412 m -13 X s 240 240 m -13 X s 240 412 m -13
 X s
 gsave  2268 472 0 0 C 118.419 222.035 t 0 r /Helvetica findfont 53.4895 sf 0 0 m (0.5) show NC gr 
 gsave  2268 472 0 0 C 171.707 307.888 t 0 r /Helvetica findfont 53.4895 sf 0 0 m (1) show NC gr 
 gsave  2268 472 0 0 C 118.419 393.742 t 0 r /Helvetica findfont 53.4895 sf 0 0 m (1.5) show NC gr 
 gsave  2268 472 0 0 C 71.0512 230.916 t 90 r /Helvetica findfont 53.4895 sf 0 0 m (Data / SM) show NC gr  2154 189 m 274 Y s 2141 240 m 13 X s 2141 326 m 13 X s 2141 412 m 13 X s 2141 240 m 13 X s 2141 412 m 13 X s 227 189 m 1927 X s 227 463 m 1927
 X s 227 189 m 274 Y s[ 4 8] 0 sd 2154 240 m -1927 X s 2154 326 m -1927 X s 2154 412 m -1927 X s 2154 240 m -1927 X s 2154 412 m -1927 X s[  ] 0 sd 2154 189 m 274 Y s 1 1 0.6 c 193 0 227 326 bf 192 0 420 326 bf 193 0 612 326 bf 193 0 805 326 bf 193 0
 998 326 bf 192 0 1191 326 bf 193 0 1383 326 bf 193 0 1576 326 bf 193 0 1769 326 bf 192 0 1962 326 bf black 0.6 0.6 0.6 c 420 325 m -7 -7 d s 410 334 m -16 -16 d s 390 334 m -15 -16 d s 371 334 m -15 -16 d s 352 334 m -16 -16 d s 333 334 m -16 -16 d
 s 313 334 m -15 -16 d s 294 334 m -15 -16 d s 275 334 m -16 -16 d s 256 334 m -16 -16 d s 236 334 m -9 -10 d s 612 325 m -2 -2 d s 597 329 m -6 -6 d s 578 329 m -6 -6 d s 559 329 m -6 -6 d s 540 329 m -7 -6 d s 520 329 m -6 -6 d s 501 329 m -6 -6 d
 s 482 329 m -6 -6 d s 463 329 m -7 -6 d s 443 329 m -6 -6 d s 424 329 m -4 -4 d s 805 325 m -3 -3 d s 790 330 m -7 -8 d s 771 330 m -7 -8 d s 752 330 m -7 -8 d s 732 330 m -7 -8 d s 713 330 m -7 -8 d s 694 330 m -7 -8 d s 675 330 m -7 -8 d s 655 330
 m -7 -8 d s 636 330 m -7 -8 d s 617 330 m -5 -5 d s 998 326 m -5 -5 d s 984 331 m -10 -10 d s 965 331 m -10 -10 d s 945 331 m -9 -10 d s 926 331 m -10 -10 d s 907 331 m -10 -10 d s 888 331 m -10 -10 d s 868 331 m -9 -10 d s 849 331 m -10 -10 d s 830
 331 m -10 -10 d s 811 331 m -6 -6 d s 1191 326 m -7 -7 d s 1178 333 m -14 -14 d s 1159 333 m -14 -14 d s 1140 333 m -14 -14 d s 1121 333 m -14 -14 d s 1101 333 m -14 -14 d s 1082 333 m -14 -14 d s 1063 333 m -14 -14 d s 1044 333 m -14 -14 d s 1025
 333 m -14 -14 d s 1005 333 m -7 -7 d s 1383 326 m -9 -9 d s 1373 335 m -18 -18 d s 1354 335 m -19 -18 d s 1335 335 m -19 -18 d s 1315 335 m -18 -18 d s 1296 335 m -18 -18 d s 1277 335 m -19 -18 d s 1258 335 m -19 -18 d s 1238 335 m -18 -18 d s 1219
 335 m -18 -18 d s 1200 335 m -9 -9 d s 1576 327 m -13 -14 d s 1569 339 m -26 -26 d s 1550 339 m -26 -26 d s 1531 339 m -26 -26 d s 1511 339 m -25 -26 d s 1492 339 m -26 -26 d s 1473 339 m -26 -26 d s 1454 339 m -26 -26 d s 1434 339 m -25 -26 d s
 1415 339 m -26 -26 d s 1396 339 m -13 -13 d s 1769 327 m -17 -17 d s 1765 342 m -33 -32 d s 1746 342 m -33 -32 d s 1726 342 m -32 -32 d s 1707 342 m -32 -32 d s 1688 342 m -32 -32 d s 1669 342 m -33 -32 d s 1649 342 m -32 -32 d s 1630 342 m -32 -32
 d s 1611 342 m -32 -32 d s 1592 342 m -16 -15 d s 1962 308 m -5 -5 d s 1962 327 m -24 -24 d s 1962 347 m -44 -44 d s 1945 349 m -46 -46 d s 1925 349 m -45 -46 d s 1906 349 m -45 -46 d s 1887 349 m -46 -46 d s 1868 349 m -46 -46 d s 1848 349 m -45
 -46 d s 1829 349 m -45 -46 d s 1810 349 m -41 -41 d s 1791 349 m -22 -22 d s 1772 349 m -3 -3 d s 2154 328 m -11 -12 d s 2143 336 m -19 -20 d s 2124 336 m -20 -20 d s 2105 336 m -20 -20 d s 2086 336 m -20 -20 d s 2066 336 m -19 -20 d s 2047 336 m
 -20 -20 d s 2028 336 m -20 -20 d s 2009 336 m -20 -20 d s 1989 336 m -19 -20 d s 1970 336 m -8 -9 d s black 1 1 1 c black 323 302 m 3 Y s 323 329 m 3 Y s /w 26 def /w2 {w 2 div} def /w3 {w 3 div} def 323 317 m20 516 288 m20 709 294 m 2 Y s 709 320 m
 2 Y s 709 308 m20 901 328 m 11 Y s 901 362 m 11 Y s 901 351 m20 1094 286 m 18 Y s 1094 327 m 18 Y s 1094 316 m20 1287 388 m 48 Y s 1287 459 m 4 Y s 1287 447 m20 1480 303 m 57 Y s 1480 384 m 56 Y s 1480 372 m20 1672 206 m 59 Y s 1672 289 m 58 Y s
 1672 277 m20 1865 307 m 140 Y s 1865 459 m20 2058 202 m 52 Y s 2058 278 m 52 Y s 2058 266 m20 227 326 m 1927 X s 227 189 m 1927 X s 227 201 m -12 Y s 291 195 m -6 Y s 355 195 m -6 Y s 420 195 m -6 Y s 484 195 m -6 Y s 548 201 m -12 Y s 612 195 m -6
 Y s 677 195 m -6 Y s 741 195 m -6 Y s 805 195 m -6 Y s 869 201 m -12 Y s 934 195 m -6 Y s 998 195 m -6 Y s 1062 195 m -6 Y s 1126 195 m -6 Y s 1191 201 m -12 Y s 1255 195 m -6 Y s 1319 195 m -6 Y s 1383 195 m -6 Y s 1448 195 m -6 Y s 1512 201 m -12
 Y s 1576 195 m -6 Y s 1640 195 m -6 Y s 1705 195 m -6 Y s 1769 195 m -6 Y s 1833 201 m -12 Y s 1897 195 m -6 Y s 1962 195 m -6 Y s 2026 195 m -6 Y s 2090 195 m -6 Y s 2154 201 m -12 Y s 227 463 m 1927 X s 227 451 m 12 Y s 291 457 m 6 Y s 355 457 m 6
 Y s 420 457 m 6 Y s 484 457 m 6 Y s 548 451 m 12 Y s 612 457 m 6 Y s 677 457 m 6 Y s 741 457 m 6 Y s 805 457 m 6 Y s 869 451 m 12 Y s 934 457 m 6 Y s 998 457 m 6 Y s 1062 457 m 6 Y s 1126 457 m 6 Y s 1191 451 m 12 Y s 1255 457 m 6 Y s 1319 457 m 6 Y
 s 1383 457 m 6 Y s 1448 457 m 6 Y s 1512 451 m 12 Y s 1576 457 m 6 Y s 1640 457 m 6 Y s 1705 457 m 6 Y s 1769 457 m 6 Y s 1833 451 m 12 Y s 1897 457 m 6 Y s 1962 457 m 6 Y s 2026 457 m 6 Y s 2090 457 m 6 Y s 2154 451 m 12 Y s 227 189 m 274 Y s 240
 240 m -13 X s 240 326 m -13 X s 240 412 m -13 X s 240 240 m -13 X s 240 412 m -13 X s 2154 189 m 274 Y s 2141 240 m 13 X s 2141 326 m 13 X s 2141 412 m 13 X s 2141 240 m 13 X s 2141 412 m 13 X s 1 1 1 c 2268 1103 0 472 bf black 1 1 1 c 1927 1036 227
 484 bf black 1927 1036 227 484 bl 1 1 1 c black 3 lw 227 484 m 1927 X s 227 502 m -18 Y s 291 493 m -9 Y s 355 493 m -9 Y s 420 493 m -9 Y s 484 493 m -9 Y s 548 502 m -18 Y s 612 493 m -9 Y s 677 493 m -9 Y s 741 493 m -9 Y s 805 493 m -9 Y s 869
 502 m -18 Y s 934 493 m -9 Y s 998 493 m -9 Y s 1062 493 m -9 Y s 1126 493 m -9 Y s 1191 502 m -18 Y s 1255 493 m -9 Y s 1319 493 m -9 Y s 1383 493 m -9 Y s 1448 493 m -9 Y s 1512 502 m -18 Y s 1576 493 m -9 Y s 1640 493 m -9 Y s 1705 493 m -9 Y s
 1769 493 m -9 Y s 1833 502 m -18 Y s 1897 493 m -9 Y s 1962 493 m -9 Y s 2026 493 m -9 Y s 2090 493 m -9 Y s 2154 502 m -18 Y s
 gsave  2268 1103 0 472 C 2069.37 396.702 t 0 r /Helvetica findfont 29.6365 sf 0 0 m ( [GeV]) show NC gr 
 gsave  2268 1103 0 472 C 2024.96 414.465 t 0 r /Helvetica findfont 20.7455 sf 0 0 m (miss) show NC gr 
 gsave  2268 1103 0 472 C 2024.96 387.821 t 0 r /Helvetica findfont 20.7455 sf 0 0 m (T) show NC gr 
 gsave  2268 1103 0 472 C 2001.27 396.702 t 0 r /Helvetica-Oblique findfont 29.6365 sf 0 0 m (E) show NC gr  227 1520 m 1927 X s 227 1501 m 19 Y s 291 1510 m 10 Y s 355 1510 m 10 Y s 420 1510 m 10 Y s 484 1510 m 10 Y s 548 1501 m 19 Y s 612 1510 m 10
 Y s 677 1510 m 10 Y s 741 1510 m 10 Y s 805 1510 m 10 Y s 869 1501 m 19 Y s 934 1510 m 10 Y s 998 1510 m 10 Y s 1062 1510 m 10 Y s 1126 1510 m 10 Y s 1191 1501 m 19 Y s 1255 1510 m 10 Y s 1319 1510 m 10 Y s 1383 1510 m 10 Y s 1448 1510 m 10 Y s 1512
 1501 m 19 Y s 1576 1510 m 10 Y s 1640 1510 m 10 Y s 1705 1510 m 10 Y s 1769 1510 m 10 Y s 1833 1501 m 19 Y s 1897 1510 m 10 Y s 1962 1510 m 10 Y s 2026 1510 m 10 Y s 2090 1510 m 10 Y s 2154 1501 m 19 Y s 227 484 m 1036 Y s 248 685 m -21 X s 237 726
 m -10 X s 237 766 m -10 X s 237 806 m -10 X s 237 847 m -10 X s 248 887 m -21 X s 237 927 m -10 X s 237 968 m -10 X s 237 1008 m -10 X s 237 1048 m -10 X s 248 1089 m -21 X s 237 1129 m -10 X s 237 1169 m -10 X s 237 1210 m -10 X s 237 1250 m -10 X
 s 248 1290 m -21 X s 237 1331 m -10 X s 237 1371 m -10 X s 237 1411 m -10 X s 237 1452 m -10 X s 248 1492 m -21 X s 248 685 m -21 X s 237 645 m -10 X s 237 605 m -10 X s 237 564 m -10 X s 237 524 m -10 X s 248 1492 m -21 X s
 gsave  2268 1103 0 472 C 118.419 666.105 t 0 r /Helvetica findfont 50.382 sf 0 0 m (100) show NC gr 
 gsave  2268 1103 0 472 C 118.419 867.416 t 0 r /Helvetica findfont 50.382 sf 0 0 m (200) show NC gr 
 gsave  2268 1103 0 472 C 118.419 1068.73 t 0 r /Helvetica findfont 50.382 sf 0 0 m (300) show NC gr 
 gsave  2268 1103 0 472 C 118.419 1270.04 t 0 r /Helvetica findfont 50.382 sf 0 0 m (400) show NC gr 
 gsave  2268 1103 0 472 C 118.419 1471.35 t 0 r /Helvetica findfont 50.382 sf 0 0 m (500) show NC gr 
 gsave  2268 1103 0 472 C 62.1698 1154.58 t 90 r /Helvetica findfont 50.382 sf 0 0 m (Events / 30 GeV) show NC gr  2154 484 m 1036 Y s 2133 685 m 21 X s 2144 726 m 10 X s 2144 766 m 10 X s 2144 806 m 10 X s 2144 847 m 10 X s 2133 887 m 21 X s 2144
 927 m 10 X s 2144 968 m 10 X s 2144 1008 m 10 X s 2144 1048 m 10 X s 2133 1089 m 21 X s 2144 1129 m 10 X s 2144 1169 m 10 X s 2144 1210 m 10 X s 2144 1250 m 10 X s 2133 1290 m 21 X s 2144 1331 m 10 X s 2144 1371 m 10 X s 2144 1411 m 10 X s 2144 1452
 m 10 X s 2133 1492 m 21 X s 2133 685 m 21 X s 2144 645 m 10 X s 2144 605 m 10 X s 2144 564 m 10 X s 2144 524 m 10 X s 2133 1492 m 21 X s 0.4 0.6 0.4 c black 3 lw 0.4 0.6 0.4 c 227 484 m 251 Y 193 X 163 Y 192 X -141 Y 193 X -138 Y 193 X -73 Y 193 X
 -34 Y 192 X -13 Y 193 X -7 Y 193 X -4 Y 193 X 5 Y 192 X -9 Y f 0.06 0.54 0.06 c 0.999 0.999 0.999 c black 3 lw 0.999 0.999 0.999 c 227 484 m 145 Y 193 X 75 Y 192 X -65 Y 193 X -66 Y 193 X -41 Y 193 X -25 Y 192 X -10 Y 193 X -6 Y 193 X -4 Y 193 X 5 Y
 192 X -8 Y f 0.06 0.54 0.06 c 0.999 0.999 0.999 c 0.06 0.54 0.06 c 1 1 1 c black 0.06 0.54 0.06 c black 3 lw 0.06 0.54 0.06 c 227 484 m 145 Y 193 X 75 Y 192 X -65 Y 193 X -66 Y 193 X -41 Y 193 X -25 Y 192 X -10 Y 193 X -6 Y 193 X -4 Y 193 X 5 Y 192
 X -8 Y f 1 0.653333 0 c 0.999 0.999 0.999 c black 3 lw 0.999 0.999 0.999 c 227 484 m 113 Y 193 X 40 Y 192 X -52 Y 193 X -44 Y 193 X -26 Y 193 X -15 Y 192 X -8 Y 193 X -3 Y 193 X -3 Y 193 X 4 Y 192 X -6 Y f 1 0.653333 0 c 0.999 0.999 0.999 c 1
 0.653333 0 c 1 1 1 c black 1 0.653333 0 c black 3 lw 1 0.653333 0 c 227 484 m 113 Y 193 X 40 Y 192 X -52 Y 193 X -44 Y 193 X -26 Y 193 X -15 Y 192 X -8 Y 193 X -3 Y 193 X -3 Y 193 X 4 Y 192 X -6 Y f 0.413333 1 0 c 0.999 0.999 0.999 c black 3 lw
 0.999 0.999 0.999 c 227 484 m 63 Y 193 X 58 Y 192 X -26 Y 193 X -39 Y 193 X -25 Y 193 X -16 Y 192 X -7 Y 193 X -3 Y 193 X -3 Y 193 X 4 Y 192 X -6 Y f 0.413333 1 0 c 0.999 0.999 0.999 c 0.413333 1 0 c 1 1 1 c black 0.413333 1 0 c black 3 lw 0.413333
 1 0 c 227 484 m 63 Y 193 X 58 Y 192 X -26 Y 193 X -39 Y 193 X -25 Y 193 X -16 Y 192 X -7 Y 193 X -3 Y 193 X -3 Y 193 X 4 Y 192 X -6 Y f 0.6 0.2 1 c 0.999 0.999 0.999 c black 3 lw 0.999 0.999 0.999 c 227 484 m 32 Y 193 X 39 Y 192 X -4 Y 193 X -24 Y
 193 X -19 Y 193 X -12 Y 192 X -6 Y 193 X -2 Y 193 X -2 Y 193 X 2 Y 192 X -4 Y f 0.6 0.2 1 c 0.999 0.999 0.999 c 0.6 0.2 1 c 1 1 1 c black 0.6 0.2 1 c black 3 lw 0.6 0.2 1 c 227 484 m 32 Y 193 X 39 Y 192 X -4 Y 193 X -24 Y 193 X -19 Y 193 X -12 Y 192
 X -6 Y 193 X -2 Y 193 X -2 Y 193 X 2 Y 192 X -4 Y f 0.54 0.06 0.06 c 0.999 0.999 0.999 c black 3 lw 0.999 0.999 0.999 c 227 484 m 28 Y 193 X 35 Y 192 X -3 Y 193 X -21 Y 193 X -17 Y 193 X -11 Y 192 X -5 Y 193 X -3 Y 193 X -1 Y 193 X 2 Y 192 X -4 Y f
 0.54 0.06 0.06 c 0.999 0.999 0.999 c 0.54 0.06 0.06 c 1 1 1 c black 0.54 0.06 0.06 c black 3 lw 0.54 0.06 0.06 c 227 484 m 28 Y 193 X 35 Y 192 X -3 Y 193 X -21 Y 193 X -17 Y 193 X -11 Y 192 X -5 Y 193 X -3 Y 193 X -1 Y 193 X 2 Y 192 X -4 Y f 1 0 1 c
 0.999 0.999 0.999 c black 3 lw 0.999 0.999 0.999 c 227 484 m 9 Y 193 X 13 Y 192 X -4 Y 193 X -7 Y 193 X -6 Y 193 X -3 Y 192 X -1 Y 193 X -1 Y 578 X f 1 0 1 c 0.999 0.999 0.999 c 1 0 1 c 1 1 1 c black 1 0 1 c black 3 lw 1 0 1 c 227 484 m 9 Y 193 X 13
 Y 192 X -4 Y 193 X -7 Y 193 X -6 Y 193 X -3 Y 192 X -1 Y 193 X -1 Y 578 X f 0 0 1 c 0.999 0.999 0.999 c black 3 lw 0.999 0.999 0.999 c 227 484 m 3 Y 193 X 5 Y 385 X -2 Y 193 X -3 Y 193 X -2 Y 192 X -1 Y 771 X f 0 0 1 c 0.999 0.999 0.999 c 0 0 1 c 1
 1 1 c black 0 0 1 c black 3 lw 0 0 1 c 227 484 m 3 Y 193 X 5 Y 385 X -2 Y 193 X -3 Y 193 X -2 Y 192 X -1 Y 771 X f 0.2 0.8 0.8 c 0.999 0.999 0.999 c black 3 lw 0.999 0.999 0.999 c 227 484 m 1 Y 193 X 4 Y 385 X -2 Y 193 X -2 Y 193 X -1 Y 963 X f 0.2
 0.8 0.8 c 0.999 0.999 0.999 c 0.2 0.8 0.8 c 1 1 1 c black 0.2 0.8 0.8 c black 3 lw 0.2 0.8 0.8 c 227 484 m 1 Y 193 X 4 Y 385 X -2 Y 193 X -2 Y 193 X -1 Y 963 X f 1 0 0 c 0.999 0.999 0.999 c black 3 lw 0.999 0.999 0.999 c 227 484 m 193 X 2 Y 192 X 1
 Y 193 X -1 Y 193 X -1 Y 193 X -1 Y 963 X f 1 0 0 c 0.999 0.999 0.999 c 1 0 0 c 1 1 1 c black 1 0 0 c black 3 lw 1 0 0 c 227 484 m 193 X 2 Y 192 X 1 Y 193 X -1 Y 193 X -1 Y 193 X -1 Y 963 X f 1 0.84 0 c 0.999 0.999 0.999 c black 3 lw 0.999 0.999
 0.999 c 227 484 m 193 X 1 Y 192 X 1 Y 386 X -2 Y 1156 X f 1 0.84 0 c 0.999 0.999 0.999 c 1 0.84 0 c 1 1 1 c black 1 0.84 0 c black 3 lw 1 0.84 0 c 227 484 m 193 X 1 Y 192 X 1 Y 386 X -2 Y 1156 X f black 1 1 1 c black 0.6 0.6 0.6 c 3 lw 420 738 m -15
 -15 d s 409 746 m -23 -23 d s 390 746 m -23 -23 d s 370 746 m -23 -23 d s 351 746 m -23 -23 d s 332 746 m -23 -23 d s 313 746 m -23 -23 d s 293 746 m -23 -23 d s 274 746 m -23 -23 d s 255 746 m -23 -23 d s 236 746 m -9 -9 d s 3 lw 612 892 m -1 -2 d
 s 607 906 m -15 -16 d s 588 906 m -16 -16 d s 569 906 m -16 -16 d s 549 906 m -15 -16 d s 530 906 m -15 -16 d s 511 906 m -16 -16 d s 492 906 m -16 -16 d s 472 906 m -15 -16 d s 453 906 m -15 -16 d s 434 906 m -14 -15 d s 3 lw 805 758 m -7 -7 d s
 791 762 m -12 -11 d s 771 762 m -11 -11 d s 752 762 m -11 -11 d s 733 762 m -12 -11 d s 714 762 m -12 -11 d s 694 762 m -11 -11 d s 675 762 m -11 -11 d s 656 762 m -11 -11 d s 637 762 m -12 -11 d s 618 762 m -6 -5 d s 3 lw 998 623 m -8 -8 d s 978
 623 m -7 -8 d s 959 623 m -8 -8 d s 940 623 m -8 -8 d s 921 623 m -8 -8 d s 901 623 m -7 -8 d s 882 623 m -8 -8 d s 863 623 m -8 -8 d s 844 623 m -8 -8 d s 824 623 m -7 -8 d s 805 623 m s 3 lw 1191 547 m -4 -4 d s 1173 548 m -5 -5 d s 1154 548 m -6
 -5 d s 1134 548 m -5 -5 d s 1115 548 m -5 -5 d s 1096 548 m -5 -5 d s 1077 548 m -6 -5 d s 1057 548 m -5 -5 d s 1038 548 m -5 -5 d s 1019 548 m -5 -5 d s 1000 548 m -2 -1 d s 3 lw 1369 513 m -3 -3 d s 1349 513 m -3 -3 d s 1330 513 m -3 -3 d s 1311
 513 m -3 -3 d s 1292 513 m -3 -3 d s 1272 513 m -3 -3 d s 1253 513 m -3 -3 d s 1234 513 m -3 -3 d s 1215 513 m -3 -3 d s 1195 513 m -3 -3 d s 3 lw 1568 501 m -3 -3 d s 1548 501 m -2 -3 d s 1529 501 m -2 -3 d s 1510 501 m -3 -3 d s 1491 501 m -3 -3 d
 s 1471 501 m -2 -3 d s 1452 501 m -2 -3 d s 1433 501 m -3 -3 d s 1414 501 m -3 -3 d s 1394 501 m -2 -3 d s 3 lw 1752 493 m -1 -2 d s 1733 493 m -2 -2 d s 1714 493 m -2 -2 d s 1694 493 m -1 -2 d s 1675 493 m -1 -2 d s 1656 493 m -2 -2 d s 1637 493 m
 -2 -2 d s 1617 493 m -1 -2 d s 1598 493 m -1 -2 d s 1579 493 m -2 -2 d s 3 lw 1960 489 m -2 -2 d s 1940 489 m -1 -2 d s 1921 489 m -1 -2 d s 1902 489 m -1 -2 d s 1883 489 m -2 -2 d s 1863 489 m -1 -2 d s 1844 489 m -1 -2 d s 1825 489 m -1 -2 d s
 1806 489 m -2 -2 d s 1786 489 m -1 -2 d s 3 lw 2138 493 m -2 -1 d s 2118 493 m -1 -1 d s 2099 493 m -1 -1 d s 2080 493 m -1 -1 d s 2061 493 m -2 -1 d s 2041 493 m -1 -1 d s 2022 493 m -1 -1 d s 2003 493 m -1 -1 d s 1984 493 m -1 -1 d s 1964 493 m -1
 -1 d s black 3 lw 1 1 1 c black 323 700 m 10 Y s 323 733 m 10 Y s /w 24 def /w2 {w 2 div} def /w3 {w 3 div} def 323 721 m20 516 781 m 13 Y s 516 818 m 14 Y s 516 806 m20 709 705 m 11 Y s 709 739 m 11 Y s 709 728 m20 901 621 m 6 Y s 901 651 m 5 Y s
 901 639 m20 1094 542 m20 1287 532 m20 1480 504 m20 1672 490 m20 1865 492 m20 2058 490 m20 227 484 m 1927 X s 227 502 m -18 Y s 291 493 m -9 Y s 355 493 m -9 Y s 420 493 m -9 Y s 484 493 m -9 Y s 548 502 m -18 Y s 612 493 m -9 Y s 677 493 m -9 Y s
 741 493 m -9 Y s 805 493 m -9 Y s 869 502 m -18 Y s 934 493 m -9 Y s 998 493 m -9 Y s 1062 493 m -9 Y s 1126 493 m -9 Y s 1191 502 m -18 Y s 1255 493 m -9 Y s 1319 493 m -9 Y s 1383 493 m -9 Y s 1448 493 m -9 Y s 1512 502 m -18 Y s 1576 493 m -9 Y s
 1640 493 m -9 Y s 1705 493 m -9 Y s 1769 493 m -9 Y s 1833 502 m -18 Y s 1897 493 m -9 Y s 1962 493 m -9 Y s 2026 493 m -9 Y s 2090 493 m -9 Y s 2154 502 m -18 Y s 227 1520 m 1927 X s 227 1501 m 19 Y s 291 1510 m 10 Y s 355 1510 m 10 Y s 420 1510 m
 10 Y s 484 1510 m 10 Y s 548 1501 m 19 Y s 612 1510 m 10 Y s 677 1510 m 10 Y s 741 1510 m 10 Y s 805 1510 m 10 Y s 869 1501 m 19 Y s 934 1510 m 10 Y s 998 1510 m 10 Y s 1062 1510 m 10 Y s 1126 1510 m 10 Y s 1191 1501 m 19 Y s 1255 1510 m 10 Y s 1319
 1510 m 10 Y s 1383 1510 m 10 Y s 1448 1510 m 10 Y s 1512 1501 m 19 Y s 1576 1510 m 10 Y s 1640 1510 m 10 Y s 1705 1510 m 10 Y s 1769 1510 m 10 Y s 1833 1501 m 19 Y s 1897 1510 m 10 Y s 1962 1510 m 10 Y s 2026 1510 m 10 Y s 2090 1510 m 10 Y s 2154
 1501 m 19 Y s 227 484 m 1036 Y s 248 685 m -21 X s 237 726 m -10 X s 237 766 m -10 X s 237 806 m -10 X s 237 847 m -10 X s 248 887 m -21 X s 237 927 m -10 X s 237 968 m -10 X s 237 1008 m -10 X s 237 1048 m -10 X s 248 1089 m -21 X s 237 1129 m -10
 X s 237 1169 m -10 X s 237 1210 m -10 X s 237 1250 m -10 X s 248 1290 m -21 X s 237 1331 m -10 X s 237 1371 m -10 X s 237 1411 m -10 X s 237 1452 m -10 X s 248 1492 m -21 X s 248 685 m -21 X s 237 645 m -10 X s 237 605 m -10 X s 237 564 m -10 X s
 237 524 m -10 X s 248 1492 m -21 X s 2154 484 m 1036 Y s 2133 685 m 21 X s 2144 726 m 10 X s 2144 766 m 10 X s 2144 806 m 10 X s 2144 847 m 10 X s 2133 887 m 21 X s 2144 927 m 10 X s 2144 968 m 10 X s 2144 1008 m 10 X s 2144 1048 m 10 X s 2133 1089
 m 21 X s 2144 1129 m 10 X s 2144 1169 m 10 X s 2144 1210 m 10 X s 2144 1250 m 10 X s 2133 1290 m 21 X s 2144 1331 m 10 X s 2144 1371 m 10 X s 2144 1411 m 10 X s 2144 1452 m 10 X s 2133 1492 m 21 X s 2133 685 m 21 X s 2144 645 m 10 X s 2144 605 m 10
 X s 2144 564 m 10 X s 2144 524 m 10 X s 2133 1492 m 21 X s
 gsave  2268 1103 0 472 C 1314.45 1432.87 t 0 r /Helvetica findfont 56.3093 sf 0 0 m ( Data) show NC gr  1259 1456 m 7 Y s 1259 1432 m -7 Y s 1259 1444 m20
 gsave  2268 1103 0 472 C 1776.28 1432.87 t 0 r /Helvetica findfont 56.3093 sf 0 0 m ( Fakes \(MM\)) show NC gr  0.4 0.6 0.4 c 1682 1422 m 79 X 44 Y -79 X f black
 gsave  2268 1103 0 472 C 1403.26 1367.74 t 0 r /Helvetica findfont 56.3093 sf 0 0 m (single\255top) show NC gr 
 gsave  2268 1103 0 472 C 1373.66 1367.74 t 0 r /Helvetica-Oblique findfont 56.3093 sf 0 0 m (/) show NC gr 
 gsave  2268 1103 0 472 C 1352.93 1367.74 t 0 r /Helvetica-Oblique findfont 56.3093 sf 0 0 m (t) show NC gr  6 lw 1353 1412 m 21 X s
 gsave  2268 1103 0 472 C 1332.21 1367.74 t 0 r /Helvetica-Oblique findfont 56.3093 sf 0 0 m (t) show NC gr 
 gsave  2268 1103 0 472 C 1314.45 1367.74 t 0 r /Helvetica findfont 56.3093 sf 0 0 m ( ) show NC gr  0.06 0.54 0.06 c 3 lw 1219 1359 m 79 X 44 Y -79 X f 6 lw black
 gsave  2268 1103 0 472 C 1906.54 1367.74 t 0 r /Helvetica findfont 56.3093 sf 0 0 m (+jets) show NC gr 
 gsave  2268 1103 0 472 C 1794.04 1367.74 t 0 r /Helvetica-Oblique findfont 56.3093 sf 0 0 m (W/Z) show NC gr 
 gsave  2268 1103 0 472 C 1776.28 1367.74 t 0 r /Helvetica findfont 56.3093 sf 0 0 m ( ) show NC gr  1 0.653333 0 c 3 lw 1682 1359 m 79 X 44 Y -79 X f black
 gsave  2268 1103 0 472 C 1512.8 1305.57 t 0 r /Helvetica findfont 56.3093 sf 0 0 m (+jets) show NC gr 
 gsave  2268 1103 0 472 C 1332.21 1305.57 t 0 r /Helvetica-Oblique findfont 56.3093 sf 0 0 m (WZ/ZZ) show NC gr 
 gsave  2268 1103 0 472 C 1314.45 1305.57 t 0 r /Helvetica findfont 56.3093 sf 0 0 m ( ) show NC gr  0.413333 1 0 c 3 lw 1219 1296 m 79 X 44 Y -79 X f black
 gsave  2268 1103 0 472 C 1835.49 1305.57 t 0 r /Helvetica-Oblique findfont 56.3093 sf 0 0 m (Z) show NC gr 
 gsave  2268 1103 0 472 C 1814.77 1305.57 t 0 r /Helvetica-Oblique findfont 56.3093 sf 0 0 m (t) show NC gr  6 lw 1815 1350 m 20 X s
 gsave  2268 1103 0 472 C 1794.04 1305.57 t 0 r /Helvetica-Oblique findfont 56.3093 sf 0 0 m (t) show NC gr 
 gsave  2268 1103 0 472 C 1776.28 1305.57 t 0 r /Helvetica findfont 56.3093 sf 0 0 m ( ) show NC gr  0.6 0.2 1 c 3 lw 1682 1296 m 79 X 44 Y -79 X f 6 lw black
 gsave  2268 1103 0 472 C 1373.66 1243.4 t 0 r /Helvetica-Oblique findfont 56.3093 sf 0 0 m (W) show NC gr 
 gsave  2268 1103 0 472 C 1352.93 1243.4 t 0 r /Helvetica-Oblique findfont 56.3093 sf 0 0 m (t) show NC gr  6 lw 1353 1288 m 21 X s
 gsave  2268 1103 0 472 C 1332.21 1243.4 t 0 r /Helvetica-Oblique findfont 56.3093 sf 0 0 m (t) show NC gr 
 gsave  2268 1103 0 472 C 1314.45 1243.4 t 0 r /Helvetica findfont 56.3093 sf 0 0 m ( ) show NC gr  0.54 0.06 0.06 c 3 lw 1219 1233 m 79 X 44 Y -79 X f 6 lw black
 gsave  2268 1103 0 472 C 1794.04 1243.4 t 0 r /Helvetica-Oblique findfont 56.3093 sf 0 0 m (tZq) show NC gr 
 gsave  2268 1103 0 472 C 1776.28 1243.4 t 0 r /Helvetica findfont 56.3093 sf 0 0 m ( ) show NC gr  1 0 1 c 3 lw 1682 1233 m 79 X 44 Y -79 X f black
 gsave  2268 1103 0 472 C 1373.66 1178.27 t 0 r /Helvetica-Oblique findfont 56.3093 sf 0 0 m (H) show NC gr 
 gsave  2268 1103 0 472 C 1352.93 1178.27 t 0 r /Helvetica-Oblique findfont 56.3093 sf 0 0 m (t) show NC gr  6 lw 1353 1223 m 21 X s
 gsave  2268 1103 0 472 C 1332.21 1178.27 t 0 r /Helvetica-Oblique findfont 56.3093 sf 0 0 m (t) show NC gr 
 gsave  2268 1103 0 472 C 1314.45 1178.27 t 0 r /Helvetica findfont 56.3093 sf 0 0 m ( ) show NC gr  0 0 1 c 3 lw 1219 1170 m 79 X 44 Y -79 X f 6 lw black
 gsave  2268 1103 0 472 C 1794.04 1178.27 t 0 r /Helvetica-Oblique findfont 56.3093 sf 0 0 m (tWZ/tWH) show NC gr 
 gsave  2268 1103 0 472 C 1776.28 1178.27 t 0 r /Helvetica findfont 56.3093 sf 0 0 m ( ) show NC gr  0.2 0.8 0.8 c 3 lw 1682 1170 m 79 X 44 Y -79 X f black
 gsave  2268 1103 0 472 C 1332.21 1116.1 t 0 r /Helvetica-Oblique findfont 56.3093 sf 0 0 m (tHq) show NC gr 
 gsave  2268 1103 0 472 C 1314.45 1116.1 t 0 r /Helvetica findfont 56.3093 sf 0 0 m ( ) show NC gr  1 0 0 c 3 lw 1219 1107 m 79 X 44 Y -79 X f black
 gsave  2268 1103 0 472 C 1776.28 1116.1 t 0 r /Helvetica findfont 56.3093 sf 0 0 m ( Other) show NC gr  1 0.84 0 c 3 lw 1682 1107 m 79 X 44 Y -79 X f black
 gsave  2268 1103 0 472 C 1314.45 1053.93 t 0 r /Helvetica findfont 56.3093 sf 0 0 m ( Uncertainty) show NC gr  0.6 0.6 0.6 c 3 lw 1298 1058 m -13 -14 d s 1298 1077 m -33 -33 d s 1290 1088 m -44 -44 d s 1271 1088 m -44 -44 d s 1252 1088 m -33 -33 d s
 1233 1088 m -14 -13 d s 1 0.84 0 c 0.6 0.6 0.6 c black
 gsave  2268 1103 0 472 C 894.061 1329.25 t 0 r /Helvetica findfont 41.4911 sf 0 0 m (\2551) show NC gr 
 gsave  2268 1103 0 472 C 399.663 1299.64 t 0 r /Helvetica findfont 62.2366 sf 0 0 m ( = 13 TeV,  139 fb) show NC gr 
 gsave  2268 1103 0 472 C 370.058 1299.64 t 0 r /Helvetica findfont 62.2366 sf 0 0 m (s) show NC gr  6 lw 349 1335 m 6 -38 d s 3 lw 355 1297 m 6 56 d s 361 1353 m 39 X s
 gsave  2268 1103 0 472 C 811.168 1201.95 t 0 r /Helvetica findfont 62.2366 sf 0 0 m (\)) show NC gr 
 gsave  2268 1103 0 472 C 784.523 1201.95 t 0 r /Helvetica-Oblique findfont 62.2366 sf 0 0 m (j) show NC gr 
 gsave  2268 1103 0 472 C 751.958 1201.95 t 0 r /Helvetica findfont 62.2366 sf 0 0 m (3) show NC gr 
 gsave  2268 1103 0 472 C 713.472 1201.95 t 0 r /Helvetica-Oblique findfont 62.2366 sf 0 0 m (b) show NC gr 
 gsave  2268 1103 0 472 C 337.493 1201.95 t 0 r /Helvetica findfont 62.2366 sf 0 0 m ( 2L\(SS\), VR\(1) show NC gr 
 gsave  2268 1103 0 472 C 337.493 1400.3 t 0 r /Helvetica-BoldOblique findfont 71.1276 sf 0 0 m (ATLAS) show NC gr 
 gsave  2268 1103 0 472 C 633.54 1400.3 t 0 r /Helvetica findfont 71.1276 sf 0 0 m (Internal) show NC gr 
 gr  gr showpage
end
%%EOF
