%!PS-Adobe-2.0 EPSF-2.0
%%BoundingBox:  0 0 567 394
%%Title: /lhome/ific/c/cardillo/tHq/Plots/Plots-30-05-22-PLIV-SF/2LSS_MM/EtMiss_CRttW.eps: EtMiss_CRttW
%%Creator: ROOT Version 6.20/06
%%CreationDate: Mon May 30 19:25:23 2022
%%DocumentNeededResources: ProcSet (FontSetInit)
%%EndComments
%%BeginProlog
80 dict begin
/s {stroke} def /l {lineto} def /m {moveto} def /t {translate} def
/r {rotate} def /rl {roll}  def /R {repeat} def
/d {rlineto} def /rm {rmoveto} def /gr {grestore} def /f {eofill} def
/c {setrgbcolor} def /black {0 setgray} def /sd {setdash} def
/cl {closepath} def /sf {scalefont setfont} def /lw {setlinewidth} def
/box {m dup 0 exch d exch 0 d 0 exch neg d cl} def
/NC{systemdict begin initclip end}def/C{NC box clip newpath}def
/bl {box s} def /bf {gsave box gsave f grestore 1 lw [] 0 sd s grestore} def /Y { 0 exch d} def /X { 0 d} def 
/K {{pop pop 0 moveto} exch kshow} bind def
/ita {/ang 15 def gsave [1 0 ang dup sin exch cos div 1 0 0] concat} def 
/mp {newpath /y exch def /x exch def} def
/side {[w .77 mul w .23 mul] .385 w mul sd w 0 l currentpoint t -144 r} def
/mr {mp x y w2 0 360 arc} def /m24 {mr s} def /m20 {mr f} def
/mb {mp x y w2 add m w2 neg 0 d 0 w neg d w 0 d 0 w d cl} def
/mt {mp x y w2 add m w2 neg w neg d w 0 d cl} def
/w4 {w 4 div} def
/w6 {w 6 div} def
/w8 {w 8 div} def
/m21 {mb f} def /m25 {mb s} def /m22 {mt f} def /m26{mt s} def
/m23 {mp x y w2 sub m w2 w d w neg 0 d cl f} def
/m27 {mp x y w2 add m w3 neg w2 neg d w3 w2 neg d w3 w2 d cl s} def
/m28 {mp x w2 sub y w2 sub w3 add m w3 0 d  0 w3 neg d w3 0 d 0 w3 d w3 0 d  0 w3 d w3 neg 0 d 0 w3 d w3 neg 0 d 0 w3 neg d w3 neg 0 d cl s } def
/m29 {mp gsave x w2 sub y w2 add w3 sub m currentpoint t 4 {side} repeat cl fill gr} def
/m30 {mp gsave x w2 sub y w2 add w3 sub m currentpoint t 4 {side} repeat cl s gr} def
/m31 {mp x y w2 sub m 0 w d x w2 sub y m w 0 d x w2 sub y w2 add m w w neg d x w2 sub y w2 sub m w w d s} def
/m32 {mp x y w2 sub m w2 w d w neg 0 d cl s} def
/m33 {mp x y w2 add m w3 neg w2 neg d w3 w2 neg d w3 w2 d cl f} def
/m34 {mp x w2 sub y w2 sub w3 add m w3 0 d  0 w3 neg d w3 0 d 0 w3 d w3 0 d  0 w3 d w3 neg 0 d 0 w3 d w3 neg 0 d 0 w3 neg d w3 neg 0 d cl f } def
/m35 {mp x y w2 add m w2 neg w2 neg d w2 w2 neg d w2 w2 d w2 neg w2 d x y w2 sub m 0 w d x w2 sub y m w 0 d s} def
/m36 {mb x w2 sub y w2 add m w w neg d x w2 sub y w2 sub m w w d s} def
/m37 {mp x y m w4 neg w2 d w4 neg w2 neg d w2 0 d  w4 neg w2 neg d w2 0 d w4 neg w2 d w2 0 d w4 neg w2 d w4 neg w2 neg d cl s} def
/m38 {mp x w4 sub y w2 add m w4 neg w4 neg d 0 w2 neg d w4 w4 neg d w2 0 d w4 w4 d 0 w2 d w4 neg w4 d w2 neg 0 d x y w2 sub m 0 w d x w2 sub y m w 0 d cl s} def
/m39 {mp x y m w4 neg w2 d w4 neg w2 neg d w2 0 d  w4 neg w2 neg d w2 0 d w4 neg w2 d w2 0 d w4 neg w2 d w4 neg w2 neg d cl f} def
/m40 {mp x y m w4 w2 d w4 w4 neg d w2 neg w4 neg d w2 w4 neg d w4 neg w4 neg d w4 neg w2 d w4 neg w2 neg d w4 neg w4 d w2 w4 d w2 neg w4 d w4 w4 d w4 w2 neg d cl s} def
/m41 {mp x y m w4 w2 d w4 w4 neg d w2 neg w4 neg d w2 w4 neg d w4 neg w4 neg d w4 neg w2 d w4 neg w2 neg d w4 neg w4 d w2 w4 d w2 neg w4 d w4 w4 d w4 w2 neg d cl f} def
/m42 {mp x y w2 add m w8 neg w2 -3 4 div mul d w2 -3 4 div mul w8 neg d w2 3 4 div mul w8 neg d w8 w2 -3 4 div mul d w8 w2 3 4 div mul d w2 3 4 div mul w8 d w2 -3 4 div mul w8 d w8 neg w2 3 4 div mul d cl s} def
/m43 {mp x y w2 add m w8 neg w2 -3 4 div mul d w2 -3 4 div mul w8 neg d w2 3 4 div mul w8 neg d w8 w2 -3 4 div mul d w8 w2 3 4 div mul d w2 3 4 div mul w8 d w2 -3 4 div mul w8 d w8 neg w2 3 4 div mul d cl f} def
/m44 {mp x y m w6 neg w2 d w2 2 3 div mul 0 d w6 neg w2 neg d w2 w6 d 0 w2 -2 3 div mul d w2 neg w6 d w6 w2 neg d w2 -2 3 div mul 0 d w6 w2 d w2 neg w6 neg d 0 w2 2 3 div mul d w2 w6 neg d cl s} def
/m45 {mp x y m w6 neg w2 d w2 2 3 div mul 0 d w6 neg w2 neg d w2 w6 d 0 w2 -2 3 div mul d w2 neg w6 d w6 w2 neg d w2 -2 3 div mul 0 d w6 w2 d w2 neg w6 neg d 0 w2 2 3 div mul d w2 w6 neg d cl f} def
/m46 {mp x y w4 add m w4 neg w4 d w4 neg w4 neg d  w4 w4 neg d w4 neg w4 neg d w4 w4 neg d w4 w4 d w4 w4 neg d w4 w4 d w4 neg w4 d w4 w4 d w4 neg w4 d w4 neg w4 neg d cl s} def
/m47 {mp x y w4 add m w4 neg w4 d w4 neg w4 neg d w4 w4 neg d w4 neg w4 neg d  w4 w4 neg d w4 w4 d w4 w4 neg d w4 w4 d w4 neg w4 d w4 w4 d w4 neg w4 d w4 neg w4 neg d cl f} def
/m48 {mp x y w4 add m w4 neg w4 d w4 neg w4 neg d w4 w4 neg d  w4 neg w4 neg d w4 w4 neg d w4 w4 d w4 w4 neg d w4 w4 d w4 neg w4 d w4 w4 d w4 neg w4 d w4 neg w4 neg d  w4 w4 neg d w4 neg w4 neg d w4 neg w4 d w4 w4 d cl f} def
/m49 {mp x w2 sub w3 add y w2 sub w3 add m  0 w3 neg d w3 0 d 0 w3 d w3 0 d 0 w3 d w3 neg 0 d 0 w3 d w3 neg 0 d 0 w3 neg d w3 neg 0 d 0 w3 neg d w3 0 d 0 w3 d w3 0 d 0 w3 neg d w3 neg 0 d cl f } def
/m2 {mp x y w2 sub m 0 w d x w2 sub y m w 0 d s} def
/m5 {mp x w2 sub y w2 sub m w w d x w2 sub y w2 add m w w neg d s} def
%%IncludeResource: ProcSet (FontSetInit)
%%IncludeResource: font Times-Roman
%%IncludeResource: font Times-Italic
%%IncludeResource: font Times-Bold
%%IncludeResource: font Times-BoldItalic
%%IncludeResource: font Helvetica
%%IncludeResource: font Helvetica-Oblique
%%IncludeResource: font Helvetica-Bold
%%IncludeResource: font Helvetica-BoldOblique
%%IncludeResource: font Courier
%%IncludeResource: font Courier-Oblique
%%IncludeResource: font Courier-Bold
%%IncludeResource: font Courier-BoldOblique
%%IncludeResource: font Symbol
%%IncludeResource: font ZapfDingbats
/reEncode {exch findfont dup length dict begin {1 index /FID eq  {pop pop} {def} ifelse } forall /Encoding exch def currentdict end dup /FontName get exch definefont pop } def [/Times-Bold /Times-Italic /Times-BoldItalic /Helvetica /Helvetica-Oblique
 /Helvetica-Bold /Helvetica-BoldOblique /Courier /Courier-Oblique /Courier-Bold /Courier-BoldOblique /Times-Roman /AvantGarde-Book /AvantGarde-BookOblique /AvantGarde-Demi /AvantGarde-DemiOblique /Bookman-Demi /Bookman-DemiItalic /Bookman-Light
 /Bookman-LightItalic /Helvetica-Narrow /Helvetica-Narrow-Bold /Helvetica-Narrow-BoldOblique /Helvetica-Narrow-Oblique /NewCenturySchlbk-Roman /NewCenturySchlbk-Bold /NewCenturySchlbk-BoldItalic /NewCenturySchlbk-Italic /Palatino-Bold
 /Palatino-BoldItalic /Palatino-Italic /Palatino-Roman ] {ISOLatin1Encoding reEncode } forall
%%EndProlog
%%BeginSetup
%%EndSetup
newpath  gsave  .25 .25 scale  gsave  0 0 t black[  ] 0 sd 3 lw 1 1 1 c 2268 1575 0 0 bf black 1 1 1 c 2268 472 0 0 bf black 1 1 1 c 1927 274 227 189 bf black 1927 274 227 189 bl 227 189 m 1927 X s 227 201 m -12 Y s 291 195 m -6 Y s 355 195 m -6 Y s
 420 195 m -6 Y s 484 195 m -6 Y s 548 201 m -12 Y s 612 195 m -6 Y s 677 195 m -6 Y s 741 195 m -6 Y s 805 195 m -6 Y s 869 201 m -12 Y s 934 195 m -6 Y s 998 195 m -6 Y s 1062 195 m -6 Y s 1126 195 m -6 Y s 1191 201 m -12 Y s 1255 195 m -6 Y s 1319
 195 m -6 Y s 1383 195 m -6 Y s 1448 195 m -6 Y s 1512 201 m -12 Y s 1576 195 m -6 Y s 1640 195 m -6 Y s 1705 195 m -6 Y s 1769 195 m -6 Y s 1833 201 m -12 Y s 1897 195 m -6 Y s 1962 195 m -6 Y s 2026 195 m -6 Y s 2090 195 m -6 Y s 2154 201 m -12 Y s
 gsave  2268 472 0 0 C 210.193 127.3 t 0 r /Helvetica findfont 53.4895 sf 0 0 m (0) show NC gr 
 gsave  2268 472 0 0 C 518.081 127.3 t 0 r /Helvetica findfont 53.4895 sf 0 0 m (50) show NC gr 
 gsave  2268 472 0 0 C 823.009 127.3 t 0 r /Helvetica findfont 53.4895 sf 0 0 m (100) show NC gr 
 gsave  2268 472 0 0 C 1145.7 127.3 t 0 r /Helvetica findfont 53.4895 sf 0 0 m (150) show NC gr 
 gsave  2268 472 0 0 C 1465.43 127.3 t 0 r /Helvetica findfont 53.4895 sf 0 0 m (200) show NC gr 
 gsave  2268 472 0 0 C 1788.12 127.3 t 0 r /Helvetica findfont 53.4895 sf 0 0 m (250) show NC gr 
 gsave  2268 472 0 0 C 2107.85 127.3 t 0 r /Helvetica findfont 53.4895 sf 0 0 m (300) show NC gr 
 gsave  2268 472 0 0 C 1995.35 41.4465 t 0 r /Helvetica findfont 56.4611 sf 0 0 m ( [GeV]) show NC gr 
 gsave  2268 472 0 0 C 1915.42 68.0907 t 0 r /Helvetica findfont 38.6313 sf 0 0 m (miss) show NC gr 
 gsave  2268 472 0 0 C 1915.42 23.6837 t 0 r /Helvetica findfont 38.6313 sf 0 0 m (T) show NC gr 
 gsave  2268 472 0 0 C 1871.01 41.4465 t 0 r /Helvetica-Oblique findfont 56.4611 sf 0 0 m (E) show NC gr  227 463 m 1927 X s 227 451 m 12 Y s 291 457 m 6 Y s 355 457 m 6 Y s 420 457 m 6 Y s 484 457 m 6 Y s 548 451 m 12 Y s 612 457 m 6 Y s 677 457 m 6
 Y s 741 457 m 6 Y s 805 457 m 6 Y s 869 451 m 12 Y s 934 457 m 6 Y s 998 457 m 6 Y s 1062 457 m 6 Y s 1126 457 m 6 Y s 1191 451 m 12 Y s 1255 457 m 6 Y s 1319 457 m 6 Y s 1383 457 m 6 Y s 1448 457 m 6 Y s 1512 451 m 12 Y s 1576 457 m 6 Y s 1640 457
 m 6 Y s 1705 457 m 6 Y s 1769 457 m 6 Y s 1833 451 m 12 Y s 1897 457 m 6 Y s 1962 457 m 6 Y s 2026 457 m 6 Y s 2090 457 m 6 Y s 2154 451 m 12 Y s 227 189 m 274 Y s 240 240 m -13 X s 240 326 m -13 X s 240 412 m -13 X s 240 240 m -13 X s 240 412 m -13
 X s
 gsave  2268 472 0 0 C 118.419 222.035 t 0 r /Helvetica findfont 53.4895 sf 0 0 m (0.5) show NC gr 
 gsave  2268 472 0 0 C 171.707 307.888 t 0 r /Helvetica findfont 53.4895 sf 0 0 m (1) show NC gr 
 gsave  2268 472 0 0 C 118.419 393.742 t 0 r /Helvetica findfont 53.4895 sf 0 0 m (1.5) show NC gr 
 gsave  2268 472 0 0 C 71.0512 230.916 t 90 r /Helvetica findfont 53.4895 sf 0 0 m (Data / SM) show NC gr  2154 189 m 274 Y s 2141 240 m 13 X s 2141 326 m 13 X s 2141 412 m 13 X s 2141 240 m 13 X s 2141 412 m 13 X s 227 189 m 1927 X s 227 463 m 1927
 X s 227 189 m 274 Y s[ 4 8] 0 sd 2154 240 m -1927 X s 2154 326 m -1927 X s 2154 412 m -1927 X s 2154 240 m -1927 X s 2154 412 m -1927 X s[  ] 0 sd 2154 189 m 274 Y s 1 1 0.6 c 193 0 227 326 bf 192 0 420 326 bf 193 0 612 326 bf 193 0 805 326 bf 193 0
 998 326 bf 192 0 1191 326 bf 193 0 1383 326 bf 193 0 1576 326 bf 193 0 1769 326 bf 192 0 1962 326 bf black 0.6 0.6 0.6 c 420 325 m -5 -5 d s 408 333 m -13 -13 d s 389 333 m -13 -13 d s 370 333 m -13 -13 d s 351 333 m -13 -13 d s 331 333 m -13 -13 d
 s 312 333 m -13 -13 d s 293 333 m -13 -13 d s 274 333 m -13 -13 d s 254 333 m -13 -13 d s 235 333 m -8 -9 d s 612 325 m -2 -2 d s 597 329 m -6 -6 d s 578 329 m -6 -6 d s 559 329 m -7 -6 d s 540 329 m -7 -6 d s 520 329 m -6 -6 d s 501 329 m -6 -6 d s
 482 329 m -7 -6 d s 463 329 m -7 -6 d s 443 329 m -6 -6 d s 424 329 m -4 -4 d s 805 325 m -2 -1 d s 789 328 m -5 -4 d s 770 328 m -5 -4 d s 751 328 m -5 -4 d s 731 328 m -5 -4 d s 712 328 m -5 -4 d s 693 328 m -5 -4 d s 674 328 m -5 -4 d s 654 328 m
 -5 -4 d s 635 328 m -5 -4 d s 616 328 m -4 -3 d s 998 326 m -3 -3 d s 982 329 m -6 -6 d s 963 329 m -6 -6 d s 943 329 m -5 -6 d s 924 329 m -6 -6 d s 905 329 m -6 -6 d s 886 329 m -6 -6 d s 866 329 m -5 -6 d s 847 329 m -6 -6 d s 828 329 m -6 -6 d s
 809 329 m -4 -4 d s 1191 326 m -4 -3 d s 1175 329 m -7 -6 d s 1155 329 m -6 -6 d s 1136 329 m -6 -6 d s 1117 329 m -6 -6 d s 1098 329 m -7 -6 d s 1078 329 m -6 -6 d s 1059 329 m -6 -6 d s 1040 329 m -6 -6 d s 1021 329 m -7 -6 d s 1001 329 m -3 -3 d
 s 1383 326 m -3 -3 d s 1367 330 m -7 -7 d s 1348 330 m -7 -7 d s 1329 330 m -7 -7 d s 1310 330 m -7 -7 d s 1290 330 m -7 -7 d s 1271 330 m -7 -7 d s 1252 330 m -7 -7 d s 1233 330 m -7 -7 d s 1213 330 m -7 -7 d s 1194 330 m -3 -4 d s 1576 327 m -5 -5
 d s 1560 330 m -8 -8 d s 1541 330 m -8 -8 d s 1522 330 m -8 -8 d s 1503 330 m -9 -8 d s 1483 330 m -8 -8 d s 1464 330 m -8 -8 d s 1445 330 m -8 -8 d s 1426 330 m -9 -8 d s 1407 330 m -9 -8 d s 1387 330 m -4 -4 d s 1769 327 m -7 -7 d s 1755 332 m -12
 -12 d s 1735 332 m -11 -12 d s 1716 332 m -12 -12 d s 1697 332 m -12 -12 d s 1678 332 m -12 -12 d s 1658 332 m -11 -12 d s 1639 332 m -12 -12 d s 1620 332 m -12 -12 d s 1601 332 m -12 -12 d s 1581 332 m -5 -5 d s 1962 327 m -10 -9 d s 1950 334 m -17
 -16 d s 1930 334 m -17 -16 d s 1911 334 m -17 -16 d s 1892 334 m -17 -16 d s 1873 334 m -17 -16 d s 1853 334 m -16 -16 d s 1834 334 m -17 -16 d s 1815 334 m -17 -16 d s 1796 334 m -17 -16 d s 1776 334 m -7 -7 d s 2154 328 m -4 -4 d s 2136 328 m -5
 -4 d s 2117 328 m -5 -4 d s 2097 328 m -4 -4 d s 2078 328 m -5 -4 d s 2059 328 m -5 -4 d s 2040 328 m -5 -4 d s 2020 328 m -4 -4 d s 2001 328 m -4 -4 d s 1982 328 m -5 -4 d s 1963 328 m -1 -1 d s black 1 1 1 c black 323 284 m 44 Y s 323 351 m 44 Y s
 /w 26 def /w2 {w 2 div} def /w3 {w 3 div} def 323 340 m20 516 270 m 14 Y s 516 308 m 14 Y s 516 296 m20 709 333 m 12 Y s 709 369 m 13 Y s 709 357 m20 901 306 m 13 Y s 901 342 m 13 Y s 901 330 m20 1094 261 m 12 Y s 1094 296 m 12 Y s 1094 284 m20 1287
 328 m 26 Y s 1287 378 m 26 Y s 1287 366 m20 1480 361 m 42 Y s 1480 426 m 37 Y s 1480 414 m20 1865 244 m 50 Y s 1865 318 m 50 Y s 1865 306 m20 2058 335 m 43 Y s 2058 402 m 43 Y s 2058 390 m20 227 326 m 1927 X s 227 189 m 1927 X s 227 201 m -12 Y s
 291 195 m -6 Y s 355 195 m -6 Y s 420 195 m -6 Y s 484 195 m -6 Y s 548 201 m -12 Y s 612 195 m -6 Y s 677 195 m -6 Y s 741 195 m -6 Y s 805 195 m -6 Y s 869 201 m -12 Y s 934 195 m -6 Y s 998 195 m -6 Y s 1062 195 m -6 Y s 1126 195 m -6 Y s 1191
 201 m -12 Y s 1255 195 m -6 Y s 1319 195 m -6 Y s 1383 195 m -6 Y s 1448 195 m -6 Y s 1512 201 m -12 Y s 1576 195 m -6 Y s 1640 195 m -6 Y s 1705 195 m -6 Y s 1769 195 m -6 Y s 1833 201 m -12 Y s 1897 195 m -6 Y s 1962 195 m -6 Y s 2026 195 m -6 Y s
 2090 195 m -6 Y s 2154 201 m -12 Y s 227 463 m 1927 X s 227 451 m 12 Y s 291 457 m 6 Y s 355 457 m 6 Y s 420 457 m 6 Y s 484 457 m 6 Y s 548 451 m 12 Y s 612 457 m 6 Y s 677 457 m 6 Y s 741 457 m 6 Y s 805 457 m 6 Y s 869 451 m 12 Y s 934 457 m 6 Y
 s 998 457 m 6 Y s 1062 457 m 6 Y s 1126 457 m 6 Y s 1191 451 m 12 Y s 1255 457 m 6 Y s 1319 457 m 6 Y s 1383 457 m 6 Y s 1448 457 m 6 Y s 1512 451 m 12 Y s 1576 457 m 6 Y s 1640 457 m 6 Y s 1705 457 m 6 Y s 1769 457 m 6 Y s 1833 451 m 12 Y s 1897
 457 m 6 Y s 1962 457 m 6 Y s 2026 457 m 6 Y s 2090 457 m 6 Y s 2154 451 m 12 Y s 227 189 m 274 Y s 240 240 m -13 X s 240 326 m -13 X s 240 412 m -13 X s 240 240 m -13 X s 240 412 m -13 X s 2154 189 m 274 Y s 2141 240 m 13 X s 2141 326 m 13 X s 2141
 412 m 13 X s 2141 240 m 13 X s 2141 412 m 13 X s 1 1 1 c 2268 1103 0 472 bf black 1 1 1 c 1927 1036 227 484 bf black 1927 1036 227 484 bl 1 1 1 c black 3 lw 227 484 m 1927 X s 227 502 m -18 Y s 291 493 m -9 Y s 355 493 m -9 Y s 420 493 m -9 Y s 484
 493 m -9 Y s 548 502 m -18 Y s 612 493 m -9 Y s 677 493 m -9 Y s 741 493 m -9 Y s 805 493 m -9 Y s 869 502 m -18 Y s 934 493 m -9 Y s 998 493 m -9 Y s 1062 493 m -9 Y s 1126 493 m -9 Y s 1191 502 m -18 Y s 1255 493 m -9 Y s 1319 493 m -9 Y s 1383
 493 m -9 Y s 1448 493 m -9 Y s 1512 502 m -18 Y s 1576 493 m -9 Y s 1640 493 m -9 Y s 1705 493 m -9 Y s 1769 493 m -9 Y s 1833 502 m -18 Y s 1897 493 m -9 Y s 1962 493 m -9 Y s 2026 493 m -9 Y s 2090 493 m -9 Y s 2154 502 m -18 Y s
 gsave  2268 1103 0 472 C 2069.37 396.702 t 0 r /Helvetica findfont 29.6365 sf 0 0 m ( [GeV]) show NC gr 
 gsave  2268 1103 0 472 C 2024.96 414.465 t 0 r /Helvetica findfont 20.7455 sf 0 0 m (miss) show NC gr 
 gsave  2268 1103 0 472 C 2024.96 387.821 t 0 r /Helvetica findfont 20.7455 sf 0 0 m (T) show NC gr 
 gsave  2268 1103 0 472 C 2001.27 396.702 t 0 r /Helvetica-Oblique findfont 29.6365 sf 0 0 m (E) show NC gr  227 1520 m 1927 X s 227 1501 m 19 Y s 291 1510 m 10 Y s 355 1510 m 10 Y s 420 1510 m 10 Y s 484 1510 m 10 Y s 548 1501 m 19 Y s 612 1510 m 10
 Y s 677 1510 m 10 Y s 741 1510 m 10 Y s 805 1510 m 10 Y s 869 1501 m 19 Y s 934 1510 m 10 Y s 998 1510 m 10 Y s 1062 1510 m 10 Y s 1126 1510 m 10 Y s 1191 1501 m 19 Y s 1255 1510 m 10 Y s 1319 1510 m 10 Y s 1383 1510 m 10 Y s 1448 1510 m 10 Y s 1512
 1501 m 19 Y s 1576 1510 m 10 Y s 1640 1510 m 10 Y s 1705 1510 m 10 Y s 1769 1510 m 10 Y s 1833 1501 m 19 Y s 1897 1510 m 10 Y s 1962 1510 m 10 Y s 2026 1510 m 10 Y s 2090 1510 m 10 Y s 2154 1501 m 19 Y s 227 484 m 1036 Y s 248 630 m -21 X s 237 666
 m -10 X s 237 703 m -10 X s 237 740 m -10 X s 248 776 m -21 X s 237 813 m -10 X s 237 849 m -10 X s 237 886 m -10 X s 248 923 m -21 X s 237 959 m -10 X s 237 996 m -10 X s 237 1032 m -10 X s 248 1069 m -21 X s 237 1106 m -10 X s 237 1142 m -10 X s
 237 1179 m -10 X s 248 1215 m -21 X s 237 1252 m -10 X s 237 1288 m -10 X s 237 1325 m -10 X s 248 1362 m -21 X s 237 1398 m -10 X s 237 1435 m -10 X s 237 1471 m -10 X s 248 1508 m -21 X s 248 630 m -21 X s 237 593 m -10 X s 237 557 m -10 X s 237
 520 m -10 X s 248 1508 m -21 X s
 gsave  2268 1103 0 472 C 145.063 609.856 t 0 r /Helvetica findfont 50.382 sf 0 0 m (20) show NC gr 
 gsave  2268 1103 0 472 C 145.063 757.879 t 0 r /Helvetica findfont 50.382 sf 0 0 m (40) show NC gr 
 gsave  2268 1103 0 472 C 145.063 902.942 t 0 r /Helvetica findfont 50.382 sf 0 0 m (60) show NC gr 
 gsave  2268 1103 0 472 C 145.063 1050.97 t 0 r /Helvetica findfont 50.382 sf 0 0 m (80) show NC gr 
 gsave  2268 1103 0 472 C 118.419 1196.03 t 0 r /Helvetica findfont 50.382 sf 0 0 m (100) show NC gr 
 gsave  2268 1103 0 472 C 118.419 1341.09 t 0 r /Helvetica findfont 50.382 sf 0 0 m (120) show NC gr 
 gsave  2268 1103 0 472 C 118.419 1489.11 t 0 r /Helvetica findfont 50.382 sf 0 0 m (140) show NC gr 
 gsave  2268 1103 0 472 C 62.1698 1154.58 t 90 r /Helvetica findfont 50.382 sf 0 0 m (Events / 30 GeV) show NC gr  2154 484 m 1036 Y s 2133 630 m 21 X s 2144 666 m 10 X s 2144 703 m 10 X s 2144 740 m 10 X s 2133 776 m 21 X s 2144 813 m 10 X s 2144
 849 m 10 X s 2144 886 m 10 X s 2133 923 m 21 X s 2144 959 m 10 X s 2144 996 m 10 X s 2144 1032 m 10 X s 2133 1069 m 21 X s 2144 1106 m 10 X s 2144 1142 m 10 X s 2144 1179 m 10 X s 2133 1215 m 21 X s 2144 1252 m 10 X s 2144 1288 m 10 X s 2144 1325 m
 10 X s 2133 1362 m 21 X s 2144 1398 m 10 X s 2144 1435 m 10 X s 2144 1471 m 10 X s 2133 1508 m 21 X s 2133 630 m 21 X s 2144 593 m 10 X s 2144 557 m 10 X s 2144 520 m 10 X s 2133 1508 m 21 X s 0.4 0.6 0.4 c black 3 lw 0.4 0.6 0.4 c 227 484 m 74 Y
 193 X 191 Y 192 X 149 Y 193 X -36 Y 193 X -89 Y 193 X -106 Y 192 X -68 Y 193 X -37 Y 193 X -29 Y 193 X 46 Y 192 X -95 Y f 0.06 0.54 0.06 c 0.999 0.999 0.999 c black 3 lw 0.999 0.999 0.999 c 227 484 m 69 Y 193 X 175 Y 192 X 127 Y 193 X -29 Y 193 X
 -81 Y 193 X -91 Y 192 X -62 Y 193 X -35 Y 193 X -27 Y 193 X 46 Y 192 X -92 Y f 0.06 0.54 0.06 c 0.999 0.999 0.999 c 0.06 0.54 0.06 c 1 1 1 c black 0.06 0.54 0.06 c black 3 lw 0.06 0.54 0.06 c 227 484 m 69 Y 193 X 175 Y 192 X 127 Y 193 X -29 Y 193 X
 -81 Y 193 X -91 Y 192 X -62 Y 193 X -35 Y 193 X -27 Y 193 X 46 Y 192 X -92 Y f 1 0.653333 0 c 0.999 0.999 0.999 c black 3 lw 0.999 0.999 0.999 c 227 484 m 67 Y 193 X 167 Y 192 X 126 Y 193 X -37 Y 193 X -76 Y 193 X -82 Y 192 X -59 Y 193 X -37 Y 193 X
 -26 Y 193 X 48 Y 192 X -91 Y f 1 0.653333 0 c 0.999 0.999 0.999 c 1 0.653333 0 c 1 1 1 c black 1 0.653333 0 c black 3 lw 1 0.653333 0 c 227 484 m 67 Y 193 X 167 Y 192 X 126 Y 193 X -37 Y 193 X -76 Y 193 X -82 Y 192 X -59 Y 193 X -37 Y 193 X -26 Y
 193 X 48 Y 192 X -91 Y f 0.413333 1 0 c 0.999 0.999 0.999 c black 3 lw 0.999 0.999 0.999 c 227 484 m 67 Y 193 X 167 Y 192 X 125 Y 193 X -36 Y 193 X -76 Y 193 X -82 Y 192 X -59 Y 193 X -37 Y 193 X -26 Y 193 X 48 Y 192 X -91 Y f 0.413333 1 0 c 0.999
 0.999 0.999 c 0.413333 1 0 c 1 1 1 c black 0.413333 1 0 c black 3 lw 0.413333 1 0 c 227 484 m 67 Y 193 X 167 Y 192 X 125 Y 193 X -36 Y 193 X -76 Y 193 X -82 Y 192 X -59 Y 193 X -37 Y 193 X -26 Y 193 X 48 Y 192 X -91 Y f 0.6 0.2 1 c 0.999 0.999 0.999
 c black 3 lw 0.999 0.999 0.999 c 227 484 m 63 Y 193 X 161 Y 192 X 118 Y 193 X -35 Y 193 X -75 Y 193 X -75 Y 192 X -57 Y 193 X -35 Y 193 X -26 Y 193 X 40 Y 192 X -79 Y f 0.6 0.2 1 c 0.999 0.999 0.999 c 0.6 0.2 1 c 1 1 1 c black 0.6 0.2 1 c black 3 lw
 0.6 0.2 1 c 227 484 m 63 Y 193 X 161 Y 192 X 118 Y 193 X -35 Y 193 X -75 Y 193 X -75 Y 192 X -57 Y 193 X -35 Y 193 X -26 Y 193 X 40 Y 192 X -79 Y f 0.54 0.06 0.06 c 0.999 0.999 0.999 c black 3 lw 0.999 0.999 0.999 c 227 484 m 55 Y 193 X 137 Y 192 X
 107 Y 193 X -26 Y 193 X -65 Y 193 X -66 Y 192 X -52 Y 193 X -30 Y 193 X -24 Y 193 X 36 Y 192 X -72 Y f 0.54 0.06 0.06 c 0.999 0.999 0.999 c 0.54 0.06 0.06 c 1 1 1 c black 0.54 0.06 0.06 c black 3 lw 0.54 0.06 0.06 c 227 484 m 55 Y 193 X 137 Y 192 X
 107 Y 193 X -26 Y 193 X -65 Y 193 X -66 Y 192 X -52 Y 193 X -30 Y 193 X -24 Y 193 X 36 Y 192 X -72 Y f 1 0 1 c 0.999 0.999 0.999 c black 3 lw 0.999 0.999 0.999 c 227 484 m 8 Y 193 X 24 Y 192 X 22 Y 193 X -6 Y 193 X -13 Y 193 X -12 Y 192 X -9 Y 193 X
 -5 Y 193 X -4 Y 193 X 4 Y 192 X -9 Y f 1 0 1 c 0.999 0.999 0.999 c 1 0 1 c 1 1 1 c black 1 0 1 c black 3 lw 1 0 1 c 227 484 m 8 Y 193 X 24 Y 192 X 22 Y 193 X -6 Y 193 X -13 Y 193 X -12 Y 192 X -9 Y 193 X -5 Y 193 X -4 Y 193 X 4 Y 192 X -9 Y f 0 0 1
 c 0.999 0.999 0.999 c black 3 lw 0.999 0.999 0.999 c 227 484 m 7 Y 193 X 23 Y 192 X 20 Y 193 X -5 Y 193 X -12 Y 193 X -11 Y 192 X -9 Y 193 X -5 Y 193 X -4 Y 193 X 5 Y 192 X -9 Y f 0 0 1 c 0.999 0.999 0.999 c 0 0 1 c 1 1 1 c black 0 0 1 c black 3 lw
 0 0 1 c 227 484 m 7 Y 193 X 23 Y 192 X 20 Y 193 X -5 Y 193 X -12 Y 193 X -11 Y 192 X -9 Y 193 X -5 Y 193 X -4 Y 193 X 5 Y 192 X -9 Y f 0.2 0.8 0.8 c 0.999 0.999 0.999 c black 3 lw 0.999 0.999 0.999 c 227 484 m 1 Y 193 X 3 Y 192 X 3 Y 386 X -2 Y 193
 X -2 Y 192 X -1 Y 193 X -1 Y 193 X -1 Y 193 X 2 Y 192 X -2 Y f 0.2 0.8 0.8 c 0.999 0.999 0.999 c 0.2 0.8 0.8 c 1 1 1 c black 0.2 0.8 0.8 c black 3 lw 0.2 0.8 0.8 c 227 484 m 1 Y 193 X 3 Y 192 X 3 Y 386 X -2 Y 193 X -2 Y 192 X -1 Y 193 X -1 Y 193 X
 -1 Y 193 X 2 Y 192 X -2 Y f 1 0 0 c 0.999 0.999 0.999 c black 3 lw 0.999 0.999 0.999 c 227 484 m 193 X 1 Y 192 X 1 Y 579 X -1 Y 385 X -1 Y 386 X 1 Y 192 X -1 Y f 1 0 0 c 0.999 0.999 0.999 c 1 0 0 c 1 1 1 c black 1 0 0 c black 3 lw 1 0 0 c 227 484 m
 193 X 1 Y 192 X 1 Y 579 X -1 Y 385 X -1 Y 386 X 1 Y 192 X -1 Y f 1 0.84 0 c 0.999 0.999 0.999 c black 3 lw 0.999 0.999 0.999 c 227 484 m 193 X 1 Y 385 X 1 Y 193 X -1 Y 578 X -1 Y 578 X f 1 0.84 0 c 0.999 0.999 0.999 c 1 0.84 0 c 1 1 1 c black 1 0.84
 0 c black 3 lw 1 0.84 0 c 227 484 m 193 X 1 Y 385 X 1 Y 193 X -1 Y 578 X -1 Y 578 X f black 1 1 1 c black 0.6 0.6 0.6 c 3 lw 416 561 m -6 -6 d s 396 561 m -5 -6 d s 377 561 m -6 -6 d s 358 561 m -6 -6 d s 339 561 m -6 -6 d s 319 561 m -5 -6 d s 300
 561 m -6 -6 d s 281 561 m -6 -6 d s 262 561 m -6 -6 d s 242 561 m -5 -6 d s 3 lw 610 754 m -11 -10 d s 590 754 m -10 -10 d s 571 754 m -10 -10 d s 552 754 m -10 -10 d s 533 754 m -11 -10 d s 513 754 m -10 -10 d s 494 754 m -10 -10 d s 475 754 m -10
 -10 d s 456 754 m -11 -10 d s 436 754 m -10 -10 d s 3 lw 798 904 m -12 -12 d s 779 904 m -12 -12 d s 759 904 m -12 -12 d s 740 904 m -12 -12 d s 721 904 m -12 -12 d s 702 904 m -12 -12 d s 682 904 m -12 -12 d s 663 904 m -12 -12 d s 644 904 m -12
 -12 d s 625 904 m -12 -12 d s 3 lw 992 868 m -12 -13 d s 973 868 m -12 -13 d s 954 868 m -13 -13 d s 935 868 m -13 -13 d s 915 868 m -12 -13 d s 896 868 m -12 -13 d s 877 868 m -13 -13 d s 858 868 m -13 -13 d s 839 868 m -13 -13 d s 819 868 m -12
 -13 d s 3 lw 1191 777 m -10 -9 d s 1173 779 m -11 -11 d s 1154 779 m -11 -11 d s 1134 779 m -11 -11 d s 1115 779 m -11 -11 d s 1096 779 m -11 -11 d s 1077 779 m -11 -11 d s 1057 779 m -11 -11 d s 1038 779 m -11 -11 d s 1019 779 m -11 -11 d s 1000
 779 m -2 -2 d s 3 lw 1373 671 m -8 -8 d s 1353 671 m -7 -8 d s 1334 671 m -7 -8 d s 1315 671 m -8 -8 d s 1296 671 m -8 -8 d s 1276 671 m -7 -8 d s 1257 671 m -7 -8 d s 1238 671 m -8 -8 d s 1219 671 m -8 -8 d s 1199 671 m -7 -8 d s 3 lw 1573 602 m -6
 -6 d s 1554 602 m -6 -6 d s 1535 602 m -6 -6 d s 1515 602 m -5 -6 d s 1496 602 m -6 -6 d s 1477 602 m -6 -6 d s 1458 602 m -6 -6 d s 1438 602 m -5 -6 d s 1419 602 m -6 -6 d s 1400 602 m -6 -6 d s 3 lw 1767 565 m -6 -6 d s 1747 565 m -5 -6 d s 1728
 565 m -5 -6 d s 1709 565 m -6 -6 d s 1690 565 m -6 -6 d s 1670 565 m -5 -6 d s 1651 565 m -5 -6 d s 1632 565 m -6 -6 d s 1613 565 m -6 -6 d s 1593 565 m -5 -6 d s 3 lw 1949 536 m -5 -5 d s 1930 536 m -5 -5 d s 1911 536 m -5 -5 d s 1891 536 m -5 -5 d
 s 1872 536 m -5 -5 d s 1853 536 m -5 -5 d s 1834 536 m -5 -5 d s 1814 536 m -5 -5 d s 1795 536 m -5 -5 d s 1776 536 m -5 -5 d s 3 lw 2148 581 m -3 -3 d s 2129 581 m -3 -3 d s 2110 581 m -3 -3 d s 2090 581 m -2 -3 d s 2071 581 m -3 -3 d s 2052 581 m
 -3 -3 d s 2033 581 m -3 -3 d s 2013 581 m -2 -3 d s 1994 581 m -3 -3 d s 1975 581 m -3 -3 d s black 3 lw 1 1 1 c black 323 540 m 12 Y s 323 576 m 12 Y s /w 24 def /w2 {w 2 div} def /w3 {w 3 div} def 323 564 m20 516 663 m 28 Y s 516 715 m 28 Y s 516
 703 m20 709 914 m 48 Y s 709 986 m 48 Y s 709 974 m20 901 818 m 41 Y s 901 883 m 42 Y s 901 871 m20 1094 663 m 28 Y s 1094 715 m 28 Y s 1094 703 m20 1287 670 m 28 Y s 1287 722 m 29 Y s 1287 710 m20 1480 623 m 24 Y s 1480 671 m 24 Y s 1480 659 m20
 1672 597 m 21 Y s 1672 642 m 21 Y s 1672 630 m20 1865 509 m 7 Y s 1865 539 m 6 Y s 1865 527 m20 2058 584 m 19 Y s 2058 627 m 19 Y s 2058 615 m20 227 484 m 1927 X s 227 502 m -18 Y s 291 493 m -9 Y s 355 493 m -9 Y s 420 493 m -9 Y s 484 493 m -9 Y s
 548 502 m -18 Y s 612 493 m -9 Y s 677 493 m -9 Y s 741 493 m -9 Y s 805 493 m -9 Y s 869 502 m -18 Y s 934 493 m -9 Y s 998 493 m -9 Y s 1062 493 m -9 Y s 1126 493 m -9 Y s 1191 502 m -18 Y s 1255 493 m -9 Y s 1319 493 m -9 Y s 1383 493 m -9 Y s
 1448 493 m -9 Y s 1512 502 m -18 Y s 1576 493 m -9 Y s 1640 493 m -9 Y s 1705 493 m -9 Y s 1769 493 m -9 Y s 1833 502 m -18 Y s 1897 493 m -9 Y s 1962 493 m -9 Y s 2026 493 m -9 Y s 2090 493 m -9 Y s 2154 502 m -18 Y s 227 1520 m 1927 X s 227 1501 m
 19 Y s 291 1510 m 10 Y s 355 1510 m 10 Y s 420 1510 m 10 Y s 484 1510 m 10 Y s 548 1501 m 19 Y s 612 1510 m 10 Y s 677 1510 m 10 Y s 741 1510 m 10 Y s 805 1510 m 10 Y s 869 1501 m 19 Y s 934 1510 m 10 Y s 998 1510 m 10 Y s 1062 1510 m 10 Y s 1126
 1510 m 10 Y s 1191 1501 m 19 Y s 1255 1510 m 10 Y s 1319 1510 m 10 Y s 1383 1510 m 10 Y s 1448 1510 m 10 Y s 1512 1501 m 19 Y s 1576 1510 m 10 Y s 1640 1510 m 10 Y s 1705 1510 m 10 Y s 1769 1510 m 10 Y s 1833 1501 m 19 Y s 1897 1510 m 10 Y s 1962
 1510 m 10 Y s 2026 1510 m 10 Y s 2090 1510 m 10 Y s 2154 1501 m 19 Y s 227 484 m 1036 Y s 248 630 m -21 X s 237 666 m -10 X s 237 703 m -10 X s 237 740 m -10 X s 248 776 m -21 X s 237 813 m -10 X s 237 849 m -10 X s 237 886 m -10 X s 248 923 m -21 X
 s 237 959 m -10 X s 237 996 m -10 X s 237 1032 m -10 X s 248 1069 m -21 X s 237 1106 m -10 X s 237 1142 m -10 X s 237 1179 m -10 X s 248 1215 m -21 X s 237 1252 m -10 X s 237 1288 m -10 X s 237 1325 m -10 X s 248 1362 m -21 X s 237 1398 m -10 X s
 237 1435 m -10 X s 237 1471 m -10 X s 248 1508 m -21 X s 248 630 m -21 X s 237 593 m -10 X s 237 557 m -10 X s 237 520 m -10 X s 248 1508 m -21 X s 2154 484 m 1036 Y s 2133 630 m 21 X s 2144 666 m 10 X s 2144 703 m 10 X s 2144 740 m 10 X s 2133 776
 m 21 X s 2144 813 m 10 X s 2144 849 m 10 X s 2144 886 m 10 X s 2133 923 m 21 X s 2144 959 m 10 X s 2144 996 m 10 X s 2144 1032 m 10 X s 2133 1069 m 21 X s 2144 1106 m 10 X s 2144 1142 m 10 X s 2144 1179 m 10 X s 2133 1215 m 21 X s 2144 1252 m 10 X s
 2144 1288 m 10 X s 2144 1325 m 10 X s 2133 1362 m 21 X s 2144 1398 m 10 X s 2144 1435 m 10 X s 2144 1471 m 10 X s 2133 1508 m 21 X s 2133 630 m 21 X s 2144 593 m 10 X s 2144 557 m 10 X s 2144 520 m 10 X s 2133 1508 m 21 X s
 gsave  2268 1103 0 472 C 1314.45 1432.87 t 0 r /Helvetica findfont 56.3093 sf 0 0 m ( Data) show NC gr  1259 1456 m 7 Y s 1259 1432 m -7 Y s 1259 1444 m20
 gsave  2268 1103 0 472 C 1776.28 1432.87 t 0 r /Helvetica findfont 56.3093 sf 0 0 m ( Fakes \(MM\)) show NC gr  0.4 0.6 0.4 c 1682 1422 m 79 X 44 Y -79 X f black
 gsave  2268 1103 0 472 C 1403.26 1367.74 t 0 r /Helvetica findfont 56.3093 sf 0 0 m (single\255top) show NC gr 
 gsave  2268 1103 0 472 C 1373.66 1367.74 t 0 r /Helvetica-Oblique findfont 56.3093 sf 0 0 m (/) show NC gr 
 gsave  2268 1103 0 472 C 1352.93 1367.74 t 0 r /Helvetica-Oblique findfont 56.3093 sf 0 0 m (t) show NC gr  6 lw 1353 1412 m 21 X s
 gsave  2268 1103 0 472 C 1332.21 1367.74 t 0 r /Helvetica-Oblique findfont 56.3093 sf 0 0 m (t) show NC gr 
 gsave  2268 1103 0 472 C 1314.45 1367.74 t 0 r /Helvetica findfont 56.3093 sf 0 0 m ( ) show NC gr  0.06 0.54 0.06 c 3 lw 1219 1359 m 79 X 44 Y -79 X f 6 lw black
 gsave  2268 1103 0 472 C 1906.54 1367.74 t 0 r /Helvetica findfont 56.3093 sf 0 0 m (+jets) show NC gr 
 gsave  2268 1103 0 472 C 1794.04 1367.74 t 0 r /Helvetica-Oblique findfont 56.3093 sf 0 0 m (W/Z) show NC gr 
 gsave  2268 1103 0 472 C 1776.28 1367.74 t 0 r /Helvetica findfont 56.3093 sf 0 0 m ( ) show NC gr  1 0.653333 0 c 3 lw 1682 1359 m 79 X 44 Y -79 X f black
 gsave  2268 1103 0 472 C 1512.8 1305.57 t 0 r /Helvetica findfont 56.3093 sf 0 0 m (+jets) show NC gr 
 gsave  2268 1103 0 472 C 1332.21 1305.57 t 0 r /Helvetica-Oblique findfont 56.3093 sf 0 0 m (WZ/ZZ) show NC gr 
 gsave  2268 1103 0 472 C 1314.45 1305.57 t 0 r /Helvetica findfont 56.3093 sf 0 0 m ( ) show NC gr  0.413333 1 0 c 3 lw 1219 1296 m 79 X 44 Y -79 X f black
 gsave  2268 1103 0 472 C 1835.49 1305.57 t 0 r /Helvetica-Oblique findfont 56.3093 sf 0 0 m (Z) show NC gr 
 gsave  2268 1103 0 472 C 1814.77 1305.57 t 0 r /Helvetica-Oblique findfont 56.3093 sf 0 0 m (t) show NC gr  6 lw 1815 1350 m 20 X s
 gsave  2268 1103 0 472 C 1794.04 1305.57 t 0 r /Helvetica-Oblique findfont 56.3093 sf 0 0 m (t) show NC gr 
 gsave  2268 1103 0 472 C 1776.28 1305.57 t 0 r /Helvetica findfont 56.3093 sf 0 0 m ( ) show NC gr  0.6 0.2 1 c 3 lw 1682 1296 m 79 X 44 Y -79 X f 6 lw black
 gsave  2268 1103 0 472 C 1373.66 1243.4 t 0 r /Helvetica-Oblique findfont 56.3093 sf 0 0 m (W) show NC gr 
 gsave  2268 1103 0 472 C 1352.93 1243.4 t 0 r /Helvetica-Oblique findfont 56.3093 sf 0 0 m (t) show NC gr  6 lw 1353 1288 m 21 X s
 gsave  2268 1103 0 472 C 1332.21 1243.4 t 0 r /Helvetica-Oblique findfont 56.3093 sf 0 0 m (t) show NC gr 
 gsave  2268 1103 0 472 C 1314.45 1243.4 t 0 r /Helvetica findfont 56.3093 sf 0 0 m ( ) show NC gr  0.54 0.06 0.06 c 3 lw 1219 1233 m 79 X 44 Y -79 X f 6 lw black
 gsave  2268 1103 0 472 C 1794.04 1243.4 t 0 r /Helvetica-Oblique findfont 56.3093 sf 0 0 m (tZq) show NC gr 
 gsave  2268 1103 0 472 C 1776.28 1243.4 t 0 r /Helvetica findfont 56.3093 sf 0 0 m ( ) show NC gr  1 0 1 c 3 lw 1682 1233 m 79 X 44 Y -79 X f black
 gsave  2268 1103 0 472 C 1373.66 1178.27 t 0 r /Helvetica-Oblique findfont 56.3093 sf 0 0 m (H) show NC gr 
 gsave  2268 1103 0 472 C 1352.93 1178.27 t 0 r /Helvetica-Oblique findfont 56.3093 sf 0 0 m (t) show NC gr  6 lw 1353 1223 m 21 X s
 gsave  2268 1103 0 472 C 1332.21 1178.27 t 0 r /Helvetica-Oblique findfont 56.3093 sf 0 0 m (t) show NC gr 
 gsave  2268 1103 0 472 C 1314.45 1178.27 t 0 r /Helvetica findfont 56.3093 sf 0 0 m ( ) show NC gr  0 0 1 c 3 lw 1219 1170 m 79 X 44 Y -79 X f 6 lw black
 gsave  2268 1103 0 472 C 1794.04 1178.27 t 0 r /Helvetica-Oblique findfont 56.3093 sf 0 0 m (tWZ/tWH) show NC gr 
 gsave  2268 1103 0 472 C 1776.28 1178.27 t 0 r /Helvetica findfont 56.3093 sf 0 0 m ( ) show NC gr  0.2 0.8 0.8 c 3 lw 1682 1170 m 79 X 44 Y -79 X f black
 gsave  2268 1103 0 472 C 1332.21 1116.1 t 0 r /Helvetica-Oblique findfont 56.3093 sf 0 0 m (tHq) show NC gr 
 gsave  2268 1103 0 472 C 1314.45 1116.1 t 0 r /Helvetica findfont 56.3093 sf 0 0 m ( ) show NC gr  1 0 0 c 3 lw 1219 1107 m 79 X 44 Y -79 X f black
 gsave  2268 1103 0 472 C 1776.28 1116.1 t 0 r /Helvetica findfont 56.3093 sf 0 0 m ( Other) show NC gr  1 0.84 0 c 3 lw 1682 1107 m 79 X 44 Y -79 X f black
 gsave  2268 1103 0 472 C 1314.45 1053.93 t 0 r /Helvetica findfont 56.3093 sf 0 0 m ( Uncertainty) show NC gr  0.6 0.6 0.6 c 3 lw 1298 1058 m -13 -14 d s 1298 1077 m -33 -33 d s 1290 1088 m -44 -44 d s 1271 1088 m -44 -44 d s 1252 1088 m -33 -33 d s
 1233 1088 m -14 -13 d s 1 0.84 0 c 0.6 0.6 0.6 c black
 gsave  2268 1103 0 472 C 894.061 1329.25 t 0 r /Helvetica findfont 41.4911 sf 0 0 m (\2551) show NC gr 
 gsave  2268 1103 0 472 C 399.663 1299.64 t 0 r /Helvetica findfont 62.2366 sf 0 0 m ( = 13 TeV,  139 fb) show NC gr 
 gsave  2268 1103 0 472 C 370.058 1299.64 t 0 r /Helvetica findfont 62.2366 sf 0 0 m (s) show NC gr  6 lw 349 1335 m 6 -38 d s 3 lw 355 1297 m 6 56 d s 361 1353 m 39 X s
 gsave  2268 1103 0 472 C 808.207 1201.95 t 0 r /Helvetica findfont 62.2366 sf 0 0 m (\)) show NC gr 
 gsave  2268 1103 0 472 C 740.116 1201.95 t 0 r /Helvetica-Oblique findfont 62.2366 sf 0 0 m (W) show NC gr 
 gsave  2268 1103 0 472 C 716.433 1201.95 t 0 r /Helvetica-Oblique findfont 62.2366 sf 0 0 m (t) show NC gr  6 lw 716 1252 m 24 X s
 gsave  2268 1103 0 472 C 692.749 1201.95 t 0 r /Helvetica-Oblique findfont 62.2366 sf 0 0 m (t) show NC gr 
 gsave  2268 1103 0 472 C 337.493 1201.95 t 0 r /Helvetica findfont 62.2366 sf 0 0 m ( 2L\(SS\), CR\() show NC gr 
 gsave  2268 1103 0 472 C 337.493 1400.3 t 0 r /Helvetica-BoldOblique findfont 71.1276 sf 0 0 m (ATLAS) show NC gr 
 gsave  2268 1103 0 472 C 633.54 1400.3 t 0 r /Helvetica findfont 71.1276 sf 0 0 m (Internal) show NC gr 
 gr  gr showpage
end
%%EOF
