%!PS-Adobe-2.0 EPSF-2.0
%%BoundingBox:  0 0 567 394
%%Title: : EtMiss_CRttbar
%%Creator: ROOT Version 6.20/06
%%CreationDate: Mon May 30 19:25:22 2022
%%DocumentNeededResources: ProcSet (FontSetInit)
%%EndComments
%%BeginProlog
80 dict begin
/s {stroke} def /l {lineto} def /m {moveto} def /t {translate} def
/r {rotate} def /rl {roll}  def /R {repeat} def
/d {rlineto} def /rm {rmoveto} def /gr {grestore} def /f {eofill} def
/c {setrgbcolor} def /black {0 setgray} def /sd {setdash} def
/cl {closepath} def /sf {scalefont setfont} def /lw {setlinewidth} def
/box {m dup 0 exch d exch 0 d 0 exch neg d cl} def
/NC{systemdict begin initclip end}def/C{NC box clip newpath}def
/bl {box s} def /bf {gsave box gsave f grestore 1 lw [] 0 sd s grestore} def /Y { 0 exch d} def /X { 0 d} def 
/K {{pop pop 0 moveto} exch kshow} bind def
/ita {/ang 15 def gsave [1 0 ang dup sin exch cos div 1 0 0] concat} def 
/mp {newpath /y exch def /x exch def} def
/side {[w .77 mul w .23 mul] .385 w mul sd w 0 l currentpoint t -144 r} def
/mr {mp x y w2 0 360 arc} def /m24 {mr s} def /m20 {mr f} def
/mb {mp x y w2 add m w2 neg 0 d 0 w neg d w 0 d 0 w d cl} def
/mt {mp x y w2 add m w2 neg w neg d w 0 d cl} def
/w4 {w 4 div} def
/w6 {w 6 div} def
/w8 {w 8 div} def
/m21 {mb f} def /m25 {mb s} def /m22 {mt f} def /m26{mt s} def
/m23 {mp x y w2 sub m w2 w d w neg 0 d cl f} def
/m27 {mp x y w2 add m w3 neg w2 neg d w3 w2 neg d w3 w2 d cl s} def
/m28 {mp x w2 sub y w2 sub w3 add m w3 0 d  0 w3 neg d w3 0 d 0 w3 d w3 0 d  0 w3 d w3 neg 0 d 0 w3 d w3 neg 0 d 0 w3 neg d w3 neg 0 d cl s } def
/m29 {mp gsave x w2 sub y w2 add w3 sub m currentpoint t 4 {side} repeat cl fill gr} def
/m30 {mp gsave x w2 sub y w2 add w3 sub m currentpoint t 4 {side} repeat cl s gr} def
/m31 {mp x y w2 sub m 0 w d x w2 sub y m w 0 d x w2 sub y w2 add m w w neg d x w2 sub y w2 sub m w w d s} def
/m32 {mp x y w2 sub m w2 w d w neg 0 d cl s} def
/m33 {mp x y w2 add m w3 neg w2 neg d w3 w2 neg d w3 w2 d cl f} def
/m34 {mp x w2 sub y w2 sub w3 add m w3 0 d  0 w3 neg d w3 0 d 0 w3 d w3 0 d  0 w3 d w3 neg 0 d 0 w3 d w3 neg 0 d 0 w3 neg d w3 neg 0 d cl f } def
/m35 {mp x y w2 add m w2 neg w2 neg d w2 w2 neg d w2 w2 d w2 neg w2 d x y w2 sub m 0 w d x w2 sub y m w 0 d s} def
/m36 {mb x w2 sub y w2 add m w w neg d x w2 sub y w2 sub m w w d s} def
/m37 {mp x y m w4 neg w2 d w4 neg w2 neg d w2 0 d  w4 neg w2 neg d w2 0 d w4 neg w2 d w2 0 d w4 neg w2 d w4 neg w2 neg d cl s} def
/m38 {mp x w4 sub y w2 add m w4 neg w4 neg d 0 w2 neg d w4 w4 neg d w2 0 d w4 w4 d 0 w2 d w4 neg w4 d w2 neg 0 d x y w2 sub m 0 w d x w2 sub y m w 0 d cl s} def
/m39 {mp x y m w4 neg w2 d w4 neg w2 neg d w2 0 d  w4 neg w2 neg d w2 0 d w4 neg w2 d w2 0 d w4 neg w2 d w4 neg w2 neg d cl f} def
/m40 {mp x y m w4 w2 d w4 w4 neg d w2 neg w4 neg d w2 w4 neg d w4 neg w4 neg d w4 neg w2 d w4 neg w2 neg d w4 neg w4 d w2 w4 d w2 neg w4 d w4 w4 d w4 w2 neg d cl s} def
/m41 {mp x y m w4 w2 d w4 w4 neg d w2 neg w4 neg d w2 w4 neg d w4 neg w4 neg d w4 neg w2 d w4 neg w2 neg d w4 neg w4 d w2 w4 d w2 neg w4 d w4 w4 d w4 w2 neg d cl f} def
/m42 {mp x y w2 add m w8 neg w2 -3 4 div mul d w2 -3 4 div mul w8 neg d w2 3 4 div mul w8 neg d w8 w2 -3 4 div mul d w8 w2 3 4 div mul d w2 3 4 div mul w8 d w2 -3 4 div mul w8 d w8 neg w2 3 4 div mul d cl s} def
/m43 {mp x y w2 add m w8 neg w2 -3 4 div mul d w2 -3 4 div mul w8 neg d w2 3 4 div mul w8 neg d w8 w2 -3 4 div mul d w8 w2 3 4 div mul d w2 3 4 div mul w8 d w2 -3 4 div mul w8 d w8 neg w2 3 4 div mul d cl f} def
/m44 {mp x y m w6 neg w2 d w2 2 3 div mul 0 d w6 neg w2 neg d w2 w6 d 0 w2 -2 3 div mul d w2 neg w6 d w6 w2 neg d w2 -2 3 div mul 0 d w6 w2 d w2 neg w6 neg d 0 w2 2 3 div mul d w2 w6 neg d cl s} def
/m45 {mp x y m w6 neg w2 d w2 2 3 div mul 0 d w6 neg w2 neg d w2 w6 d 0 w2 -2 3 div mul d w2 neg w6 d w6 w2 neg d w2 -2 3 div mul 0 d w6 w2 d w2 neg w6 neg d 0 w2 2 3 div mul d w2 w6 neg d cl f} def
/m46 {mp x y w4 add m w4 neg w4 d w4 neg w4 neg d  w4 w4 neg d w4 neg w4 neg d w4 w4 neg d w4 w4 d w4 w4 neg d w4 w4 d w4 neg w4 d w4 w4 d w4 neg w4 d w4 neg w4 neg d cl s} def
/m47 {mp x y w4 add m w4 neg w4 d w4 neg w4 neg d w4 w4 neg d w4 neg w4 neg d  w4 w4 neg d w4 w4 d w4 w4 neg d w4 w4 d w4 neg w4 d w4 w4 d w4 neg w4 d w4 neg w4 neg d cl f} def
/m48 {mp x y w4 add m w4 neg w4 d w4 neg w4 neg d w4 w4 neg d  w4 neg w4 neg d w4 w4 neg d w4 w4 d w4 w4 neg d w4 w4 d w4 neg w4 d w4 w4 d w4 neg w4 d w4 neg w4 neg d  w4 w4 neg d w4 neg w4 neg d w4 neg w4 d w4 w4 d cl f} def
/m49 {mp x w2 sub w3 add y w2 sub w3 add m  0 w3 neg d w3 0 d 0 w3 d w3 0 d 0 w3 d w3 neg 0 d 0 w3 d w3 neg 0 d 0 w3 neg d w3 neg 0 d 0 w3 neg d w3 0 d 0 w3 d w3 0 d 0 w3 neg d w3 neg 0 d cl f } def
/m2 {mp x y w2 sub m 0 w d x w2 sub y m w 0 d s} def
/m5 {mp x w2 sub y w2 sub m w w d x w2 sub y w2 add m w w neg d s} def
%%IncludeResource: ProcSet (FontSetInit)
%%IncludeResource: font Times-Roman
%%IncludeResource: font Times-Italic
%%IncludeResource: font Times-Bold
%%IncludeResource: font Times-BoldItalic
%%IncludeResource: font Helvetica
%%IncludeResource: font Helvetica-Oblique
%%IncludeResource: font Helvetica-Bold
%%IncludeResource: font Helvetica-BoldOblique
%%IncludeResource: font Courier
%%IncludeResource: font Courier-Oblique
%%IncludeResource: font Courier-Bold
%%IncludeResource: font Courier-BoldOblique
%%IncludeResource: font Symbol
%%IncludeResource: font ZapfDingbats
/reEncode {exch findfont dup length dict begin {1 index /FID eq  {pop pop} {def} ifelse } forall /Encoding exch def currentdict end dup /FontName get exch definefont pop } def [/Times-Bold /Times-Italic /Times-BoldItalic /Helvetica /Helvetica-Oblique
 /Helvetica-Bold /Helvetica-BoldOblique /Courier /Courier-Oblique /Courier-Bold /Courier-BoldOblique /Times-Roman /AvantGarde-Book /AvantGarde-BookOblique /AvantGarde-Demi /AvantGarde-DemiOblique /Bookman-Demi /Bookman-DemiItalic /Bookman-Light
 /Bookman-LightItalic /Helvetica-Narrow /Helvetica-Narrow-Bold /Helvetica-Narrow-BoldOblique /Helvetica-Narrow-Oblique /NewCenturySchlbk-Roman /NewCenturySchlbk-Bold /NewCenturySchlbk-BoldItalic /NewCenturySchlbk-Italic /Palatino-Bold
 /Palatino-BoldItalic /Palatino-Italic /Palatino-Roman ] {ISOLatin1Encoding reEncode } forall
%%EndProlog
%%BeginSetup
%%EndSetup
newpath  gsave  .25 .25 scale  gsave  0 0 t black[  ] 0 sd 3 lw 1 1 1 c 2268 1575 0 0 bf black 1 1 1 c 2268 472 0 0 bf black 1 1 1 c 1927 274 227 189 bf black 1927 274 227 189 bl 227 189 m 1927 X s 227 201 m -12 Y s 291 195 m -6 Y s 355 195 m -6 Y s
 420 195 m -6 Y s 484 195 m -6 Y s 548 201 m -12 Y s 612 195 m -6 Y s 677 195 m -6 Y s 741 195 m -6 Y s 805 195 m -6 Y s 869 201 m -12 Y s 934 195 m -6 Y s 998 195 m -6 Y s 1062 195 m -6 Y s 1126 195 m -6 Y s 1191 201 m -12 Y s 1255 195 m -6 Y s 1319
 195 m -6 Y s 1383 195 m -6 Y s 1448 195 m -6 Y s 1512 201 m -12 Y s 1576 195 m -6 Y s 1640 195 m -6 Y s 1705 195 m -6 Y s 1769 195 m -6 Y s 1833 201 m -12 Y s 1897 195 m -6 Y s 1962 195 m -6 Y s 2026 195 m -6 Y s 2090 195 m -6 Y s 2154 201 m -12 Y s
 gsave  2268 472 0 0 C 210.193 127.3 t 0 r /Helvetica findfont 53.4895 sf 0 0 m (0) show NC gr 
 gsave  2268 472 0 0 C 518.081 127.3 t 0 r /Helvetica findfont 53.4895 sf 0 0 m (50) show NC gr 
 gsave  2268 472 0 0 C 823.009 127.3 t 0 r /Helvetica findfont 53.4895 sf 0 0 m (100) show NC gr 
 gsave  2268 472 0 0 C 1145.7 127.3 t 0 r /Helvetica findfont 53.4895 sf 0 0 m (150) show NC gr 
 gsave  2268 472 0 0 C 1465.43 127.3 t 0 r /Helvetica findfont 53.4895 sf 0 0 m (200) show NC gr 
 gsave  2268 472 0 0 C 1788.12 127.3 t 0 r /Helvetica findfont 53.4895 sf 0 0 m (250) show NC gr 
 gsave  2268 472 0 0 C 2107.85 127.3 t 0 r /Helvetica findfont 53.4895 sf 0 0 m (300) show NC gr 
 gsave  2268 472 0 0 C 1995.35 41.4465 t 0 r /Helvetica findfont 56.4611 sf 0 0 m ( [GeV]) show NC gr 
 gsave  2268 472 0 0 C 1915.42 68.0907 t 0 r /Helvetica findfont 38.6313 sf 0 0 m (miss) show NC gr 
 gsave  2268 472 0 0 C 1915.42 23.6837 t 0 r /Helvetica findfont 38.6313 sf 0 0 m (T) show NC gr 
 gsave  2268 472 0 0 C 1871.01 41.4465 t 0 r /Helvetica-Oblique findfont 56.4611 sf 0 0 m (E) show NC gr  227 463 m 1927 X s 227 451 m 12 Y s 291 457 m 6 Y s 355 457 m 6 Y s 420 457 m 6 Y s 484 457 m 6 Y s 548 451 m 12 Y s 612 457 m 6 Y s 677 457 m 6
 Y s 741 457 m 6 Y s 805 457 m 6 Y s 869 451 m 12 Y s 934 457 m 6 Y s 998 457 m 6 Y s 1062 457 m 6 Y s 1126 457 m 6 Y s 1191 451 m 12 Y s 1255 457 m 6 Y s 1319 457 m 6 Y s 1383 457 m 6 Y s 1448 457 m 6 Y s 1512 451 m 12 Y s 1576 457 m 6 Y s 1640 457
 m 6 Y s 1705 457 m 6 Y s 1769 457 m 6 Y s 1833 451 m 12 Y s 1897 457 m 6 Y s 1962 457 m 6 Y s 2026 457 m 6 Y s 2090 457 m 6 Y s 2154 451 m 12 Y s 227 189 m 274 Y s 240 240 m -13 X s 240 326 m -13 X s 240 412 m -13 X s 240 240 m -13 X s 240 412 m -13
 X s
 gsave  2268 472 0 0 C 118.419 222.035 t 0 r /Helvetica findfont 53.4895 sf 0 0 m (0.5) show NC gr 
 gsave  2268 472 0 0 C 171.707 307.888 t 0 r /Helvetica findfont 53.4895 sf 0 0 m (1) show NC gr 
 gsave  2268 472 0 0 C 118.419 393.742 t 0 r /Helvetica findfont 53.4895 sf 0 0 m (1.5) show NC gr 
 gsave  2268 472 0 0 C 71.0512 230.916 t 90 r /Helvetica findfont 53.4895 sf 0 0 m (Data / SM) show NC gr  2154 189 m 274 Y s 2141 240 m 13 X s 2141 326 m 13 X s 2141 412 m 13 X s 2141 240 m 13 X s 2141 412 m 13 X s 227 189 m 1927 X s 227 463 m 1927
 X s 227 189 m 274 Y s[ 4 8] 0 sd 2154 240 m -1927 X s 2154 326 m -1927 X s 2154 412 m -1927 X s 2154 240 m -1927 X s 2154 412 m -1927 X s[  ] 0 sd 2154 189 m 274 Y s 1 1 0.6 c 193 0 227 326 bf 192 0 420 326 bf 193 0 612 326 bf 193 0 805 326 bf 193 0
 998 326 bf 192 0 1191 326 bf 193 0 1383 326 bf 193 0 1576 326 bf 193 0 1769 326 bf 192 0 1962 326 bf black 0.6 0.6 0.6 c 420 325 m -3 -3 d s 406 330 m -8 -8 d s 386 330 m -7 -8 d s 367 330 m -7 -8 d s 348 330 m -8 -8 d s 329 330 m -8 -8 d s 309 330
 m -7 -8 d s 290 330 m -7 -8 d s 271 330 m -8 -8 d s 252 330 m -8 -8 d s 232 330 m -5 -6 d s 612 325 m -1 -1 d s 596 328 m -4 -4 d s 577 328 m -4 -4 d s 558 328 m -4 -4 d s 538 328 m -4 -4 d s 519 328 m -4 -4 d s 500 328 m -4 -4 d s 481 328 m -4 -4 d
 s 462 328 m -5 -4 d s 442 328 m -4 -4 d s 423 328 m -3 -3 d s 805 325 m -1 -1 d s 789 328 m -5 -4 d s 770 328 m -5 -4 d s 750 328 m -4 -4 d s 731 328 m -4 -4 d s 712 328 m -5 -4 d s 693 328 m -5 -4 d s 673 328 m -4 -4 d s 654 328 m -4 -4 d s 635 328
 m -4 -4 d s 616 328 m -4 -3 d s 998 326 m -3 -3 d s 982 329 m -6 -6 d s 963 329 m -6 -6 d s 944 329 m -7 -6 d s 925 329 m -7 -6 d s 905 329 m -6 -6 d s 886 329 m -6 -6 d s 867 329 m -7 -6 d s 848 329 m -7 -6 d s 828 329 m -6 -6 d s 809 329 m -4 -4 d
 s 1191 326 m -5 -5 d s 1177 331 m -11 -10 d s 1157 331 m -10 -10 d s 1138 331 m -10 -10 d s 1119 331 m -10 -10 d s 1100 331 m -11 -10 d s 1080 331 m -10 -10 d s 1061 331 m -10 -10 d s 1042 331 m -10 -10 d s 1023 331 m -11 -10 d s 1003 331 m -5 -5 d
 s 1383 326 m -8 -8 d s 1372 334 m -16 -16 d s 1352 334 m -15 -16 d s 1333 334 m -15 -16 d s 1314 334 m -16 -16 d s 1295 334 m -16 -16 d s 1275 334 m -15 -16 d s 1256 334 m -15 -16 d s 1237 334 m -16 -16 d s 1218 334 m -16 -16 d s 1198 334 m -7 -8 d
 s 1576 327 m -13 -14 d s 1569 339 m -25 -26 d s 1550 339 m -26 -26 d s 1531 339 m -26 -26 d s 1511 339 m -25 -26 d s 1492 339 m -25 -26 d s 1473 339 m -26 -26 d s 1454 339 m -26 -26 d s 1434 339 m -25 -26 d s 1415 339 m -25 -26 d s 1396 339 m -13
 -13 d s 1769 327 m -18 -18 d s 1765 343 m -33 -34 d s 1746 343 m -33 -34 d s 1727 343 m -33 -34 d s 1708 343 m -34 -34 d s 1688 343 m -33 -34 d s 1669 343 m -33 -34 d s 1650 343 m -33 -34 d s 1631 343 m -34 -34 d s 1611 343 m -33 -34 d s 1592 343 m
 -16 -16 d s 1962 308 m -4 -4 d s 1962 327 m -24 -23 d s 1962 347 m -43 -43 d s 1944 348 m -44 -44 d s 1925 348 m -44 -44 d s 1905 348 m -44 -44 d s 1886 348 m -44 -44 d s 1867 348 m -44 -44 d s 1848 348 m -44 -44 d s 1828 348 m -43 -44 d s 1809 348
 m -40 -40 d s 1790 348 m -21 -21 d s 1771 348 m -2 -2 d s 2154 328 m -11 -12 d s 2143 336 m -19 -20 d s 2124 336 m -19 -20 d s 2105 336 m -20 -20 d s 2085 336 m -19 -20 d s 2066 336 m -19 -20 d s 2047 336 m -19 -20 d s 2028 336 m -20 -20 d s 2008
 336 m -19 -20 d s 1989 336 m -19 -20 d s 1970 336 m -8 -9 d s black 1 1 1 c black 323 305 m s 323 329 m 1 Y s /w 26 def /w2 {w 2 div} def /w3 {w 3 div} def 323 317 m20 516 297 m20 709 308 m20 901 280 m 2 Y s 901 306 m 2 Y s 901 294 m20 1094 307 m 13
 Y s 1094 344 m 12 Y s 1094 332 m20 1287 294 m 30 Y s 1287 348 m 29 Y s 1287 336 m20 1480 289 m 47 Y s 1480 359 m 47 Y s 1480 348 m20 1672 239 m 72 Y s 1672 335 m 72 Y s 1672 323 m20 1865 189 m 37 Y s 1865 250 m 72 Y s 1865 238 m20 2058 189 m 17 Y s
 2058 230 m 51 Y s 2058 218 m20 227 326 m 1927 X s 227 189 m 1927 X s 227 201 m -12 Y s 291 195 m -6 Y s 355 195 m -6 Y s 420 195 m -6 Y s 484 195 m -6 Y s 548 201 m -12 Y s 612 195 m -6 Y s 677 195 m -6 Y s 741 195 m -6 Y s 805 195 m -6 Y s 869 201
 m -12 Y s 934 195 m -6 Y s 998 195 m -6 Y s 1062 195 m -6 Y s 1126 195 m -6 Y s 1191 201 m -12 Y s 1255 195 m -6 Y s 1319 195 m -6 Y s 1383 195 m -6 Y s 1448 195 m -6 Y s 1512 201 m -12 Y s 1576 195 m -6 Y s 1640 195 m -6 Y s 1705 195 m -6 Y s 1769
 195 m -6 Y s 1833 201 m -12 Y s 1897 195 m -6 Y s 1962 195 m -6 Y s 2026 195 m -6 Y s 2090 195 m -6 Y s 2154 201 m -12 Y s 227 463 m 1927 X s 227 451 m 12 Y s 291 457 m 6 Y s 355 457 m 6 Y s 420 457 m 6 Y s 484 457 m 6 Y s 548 451 m 12 Y s 612 457 m
 6 Y s 677 457 m 6 Y s 741 457 m 6 Y s 805 457 m 6 Y s 869 451 m 12 Y s 934 457 m 6 Y s 998 457 m 6 Y s 1062 457 m 6 Y s 1126 457 m 6 Y s 1191 451 m 12 Y s 1255 457 m 6 Y s 1319 457 m 6 Y s 1383 457 m 6 Y s 1448 457 m 6 Y s 1512 451 m 12 Y s 1576 457
 m 6 Y s 1640 457 m 6 Y s 1705 457 m 6 Y s 1769 457 m 6 Y s 1833 451 m 12 Y s 1897 457 m 6 Y s 1962 457 m 6 Y s 2026 457 m 6 Y s 2090 457 m 6 Y s 2154 451 m 12 Y s 227 189 m 274 Y s 240 240 m -13 X s 240 326 m -13 X s 240 412 m -13 X s 240 240 m -13
 X s 240 412 m -13 X s 2154 189 m 274 Y s 2141 240 m 13 X s 2141 326 m 13 X s 2141 412 m 13 X s 2141 240 m 13 X s 2141 412 m 13 X s 1 1 1 c 2268 1103 0 472 bf black 1 1 1 c 1927 1036 227 484 bf black 1927 1036 227 484 bl 1 1 1 c black 3 lw 227 484 m
 1927 X s 227 502 m -18 Y s 291 493 m -9 Y s 355 493 m -9 Y s 420 493 m -9 Y s 484 493 m -9 Y s 548 502 m -18 Y s 612 493 m -9 Y s 677 493 m -9 Y s 741 493 m -9 Y s 805 493 m -9 Y s 869 502 m -18 Y s 934 493 m -9 Y s 998 493 m -9 Y s 1062 493 m -9 Y
 s 1126 493 m -9 Y s 1191 502 m -18 Y s 1255 493 m -9 Y s 1319 493 m -9 Y s 1383 493 m -9 Y s 1448 493 m -9 Y s 1512 502 m -18 Y s 1576 493 m -9 Y s 1640 493 m -9 Y s 1705 493 m -9 Y s 1769 493 m -9 Y s 1833 502 m -18 Y s 1897 493 m -9 Y s 1962 493 m
 -9 Y s 2026 493 m -9 Y s 2090 493 m -9 Y s 2154 502 m -18 Y s
 gsave  2268 1103 0 472 C 2069.37 396.702 t 0 r /Helvetica findfont 29.6365 sf 0 0 m ( [GeV]) show NC gr 
 gsave  2268 1103 0 472 C 2024.96 414.465 t 0 r /Helvetica findfont 20.7455 sf 0 0 m (miss) show NC gr 
 gsave  2268 1103 0 472 C 2024.96 387.821 t 0 r /Helvetica findfont 20.7455 sf 0 0 m (T) show NC gr 
 gsave  2268 1103 0 472 C 2001.27 396.702 t 0 r /Helvetica-Oblique findfont 29.6365 sf 0 0 m (E) show NC gr  227 1520 m 1927 X s 227 1501 m 19 Y s 291 1510 m 10 Y s 355 1510 m 10 Y s 420 1510 m 10 Y s 484 1510 m 10 Y s 548 1501 m 19 Y s 612 1510 m 10
 Y s 677 1510 m 10 Y s 741 1510 m 10 Y s 805 1510 m 10 Y s 869 1501 m 19 Y s 934 1510 m 10 Y s 998 1510 m 10 Y s 1062 1510 m 10 Y s 1126 1510 m 10 Y s 1191 1501 m 19 Y s 1255 1510 m 10 Y s 1319 1510 m 10 Y s 1383 1510 m 10 Y s 1448 1510 m 10 Y s 1512
 1501 m 19 Y s 1576 1510 m 10 Y s 1640 1510 m 10 Y s 1705 1510 m 10 Y s 1769 1510 m 10 Y s 1833 1501 m 19 Y s 1897 1510 m 10 Y s 1962 1510 m 10 Y s 2026 1510 m 10 Y s 2090 1510 m 10 Y s 2154 1501 m 19 Y s 227 484 m 1036 Y s 248 594 m -21 X s 237 616
 m -10 X s 237 638 m -10 X s 237 660 m -10 X s 237 682 m -10 X s 248 704 m -21 X s 237 726 m -10 X s 237 748 m -10 X s 237 769 m -10 X s 237 791 m -10 X s 248 813 m -21 X s 237 835 m -10 X s 237 857 m -10 X s 237 879 m -10 X s 237 901 m -10 X s 248
 923 m -21 X s 237 945 m -10 X s 237 967 m -10 X s 237 989 m -10 X s 237 1011 m -10 X s 248 1033 m -21 X s 237 1055 m -10 X s 237 1077 m -10 X s 237 1099 m -10 X s 237 1121 m -10 X s 248 1143 m -21 X s 237 1165 m -10 X s 237 1187 m -10 X s 237 1209 m
 -10 X s 237 1231 m -10 X s 248 1253 m -21 X s 237 1275 m -10 X s 237 1297 m -10 X s 237 1319 m -10 X s 237 1341 m -10 X s 248 1363 m -21 X s 237 1385 m -10 X s 237 1407 m -10 X s 237 1429 m -10 X s 237 1451 m -10 X s 248 1473 m -21 X s 248 594 m -21
 X s 237 572 m -10 X s 237 550 m -10 X s 237 528 m -10 X s 237 506 m -10 X s 248 1473 m -21 X s 237 1495 m -10 X s 237 1517 m -10 X s
 gsave  2268 1103 0 472 C 118.419 574.33 t 0 r /Helvetica findfont 50.382 sf 0 0 m (100) show NC gr 
 gsave  2268 1103 0 472 C 118.419 683.868 t 0 r /Helvetica findfont 50.382 sf 0 0 m (200) show NC gr 
 gsave  2268 1103 0 472 C 118.419 793.405 t 0 r /Helvetica findfont 50.382 sf 0 0 m (300) show NC gr 
 gsave  2268 1103 0 472 C 118.419 902.942 t 0 r /Helvetica findfont 50.382 sf 0 0 m (400) show NC gr 
 gsave  2268 1103 0 472 C 118.419 1015.44 t 0 r /Helvetica findfont 50.382 sf 0 0 m (500) show NC gr 
 gsave  2268 1103 0 472 C 118.419 1124.98 t 0 r /Helvetica findfont 50.382 sf 0 0 m (600) show NC gr 
 gsave  2268 1103 0 472 C 118.419 1234.51 t 0 r /Helvetica findfont 50.382 sf 0 0 m (700) show NC gr 
 gsave  2268 1103 0 472 C 118.419 1344.05 t 0 r /Helvetica findfont 50.382 sf 0 0 m (800) show NC gr 
 gsave  2268 1103 0 472 C 118.419 1453.59 t 0 r /Helvetica findfont 50.382 sf 0 0 m (900) show NC gr 
 gsave  2268 1103 0 472 C 62.1698 1154.58 t 90 r /Helvetica findfont 50.382 sf 0 0 m (Events / 30 GeV) show NC gr  2154 484 m 1036 Y s 2133 594 m 21 X s 2144 616 m 10 X s 2144 638 m 10 X s 2144 660 m 10 X s 2144 682 m 10 X s 2133 704 m 21 X s 2144
 726 m 10 X s 2144 748 m 10 X s 2144 769 m 10 X s 2144 791 m 10 X s 2133 813 m 21 X s 2144 835 m 10 X s 2144 857 m 10 X s 2144 879 m 10 X s 2144 901 m 10 X s 2133 923 m 21 X s 2144 945 m 10 X s 2144 967 m 10 X s 2144 989 m 10 X s 2144 1011 m 10 X s
 2133 1033 m 21 X s 2144 1055 m 10 X s 2144 1077 m 10 X s 2144 1099 m 10 X s 2144 1121 m 10 X s 2133 1143 m 21 X s 2144 1165 m 10 X s 2144 1187 m 10 X s 2144 1209 m 10 X s 2144 1231 m 10 X s 2133 1253 m 21 X s 2144 1275 m 10 X s 2144 1297 m 10 X s
 2144 1319 m 10 X s 2144 1341 m 10 X s 2133 1363 m 21 X s 2144 1385 m 10 X s 2144 1407 m 10 X s 2144 1429 m 10 X s 2144 1451 m 10 X s 2133 1473 m 21 X s 2133 594 m 21 X s 2144 572 m 10 X s 2144 550 m 10 X s 2144 528 m 10 X s 2144 506 m 10 X s 2133
 1473 m 21 X s 2144 1495 m 10 X s 2144 1517 m 10 X s 0.4 0.6 0.4 c black 3 lw 0.4 0.6 0.4 c 227 484 m 191 Y 193 X 223 Y 192 X -120 Y 193 X -159 Y 193 X -80 Y 193 X -36 Y 192 X -9 Y 193 X -6 Y 193 X -2 Y 385 X -2 Y f 0.06 0.54 0.06 c 0.999 0.999 0.999
 c black 3 lw 0.999 0.999 0.999 c 227 484 m 91 Y 193 X 110 Y 192 X -39 Y 193 X -79 Y 193 X -45 Y 193 X -24 Y 192 X -6 Y 193 X -5 Y 193 X -2 Y 193 X 1 Y 192 X -2 Y f 0.06 0.54 0.06 c 0.999 0.999 0.999 c 0.06 0.54 0.06 c 1 1 1 c black 0.06 0.54 0.06 c
 black 3 lw 0.06 0.54 0.06 c 227 484 m 91 Y 193 X 110 Y 192 X -39 Y 193 X -79 Y 193 X -45 Y 193 X -24 Y 192 X -6 Y 193 X -5 Y 193 X -2 Y 193 X 1 Y 192 X -2 Y f 1 0.653333 0 c 0.999 0.999 0.999 c black 3 lw 0.999 0.999 0.999 c 227 484 m 63 Y 193 X 68
 Y 192 X -31 Y 193 X -48 Y 193 X -30 Y 193 X -12 Y 192 X -5 Y 193 X -3 Y 193 X -1 Y 193 X 1 Y 192 X -2 Y f 1 0.653333 0 c 0.999 0.999 0.999 c 1 0.653333 0 c 1 1 1 c black 1 0.653333 0 c black 3 lw 1 0.653333 0 c 227 484 m 63 Y 193 X 68 Y 192 X -31 Y
 193 X -48 Y 193 X -30 Y 193 X -12 Y 192 X -5 Y 193 X -3 Y 193 X -1 Y 193 X 1 Y 192 X -2 Y f 0.413333 1 0 c 0.999 0.999 0.999 c black 3 lw 0.999 0.999 0.999 c 227 484 m 55 Y 193 X 65 Y 192 X -21 Y 193 X -48 Y 193 X -29 Y 193 X -12 Y 192 X -5 Y 193 X
 -3 Y 193 X -1 Y 193 X 1 Y 192 X -2 Y f 0.413333 1 0 c 0.999 0.999 0.999 c 0.413333 1 0 c 1 1 1 c black 0.413333 1 0 c black 3 lw 0.413333 1 0 c 227 484 m 55 Y 193 X 65 Y 192 X -21 Y 193 X -48 Y 193 X -29 Y 193 X -12 Y 192 X -5 Y 193 X -3 Y 193 X -1
 Y 193 X 1 Y 192 X -2 Y f 0.6 0.2 1 c 0.999 0.999 0.999 c black 3 lw 0.999 0.999 0.999 c 227 484 m 42 Y 193 X 54 Y 192 X -14 Y 193 X -37 Y 193 X -25 Y 193 X -11 Y 192 X -5 Y 193 X -2 Y 193 X -1 Y 385 X -1 Y f 0.6 0.2 1 c 0.999 0.999 0.999 c 0.6 0.2 1
 c 1 1 1 c black 0.6 0.2 1 c black 3 lw 0.6 0.2 1 c 227 484 m 42 Y 193 X 54 Y 192 X -14 Y 193 X -37 Y 193 X -25 Y 193 X -11 Y 192 X -5 Y 193 X -2 Y 193 X -1 Y 385 X -1 Y f 0.54 0.06 0.06 c 0.999 0.999 0.999 c black 3 lw 0.999 0.999 0.999 c 227 484 m
 34 Y 193 X 45 Y 192 X -9 Y 193 X -31 Y 193 X -22 Y 193 X -10 Y 192 X -4 Y 193 X -2 Y 578 X -1 Y f 0.54 0.06 0.06 c 0.999 0.999 0.999 c 0.54 0.06 0.06 c 1 1 1 c black 0.54 0.06 0.06 c black 3 lw 0.54 0.06 0.06 c 227 484 m 34 Y 193 X 45 Y 192 X -9 Y
 193 X -31 Y 193 X -22 Y 193 X -10 Y 192 X -4 Y 193 X -2 Y 578 X -1 Y f 1 0 1 c 0.999 0.999 0.999 c black 3 lw 0.999 0.999 0.999 c 227 484 m 11 Y 193 X 14 Y 192 X -4 Y 193 X -10 Y 193 X -7 Y 193 X -3 Y 192 X -1 Y 771 X f 1 0 1 c 0.999 0.999 0.999 c 1
 0 1 c 1 1 1 c black 1 0 1 c black 3 lw 1 0 1 c 227 484 m 11 Y 193 X 14 Y 192 X -4 Y 193 X -10 Y 193 X -7 Y 193 X -3 Y 192 X -1 Y 771 X f 0 0 1 c 0.999 0.999 0.999 c black 3 lw 0.999 0.999 0.999 c 227 484 m 6 Y 193 X 9 Y 192 X -1 Y 193 X -7 Y 193 X
 -4 Y 193 X -2 Y 192 X -1 Y 771 X f 0 0 1 c 0.999 0.999 0.999 c 0 0 1 c 1 1 1 c black 0 0 1 c black 3 lw 0 0 1 c 227 484 m 6 Y 193 X 9 Y 192 X -1 Y 193 X -7 Y 193 X -4 Y 193 X -2 Y 192 X -1 Y 771 X f 0.2 0.8 0.8 c 0.999 0.999 0.999 c black 3 lw 0.999
 0.999 0.999 c 227 484 m 1 Y 193 X 2 Y 192 X 1 Y 193 X -2 Y 193 X -2 Y 1156 X f 0.2 0.8 0.8 c 0.999 0.999 0.999 c 0.2 0.8 0.8 c 1 1 1 c black 0.2 0.8 0.8 c black 3 lw 0.2 0.8 0.8 c 227 484 m 1 Y 193 X 2 Y 192 X 1 Y 193 X -2 Y 193 X -2 Y 1156 X f 1 0
 0 c 0.999 0.999 0.999 c black 3 lw 0.999 0.999 0.999 c 227 484 m 193 X 1 Y 192 X 1 Y 193 X -1 Y 193 X -1 Y 1156 X f 1 0 0 c 0.999 0.999 0.999 c 1 0 0 c 1 1 1 c black 1 0 0 c black 3 lw 1 0 0 c 227 484 m 193 X 1 Y 192 X 1 Y 193 X -1 Y 193 X -1 Y 1156
 X f 1 0.84 0 c 0.999 0.999 0.999 c black 3 lw 0.999 0.999 0.999 c 227 484 m 385 X 2 Y 193 X -1 Y 193 X -1 Y 1156 X f 1 0.84 0 c 0.999 0.999 0.999 c 1 0.84 0 c 1 1 1 c black 1 0.84 0 c black 3 lw 1 0.84 0 c 227 484 m 385 X 2 Y 193 X -1 Y 193 X -1 Y
 1156 X f black 1 1 1 c black 0.6 0.6 0.6 c 3 lw 419 679 m -9 -8 d s 399 679 m -8 -8 d s 380 679 m -8 -8 d s 361 679 m -9 -8 d s 342 679 m -9 -8 d s 322 679 m -8 -8 d s 303 679 m -8 -8 d s 284 679 m -9 -8 d s 265 679 m -9 -8 d s 245 679 m -8 -8 d s 3
 lw 604 903 m -9 -10 d s 585 903 m -10 -10 d s 566 903 m -10 -10 d s 547 903 m -10 -10 d s 527 903 m -9 -10 d s 508 903 m -10 -10 d s 489 903 m -10 -10 d s 470 903 m -10 -10 d s 450 903 m -9 -10 d s 431 903 m -10 -10 d s 3 lw 805 777 m -2 -3 d s 791
 782 m -8 -8 d s 772 782 m -8 -8 d s 752 782 m -7 -8 d s 733 782 m -7 -8 d s 714 782 m -8 -8 d s 695 782 m -8 -8 d s 675 782 m -7 -8 d s 656 782 m -7 -8 d s 637 782 m -8 -8 d s 618 782 m -6 -6 d s 3 lw 996 621 m -6 -5 d s 976 621 m -5 -5 d s 957 621
 m -5 -5 d s 938 621 m -5 -5 d s 919 621 m -6 -5 d s 899 621 m -5 -5 d s 880 621 m -5 -5 d s 861 621 m -5 -5 d s 842 621 m -5 -5 d s 822 621 m -5 -5 d s 3 lw 1184 541 m -3 -4 d s 1165 541 m -3 -4 d s 1146 541 m -4 -4 d s 1126 541 m -3 -4 d s 1107 541
 m -3 -4 d s 1088 541 m -3 -4 d s 1069 541 m -4 -4 d s 1049 541 m -3 -4 d s 1030 541 m -3 -4 d s 1011 541 m -3 -4 d s 3 lw 1379 504 m -2 -2 d s 1359 504 m -1 -2 d s 1340 504 m -2 -2 d s 1321 504 m -2 -2 d s 1302 504 m -2 -2 d s 1282 504 m -1 -2 d s
 1263 504 m -2 -2 d s 1244 504 m -2 -2 d s 1225 504 m -2 -2 d s 1206 504 m -2 -2 d s 3 lw 1562 495 m -2 -2 d s 1543 495 m -2 -2 d s 1523 495 m -1 -2 d s 1504 495 m -1 -2 d s 1485 495 m -2 -2 d s 1466 495 m -2 -2 d s 1447 495 m -2 -2 d s 1427 495 m -1
 -2 d s 1408 495 m -2 -2 d s 1389 495 m -2 -2 d s 3 lw 1767 488 m -1 X s 1748 488 m -1 X s 1729 488 m -1 X s 1709 488 m -1 X s 1690 488 m -1 X s 1671 488 m -1 X s 1652 488 m -1 X s 1632 488 m -1 X s 1613 488 m -1 X s 1594 488 m -1 X s 3 lw 1957 486 m
 -1 -1 d s 1938 486 m -1 -1 d s 1919 486 m -1 -1 d s 1899 486 m -1 Y s 1880 486 m -1 -1 d s 1861 486 m -1 -1 d s 1842 486 m -1 -1 d s 1822 486 m -1 Y s 1803 486 m -1 Y s 1784 486 m -1 -1 d s 3 lw 2150 487 m -1 Y s 2131 487 m -1 Y s 2112 487 m -1 -1 d
 s 2092 487 m -1 Y s 2073 487 m -1 Y s 2054 487 m -1 Y s 2035 487 m -1 -1 d s 2015 487 m -1 Y s 1996 487 m -1 Y s 1977 487 m -1 Y s black 3 lw 1 1 1 c black 323 651 m 2 Y s 323 677 m 2 Y s /w 24 def /w2 {w 2 div} def /w3 {w 3 div} def 323 665 m20 516
 807 m 8 Y s 516 839 m 7 Y s 516 827 m20 709 729 m 6 Y s 709 758 m 5 Y s 709 746 m20 901 594 m20 1094 541 m20 1287 504 m20 1480 496 m20 1672 488 m20 1865 485 m20 2058 485 m20 227 484 m 1927 X s 227 502 m -18 Y s 291 493 m -9 Y s 355 493 m -9 Y s 420
 493 m -9 Y s 484 493 m -9 Y s 548 502 m -18 Y s 612 493 m -9 Y s 677 493 m -9 Y s 741 493 m -9 Y s 805 493 m -9 Y s 869 502 m -18 Y s 934 493 m -9 Y s 998 493 m -9 Y s 1062 493 m -9 Y s 1126 493 m -9 Y s 1191 502 m -18 Y s 1255 493 m -9 Y s 1319 493
 m -9 Y s 1383 493 m -9 Y s 1448 493 m -9 Y s 1512 502 m -18 Y s 1576 493 m -9 Y s 1640 493 m -9 Y s 1705 493 m -9 Y s 1769 493 m -9 Y s 1833 502 m -18 Y s 1897 493 m -9 Y s 1962 493 m -9 Y s 2026 493 m -9 Y s 2090 493 m -9 Y s 2154 502 m -18 Y s 227
 1520 m 1927 X s 227 1501 m 19 Y s 291 1510 m 10 Y s 355 1510 m 10 Y s 420 1510 m 10 Y s 484 1510 m 10 Y s 548 1501 m 19 Y s 612 1510 m 10 Y s 677 1510 m 10 Y s 741 1510 m 10 Y s 805 1510 m 10 Y s 869 1501 m 19 Y s 934 1510 m 10 Y s 998 1510 m 10 Y s
 1062 1510 m 10 Y s 1126 1510 m 10 Y s 1191 1501 m 19 Y s 1255 1510 m 10 Y s 1319 1510 m 10 Y s 1383 1510 m 10 Y s 1448 1510 m 10 Y s 1512 1501 m 19 Y s 1576 1510 m 10 Y s 1640 1510 m 10 Y s 1705 1510 m 10 Y s 1769 1510 m 10 Y s 1833 1501 m 19 Y s
 1897 1510 m 10 Y s 1962 1510 m 10 Y s 2026 1510 m 10 Y s 2090 1510 m 10 Y s 2154 1501 m 19 Y s 227 484 m 1036 Y s 248 594 m -21 X s 237 616 m -10 X s 237 638 m -10 X s 237 660 m -10 X s 237 682 m -10 X s 248 704 m -21 X s 237 726 m -10 X s 237 748 m
 -10 X s 237 769 m -10 X s 237 791 m -10 X s 248 813 m -21 X s 237 835 m -10 X s 237 857 m -10 X s 237 879 m -10 X s 237 901 m -10 X s 248 923 m -21 X s 237 945 m -10 X s 237 967 m -10 X s 237 989 m -10 X s 237 1011 m -10 X s 248 1033 m -21 X s 237
 1055 m -10 X s 237 1077 m -10 X s 237 1099 m -10 X s 237 1121 m -10 X s 248 1143 m -21 X s 237 1165 m -10 X s 237 1187 m -10 X s 237 1209 m -10 X s 237 1231 m -10 X s 248 1253 m -21 X s 237 1275 m -10 X s 237 1297 m -10 X s 237 1319 m -10 X s 237
 1341 m -10 X s 248 1363 m -21 X s 237 1385 m -10 X s 237 1407 m -10 X s 237 1429 m -10 X s 237 1451 m -10 X s 248 1473 m -21 X s 248 594 m -21 X s 237 572 m -10 X s 237 550 m -10 X s 237 528 m -10 X s 237 506 m -10 X s 248 1473 m -21 X s 237 1495 m
 -10 X s 237 1517 m -10 X s 2154 484 m 1036 Y s 2133 594 m 21 X s 2144 616 m 10 X s 2144 638 m 10 X s 2144 660 m 10 X s 2144 682 m 10 X s 2133 704 m 21 X s 2144 726 m 10 X s 2144 748 m 10 X s 2144 769 m 10 X s 2144 791 m 10 X s 2133 813 m 21 X s 2144
 835 m 10 X s 2144 857 m 10 X s 2144 879 m 10 X s 2144 901 m 10 X s 2133 923 m 21 X s 2144 945 m 10 X s 2144 967 m 10 X s 2144 989 m 10 X s 2144 1011 m 10 X s 2133 1033 m 21 X s 2144 1055 m 10 X s 2144 1077 m 10 X s 2144 1099 m 10 X s 2144 1121 m 10
 X s 2133 1143 m 21 X s 2144 1165 m 10 X s 2144 1187 m 10 X s 2144 1209 m 10 X s 2144 1231 m 10 X s 2133 1253 m 21 X s 2144 1275 m 10 X s 2144 1297 m 10 X s 2144 1319 m 10 X s 2144 1341 m 10 X s 2133 1363 m 21 X s 2144 1385 m 10 X s 2144 1407 m 10 X
 s 2144 1429 m 10 X s 2144 1451 m 10 X s 2133 1473 m 21 X s 2133 594 m 21 X s 2144 572 m 10 X s 2144 550 m 10 X s 2144 528 m 10 X s 2144 506 m 10 X s 2133 1473 m 21 X s 2144 1495 m 10 X s 2144 1517 m 10 X s
 gsave  2268 1103 0 472 C 1314.45 1432.87 t 0 r /Helvetica findfont 56.3093 sf 0 0 m ( Data) show NC gr  1259 1456 m 7 Y s 1259 1432 m -7 Y s 1259 1444 m20
 gsave  2268 1103 0 472 C 1776.28 1432.87 t 0 r /Helvetica findfont 56.3093 sf 0 0 m ( Fakes \(MM\)) show NC gr  0.4 0.6 0.4 c 1682 1422 m 79 X 44 Y -79 X f black
 gsave  2268 1103 0 472 C 1403.26 1367.74 t 0 r /Helvetica findfont 56.3093 sf 0 0 m (single\255top) show NC gr 
 gsave  2268 1103 0 472 C 1373.66 1367.74 t 0 r /Helvetica-Oblique findfont 56.3093 sf 0 0 m (/) show NC gr 
 gsave  2268 1103 0 472 C 1352.93 1367.74 t 0 r /Helvetica-Oblique findfont 56.3093 sf 0 0 m (t) show NC gr  6 lw 1353 1412 m 21 X s
 gsave  2268 1103 0 472 C 1332.21 1367.74 t 0 r /Helvetica-Oblique findfont 56.3093 sf 0 0 m (t) show NC gr 
 gsave  2268 1103 0 472 C 1314.45 1367.74 t 0 r /Helvetica findfont 56.3093 sf 0 0 m ( ) show NC gr  0.06 0.54 0.06 c 3 lw 1219 1359 m 79 X 44 Y -79 X f 6 lw black
 gsave  2268 1103 0 472 C 1906.54 1367.74 t 0 r /Helvetica findfont 56.3093 sf 0 0 m (+jets) show NC gr 
 gsave  2268 1103 0 472 C 1794.04 1367.74 t 0 r /Helvetica-Oblique findfont 56.3093 sf 0 0 m (W/Z) show NC gr 
 gsave  2268 1103 0 472 C 1776.28 1367.74 t 0 r /Helvetica findfont 56.3093 sf 0 0 m ( ) show NC gr  1 0.653333 0 c 3 lw 1682 1359 m 79 X 44 Y -79 X f black
 gsave  2268 1103 0 472 C 1512.8 1305.57 t 0 r /Helvetica findfont 56.3093 sf 0 0 m (+jets) show NC gr 
 gsave  2268 1103 0 472 C 1332.21 1305.57 t 0 r /Helvetica-Oblique findfont 56.3093 sf 0 0 m (WZ/ZZ) show NC gr 
 gsave  2268 1103 0 472 C 1314.45 1305.57 t 0 r /Helvetica findfont 56.3093 sf 0 0 m ( ) show NC gr  0.413333 1 0 c 3 lw 1219 1296 m 79 X 44 Y -79 X f black
 gsave  2268 1103 0 472 C 1835.49 1305.57 t 0 r /Helvetica-Oblique findfont 56.3093 sf 0 0 m (Z) show NC gr 
 gsave  2268 1103 0 472 C 1814.77 1305.57 t 0 r /Helvetica-Oblique findfont 56.3093 sf 0 0 m (t) show NC gr  6 lw 1815 1350 m 20 X s
 gsave  2268 1103 0 472 C 1794.04 1305.57 t 0 r /Helvetica-Oblique findfont 56.3093 sf 0 0 m (t) show NC gr 
 gsave  2268 1103 0 472 C 1776.28 1305.57 t 0 r /Helvetica findfont 56.3093 sf 0 0 m ( ) show NC gr  0.6 0.2 1 c 3 lw 1682 1296 m 79 X 44 Y -79 X f 6 lw black
 gsave  2268 1103 0 472 C 1373.66 1243.4 t 0 r /Helvetica-Oblique findfont 56.3093 sf 0 0 m (W) show NC gr 
 gsave  2268 1103 0 472 C 1352.93 1243.4 t 0 r /Helvetica-Oblique findfont 56.3093 sf 0 0 m (t) show NC gr  6 lw 1353 1288 m 21 X s
 gsave  2268 1103 0 472 C 1332.21 1243.4 t 0 r /Helvetica-Oblique findfont 56.3093 sf 0 0 m (t) show NC gr 
 gsave  2268 1103 0 472 C 1314.45 1243.4 t 0 r /Helvetica findfont 56.3093 sf 0 0 m ( ) show NC gr  0.54 0.06 0.06 c 3 lw 1219 1233 m 79 X 44 Y -79 X f 6 lw black
 gsave  2268 1103 0 472 C 1794.04 1243.4 t 0 r /Helvetica-Oblique findfont 56.3093 sf 0 0 m (tZq) show NC gr 
 gsave  2268 1103 0 472 C 1776.28 1243.4 t 0 r /Helvetica findfont 56.3093 sf 0 0 m ( ) show NC gr  1 0 1 c 3 lw 1682 1233 m 79 X 44 Y -79 X f black
 gsave  2268 1103 0 472 C 1373.66 1178.27 t 0 r /Helvetica-Oblique findfont 56.3093 sf 0 0 m (H) show NC gr 
 gsave  2268 1103 0 472 C 1352.93 1178.27 t 0 r /Helvetica-Oblique findfont 56.3093 sf 0 0 m (t) show NC gr  6 lw 1353 1223 m 21 X s
 gsave  2268 1103 0 472 C 1332.21 1178.27 t 0 r /Helvetica-Oblique findfont 56.3093 sf 0 0 m (t) show NC gr 
 gsave  2268 1103 0 472 C 1314.45 1178.27 t 0 r /Helvetica findfont 56.3093 sf 0 0 m ( ) show NC gr  0 0 1 c 3 lw 1219 1170 m 79 X 44 Y -79 X f 6 lw black
 gsave  2268 1103 0 472 C 1794.04 1178.27 t 0 r /Helvetica-Oblique findfont 56.3093 sf 0 0 m (tWZ/tWH) show NC gr 
 gsave  2268 1103 0 472 C 1776.28 1178.27 t 0 r /Helvetica findfont 56.3093 sf 0 0 m ( ) show NC gr  0.2 0.8 0.8 c 3 lw 1682 1170 m 79 X 44 Y -79 X f black
 gsave  2268 1103 0 472 C 1332.21 1116.1 t 0 r /Helvetica-Oblique findfont 56.3093 sf 0 0 m (tHq) show NC gr 
 gsave  2268 1103 0 472 C 1314.45 1116.1 t 0 r /Helvetica findfont 56.3093 sf 0 0 m ( ) show NC gr  1 0 0 c 3 lw 1219 1107 m 79 X 44 Y -79 X f black
 gsave  2268 1103 0 472 C 1776.28 1116.1 t 0 r /Helvetica findfont 56.3093 sf 0 0 m ( Other) show NC gr  1 0.84 0 c 3 lw 1682 1107 m 79 X 44 Y -79 X f black
 gsave  2268 1103 0 472 C 1314.45 1053.93 t 0 r /Helvetica findfont 56.3093 sf 0 0 m ( Uncertainty) show NC gr  0.6 0.6 0.6 c 3 lw 1298 1058 m -13 -14 d s 1298 1077 m -33 -33 d s 1290 1088 m -44 -44 d s 1271 1088 m -44 -44 d s 1252 1088 m -33 -33 d s
 1233 1088 m -14 -13 d s 1 0.84 0 c 0.6 0.6 0.6 c black
 gsave  2268 1103 0 472 C 894.061 1329.25 t 0 r /Helvetica findfont 41.4911 sf 0 0 m (\2551) show NC gr 
 gsave  2268 1103 0 472 C 399.663 1299.64 t 0 r /Helvetica findfont 62.2366 sf 0 0 m ( = 13 TeV,  139 fb) show NC gr 
 gsave  2268 1103 0 472 C 370.058 1299.64 t 0 r /Helvetica findfont 62.2366 sf 0 0 m (s) show NC gr  6 lw 349 1335 m 6 -38 d s 3 lw 355 1297 m 6 56 d s 361 1353 m 39 X s
 gsave  2268 1103 0 472 C 899.982 1201.95 t 0 r /Helvetica findfont 62.2366 sf 0 0 m (\)) show NC gr 
 gsave  2268 1103 0 472 C 843.733 1169.38 t 0 r /Helvetica findfont 41.4911 sf 0 0 m (HF) show NC gr 
 gsave  2268 1103 0 472 C 337.493 1201.95 t 0 r /Helvetica findfont 62.2366 sf 0 0 m ( 2L\(SS\), CR\(el/mu) show NC gr 
 gsave  2268 1103 0 472 C 337.493 1400.3 t 0 r /Helvetica-BoldOblique findfont 71.1276 sf 0 0 m (ATLAS) show NC gr 
 gsave  2268 1103 0 472 C 633.54 1400.3 t 0 r /Helvetica findfont 71.1276 sf 0 0 m (Internal) show NC gr 
 gr  gr showpage
end
%%EOF
