%!PS-Adobe-2.0 EPSF-2.0
%%BoundingBox:  0 0 567 394
%%Title: : EtMiss_CR1b3jNoZ
%%Creator: ROOT Version 6.20/06
%%CreationDate: Mon May 30 19:25:21 2022
%%DocumentNeededResources: ProcSet (FontSetInit)
%%EndComments
%%BeginProlog
80 dict begin
/s {stroke} def /l {lineto} def /m {moveto} def /t {translate} def
/r {rotate} def /rl {roll}  def /R {repeat} def
/d {rlineto} def /rm {rmoveto} def /gr {grestore} def /f {eofill} def
/c {setrgbcolor} def /black {0 setgray} def /sd {setdash} def
/cl {closepath} def /sf {scalefont setfont} def /lw {setlinewidth} def
/box {m dup 0 exch d exch 0 d 0 exch neg d cl} def
/NC{systemdict begin initclip end}def/C{NC box clip newpath}def
/bl {box s} def /bf {gsave box gsave f grestore 1 lw [] 0 sd s grestore} def /Y { 0 exch d} def /X { 0 d} def 
/K {{pop pop 0 moveto} exch kshow} bind def
/ita {/ang 15 def gsave [1 0 ang dup sin exch cos div 1 0 0] concat} def 
/mp {newpath /y exch def /x exch def} def
/side {[w .77 mul w .23 mul] .385 w mul sd w 0 l currentpoint t -144 r} def
/mr {mp x y w2 0 360 arc} def /m24 {mr s} def /m20 {mr f} def
/mb {mp x y w2 add m w2 neg 0 d 0 w neg d w 0 d 0 w d cl} def
/mt {mp x y w2 add m w2 neg w neg d w 0 d cl} def
/w4 {w 4 div} def
/w6 {w 6 div} def
/w8 {w 8 div} def
/m21 {mb f} def /m25 {mb s} def /m22 {mt f} def /m26{mt s} def
/m23 {mp x y w2 sub m w2 w d w neg 0 d cl f} def
/m27 {mp x y w2 add m w3 neg w2 neg d w3 w2 neg d w3 w2 d cl s} def
/m28 {mp x w2 sub y w2 sub w3 add m w3 0 d  0 w3 neg d w3 0 d 0 w3 d w3 0 d  0 w3 d w3 neg 0 d 0 w3 d w3 neg 0 d 0 w3 neg d w3 neg 0 d cl s } def
/m29 {mp gsave x w2 sub y w2 add w3 sub m currentpoint t 4 {side} repeat cl fill gr} def
/m30 {mp gsave x w2 sub y w2 add w3 sub m currentpoint t 4 {side} repeat cl s gr} def
/m31 {mp x y w2 sub m 0 w d x w2 sub y m w 0 d x w2 sub y w2 add m w w neg d x w2 sub y w2 sub m w w d s} def
/m32 {mp x y w2 sub m w2 w d w neg 0 d cl s} def
/m33 {mp x y w2 add m w3 neg w2 neg d w3 w2 neg d w3 w2 d cl f} def
/m34 {mp x w2 sub y w2 sub w3 add m w3 0 d  0 w3 neg d w3 0 d 0 w3 d w3 0 d  0 w3 d w3 neg 0 d 0 w3 d w3 neg 0 d 0 w3 neg d w3 neg 0 d cl f } def
/m35 {mp x y w2 add m w2 neg w2 neg d w2 w2 neg d w2 w2 d w2 neg w2 d x y w2 sub m 0 w d x w2 sub y m w 0 d s} def
/m36 {mb x w2 sub y w2 add m w w neg d x w2 sub y w2 sub m w w d s} def
/m37 {mp x y m w4 neg w2 d w4 neg w2 neg d w2 0 d  w4 neg w2 neg d w2 0 d w4 neg w2 d w2 0 d w4 neg w2 d w4 neg w2 neg d cl s} def
/m38 {mp x w4 sub y w2 add m w4 neg w4 neg d 0 w2 neg d w4 w4 neg d w2 0 d w4 w4 d 0 w2 d w4 neg w4 d w2 neg 0 d x y w2 sub m 0 w d x w2 sub y m w 0 d cl s} def
/m39 {mp x y m w4 neg w2 d w4 neg w2 neg d w2 0 d  w4 neg w2 neg d w2 0 d w4 neg w2 d w2 0 d w4 neg w2 d w4 neg w2 neg d cl f} def
/m40 {mp x y m w4 w2 d w4 w4 neg d w2 neg w4 neg d w2 w4 neg d w4 neg w4 neg d w4 neg w2 d w4 neg w2 neg d w4 neg w4 d w2 w4 d w2 neg w4 d w4 w4 d w4 w2 neg d cl s} def
/m41 {mp x y m w4 w2 d w4 w4 neg d w2 neg w4 neg d w2 w4 neg d w4 neg w4 neg d w4 neg w2 d w4 neg w2 neg d w4 neg w4 d w2 w4 d w2 neg w4 d w4 w4 d w4 w2 neg d cl f} def
/m42 {mp x y w2 add m w8 neg w2 -3 4 div mul d w2 -3 4 div mul w8 neg d w2 3 4 div mul w8 neg d w8 w2 -3 4 div mul d w8 w2 3 4 div mul d w2 3 4 div mul w8 d w2 -3 4 div mul w8 d w8 neg w2 3 4 div mul d cl s} def
/m43 {mp x y w2 add m w8 neg w2 -3 4 div mul d w2 -3 4 div mul w8 neg d w2 3 4 div mul w8 neg d w8 w2 -3 4 div mul d w8 w2 3 4 div mul d w2 3 4 div mul w8 d w2 -3 4 div mul w8 d w8 neg w2 3 4 div mul d cl f} def
/m44 {mp x y m w6 neg w2 d w2 2 3 div mul 0 d w6 neg w2 neg d w2 w6 d 0 w2 -2 3 div mul d w2 neg w6 d w6 w2 neg d w2 -2 3 div mul 0 d w6 w2 d w2 neg w6 neg d 0 w2 2 3 div mul d w2 w6 neg d cl s} def
/m45 {mp x y m w6 neg w2 d w2 2 3 div mul 0 d w6 neg w2 neg d w2 w6 d 0 w2 -2 3 div mul d w2 neg w6 d w6 w2 neg d w2 -2 3 div mul 0 d w6 w2 d w2 neg w6 neg d 0 w2 2 3 div mul d w2 w6 neg d cl f} def
/m46 {mp x y w4 add m w4 neg w4 d w4 neg w4 neg d  w4 w4 neg d w4 neg w4 neg d w4 w4 neg d w4 w4 d w4 w4 neg d w4 w4 d w4 neg w4 d w4 w4 d w4 neg w4 d w4 neg w4 neg d cl s} def
/m47 {mp x y w4 add m w4 neg w4 d w4 neg w4 neg d w4 w4 neg d w4 neg w4 neg d  w4 w4 neg d w4 w4 d w4 w4 neg d w4 w4 d w4 neg w4 d w4 w4 d w4 neg w4 d w4 neg w4 neg d cl f} def
/m48 {mp x y w4 add m w4 neg w4 d w4 neg w4 neg d w4 w4 neg d  w4 neg w4 neg d w4 w4 neg d w4 w4 d w4 w4 neg d w4 w4 d w4 neg w4 d w4 w4 d w4 neg w4 d w4 neg w4 neg d  w4 w4 neg d w4 neg w4 neg d w4 neg w4 d w4 w4 d cl f} def
/m49 {mp x w2 sub w3 add y w2 sub w3 add m  0 w3 neg d w3 0 d 0 w3 d w3 0 d 0 w3 d w3 neg 0 d 0 w3 d w3 neg 0 d 0 w3 neg d w3 neg 0 d 0 w3 neg d w3 0 d 0 w3 d w3 0 d 0 w3 neg d w3 neg 0 d cl f } def
/m2 {mp x y w2 sub m 0 w d x w2 sub y m w 0 d s} def
/m5 {mp x w2 sub y w2 sub m w w d x w2 sub y w2 add m w w neg d s} def
%%IncludeResource: ProcSet (FontSetInit)
%%IncludeResource: font Times-Roman
%%IncludeResource: font Times-Italic
%%IncludeResource: font Times-Bold
%%IncludeResource: font Times-BoldItalic
%%IncludeResource: font Helvetica
%%IncludeResource: font Helvetica-Oblique
%%IncludeResource: font Helvetica-Bold
%%IncludeResource: font Helvetica-BoldOblique
%%IncludeResource: font Courier
%%IncludeResource: font Courier-Oblique
%%IncludeResource: font Courier-Bold
%%IncludeResource: font Courier-BoldOblique
%%IncludeResource: font Symbol
%%IncludeResource: font ZapfDingbats
/reEncode {exch findfont dup length dict begin {1 index /FID eq  {pop pop} {def} ifelse } forall /Encoding exch def currentdict end dup /FontName get exch definefont pop } def [/Times-Bold /Times-Italic /Times-BoldItalic /Helvetica /Helvetica-Oblique
 /Helvetica-Bold /Helvetica-BoldOblique /Courier /Courier-Oblique /Courier-Bold /Courier-BoldOblique /Times-Roman /AvantGarde-Book /AvantGarde-BookOblique /AvantGarde-Demi /AvantGarde-DemiOblique /Bookman-Demi /Bookman-DemiItalic /Bookman-Light
 /Bookman-LightItalic /Helvetica-Narrow /Helvetica-Narrow-Bold /Helvetica-Narrow-BoldOblique /Helvetica-Narrow-Oblique /NewCenturySchlbk-Roman /NewCenturySchlbk-Bold /NewCenturySchlbk-BoldItalic /NewCenturySchlbk-Italic /Palatino-Bold
 /Palatino-BoldItalic /Palatino-Italic /Palatino-Roman ] {ISOLatin1Encoding reEncode } forall
%%EndProlog
%%BeginSetup
%%EndSetup
newpath  gsave  .25 .25 scale  gsave  0 0 t black[  ] 0 sd 3 lw 1 1 1 c 2268 1575 0 0 bf black 1 1 1 c 2268 472 0 0 bf black 1 1 1 c 1927 274 227 189 bf black 1927 274 227 189 bl 227 189 m 1927 X s 227 201 m -12 Y s 291 195 m -6 Y s 355 195 m -6 Y s
 420 195 m -6 Y s 484 195 m -6 Y s 548 201 m -12 Y s 612 195 m -6 Y s 677 195 m -6 Y s 741 195 m -6 Y s 805 195 m -6 Y s 869 201 m -12 Y s 934 195 m -6 Y s 998 195 m -6 Y s 1062 195 m -6 Y s 1126 195 m -6 Y s 1191 201 m -12 Y s 1255 195 m -6 Y s 1319
 195 m -6 Y s 1383 195 m -6 Y s 1448 195 m -6 Y s 1512 201 m -12 Y s 1576 195 m -6 Y s 1640 195 m -6 Y s 1705 195 m -6 Y s 1769 195 m -6 Y s 1833 201 m -12 Y s 1897 195 m -6 Y s 1962 195 m -6 Y s 2026 195 m -6 Y s 2090 195 m -6 Y s 2154 201 m -12 Y s
 gsave  2268 472 0 0 C 210.193 127.3 t 0 r /Helvetica findfont 53.4895 sf 0 0 m (0) show NC gr 
 gsave  2268 472 0 0 C 518.081 127.3 t 0 r /Helvetica findfont 53.4895 sf 0 0 m (50) show NC gr 
 gsave  2268 472 0 0 C 823.009 127.3 t 0 r /Helvetica findfont 53.4895 sf 0 0 m (100) show NC gr 
 gsave  2268 472 0 0 C 1145.7 127.3 t 0 r /Helvetica findfont 53.4895 sf 0 0 m (150) show NC gr 
 gsave  2268 472 0 0 C 1465.43 127.3 t 0 r /Helvetica findfont 53.4895 sf 0 0 m (200) show NC gr 
 gsave  2268 472 0 0 C 1788.12 127.3 t 0 r /Helvetica findfont 53.4895 sf 0 0 m (250) show NC gr 
 gsave  2268 472 0 0 C 2107.85 127.3 t 0 r /Helvetica findfont 53.4895 sf 0 0 m (300) show NC gr 
 gsave  2268 472 0 0 C 1995.35 41.4465 t 0 r /Helvetica findfont 56.4611 sf 0 0 m ( [GeV]) show NC gr 
 gsave  2268 472 0 0 C 1915.42 68.0907 t 0 r /Helvetica findfont 38.6313 sf 0 0 m (miss) show NC gr 
 gsave  2268 472 0 0 C 1915.42 23.6837 t 0 r /Helvetica findfont 38.6313 sf 0 0 m (T) show NC gr 
 gsave  2268 472 0 0 C 1871.01 41.4465 t 0 r /Helvetica-Oblique findfont 56.4611 sf 0 0 m (E) show NC gr  227 463 m 1927 X s 227 451 m 12 Y s 291 457 m 6 Y s 355 457 m 6 Y s 420 457 m 6 Y s 484 457 m 6 Y s 548 451 m 12 Y s 612 457 m 6 Y s 677 457 m 6
 Y s 741 457 m 6 Y s 805 457 m 6 Y s 869 451 m 12 Y s 934 457 m 6 Y s 998 457 m 6 Y s 1062 457 m 6 Y s 1126 457 m 6 Y s 1191 451 m 12 Y s 1255 457 m 6 Y s 1319 457 m 6 Y s 1383 457 m 6 Y s 1448 457 m 6 Y s 1512 451 m 12 Y s 1576 457 m 6 Y s 1640 457
 m 6 Y s 1705 457 m 6 Y s 1769 457 m 6 Y s 1833 451 m 12 Y s 1897 457 m 6 Y s 1962 457 m 6 Y s 2026 457 m 6 Y s 2090 457 m 6 Y s 2154 451 m 12 Y s 227 189 m 274 Y s 240 240 m -13 X s 240 326 m -13 X s 240 412 m -13 X s 240 240 m -13 X s 240 412 m -13
 X s
 gsave  2268 472 0 0 C 118.419 222.035 t 0 r /Helvetica findfont 53.4895 sf 0 0 m (0.5) show NC gr 
 gsave  2268 472 0 0 C 171.707 307.888 t 0 r /Helvetica findfont 53.4895 sf 0 0 m (1) show NC gr 
 gsave  2268 472 0 0 C 118.419 393.742 t 0 r /Helvetica findfont 53.4895 sf 0 0 m (1.5) show NC gr 
 gsave  2268 472 0 0 C 71.0512 230.916 t 90 r /Helvetica findfont 53.4895 sf 0 0 m (Data / SM) show NC gr  2154 189 m 274 Y s 2141 240 m 13 X s 2141 326 m 13 X s 2141 412 m 13 X s 2141 240 m 13 X s 2141 412 m 13 X s 227 189 m 1927 X s 227 463 m 1927
 X s 227 189 m 274 Y s[ 4 8] 0 sd 2154 240 m -1927 X s 2154 326 m -1927 X s 2154 412 m -1927 X s 2154 240 m -1927 X s 2154 412 m -1927 X s[  ] 0 sd 2154 189 m 274 Y s 1 1 0.6 c 193 0 227 326 bf 192 0 420 326 bf 193 0 612 326 bf 193 0 805 326 bf 193 0
 998 326 bf 192 0 1191 326 bf 193 0 1383 326 bf 193 0 1576 326 bf 193 0 1769 326 bf 192 0 1962 326 bf black 0.6 0.6 0.6 c 420 325 m -7 -7 d s 410 334 m -16 -16 d s 390 334 m -15 -16 d s 371 334 m -16 -16 d s 352 334 m -16 -16 d s 333 334 m -16 -16 d
 s 313 334 m -15 -16 d s 294 334 m -16 -16 d s 275 334 m -16 -16 d s 256 334 m -16 -16 d s 236 334 m -9 -10 d s 612 325 m -2 -2 d s 598 329 m -7 -6 d s 578 329 m -6 -6 d s 559 329 m -7 -6 d s 540 329 m -7 -6 d s 521 329 m -7 -6 d s 501 329 m -6 -6 d
 s 482 329 m -7 -6 d s 463 329 m -7 -6 d s 444 329 m -7 -6 d s 424 329 m -4 -4 d s 805 325 m -3 -2 d s 790 329 m -7 -6 d s 771 329 m -7 -6 d s 752 329 m -7 -6 d s 732 329 m -7 -6 d s 713 329 m -7 -6 d s 694 329 m -7 -6 d s 675 329 m -7 -6 d s 655 329
 m -7 -6 d s 636 329 m -7 -6 d s 617 329 m -5 -4 d s 998 326 m -5 -6 d s 985 332 m -12 -12 d s 965 332 m -11 -12 d s 946 332 m -11 -12 d s 927 332 m -11 -12 d s 908 332 m -11 -12 d s 888 332 m -11 -12 d s 869 332 m -11 -12 d s 850 332 m -11 -12 d s
 831 332 m -11 -12 d s 811 332 m -6 -7 d s 1191 326 m -8 -8 d s 1179 334 m -15 -16 d s 1160 334 m -15 -16 d s 1141 334 m -16 -16 d s 1121 334 m -15 -16 d s 1102 334 m -15 -16 d s 1083 334 m -15 -16 d s 1064 334 m -16 -16 d s 1044 334 m -15 -16 d s
 1025 334 m -15 -16 d s 1006 334 m -8 -8 d s 1383 326 m -10 -10 d s 1374 336 m -20 -20 d s 1355 336 m -21 -20 d s 1336 336 m -21 -20 d s 1316 336 m -20 -20 d s 1297 336 m -20 -20 d s 1278 336 m -21 -20 d s 1259 336 m -21 -20 d s 1239 336 m -20 -20 d
 s 1220 336 m -20 -20 d s 1201 336 m -10 -10 d s 1576 327 m -14 -15 d s 1570 340 m -28 -28 d s 1551 340 m -28 -28 d s 1532 340 m -28 -28 d s 1512 340 m -27 -28 d s 1493 340 m -27 -28 d s 1474 340 m -28 -28 d s 1455 340 m -28 -28 d s 1435 340 m -27
 -28 d s 1416 340 m -27 -28 d s 1397 340 m -14 -14 d s 1769 327 m -19 -19 d s 1766 344 m -35 -36 d s 1747 344 m -35 -36 d s 1728 344 m -35 -36 d s 1709 344 m -36 -36 d s 1689 344 m -35 -36 d s 1670 344 m -35 -36 d s 1651 344 m -35 -36 d s 1632 344 m
 -36 -36 d s 1612 344 m -35 -36 d s 1593 344 m -17 -17 d s 1962 308 m -8 -7 d s 1962 327 m -27 -26 d s 1962 347 m -46 -46 d s 1947 351 m -50 -50 d s 1928 351 m -51 -50 d s 1909 351 m -51 -50 d s 1890 351 m -51 -50 d s 1870 351 m -50 -50 d s 1851 351
 m -51 -50 d s 1832 351 m -51 -50 d s 1813 351 m -44 -43 d s 1793 351 m -24 -24 d s 1774 351 m -5 -5 d s 2154 328 m -12 -13 d s 2144 337 m -21 -22 d s 2125 337 m -21 -22 d s 2106 337 m -21 -22 d s 2086 337 m -21 -22 d s 2067 337 m -21 -22 d s 2048
 337 m -21 -22 d s 2029 337 m -21 -22 d s 2009 337 m -21 -22 d s 1990 337 m -21 -22 d s 1971 337 m -9 -10 d s black 1 1 1 c black 323 291 m 6 Y s 323 320 m 6 Y s /w 26 def /w2 {w 2 div} def /w3 {w 3 div} def 323 308 m20 516 280 m20 709 293 m 3 Y s
 709 320 m 3 Y s 709 308 m20 901 332 m 13 Y s 901 369 m 12 Y s 901 357 m20 1094 297 m 21 Y s 1094 342 m 21 Y s 1094 330 m20 1480 296 m 59 Y s 1480 379 m 59 Y s 1480 367 m20 1672 211 m 65 Y s 1672 300 m 65 Y s 1672 288 m20 1865 263 m 135 Y s 1865 422
 m 41 Y s 1865 410 m20 2058 189 m 34 Y s 2058 246 m 45 Y s 2058 234 m20 227 326 m 1927 X s 227 189 m 1927 X s 227 201 m -12 Y s 291 195 m -6 Y s 355 195 m -6 Y s 420 195 m -6 Y s 484 195 m -6 Y s 548 201 m -12 Y s 612 195 m -6 Y s 677 195 m -6 Y s
 741 195 m -6 Y s 805 195 m -6 Y s 869 201 m -12 Y s 934 195 m -6 Y s 998 195 m -6 Y s 1062 195 m -6 Y s 1126 195 m -6 Y s 1191 201 m -12 Y s 1255 195 m -6 Y s 1319 195 m -6 Y s 1383 195 m -6 Y s 1448 195 m -6 Y s 1512 201 m -12 Y s 1576 195 m -6 Y s
 1640 195 m -6 Y s 1705 195 m -6 Y s 1769 195 m -6 Y s 1833 201 m -12 Y s 1897 195 m -6 Y s 1962 195 m -6 Y s 2026 195 m -6 Y s 2090 195 m -6 Y s 2154 201 m -12 Y s 227 463 m 1927 X s 227 451 m 12 Y s 291 457 m 6 Y s 355 457 m 6 Y s 420 457 m 6 Y s
 484 457 m 6 Y s 548 451 m 12 Y s 612 457 m 6 Y s 677 457 m 6 Y s 741 457 m 6 Y s 805 457 m 6 Y s 869 451 m 12 Y s 934 457 m 6 Y s 998 457 m 6 Y s 1062 457 m 6 Y s 1126 457 m 6 Y s 1191 451 m 12 Y s 1255 457 m 6 Y s 1319 457 m 6 Y s 1383 457 m 6 Y s
 1448 457 m 6 Y s 1512 451 m 12 Y s 1576 457 m 6 Y s 1640 457 m 6 Y s 1705 457 m 6 Y s 1769 457 m 6 Y s 1833 451 m 12 Y s 1897 457 m 6 Y s 1962 457 m 6 Y s 2026 457 m 6 Y s 2090 457 m 6 Y s 2154 451 m 12 Y s 227 189 m 274 Y s 240 240 m -13 X s 240
 326 m -13 X s 240 412 m -13 X s 240 240 m -13 X s 240 412 m -13 X s 2154 189 m 274 Y s 2141 240 m 13 X s 2141 326 m 13 X s 2141 412 m 13 X s 2141 240 m 13 X s 2141 412 m 13 X s 1 1 1 c 2268 1103 0 472 bf black 1 1 1 c 1927 1036 227 484 bf black 1927
 1036 227 484 bl 1 1 1 c black 3 lw 227 484 m 1927 X s 227 502 m -18 Y s 291 493 m -9 Y s 355 493 m -9 Y s 420 493 m -9 Y s 484 493 m -9 Y s 548 502 m -18 Y s 612 493 m -9 Y s 677 493 m -9 Y s 741 493 m -9 Y s 805 493 m -9 Y s 869 502 m -18 Y s 934
 493 m -9 Y s 998 493 m -9 Y s 1062 493 m -9 Y s 1126 493 m -9 Y s 1191 502 m -18 Y s 1255 493 m -9 Y s 1319 493 m -9 Y s 1383 493 m -9 Y s 1448 493 m -9 Y s 1512 502 m -18 Y s 1576 493 m -9 Y s 1640 493 m -9 Y s 1705 493 m -9 Y s 1769 493 m -9 Y s
 1833 502 m -18 Y s 1897 493 m -9 Y s 1962 493 m -9 Y s 2026 493 m -9 Y s 2090 493 m -9 Y s 2154 502 m -18 Y s
 gsave  2268 1103 0 472 C 2069.37 396.702 t 0 r /Helvetica findfont 29.6365 sf 0 0 m ( [GeV]) show NC gr 
 gsave  2268 1103 0 472 C 2024.96 414.465 t 0 r /Helvetica findfont 20.7455 sf 0 0 m (miss) show NC gr 
 gsave  2268 1103 0 472 C 2024.96 387.821 t 0 r /Helvetica findfont 20.7455 sf 0 0 m (T) show NC gr 
 gsave  2268 1103 0 472 C 2001.27 396.702 t 0 r /Helvetica-Oblique findfont 29.6365 sf 0 0 m (E) show NC gr  227 1520 m 1927 X s 227 1501 m 19 Y s 291 1510 m 10 Y s 355 1510 m 10 Y s 420 1510 m 10 Y s 484 1510 m 10 Y s 548 1501 m 19 Y s 612 1510 m 10
 Y s 677 1510 m 10 Y s 741 1510 m 10 Y s 805 1510 m 10 Y s 869 1501 m 19 Y s 934 1510 m 10 Y s 998 1510 m 10 Y s 1062 1510 m 10 Y s 1126 1510 m 10 Y s 1191 1501 m 19 Y s 1255 1510 m 10 Y s 1319 1510 m 10 Y s 1383 1510 m 10 Y s 1448 1510 m 10 Y s 1512
 1501 m 19 Y s 1576 1510 m 10 Y s 1640 1510 m 10 Y s 1705 1510 m 10 Y s 1769 1510 m 10 Y s 1833 1501 m 19 Y s 1897 1510 m 10 Y s 1962 1510 m 10 Y s 2026 1510 m 10 Y s 2090 1510 m 10 Y s 2154 1501 m 19 Y s 227 484 m 1036 Y s 248 609 m -21 X s 237 634
 m -10 X s 237 659 m -10 X s 237 685 m -10 X s 237 710 m -10 X s 248 735 m -21 X s 237 760 m -10 X s 237 785 m -10 X s 237 810 m -10 X s 237 835 m -10 X s 248 860 m -21 X s 237 886 m -10 X s 237 911 m -10 X s 237 936 m -10 X s 237 961 m -10 X s 248
 986 m -21 X s 237 1011 m -10 X s 237 1036 m -10 X s 237 1062 m -10 X s 237 1087 m -10 X s 248 1112 m -21 X s 237 1137 m -10 X s 237 1162 m -10 X s 237 1187 m -10 X s 237 1212 m -10 X s 248 1237 m -21 X s 237 1263 m -10 X s 237 1288 m -10 X s 237
 1313 m -10 X s 237 1338 m -10 X s 248 1363 m -21 X s 237 1388 m -10 X s 237 1413 m -10 X s 237 1439 m -10 X s 237 1464 m -10 X s 248 1489 m -21 X s 248 609 m -21 X s 237 584 m -10 X s 237 559 m -10 X s 237 534 m -10 X s 237 509 m -10 X s 248 1489 m
 -21 X s 237 1514 m -10 X s
 gsave  2268 1103 0 472 C 145.063 589.133 t 0 r /Helvetica findfont 50.382 sf 0 0 m (50) show NC gr 
 gsave  2268 1103 0 472 C 118.419 716.433 t 0 r /Helvetica findfont 50.382 sf 0 0 m (100) show NC gr 
 gsave  2268 1103 0 472 C 118.419 840.772 t 0 r /Helvetica findfont 50.382 sf 0 0 m (150) show NC gr 
 gsave  2268 1103 0 472 C 118.419 968.072 t 0 r /Helvetica findfont 50.382 sf 0 0 m (200) show NC gr 
 gsave  2268 1103 0 472 C 118.419 1092.41 t 0 r /Helvetica findfont 50.382 sf 0 0 m (250) show NC gr 
 gsave  2268 1103 0 472 C 118.419 1216.75 t 0 r /Helvetica findfont 50.382 sf 0 0 m (300) show NC gr 
 gsave  2268 1103 0 472 C 118.419 1344.05 t 0 r /Helvetica findfont 50.382 sf 0 0 m (350) show NC gr 
 gsave  2268 1103 0 472 C 118.419 1468.39 t 0 r /Helvetica findfont 50.382 sf 0 0 m (400) show NC gr 
 gsave  2268 1103 0 472 C 62.1698 1154.58 t 90 r /Helvetica findfont 50.382 sf 0 0 m (Events / 30 GeV) show NC gr  2154 484 m 1036 Y s 2133 609 m 21 X s 2144 634 m 10 X s 2144 659 m 10 X s 2144 685 m 10 X s 2144 710 m 10 X s 2133 735 m 21 X s 2144
 760 m 10 X s 2144 785 m 10 X s 2144 810 m 10 X s 2144 835 m 10 X s 2133 860 m 21 X s 2144 886 m 10 X s 2144 911 m 10 X s 2144 936 m 10 X s 2144 961 m 10 X s 2133 986 m 21 X s 2144 1011 m 10 X s 2144 1036 m 10 X s 2144 1062 m 10 X s 2144 1087 m 10 X
 s 2133 1112 m 21 X s 2144 1137 m 10 X s 2144 1162 m 10 X s 2144 1187 m 10 X s 2144 1212 m 10 X s 2133 1237 m 21 X s 2144 1263 m 10 X s 2144 1288 m 10 X s 2144 1313 m 10 X s 2144 1338 m 10 X s 2133 1363 m 21 X s 2144 1388 m 10 X s 2144 1413 m 10 X s
 2144 1439 m 10 X s 2144 1464 m 10 X s 2133 1489 m 21 X s 2133 609 m 21 X s 2144 584 m 10 X s 2144 559 m 10 X s 2144 534 m 10 X s 2144 509 m 10 X s 2133 1489 m 21 X s 2144 1514 m 10 X s 0.4 0.6 0.4 c black 3 lw 0.4 0.6 0.4 c 227 484 m 212 Y 193 X 202
 Y 192 X -128 Y 193 X -142 Y 193 X -76 Y 193 X -37 Y 192 X -13 Y 193 X -9 Y 193 X -4 Y 193 X 5 Y 192 X -10 Y f 0.06 0.54 0.06 c 0.999 0.999 0.999 c black 3 lw 0.999 0.999 0.999 c 227 484 m 106 Y 193 X 114 Y 192 X -55 Y 193 X -68 Y 193 X -43 Y 193 X
 -28 Y 192 X -11 Y 193 X -7 Y 193 X -4 Y 193 X 5 Y 192 X -9 Y f 0.06 0.54 0.06 c 0.999 0.999 0.999 c 0.06 0.54 0.06 c 1 1 1 c black 0.06 0.54 0.06 c black 3 lw 0.06 0.54 0.06 c 227 484 m 106 Y 193 X 114 Y 192 X -55 Y 193 X -68 Y 193 X -43 Y 193 X -28
 Y 192 X -11 Y 193 X -7 Y 193 X -4 Y 193 X 5 Y 192 X -9 Y f 1 0.653333 0 c 0.999 0.999 0.999 c black 3 lw 0.999 0.999 0.999 c 227 484 m 69 Y 193 X 72 Y 192 X -39 Y 193 X -42 Y 193 X -26 Y 193 X -17 Y 192 X -8 Y 193 X -4 Y 193 X -2 Y 193 X 4 Y 192 X
 -7 Y f 1 0.653333 0 c 0.999 0.999 0.999 c 1 0.653333 0 c 1 1 1 c black 1 0.653333 0 c black 3 lw 1 0.653333 0 c 227 484 m 69 Y 193 X 72 Y 192 X -39 Y 193 X -42 Y 193 X -26 Y 193 X -17 Y 192 X -8 Y 193 X -4 Y 193 X -2 Y 193 X 4 Y 192 X -7 Y f
 0.413333 1 0 c 0.999 0.999 0.999 c black 3 lw 0.999 0.999 0.999 c 227 484 m 67 Y 193 X 63 Y 192 X -29 Y 193 X -41 Y 193 X -26 Y 193 X -17 Y 192 X -8 Y 193 X -4 Y 193 X -2 Y 193 X 4 Y 192 X -7 Y f 0.413333 1 0 c 0.999 0.999 0.999 c 0.413333 1 0 c 1 1
 1 c black 0.413333 1 0 c black 3 lw 0.413333 1 0 c 227 484 m 67 Y 193 X 63 Y 192 X -29 Y 193 X -41 Y 193 X -26 Y 193 X -17 Y 192 X -8 Y 193 X -4 Y 193 X -2 Y 193 X 4 Y 192 X -7 Y f 0.6 0.2 1 c 0.999 0.999 0.999 c black 3 lw 0.999 0.999 0.999 c 227
 484 m 34 Y 193 X 43 Y 192 X -6 Y 193 X -25 Y 193 X -19 Y 193 X -13 Y 192 X -7 Y 193 X -3 Y 193 X -2 Y 193 X 3 Y 192 X -5 Y f 0.6 0.2 1 c 0.999 0.999 0.999 c 0.6 0.2 1 c 1 1 1 c black 0.6 0.2 1 c black 3 lw 0.6 0.2 1 c 227 484 m 34 Y 193 X 43 Y 192 X
 -6 Y 193 X -25 Y 193 X -19 Y 193 X -13 Y 192 X -7 Y 193 X -3 Y 193 X -2 Y 193 X 3 Y 192 X -5 Y f 0.54 0.06 0.06 c 0.999 0.999 0.999 c black 3 lw 0.999 0.999 0.999 c 227 484 m 31 Y 193 X 37 Y 192 X -4 Y 193 X -22 Y 193 X -18 Y 193 X -12 Y 192 X -6 Y
 193 X -2 Y 193 X -2 Y 193 X 2 Y 192 X -4 Y f 0.54 0.06 0.06 c 0.999 0.999 0.999 c 0.54 0.06 0.06 c 1 1 1 c black 0.54 0.06 0.06 c black 3 lw 0.54 0.06 0.06 c 227 484 m 31 Y 193 X 37 Y 192 X -4 Y 193 X -22 Y 193 X -18 Y 193 X -12 Y 192 X -6 Y 193 X
 -2 Y 193 X -2 Y 193 X 2 Y 192 X -4 Y f 1 0 1 c 0.999 0.999 0.999 c black 3 lw 0.999 0.999 0.999 c 227 484 m 10 Y 193 X 13 Y 192 X -4 Y 193 X -7 Y 193 X -7 Y 193 X -3 Y 192 X -1 Y 193 X -1 Y 578 X f 1 0 1 c 0.999 0.999 0.999 c 1 0 1 c 1 1 1 c black 1
 0 1 c black 3 lw 1 0 1 c 227 484 m 10 Y 193 X 13 Y 192 X -4 Y 193 X -7 Y 193 X -7 Y 193 X -3 Y 192 X -1 Y 193 X -1 Y 578 X f 0 0 1 c 0.999 0.999 0.999 c black 3 lw 0.999 0.999 0.999 c 227 484 m 3 Y 193 X 6 Y 192 X -1 Y 193 X -1 Y 193 X -4 Y 193 X -2
 Y 192 X -1 Y 771 X f 0 0 1 c 0.999 0.999 0.999 c 0 0 1 c 1 1 1 c black 0 0 1 c black 3 lw 0 0 1 c 227 484 m 3 Y 193 X 6 Y 192 X -1 Y 193 X -1 Y 193 X -4 Y 193 X -2 Y 192 X -1 Y 771 X f 0.2 0.8 0.8 c 0.999 0.999 0.999 c black 3 lw 0.999 0.999 0.999 c
 227 484 m 1 Y 193 X 4 Y 192 X -1 Y 386 X -3 Y 193 X -1 Y 963 X f 0.2 0.8 0.8 c 0.999 0.999 0.999 c 0.2 0.8 0.8 c 1 1 1 c black 0.2 0.8 0.8 c black 3 lw 0.2 0.8 0.8 c 227 484 m 1 Y 193 X 4 Y 192 X -1 Y 386 X -3 Y 193 X -1 Y 963 X f 1 0 0 c 0.999
 0.999 0.999 c black 3 lw 0.999 0.999 0.999 c 227 484 m 193 X 3 Y 578 X -2 Y 193 X -1 Y 963 X f 1 0 0 c 0.999 0.999 0.999 c 1 0 0 c 1 1 1 c black 1 0 0 c black 3 lw 1 0 0 c 227 484 m 193 X 3 Y 578 X -2 Y 193 X -1 Y 963 X f 1 0.84 0 c 0.999 0.999
 0.999 c black 3 lw 0.999 0.999 0.999 c 227 484 m 193 X 2 Y 578 X -1 Y 193 X -1 Y 963 X f 1 0.84 0 c 0.999 0.999 0.999 c 1 0.84 0 c 1 1 1 c black 1 0.84 0 c black 3 lw 1 0.84 0 c 227 484 m 193 X 2 Y 578 X -1 Y 193 X -1 Y 963 X f black 1 1 1 c black
 0.6 0.6 0.6 c 3 lw 420 699 m -13 -12 d s 407 706 m -19 -19 d s 388 706 m -20 -19 d s 369 706 m -20 -19 d s 350 706 m -20 -19 d s 330 706 m -19 -19 d s 311 706 m -20 -19 d s 292 706 m -20 -19 d s 273 706 m -20 -19 d s 253 706 m -19 -19 d s 234 706 m
 -7 -7 d s 3 lw 612 892 m -2 -2 d s 608 906 m -17 -16 d s 588 906 m -16 -16 d s 569 906 m -16 -16 d s 550 906 m -17 -16 d s 531 906 m -17 -16 d s 511 906 m -16 -16 d s 492 906 m -16 -16 d s 473 906 m -16 -16 d s 454 906 m -17 -16 d s 434 906 m -14
 -15 d s 3 lw 804 775 m -12 -11 d s 785 775 m -12 -11 d s 765 775 m -11 -11 d s 746 775 m -11 -11 d s 727 775 m -12 -11 d s 708 775 m -12 -11 d s 688 775 m -11 -11 d s 669 775 m -11 -11 d s 650 775 m -12 -11 d s 631 775 m -12 -11 d s 3 lw 988 633 m
 -9 -9 d s 969 633 m -9 -9 d s 950 633 m -10 -9 d s 931 633 m -10 -9 d s 911 633 m -9 -9 d s 892 633 m -9 -9 d s 873 633 m -10 -9 d s 854 633 m -10 -9 d s 834 633 m -9 -9 d s 815 633 m -9 -9 d s 3 lw 1180 555 m -6 -6 d s 1161 555 m -7 -6 d s 1141 555
 m -6 -6 d s 1122 555 m -6 -6 d s 1103 555 m -6 -6 d s 1084 555 m -7 -6 d s 1064 555 m -6 -6 d s 1045 555 m -6 -6 d s 1026 555 m -6 -6 d s 1007 555 m -7 -6 d s 3 lw 1372 517 m -3 -4 d s 1353 517 m -4 -4 d s 1334 517 m -4 -4 d s 1315 517 m -4 -4 d s
 1295 517 m -3 -4 d s 1276 517 m -4 -4 d s 1257 517 m -4 -4 d s 1238 517 m -4 -4 d s 1218 517 m -3 -4 d s 1199 517 m -4 -4 d s 3 lw 1570 503 m -3 -3 d s 1551 503 m -3 -3 d s 1532 503 m -3 -3 d s 1512 503 m -3 -3 d s 1493 503 m -3 -3 d s 1474 503 m -3
 -3 d s 1455 503 m -3 -3 d s 1435 503 m -2 -3 d s 1416 503 m -3 -3 d s 1397 503 m -3 -3 d s 3 lw 1754 494 m -2 -2 d s 1734 494 m -2 -2 d s 1715 494 m -2 -2 d s 1696 494 m -2 -2 d s 1677 494 m -2 -2 d s 1657 494 m -2 -2 d s 1638 494 m -2 -2 d s 1619
 494 m -2 -2 d s 1600 494 m -2 -2 d s 1580 494 m -2 -2 d s 3 lw 1960 489 m -1 -1 d s 1941 489 m -1 -1 d s 1922 489 m -2 -1 d s 1903 489 m -2 -1 d s 1883 489 m -1 -1 d s 1864 489 m -1 -1 d s 1845 489 m -2 -1 d s 1826 489 m -2 -1 d s 1806 489 m -1 -1 d
 s 1787 489 m -1 -1 d s 3 lw 2139 495 m -1 -1 d s 2120 495 m -1 -1 d s 2101 495 m -2 -1 d s 2081 495 m -1 -1 d s 2062 495 m -1 -1 d s 2043 495 m -1 -1 d s 2024 495 m -2 -1 d s 2004 495 m -1 -1 d s 1985 495 m -1 -1 d s 1966 495 m -1 -1 d s black 3 lw
 1 1 1 c black 323 653 m 10 Y s 323 686 m 10 Y s /w 24 def /w2 {w 2 div} def /w3 {w 3 div} def 323 674 m20 516 760 m 16 Y s 516 799 m 16 Y s 516 788 m20 709 714 m 14 Y s 709 752 m 13 Y s 709 740 m20 901 634 m 9 Y s 901 666 m 9 Y s 901 654 m20 1094
 541 m 1 Y s 1094 566 m 1 Y s 1094 554 m20 1287 531 m 1 Y s 1287 556 m s 1287 544 m20 1480 506 m20 1672 491 m20 1865 491 m20 2058 489 m20 227 484 m 1927 X s 227 502 m -18 Y s 291 493 m -9 Y s 355 493 m -9 Y s 420 493 m -9 Y s 484 493 m -9 Y s 548 502
 m -18 Y s 612 493 m -9 Y s 677 493 m -9 Y s 741 493 m -9 Y s 805 493 m -9 Y s 869 502 m -18 Y s 934 493 m -9 Y s 998 493 m -9 Y s 1062 493 m -9 Y s 1126 493 m -9 Y s 1191 502 m -18 Y s 1255 493 m -9 Y s 1319 493 m -9 Y s 1383 493 m -9 Y s 1448 493 m
 -9 Y s 1512 502 m -18 Y s 1576 493 m -9 Y s 1640 493 m -9 Y s 1705 493 m -9 Y s 1769 493 m -9 Y s 1833 502 m -18 Y s 1897 493 m -9 Y s 1962 493 m -9 Y s 2026 493 m -9 Y s 2090 493 m -9 Y s 2154 502 m -18 Y s 227 1520 m 1927 X s 227 1501 m 19 Y s 291
 1510 m 10 Y s 355 1510 m 10 Y s 420 1510 m 10 Y s 484 1510 m 10 Y s 548 1501 m 19 Y s 612 1510 m 10 Y s 677 1510 m 10 Y s 741 1510 m 10 Y s 805 1510 m 10 Y s 869 1501 m 19 Y s 934 1510 m 10 Y s 998 1510 m 10 Y s 1062 1510 m 10 Y s 1126 1510 m 10 Y s
 1191 1501 m 19 Y s 1255 1510 m 10 Y s 1319 1510 m 10 Y s 1383 1510 m 10 Y s 1448 1510 m 10 Y s 1512 1501 m 19 Y s 1576 1510 m 10 Y s 1640 1510 m 10 Y s 1705 1510 m 10 Y s 1769 1510 m 10 Y s 1833 1501 m 19 Y s 1897 1510 m 10 Y s 1962 1510 m 10 Y s
 2026 1510 m 10 Y s 2090 1510 m 10 Y s 2154 1501 m 19 Y s 227 484 m 1036 Y s 248 609 m -21 X s 237 634 m -10 X s 237 659 m -10 X s 237 685 m -10 X s 237 710 m -10 X s 248 735 m -21 X s 237 760 m -10 X s 237 785 m -10 X s 237 810 m -10 X s 237 835 m
 -10 X s 248 860 m -21 X s 237 886 m -10 X s 237 911 m -10 X s 237 936 m -10 X s 237 961 m -10 X s 248 986 m -21 X s 237 1011 m -10 X s 237 1036 m -10 X s 237 1062 m -10 X s 237 1087 m -10 X s 248 1112 m -21 X s 237 1137 m -10 X s 237 1162 m -10 X s
 237 1187 m -10 X s 237 1212 m -10 X s 248 1237 m -21 X s 237 1263 m -10 X s 237 1288 m -10 X s 237 1313 m -10 X s 237 1338 m -10 X s 248 1363 m -21 X s 237 1388 m -10 X s 237 1413 m -10 X s 237 1439 m -10 X s 237 1464 m -10 X s 248 1489 m -21 X s
 248 609 m -21 X s 237 584 m -10 X s 237 559 m -10 X s 237 534 m -10 X s 237 509 m -10 X s 248 1489 m -21 X s 237 1514 m -10 X s 2154 484 m 1036 Y s 2133 609 m 21 X s 2144 634 m 10 X s 2144 659 m 10 X s 2144 685 m 10 X s 2144 710 m 10 X s 2133 735 m
 21 X s 2144 760 m 10 X s 2144 785 m 10 X s 2144 810 m 10 X s 2144 835 m 10 X s 2133 860 m 21 X s 2144 886 m 10 X s 2144 911 m 10 X s 2144 936 m 10 X s 2144 961 m 10 X s 2133 986 m 21 X s 2144 1011 m 10 X s 2144 1036 m 10 X s 2144 1062 m 10 X s 2144
 1087 m 10 X s 2133 1112 m 21 X s 2144 1137 m 10 X s 2144 1162 m 10 X s 2144 1187 m 10 X s 2144 1212 m 10 X s 2133 1237 m 21 X s 2144 1263 m 10 X s 2144 1288 m 10 X s 2144 1313 m 10 X s 2144 1338 m 10 X s 2133 1363 m 21 X s 2144 1388 m 10 X s 2144
 1413 m 10 X s 2144 1439 m 10 X s 2144 1464 m 10 X s 2133 1489 m 21 X s 2133 609 m 21 X s 2144 584 m 10 X s 2144 559 m 10 X s 2144 534 m 10 X s 2144 509 m 10 X s 2133 1489 m 21 X s 2144 1514 m 10 X s
 gsave  2268 1103 0 472 C 1314.45 1432.87 t 0 r /Helvetica findfont 56.3093 sf 0 0 m ( Data) show NC gr  1259 1456 m 7 Y s 1259 1432 m -7 Y s 1259 1444 m20
 gsave  2268 1103 0 472 C 1776.28 1432.87 t 0 r /Helvetica findfont 56.3093 sf 0 0 m ( Fakes \(MM\)) show NC gr  0.4 0.6 0.4 c 1682 1422 m 79 X 44 Y -79 X f black
 gsave  2268 1103 0 472 C 1403.26 1367.74 t 0 r /Helvetica findfont 56.3093 sf 0 0 m (single\255top) show NC gr 
 gsave  2268 1103 0 472 C 1373.66 1367.74 t 0 r /Helvetica-Oblique findfont 56.3093 sf 0 0 m (/) show NC gr 
 gsave  2268 1103 0 472 C 1352.93 1367.74 t 0 r /Helvetica-Oblique findfont 56.3093 sf 0 0 m (t) show NC gr  6 lw 1353 1412 m 21 X s
 gsave  2268 1103 0 472 C 1332.21 1367.74 t 0 r /Helvetica-Oblique findfont 56.3093 sf 0 0 m (t) show NC gr 
 gsave  2268 1103 0 472 C 1314.45 1367.74 t 0 r /Helvetica findfont 56.3093 sf 0 0 m ( ) show NC gr  0.06 0.54 0.06 c 3 lw 1219 1359 m 79 X 44 Y -79 X f 6 lw black
 gsave  2268 1103 0 472 C 1906.54 1367.74 t 0 r /Helvetica findfont 56.3093 sf 0 0 m (+jets) show NC gr 
 gsave  2268 1103 0 472 C 1794.04 1367.74 t 0 r /Helvetica-Oblique findfont 56.3093 sf 0 0 m (W/Z) show NC gr 
 gsave  2268 1103 0 472 C 1776.28 1367.74 t 0 r /Helvetica findfont 56.3093 sf 0 0 m ( ) show NC gr  1 0.653333 0 c 3 lw 1682 1359 m 79 X 44 Y -79 X f black
 gsave  2268 1103 0 472 C 1512.8 1305.57 t 0 r /Helvetica findfont 56.3093 sf 0 0 m (+jets) show NC gr 
 gsave  2268 1103 0 472 C 1332.21 1305.57 t 0 r /Helvetica-Oblique findfont 56.3093 sf 0 0 m (WZ/ZZ) show NC gr 
 gsave  2268 1103 0 472 C 1314.45 1305.57 t 0 r /Helvetica findfont 56.3093 sf 0 0 m ( ) show NC gr  0.413333 1 0 c 3 lw 1219 1296 m 79 X 44 Y -79 X f black
 gsave  2268 1103 0 472 C 1835.49 1305.57 t 0 r /Helvetica-Oblique findfont 56.3093 sf 0 0 m (Z) show NC gr 
 gsave  2268 1103 0 472 C 1814.77 1305.57 t 0 r /Helvetica-Oblique findfont 56.3093 sf 0 0 m (t) show NC gr  6 lw 1815 1350 m 20 X s
 gsave  2268 1103 0 472 C 1794.04 1305.57 t 0 r /Helvetica-Oblique findfont 56.3093 sf 0 0 m (t) show NC gr 
 gsave  2268 1103 0 472 C 1776.28 1305.57 t 0 r /Helvetica findfont 56.3093 sf 0 0 m ( ) show NC gr  0.6 0.2 1 c 3 lw 1682 1296 m 79 X 44 Y -79 X f 6 lw black
 gsave  2268 1103 0 472 C 1373.66 1243.4 t 0 r /Helvetica-Oblique findfont 56.3093 sf 0 0 m (W) show NC gr 
 gsave  2268 1103 0 472 C 1352.93 1243.4 t 0 r /Helvetica-Oblique findfont 56.3093 sf 0 0 m (t) show NC gr  6 lw 1353 1288 m 21 X s
 gsave  2268 1103 0 472 C 1332.21 1243.4 t 0 r /Helvetica-Oblique findfont 56.3093 sf 0 0 m (t) show NC gr 
 gsave  2268 1103 0 472 C 1314.45 1243.4 t 0 r /Helvetica findfont 56.3093 sf 0 0 m ( ) show NC gr  0.54 0.06 0.06 c 3 lw 1219 1233 m 79 X 44 Y -79 X f 6 lw black
 gsave  2268 1103 0 472 C 1794.04 1243.4 t 0 r /Helvetica-Oblique findfont 56.3093 sf 0 0 m (tZq) show NC gr 
 gsave  2268 1103 0 472 C 1776.28 1243.4 t 0 r /Helvetica findfont 56.3093 sf 0 0 m ( ) show NC gr  1 0 1 c 3 lw 1682 1233 m 79 X 44 Y -79 X f black
 gsave  2268 1103 0 472 C 1373.66 1178.27 t 0 r /Helvetica-Oblique findfont 56.3093 sf 0 0 m (H) show NC gr 
 gsave  2268 1103 0 472 C 1352.93 1178.27 t 0 r /Helvetica-Oblique findfont 56.3093 sf 0 0 m (t) show NC gr  6 lw 1353 1223 m 21 X s
 gsave  2268 1103 0 472 C 1332.21 1178.27 t 0 r /Helvetica-Oblique findfont 56.3093 sf 0 0 m (t) show NC gr 
 gsave  2268 1103 0 472 C 1314.45 1178.27 t 0 r /Helvetica findfont 56.3093 sf 0 0 m ( ) show NC gr  0 0 1 c 3 lw 1219 1170 m 79 X 44 Y -79 X f 6 lw black
 gsave  2268 1103 0 472 C 1794.04 1178.27 t 0 r /Helvetica-Oblique findfont 56.3093 sf 0 0 m (tWZ/tWH) show NC gr 
 gsave  2268 1103 0 472 C 1776.28 1178.27 t 0 r /Helvetica findfont 56.3093 sf 0 0 m ( ) show NC gr  0.2 0.8 0.8 c 3 lw 1682 1170 m 79 X 44 Y -79 X f black
 gsave  2268 1103 0 472 C 1332.21 1116.1 t 0 r /Helvetica-Oblique findfont 56.3093 sf 0 0 m (tHq) show NC gr 
 gsave  2268 1103 0 472 C 1314.45 1116.1 t 0 r /Helvetica findfont 56.3093 sf 0 0 m ( ) show NC gr  1 0 0 c 3 lw 1219 1107 m 79 X 44 Y -79 X f black
 gsave  2268 1103 0 472 C 1776.28 1116.1 t 0 r /Helvetica findfont 56.3093 sf 0 0 m ( Other) show NC gr  1 0.84 0 c 3 lw 1682 1107 m 79 X 44 Y -79 X f black
 gsave  2268 1103 0 472 C 1314.45 1053.93 t 0 r /Helvetica findfont 56.3093 sf 0 0 m ( Uncertainty) show NC gr  0.6 0.6 0.6 c 3 lw 1298 1058 m -13 -14 d s 1298 1077 m -33 -33 d s 1290 1088 m -44 -44 d s 1271 1088 m -44 -44 d s 1252 1088 m -33 -33 d s
 1233 1088 m -14 -13 d s 1 0.84 0 c 0.6 0.6 0.6 c black
 gsave  2268 1103 0 472 C 894.061 1329.25 t 0 r /Helvetica findfont 41.4911 sf 0 0 m (\2551) show NC gr 
 gsave  2268 1103 0 472 C 399.663 1299.64 t 0 r /Helvetica findfont 62.2366 sf 0 0 m ( = 13 TeV,  139 fb) show NC gr 
 gsave  2268 1103 0 472 C 370.058 1299.64 t 0 r /Helvetica findfont 62.2366 sf 0 0 m (s) show NC gr  6 lw 349 1335 m 6 -38 d s 3 lw 355 1297 m 6 56 d s 361 1353 m 39 X s
 gsave  2268 1103 0 472 C 947.349 1201.95 t 0 r /Helvetica findfont 62.2366 sf 0 0 m (\)) show NC gr 
 gsave  2268 1103 0 472 C 899.982 1201.95 t 0 r /Helvetica-Oblique findfont 62.2366 sf 0 0 m (Z) show NC gr 
 gsave  2268 1103 0 472 C 811.168 1201.95 t 0 r /Helvetica findfont 62.2366 sf 0 0 m (\255no) show NC gr 
 gsave  2268 1103 0 472 C 784.523 1201.95 t 0 r /Helvetica-Oblique findfont 62.2366 sf 0 0 m (j) show NC gr 
 gsave  2268 1103 0 472 C 751.958 1201.95 t 0 r /Helvetica findfont 62.2366 sf 0 0 m (3) show NC gr 
 gsave  2268 1103 0 472 C 713.472 1201.95 t 0 r /Helvetica-Oblique findfont 62.2366 sf 0 0 m (b) show NC gr 
 gsave  2268 1103 0 472 C 337.493 1201.95 t 0 r /Helvetica findfont 62.2366 sf 0 0 m ( 2L\(SS\), VR\(1) show NC gr 
 gsave  2268 1103 0 472 C 337.493 1400.3 t 0 r /Helvetica-BoldOblique findfont 71.1276 sf 0 0 m (ATLAS) show NC gr 
 gsave  2268 1103 0 472 C 633.54 1400.3 t 0 r /Helvetica findfont 71.1276 sf 0 0 m (Internal) show NC gr 
 gr  gr showpage
end
%%EOF
