%!PS-Adobe-2.0 EPSF-2.0
%%BoundingBox:  0 0 567 394
%%Title: /lhome/ific/c/cardillo/tHq/Plots/Plots-30-05-22-PLIV-SF/2LSS_MM/EtMiss_Pre.eps: EtMiss_Pre
%%Creator: ROOT Version 6.20/06
%%CreationDate: Mon May 30 19:25:22 2022
%%DocumentNeededResources: ProcSet (FontSetInit)
%%EndComments
%%BeginProlog
80 dict begin
/s {stroke} def /l {lineto} def /m {moveto} def /t {translate} def
/r {rotate} def /rl {roll}  def /R {repeat} def
/d {rlineto} def /rm {rmoveto} def /gr {grestore} def /f {eofill} def
/c {setrgbcolor} def /black {0 setgray} def /sd {setdash} def
/cl {closepath} def /sf {scalefont setfont} def /lw {setlinewidth} def
/box {m dup 0 exch d exch 0 d 0 exch neg d cl} def
/NC{systemdict begin initclip end}def/C{NC box clip newpath}def
/bl {box s} def /bf {gsave box gsave f grestore 1 lw [] 0 sd s grestore} def /Y { 0 exch d} def /X { 0 d} def 
/K {{pop pop 0 moveto} exch kshow} bind def
/ita {/ang 15 def gsave [1 0 ang dup sin exch cos div 1 0 0] concat} def 
/mp {newpath /y exch def /x exch def} def
/side {[w .77 mul w .23 mul] .385 w mul sd w 0 l currentpoint t -144 r} def
/mr {mp x y w2 0 360 arc} def /m24 {mr s} def /m20 {mr f} def
/mb {mp x y w2 add m w2 neg 0 d 0 w neg d w 0 d 0 w d cl} def
/mt {mp x y w2 add m w2 neg w neg d w 0 d cl} def
/w4 {w 4 div} def
/w6 {w 6 div} def
/w8 {w 8 div} def
/m21 {mb f} def /m25 {mb s} def /m22 {mt f} def /m26{mt s} def
/m23 {mp x y w2 sub m w2 w d w neg 0 d cl f} def
/m27 {mp x y w2 add m w3 neg w2 neg d w3 w2 neg d w3 w2 d cl s} def
/m28 {mp x w2 sub y w2 sub w3 add m w3 0 d  0 w3 neg d w3 0 d 0 w3 d w3 0 d  0 w3 d w3 neg 0 d 0 w3 d w3 neg 0 d 0 w3 neg d w3 neg 0 d cl s } def
/m29 {mp gsave x w2 sub y w2 add w3 sub m currentpoint t 4 {side} repeat cl fill gr} def
/m30 {mp gsave x w2 sub y w2 add w3 sub m currentpoint t 4 {side} repeat cl s gr} def
/m31 {mp x y w2 sub m 0 w d x w2 sub y m w 0 d x w2 sub y w2 add m w w neg d x w2 sub y w2 sub m w w d s} def
/m32 {mp x y w2 sub m w2 w d w neg 0 d cl s} def
/m33 {mp x y w2 add m w3 neg w2 neg d w3 w2 neg d w3 w2 d cl f} def
/m34 {mp x w2 sub y w2 sub w3 add m w3 0 d  0 w3 neg d w3 0 d 0 w3 d w3 0 d  0 w3 d w3 neg 0 d 0 w3 d w3 neg 0 d 0 w3 neg d w3 neg 0 d cl f } def
/m35 {mp x y w2 add m w2 neg w2 neg d w2 w2 neg d w2 w2 d w2 neg w2 d x y w2 sub m 0 w d x w2 sub y m w 0 d s} def
/m36 {mb x w2 sub y w2 add m w w neg d x w2 sub y w2 sub m w w d s} def
/m37 {mp x y m w4 neg w2 d w4 neg w2 neg d w2 0 d  w4 neg w2 neg d w2 0 d w4 neg w2 d w2 0 d w4 neg w2 d w4 neg w2 neg d cl s} def
/m38 {mp x w4 sub y w2 add m w4 neg w4 neg d 0 w2 neg d w4 w4 neg d w2 0 d w4 w4 d 0 w2 d w4 neg w4 d w2 neg 0 d x y w2 sub m 0 w d x w2 sub y m w 0 d cl s} def
/m39 {mp x y m w4 neg w2 d w4 neg w2 neg d w2 0 d  w4 neg w2 neg d w2 0 d w4 neg w2 d w2 0 d w4 neg w2 d w4 neg w2 neg d cl f} def
/m40 {mp x y m w4 w2 d w4 w4 neg d w2 neg w4 neg d w2 w4 neg d w4 neg w4 neg d w4 neg w2 d w4 neg w2 neg d w4 neg w4 d w2 w4 d w2 neg w4 d w4 w4 d w4 w2 neg d cl s} def
/m41 {mp x y m w4 w2 d w4 w4 neg d w2 neg w4 neg d w2 w4 neg d w4 neg w4 neg d w4 neg w2 d w4 neg w2 neg d w4 neg w4 d w2 w4 d w2 neg w4 d w4 w4 d w4 w2 neg d cl f} def
/m42 {mp x y w2 add m w8 neg w2 -3 4 div mul d w2 -3 4 div mul w8 neg d w2 3 4 div mul w8 neg d w8 w2 -3 4 div mul d w8 w2 3 4 div mul d w2 3 4 div mul w8 d w2 -3 4 div mul w8 d w8 neg w2 3 4 div mul d cl s} def
/m43 {mp x y w2 add m w8 neg w2 -3 4 div mul d w2 -3 4 div mul w8 neg d w2 3 4 div mul w8 neg d w8 w2 -3 4 div mul d w8 w2 3 4 div mul d w2 3 4 div mul w8 d w2 -3 4 div mul w8 d w8 neg w2 3 4 div mul d cl f} def
/m44 {mp x y m w6 neg w2 d w2 2 3 div mul 0 d w6 neg w2 neg d w2 w6 d 0 w2 -2 3 div mul d w2 neg w6 d w6 w2 neg d w2 -2 3 div mul 0 d w6 w2 d w2 neg w6 neg d 0 w2 2 3 div mul d w2 w6 neg d cl s} def
/m45 {mp x y m w6 neg w2 d w2 2 3 div mul 0 d w6 neg w2 neg d w2 w6 d 0 w2 -2 3 div mul d w2 neg w6 d w6 w2 neg d w2 -2 3 div mul 0 d w6 w2 d w2 neg w6 neg d 0 w2 2 3 div mul d w2 w6 neg d cl f} def
/m46 {mp x y w4 add m w4 neg w4 d w4 neg w4 neg d  w4 w4 neg d w4 neg w4 neg d w4 w4 neg d w4 w4 d w4 w4 neg d w4 w4 d w4 neg w4 d w4 w4 d w4 neg w4 d w4 neg w4 neg d cl s} def
/m47 {mp x y w4 add m w4 neg w4 d w4 neg w4 neg d w4 w4 neg d w4 neg w4 neg d  w4 w4 neg d w4 w4 d w4 w4 neg d w4 w4 d w4 neg w4 d w4 w4 d w4 neg w4 d w4 neg w4 neg d cl f} def
/m48 {mp x y w4 add m w4 neg w4 d w4 neg w4 neg d w4 w4 neg d  w4 neg w4 neg d w4 w4 neg d w4 w4 d w4 w4 neg d w4 w4 d w4 neg w4 d w4 w4 d w4 neg w4 d w4 neg w4 neg d  w4 w4 neg d w4 neg w4 neg d w4 neg w4 d w4 w4 d cl f} def
/m49 {mp x w2 sub w3 add y w2 sub w3 add m  0 w3 neg d w3 0 d 0 w3 d w3 0 d 0 w3 d w3 neg 0 d 0 w3 d w3 neg 0 d 0 w3 neg d w3 neg 0 d 0 w3 neg d w3 0 d 0 w3 d w3 0 d 0 w3 neg d w3 neg 0 d cl f } def
/m2 {mp x y w2 sub m 0 w d x w2 sub y m w 0 d s} def
/m5 {mp x w2 sub y w2 sub m w w d x w2 sub y w2 add m w w neg d s} def
%%IncludeResource: ProcSet (FontSetInit)
%%IncludeResource: font Times-Roman
%%IncludeResource: font Times-Italic
%%IncludeResource: font Times-Bold
%%IncludeResource: font Times-BoldItalic
%%IncludeResource: font Helvetica
%%IncludeResource: font Helvetica-Oblique
%%IncludeResource: font Helvetica-Bold
%%IncludeResource: font Helvetica-BoldOblique
%%IncludeResource: font Courier
%%IncludeResource: font Courier-Oblique
%%IncludeResource: font Courier-Bold
%%IncludeResource: font Courier-BoldOblique
%%IncludeResource: font Symbol
%%IncludeResource: font ZapfDingbats
/reEncode {exch findfont dup length dict begin {1 index /FID eq  {pop pop} {def} ifelse } forall /Encoding exch def currentdict end dup /FontName get exch definefont pop } def [/Times-Bold /Times-Italic /Times-BoldItalic /Helvetica /Helvetica-Oblique
 /Helvetica-Bold /Helvetica-BoldOblique /Courier /Courier-Oblique /Courier-Bold /Courier-BoldOblique /Times-Roman /AvantGarde-Book /AvantGarde-BookOblique /AvantGarde-Demi /AvantGarde-DemiOblique /Bookman-Demi /Bookman-DemiItalic /Bookman-Light
 /Bookman-LightItalic /Helvetica-Narrow /Helvetica-Narrow-Bold /Helvetica-Narrow-BoldOblique /Helvetica-Narrow-Oblique /NewCenturySchlbk-Roman /NewCenturySchlbk-Bold /NewCenturySchlbk-BoldItalic /NewCenturySchlbk-Italic /Palatino-Bold
 /Palatino-BoldItalic /Palatino-Italic /Palatino-Roman ] {ISOLatin1Encoding reEncode } forall
%%EndProlog
%%BeginSetup
%%EndSetup
newpath  gsave  .25 .25 scale  gsave  0 0 t black[  ] 0 sd 3 lw 1 1 1 c 2268 1575 0 0 bf black 1 1 1 c 2268 472 0 0 bf black 1 1 1 c 1927 274 227 189 bf black 1927 274 227 189 bl 227 189 m 1927 X s 227 201 m -12 Y s 291 195 m -6 Y s 355 195 m -6 Y s
 420 195 m -6 Y s 484 195 m -6 Y s 548 201 m -12 Y s 612 195 m -6 Y s 677 195 m -6 Y s 741 195 m -6 Y s 805 195 m -6 Y s 869 201 m -12 Y s 934 195 m -6 Y s 998 195 m -6 Y s 1062 195 m -6 Y s 1126 195 m -6 Y s 1191 201 m -12 Y s 1255 195 m -6 Y s 1319
 195 m -6 Y s 1383 195 m -6 Y s 1448 195 m -6 Y s 1512 201 m -12 Y s 1576 195 m -6 Y s 1640 195 m -6 Y s 1705 195 m -6 Y s 1769 195 m -6 Y s 1833 201 m -12 Y s 1897 195 m -6 Y s 1962 195 m -6 Y s 2026 195 m -6 Y s 2090 195 m -6 Y s 2154 201 m -12 Y s
 gsave  2268 472 0 0 C 210.193 127.3 t 0 r /Helvetica findfont 53.4895 sf 0 0 m (0) show NC gr 
 gsave  2268 472 0 0 C 518.081 127.3 t 0 r /Helvetica findfont 53.4895 sf 0 0 m (50) show NC gr 
 gsave  2268 472 0 0 C 823.009 127.3 t 0 r /Helvetica findfont 53.4895 sf 0 0 m (100) show NC gr 
 gsave  2268 472 0 0 C 1145.7 127.3 t 0 r /Helvetica findfont 53.4895 sf 0 0 m (150) show NC gr 
 gsave  2268 472 0 0 C 1465.43 127.3 t 0 r /Helvetica findfont 53.4895 sf 0 0 m (200) show NC gr 
 gsave  2268 472 0 0 C 1788.12 127.3 t 0 r /Helvetica findfont 53.4895 sf 0 0 m (250) show NC gr 
 gsave  2268 472 0 0 C 2107.85 127.3 t 0 r /Helvetica findfont 53.4895 sf 0 0 m (300) show NC gr 
 gsave  2268 472 0 0 C 1995.35 41.4465 t 0 r /Helvetica findfont 56.4611 sf 0 0 m ( [GeV]) show NC gr 
 gsave  2268 472 0 0 C 1915.42 68.0907 t 0 r /Helvetica findfont 38.6313 sf 0 0 m (miss) show NC gr 
 gsave  2268 472 0 0 C 1915.42 23.6837 t 0 r /Helvetica findfont 38.6313 sf 0 0 m (T) show NC gr 
 gsave  2268 472 0 0 C 1871.01 41.4465 t 0 r /Helvetica-Oblique findfont 56.4611 sf 0 0 m (E) show NC gr  227 463 m 1927 X s 227 451 m 12 Y s 291 457 m 6 Y s 355 457 m 6 Y s 420 457 m 6 Y s 484 457 m 6 Y s 548 451 m 12 Y s 612 457 m 6 Y s 677 457 m 6
 Y s 741 457 m 6 Y s 805 457 m 6 Y s 869 451 m 12 Y s 934 457 m 6 Y s 998 457 m 6 Y s 1062 457 m 6 Y s 1126 457 m 6 Y s 1191 451 m 12 Y s 1255 457 m 6 Y s 1319 457 m 6 Y s 1383 457 m 6 Y s 1448 457 m 6 Y s 1512 451 m 12 Y s 1576 457 m 6 Y s 1640 457
 m 6 Y s 1705 457 m 6 Y s 1769 457 m 6 Y s 1833 451 m 12 Y s 1897 457 m 6 Y s 1962 457 m 6 Y s 2026 457 m 6 Y s 2090 457 m 6 Y s 2154 451 m 12 Y s 227 189 m 274 Y s 240 240 m -13 X s 240 326 m -13 X s 240 412 m -13 X s 240 240 m -13 X s 240 412 m -13
 X s
 gsave  2268 472 0 0 C 118.419 222.035 t 0 r /Helvetica findfont 53.4895 sf 0 0 m (0.5) show NC gr 
 gsave  2268 472 0 0 C 171.707 307.888 t 0 r /Helvetica findfont 53.4895 sf 0 0 m (1) show NC gr 
 gsave  2268 472 0 0 C 118.419 393.742 t 0 r /Helvetica findfont 53.4895 sf 0 0 m (1.5) show NC gr 
 gsave  2268 472 0 0 C 71.0512 230.916 t 90 r /Helvetica findfont 53.4895 sf 0 0 m (Data / SM) show NC gr  2154 189 m 274 Y s 2141 240 m 13 X s 2141 326 m 13 X s 2141 412 m 13 X s 2141 240 m 13 X s 2141 412 m 13 X s 227 189 m 1927 X s 227 463 m 1927
 X s 227 189 m 274 Y s[ 4 8] 0 sd 2154 240 m -1927 X s 2154 326 m -1927 X s 2154 412 m -1927 X s 2154 240 m -1927 X s 2154 412 m -1927 X s[  ] 0 sd 2154 189 m 274 Y s 1 1 0.6 c 193 0 227 326 bf 192 0 420 326 bf 193 0 612 326 bf 193 0 805 326 bf 193 0
 998 326 bf 192 0 1191 326 bf 193 0 1383 326 bf 193 0 1576 326 bf 193 0 1769 326 bf 192 0 1962 326 bf black 0.6 0.6 0.6 c 420 325 m -4 -4 d s 406 331 m -9 -10 d s 387 331 m -9 -10 d s 368 331 m -9 -10 d s 349 331 m -10 -10 d s 329 331 m -9 -10 d s
 310 331 m -9 -10 d s 291 331 m -9 -10 d s 272 331 m -10 -10 d s 252 331 m -9 -10 d s 233 331 m -6 -7 d s 612 325 m -1 -1 d s 596 328 m -4 -4 d s 577 328 m -4 -4 d s 558 328 m -4 -4 d s 538 328 m -3 -4 d s 519 328 m -4 -4 d s 500 328 m -4 -4 d s 481
 328 m -4 -4 d s 461 328 m -3 -4 d s 442 328 m -4 -4 d s 423 328 m -3 -3 d s 805 325 m -1 X s 788 327 m -3 -2 d s 769 327 m -3 -2 d s 750 327 m -3 -2 d s 730 327 m -3 -2 d s 711 327 m -3 -2 d s 692 327 m -3 -2 d s 673 327 m -3 -2 d s 653 327 m -2 -2
 d s 634 327 m -3 -2 d s 615 327 m -3 -2 d s 998 326 m -2 -2 d s 981 328 m -4 -4 d s 962 328 m -4 -4 d s 942 328 m -3 -4 d s 923 328 m -4 -4 d s 904 328 m -4 -4 d s 885 328 m -4 -4 d s 865 328 m -3 -4 d s 846 328 m -3 -4 d s 827 328 m -4 -4 d s 808
 328 m -3 -3 d s 1191 326 m -3 -2 d s 1174 328 m -5 -4 d s 1155 328 m -5 -4 d s 1135 328 m -4 -4 d s 1116 328 m -5 -4 d s 1097 328 m -5 -4 d s 1078 328 m -5 -4 d s 1058 328 m -4 -4 d s 1039 328 m -5 -4 d s 1020 328 m -5 -4 d s 1001 328 m -3 -2 d s
 1383 326 m -3 -3 d s 1367 329 m -6 -6 d s 1348 329 m -7 -6 d s 1329 329 m -7 -6 d s 1309 329 m -6 -6 d s 1290 329 m -6 -6 d s 1271 329 m -7 -6 d s 1252 329 m -7 -6 d s 1232 329 m -6 -6 d s 1213 329 m -6 -6 d s 1194 329 m -3 -3 d s 1576 327 m -5 -5 d
 s 1561 330 m -9 -8 d s 1541 330 m -8 -8 d s 1522 330 m -9 -8 d s 1503 330 m -9 -8 d s 1484 330 m -9 -8 d s 1464 330 m -8 -8 d s 1445 330 m -9 -8 d s 1426 330 m -9 -8 d s 1407 330 m -9 -8 d s 1388 330 m -5 -4 d s 1769 327 m -7 -7 d s 1754 332 m -11
 -12 d s 1735 332 m -11 -12 d s 1716 332 m -11 -12 d s 1697 332 m -12 -12 d s 1677 332 m -11 -12 d s 1658 332 m -11 -12 d s 1639 332 m -11 -12 d s 1620 332 m -12 -12 d s 1600 332 m -11 -12 d s 1581 332 m -5 -5 d s 1962 327 m -9 -8 d s 1948 333 m -14
 -14 d s 1929 333 m -14 -14 d s 1910 333 m -14 -14 d s 1890 333 m -13 -14 d s 1871 333 m -14 -14 d s 1852 333 m -14 -14 d s 1833 333 m -14 -14 d s 1813 333 m -13 -14 d s 1794 333 m -14 -14 d s 1775 333 m -6 -6 d s 2154 328 m -4 -5 d s 2137 329 m -7
 -6 d s 2117 329 m -6 -6 d s 2098 329 m -6 -6 d s 2079 329 m -6 -6 d s 2060 329 m -7 -6 d s 2040 329 m -6 -6 d s 2021 329 m -6 -6 d s 2002 329 m -6 -6 d s 1983 329 m -7 -6 d s 1964 329 m -2 -2 d s black 1 1 1 c black /w 26 def /w2 {w 2 div} def /w3
 {w 3 div} def 323 327 m20 516 314 m20 709 315 m20 901 334 m20 1094 320 m s 1094 344 m s 1094 332 m20 1287 336 m 6 Y s 1287 366 m 7 Y s 1287 354 m20 1480 349 m 13 Y s 1480 386 m 14 Y s 1480 374 m20 1672 329 m 21 Y s 1672 373 m 21 Y s 1672 361 m20
 1865 251 m 22 Y s 1865 297 m 22 Y s 1865 285 m20 2058 343 m 20 Y s 2058 386 m 20 Y s 2058 375 m20 227 326 m 1927 X s 227 189 m 1927 X s 227 201 m -12 Y s 291 195 m -6 Y s 355 195 m -6 Y s 420 195 m -6 Y s 484 195 m -6 Y s 548 201 m -12 Y s 612 195 m
 -6 Y s 677 195 m -6 Y s 741 195 m -6 Y s 805 195 m -6 Y s 869 201 m -12 Y s 934 195 m -6 Y s 998 195 m -6 Y s 1062 195 m -6 Y s 1126 195 m -6 Y s 1191 201 m -12 Y s 1255 195 m -6 Y s 1319 195 m -6 Y s 1383 195 m -6 Y s 1448 195 m -6 Y s 1512 201 m
 -12 Y s 1576 195 m -6 Y s 1640 195 m -6 Y s 1705 195 m -6 Y s 1769 195 m -6 Y s 1833 201 m -12 Y s 1897 195 m -6 Y s 1962 195 m -6 Y s 2026 195 m -6 Y s 2090 195 m -6 Y s 2154 201 m -12 Y s 227 463 m 1927 X s 227 451 m 12 Y s 291 457 m 6 Y s 355 457
 m 6 Y s 420 457 m 6 Y s 484 457 m 6 Y s 548 451 m 12 Y s 612 457 m 6 Y s 677 457 m 6 Y s 741 457 m 6 Y s 805 457 m 6 Y s 869 451 m 12 Y s 934 457 m 6 Y s 998 457 m 6 Y s 1062 457 m 6 Y s 1126 457 m 6 Y s 1191 451 m 12 Y s 1255 457 m 6 Y s 1319 457 m
 6 Y s 1383 457 m 6 Y s 1448 457 m 6 Y s 1512 451 m 12 Y s 1576 457 m 6 Y s 1640 457 m 6 Y s 1705 457 m 6 Y s 1769 457 m 6 Y s 1833 451 m 12 Y s 1897 457 m 6 Y s 1962 457 m 6 Y s 2026 457 m 6 Y s 2090 457 m 6 Y s 2154 451 m 12 Y s 227 189 m 274 Y s
 240 240 m -13 X s 240 326 m -13 X s 240 412 m -13 X s 240 240 m -13 X s 240 412 m -13 X s 2154 189 m 274 Y s 2141 240 m 13 X s 2141 326 m 13 X s 2141 412 m 13 X s 2141 240 m 13 X s 2141 412 m 13 X s 1 1 1 c 2268 1103 0 472 bf black 1 1 1 c 1927 1036
 227 484 bf black 1927 1036 227 484 bl 1 1 1 c black 3 lw 227 484 m 1927 X s 227 502 m -18 Y s 291 493 m -9 Y s 355 493 m -9 Y s 420 493 m -9 Y s 484 493 m -9 Y s 548 502 m -18 Y s 612 493 m -9 Y s 677 493 m -9 Y s 741 493 m -9 Y s 805 493 m -9 Y s
 869 502 m -18 Y s 934 493 m -9 Y s 998 493 m -9 Y s 1062 493 m -9 Y s 1126 493 m -9 Y s 1191 502 m -18 Y s 1255 493 m -9 Y s 1319 493 m -9 Y s 1383 493 m -9 Y s 1448 493 m -9 Y s 1512 502 m -18 Y s 1576 493 m -9 Y s 1640 493 m -9 Y s 1705 493 m -9 Y
 s 1769 493 m -9 Y s 1833 502 m -18 Y s 1897 493 m -9 Y s 1962 493 m -9 Y s 2026 493 m -9 Y s 2090 493 m -9 Y s 2154 502 m -18 Y s
 gsave  2268 1103 0 472 C 2069.37 396.702 t 0 r /Helvetica findfont 29.6365 sf 0 0 m ( [GeV]) show NC gr 
 gsave  2268 1103 0 472 C 2024.96 414.465 t 0 r /Helvetica findfont 20.7455 sf 0 0 m (miss) show NC gr 
 gsave  2268 1103 0 472 C 2024.96 387.821 t 0 r /Helvetica findfont 20.7455 sf 0 0 m (T) show NC gr 
 gsave  2268 1103 0 472 C 2001.27 396.702 t 0 r /Helvetica-Oblique findfont 29.6365 sf 0 0 m (E) show NC gr  227 1520 m 1927 X s 227 1501 m 19 Y s 291 1510 m 10 Y s 355 1510 m 10 Y s 420 1510 m 10 Y s 484 1510 m 10 Y s 548 1501 m 19 Y s 612 1510 m 10
 Y s 677 1510 m 10 Y s 741 1510 m 10 Y s 805 1510 m 10 Y s 869 1501 m 19 Y s 934 1510 m 10 Y s 998 1510 m 10 Y s 1062 1510 m 10 Y s 1126 1510 m 10 Y s 1191 1501 m 19 Y s 1255 1510 m 10 Y s 1319 1510 m 10 Y s 1383 1510 m 10 Y s 1448 1510 m 10 Y s 1512
 1501 m 19 Y s 1576 1510 m 10 Y s 1640 1510 m 10 Y s 1705 1510 m 10 Y s 1769 1510 m 10 Y s 1833 1501 m 19 Y s 1897 1510 m 10 Y s 1962 1510 m 10 Y s 2026 1510 m 10 Y s 2090 1510 m 10 Y s 2154 1501 m 19 Y s 227 484 m 1036 Y s 248 686 m -21 X s 237 727
 m -10 X s 237 767 m -10 X s 237 808 m -10 X s 237 848 m -10 X s 248 889 m -21 X s 237 929 m -10 X s 237 970 m -10 X s 237 1010 m -10 X s 237 1051 m -10 X s 248 1091 m -21 X s 237 1132 m -10 X s 237 1172 m -10 X s 237 1213 m -10 X s 237 1253 m -10 X
 s 248 1294 m -21 X s 237 1334 m -10 X s 237 1375 m -10 X s 237 1415 m -10 X s 237 1456 m -10 X s 248 1496 m -21 X s 248 686 m -21 X s 237 646 m -10 X s 237 605 m -10 X s 237 565 m -10 X s 237 524 m -10 X s 248 1496 m -21 X s
 gsave  2268 1103 0 472 C 118.419 666.105 t 0 r /Helvetica findfont 50.382 sf 0 0 m (500) show NC gr 
 gsave  2268 1103 0 472 C 91.7744 870.377 t 0 r /Helvetica findfont 50.382 sf 0 0 m (1000) show NC gr 
 gsave  2268 1103 0 472 C 91.7744 1071.69 t 0 r /Helvetica findfont 50.382 sf 0 0 m (1500) show NC gr 
 gsave  2268 1103 0 472 C 91.7744 1273 t 0 r /Helvetica findfont 50.382 sf 0 0 m (2000) show NC gr 
 gsave  2268 1103 0 472 C 91.7744 1477.27 t 0 r /Helvetica findfont 50.382 sf 0 0 m (2500) show NC gr 
 gsave  2268 1103 0 472 C 62.1698 1154.58 t 90 r /Helvetica findfont 50.382 sf 0 0 m (Events / 30 GeV) show NC gr  2154 484 m 1036 Y s 2133 686 m 21 X s 2144 727 m 10 X s 2144 767 m 10 X s 2144 808 m 10 X s 2144 848 m 10 X s 2133 889 m 21 X s 2144
 929 m 10 X s 2144 970 m 10 X s 2144 1010 m 10 X s 2144 1051 m 10 X s 2133 1091 m 21 X s 2144 1132 m 10 X s 2144 1172 m 10 X s 2144 1213 m 10 X s 2144 1253 m 10 X s 2133 1294 m 21 X s 2144 1334 m 10 X s 2144 1375 m 10 X s 2144 1415 m 10 X s 2144 1456
 m 10 X s 2133 1496 m 21 X s 2133 686 m 21 X s 2144 646 m 10 X s 2144 605 m 10 X s 2144 565 m 10 X s 2144 524 m 10 X s 2133 1496 m 21 X s 0.4 0.6 0.4 c black 3 lw 0.4 0.6 0.4 c 227 484 m 268 Y 193 X 146 Y 192 X -120 Y 193 X -136 Y 193 X -76 Y 193 X
 -41 Y 192 X -18 Y 193 X -10 Y 193 X -6 Y 193 X 8 Y 192 X -15 Y f 0.06 0.54 0.06 c 0.999 0.999 0.999 c black 3 lw 0.999 0.999 0.999 c 227 484 m 185 Y 193 X 76 Y 192 X -61 Y 193 X -81 Y 193 X -51 Y 193 X -33 Y 192 X -14 Y 193 X -9 Y 193 X -5 Y 193 X 7
 Y 192 X -14 Y f 0.06 0.54 0.06 c 0.999 0.999 0.999 c 0.06 0.54 0.06 c 1 1 1 c black 0.06 0.54 0.06 c black 3 lw 0.06 0.54 0.06 c 227 484 m 185 Y 193 X 76 Y 192 X -61 Y 193 X -81 Y 193 X -51 Y 193 X -33 Y 192 X -14 Y 193 X -9 Y 193 X -5 Y 193 X 7 Y
 192 X -14 Y f 1 0.653333 0 c 0.999 0.999 0.999 c black 3 lw 0.999 0.999 0.999 c 227 484 m 153 Y 193 X 37 Y 192 X -54 Y 193 X -53 Y 193 X -35 Y 193 X -22 Y 192 X -11 Y 193 X -6 Y 193 X -4 Y 193 X 6 Y 192 X -11 Y f 1 0.653333 0 c 0.999 0.999 0.999 c 1
 0.653333 0 c 1 1 1 c black 1 0.653333 0 c black 3 lw 1 0.653333 0 c 227 484 m 153 Y 193 X 37 Y 192 X -54 Y 193 X -53 Y 193 X -35 Y 193 X -22 Y 192 X -11 Y 193 X -6 Y 193 X -4 Y 193 X 6 Y 192 X -11 Y f 0.413333 1 0 c 0.999 0.999 0.999 c black 3 lw
 0.999 0.999 0.999 c 227 484 m 78 Y 193 X 78 Y 192 X -25 Y 193 X -49 Y 193 X -34 Y 193 X -22 Y 192 X -11 Y 193 X -6 Y 193 X -4 Y 193 X 6 Y 192 X -11 Y f 0.413333 1 0 c 0.999 0.999 0.999 c 0.413333 1 0 c 1 1 1 c black 0.413333 1 0 c black 3 lw
 0.413333 1 0 c 227 484 m 78 Y 193 X 78 Y 192 X -25 Y 193 X -49 Y 193 X -34 Y 193 X -22 Y 192 X -11 Y 193 X -6 Y 193 X -4 Y 193 X 6 Y 192 X -11 Y f 0.6 0.2 1 c 0.999 0.999 0.999 c black 3 lw 0.999 0.999 0.999 c 227 484 m 51 Y 193 X 64 Y 192 X -7 Y
 193 X -36 Y 193 X -29 Y 193 X -19 Y 192 X -11 Y 193 X -5 Y 193 X -3 Y 193 X 4 Y 192 X -9 Y f 0.6 0.2 1 c 0.999 0.999 0.999 c 0.6 0.2 1 c 1 1 1 c black 0.6 0.2 1 c black 3 lw 0.6 0.2 1 c 227 484 m 51 Y 193 X 64 Y 192 X -7 Y 193 X -36 Y 193 X -29 Y
 193 X -19 Y 192 X -11 Y 193 X -5 Y 193 X -3 Y 193 X 4 Y 192 X -9 Y f 0.54 0.06 0.06 c 0.999 0.999 0.999 c black 3 lw 0.999 0.999 0.999 c 227 484 m 43 Y 193 X 54 Y 192 X -4 Y 193 X -30 Y 193 X -26 Y 193 X -16 Y 192 X -9 Y 193 X -5 Y 193 X -3 Y 193 X
 4 Y 192 X -8 Y f 0.54 0.06 0.06 c 0.999 0.999 0.999 c 0.54 0.06 0.06 c 1 1 1 c black 0.54 0.06 0.06 c black 3 lw 0.54 0.06 0.06 c 227 484 m 43 Y 193 X 54 Y 192 X -4 Y 193 X -30 Y 193 X -26 Y 193 X -16 Y 192 X -9 Y 193 X -5 Y 193 X -3 Y 193 X 4 Y 192
 X -8 Y f 1 0 1 c 0.999 0.999 0.999 c black 3 lw 0.999 0.999 0.999 c 227 484 m 13 Y 193 X 16 Y 192 X -4 Y 193 X -10 Y 193 X -7 Y 193 X -4 Y 192 X -2 Y 193 X -1 Y 193 X -1 Y 193 X 1 Y 192 X -1 Y f 1 0 1 c 0.999 0.999 0.999 c 1 0 1 c 1 1 1 c black 1 0
 1 c black 3 lw 1 0 1 c 227 484 m 13 Y 193 X 16 Y 192 X -4 Y 193 X -10 Y 193 X -7 Y 193 X -4 Y 192 X -2 Y 193 X -1 Y 193 X -1 Y 193 X 1 Y 192 X -1 Y f 0 0 1 c 0.999 0.999 0.999 c black 3 lw 0.999 0.999 0.999 c 227 484 m 8 Y 193 X 11 Y 192 X -2 Y 193
 X -6 Y 193 X -5 Y 193 X -3 Y 192 X -2 Y 386 X -1 Y 193 X 1 Y 192 X -1 Y f 0 0 1 c 0.999 0.999 0.999 c 0 0 1 c 1 1 1 c black 0 0 1 c black 3 lw 0 0 1 c 227 484 m 8 Y 193 X 11 Y 192 X -2 Y 193 X -6 Y 193 X -5 Y 193 X -3 Y 192 X -2 Y 386 X -1 Y 193 X 1
 Y 192 X -1 Y f 0.2 0.8 0.8 c 0.999 0.999 0.999 c black 3 lw 0.999 0.999 0.999 c 227 484 m 3 Y 193 X 4 Y 192 X -2 Y 193 X -2 Y 193 X -2 Y 193 X -1 Y 963 X f 0.2 0.8 0.8 c 0.999 0.999 0.999 c 0.2 0.8 0.8 c 1 1 1 c black 0.2 0.8 0.8 c black 3 lw 0.2
 0.8 0.8 c 227 484 m 3 Y 193 X 4 Y 192 X -2 Y 193 X -2 Y 193 X -2 Y 193 X -1 Y 963 X f 1 0 0 c 0.999 0.999 0.999 c black 3 lw 0.999 0.999 0.999 c 227 484 m 2 Y 193 X 2 Y 192 X -1 Y 193 X -2 Y 193 X -1 Y 1156 X f 1 0 0 c 0.999 0.999 0.999 c 1 0 0 c 1
 1 1 c black 1 0 0 c black 3 lw 1 0 0 c 227 484 m 2 Y 193 X 2 Y 192 X -1 Y 193 X -2 Y 193 X -1 Y 1156 X f 1 0.84 0 c 0.999 0.999 0.999 c black 3 lw 0.999 0.999 0.999 c 227 484 m 1 Y 193 X 2 Y 192 X -1 Y 193 X -1 Y 193 X -1 Y 1156 X f 1 0.84 0 c 0.999
 0.999 0.999 c 1 0.84 0 c 1 1 1 c black 1 0.84 0 c black 3 lw 1 0.84 0 c 227 484 m 1 Y 193 X 2 Y 192 X -1 Y 193 X -1 Y 193 X -1 Y 1156 X f black 1 1 1 c black 0.6 0.6 0.6 c 3 lw 420 757 m -13 -12 d s 402 759 m -14 -14 d s 383 759 m -14 -14 d s 364
 759 m -15 -14 d s 345 759 m -15 -14 d s 326 759 m -15 -14 d s 306 759 m -14 -14 d s 287 759 m -15 -14 d s 268 759 m -15 -14 d s 249 759 m -15 -14 d s 229 759 m -2 -2 d s 3 lw 604 903 m -9 -10 d s 585 903 m -10 -10 d s 566 903 m -10 -10 d s 546 903 m
 -9 -10 d s 527 903 m -9 -10 d s 508 903 m -10 -10 d s 489 903 m -10 -10 d s 469 903 m -9 -10 d s 450 903 m -9 -10 d s 431 903 m -10 -10 d s 3 lw 805 777 m -1 -1 d s 790 781 m -5 -5 d s 770 781 m -4 -5 d s 751 781 m -5 -5 d s 732 781 m -5 -5 d s 713
 781 m -5 -5 d s 693 781 m -4 -5 d s 674 781 m -5 -5 d s 655 781 m -5 -5 d s 636 781 m -5 -5 d s 616 781 m -4 -5 d s 3 lw 998 643 m -2 -3 d s 980 644 m -4 -4 d s 960 644 m -3 -4 d s 941 644 m -3 -4 d s 922 644 m -3 -4 d s 903 644 m -4 -4 d s 883 644
 m -3 -4 d s 864 644 m -3 -4 d s 845 644 m -3 -4 d s 826 644 m -4 -4 d s 806 644 m -1 -2 d s 3 lw 1191 566 m -1 -1 d s 1173 568 m -2 -3 d s 1154 568 m -3 -3 d s 1134 568 m -2 -3 d s 1115 568 m -2 -3 d s 1096 568 m -2 -3 d s 1077 568 m -3 -3 d s 1057
 568 m -2 -3 d s 1038 568 m -2 -3 d s 1019 568 m -2 -3 d s 1000 568 m -2 -2 d s 3 lw 1381 526 m -2 -2 d s 1362 526 m -2 -2 d s 1342 526 m -1 -2 d s 1323 526 m -1 -2 d s 1304 526 m -2 -2 d s 1285 526 m -2 -2 d s 1266 526 m -2 -2 d s 1246 526 m -1 -2 d
 s 1227 526 m -2 -2 d s 1208 526 m -2 -2 d s 3 lw 1574 508 m -1 -2 d s 1555 508 m -1 -2 d s 1536 508 m -1 -2 d s 1517 508 m -1 -2 d s 1497 508 m -1 -2 d s 1478 508 m -1 -2 d s 1459 508 m -1 -2 d s 1440 508 m -1 -2 d s 1421 508 m -2 -2 d s 1401 508 m
 -1 -2 d s 3 lw 1757 497 m -1 -1 d s 1737 497 m -1 Y s 1718 497 m -1 -1 d s 1699 497 m -1 -1 d s 1680 497 m -1 -1 d s 1661 497 m -1 -1 d s 1641 497 m -1 -1 d s 1622 497 m -1 -1 d s 1603 497 m -1 -1 d s 1584 497 m -1 -1 d s 3 lw 1944 492 m -1 -1 d s
 1924 492 m -1 Y s 1905 492 m -1 -1 d s 1886 492 m -1 -1 d s 1867 492 m -1 -1 d s 1847 492 m -1 Y s 1828 492 m -1 -1 d s 1809 492 m -1 -1 d s 1790 492 m -1 -1 d s 1770 492 m -1 Y s 3 lw 2143 499 m -1 Y s 2124 499 m -1 -1 d s 2105 499 m -1 -1 d s 2085
 499 m -1 Y s 2066 499 m -1 Y s 2047 499 m -1 -1 d s 2028 499 m -1 -1 d s 2008 499 m -1 Y s 1989 499 m -1 Y s 1970 499 m -1 -1 d s black 3 lw 1 1 1 c black /w 24 def /w2 {w 2 div} def /w3 {w 3 div} def 323 753 m20 516 856 m 1 Y s 516 881 m s 516 869
 m20 709 759 m20 901 649 m20 1094 569 m20 1287 532 m20 1480 513 m20 1672 500 m20 1865 490 m20 2058 503 m20 227 484 m 1927 X s 227 502 m -18 Y s 291 493 m -9 Y s 355 493 m -9 Y s 420 493 m -9 Y s 484 493 m -9 Y s 548 502 m -18 Y s 612 493 m -9 Y s 677
 493 m -9 Y s 741 493 m -9 Y s 805 493 m -9 Y s 869 502 m -18 Y s 934 493 m -9 Y s 998 493 m -9 Y s 1062 493 m -9 Y s 1126 493 m -9 Y s 1191 502 m -18 Y s 1255 493 m -9 Y s 1319 493 m -9 Y s 1383 493 m -9 Y s 1448 493 m -9 Y s 1512 502 m -18 Y s 1576
 493 m -9 Y s 1640 493 m -9 Y s 1705 493 m -9 Y s 1769 493 m -9 Y s 1833 502 m -18 Y s 1897 493 m -9 Y s 1962 493 m -9 Y s 2026 493 m -9 Y s 2090 493 m -9 Y s 2154 502 m -18 Y s 227 1520 m 1927 X s 227 1501 m 19 Y s 291 1510 m 10 Y s 355 1510 m 10 Y
 s 420 1510 m 10 Y s 484 1510 m 10 Y s 548 1501 m 19 Y s 612 1510 m 10 Y s 677 1510 m 10 Y s 741 1510 m 10 Y s 805 1510 m 10 Y s 869 1501 m 19 Y s 934 1510 m 10 Y s 998 1510 m 10 Y s 1062 1510 m 10 Y s 1126 1510 m 10 Y s 1191 1501 m 19 Y s 1255 1510
 m 10 Y s 1319 1510 m 10 Y s 1383 1510 m 10 Y s 1448 1510 m 10 Y s 1512 1501 m 19 Y s 1576 1510 m 10 Y s 1640 1510 m 10 Y s 1705 1510 m 10 Y s 1769 1510 m 10 Y s 1833 1501 m 19 Y s 1897 1510 m 10 Y s 1962 1510 m 10 Y s 2026 1510 m 10 Y s 2090 1510 m
 10 Y s 2154 1501 m 19 Y s 227 484 m 1036 Y s 248 686 m -21 X s 237 727 m -10 X s 237 767 m -10 X s 237 808 m -10 X s 237 848 m -10 X s 248 889 m -21 X s 237 929 m -10 X s 237 970 m -10 X s 237 1010 m -10 X s 237 1051 m -10 X s 248 1091 m -21 X s 237
 1132 m -10 X s 237 1172 m -10 X s 237 1213 m -10 X s 237 1253 m -10 X s 248 1294 m -21 X s 237 1334 m -10 X s 237 1375 m -10 X s 237 1415 m -10 X s 237 1456 m -10 X s 248 1496 m -21 X s 248 686 m -21 X s 237 646 m -10 X s 237 605 m -10 X s 237 565 m
 -10 X s 237 524 m -10 X s 248 1496 m -21 X s 2154 484 m 1036 Y s 2133 686 m 21 X s 2144 727 m 10 X s 2144 767 m 10 X s 2144 808 m 10 X s 2144 848 m 10 X s 2133 889 m 21 X s 2144 929 m 10 X s 2144 970 m 10 X s 2144 1010 m 10 X s 2144 1051 m 10 X s
 2133 1091 m 21 X s 2144 1132 m 10 X s 2144 1172 m 10 X s 2144 1213 m 10 X s 2144 1253 m 10 X s 2133 1294 m 21 X s 2144 1334 m 10 X s 2144 1375 m 10 X s 2144 1415 m 10 X s 2144 1456 m 10 X s 2133 1496 m 21 X s 2133 686 m 21 X s 2144 646 m 10 X s 2144
 605 m 10 X s 2144 565 m 10 X s 2144 524 m 10 X s 2133 1496 m 21 X s
 gsave  2268 1103 0 472 C 1314.45 1432.87 t 0 r /Helvetica findfont 56.3093 sf 0 0 m ( Data) show NC gr  1259 1456 m 7 Y s 1259 1432 m -7 Y s 1259 1444 m20
 gsave  2268 1103 0 472 C 1776.28 1432.87 t 0 r /Helvetica findfont 56.3093 sf 0 0 m ( Fakes \(MM\)) show NC gr  0.4 0.6 0.4 c 1682 1422 m 79 X 44 Y -79 X f black
 gsave  2268 1103 0 472 C 1403.26 1367.74 t 0 r /Helvetica findfont 56.3093 sf 0 0 m (single\255top) show NC gr 
 gsave  2268 1103 0 472 C 1373.66 1367.74 t 0 r /Helvetica-Oblique findfont 56.3093 sf 0 0 m (/) show NC gr 
 gsave  2268 1103 0 472 C 1352.93 1367.74 t 0 r /Helvetica-Oblique findfont 56.3093 sf 0 0 m (t) show NC gr  6 lw 1353 1412 m 21 X s
 gsave  2268 1103 0 472 C 1332.21 1367.74 t 0 r /Helvetica-Oblique findfont 56.3093 sf 0 0 m (t) show NC gr 
 gsave  2268 1103 0 472 C 1314.45 1367.74 t 0 r /Helvetica findfont 56.3093 sf 0 0 m ( ) show NC gr  0.06 0.54 0.06 c 3 lw 1219 1359 m 79 X 44 Y -79 X f 6 lw black
 gsave  2268 1103 0 472 C 1906.54 1367.74 t 0 r /Helvetica findfont 56.3093 sf 0 0 m (+jets) show NC gr 
 gsave  2268 1103 0 472 C 1794.04 1367.74 t 0 r /Helvetica-Oblique findfont 56.3093 sf 0 0 m (W/Z) show NC gr 
 gsave  2268 1103 0 472 C 1776.28 1367.74 t 0 r /Helvetica findfont 56.3093 sf 0 0 m ( ) show NC gr  1 0.653333 0 c 3 lw 1682 1359 m 79 X 44 Y -79 X f black
 gsave  2268 1103 0 472 C 1512.8 1305.57 t 0 r /Helvetica findfont 56.3093 sf 0 0 m (+jets) show NC gr 
 gsave  2268 1103 0 472 C 1332.21 1305.57 t 0 r /Helvetica-Oblique findfont 56.3093 sf 0 0 m (WZ/ZZ) show NC gr 
 gsave  2268 1103 0 472 C 1314.45 1305.57 t 0 r /Helvetica findfont 56.3093 sf 0 0 m ( ) show NC gr  0.413333 1 0 c 3 lw 1219 1296 m 79 X 44 Y -79 X f black
 gsave  2268 1103 0 472 C 1835.49 1305.57 t 0 r /Helvetica-Oblique findfont 56.3093 sf 0 0 m (Z) show NC gr 
 gsave  2268 1103 0 472 C 1814.77 1305.57 t 0 r /Helvetica-Oblique findfont 56.3093 sf 0 0 m (t) show NC gr  6 lw 1815 1350 m 20 X s
 gsave  2268 1103 0 472 C 1794.04 1305.57 t 0 r /Helvetica-Oblique findfont 56.3093 sf 0 0 m (t) show NC gr 
 gsave  2268 1103 0 472 C 1776.28 1305.57 t 0 r /Helvetica findfont 56.3093 sf 0 0 m ( ) show NC gr  0.6 0.2 1 c 3 lw 1682 1296 m 79 X 44 Y -79 X f 6 lw black
 gsave  2268 1103 0 472 C 1373.66 1243.4 t 0 r /Helvetica-Oblique findfont 56.3093 sf 0 0 m (W) show NC gr 
 gsave  2268 1103 0 472 C 1352.93 1243.4 t 0 r /Helvetica-Oblique findfont 56.3093 sf 0 0 m (t) show NC gr  6 lw 1353 1288 m 21 X s
 gsave  2268 1103 0 472 C 1332.21 1243.4 t 0 r /Helvetica-Oblique findfont 56.3093 sf 0 0 m (t) show NC gr 
 gsave  2268 1103 0 472 C 1314.45 1243.4 t 0 r /Helvetica findfont 56.3093 sf 0 0 m ( ) show NC gr  0.54 0.06 0.06 c 3 lw 1219 1233 m 79 X 44 Y -79 X f 6 lw black
 gsave  2268 1103 0 472 C 1794.04 1243.4 t 0 r /Helvetica-Oblique findfont 56.3093 sf 0 0 m (tZq) show NC gr 
 gsave  2268 1103 0 472 C 1776.28 1243.4 t 0 r /Helvetica findfont 56.3093 sf 0 0 m ( ) show NC gr  1 0 1 c 3 lw 1682 1233 m 79 X 44 Y -79 X f black
 gsave  2268 1103 0 472 C 1373.66 1178.27 t 0 r /Helvetica-Oblique findfont 56.3093 sf 0 0 m (H) show NC gr 
 gsave  2268 1103 0 472 C 1352.93 1178.27 t 0 r /Helvetica-Oblique findfont 56.3093 sf 0 0 m (t) show NC gr  6 lw 1353 1223 m 21 X s
 gsave  2268 1103 0 472 C 1332.21 1178.27 t 0 r /Helvetica-Oblique findfont 56.3093 sf 0 0 m (t) show NC gr 
 gsave  2268 1103 0 472 C 1314.45 1178.27 t 0 r /Helvetica findfont 56.3093 sf 0 0 m ( ) show NC gr  0 0 1 c 3 lw 1219 1170 m 79 X 44 Y -79 X f 6 lw black
 gsave  2268 1103 0 472 C 1794.04 1178.27 t 0 r /Helvetica-Oblique findfont 56.3093 sf 0 0 m (tWZ/tWH) show NC gr 
 gsave  2268 1103 0 472 C 1776.28 1178.27 t 0 r /Helvetica findfont 56.3093 sf 0 0 m ( ) show NC gr  0.2 0.8 0.8 c 3 lw 1682 1170 m 79 X 44 Y -79 X f black
 gsave  2268 1103 0 472 C 1332.21 1116.1 t 0 r /Helvetica-Oblique findfont 56.3093 sf 0 0 m (tHq) show NC gr 
 gsave  2268 1103 0 472 C 1314.45 1116.1 t 0 r /Helvetica findfont 56.3093 sf 0 0 m ( ) show NC gr  1 0 0 c 3 lw 1219 1107 m 79 X 44 Y -79 X f black
 gsave  2268 1103 0 472 C 1776.28 1116.1 t 0 r /Helvetica findfont 56.3093 sf 0 0 m ( Other) show NC gr  1 0.84 0 c 3 lw 1682 1107 m 79 X 44 Y -79 X f black
 gsave  2268 1103 0 472 C 1314.45 1053.93 t 0 r /Helvetica findfont 56.3093 sf 0 0 m ( Uncertainty) show NC gr  0.6 0.6 0.6 c 3 lw 1298 1058 m -13 -14 d s 1298 1077 m -33 -33 d s 1290 1088 m -44 -44 d s 1271 1088 m -44 -44 d s 1252 1088 m -33 -33 d s
 1233 1088 m -14 -13 d s 1 0.84 0 c 0.6 0.6 0.6 c black
 gsave  2268 1103 0 472 C 894.061 1329.25 t 0 r /Helvetica findfont 41.4911 sf 0 0 m (\2551) show NC gr 
 gsave  2268 1103 0 472 C 399.663 1299.64 t 0 r /Helvetica findfont 62.2366 sf 0 0 m ( = 13 TeV,  139 fb) show NC gr 
 gsave  2268 1103 0 472 C 370.058 1299.64 t 0 r /Helvetica findfont 62.2366 sf 0 0 m (s) show NC gr  6 lw 349 1335 m 6 -38 d s 3 lw 355 1297 m 6 56 d s 361 1353 m 39 X s
 gsave  2268 1103 0 472 C 337.493 1201.95 t 0 r /Helvetica findfont 62.2366 sf 0 0 m ( 2L\(SS\) pre\255selection) show NC gr 
 gsave  2268 1103 0 472 C 337.493 1400.3 t 0 r /Helvetica-BoldOblique findfont 71.1276 sf 0 0 m (ATLAS) show NC gr 
 gsave  2268 1103 0 472 C 633.54 1400.3 t 0 r /Helvetica findfont 71.1276 sf 0 0 m (Internal) show NC gr 
 gr  gr showpage
end
%%EOF
