%!PS-Adobe-2.0 EPSF-2.0
%%BoundingBox:  0 0 567 396
%%Title: /lhome/ific/c/cardillo/tHq/Plots/Plots-30-05-22-PLIV-SF/2LSS_MM/Ht_CR1b3j.eps: Ht_CR1b3j
%%Creator: ROOT Version 6.20/06
%%CreationDate: Tue May 31 15:04:48 2022
%%DocumentNeededResources: ProcSet (FontSetInit)
%%EndComments
%%BeginProlog
80 dict begin
/s {stroke} def /l {lineto} def /m {moveto} def /t {translate} def
/r {rotate} def /rl {roll}  def /R {repeat} def
/d {rlineto} def /rm {rmoveto} def /gr {grestore} def /f {eofill} def
/c {setrgbcolor} def /black {0 setgray} def /sd {setdash} def
/cl {closepath} def /sf {scalefont setfont} def /lw {setlinewidth} def
/box {m dup 0 exch d exch 0 d 0 exch neg d cl} def
/NC{systemdict begin initclip end}def/C{NC box clip newpath}def
/bl {box s} def /bf {gsave box gsave f grestore 1 lw [] 0 sd s grestore} def /Y { 0 exch d} def /X { 0 d} def 
/K {{pop pop 0 moveto} exch kshow} bind def
/ita {/ang 15 def gsave [1 0 ang dup sin exch cos div 1 0 0] concat} def 
/mp {newpath /y exch def /x exch def} def
/side {[w .77 mul w .23 mul] .385 w mul sd w 0 l currentpoint t -144 r} def
/mr {mp x y w2 0 360 arc} def /m24 {mr s} def /m20 {mr f} def
/mb {mp x y w2 add m w2 neg 0 d 0 w neg d w 0 d 0 w d cl} def
/mt {mp x y w2 add m w2 neg w neg d w 0 d cl} def
/w4 {w 4 div} def
/w6 {w 6 div} def
/w8 {w 8 div} def
/m21 {mb f} def /m25 {mb s} def /m22 {mt f} def /m26{mt s} def
/m23 {mp x y w2 sub m w2 w d w neg 0 d cl f} def
/m27 {mp x y w2 add m w3 neg w2 neg d w3 w2 neg d w3 w2 d cl s} def
/m28 {mp x w2 sub y w2 sub w3 add m w3 0 d  0 w3 neg d w3 0 d 0 w3 d w3 0 d  0 w3 d w3 neg 0 d 0 w3 d w3 neg 0 d 0 w3 neg d w3 neg 0 d cl s } def
/m29 {mp gsave x w2 sub y w2 add w3 sub m currentpoint t 4 {side} repeat cl fill gr} def
/m30 {mp gsave x w2 sub y w2 add w3 sub m currentpoint t 4 {side} repeat cl s gr} def
/m31 {mp x y w2 sub m 0 w d x w2 sub y m w 0 d x w2 sub y w2 add m w w neg d x w2 sub y w2 sub m w w d s} def
/m32 {mp x y w2 sub m w2 w d w neg 0 d cl s} def
/m33 {mp x y w2 add m w3 neg w2 neg d w3 w2 neg d w3 w2 d cl f} def
/m34 {mp x w2 sub y w2 sub w3 add m w3 0 d  0 w3 neg d w3 0 d 0 w3 d w3 0 d  0 w3 d w3 neg 0 d 0 w3 d w3 neg 0 d 0 w3 neg d w3 neg 0 d cl f } def
/m35 {mp x y w2 add m w2 neg w2 neg d w2 w2 neg d w2 w2 d w2 neg w2 d x y w2 sub m 0 w d x w2 sub y m w 0 d s} def
/m36 {mb x w2 sub y w2 add m w w neg d x w2 sub y w2 sub m w w d s} def
/m37 {mp x y m w4 neg w2 d w4 neg w2 neg d w2 0 d  w4 neg w2 neg d w2 0 d w4 neg w2 d w2 0 d w4 neg w2 d w4 neg w2 neg d cl s} def
/m38 {mp x w4 sub y w2 add m w4 neg w4 neg d 0 w2 neg d w4 w4 neg d w2 0 d w4 w4 d 0 w2 d w4 neg w4 d w2 neg 0 d x y w2 sub m 0 w d x w2 sub y m w 0 d cl s} def
/m39 {mp x y m w4 neg w2 d w4 neg w2 neg d w2 0 d  w4 neg w2 neg d w2 0 d w4 neg w2 d w2 0 d w4 neg w2 d w4 neg w2 neg d cl f} def
/m40 {mp x y m w4 w2 d w4 w4 neg d w2 neg w4 neg d w2 w4 neg d w4 neg w4 neg d w4 neg w2 d w4 neg w2 neg d w4 neg w4 d w2 w4 d w2 neg w4 d w4 w4 d w4 w2 neg d cl s} def
/m41 {mp x y m w4 w2 d w4 w4 neg d w2 neg w4 neg d w2 w4 neg d w4 neg w4 neg d w4 neg w2 d w4 neg w2 neg d w4 neg w4 d w2 w4 d w2 neg w4 d w4 w4 d w4 w2 neg d cl f} def
/m42 {mp x y w2 add m w8 neg w2 -3 4 div mul d w2 -3 4 div mul w8 neg d w2 3 4 div mul w8 neg d w8 w2 -3 4 div mul d w8 w2 3 4 div mul d w2 3 4 div mul w8 d w2 -3 4 div mul w8 d w8 neg w2 3 4 div mul d cl s} def
/m43 {mp x y w2 add m w8 neg w2 -3 4 div mul d w2 -3 4 div mul w8 neg d w2 3 4 div mul w8 neg d w8 w2 -3 4 div mul d w8 w2 3 4 div mul d w2 3 4 div mul w8 d w2 -3 4 div mul w8 d w8 neg w2 3 4 div mul d cl f} def
/m44 {mp x y m w6 neg w2 d w2 2 3 div mul 0 d w6 neg w2 neg d w2 w6 d 0 w2 -2 3 div mul d w2 neg w6 d w6 w2 neg d w2 -2 3 div mul 0 d w6 w2 d w2 neg w6 neg d 0 w2 2 3 div mul d w2 w6 neg d cl s} def
/m45 {mp x y m w6 neg w2 d w2 2 3 div mul 0 d w6 neg w2 neg d w2 w6 d 0 w2 -2 3 div mul d w2 neg w6 d w6 w2 neg d w2 -2 3 div mul 0 d w6 w2 d w2 neg w6 neg d 0 w2 2 3 div mul d w2 w6 neg d cl f} def
/m46 {mp x y w4 add m w4 neg w4 d w4 neg w4 neg d  w4 w4 neg d w4 neg w4 neg d w4 w4 neg d w4 w4 d w4 w4 neg d w4 w4 d w4 neg w4 d w4 w4 d w4 neg w4 d w4 neg w4 neg d cl s} def
/m47 {mp x y w4 add m w4 neg w4 d w4 neg w4 neg d w4 w4 neg d w4 neg w4 neg d  w4 w4 neg d w4 w4 d w4 w4 neg d w4 w4 d w4 neg w4 d w4 w4 d w4 neg w4 d w4 neg w4 neg d cl f} def
/m48 {mp x y w4 add m w4 neg w4 d w4 neg w4 neg d w4 w4 neg d  w4 neg w4 neg d w4 w4 neg d w4 w4 d w4 w4 neg d w4 w4 d w4 neg w4 d w4 w4 d w4 neg w4 d w4 neg w4 neg d  w4 w4 neg d w4 neg w4 neg d w4 neg w4 d w4 w4 d cl f} def
/m49 {mp x w2 sub w3 add y w2 sub w3 add m  0 w3 neg d w3 0 d 0 w3 d w3 0 d 0 w3 d w3 neg 0 d 0 w3 d w3 neg 0 d 0 w3 neg d w3 neg 0 d 0 w3 neg d w3 0 d 0 w3 d w3 0 d 0 w3 neg d w3 neg 0 d cl f } def
/m2 {mp x y w2 sub m 0 w d x w2 sub y m w 0 d s} def
/m5 {mp x w2 sub y w2 sub m w w d x w2 sub y w2 add m w w neg d s} def
%%IncludeResource: ProcSet (FontSetInit)
%%IncludeResource: font Times-Roman
%%IncludeResource: font Times-Italic
%%IncludeResource: font Times-Bold
%%IncludeResource: font Times-BoldItalic
%%IncludeResource: font Helvetica
%%IncludeResource: font Helvetica-Oblique
%%IncludeResource: font Helvetica-Bold
%%IncludeResource: font Helvetica-BoldOblique
%%IncludeResource: font Courier
%%IncludeResource: font Courier-Oblique
%%IncludeResource: font Courier-Bold
%%IncludeResource: font Courier-BoldOblique
%%IncludeResource: font Symbol
%%IncludeResource: font ZapfDingbats
/reEncode {exch findfont dup length dict begin {1 index /FID eq  {pop pop} {def} ifelse } forall /Encoding exch def currentdict end dup /FontName get exch definefont pop } def [/Times-Bold /Times-Italic /Times-BoldItalic /Helvetica /Helvetica-Oblique
 /Helvetica-Bold /Helvetica-BoldOblique /Courier /Courier-Oblique /Courier-Bold /Courier-BoldOblique /Times-Roman /AvantGarde-Book /AvantGarde-BookOblique /AvantGarde-Demi /AvantGarde-DemiOblique /Bookman-Demi /Bookman-DemiItalic /Bookman-Light
 /Bookman-LightItalic /Helvetica-Narrow /Helvetica-Narrow-Bold /Helvetica-Narrow-BoldOblique /Helvetica-Narrow-Oblique /NewCenturySchlbk-Roman /NewCenturySchlbk-Bold /NewCenturySchlbk-BoldItalic /NewCenturySchlbk-Italic /Palatino-Bold
 /Palatino-BoldItalic /Palatino-Italic /Palatino-Roman ] {ISOLatin1Encoding reEncode } forall
%%EndProlog
%%BeginSetup
%%EndSetup
newpath  gsave  .25 .25 scale  gsave  0 0 t black[  ] 0 sd 3 lw 1 1 1 c 2268 1583 0 0 bf black 1 1 1 c 2268 475 0 0 bf black 1 1 1 c 1927 275 227 190 bf black 1927 275 227 190 bl 227 190 m 1927 X s 227 202 m -12 Y s 282 196 m -6 Y s 337 196 m -6 Y s
 392 196 m -6 Y s 447 196 m -6 Y s 502 202 m -12 Y s 557 196 m -6 Y s 612 196 m -6 Y s 667 196 m -6 Y s 722 196 m -6 Y s 778 202 m -12 Y s 833 196 m -6 Y s 888 196 m -6 Y s 943 196 m -6 Y s 998 196 m -6 Y s 1053 202 m -12 Y s 1108 196 m -6 Y s 1163
 196 m -6 Y s 1218 196 m -6 Y s 1273 196 m -6 Y s 1328 202 m -12 Y s 1383 196 m -6 Y s 1438 196 m -6 Y s 1493 196 m -6 Y s 1549 196 m -6 Y s 1604 202 m -12 Y s 1659 196 m -6 Y s 1714 196 m -6 Y s 1769 196 m -6 Y s 1824 196 m -6 Y s 1879 202 m -12 Y s
 1934 196 m -6 Y s 1989 196 m -6 Y s 2044 196 m -6 Y s 2099 196 m -6 Y s 2154 202 m -12 Y s
 gsave  2268 475 0 0 C 180.118 126.968 t 0 r /Helvetica findfont 53.4154 sf 0 0 m (300) show NC gr 
 gsave  2268 475 0 0 C 457.677 126.968 t 0 r /Helvetica findfont 53.4154 sf 0 0 m (400) show NC gr 
 gsave  2268 475 0 0 C 732.283 126.968 t 0 r /Helvetica findfont 53.4154 sf 0 0 m (500) show NC gr 
 gsave  2268 475 0 0 C 1006.89 126.968 t 0 r /Helvetica findfont 53.4154 sf 0 0 m (600) show NC gr 
 gsave  2268 475 0 0 C 1281.5 126.968 t 0 r /Helvetica findfont 53.4154 sf 0 0 m (700) show NC gr 
 gsave  2268 475 0 0 C 1559.06 126.968 t 0 r /Helvetica findfont 53.4154 sf 0 0 m (800) show NC gr 
 gsave  2268 475 0 0 C 1833.66 126.968 t 0 r /Helvetica findfont 53.4154 sf 0 0 m (900) show NC gr 
 gsave  2268 475 0 0 C 2093.5 126.968 t 0 r /Helvetica findfont 53.4154 sf 0 0 m (1000) show NC gr 
 gsave  2268 475 0 0 C 1996.06 47.2441 t 0 r /Helvetica findfont 56.3829 sf 0 0 m ( [GeV]) show NC gr 
 gsave  2268 475 0 0 C 1972.44 29.5276 t 0 r /Helvetica findfont 38.5778 sf 0 0 m (T) show NC gr 
 gsave  2268 475 0 0 C 1925.2 47.2441 t 0 r /Helvetica-Oblique findfont 56.3829 sf 0 0 m (H) show NC gr  227 465 m 1927 X s 227 453 m 12 Y s 282 459 m 6 Y s 337 459 m 6 Y s 392 459 m 6 Y s 447 459 m 6 Y s 502 453 m 12 Y s 557 459 m 6 Y s 612 459 m 6
 Y s 667 459 m 6 Y s 722 459 m 6 Y s 778 453 m 12 Y s 833 459 m 6 Y s 888 459 m 6 Y s 943 459 m 6 Y s 998 459 m 6 Y s 1053 453 m 12 Y s 1108 459 m 6 Y s 1163 459 m 6 Y s 1218 459 m 6 Y s 1273 459 m 6 Y s 1328 453 m 12 Y s 1383 459 m 6 Y s 1438 459 m
 6 Y s 1493 459 m 6 Y s 1549 459 m 6 Y s 1604 453 m 12 Y s 1659 459 m 6 Y s 1714 459 m 6 Y s 1769 459 m 6 Y s 1824 459 m 6 Y s 1879 453 m 12 Y s 1934 459 m 6 Y s 1989 459 m 6 Y s 2044 459 m 6 Y s 2099 459 m 6 Y s 2154 453 m 12 Y s 227 190 m 275 Y s
 240 242 m -13 X s 240 328 m -13 X s 240 414 m -13 X s 240 242 m -13 X s 240 414 m -13 X s
 gsave  2268 475 0 0 C 118.11 221.457 t 0 r /Helvetica findfont 53.4154 sf 0 0 m (0.5) show NC gr 
 gsave  2268 475 0 0 C 171.26 307.087 t 0 r /Helvetica findfont 53.4154 sf 0 0 m (1) show NC gr 
 gsave  2268 475 0 0 C 118.11 395.669 t 0 r /Helvetica findfont 53.4154 sf 0 0 m (1.5) show NC gr 
 gsave  2268 475 0 0 C 70.8661 233.268 t 90 r /Helvetica findfont 53.4154 sf 0 0 m (Data / SM) show NC gr  2154 190 m 275 Y s 2141 242 m 13 X s 2141 328 m 13 X s 2141 414 m 13 X s 2141 242 m 13 X s 2141 414 m 13 X s 227 190 m 1927 X s 227 465 m 1927
 X s 227 190 m 275 Y s[ 4 8] 0 sd 2154 242 m -1927 X s 2154 328 m -1927 X s 2154 414 m -1927 X s 2154 242 m -1927 X s 2154 414 m -1927 X s[  ] 0 sd 2154 190 m 275 Y s 1 1 0.6 c 137 0 227 328 bf 138 0 364 328 bf 138 0 502 328 bf 138 0 640 328 bf 137 0
 778 328 bf 138 0 915 328 bf 138 0 1053 328 bf 137 0 1191 328 bf 138 0 1328 328 bf 138 0 1466 328 bf 137 0 1604 328 bf 138 0 1741 328 bf 138 0 1879 328 bf 137 0 2017 328 bf black 0.6 0.6 0.6 c 364 328 m -6 -7 d s 352 334 m -13 -13 d s 332 334 m -12
 -13 d s 313 334 m -13 -13 d s 294 334 m -13 -13 d s 275 334 m -13 -13 d s 255 334 m -12 -13 d s 236 334 m -9 -9 d s 502 331 m -10 -11 d s 487 335 m -15 -15 d s 468 335 m -15 -15 d s 449 335 m -15 -15 d s 430 335 m -15 -15 d s 411 335 m -16 -15 d s
 391 335 m -15 -15 d s 372 335 m -8 -7 d s 640 334 m -15 -16 d s 624 337 m -18 -19 d s 604 337 m -18 -19 d s 585 337 m -18 -19 d s 566 337 m -18 -19 d s 547 337 m -18 -19 d s 528 337 m -19 -19 d s 508 337 m -6 -6 d s 778 317 m -1 X s 778 337 m -20
 -20 d s 760 338 m -21 -21 d s 740 338 m -20 -21 d s 721 338 m -21 -21 d s 702 338 m -21 -21 d s 683 338 m -21 -21 d s 663 338 m -20 -21 d s 644 338 m -4 -4 d s 915 320 m -9 -9 d s 915 340 m -28 -29 d s 900 344 m -32 -33 d s 881 344 m -32 -33 d s 862
 344 m -33 -33 d s 843 344 m -33 -33 d s 823 344 m -32 -33 d s 804 344 m -26 -27 d s 785 344 m -7 -7 d s 1053 323 m -10 -10 d s 1052 342 m -28 -29 d s 1033 342 m -28 -29 d s 1014 342 m -29 -29 d s 994 342 m -28 -29 d s 975 342 m -28 -29 d s 956 342 m
 -28 -29 d s 937 342 m -22 -22 d s 917 342 m -2 -2 d s 1191 326 m -16 -15 d s 1189 344 m -33 -33 d s 1170 344 m -33 -33 d s 1151 344 m -33 -33 d s 1131 344 m -33 -33 d s 1112 344 m -33 -33 d s 1093 344 m -33 -33 d s 1074 344 m -21 -21 d s 1054 344 m
 -1 -1 d s 1328 329 m -19 -19 d s 1325 345 m -35 -35 d s 1305 345 m -34 -35 d s 1286 345 m -34 -35 d s 1267 345 m -35 -35 d s 1248 345 m -35 -35 d s 1228 345 m -34 -35 d s 1209 345 m -18 -19 d s 1466 313 m -8 -8 d s 1466 332 m -28 -27 d s 1465 351 m
 -46 -46 d s 1446 351 m -46 -46 d s 1426 351 m -45 -46 d s 1407 351 m -46 -46 d s 1388 351 m -46 -46 d s 1369 351 m -41 -41 d s 1349 351 m -21 -22 d s 1330 351 m -2 -2 d s 1604 297 m -1 -1 d s 1604 316 m -20 -20 d s 1604 335 m -39 -39 d s 1604 355 m
 -58 -59 d s 1588 359 m -61 -63 d s 1569 359 m -62 -63 d s 1550 359 m -62 -63 d s 1531 359 m -62 -63 d s 1511 359 m -45 -46 d s 1492 359 m -26 -27 d s 1473 359 m -7 -7 d s 1741 319 m -18 -18 d s 1741 338 m -37 -37 d s 1738 354 m -53 -53 d s 1719 354
 m -53 -53 d s 1699 354 m -53 -53 d s 1680 354 m -53 -53 d s 1661 354 m -53 -53 d s 1642 354 m -38 -38 d s 1622 354 m -18 -19 d s 1879 303 m -8 -8 d s 1879 322 m -27 -27 d s 1879 341 m -46 -46 d s 1879 360 m -65 -65 d s 1859 360 m -65 -65 d s 1840
 360 m -65 -65 d s 1821 360 m -65 -65 d s 1802 360 m -61 -60 d s 1782 360 m -41 -41 d s 1763 360 m -22 -22 d s 1744 360 m -3 -2 d s 2017 306 m -13 -14 d s 2017 325 m -33 -33 d s 2017 344 m -52 -52 d s 2016 363 m -70 -71 d s 1997 363 m -70 -71 d s
 1977 363 m -70 -71 d s 1958 363 m -70 -71 d s 1939 363 m -60 -60 d s 1920 363 m -41 -41 d s 1900 363 m -21 -22 d s 1881 363 m -2 -2 d s 2154 328 m -6 -6 d s 2141 334 m -12 -12 d s 2122 334 m -13 -12 d s 2102 334 m -12 -12 d s 2083 334 m -12 -12 d s
 2064 334 m -12 -12 d s 2045 334 m -12 -12 d s 2025 334 m -8 -9 d s black 1 1 1 c black 296 335 m 18 Y s 296 376 m 18 Y s /w 26 def /w2 {w 2 div} def /w3 {w 3 div} def 296 365 m20 433 286 m 17 Y s 433 327 m 17 Y s 433 315 m20 571 319 m 30 Y s 571 373
 m 30 Y s 571 361 m20 709 305 m 38 Y s 709 367 m 38 Y s 709 355 m20 846 268 m 36 Y s 846 328 m 36 Y s 846 316 m20 984 236 m 43 Y s 984 303 m 44 Y s 984 291 m20 1122 325 m 81 Y s 1122 429 m 36 Y s 1122 418 m20 1259 214 m 67 Y s 1259 305 m 68 Y s 1259
 293 m20 1397 214 m 68 Y s 1397 306 m 68 Y s 1397 294 m20 1535 206 m 111 Y s 1535 341 m 111 Y s 1535 329 m20 1672 269 m 144 Y s 1672 436 m 29 Y s 1672 424 m20 1810 190 m 69 Y s 1810 283 m 104 Y s 1810 271 m20 1948 190 m 84 Y s 1948 297 m 118 Y s 1948
 285 m20 2085 222 m 54 Y s 2085 300 m 54 Y s 2085 288 m20 227 328 m 1927 X s 227 190 m 1927 X s 227 202 m -12 Y s 282 196 m -6 Y s 337 196 m -6 Y s 392 196 m -6 Y s 447 196 m -6 Y s 502 202 m -12 Y s 557 196 m -6 Y s 612 196 m -6 Y s 667 196 m -6 Y s
 722 196 m -6 Y s 778 202 m -12 Y s 833 196 m -6 Y s 888 196 m -6 Y s 943 196 m -6 Y s 998 196 m -6 Y s 1053 202 m -12 Y s 1108 196 m -6 Y s 1163 196 m -6 Y s 1218 196 m -6 Y s 1273 196 m -6 Y s 1328 202 m -12 Y s 1383 196 m -6 Y s 1438 196 m -6 Y s
 1493 196 m -6 Y s 1549 196 m -6 Y s 1604 202 m -12 Y s 1659 196 m -6 Y s 1714 196 m -6 Y s 1769 196 m -6 Y s 1824 196 m -6 Y s 1879 202 m -12 Y s 1934 196 m -6 Y s 1989 196 m -6 Y s 2044 196 m -6 Y s 2099 196 m -6 Y s 2154 202 m -12 Y s 227 465 m
 1927 X s 227 453 m 12 Y s 282 459 m 6 Y s 337 459 m 6 Y s 392 459 m 6 Y s 447 459 m 6 Y s 502 453 m 12 Y s 557 459 m 6 Y s 612 459 m 6 Y s 667 459 m 6 Y s 722 459 m 6 Y s 778 453 m 12 Y s 833 459 m 6 Y s 888 459 m 6 Y s 943 459 m 6 Y s 998 459 m 6 Y
 s 1053 453 m 12 Y s 1108 459 m 6 Y s 1163 459 m 6 Y s 1218 459 m 6 Y s 1273 459 m 6 Y s 1328 453 m 12 Y s 1383 459 m 6 Y s 1438 459 m 6 Y s 1493 459 m 6 Y s 1549 459 m 6 Y s 1604 453 m 12 Y s 1659 459 m 6 Y s 1714 459 m 6 Y s 1769 459 m 6 Y s 1824
 459 m 6 Y s 1879 453 m 12 Y s 1934 459 m 6 Y s 1989 459 m 6 Y s 2044 459 m 6 Y s 2099 459 m 6 Y s 2154 453 m 12 Y s 227 190 m 275 Y s 240 242 m -13 X s 240 328 m -13 X s 240 414 m -13 X s 240 242 m -13 X s 240 414 m -13 X s 2154 190 m 275 Y s 2141
 242 m 13 X s 2141 328 m 13 X s 2141 414 m 13 X s 2141 242 m 13 X s 2141 414 m 13 X s 1 1 1 c 2268 1108 0 475 bf black 1 1 1 c 1927 1041 227 486 bf black 1927 1041 227 486 bl 1 1 1 c black 3 lw 227 486 m 1927 X s 227 505 m -19 Y s 282 495 m -9 Y s
 337 495 m -9 Y s 392 495 m -9 Y s 447 495 m -9 Y s 502 505 m -19 Y s 557 495 m -9 Y s 612 495 m -9 Y s 667 495 m -9 Y s 722 495 m -9 Y s 778 505 m -19 Y s 833 495 m -9 Y s 888 495 m -9 Y s 943 495 m -9 Y s 998 495 m -9 Y s 1053 505 m -19 Y s 1108
 495 m -9 Y s 1163 495 m -9 Y s 1218 495 m -9 Y s 1273 495 m -9 Y s 1328 505 m -19 Y s 1383 495 m -9 Y s 1438 495 m -9 Y s 1493 495 m -9 Y s 1549 495 m -9 Y s 1604 505 m -19 Y s 1659 495 m -9 Y s 1714 495 m -9 Y s 1769 495 m -9 Y s 1824 495 m -9 Y s
 1879 505 m -19 Y s 1934 495 m -9 Y s 1989 495 m -9 Y s 2044 495 m -9 Y s 2099 495 m -9 Y s 2154 505 m -19 Y s
 gsave  2268 1108 0 475 C 2061.02 404.528 t 0 r /Helvetica findfont 32.4976 sf 0 0 m ( [GeV]) show NC gr 
 gsave  2268 1108 0 475 C 2046.26 392.717 t 0 r /Helvetica findfont 20.6803 sf 0 0 m (T) show NC gr 
 gsave  2268 1108 0 475 C 2019.69 404.528 t 0 r /Helvetica-Oblique findfont 32.4976 sf 0 0 m (H) show NC gr  227 1527 m 1927 X s 227 1508 m 19 Y s 282 1518 m 9 Y s 337 1518 m 9 Y s 392 1518 m 9 Y s 447 1518 m 9 Y s 502 1508 m 19 Y s 557 1518 m 9 Y s
 612 1518 m 9 Y s 667 1518 m 9 Y s 722 1518 m 9 Y s 778 1508 m 19 Y s 833 1518 m 9 Y s 888 1518 m 9 Y s 943 1518 m 9 Y s 998 1518 m 9 Y s 1053 1508 m 19 Y s 1108 1518 m 9 Y s 1163 1518 m 9 Y s 1218 1518 m 9 Y s 1273 1518 m 9 Y s 1328 1508 m 19 Y s
 1383 1518 m 9 Y s 1438 1518 m 9 Y s 1493 1518 m 9 Y s 1549 1518 m 9 Y s 1604 1508 m 19 Y s 1659 1518 m 9 Y s 1714 1518 m 9 Y s 1769 1518 m 9 Y s 1824 1518 m 9 Y s 1879 1508 m 19 Y s 1934 1518 m 9 Y s 1989 1518 m 9 Y s 2044 1518 m 9 Y s 2099 1518 m 9
 Y s 2154 1508 m 19 Y s 227 486 m 1041 Y s 248 619 m -21 X s 237 646 m -10 X s 237 672 m -10 X s 237 699 m -10 X s 237 726 m -10 X s 248 752 m -21 X s 237 779 m -10 X s 237 805 m -10 X s 237 832 m -10 X s 237 859 m -10 X s 248 885 m -21 X s 237 912 m
 -10 X s 237 939 m -10 X s 237 965 m -10 X s 237 992 m -10 X s 248 1019 m -21 X s 237 1045 m -10 X s 237 1072 m -10 X s 237 1099 m -10 X s 237 1125 m -10 X s 248 1152 m -21 X s 237 1178 m -10 X s 237 1205 m -10 X s 237 1232 m -10 X s 237 1258 m -10 X
 s 248 1285 m -21 X s 237 1312 m -10 X s 237 1338 m -10 X s 237 1365 m -10 X s 237 1392 m -10 X s 248 1418 m -21 X s 248 619 m -21 X s 237 592 m -10 X s 237 566 m -10 X s 237 539 m -10 X s 237 512 m -10 X s 248 1418 m -21 X s 237 1445 m -10 X s 237
 1472 m -10 X s 237 1498 m -10 X s 237 1525 m -10 X s
 gsave  2268 1108 0 475 C 141.732 599.409 t 0 r /Helvetica findfont 53.178 sf 0 0 m (10) show NC gr 
 gsave  2268 1108 0 475 C 141.732 732.283 t 0 r /Helvetica findfont 53.178 sf 0 0 m (20) show NC gr 
 gsave  2268 1108 0 475 C 141.732 865.157 t 0 r /Helvetica findfont 53.178 sf 0 0 m (30) show NC gr 
 gsave  2268 1108 0 475 C 141.732 998.031 t 0 r /Helvetica findfont 53.178 sf 0 0 m (40) show NC gr 
 gsave  2268 1108 0 475 C 141.732 1133.86 t 0 r /Helvetica findfont 53.178 sf 0 0 m (50) show NC gr 
 gsave  2268 1108 0 475 C 141.732 1266.73 t 0 r /Helvetica findfont 53.178 sf 0 0 m (60) show NC gr 
 gsave  2268 1108 0 475 C 141.732 1399.61 t 0 r /Helvetica findfont 53.178 sf 0 0 m (70) show NC gr 
 gsave  2268 1108 0 475 C 64.9606 1142.72 t 90 r /Helvetica findfont 53.178 sf 0 0 m (Events / 50 GeV) show NC gr  2154 486 m 1041 Y s 2133 619 m 21 X s 2144 646 m 10 X s 2144 672 m 10 X s 2144 699 m 10 X s 2144 726 m 10 X s 2133 752 m 21 X s 2144
 779 m 10 X s 2144 805 m 10 X s 2144 832 m 10 X s 2144 859 m 10 X s 2133 885 m 21 X s 2144 912 m 10 X s 2144 939 m 10 X s 2144 965 m 10 X s 2144 992 m 10 X s 2133 1019 m 21 X s 2144 1045 m 10 X s 2144 1072 m 10 X s 2144 1099 m 10 X s 2144 1125 m 10 X
 s 2133 1152 m 21 X s 2144 1178 m 10 X s 2144 1205 m 10 X s 2144 1232 m 10 X s 2144 1258 m 10 X s 2133 1285 m 21 X s 2144 1312 m 10 X s 2144 1338 m 10 X s 2144 1365 m 10 X s 2144 1392 m 10 X s 2133 1418 m 21 X s 2133 619 m 21 X s 2144 592 m 10 X s
 2144 566 m 10 X s 2144 539 m 10 X s 2144 512 m 10 X s 2133 1418 m 21 X s 2144 1445 m 10 X s 2144 1472 m 10 X s 2144 1498 m 10 X s 2144 1525 m 10 X s 0.4 0.6 0.4 c black 3 lw 0.4 0.6 0.4 c 227 486 m 548 Y 137 X -117 Y 138 X -164 Y 138 X -83 Y 138 X
 -27 Y 137 X -56 Y 138 X -31 Y 138 X -20 Y 275 X -24 Y 138 X -1 Y 137 X -5 Y 138 X -3 Y 138 X 52 Y 137 X -69 Y f 0.06 0.54 0.06 c 0.999 0.999 0.999 c black 3 lw 0.999 0.999 0.999 c 227 486 m 431 Y 137 X -70 Y 138 X -134 Y 138 X -66 Y 138 X -19 Y 137
 X -51 Y 138 X -27 Y 138 X -19 Y 137 X 1 Y 138 X -23 Y 275 X -5 Y 138 X -2 Y 138 X 49 Y 137 X -65 Y f 0.06 0.54 0.06 c 0.999 0.999 0.999 c 0.06 0.54 0.06 c 1 1 1 c black 0.06 0.54 0.06 c black 3 lw 0.06 0.54 0.06 c 227 486 m 431 Y 137 X -70 Y 138 X
 -134 Y 138 X -66 Y 138 X -19 Y 137 X -51 Y 138 X -27 Y 138 X -19 Y 137 X 1 Y 138 X -23 Y 275 X -5 Y 138 X -2 Y 138 X 49 Y 137 X -65 Y f 1 0.653333 0 c 0.999 0.999 0.999 c black 3 lw 0.999 0.999 0.999 c 227 486 m 294 Y 137 X -77 Y 138 X -75 Y 138 X
 -27 Y 138 X -16 Y 137 X -39 Y 138 X -14 Y 138 X -9 Y 137 X -10 Y 138 X -6 Y 138 X -4 Y 137 X -5 Y 138 X 2 Y 138 X 40 Y 137 X -54 Y f 1 0.653333 0 c 0.999 0.999 0.999 c 1 0.653333 0 c 1 1 1 c black 1 0.653333 0 c black 3 lw 1 0.653333 0 c 227 486 m
 294 Y 137 X -77 Y 138 X -75 Y 138 X -27 Y 138 X -16 Y 137 X -39 Y 138 X -14 Y 138 X -9 Y 137 X -10 Y 138 X -6 Y 138 X -4 Y 137 X -5 Y 138 X 2 Y 138 X 40 Y 137 X -54 Y f 0.413333 1 0 c 0.999 0.999 0.999 c black 3 lw 0.999 0.999 0.999 c 227 486 m 236
 Y 137 X -69 Y 138 X -55 Y 138 X -28 Y 138 X -20 Y 137 X -19 Y 138 X -10 Y 138 X -9 Y 137 X -6 Y 138 X -4 Y 138 X -5 Y 137 X -1 Y 276 X 25 Y 137 X -35 Y f 0.413333 1 0 c 0.999 0.999 0.999 c 0.413333 1 0 c 1 1 1 c black 0.413333 1 0 c black 3 lw
 0.413333 1 0 c 227 486 m 236 Y 137 X -69 Y 138 X -55 Y 138 X -28 Y 138 X -20 Y 137 X -19 Y 138 X -10 Y 138 X -9 Y 137 X -6 Y 138 X -4 Y 138 X -5 Y 137 X -1 Y 276 X 25 Y 137 X -35 Y f 0.6 0.2 1 c 0.999 0.999 0.999 c black 3 lw 0.999 0.999 0.999 c 227
 486 m 175 Y 137 X -56 Y 138 X -40 Y 138 X -20 Y 138 X -17 Y 137 X -13 Y 138 X -7 Y 138 X -6 Y 137 X -4 Y 138 X -2 Y 138 X -3 Y 137 X -1 Y 138 X -1 Y 138 X 14 Y 137 X -19 Y f 0.6 0.2 1 c 0.999 0.999 0.999 c 0.6 0.2 1 c 1 1 1 c black 0.6 0.2 1 c black
 3 lw 0.6 0.2 1 c 227 486 m 175 Y 137 X -56 Y 138 X -40 Y 138 X -20 Y 138 X -17 Y 137 X -13 Y 138 X -7 Y 138 X -6 Y 137 X -4 Y 138 X -2 Y 138 X -3 Y 137 X -1 Y 138 X -1 Y 138 X 14 Y 137 X -19 Y f 0.54 0.06 0.06 c 0.999 0.999 0.999 c black 3 lw 0.999
 0.999 0.999 c 227 486 m 157 Y 137 X -50 Y 138 X -37 Y 138 X -18 Y 138 X -14 Y 137 X -12 Y 138 X -6 Y 138 X -6 Y 137 X -3 Y 138 X -2 Y 138 X -3 Y 137 X -1 Y 276 X 12 Y 137 X -17 Y f 0.54 0.06 0.06 c 0.999 0.999 0.999 c 0.54 0.06 0.06 c 1 1 1 c black
 0.54 0.06 0.06 c black 3 lw 0.54 0.06 0.06 c 227 486 m 157 Y 137 X -50 Y 138 X -37 Y 138 X -18 Y 138 X -14 Y 137 X -12 Y 138 X -6 Y 138 X -6 Y 137 X -3 Y 138 X -2 Y 138 X -3 Y 137 X -1 Y 276 X 12 Y 137 X -17 Y f 1 0 1 c 0.999 0.999 0.999 c black 3
 lw 0.999 0.999 0.999 c 227 486 m 41 Y 137 X -14 Y 138 X -10 Y 138 X -5 Y 138 X -3 Y 137 X -4 Y 138 X -1 Y 138 X -1 Y 137 X -1 Y 138 X -1 Y 275 X -1 Y 276 X 2 Y 137 X -2 Y f 1 0 1 c 0.999 0.999 0.999 c 1 0 1 c 1 1 1 c black 1 0 1 c black 3 lw 1 0 1 c
 227 486 m 41 Y 137 X -14 Y 138 X -10 Y 138 X -5 Y 138 X -3 Y 137 X -4 Y 138 X -1 Y 138 X -1 Y 137 X -1 Y 138 X -1 Y 275 X -1 Y 276 X 2 Y 137 X -2 Y f 0 0 1 c 0.999 0.999 0.999 c black 3 lw 0.999 0.999 0.999 c 227 486 m 17 Y 137 X -6 Y 138 X -4 Y 138
 X -2 Y 138 X -1 Y 137 X -2 Y 276 X -1 Y 275 X -1 Y 551 X 2 Y 137 X -2 Y f 0 0 1 c 0.999 0.999 0.999 c 0 0 1 c 1 1 1 c black 0 0 1 c black 3 lw 0 0 1 c 227 486 m 17 Y 137 X -6 Y 138 X -4 Y 138 X -2 Y 138 X -1 Y 137 X -2 Y 276 X -1 Y 275 X -1 Y 551 X
 2 Y 137 X -2 Y f 0.2 0.8 0.8 c 0.999 0.999 0.999 c black 3 lw 0.999 0.999 0.999 c 227 486 m 7 Y 137 X -3 Y 138 X -1 Y 138 X -1 Y 138 X -1 Y 413 X -1 Y 826 X 1 Y 137 X -1 Y f 0.2 0.8 0.8 c 0.999 0.999 0.999 c 0.2 0.8 0.8 c 1 1 1 c black 0.2 0.8 0.8 c
 black 3 lw 0.2 0.8 0.8 c 227 486 m 7 Y 137 X -3 Y 138 X -1 Y 138 X -1 Y 138 X -1 Y 413 X -1 Y 826 X 1 Y 137 X -1 Y f 1 0 0 c 0.999 0.999 0.999 c black 3 lw 0.999 0.999 0.999 c 227 486 m 1 Y 413 X -1 Y 1514 X f 1 0 0 c 0.999 0.999 0.999 c 1 0 0 c 1 1
 1 c black 1 0 0 c black 3 lw 1 0 0 c 227 486 m 1 Y 413 X -1 Y 1514 X f 1 0.84 0 c 0.999 0.999 0.999 c black 3 lw 0.999 0.999 0.999 c 227 486 m 1927 X f 1 0.84 0 c 0.999 0.999 0.999 c 1 0.84 0 c 1 1 1 c black 1 0.84 0 c black 3 lw 1 0.84 0 c 227 486
 m 1927 X f black 1 1 1 c black 0.6 0.6 0.6 c 3 lw 364 1030 m -17 -17 d s 364 1050 m -36 -37 d s 350 1054 m -41 -41 d s 331 1054 m -41 -41 d s 311 1054 m -41 -41 d s 292 1054 m -41 -41 d s 273 1054 m -41 -41 d s 254 1054 m -27 -26 d s 234 1054 m -7
 -7 d s 3 lw 502 899 m -1 -1 d s 502 918 m -21 -20 d s 500 936 m -38 -38 d s 481 936 m -38 -38 d s 462 936 m -38 -38 d s 443 936 m -38 -38 d s 423 936 m -38 -38 d s 404 936 m -38 -38 d s 385 936 m -21 -21 d s 366 936 m -2 -2 d s 3 lw 640 748 m -9 -9
 d s 640 768 m -29 -29 d s 621 768 m -29 -29 d s 601 768 m -28 -29 d s 582 768 m -28 -29 d s 563 768 m -29 -29 d s 544 768 m -29 -29 d s 524 768 m -22 -23 d s 505 768 m -3 -3 d s 3 lw 778 675 m -17 -16 d s 764 681 m -22 -22 d s 745 681 m -22 -22 d s
 726 681 m -22 -22 d s 707 681 m -23 -22 d s 687 681 m -22 -22 d s 668 681 m -22 -22 d s 649 681 m -9 -9 d s 3 lw 915 639 m -11 -11 d s 915 658 m -30 -30 d s 895 658 m -30 -30 d s 876 658 m -30 -30 d s 857 658 m -30 -30 d s 838 658 m -30 -30 d s 818
 658 m -29 -30 d s 799 658 m -21 -22 d s 780 658 m -2 -3 d s 3 lw 1053 585 m -6 -6 d s 1045 595 m -17 -16 d s 1025 595 m -17 -16 d s 1006 595 m -17 -16 d s 987 595 m -17 -16 d s 968 595 m -17 -16 d s 948 595 m -16 -16 d s 929 595 m -14 -13 d s 3 lw
 1191 549 m -1 X s 1185 562 m -14 -13 d s 1165 562 m -13 -13 d s 1146 562 m -13 -13 d s 1127 562 m -14 -13 d s 1108 562 m -14 -13 d s 1088 562 m -13 -13 d s 1069 562 m -13 -13 d s 3 lw 1328 533 m -2 -2 d s 1317 541 m -10 -10 d s 1298 541 m -11 -10 d
 s 1278 541 m -10 -10 d s 1259 541 m -10 -10 d s 1240 541 m -10 -10 d s 1221 541 m -10 -10 d s 1201 541 m -10 -10 d s 3 lw 1466 536 m -7 -7 d s 1453 542 m -13 -13 d s 1434 542 m -14 -13 d s 1414 542 m -13 -13 d s 1395 542 m -13 -13 d s 1376 542 m -13
 -13 d s 1357 542 m -14 -13 d s 1337 542 m -9 -9 d s 3 lw 1601 517 m -10 -10 d s 1582 517 m -10 -10 d s 1562 517 m -9 -10 d s 1543 517 m -9 -10 d s 1524 517 m -10 -10 d s 1505 517 m -10 -10 d s 1485 517 m -9 -10 d s 1466 517 m s 3 lw 1734 515 m -8 -8
 d s 1715 515 m -8 -8 d s 1695 515 m -8 -8 d s 1676 515 m -8 -8 d s 1657 515 m -8 -8 d s 1638 515 m -8 -8 d s 1618 515 m -8 -8 d s 3 lw 1879 506 m -5 -4 d s 1863 509 m -8 -7 d s 1843 509 m -7 -7 d s 1824 509 m -7 -7 d s 1805 509 m -8 -7 d s 1786 509
 m -8 -7 d s 1766 509 m -7 -7 d s 1747 509 m -6 -6 d s 3 lw 2014 507 m -7 -7 d s 1995 507 m -7 -7 d s 1976 507 m -7 -7 d s 1956 507 m -7 -7 d s 1937 507 m -7 -7 d s 1918 507 m -7 -7 d s 1899 507 m -7 -7 d s 1880 507 m -1 -1 d s 3 lw 2142 557 m -5 -4
 d s 2123 557 m -5 -4 d s 2103 557 m -5 -4 d s 2084 557 m -5 -4 d s 2065 557 m -5 -4 d s 2046 557 m -5 -4 d s 2026 557 m -5 -4 d s black 3 lw 1 1 1 c black 296 1058 m 82 Y s 296 1164 m 82 Y s /w 24 def /w2 {w 2 div} def /w3 {w 3 div} def 296 1152 m20
 433 812 m 62 Y s 433 897 m 61 Y s 433 885 m20 571 740 m 54 Y s 571 817 m 54 Y s 571 805 m20 709 646 m 41 Y s 709 711 m 41 Y s 709 699 m20 846 588 m 32 Y s 846 644 m 32 Y s 846 632 m20 984 533 m 21 Y s 984 577 m 21 Y s 984 566 m20 1122 555 m 26 Y s
 1122 604 m 26 Y s 1122 592 m20 1259 503 m 11 Y s 1259 538 m 11 Y s 1259 526 m20 1397 503 m 11 Y s 1397 538 m 11 Y s 1397 526 m20 1535 494 m 7 Y s 1535 524 m 7 Y s 1535 512 m20 1672 503 m 11 Y s 1672 538 m 11 Y s 1672 526 m20 1810 486 m 1 Y s 1810
 511 m 1 Y s 1810 499 m20 1948 486 m 1 Y s 1948 511 m 1 Y s 1948 499 m20 2085 512 m 15 Y s 2085 551 m 15 Y s 2085 539 m20 227 486 m 1927 X s 227 505 m -19 Y s 282 495 m -9 Y s 337 495 m -9 Y s 392 495 m -9 Y s 447 495 m -9 Y s 502 505 m -19 Y s 557
 495 m -9 Y s 612 495 m -9 Y s 667 495 m -9 Y s 722 495 m -9 Y s 778 505 m -19 Y s 833 495 m -9 Y s 888 495 m -9 Y s 943 495 m -9 Y s 998 495 m -9 Y s 1053 505 m -19 Y s 1108 495 m -9 Y s 1163 495 m -9 Y s 1218 495 m -9 Y s 1273 495 m -9 Y s 1328 505
 m -19 Y s 1383 495 m -9 Y s 1438 495 m -9 Y s 1493 495 m -9 Y s 1549 495 m -9 Y s 1604 505 m -19 Y s 1659 495 m -9 Y s 1714 495 m -9 Y s 1769 495 m -9 Y s 1824 495 m -9 Y s 1879 505 m -19 Y s 1934 495 m -9 Y s 1989 495 m -9 Y s 2044 495 m -9 Y s
 2099 495 m -9 Y s 2154 505 m -19 Y s 227 1527 m 1927 X s 227 1508 m 19 Y s 282 1518 m 9 Y s 337 1518 m 9 Y s 392 1518 m 9 Y s 447 1518 m 9 Y s 502 1508 m 19 Y s 557 1518 m 9 Y s 612 1518 m 9 Y s 667 1518 m 9 Y s 722 1518 m 9 Y s 778 1508 m 19 Y s
 833 1518 m 9 Y s 888 1518 m 9 Y s 943 1518 m 9 Y s 998 1518 m 9 Y s 1053 1508 m 19 Y s 1108 1518 m 9 Y s 1163 1518 m 9 Y s 1218 1518 m 9 Y s 1273 1518 m 9 Y s 1328 1508 m 19 Y s 1383 1518 m 9 Y s 1438 1518 m 9 Y s 1493 1518 m 9 Y s 1549 1518 m 9 Y s
 1604 1508 m 19 Y s 1659 1518 m 9 Y s 1714 1518 m 9 Y s 1769 1518 m 9 Y s 1824 1518 m 9 Y s 1879 1508 m 19 Y s 1934 1518 m 9 Y s 1989 1518 m 9 Y s 2044 1518 m 9 Y s 2099 1518 m 9 Y s 2154 1508 m 19 Y s 227 486 m 1041 Y s 248 619 m -21 X s 237 646 m
 -10 X s 237 672 m -10 X s 237 699 m -10 X s 237 726 m -10 X s 248 752 m -21 X s 237 779 m -10 X s 237 805 m -10 X s 237 832 m -10 X s 237 859 m -10 X s 248 885 m -21 X s 237 912 m -10 X s 237 939 m -10 X s 237 965 m -10 X s 237 992 m -10 X s 248
 1019 m -21 X s 237 1045 m -10 X s 237 1072 m -10 X s 237 1099 m -10 X s 237 1125 m -10 X s 248 1152 m -21 X s 237 1178 m -10 X s 237 1205 m -10 X s 237 1232 m -10 X s 237 1258 m -10 X s 248 1285 m -21 X s 237 1312 m -10 X s 237 1338 m -10 X s 237
 1365 m -10 X s 237 1392 m -10 X s 248 1418 m -21 X s 248 619 m -21 X s 237 592 m -10 X s 237 566 m -10 X s 237 539 m -10 X s 237 512 m -10 X s 248 1418 m -21 X s 237 1445 m -10 X s 237 1472 m -10 X s 237 1498 m -10 X s 237 1525 m -10 X s 2154 486 m
 1041 Y s 2133 619 m 21 X s 2144 646 m 10 X s 2144 672 m 10 X s 2144 699 m 10 X s 2144 726 m 10 X s 2133 752 m 21 X s 2144 779 m 10 X s 2144 805 m 10 X s 2144 832 m 10 X s 2144 859 m 10 X s 2133 885 m 21 X s 2144 912 m 10 X s 2144 939 m 10 X s 2144
 965 m 10 X s 2144 992 m 10 X s 2133 1019 m 21 X s 2144 1045 m 10 X s 2144 1072 m 10 X s 2144 1099 m 10 X s 2144 1125 m 10 X s 2133 1152 m 21 X s 2144 1178 m 10 X s 2144 1205 m 10 X s 2144 1232 m 10 X s 2144 1258 m 10 X s 2133 1285 m 21 X s 2144 1312
 m 10 X s 2144 1338 m 10 X s 2144 1365 m 10 X s 2144 1392 m 10 X s 2133 1418 m 21 X s 2133 619 m 21 X s 2144 592 m 10 X s 2144 566 m 10 X s 2144 539 m 10 X s 2144 512 m 10 X s 2133 1418 m 21 X s 2144 1445 m 10 X s 2144 1472 m 10 X s 2144 1498 m 10 X
 s 2144 1525 m 10 X s
 gsave  2268 1108 0 475 C 1313.98 1437.99 t 0 r /Helvetica findfont 56.1323 sf 0 0 m ( Data) show NC gr  1259 1463 m 7 Y s 1259 1440 m -8 Y s 1259 1451 m20
 gsave  2268 1108 0 475 C 1777.56 1437.99 t 0 r /Helvetica findfont 56.1323 sf 0 0 m ( Fakes \(MM\)) show NC gr  0.4 0.6 0.4 c 1682 1429 m 79 X 44 Y -79 X f black
 gsave  2268 1108 0 475 C 1402.56 1375.98 t 0 r /Helvetica findfont 56.1323 sf 0 0 m (single\255top) show NC gr 
 gsave  2268 1108 0 475 C 1373.03 1375.98 t 0 r /Helvetica-Oblique findfont 56.1323 sf 0 0 m (/) show NC gr 
 gsave  2268 1108 0 475 C 1352.36 1375.98 t 0 r /Helvetica-Oblique findfont 56.1323 sf 0 0 m (t) show NC gr  6 lw 1352 1420 m 21 X s
 gsave  2268 1108 0 475 C 1331.69 1375.98 t 0 r /Helvetica-Oblique findfont 56.1323 sf 0 0 m (t) show NC gr 
 gsave  2268 1108 0 475 C 1313.98 1375.98 t 0 r /Helvetica findfont 56.1323 sf 0 0 m ( ) show NC gr  0.06 0.54 0.06 c 3 lw 1219 1366 m 79 X 44 Y -79 X f 6 lw black
 gsave  2268 1108 0 475 C 1907.48 1375.98 t 0 r /Helvetica findfont 56.1323 sf 0 0 m (+jets) show NC gr 
 gsave  2268 1108 0 475 C 1795.28 1375.98 t 0 r /Helvetica-Oblique findfont 56.1323 sf 0 0 m (W/Z) show NC gr 
 gsave  2268 1108 0 475 C 1777.56 1375.98 t 0 r /Helvetica findfont 56.1323 sf 0 0 m ( ) show NC gr  1 0.653333 0 c 3 lw 1682 1366 m 79 X 44 Y -79 X f black
 gsave  2268 1108 0 475 C 1511.81 1311.02 t 0 r /Helvetica findfont 56.1323 sf 0 0 m (+jets) show NC gr 
 gsave  2268 1108 0 475 C 1331.69 1311.02 t 0 r /Helvetica-Oblique findfont 56.1323 sf 0 0 m (WZ/ZZ) show NC gr 
 gsave  2268 1108 0 475 C 1313.98 1311.02 t 0 r /Helvetica findfont 56.1323 sf 0 0 m ( ) show NC gr  0.413333 1 0 c 3 lw 1219 1303 m 79 X 44 Y -79 X f black
 gsave  2268 1108 0 475 C 1836.61 1311.02 t 0 r /Helvetica-Oblique findfont 56.1323 sf 0 0 m (Z) show NC gr 
 gsave  2268 1108 0 475 C 1815.94 1311.02 t 0 r /Helvetica-Oblique findfont 56.1323 sf 0 0 m (t) show NC gr  6 lw 1816 1355 m 21 X s
 gsave  2268 1108 0 475 C 1795.28 1311.02 t 0 r /Helvetica-Oblique findfont 56.1323 sf 0 0 m (t) show NC gr 
 gsave  2268 1108 0 475 C 1777.56 1311.02 t 0 r /Helvetica findfont 56.1323 sf 0 0 m ( ) show NC gr  0.6 0.2 1 c 3 lw 1682 1303 m 79 X 44 Y -79 X f 6 lw black
 gsave  2268 1108 0 475 C 1373.03 1249.02 t 0 r /Helvetica-Oblique findfont 56.1323 sf 0 0 m (W) show NC gr 
 gsave  2268 1108 0 475 C 1352.36 1249.02 t 0 r /Helvetica-Oblique findfont 56.1323 sf 0 0 m (t) show NC gr  6 lw 1352 1293 m 21 X s
 gsave  2268 1108 0 475 C 1331.69 1249.02 t 0 r /Helvetica-Oblique findfont 56.1323 sf 0 0 m (t) show NC gr 
 gsave  2268 1108 0 475 C 1313.98 1249.02 t 0 r /Helvetica findfont 56.1323 sf 0 0 m ( ) show NC gr  0.54 0.06 0.06 c 3 lw 1219 1239 m 79 X 45 Y -79 X f 6 lw black
 gsave  2268 1108 0 475 C 1795.28 1249.02 t 0 r /Helvetica-Oblique findfont 56.1323 sf 0 0 m (tZq) show NC gr 
 gsave  2268 1108 0 475 C 1777.56 1249.02 t 0 r /Helvetica findfont 56.1323 sf 0 0 m ( ) show NC gr  1 0 1 c 3 lw 1682 1239 m 79 X 45 Y -79 X f black
 gsave  2268 1108 0 475 C 1373.03 1184.06 t 0 r /Helvetica-Oblique findfont 56.1323 sf 0 0 m (H) show NC gr 
 gsave  2268 1108 0 475 C 1352.36 1184.06 t 0 r /Helvetica-Oblique findfont 56.1323 sf 0 0 m (t) show NC gr  6 lw 1352 1228 m 21 X s
 gsave  2268 1108 0 475 C 1331.69 1184.06 t 0 r /Helvetica-Oblique findfont 56.1323 sf 0 0 m (t) show NC gr 
 gsave  2268 1108 0 475 C 1313.98 1184.06 t 0 r /Helvetica findfont 56.1323 sf 0 0 m ( ) show NC gr  0 0 1 c 3 lw 1219 1176 m 79 X 44 Y -79 X f 6 lw black
 gsave  2268 1108 0 475 C 1795.28 1184.06 t 0 r /Helvetica-Oblique findfont 56.1323 sf 0 0 m (tWZ/tWH) show NC gr 
 gsave  2268 1108 0 475 C 1777.56 1184.06 t 0 r /Helvetica findfont 56.1323 sf 0 0 m ( ) show NC gr  0.2 0.8 0.8 c 3 lw 1682 1176 m 79 X 44 Y -79 X f black
 gsave  2268 1108 0 475 C 1331.69 1122.05 t 0 r /Helvetica-Oblique findfont 56.1323 sf 0 0 m (tHq) show NC gr 
 gsave  2268 1108 0 475 C 1313.98 1122.05 t 0 r /Helvetica findfont 56.1323 sf 0 0 m ( ) show NC gr  1 0 0 c 3 lw 1219 1113 m 79 X 44 Y -79 X f black
 gsave  2268 1108 0 475 C 1777.56 1122.05 t 0 r /Helvetica findfont 56.1323 sf 0 0 m ( Other) show NC gr  1 0.84 0 c 3 lw 1682 1113 m 79 X 44 Y -79 X f black
 gsave  2268 1108 0 475 C 1313.98 1060.04 t 0 r /Helvetica findfont 56.1323 sf 0 0 m ( Uncertainty) show NC gr  0.6 0.6 0.6 c 3 lw 1298 1060 m -10 -11 d s 1298 1079 m -30 -30 d s 1294 1094 m -45 -45 d s 1274 1094 m -44 -45 d s 1255 1094 m -36 -37 d s
 1236 1094 m -17 -17 d s 1 0.84 0 c 0.6 0.6 0.6 c black
 gsave  2268 1108 0 475 C 894.685 1337.6 t 0 r /Helvetica findfont 41.3606 sf 0 0 m (\2551) show NC gr 
 gsave  2268 1108 0 475 C 401.575 1308.07 t 0 r /Helvetica findfont 62.0409 sf 0 0 m ( = 13 TeV,  139 fb) show NC gr 
 gsave  2268 1108 0 475 C 372.047 1308.07 t 0 r /Helvetica findfont 62.0409 sf 0 0 m (s) show NC gr  6 lw 351 1344 m 6 -39 d s 3 lw 357 1305 m 9 56 d s 366 1361 m 36 X s
 gsave  2268 1108 0 475 C 812.008 1207.68 t 0 r /Helvetica findfont 62.0409 sf 0 0 m (\)) show NC gr 
 gsave  2268 1108 0 475 C 785.433 1207.68 t 0 r /Helvetica-Oblique findfont 62.0409 sf 0 0 m (j) show NC gr 
 gsave  2268 1108 0 475 C 752.953 1207.68 t 0 r /Helvetica findfont 62.0409 sf 0 0 m (3) show NC gr 
 gsave  2268 1108 0 475 C 714.567 1207.68 t 0 r /Helvetica-Oblique findfont 62.0409 sf 0 0 m (b) show NC gr 
 gsave  2268 1108 0 475 C 339.567 1207.68 t 0 r /Helvetica findfont 62.0409 sf 0 0 m ( 2L\(SS\), VR\(1) show NC gr 
 gsave  2268 1108 0 475 C 339.567 1405.51 t 0 r /Helvetica-BoldOblique findfont 73.8583 sf 0 0 m (ATLAS) show NC gr 
 gsave  2268 1108 0 475 C 634.843 1405.51 t 0 r /Helvetica findfont 73.8583 sf 0 0 m (Internal) show NC gr 
 gr  gr showpage
end
%%EOF
