%!PS-Adobe-2.0 EPSF-2.0
%%BoundingBox:  0 0 567 396
%%Title: /lhome/ific/c/cardillo/tHq/Plots/Plots-30-05-22-PLIV-SF/2LSS_MM/Ht_CR1b3jNoZ.eps: Ht_CR1b3jNoZ
%%Creator: ROOT Version 6.20/06
%%CreationDate: Tue May 31 15:04:49 2022
%%DocumentNeededResources: ProcSet (FontSetInit)
%%EndComments
%%BeginProlog
80 dict begin
/s {stroke} def /l {lineto} def /m {moveto} def /t {translate} def
/r {rotate} def /rl {roll}  def /R {repeat} def
/d {rlineto} def /rm {rmoveto} def /gr {grestore} def /f {eofill} def
/c {setrgbcolor} def /black {0 setgray} def /sd {setdash} def
/cl {closepath} def /sf {scalefont setfont} def /lw {setlinewidth} def
/box {m dup 0 exch d exch 0 d 0 exch neg d cl} def
/NC{systemdict begin initclip end}def/C{NC box clip newpath}def
/bl {box s} def /bf {gsave box gsave f grestore 1 lw [] 0 sd s grestore} def /Y { 0 exch d} def /X { 0 d} def 
/K {{pop pop 0 moveto} exch kshow} bind def
/ita {/ang 15 def gsave [1 0 ang dup sin exch cos div 1 0 0] concat} def 
/mp {newpath /y exch def /x exch def} def
/side {[w .77 mul w .23 mul] .385 w mul sd w 0 l currentpoint t -144 r} def
/mr {mp x y w2 0 360 arc} def /m24 {mr s} def /m20 {mr f} def
/mb {mp x y w2 add m w2 neg 0 d 0 w neg d w 0 d 0 w d cl} def
/mt {mp x y w2 add m w2 neg w neg d w 0 d cl} def
/w4 {w 4 div} def
/w6 {w 6 div} def
/w8 {w 8 div} def
/m21 {mb f} def /m25 {mb s} def /m22 {mt f} def /m26{mt s} def
/m23 {mp x y w2 sub m w2 w d w neg 0 d cl f} def
/m27 {mp x y w2 add m w3 neg w2 neg d w3 w2 neg d w3 w2 d cl s} def
/m28 {mp x w2 sub y w2 sub w3 add m w3 0 d  0 w3 neg d w3 0 d 0 w3 d w3 0 d  0 w3 d w3 neg 0 d 0 w3 d w3 neg 0 d 0 w3 neg d w3 neg 0 d cl s } def
/m29 {mp gsave x w2 sub y w2 add w3 sub m currentpoint t 4 {side} repeat cl fill gr} def
/m30 {mp gsave x w2 sub y w2 add w3 sub m currentpoint t 4 {side} repeat cl s gr} def
/m31 {mp x y w2 sub m 0 w d x w2 sub y m w 0 d x w2 sub y w2 add m w w neg d x w2 sub y w2 sub m w w d s} def
/m32 {mp x y w2 sub m w2 w d w neg 0 d cl s} def
/m33 {mp x y w2 add m w3 neg w2 neg d w3 w2 neg d w3 w2 d cl f} def
/m34 {mp x w2 sub y w2 sub w3 add m w3 0 d  0 w3 neg d w3 0 d 0 w3 d w3 0 d  0 w3 d w3 neg 0 d 0 w3 d w3 neg 0 d 0 w3 neg d w3 neg 0 d cl f } def
/m35 {mp x y w2 add m w2 neg w2 neg d w2 w2 neg d w2 w2 d w2 neg w2 d x y w2 sub m 0 w d x w2 sub y m w 0 d s} def
/m36 {mb x w2 sub y w2 add m w w neg d x w2 sub y w2 sub m w w d s} def
/m37 {mp x y m w4 neg w2 d w4 neg w2 neg d w2 0 d  w4 neg w2 neg d w2 0 d w4 neg w2 d w2 0 d w4 neg w2 d w4 neg w2 neg d cl s} def
/m38 {mp x w4 sub y w2 add m w4 neg w4 neg d 0 w2 neg d w4 w4 neg d w2 0 d w4 w4 d 0 w2 d w4 neg w4 d w2 neg 0 d x y w2 sub m 0 w d x w2 sub y m w 0 d cl s} def
/m39 {mp x y m w4 neg w2 d w4 neg w2 neg d w2 0 d  w4 neg w2 neg d w2 0 d w4 neg w2 d w2 0 d w4 neg w2 d w4 neg w2 neg d cl f} def
/m40 {mp x y m w4 w2 d w4 w4 neg d w2 neg w4 neg d w2 w4 neg d w4 neg w4 neg d w4 neg w2 d w4 neg w2 neg d w4 neg w4 d w2 w4 d w2 neg w4 d w4 w4 d w4 w2 neg d cl s} def
/m41 {mp x y m w4 w2 d w4 w4 neg d w2 neg w4 neg d w2 w4 neg d w4 neg w4 neg d w4 neg w2 d w4 neg w2 neg d w4 neg w4 d w2 w4 d w2 neg w4 d w4 w4 d w4 w2 neg d cl f} def
/m42 {mp x y w2 add m w8 neg w2 -3 4 div mul d w2 -3 4 div mul w8 neg d w2 3 4 div mul w8 neg d w8 w2 -3 4 div mul d w8 w2 3 4 div mul d w2 3 4 div mul w8 d w2 -3 4 div mul w8 d w8 neg w2 3 4 div mul d cl s} def
/m43 {mp x y w2 add m w8 neg w2 -3 4 div mul d w2 -3 4 div mul w8 neg d w2 3 4 div mul w8 neg d w8 w2 -3 4 div mul d w8 w2 3 4 div mul d w2 3 4 div mul w8 d w2 -3 4 div mul w8 d w8 neg w2 3 4 div mul d cl f} def
/m44 {mp x y m w6 neg w2 d w2 2 3 div mul 0 d w6 neg w2 neg d w2 w6 d 0 w2 -2 3 div mul d w2 neg w6 d w6 w2 neg d w2 -2 3 div mul 0 d w6 w2 d w2 neg w6 neg d 0 w2 2 3 div mul d w2 w6 neg d cl s} def
/m45 {mp x y m w6 neg w2 d w2 2 3 div mul 0 d w6 neg w2 neg d w2 w6 d 0 w2 -2 3 div mul d w2 neg w6 d w6 w2 neg d w2 -2 3 div mul 0 d w6 w2 d w2 neg w6 neg d 0 w2 2 3 div mul d w2 w6 neg d cl f} def
/m46 {mp x y w4 add m w4 neg w4 d w4 neg w4 neg d  w4 w4 neg d w4 neg w4 neg d w4 w4 neg d w4 w4 d w4 w4 neg d w4 w4 d w4 neg w4 d w4 w4 d w4 neg w4 d w4 neg w4 neg d cl s} def
/m47 {mp x y w4 add m w4 neg w4 d w4 neg w4 neg d w4 w4 neg d w4 neg w4 neg d  w4 w4 neg d w4 w4 d w4 w4 neg d w4 w4 d w4 neg w4 d w4 w4 d w4 neg w4 d w4 neg w4 neg d cl f} def
/m48 {mp x y w4 add m w4 neg w4 d w4 neg w4 neg d w4 w4 neg d  w4 neg w4 neg d w4 w4 neg d w4 w4 d w4 w4 neg d w4 w4 d w4 neg w4 d w4 w4 d w4 neg w4 d w4 neg w4 neg d  w4 w4 neg d w4 neg w4 neg d w4 neg w4 d w4 w4 d cl f} def
/m49 {mp x w2 sub w3 add y w2 sub w3 add m  0 w3 neg d w3 0 d 0 w3 d w3 0 d 0 w3 d w3 neg 0 d 0 w3 d w3 neg 0 d 0 w3 neg d w3 neg 0 d 0 w3 neg d w3 0 d 0 w3 d w3 0 d 0 w3 neg d w3 neg 0 d cl f } def
/m2 {mp x y w2 sub m 0 w d x w2 sub y m w 0 d s} def
/m5 {mp x w2 sub y w2 sub m w w d x w2 sub y w2 add m w w neg d s} def
%%IncludeResource: ProcSet (FontSetInit)
%%IncludeResource: font Times-Roman
%%IncludeResource: font Times-Italic
%%IncludeResource: font Times-Bold
%%IncludeResource: font Times-BoldItalic
%%IncludeResource: font Helvetica
%%IncludeResource: font Helvetica-Oblique
%%IncludeResource: font Helvetica-Bold
%%IncludeResource: font Helvetica-BoldOblique
%%IncludeResource: font Courier
%%IncludeResource: font Courier-Oblique
%%IncludeResource: font Courier-Bold
%%IncludeResource: font Courier-BoldOblique
%%IncludeResource: font Symbol
%%IncludeResource: font ZapfDingbats
/reEncode {exch findfont dup length dict begin {1 index /FID eq  {pop pop} {def} ifelse } forall /Encoding exch def currentdict end dup /FontName get exch definefont pop } def [/Times-Bold /Times-Italic /Times-BoldItalic /Helvetica /Helvetica-Oblique
 /Helvetica-Bold /Helvetica-BoldOblique /Courier /Courier-Oblique /Courier-Bold /Courier-BoldOblique /Times-Roman /AvantGarde-Book /AvantGarde-BookOblique /AvantGarde-Demi /AvantGarde-DemiOblique /Bookman-Demi /Bookman-DemiItalic /Bookman-Light
 /Bookman-LightItalic /Helvetica-Narrow /Helvetica-Narrow-Bold /Helvetica-Narrow-BoldOblique /Helvetica-Narrow-Oblique /NewCenturySchlbk-Roman /NewCenturySchlbk-Bold /NewCenturySchlbk-BoldItalic /NewCenturySchlbk-Italic /Palatino-Bold
 /Palatino-BoldItalic /Palatino-Italic /Palatino-Roman ] {ISOLatin1Encoding reEncode } forall
%%EndProlog
%%BeginSetup
%%EndSetup
newpath  gsave  .25 .25 scale  gsave  0 0 t black[  ] 0 sd 3 lw 1 1 1 c 2268 1583 0 0 bf black 1 1 1 c 2268 475 0 0 bf black 1 1 1 c 1927 275 227 190 bf black 1927 275 227 190 bl 227 190 m 1927 X s 227 202 m -12 Y s 282 196 m -6 Y s 337 196 m -6 Y s
 392 196 m -6 Y s 447 196 m -6 Y s 502 202 m -12 Y s 557 196 m -6 Y s 612 196 m -6 Y s 667 196 m -6 Y s 722 196 m -6 Y s 778 202 m -12 Y s 833 196 m -6 Y s 888 196 m -6 Y s 943 196 m -6 Y s 998 196 m -6 Y s 1053 202 m -12 Y s 1108 196 m -6 Y s 1163
 196 m -6 Y s 1218 196 m -6 Y s 1273 196 m -6 Y s 1328 202 m -12 Y s 1383 196 m -6 Y s 1438 196 m -6 Y s 1493 196 m -6 Y s 1549 196 m -6 Y s 1604 202 m -12 Y s 1659 196 m -6 Y s 1714 196 m -6 Y s 1769 196 m -6 Y s 1824 196 m -6 Y s 1879 202 m -12 Y s
 1934 196 m -6 Y s 1989 196 m -6 Y s 2044 196 m -6 Y s 2099 196 m -6 Y s 2154 202 m -12 Y s
 gsave  2268 475 0 0 C 180.118 126.968 t 0 r /Helvetica findfont 53.4154 sf 0 0 m (300) show NC gr 
 gsave  2268 475 0 0 C 457.677 126.968 t 0 r /Helvetica findfont 53.4154 sf 0 0 m (400) show NC gr 
 gsave  2268 475 0 0 C 732.283 126.968 t 0 r /Helvetica findfont 53.4154 sf 0 0 m (500) show NC gr 
 gsave  2268 475 0 0 C 1006.89 126.968 t 0 r /Helvetica findfont 53.4154 sf 0 0 m (600) show NC gr 
 gsave  2268 475 0 0 C 1281.5 126.968 t 0 r /Helvetica findfont 53.4154 sf 0 0 m (700) show NC gr 
 gsave  2268 475 0 0 C 1559.06 126.968 t 0 r /Helvetica findfont 53.4154 sf 0 0 m (800) show NC gr 
 gsave  2268 475 0 0 C 1833.66 126.968 t 0 r /Helvetica findfont 53.4154 sf 0 0 m (900) show NC gr 
 gsave  2268 475 0 0 C 2093.5 126.968 t 0 r /Helvetica findfont 53.4154 sf 0 0 m (1000) show NC gr 
 gsave  2268 475 0 0 C 1996.06 47.2441 t 0 r /Helvetica findfont 56.3829 sf 0 0 m ( [GeV]) show NC gr 
 gsave  2268 475 0 0 C 1972.44 29.5276 t 0 r /Helvetica findfont 38.5778 sf 0 0 m (T) show NC gr 
 gsave  2268 475 0 0 C 1925.2 47.2441 t 0 r /Helvetica-Oblique findfont 56.3829 sf 0 0 m (H) show NC gr  227 465 m 1927 X s 227 453 m 12 Y s 282 459 m 6 Y s 337 459 m 6 Y s 392 459 m 6 Y s 447 459 m 6 Y s 502 453 m 12 Y s 557 459 m 6 Y s 612 459 m 6
 Y s 667 459 m 6 Y s 722 459 m 6 Y s 778 453 m 12 Y s 833 459 m 6 Y s 888 459 m 6 Y s 943 459 m 6 Y s 998 459 m 6 Y s 1053 453 m 12 Y s 1108 459 m 6 Y s 1163 459 m 6 Y s 1218 459 m 6 Y s 1273 459 m 6 Y s 1328 453 m 12 Y s 1383 459 m 6 Y s 1438 459 m
 6 Y s 1493 459 m 6 Y s 1549 459 m 6 Y s 1604 453 m 12 Y s 1659 459 m 6 Y s 1714 459 m 6 Y s 1769 459 m 6 Y s 1824 459 m 6 Y s 1879 453 m 12 Y s 1934 459 m 6 Y s 1989 459 m 6 Y s 2044 459 m 6 Y s 2099 459 m 6 Y s 2154 453 m 12 Y s 227 190 m 275 Y s
 240 242 m -13 X s 240 328 m -13 X s 240 414 m -13 X s 240 242 m -13 X s 240 414 m -13 X s
 gsave  2268 475 0 0 C 118.11 221.457 t 0 r /Helvetica findfont 53.4154 sf 0 0 m (0.5) show NC gr 
 gsave  2268 475 0 0 C 171.26 307.087 t 0 r /Helvetica findfont 53.4154 sf 0 0 m (1) show NC gr 
 gsave  2268 475 0 0 C 118.11 395.669 t 0 r /Helvetica findfont 53.4154 sf 0 0 m (1.5) show NC gr 
 gsave  2268 475 0 0 C 70.8661 233.268 t 90 r /Helvetica findfont 53.4154 sf 0 0 m (Data / SM) show NC gr  2154 190 m 275 Y s 2141 242 m 13 X s 2141 328 m 13 X s 2141 414 m 13 X s 2141 242 m 13 X s 2141 414 m 13 X s 227 190 m 1927 X s 227 465 m 1927
 X s 227 190 m 275 Y s[ 4 8] 0 sd 2154 242 m -1927 X s 2154 328 m -1927 X s 2154 414 m -1927 X s 2154 242 m -1927 X s 2154 414 m -1927 X s[  ] 0 sd 2154 190 m 275 Y s 1 1 0.6 c 137 0 227 328 bf 138 0 364 328 bf 138 0 502 328 bf 138 0 640 328 bf 137 0
 778 328 bf 138 0 915 328 bf 138 0 1053 328 bf 137 0 1191 328 bf 138 0 1328 328 bf 138 0 1466 328 bf 137 0 1604 328 bf 138 0 1741 328 bf 138 0 1879 328 bf 137 0 2017 328 bf black 0.6 0.6 0.6 c 364 328 m -6 -7 d s 352 335 m -14 -14 d s 333 335 m -14
 -14 d s 314 335 m -14 -14 d s 294 335 m -13 -14 d s 275 335 m -14 -14 d s 256 335 m -14 -14 d s 237 335 m -10 -10 d s 502 331 m -11 -12 d s 488 336 m -16 -17 d s 469 336 m -17 -17 d s 450 336 m -17 -17 d s 431 336 m -17 -17 d s 411 336 m -16 -17 d s
 392 336 m -17 -17 d s 373 336 m -9 -8 d s 640 334 m -16 -16 d s 625 338 m -20 -20 d s 605 338 m -20 -20 d s 586 338 m -20 -20 d s 567 338 m -20 -20 d s 548 338 m -20 -20 d s 528 338 m -20 -20 d s 509 338 m -7 -7 d s 778 317 m -2 -1 d s 778 337 m -21
 -21 d s 761 339 m -23 -23 d s 742 339 m -23 -23 d s 722 339 m -23 -23 d s 703 339 m -23 -23 d s 684 339 m -23 -23 d s 665 339 m -23 -23 d s 645 339 m -5 -5 d s 915 320 m -11 -11 d s 915 340 m -30 -31 d s 903 346 m -38 -37 d s 883 346 m -37 -37 d s
 864 346 m -37 -37 d s 845 346 m -37 -37 d s 826 346 m -38 -37 d s 807 346 m -29 -29 d s 787 346 m -9 -9 d s 1053 323 m -12 -12 d s 1053 343 m -31 -32 d s 1035 344 m -33 -33 d s 1016 344 m -33 -33 d s 997 344 m -33 -33 d s 977 344 m -32 -33 d s 958
 344 m -33 -33 d s 939 344 m -24 -24 d s 920 344 m -5 -4 d s 1191 326 m -18 -17 d s 1191 346 m -37 -37 d s 1172 346 m -37 -37 d s 1153 346 m -38 -37 d s 1134 346 m -38 -37 d s 1114 346 m -37 -37 d s 1095 346 m -37 -37 d s 1076 346 m -23 -23 d s 1057
 346 m -4 -3 d s 1328 310 m -2 -3 d s 1328 329 m -22 -22 d s 1328 348 m -41 -41 d s 1308 348 m -40 -41 d s 1289 348 m -40 -41 d s 1270 348 m -41 -41 d s 1251 348 m -41 -41 d s 1231 348 m -40 -41 d s 1212 348 m -21 -22 d s 1193 348 m -2 -2 d s 1466
 313 m -11 -11 d s 1466 332 m -30 -30 d s 1466 352 m -50 -50 d s 1448 353 m -51 -51 d s 1429 353 m -51 -51 d s 1410 353 m -51 -51 d s 1391 353 m -52 -51 d s 1371 353 m -43 -43 d s 1352 353 m -24 -24 d s 1333 353 m -5 -4 d s 1604 316 m -11 -11 d s
 1604 335 m -31 -30 d s 1599 350 m -45 -45 d s 1580 350 m -45 -45 d s 1561 350 m -45 -45 d s 1542 350 m -46 -45 d s 1522 350 m -45 -45 d s 1503 350 m -37 -37 d s 1484 350 m -18 -18 d s 1741 300 m -4 -5 d s 1741 319 m -23 -24 d s 1741 338 m -43 -43 d
 s 1741 358 m -62 -63 d s 1724 360 m -64 -65 d s 1705 360 m -64 -65 d s 1686 360 m -65 -65 d s 1667 360 m -63 -63 d s 1647 360 m -43 -44 d s 1628 360 m -24 -25 d s 1609 360 m -5 -5 d s 1879 303 m -9 -10 d s 1879 322 m -28 -29 d s 1879 341 m -48 -48 d
 s 1879 361 m -67 -68 d s 1861 362 m -68 -69 d s 1842 362 m -68 -69 d s 1822 362 m -68 -69 d s 1803 362 m -62 -62 d s 1784 362 m -43 -43 d s 1765 362 m -24 -24 d s 1745 362 m -4 -4 d s 2017 306 m -16 -16 d s 2017 325 m -35 -35 d s 2017 344 m -54 -54
 d s 2017 364 m -74 -74 d s 1999 365 m -75 -75 d s 1980 365 m -75 -75 d s 1960 365 m -74 -75 d s 1941 365 m -62 -62 d s 1922 365 m -43 -43 d s 1903 365 m -24 -24 d s 1884 365 m -5 -4 d s 2154 328 m -7 -8 d s 2142 335 m -14 -15 d s 2123 335 m -15 -15
 d s 2104 335 m -15 -15 d s 2084 335 m -14 -15 d s 2065 335 m -14 -15 d s 2046 335 m -15 -15 d s 2027 335 m -10 -10 d s black 1 1 1 c black 296 351 m 23 Y s 296 397 m 23 Y s /w 26 def /w2 {w 2 div} def /w3 {w 3 div} def 296 385 m20 433 300 m 22 Y s
 433 346 m 21 Y s 433 334 m20 571 304 m 32 Y s 571 360 m 32 Y s 571 348 m20 709 335 m 50 Y s 709 409 m 50 Y s 709 397 m20 846 245 m 37 Y s 846 306 m 37 Y s 846 294 m20 984 232 m 51 Y s 984 306 m 51 Y s 984 295 m20 1122 267 m 78 Y s 1122 368 m 78 Y s
 1122 357 m20 1259 230 m 89 Y s 1259 343 m 90 Y s 1259 331 m20 1397 224 m 82 Y s 1397 330 m 82 Y s 1397 318 m20 1535 225 m 154 Y s 1535 403 m 62 Y s 1535 391 m20 1672 190 m 76 Y s 1672 290 m 110 Y s 1672 278 m20 1948 190 m 98 Y s 1948 311 m 132 Y s
 1948 299 m20 2085 243 m 76 Y s 2085 343 m 76 Y s 2085 331 m20 227 328 m 1927 X s 227 190 m 1927 X s 227 202 m -12 Y s 282 196 m -6 Y s 337 196 m -6 Y s 392 196 m -6 Y s 447 196 m -6 Y s 502 202 m -12 Y s 557 196 m -6 Y s 612 196 m -6 Y s 667 196 m
 -6 Y s 722 196 m -6 Y s 778 202 m -12 Y s 833 196 m -6 Y s 888 196 m -6 Y s 943 196 m -6 Y s 998 196 m -6 Y s 1053 202 m -12 Y s 1108 196 m -6 Y s 1163 196 m -6 Y s 1218 196 m -6 Y s 1273 196 m -6 Y s 1328 202 m -12 Y s 1383 196 m -6 Y s 1438 196 m
 -6 Y s 1493 196 m -6 Y s 1549 196 m -6 Y s 1604 202 m -12 Y s 1659 196 m -6 Y s 1714 196 m -6 Y s 1769 196 m -6 Y s 1824 196 m -6 Y s 1879 202 m -12 Y s 1934 196 m -6 Y s 1989 196 m -6 Y s 2044 196 m -6 Y s 2099 196 m -6 Y s 2154 202 m -12 Y s 227
 465 m 1927 X s 227 453 m 12 Y s 282 459 m 6 Y s 337 459 m 6 Y s 392 459 m 6 Y s 447 459 m 6 Y s 502 453 m 12 Y s 557 459 m 6 Y s 612 459 m 6 Y s 667 459 m 6 Y s 722 459 m 6 Y s 778 453 m 12 Y s 833 459 m 6 Y s 888 459 m 6 Y s 943 459 m 6 Y s 998 459
 m 6 Y s 1053 453 m 12 Y s 1108 459 m 6 Y s 1163 459 m 6 Y s 1218 459 m 6 Y s 1273 459 m 6 Y s 1328 453 m 12 Y s 1383 459 m 6 Y s 1438 459 m 6 Y s 1493 459 m 6 Y s 1549 459 m 6 Y s 1604 453 m 12 Y s 1659 459 m 6 Y s 1714 459 m 6 Y s 1769 459 m 6 Y s
 1824 459 m 6 Y s 1879 453 m 12 Y s 1934 459 m 6 Y s 1989 459 m 6 Y s 2044 459 m 6 Y s 2099 459 m 6 Y s 2154 453 m 12 Y s 227 190 m 275 Y s 240 242 m -13 X s 240 328 m -13 X s 240 414 m -13 X s 240 242 m -13 X s 240 414 m -13 X s 2154 190 m 275 Y s
 2141 242 m 13 X s 2141 328 m 13 X s 2141 414 m 13 X s 2141 242 m 13 X s 2141 414 m 13 X s 1 1 1 c 2268 1108 0 475 bf black 1 1 1 c 1927 1041 227 486 bf black 1927 1041 227 486 bl 1 1 1 c black 3 lw 227 486 m 1927 X s 227 505 m -19 Y s 282 495 m -9 Y
 s 337 495 m -9 Y s 392 495 m -9 Y s 447 495 m -9 Y s 502 505 m -19 Y s 557 495 m -9 Y s 612 495 m -9 Y s 667 495 m -9 Y s 722 495 m -9 Y s 778 505 m -19 Y s 833 495 m -9 Y s 888 495 m -9 Y s 943 495 m -9 Y s 998 495 m -9 Y s 1053 505 m -19 Y s 1108
 495 m -9 Y s 1163 495 m -9 Y s 1218 495 m -9 Y s 1273 495 m -9 Y s 1328 505 m -19 Y s 1383 495 m -9 Y s 1438 495 m -9 Y s 1493 495 m -9 Y s 1549 495 m -9 Y s 1604 505 m -19 Y s 1659 495 m -9 Y s 1714 495 m -9 Y s 1769 495 m -9 Y s 1824 495 m -9 Y s
 1879 505 m -19 Y s 1934 495 m -9 Y s 1989 495 m -9 Y s 2044 495 m -9 Y s 2099 495 m -9 Y s 2154 505 m -19 Y s
 gsave  2268 1108 0 475 C 2061.02 404.528 t 0 r /Helvetica findfont 32.4976 sf 0 0 m ( [GeV]) show NC gr 
 gsave  2268 1108 0 475 C 2046.26 392.717 t 0 r /Helvetica findfont 20.6803 sf 0 0 m (T) show NC gr 
 gsave  2268 1108 0 475 C 2019.69 404.528 t 0 r /Helvetica-Oblique findfont 32.4976 sf 0 0 m (H) show NC gr  227 1527 m 1927 X s 227 1508 m 19 Y s 282 1518 m 9 Y s 337 1518 m 9 Y s 392 1518 m 9 Y s 447 1518 m 9 Y s 502 1508 m 19 Y s 557 1518 m 9 Y s
 612 1518 m 9 Y s 667 1518 m 9 Y s 722 1518 m 9 Y s 778 1508 m 19 Y s 833 1518 m 9 Y s 888 1518 m 9 Y s 943 1518 m 9 Y s 998 1518 m 9 Y s 1053 1508 m 19 Y s 1108 1518 m 9 Y s 1163 1518 m 9 Y s 1218 1518 m 9 Y s 1273 1518 m 9 Y s 1328 1508 m 19 Y s
 1383 1518 m 9 Y s 1438 1518 m 9 Y s 1493 1518 m 9 Y s 1549 1518 m 9 Y s 1604 1508 m 19 Y s 1659 1518 m 9 Y s 1714 1518 m 9 Y s 1769 1518 m 9 Y s 1824 1518 m 9 Y s 1879 1508 m 19 Y s 1934 1518 m 9 Y s 1989 1518 m 9 Y s 2044 1518 m 9 Y s 2099 1518 m 9
 Y s 2154 1508 m 19 Y s 227 486 m 1041 Y s 248 648 m -21 X s 237 681 m -10 X s 237 714 m -10 X s 237 746 m -10 X s 237 779 m -10 X s 248 811 m -21 X s 237 844 m -10 X s 237 876 m -10 X s 237 909 m -10 X s 237 941 m -10 X s 248 974 m -21 X s 237 1006
 m -10 X s 237 1039 m -10 X s 237 1072 m -10 X s 237 1104 m -10 X s 248 1137 m -21 X s 237 1169 m -10 X s 237 1202 m -10 X s 237 1234 m -10 X s 237 1267 m -10 X s 248 1299 m -21 X s 237 1332 m -10 X s 237 1364 m -10 X s 237 1397 m -10 X s 237 1430 m
 -10 X s 248 1462 m -21 X s 248 648 m -21 X s 237 616 m -10 X s 237 583 m -10 X s 237 551 m -10 X s 237 518 m -10 X s 248 1462 m -21 X s 237 1495 m -10 X s 237 1527 m -10 X s
 gsave  2268 1108 0 475 C 141.732 628.937 t 0 r /Helvetica findfont 53.178 sf 0 0 m (10) show NC gr 
 gsave  2268 1108 0 475 C 141.732 791.339 t 0 r /Helvetica findfont 53.178 sf 0 0 m (20) show NC gr 
 gsave  2268 1108 0 475 C 141.732 953.74 t 0 r /Helvetica findfont 53.178 sf 0 0 m (30) show NC gr 
 gsave  2268 1108 0 475 C 141.732 1116.14 t 0 r /Helvetica findfont 53.178 sf 0 0 m (40) show NC gr 
 gsave  2268 1108 0 475 C 141.732 1281.5 t 0 r /Helvetica findfont 53.178 sf 0 0 m (50) show NC gr 
 gsave  2268 1108 0 475 C 141.732 1443.9 t 0 r /Helvetica findfont 53.178 sf 0 0 m (60) show NC gr 
 gsave  2268 1108 0 475 C 64.9606 1142.72 t 90 r /Helvetica findfont 53.178 sf 0 0 m (Events / 50 GeV) show NC gr  2154 486 m 1041 Y s 2133 648 m 21 X s 2144 681 m 10 X s 2144 714 m 10 X s 2144 746 m 10 X s 2144 779 m 10 X s 2133 811 m 21 X s 2144
 844 m 10 X s 2144 876 m 10 X s 2144 909 m 10 X s 2144 941 m 10 X s 2133 974 m 21 X s 2144 1006 m 10 X s 2144 1039 m 10 X s 2144 1072 m 10 X s 2144 1104 m 10 X s 2133 1137 m 21 X s 2144 1169 m 10 X s 2144 1202 m 10 X s 2144 1234 m 10 X s 2144 1267 m
 10 X s 2133 1299 m 21 X s 2144 1332 m 10 X s 2144 1364 m 10 X s 2144 1397 m 10 X s 2144 1430 m 10 X s 2133 1462 m 21 X s 2133 648 m 21 X s 2144 616 m 10 X s 2144 583 m 10 X s 2144 551 m 10 X s 2144 518 m 10 X s 2133 1462 m 21 X s 2144 1495 m 10 X s
 2144 1527 m 10 X s 0.4 0.6 0.4 c black 3 lw 0.4 0.6 0.4 c 227 486 m 548 Y 137 X -108 Y 138 X -164 Y 138 X -102 Y 138 X -13 Y 137 X -61 Y 138 X -31 Y 138 X -21 Y 137 X 3 Y 138 X -28 Y 275 X -2 Y 138 X -2 Y 138 X 45 Y 137 X -64 Y f 0.06 0.54 0.06 c
 0.999 0.999 0.999 c black 3 lw 0.999 0.999 0.999 c 227 486 m 432 Y 137 X -65 Y 138 X -135 Y 138 X -81 Y 138 X -5 Y 137 X -56 Y 138 X -27 Y 138 X -20 Y 137 X 5 Y 138 X -28 Y 275 X -1 Y 138 X -2 Y 138 X 42 Y 137 X -59 Y f 0.06 0.54 0.06 c 0.999 0.999
 0.999 c 0.06 0.54 0.06 c 1 1 1 c black 0.06 0.54 0.06 c black 3 lw 0.06 0.54 0.06 c 227 486 m 432 Y 137 X -65 Y 138 X -135 Y 138 X -81 Y 138 X -5 Y 137 X -56 Y 138 X -27 Y 138 X -20 Y 137 X 5 Y 138 X -28 Y 275 X -1 Y 138 X -2 Y 138 X 42 Y 137 X -59
 Y f 1 0.653333 0 c 0.999 0.999 0.999 c black 3 lw 0.999 0.999 0.999 c 227 486 m 269 Y 137 X -68 Y 138 X -68 Y 138 X -37 Y 138 X -3 Y 137 X -42 Y 138 X -10 Y 138 X -9 Y 137 X -8 Y 138 X -7 Y 138 X -4 Y 275 X 2 Y 138 X 30 Y 137 X -45 Y f 1 0.653333 0
 c 0.999 0.999 0.999 c 1 0.653333 0 c 1 1 1 c black 1 0.653333 0 c black 3 lw 1 0.653333 0 c 227 486 m 269 Y 137 X -68 Y 138 X -68 Y 138 X -37 Y 138 X -3 Y 137 X -42 Y 138 X -10 Y 138 X -9 Y 137 X -8 Y 138 X -7 Y 138 X -4 Y 275 X 2 Y 138 X 30 Y 137 X
 -45 Y f 0.413333 1 0 c 0.999 0.999 0.999 c black 3 lw 0.999 0.999 0.999 c 227 486 m 258 Y 137 X -77 Y 138 X -54 Y 138 X -33 Y 138 X -23 Y 137 X -20 Y 138 X -11 Y 138 X -11 Y 137 X -6 Y 138 X -6 Y 138 X -4 Y 137 X -1 Y 138 X -1 Y 138 X 29 Y 137 X -40
 Y f 0.413333 1 0 c 0.999 0.999 0.999 c 0.413333 1 0 c 1 1 1 c black 0.413333 1 0 c black 3 lw 0.413333 1 0 c 227 486 m 258 Y 137 X -77 Y 138 X -54 Y 138 X -33 Y 138 X -23 Y 137 X -20 Y 138 X -11 Y 138 X -11 Y 137 X -6 Y 138 X -6 Y 138 X -4 Y 137 X
 -1 Y 138 X -1 Y 138 X 29 Y 137 X -40 Y f 0.6 0.2 1 c 0.999 0.999 0.999 c black 3 lw 0.999 0.999 0.999 c 227 486 m 192 Y 137 X -62 Y 138 X -40 Y 138 X -24 Y 138 X -19 Y 137 X -14 Y 138 X -7 Y 138 X -8 Y 137 X -4 Y 138 X -3 Y 138 X -3 Y 137 X -1 Y 138
 X -1 Y 138 X 17 Y 137 X -23 Y f 0.6 0.2 1 c 0.999 0.999 0.999 c 0.6 0.2 1 c 1 1 1 c black 0.6 0.2 1 c black 3 lw 0.6 0.2 1 c 227 486 m 192 Y 137 X -62 Y 138 X -40 Y 138 X -24 Y 138 X -19 Y 137 X -14 Y 138 X -7 Y 138 X -8 Y 137 X -4 Y 138 X -3 Y 138
 X -3 Y 137 X -1 Y 138 X -1 Y 138 X 17 Y 137 X -23 Y f 0.54 0.06 0.06 c 0.999 0.999 0.999 c black 3 lw 0.999 0.999 0.999 c 227 486 m 172 Y 137 X -55 Y 138 X -37 Y 138 X -22 Y 138 X -15 Y 137 X -14 Y 138 X -5 Y 138 X -8 Y 137 X -3 Y 138 X -3 Y 138 X
 -2 Y 137 X -1 Y 138 X -1 Y 138 X 14 Y 137 X -20 Y f 0.54 0.06 0.06 c 0.999 0.999 0.999 c 0.54 0.06 0.06 c 1 1 1 c black 0.54 0.06 0.06 c black 3 lw 0.54 0.06 0.06 c 227 486 m 172 Y 137 X -55 Y 138 X -37 Y 138 X -22 Y 138 X -15 Y 137 X -14 Y 138 X -5
 Y 138 X -8 Y 137 X -3 Y 138 X -3 Y 138 X -2 Y 137 X -1 Y 138 X -1 Y 138 X 14 Y 137 X -20 Y f 1 0 1 c 0.999 0.999 0.999 c black 3 lw 0.999 0.999 0.999 c 227 486 m 45 Y 137 X -16 Y 138 X -9 Y 138 X -7 Y 138 X -3 Y 137 X -4 Y 138 X -2 Y 138 X -1 Y 275
 X -2 Y 551 X 1 Y 137 X -2 Y f 1 0 1 c 0.999 0.999 0.999 c 1 0 1 c 1 1 1 c black 1 0 1 c black 3 lw 1 0 1 c 227 486 m 45 Y 137 X -16 Y 138 X -9 Y 138 X -7 Y 138 X -3 Y 137 X -4 Y 138 X -2 Y 138 X -1 Y 275 X -2 Y 551 X 1 Y 137 X -2 Y f 0 0 1 c 0.999
 0.999 0.999 c black 3 lw 0.999 0.999 0.999 c 227 486 m 18 Y 137 X -6 Y 138 X -4 Y 138 X -2 Y 138 X -2 Y 137 X -2 Y 276 X -1 Y 275 X -1 Y 551 X 2 Y 137 X -2 Y f 0 0 1 c 0.999 0.999 0.999 c 0 0 1 c 1 1 1 c black 0 0 1 c black 3 lw 0 0 1 c 227 486 m 18
 Y 137 X -6 Y 138 X -4 Y 138 X -2 Y 138 X -2 Y 137 X -2 Y 276 X -1 Y 275 X -1 Y 551 X 2 Y 137 X -2 Y f 0.2 0.8 0.8 c 0.999 0.999 0.999 c black 3 lw 0.999 0.999 0.999 c 227 486 m 7 Y 137 X -2 Y 138 X -2 Y 276 X -1 Y 137 X -1 Y 413 X -1 Y 689 X 1 Y 137
 X -1 Y f 0.2 0.8 0.8 c 0.999 0.999 0.999 c 0.2 0.8 0.8 c 1 1 1 c black 0.2 0.8 0.8 c black 3 lw 0.2 0.8 0.8 c 227 486 m 7 Y 137 X -2 Y 138 X -2 Y 276 X -1 Y 137 X -1 Y 413 X -1 Y 689 X 1 Y 137 X -1 Y f 1 0 0 c 0.999 0.999 0.999 c black 3 lw 0.999
 0.999 0.999 c 227 486 m 1 Y 413 X -1 Y 1514 X f 1 0 0 c 0.999 0.999 0.999 c 1 0 0 c 1 1 1 c black 1 0 0 c black 3 lw 1 0 0 c 227 486 m 1 Y 413 X -1 Y 1514 X f 1 0.84 0 c 0.999 0.999 0.999 c black 3 lw 0.999 0.999 0.999 c 227 486 m 1927 X f 1 0.84 0
 c 0.999 0.999 0.999 c 1 0.84 0 c 1 1 1 c black 1 0.84 0 c black 3 lw 1 0.84 0 c 227 486 m 1927 X f black 1 1 1 c black 0.6 0.6 0.6 c 3 lw 364 1030 m -18 -18 d s 364 1050 m -37 -38 d s 351 1056 m -44 -44 d s 332 1056 m -44 -44 d s 313 1056 m -44 -44
 d s 294 1056 m -44 -44 d s 274 1056 m -44 -44 d s 255 1056 m -28 -28 d s 236 1056 m -9 -9 d s 3 lw 502 918 m -14 -14 d s 502 937 m -33 -33 d s 493 947 m -43 -43 d s 473 947 m -43 -43 d s 454 947 m -43 -43 d s 435 947 m -43 -43 d s 416 947 m -43 -43
 d s 396 947 m -32 -32 d s 377 947 m -13 -13 d s 3 lw 640 748 m -2 -2 d s 640 768 m -22 -22 d s 631 779 m -32 -33 d s 612 779 m -32 -33 d s 593 779 m -32 -33 d s 574 779 m -33 -33 d s 555 779 m -33 -33 d s 535 779 m -32 -33 d s 516 779 m -14 -14 d s
 3 lw 778 655 m -8 -7 d s 774 671 m -23 -23 d s 755 671 m -23 -23 d s 736 671 m -24 -23 d s 716 671 m -23 -23 d s 697 671 m -23 -23 d s 678 671 m -23 -23 d s 659 671 m -19 -19 d s 3 lw 915 639 m -9 -9 d s 915 658 m -29 -28 d s 902 665 m -35 -35 d s
 883 665 m -35 -35 d s 864 665 m -35 -35 d s 845 665 m -36 -35 d s 825 665 m -35 -35 d s 806 665 m -28 -29 d s 787 665 m -9 -10 d s 3 lw 1053 585 m -8 -8 d s 1045 596 m -19 -19 d s 1026 596 m -19 -19 d s 1007 596 m -20 -19 d s 987 596 m -19 -19 d s
 968 596 m -19 -19 d s 949 596 m -19 -19 d s 930 596 m -15 -14 d s 3 lw 1191 549 m -2 -1 d s 1185 563 m -15 -15 d s 1166 563 m -15 -15 d s 1147 563 m -16 -15 d s 1127 563 m -15 -15 d s 1108 563 m -15 -15 d s 1089 563 m -15 -15 d s 1070 563 m -16 -15
 d s 3 lw 1328 533 m -5 -5 d s 1315 539 m -11 -11 d s 1296 539 m -11 -11 d s 1277 539 m -12 -11 d s 1258 539 m -12 -11 d s 1238 539 m -11 -11 d s 1219 539 m -11 -11 d s 1200 539 m -9 -9 d s 3 lw 1466 536 m -6 -6 d s 1456 545 m -16 -15 d s 1437 545 m
 -16 -15 d s 1417 545 m -15 -15 d s 1398 545 m -15 -15 d s 1379 545 m -16 -15 d s 1360 545 m -16 -15 d s 1340 545 m -12 -12 d s 3 lw 1597 513 m -7 -7 d s 1577 513 m -6 -7 d s 1558 513 m -6 -7 d s 1539 513 m -6 -7 d s 1520 513 m -7 -7 d s 1500 513 m
 -6 -7 d s 1481 513 m -6 -7 d s 3 lw 1731 513 m -8 -9 d s 1712 513 m -8 -9 d s 1693 513 m -9 -9 d s 1674 513 m -9 -9 d s 1655 513 m -9 -9 d s 1635 513 m -8 -9 d s 1616 513 m -9 -9 d s 3 lw 1879 506 m -4 -4 d s 1864 511 m -8 -9 d s 1845 511 m -9 -9 d
 s 1826 511 m -9 -9 d s 1806 511 m -8 -9 d s 1787 511 m -8 -9 d s 1768 511 m -9 -9 d s 1749 511 m -8 -8 d s 3 lw 2017 509 m -9 -8 d s 1997 509 m -8 -8 d s 1978 509 m -8 -8 d s 1959 509 m -9 -8 d s 1940 509 m -9 -8 d s 1920 509 m -8 -8 d s 1901 509 m
 -8 -8 d s 1882 509 m -3 -3 d s 3 lw 2154 551 m -4 -4 d s 2137 552 m -6 -5 d s 2117 552 m -5 -5 d s 2098 552 m -5 -5 d s 2079 552 m -6 -5 d s 2060 552 m -6 -5 d s 2040 552 m -5 -5 d s 2021 552 m -4 -4 d s black 3 lw 1 1 1 c black 296 1109 m 97 Y s
 296 1230 m 97 Y s /w 24 def /w2 {w 2 div} def /w3 {w 3 div} def 296 1218 m20 433 855 m 75 Y s 433 953 m 74 Y s 433 941 m20 571 724 m 59 Y s 571 807 m 59 Y s 571 795 m20 709 667 m 51 Y s 709 742 m 51 Y s 709 730 m20 846 570 m 34 Y s 846 628 m 34 Y s
 846 616 m20 984 531 m 24 Y s 984 579 m 24 Y s 984 567 m20 1122 531 m 24 Y s 1122 579 m 24 Y s 1122 567 m20 1259 506 m 17 Y s 1259 546 m 17 Y s 1259 535 m20 1397 506 m 17 Y s 1397 546 m 17 Y s 1397 535 m20 1535 495 m 11 Y s 1535 530 m 11 Y s 1535 518
 m20 1672 486 m 4 Y s 1672 514 m 4 Y s 1672 502 m20 1948 486 m 4 Y s 1948 514 m 4 Y s 1948 502 m20 2085 518 m 21 Y s 2085 563 m 20 Y s 2085 551 m20 227 486 m 1927 X s 227 505 m -19 Y s 282 495 m -9 Y s 337 495 m -9 Y s 392 495 m -9 Y s 447 495 m -9 Y
 s 502 505 m -19 Y s 557 495 m -9 Y s 612 495 m -9 Y s 667 495 m -9 Y s 722 495 m -9 Y s 778 505 m -19 Y s 833 495 m -9 Y s 888 495 m -9 Y s 943 495 m -9 Y s 998 495 m -9 Y s 1053 505 m -19 Y s 1108 495 m -9 Y s 1163 495 m -9 Y s 1218 495 m -9 Y s
 1273 495 m -9 Y s 1328 505 m -19 Y s 1383 495 m -9 Y s 1438 495 m -9 Y s 1493 495 m -9 Y s 1549 495 m -9 Y s 1604 505 m -19 Y s 1659 495 m -9 Y s 1714 495 m -9 Y s 1769 495 m -9 Y s 1824 495 m -9 Y s 1879 505 m -19 Y s 1934 495 m -9 Y s 1989 495 m
 -9 Y s 2044 495 m -9 Y s 2099 495 m -9 Y s 2154 505 m -19 Y s 227 1527 m 1927 X s 227 1508 m 19 Y s 282 1518 m 9 Y s 337 1518 m 9 Y s 392 1518 m 9 Y s 447 1518 m 9 Y s 502 1508 m 19 Y s 557 1518 m 9 Y s 612 1518 m 9 Y s 667 1518 m 9 Y s 722 1518 m 9
 Y s 778 1508 m 19 Y s 833 1518 m 9 Y s 888 1518 m 9 Y s 943 1518 m 9 Y s 998 1518 m 9 Y s 1053 1508 m 19 Y s 1108 1518 m 9 Y s 1163 1518 m 9 Y s 1218 1518 m 9 Y s 1273 1518 m 9 Y s 1328 1508 m 19 Y s 1383 1518 m 9 Y s 1438 1518 m 9 Y s 1493 1518 m 9
 Y s 1549 1518 m 9 Y s 1604 1508 m 19 Y s 1659 1518 m 9 Y s 1714 1518 m 9 Y s 1769 1518 m 9 Y s 1824 1518 m 9 Y s 1879 1508 m 19 Y s 1934 1518 m 9 Y s 1989 1518 m 9 Y s 2044 1518 m 9 Y s 2099 1518 m 9 Y s 2154 1508 m 19 Y s 227 486 m 1041 Y s 248 648
 m -21 X s 237 681 m -10 X s 237 714 m -10 X s 237 746 m -10 X s 237 779 m -10 X s 248 811 m -21 X s 237 844 m -10 X s 237 876 m -10 X s 237 909 m -10 X s 237 941 m -10 X s 248 974 m -21 X s 237 1006 m -10 X s 237 1039 m -10 X s 237 1072 m -10 X s
 237 1104 m -10 X s 248 1137 m -21 X s 237 1169 m -10 X s 237 1202 m -10 X s 237 1234 m -10 X s 237 1267 m -10 X s 248 1299 m -21 X s 237 1332 m -10 X s 237 1364 m -10 X s 237 1397 m -10 X s 237 1430 m -10 X s 248 1462 m -21 X s 248 648 m -21 X s 237
 616 m -10 X s 237 583 m -10 X s 237 551 m -10 X s 237 518 m -10 X s 248 1462 m -21 X s 237 1495 m -10 X s 237 1527 m -10 X s 2154 486 m 1041 Y s 2133 648 m 21 X s 2144 681 m 10 X s 2144 714 m 10 X s 2144 746 m 10 X s 2144 779 m 10 X s 2133 811 m 21
 X s 2144 844 m 10 X s 2144 876 m 10 X s 2144 909 m 10 X s 2144 941 m 10 X s 2133 974 m 21 X s 2144 1006 m 10 X s 2144 1039 m 10 X s 2144 1072 m 10 X s 2144 1104 m 10 X s 2133 1137 m 21 X s 2144 1169 m 10 X s 2144 1202 m 10 X s 2144 1234 m 10 X s
 2144 1267 m 10 X s 2133 1299 m 21 X s 2144 1332 m 10 X s 2144 1364 m 10 X s 2144 1397 m 10 X s 2144 1430 m 10 X s 2133 1462 m 21 X s 2133 648 m 21 X s 2144 616 m 10 X s 2144 583 m 10 X s 2144 551 m 10 X s 2144 518 m 10 X s 2133 1462 m 21 X s 2144
 1495 m 10 X s 2144 1527 m 10 X s
 gsave  2268 1108 0 475 C 1313.98 1437.99 t 0 r /Helvetica findfont 56.1323 sf 0 0 m ( Data) show NC gr  1259 1463 m 7 Y s 1259 1440 m -8 Y s 1259 1451 m20
 gsave  2268 1108 0 475 C 1777.56 1437.99 t 0 r /Helvetica findfont 56.1323 sf 0 0 m ( Fakes \(MM\)) show NC gr  0.4 0.6 0.4 c 1682 1429 m 79 X 44 Y -79 X f black
 gsave  2268 1108 0 475 C 1402.56 1375.98 t 0 r /Helvetica findfont 56.1323 sf 0 0 m (single\255top) show NC gr 
 gsave  2268 1108 0 475 C 1373.03 1375.98 t 0 r /Helvetica-Oblique findfont 56.1323 sf 0 0 m (/) show NC gr 
 gsave  2268 1108 0 475 C 1352.36 1375.98 t 0 r /Helvetica-Oblique findfont 56.1323 sf 0 0 m (t) show NC gr  6 lw 1352 1420 m 21 X s
 gsave  2268 1108 0 475 C 1331.69 1375.98 t 0 r /Helvetica-Oblique findfont 56.1323 sf 0 0 m (t) show NC gr 
 gsave  2268 1108 0 475 C 1313.98 1375.98 t 0 r /Helvetica findfont 56.1323 sf 0 0 m ( ) show NC gr  0.06 0.54 0.06 c 3 lw 1219 1366 m 79 X 44 Y -79 X f 6 lw black
 gsave  2268 1108 0 475 C 1907.48 1375.98 t 0 r /Helvetica findfont 56.1323 sf 0 0 m (+jets) show NC gr 
 gsave  2268 1108 0 475 C 1795.28 1375.98 t 0 r /Helvetica-Oblique findfont 56.1323 sf 0 0 m (W/Z) show NC gr 
 gsave  2268 1108 0 475 C 1777.56 1375.98 t 0 r /Helvetica findfont 56.1323 sf 0 0 m ( ) show NC gr  1 0.653333 0 c 3 lw 1682 1366 m 79 X 44 Y -79 X f black
 gsave  2268 1108 0 475 C 1511.81 1311.02 t 0 r /Helvetica findfont 56.1323 sf 0 0 m (+jets) show NC gr 
 gsave  2268 1108 0 475 C 1331.69 1311.02 t 0 r /Helvetica-Oblique findfont 56.1323 sf 0 0 m (WZ/ZZ) show NC gr 
 gsave  2268 1108 0 475 C 1313.98 1311.02 t 0 r /Helvetica findfont 56.1323 sf 0 0 m ( ) show NC gr  0.413333 1 0 c 3 lw 1219 1303 m 79 X 44 Y -79 X f black
 gsave  2268 1108 0 475 C 1836.61 1311.02 t 0 r /Helvetica-Oblique findfont 56.1323 sf 0 0 m (Z) show NC gr 
 gsave  2268 1108 0 475 C 1815.94 1311.02 t 0 r /Helvetica-Oblique findfont 56.1323 sf 0 0 m (t) show NC gr  6 lw 1816 1355 m 21 X s
 gsave  2268 1108 0 475 C 1795.28 1311.02 t 0 r /Helvetica-Oblique findfont 56.1323 sf 0 0 m (t) show NC gr 
 gsave  2268 1108 0 475 C 1777.56 1311.02 t 0 r /Helvetica findfont 56.1323 sf 0 0 m ( ) show NC gr  0.6 0.2 1 c 3 lw 1682 1303 m 79 X 44 Y -79 X f 6 lw black
 gsave  2268 1108 0 475 C 1373.03 1249.02 t 0 r /Helvetica-Oblique findfont 56.1323 sf 0 0 m (W) show NC gr 
 gsave  2268 1108 0 475 C 1352.36 1249.02 t 0 r /Helvetica-Oblique findfont 56.1323 sf 0 0 m (t) show NC gr  6 lw 1352 1293 m 21 X s
 gsave  2268 1108 0 475 C 1331.69 1249.02 t 0 r /Helvetica-Oblique findfont 56.1323 sf 0 0 m (t) show NC gr 
 gsave  2268 1108 0 475 C 1313.98 1249.02 t 0 r /Helvetica findfont 56.1323 sf 0 0 m ( ) show NC gr  0.54 0.06 0.06 c 3 lw 1219 1239 m 79 X 45 Y -79 X f 6 lw black
 gsave  2268 1108 0 475 C 1795.28 1249.02 t 0 r /Helvetica-Oblique findfont 56.1323 sf 0 0 m (tZq) show NC gr 
 gsave  2268 1108 0 475 C 1777.56 1249.02 t 0 r /Helvetica findfont 56.1323 sf 0 0 m ( ) show NC gr  1 0 1 c 3 lw 1682 1239 m 79 X 45 Y -79 X f black
 gsave  2268 1108 0 475 C 1373.03 1184.06 t 0 r /Helvetica-Oblique findfont 56.1323 sf 0 0 m (H) show NC gr 
 gsave  2268 1108 0 475 C 1352.36 1184.06 t 0 r /Helvetica-Oblique findfont 56.1323 sf 0 0 m (t) show NC gr  6 lw 1352 1228 m 21 X s
 gsave  2268 1108 0 475 C 1331.69 1184.06 t 0 r /Helvetica-Oblique findfont 56.1323 sf 0 0 m (t) show NC gr 
 gsave  2268 1108 0 475 C 1313.98 1184.06 t 0 r /Helvetica findfont 56.1323 sf 0 0 m ( ) show NC gr  0 0 1 c 3 lw 1219 1176 m 79 X 44 Y -79 X f 6 lw black
 gsave  2268 1108 0 475 C 1795.28 1184.06 t 0 r /Helvetica-Oblique findfont 56.1323 sf 0 0 m (tWZ/tWH) show NC gr 
 gsave  2268 1108 0 475 C 1777.56 1184.06 t 0 r /Helvetica findfont 56.1323 sf 0 0 m ( ) show NC gr  0.2 0.8 0.8 c 3 lw 1682 1176 m 79 X 44 Y -79 X f black
 gsave  2268 1108 0 475 C 1331.69 1122.05 t 0 r /Helvetica-Oblique findfont 56.1323 sf 0 0 m (tHq) show NC gr 
 gsave  2268 1108 0 475 C 1313.98 1122.05 t 0 r /Helvetica findfont 56.1323 sf 0 0 m ( ) show NC gr  1 0 0 c 3 lw 1219 1113 m 79 X 44 Y -79 X f black
 gsave  2268 1108 0 475 C 1777.56 1122.05 t 0 r /Helvetica findfont 56.1323 sf 0 0 m ( Other) show NC gr  1 0.84 0 c 3 lw 1682 1113 m 79 X 44 Y -79 X f black
 gsave  2268 1108 0 475 C 1313.98 1060.04 t 0 r /Helvetica findfont 56.1323 sf 0 0 m ( Uncertainty) show NC gr  0.6 0.6 0.6 c 3 lw 1298 1060 m -10 -11 d s 1298 1079 m -30 -30 d s 1294 1094 m -45 -45 d s 1274 1094 m -44 -45 d s 1255 1094 m -36 -37 d s
 1236 1094 m -17 -17 d s 1 0.84 0 c 0.6 0.6 0.6 c black
 gsave  2268 1108 0 475 C 894.685 1337.6 t 0 r /Helvetica findfont 41.3606 sf 0 0 m (\2551) show NC gr 
 gsave  2268 1108 0 475 C 401.575 1308.07 t 0 r /Helvetica findfont 62.0409 sf 0 0 m ( = 13 TeV,  139 fb) show NC gr 
 gsave  2268 1108 0 475 C 372.047 1308.07 t 0 r /Helvetica findfont 62.0409 sf 0 0 m (s) show NC gr  6 lw 351 1344 m 6 -39 d s 3 lw 357 1305 m 9 56 d s 366 1361 m 36 X s
 gsave  2268 1108 0 475 C 947.835 1207.68 t 0 r /Helvetica findfont 62.0409 sf 0 0 m (\)) show NC gr 
 gsave  2268 1108 0 475 C 900.591 1207.68 t 0 r /Helvetica-Oblique findfont 62.0409 sf 0 0 m (Z) show NC gr 
 gsave  2268 1108 0 475 C 812.008 1207.68 t 0 r /Helvetica findfont 62.0409 sf 0 0 m (\255no) show NC gr 
 gsave  2268 1108 0 475 C 785.433 1207.68 t 0 r /Helvetica-Oblique findfont 62.0409 sf 0 0 m (j) show NC gr 
 gsave  2268 1108 0 475 C 752.953 1207.68 t 0 r /Helvetica findfont 62.0409 sf 0 0 m (3) show NC gr 
 gsave  2268 1108 0 475 C 714.567 1207.68 t 0 r /Helvetica-Oblique findfont 62.0409 sf 0 0 m (b) show NC gr 
 gsave  2268 1108 0 475 C 339.567 1207.68 t 0 r /Helvetica findfont 62.0409 sf 0 0 m ( 2L\(SS\), VR\(1) show NC gr 
 gsave  2268 1108 0 475 C 339.567 1405.51 t 0 r /Helvetica-BoldOblique findfont 73.8583 sf 0 0 m (ATLAS) show NC gr 
 gsave  2268 1108 0 475 C 634.843 1405.51 t 0 r /Helvetica findfont 73.8583 sf 0 0 m (Internal) show NC gr 
 gr  gr showpage
end
%%EOF
