%!PS-Adobe-2.0 EPSF-2.0
%%BoundingBox:  0 0 567 396
%%Title: /lhome/ific/c/cardillo/tHq/Plots/Plots-30-05-22-PLIV-SF/2LSS_MM/Ht_CRfakes.eps: Ht_CRfakes
%%Creator: ROOT Version 6.20/06
%%CreationDate: Tue May 31 15:04:47 2022
%%DocumentNeededResources: ProcSet (FontSetInit)
%%EndComments
%%BeginProlog
80 dict begin
/s {stroke} def /l {lineto} def /m {moveto} def /t {translate} def
/r {rotate} def /rl {roll}  def /R {repeat} def
/d {rlineto} def /rm {rmoveto} def /gr {grestore} def /f {eofill} def
/c {setrgbcolor} def /black {0 setgray} def /sd {setdash} def
/cl {closepath} def /sf {scalefont setfont} def /lw {setlinewidth} def
/box {m dup 0 exch d exch 0 d 0 exch neg d cl} def
/NC{systemdict begin initclip end}def/C{NC box clip newpath}def
/bl {box s} def /bf {gsave box gsave f grestore 1 lw [] 0 sd s grestore} def /Y { 0 exch d} def /X { 0 d} def 
/K {{pop pop 0 moveto} exch kshow} bind def
/ita {/ang 15 def gsave [1 0 ang dup sin exch cos div 1 0 0] concat} def 
/mp {newpath /y exch def /x exch def} def
/side {[w .77 mul w .23 mul] .385 w mul sd w 0 l currentpoint t -144 r} def
/mr {mp x y w2 0 360 arc} def /m24 {mr s} def /m20 {mr f} def
/mb {mp x y w2 add m w2 neg 0 d 0 w neg d w 0 d 0 w d cl} def
/mt {mp x y w2 add m w2 neg w neg d w 0 d cl} def
/w4 {w 4 div} def
/w6 {w 6 div} def
/w8 {w 8 div} def
/m21 {mb f} def /m25 {mb s} def /m22 {mt f} def /m26{mt s} def
/m23 {mp x y w2 sub m w2 w d w neg 0 d cl f} def
/m27 {mp x y w2 add m w3 neg w2 neg d w3 w2 neg d w3 w2 d cl s} def
/m28 {mp x w2 sub y w2 sub w3 add m w3 0 d  0 w3 neg d w3 0 d 0 w3 d w3 0 d  0 w3 d w3 neg 0 d 0 w3 d w3 neg 0 d 0 w3 neg d w3 neg 0 d cl s } def
/m29 {mp gsave x w2 sub y w2 add w3 sub m currentpoint t 4 {side} repeat cl fill gr} def
/m30 {mp gsave x w2 sub y w2 add w3 sub m currentpoint t 4 {side} repeat cl s gr} def
/m31 {mp x y w2 sub m 0 w d x w2 sub y m w 0 d x w2 sub y w2 add m w w neg d x w2 sub y w2 sub m w w d s} def
/m32 {mp x y w2 sub m w2 w d w neg 0 d cl s} def
/m33 {mp x y w2 add m w3 neg w2 neg d w3 w2 neg d w3 w2 d cl f} def
/m34 {mp x w2 sub y w2 sub w3 add m w3 0 d  0 w3 neg d w3 0 d 0 w3 d w3 0 d  0 w3 d w3 neg 0 d 0 w3 d w3 neg 0 d 0 w3 neg d w3 neg 0 d cl f } def
/m35 {mp x y w2 add m w2 neg w2 neg d w2 w2 neg d w2 w2 d w2 neg w2 d x y w2 sub m 0 w d x w2 sub y m w 0 d s} def
/m36 {mb x w2 sub y w2 add m w w neg d x w2 sub y w2 sub m w w d s} def
/m37 {mp x y m w4 neg w2 d w4 neg w2 neg d w2 0 d  w4 neg w2 neg d w2 0 d w4 neg w2 d w2 0 d w4 neg w2 d w4 neg w2 neg d cl s} def
/m38 {mp x w4 sub y w2 add m w4 neg w4 neg d 0 w2 neg d w4 w4 neg d w2 0 d w4 w4 d 0 w2 d w4 neg w4 d w2 neg 0 d x y w2 sub m 0 w d x w2 sub y m w 0 d cl s} def
/m39 {mp x y m w4 neg w2 d w4 neg w2 neg d w2 0 d  w4 neg w2 neg d w2 0 d w4 neg w2 d w2 0 d w4 neg w2 d w4 neg w2 neg d cl f} def
/m40 {mp x y m w4 w2 d w4 w4 neg d w2 neg w4 neg d w2 w4 neg d w4 neg w4 neg d w4 neg w2 d w4 neg w2 neg d w4 neg w4 d w2 w4 d w2 neg w4 d w4 w4 d w4 w2 neg d cl s} def
/m41 {mp x y m w4 w2 d w4 w4 neg d w2 neg w4 neg d w2 w4 neg d w4 neg w4 neg d w4 neg w2 d w4 neg w2 neg d w4 neg w4 d w2 w4 d w2 neg w4 d w4 w4 d w4 w2 neg d cl f} def
/m42 {mp x y w2 add m w8 neg w2 -3 4 div mul d w2 -3 4 div mul w8 neg d w2 3 4 div mul w8 neg d w8 w2 -3 4 div mul d w8 w2 3 4 div mul d w2 3 4 div mul w8 d w2 -3 4 div mul w8 d w8 neg w2 3 4 div mul d cl s} def
/m43 {mp x y w2 add m w8 neg w2 -3 4 div mul d w2 -3 4 div mul w8 neg d w2 3 4 div mul w8 neg d w8 w2 -3 4 div mul d w8 w2 3 4 div mul d w2 3 4 div mul w8 d w2 -3 4 div mul w8 d w8 neg w2 3 4 div mul d cl f} def
/m44 {mp x y m w6 neg w2 d w2 2 3 div mul 0 d w6 neg w2 neg d w2 w6 d 0 w2 -2 3 div mul d w2 neg w6 d w6 w2 neg d w2 -2 3 div mul 0 d w6 w2 d w2 neg w6 neg d 0 w2 2 3 div mul d w2 w6 neg d cl s} def
/m45 {mp x y m w6 neg w2 d w2 2 3 div mul 0 d w6 neg w2 neg d w2 w6 d 0 w2 -2 3 div mul d w2 neg w6 d w6 w2 neg d w2 -2 3 div mul 0 d w6 w2 d w2 neg w6 neg d 0 w2 2 3 div mul d w2 w6 neg d cl f} def
/m46 {mp x y w4 add m w4 neg w4 d w4 neg w4 neg d  w4 w4 neg d w4 neg w4 neg d w4 w4 neg d w4 w4 d w4 w4 neg d w4 w4 d w4 neg w4 d w4 w4 d w4 neg w4 d w4 neg w4 neg d cl s} def
/m47 {mp x y w4 add m w4 neg w4 d w4 neg w4 neg d w4 w4 neg d w4 neg w4 neg d  w4 w4 neg d w4 w4 d w4 w4 neg d w4 w4 d w4 neg w4 d w4 w4 d w4 neg w4 d w4 neg w4 neg d cl f} def
/m48 {mp x y w4 add m w4 neg w4 d w4 neg w4 neg d w4 w4 neg d  w4 neg w4 neg d w4 w4 neg d w4 w4 d w4 w4 neg d w4 w4 d w4 neg w4 d w4 w4 d w4 neg w4 d w4 neg w4 neg d  w4 w4 neg d w4 neg w4 neg d w4 neg w4 d w4 w4 d cl f} def
/m49 {mp x w2 sub w3 add y w2 sub w3 add m  0 w3 neg d w3 0 d 0 w3 d w3 0 d 0 w3 d w3 neg 0 d 0 w3 d w3 neg 0 d 0 w3 neg d w3 neg 0 d 0 w3 neg d w3 0 d 0 w3 d w3 0 d 0 w3 neg d w3 neg 0 d cl f } def
/m2 {mp x y w2 sub m 0 w d x w2 sub y m w 0 d s} def
/m5 {mp x w2 sub y w2 sub m w w d x w2 sub y w2 add m w w neg d s} def
%%IncludeResource: ProcSet (FontSetInit)
%%IncludeResource: font Times-Roman
%%IncludeResource: font Times-Italic
%%IncludeResource: font Times-Bold
%%IncludeResource: font Times-BoldItalic
%%IncludeResource: font Helvetica
%%IncludeResource: font Helvetica-Oblique
%%IncludeResource: font Helvetica-Bold
%%IncludeResource: font Helvetica-BoldOblique
%%IncludeResource: font Courier
%%IncludeResource: font Courier-Oblique
%%IncludeResource: font Courier-Bold
%%IncludeResource: font Courier-BoldOblique
%%IncludeResource: font Symbol
%%IncludeResource: font ZapfDingbats
/reEncode {exch findfont dup length dict begin {1 index /FID eq  {pop pop} {def} ifelse } forall /Encoding exch def currentdict end dup /FontName get exch definefont pop } def [/Times-Bold /Times-Italic /Times-BoldItalic /Helvetica /Helvetica-Oblique
 /Helvetica-Bold /Helvetica-BoldOblique /Courier /Courier-Oblique /Courier-Bold /Courier-BoldOblique /Times-Roman /AvantGarde-Book /AvantGarde-BookOblique /AvantGarde-Demi /AvantGarde-DemiOblique /Bookman-Demi /Bookman-DemiItalic /Bookman-Light
 /Bookman-LightItalic /Helvetica-Narrow /Helvetica-Narrow-Bold /Helvetica-Narrow-BoldOblique /Helvetica-Narrow-Oblique /NewCenturySchlbk-Roman /NewCenturySchlbk-Bold /NewCenturySchlbk-BoldItalic /NewCenturySchlbk-Italic /Palatino-Bold
 /Palatino-BoldItalic /Palatino-Italic /Palatino-Roman ] {ISOLatin1Encoding reEncode } forall
%%EndProlog
%%BeginSetup
%%EndSetup
newpath  gsave  .25 .25 scale  gsave  0 0 t black[  ] 0 sd 3 lw 1 1 1 c 2268 1583 0 0 bf black 1 1 1 c 2268 475 0 0 bf black 1 1 1 c 1927 275 227 190 bf black 1927 275 227 190 bl 227 190 m 1927 X s 227 202 m -12 Y s 282 196 m -6 Y s 337 196 m -6 Y s
 392 196 m -6 Y s 447 196 m -6 Y s 502 202 m -12 Y s 557 196 m -6 Y s 612 196 m -6 Y s 667 196 m -6 Y s 722 196 m -6 Y s 778 202 m -12 Y s 833 196 m -6 Y s 888 196 m -6 Y s 943 196 m -6 Y s 998 196 m -6 Y s 1053 202 m -12 Y s 1108 196 m -6 Y s 1163
 196 m -6 Y s 1218 196 m -6 Y s 1273 196 m -6 Y s 1328 202 m -12 Y s 1383 196 m -6 Y s 1438 196 m -6 Y s 1493 196 m -6 Y s 1549 196 m -6 Y s 1604 202 m -12 Y s 1659 196 m -6 Y s 1714 196 m -6 Y s 1769 196 m -6 Y s 1824 196 m -6 Y s 1879 202 m -12 Y s
 1934 196 m -6 Y s 1989 196 m -6 Y s 2044 196 m -6 Y s 2099 196 m -6 Y s 2154 202 m -12 Y s
 gsave  2268 475 0 0 C 180.118 126.968 t 0 r /Helvetica findfont 53.4154 sf 0 0 m (300) show NC gr 
 gsave  2268 475 0 0 C 457.677 126.968 t 0 r /Helvetica findfont 53.4154 sf 0 0 m (400) show NC gr 
 gsave  2268 475 0 0 C 732.283 126.968 t 0 r /Helvetica findfont 53.4154 sf 0 0 m (500) show NC gr 
 gsave  2268 475 0 0 C 1006.89 126.968 t 0 r /Helvetica findfont 53.4154 sf 0 0 m (600) show NC gr 
 gsave  2268 475 0 0 C 1281.5 126.968 t 0 r /Helvetica findfont 53.4154 sf 0 0 m (700) show NC gr 
 gsave  2268 475 0 0 C 1559.06 126.968 t 0 r /Helvetica findfont 53.4154 sf 0 0 m (800) show NC gr 
 gsave  2268 475 0 0 C 1833.66 126.968 t 0 r /Helvetica findfont 53.4154 sf 0 0 m (900) show NC gr 
 gsave  2268 475 0 0 C 2093.5 126.968 t 0 r /Helvetica findfont 53.4154 sf 0 0 m (1000) show NC gr 
 gsave  2268 475 0 0 C 1996.06 47.2441 t 0 r /Helvetica findfont 56.3829 sf 0 0 m ( [GeV]) show NC gr 
 gsave  2268 475 0 0 C 1972.44 29.5276 t 0 r /Helvetica findfont 38.5778 sf 0 0 m (T) show NC gr 
 gsave  2268 475 0 0 C 1925.2 47.2441 t 0 r /Helvetica-Oblique findfont 56.3829 sf 0 0 m (H) show NC gr  227 465 m 1927 X s 227 453 m 12 Y s 282 459 m 6 Y s 337 459 m 6 Y s 392 459 m 6 Y s 447 459 m 6 Y s 502 453 m 12 Y s 557 459 m 6 Y s 612 459 m 6
 Y s 667 459 m 6 Y s 722 459 m 6 Y s 778 453 m 12 Y s 833 459 m 6 Y s 888 459 m 6 Y s 943 459 m 6 Y s 998 459 m 6 Y s 1053 453 m 12 Y s 1108 459 m 6 Y s 1163 459 m 6 Y s 1218 459 m 6 Y s 1273 459 m 6 Y s 1328 453 m 12 Y s 1383 459 m 6 Y s 1438 459 m
 6 Y s 1493 459 m 6 Y s 1549 459 m 6 Y s 1604 453 m 12 Y s 1659 459 m 6 Y s 1714 459 m 6 Y s 1769 459 m 6 Y s 1824 459 m 6 Y s 1879 453 m 12 Y s 1934 459 m 6 Y s 1989 459 m 6 Y s 2044 459 m 6 Y s 2099 459 m 6 Y s 2154 453 m 12 Y s 227 190 m 275 Y s
 240 242 m -13 X s 240 328 m -13 X s 240 414 m -13 X s 240 242 m -13 X s 240 414 m -13 X s
 gsave  2268 475 0 0 C 118.11 221.457 t 0 r /Helvetica findfont 53.4154 sf 0 0 m (0.5) show NC gr 
 gsave  2268 475 0 0 C 171.26 307.087 t 0 r /Helvetica findfont 53.4154 sf 0 0 m (1) show NC gr 
 gsave  2268 475 0 0 C 118.11 395.669 t 0 r /Helvetica findfont 53.4154 sf 0 0 m (1.5) show NC gr 
 gsave  2268 475 0 0 C 70.8661 233.268 t 90 r /Helvetica findfont 53.4154 sf 0 0 m (Data / SM) show NC gr  2154 190 m 275 Y s 2141 242 m 13 X s 2141 328 m 13 X s 2141 414 m 13 X s 2141 242 m 13 X s 2141 414 m 13 X s 227 190 m 1927 X s 227 465 m 1927
 X s 227 190 m 275 Y s[ 4 8] 0 sd 2154 242 m -1927 X s 2154 328 m -1927 X s 2154 414 m -1927 X s 2154 242 m -1927 X s 2154 414 m -1927 X s[  ] 0 sd 2154 190 m 275 Y s 1 1 0.6 c 137 0 227 328 bf 138 0 364 328 bf 138 0 502 328 bf 138 0 640 328 bf 137 0
 778 328 bf 138 0 915 328 bf 138 0 1053 328 bf 137 0 1191 328 bf 138 0 1328 328 bf 138 0 1466 328 bf 137 0 1604 328 bf 138 0 1741 328 bf 138 0 1879 328 bf 137 0 2017 328 bf black 0.6 0.6 0.6 c 364 328 m -2 -3 d s 348 330 m -6 -5 d s 329 330 m -6 -5 d
 s 310 330 m -6 -5 d s 290 330 m -5 -5 d s 271 330 m -6 -5 d s 252 330 m -6 -5 d s 233 330 m -6 -5 d s 502 331 m -6 -7 d s 483 331 m -6 -7 d s 464 331 m -7 -7 d s 445 331 m -7 -7 d s 426 331 m -7 -7 d s 406 331 m -6 -7 d s 387 331 m -7 -7 d s 368 331
 m -4 -3 d s 638 331 m -8 -7 d s 618 331 m -7 -7 d s 599 331 m -7 -7 d s 580 331 m -8 -7 d s 561 331 m -8 -7 d s 541 331 m -7 -7 d s 522 331 m -7 -7 d s 503 331 m -1 X s 772 332 m -7 -8 d s 753 332 m -8 -8 d s 734 332 m -8 -8 d s 715 332 m -8 -8 d s
 696 332 m -8 -8 d s 676 332 m -8 -8 d s 657 332 m -8 -8 d s 907 331 m -8 -7 d s 888 331 m -8 -7 d s 869 331 m -8 -7 d s 849 331 m -7 -7 d s 830 331 m -8 -7 d s 811 331 m -8 -7 d s 792 331 m -8 -7 d s 1053 323 m -1 -1 d s 1044 333 m -12 -11 d s 1024
 333 m -11 -11 d s 1005 333 m -11 -11 d s 986 333 m -11 -11 d s 967 333 m -12 -11 d s 947 333 m -11 -11 d s 928 333 m -11 -11 d s 1191 326 m -4 -4 d s 1178 333 m -11 -11 d s 1159 333 m -11 -11 d s 1140 333 m -11 -11 d s 1120 333 m -10 -11 d s 1101
 333 m -11 -11 d s 1082 333 m -11 -11 d s 1063 333 m -10 -10 d s 1328 329 m -7 -7 d s 1313 334 m -12 -12 d s 1294 334 m -12 -12 d s 1275 334 m -12 -12 d s 1255 334 m -11 -12 d s 1236 334 m -11 -12 d s 1217 334 m -12 -12 d s 1198 334 m -7 -8 d s 1466
 332 m -12 -11 d s 1449 335 m -14 -14 d s 1430 335 m -14 -14 d s 1410 335 m -13 -14 d s 1391 335 m -14 -14 d s 1372 335 m -14 -14 d s 1353 335 m -14 -14 d s 1333 335 m -5 -6 d s 1604 335 m -16 -15 d s 1585 336 m -16 -16 d s 1565 336 m -15 -16 d s
 1546 336 m -16 -16 d s 1527 336 m -16 -16 d s 1508 336 m -16 -16 d s 1488 336 m -15 -16 d s 1469 336 m -3 -4 d s 1738 335 m -15 -15 d s 1719 335 m -15 -15 d s 1699 335 m -14 -15 d s 1680 335 m -14 -15 d s 1661 335 m -15 -15 d s 1642 335 m -15 -15 d
 s 1622 335 m -14 -15 d s 1879 322 m -5 -5 d s 1876 338 m -21 -21 d s 1856 338 m -20 -21 d s 1837 338 m -20 -21 d s 1818 338 m -21 -21 d s 1799 338 m -21 -21 d s 1779 338 m -20 -21 d s 1760 338 m -19 -19 d s 2017 325 m -9 -9 d s 2011 339 m -22 -23 d
 s 1992 339 m -22 -23 d s 1973 339 m -23 -23 d s 1953 339 m -22 -23 d s 1934 339 m -22 -23 d s 1915 339 m -22 -23 d s 1896 339 m -17 -17 d s 2154 328 m -2 -3 d s 2137 330 m -4 -5 d s 2118 330 m -5 -5 d s 2098 330 m -4 -5 d s 2079 330 m -4 -5 d s 2060
 330 m -4 -5 d s 2041 330 m -5 -5 d s 2022 330 m -5 -5 d s black 1 1 1 c black 296 316 m 1 Y s 296 341 m 1 Y s /w 26 def /w2 {w 2 div} def /w3 {w 3 div} def 296 329 m20 433 316 m 3 Y s 433 343 m 2 Y s 433 331 m20 571 303 m 4 Y s 571 331 m 4 Y s 571
 319 m20 709 320 m 7 Y s 709 351 m 7 Y s 709 339 m20 846 304 m 10 Y s 846 338 m 9 Y s 846 326 m20 984 281 m 10 Y s 984 314 m 10 Y s 984 302 m20 1122 337 m 19 Y s 1122 380 m 19 Y s 1122 368 m20 1259 287 m 19 Y s 1259 330 m 19 Y s 1259 318 m20 1397 285
 m 22 Y s 1397 331 m 22 Y s 1397 319 m20 1535 294 m 30 Y s 1535 347 m 30 Y s 1535 336 m20 1672 324 m 40 Y s 1672 387 m 40 Y s 1672 375 m20 1810 284 m 40 Y s 1810 348 m 40 Y s 1810 336 m20 1948 295 m 48 Y s 1948 367 m 48 Y s 1948 355 m20 2085 339 m 19
 Y s 2085 382 m 18 Y s 2085 370 m20 227 328 m 1927 X s 227 190 m 1927 X s 227 202 m -12 Y s 282 196 m -6 Y s 337 196 m -6 Y s 392 196 m -6 Y s 447 196 m -6 Y s 502 202 m -12 Y s 557 196 m -6 Y s 612 196 m -6 Y s 667 196 m -6 Y s 722 196 m -6 Y s 778
 202 m -12 Y s 833 196 m -6 Y s 888 196 m -6 Y s 943 196 m -6 Y s 998 196 m -6 Y s 1053 202 m -12 Y s 1108 196 m -6 Y s 1163 196 m -6 Y s 1218 196 m -6 Y s 1273 196 m -6 Y s 1328 202 m -12 Y s 1383 196 m -6 Y s 1438 196 m -6 Y s 1493 196 m -6 Y s
 1549 196 m -6 Y s 1604 202 m -12 Y s 1659 196 m -6 Y s 1714 196 m -6 Y s 1769 196 m -6 Y s 1824 196 m -6 Y s 1879 202 m -12 Y s 1934 196 m -6 Y s 1989 196 m -6 Y s 2044 196 m -6 Y s 2099 196 m -6 Y s 2154 202 m -12 Y s 227 465 m 1927 X s 227 453 m
 12 Y s 282 459 m 6 Y s 337 459 m 6 Y s 392 459 m 6 Y s 447 459 m 6 Y s 502 453 m 12 Y s 557 459 m 6 Y s 612 459 m 6 Y s 667 459 m 6 Y s 722 459 m 6 Y s 778 453 m 12 Y s 833 459 m 6 Y s 888 459 m 6 Y s 943 459 m 6 Y s 998 459 m 6 Y s 1053 453 m 12 Y
 s 1108 459 m 6 Y s 1163 459 m 6 Y s 1218 459 m 6 Y s 1273 459 m 6 Y s 1328 453 m 12 Y s 1383 459 m 6 Y s 1438 459 m 6 Y s 1493 459 m 6 Y s 1549 459 m 6 Y s 1604 453 m 12 Y s 1659 459 m 6 Y s 1714 459 m 6 Y s 1769 459 m 6 Y s 1824 459 m 6 Y s 1879
 453 m 12 Y s 1934 459 m 6 Y s 1989 459 m 6 Y s 2044 459 m 6 Y s 2099 459 m 6 Y s 2154 453 m 12 Y s 227 190 m 275 Y s 240 242 m -13 X s 240 328 m -13 X s 240 414 m -13 X s 240 242 m -13 X s 240 414 m -13 X s 2154 190 m 275 Y s 2141 242 m 13 X s 2141
 328 m 13 X s 2141 414 m 13 X s 2141 242 m 13 X s 2141 414 m 13 X s 1 1 1 c 2268 1108 0 475 bf black 1 1 1 c 1927 1041 227 486 bf black 1927 1041 227 486 bl 1 1 1 c black 3 lw 227 486 m 1927 X s 227 505 m -19 Y s 282 495 m -9 Y s 337 495 m -9 Y s 392
 495 m -9 Y s 447 495 m -9 Y s 502 505 m -19 Y s 557 495 m -9 Y s 612 495 m -9 Y s 667 495 m -9 Y s 722 495 m -9 Y s 778 505 m -19 Y s 833 495 m -9 Y s 888 495 m -9 Y s 943 495 m -9 Y s 998 495 m -9 Y s 1053 505 m -19 Y s 1108 495 m -9 Y s 1163 495 m
 -9 Y s 1218 495 m -9 Y s 1273 495 m -9 Y s 1328 505 m -19 Y s 1383 495 m -9 Y s 1438 495 m -9 Y s 1493 495 m -9 Y s 1549 495 m -9 Y s 1604 505 m -19 Y s 1659 495 m -9 Y s 1714 495 m -9 Y s 1769 495 m -9 Y s 1824 495 m -9 Y s 1879 505 m -19 Y s 1934
 495 m -9 Y s 1989 495 m -9 Y s 2044 495 m -9 Y s 2099 495 m -9 Y s 2154 505 m -19 Y s
 gsave  2268 1108 0 475 C 2061.02 404.528 t 0 r /Helvetica findfont 32.4976 sf 0 0 m ( [GeV]) show NC gr 
 gsave  2268 1108 0 475 C 2046.26 392.717 t 0 r /Helvetica findfont 20.6803 sf 0 0 m (T) show NC gr 
 gsave  2268 1108 0 475 C 2019.69 404.528 t 0 r /Helvetica-Oblique findfont 32.4976 sf 0 0 m (H) show NC gr  227 1527 m 1927 X s 227 1508 m 19 Y s 282 1518 m 9 Y s 337 1518 m 9 Y s 392 1518 m 9 Y s 447 1518 m 9 Y s 502 1508 m 19 Y s 557 1518 m 9 Y s
 612 1518 m 9 Y s 667 1518 m 9 Y s 722 1518 m 9 Y s 778 1508 m 19 Y s 833 1518 m 9 Y s 888 1518 m 9 Y s 943 1518 m 9 Y s 998 1518 m 9 Y s 1053 1508 m 19 Y s 1108 1518 m 9 Y s 1163 1518 m 9 Y s 1218 1518 m 9 Y s 1273 1518 m 9 Y s 1328 1508 m 19 Y s
 1383 1518 m 9 Y s 1438 1518 m 9 Y s 1493 1518 m 9 Y s 1549 1518 m 9 Y s 1604 1508 m 19 Y s 1659 1518 m 9 Y s 1714 1518 m 9 Y s 1769 1518 m 9 Y s 1824 1518 m 9 Y s 1879 1508 m 19 Y s 1934 1518 m 9 Y s 1989 1518 m 9 Y s 2044 1518 m 9 Y s 2099 1518 m 9
 Y s 2154 1508 m 19 Y s 227 486 m 1041 Y s 248 638 m -21 X s 237 668 m -10 X s 237 698 m -10 X s 237 729 m -10 X s 237 759 m -10 X s 248 790 m -21 X s 237 820 m -10 X s 237 850 m -10 X s 237 881 m -10 X s 237 911 m -10 X s 248 941 m -21 X s 237 972 m
 -10 X s 237 1002 m -10 X s 237 1033 m -10 X s 237 1063 m -10 X s 248 1093 m -21 X s 237 1124 m -10 X s 237 1154 m -10 X s 237 1184 m -10 X s 237 1215 m -10 X s 248 1245 m -21 X s 237 1276 m -10 X s 237 1306 m -10 X s 237 1336 m -10 X s 237 1367 m
 -10 X s 248 1397 m -21 X s 248 638 m -21 X s 237 607 m -10 X s 237 577 m -10 X s 237 547 m -10 X s 237 516 m -10 X s 248 1397 m -21 X s 237 1427 m -10 X s 237 1458 m -10 X s 237 1488 m -10 X s 237 1519 m -10 X s
 gsave  2268 1108 0 475 C 141.732 617.126 t 0 r /Helvetica findfont 53.178 sf 0 0 m (50) show NC gr 
 gsave  2268 1108 0 475 C 112.205 770.669 t 0 r /Helvetica findfont 53.178 sf 0 0 m (100) show NC gr 
 gsave  2268 1108 0 475 C 112.205 921.26 t 0 r /Helvetica findfont 53.178 sf 0 0 m (150) show NC gr 
 gsave  2268 1108 0 475 C 112.205 1074.8 t 0 r /Helvetica findfont 53.178 sf 0 0 m (200) show NC gr 
 gsave  2268 1108 0 475 C 112.205 1225.39 t 0 r /Helvetica findfont 53.178 sf 0 0 m (250) show NC gr 
 gsave  2268 1108 0 475 C 112.205 1378.94 t 0 r /Helvetica findfont 53.178 sf 0 0 m (300) show NC gr 
 gsave  2268 1108 0 475 C 64.9606 1142.72 t 90 r /Helvetica findfont 53.178 sf 0 0 m (Events / 50 GeV) show NC gr  2154 486 m 1041 Y s 2133 638 m 21 X s 2144 668 m 10 X s 2144 698 m 10 X s 2144 729 m 10 X s 2144 759 m 10 X s 2133 790 m 21 X s 2144
 820 m 10 X s 2144 850 m 10 X s 2144 881 m 10 X s 2144 911 m 10 X s 2133 941 m 21 X s 2144 972 m 10 X s 2144 1002 m 10 X s 2144 1033 m 10 X s 2144 1063 m 10 X s 2133 1093 m 21 X s 2144 1124 m 10 X s 2144 1154 m 10 X s 2144 1184 m 10 X s 2144 1215 m
 10 X s 2133 1245 m 21 X s 2144 1276 m 10 X s 2144 1306 m 10 X s 2144 1336 m 10 X s 2144 1367 m 10 X s 2133 1397 m 21 X s 2133 638 m 21 X s 2144 607 m 10 X s 2144 577 m 10 X s 2144 547 m 10 X s 2144 516 m 10 X s 2133 1397 m 21 X s 2144 1427 m 10 X s
 2144 1458 m 10 X s 2144 1488 m 10 X s 2144 1519 m 10 X s 0.4 0.6 0.4 c black 3 lw 0.4 0.6 0.4 c 227 486 m 548 Y 137 X -122 Y 138 X -87 Y 138 X -80 Y 138 X -63 Y 137 X -36 Y 138 X -42 Y 138 X -28 Y 137 X -17 Y 138 X -18 Y 138 X -12 Y 137 X -8 Y 138 X
 -6 Y 138 X 93 Y 137 X -122 Y f 0.06 0.54 0.06 c 0.999 0.999 0.999 c black 3 lw 0.999 0.999 0.999 c 227 486 m 434 Y 137 X -80 Y 138 X -66 Y 138 X -67 Y 138 X -48 Y 137 X -30 Y 138 X -37 Y 138 X -23 Y 137 X -15 Y 138 X -18 Y 138 X -10 Y 137 X -7 Y 138
 X -6 Y 138 X 88 Y 137 X -115 Y f 0.06 0.54 0.06 c 0.999 0.999 0.999 c 0.06 0.54 0.06 c 1 1 1 c black 0.06 0.54 0.06 c black 3 lw 0.06 0.54 0.06 c 227 486 m 434 Y 137 X -80 Y 138 X -66 Y 138 X -67 Y 138 X -48 Y 137 X -30 Y 138 X -37 Y 138 X -23 Y 137
 X -15 Y 138 X -18 Y 138 X -10 Y 137 X -7 Y 138 X -6 Y 138 X 88 Y 137 X -115 Y f 1 0.653333 0 c 0.999 0.999 0.999 c black 3 lw 0.999 0.999 0.999 c 227 486 m 311 Y 137 X -44 Y 138 X -53 Y 138 X -41 Y 138 X -36 Y 137 X -27 Y 138 X -24 Y 138 X -19 Y 137
 X -15 Y 138 X -13 Y 138 X -4 Y 137 X -10 Y 138 X -5 Y 138 X 77 Y 137 X -97 Y f 1 0.653333 0 c 0.999 0.999 0.999 c 1 0.653333 0 c 1 1 1 c black 1 0.653333 0 c black 3 lw 1 0.653333 0 c 227 486 m 311 Y 137 X -44 Y 138 X -53 Y 138 X -41 Y 138 X -36 Y
 137 X -27 Y 138 X -24 Y 138 X -19 Y 137 X -15 Y 138 X -13 Y 138 X -4 Y 137 X -10 Y 138 X -5 Y 138 X 77 Y 137 X -97 Y f 0.413333 1 0 c 0.999 0.999 0.999 c black 3 lw 0.999 0.999 0.999 c 227 486 m 283 Y 137 X -44 Y 138 X -41 Y 138 X -42 Y 138 X -32 Y
 137 X -28 Y 138 X -20 Y 138 X -17 Y 137 X -12 Y 138 X -12 Y 138 X -5 Y 137 X -6 Y 138 X -6 Y 138 X 66 Y 137 X -84 Y f 0.413333 1 0 c 0.999 0.999 0.999 c 0.413333 1 0 c 1 1 1 c black 0.413333 1 0 c black 3 lw 0.413333 1 0 c 227 486 m 283 Y 137 X -44
 Y 138 X -41 Y 138 X -42 Y 138 X -32 Y 137 X -28 Y 138 X -20 Y 138 X -17 Y 137 X -12 Y 138 X -12 Y 138 X -5 Y 137 X -6 Y 138 X -6 Y 138 X 66 Y 137 X -84 Y f 0.6 0.2 1 c 0.999 0.999 0.999 c black 3 lw 0.999 0.999 0.999 c 227 486 m 253 Y 137 X -39 Y
 138 X -36 Y 138 X -38 Y 138 X -29 Y 137 X -25 Y 138 X -19 Y 138 X -16 Y 137 X -11 Y 138 X -10 Y 138 X -4 Y 137 X -6 Y 138 X -5 Y 138 X 52 Y 137 X -67 Y f 0.6 0.2 1 c 0.999 0.999 0.999 c 0.6 0.2 1 c 1 1 1 c black 0.6 0.2 1 c black 3 lw 0.6 0.2 1 c
 227 486 m 253 Y 137 X -39 Y 138 X -36 Y 138 X -38 Y 138 X -29 Y 137 X -25 Y 138 X -19 Y 138 X -16 Y 137 X -11 Y 138 X -10 Y 138 X -4 Y 137 X -6 Y 138 X -5 Y 138 X 52 Y 137 X -67 Y f 0.54 0.06 0.06 c 0.999 0.999 0.999 c black 3 lw 0.999 0.999 0.999 c
 227 486 m 217 Y 137 X -35 Y 138 X -31 Y 138 X -32 Y 138 X -25 Y 137 X -22 Y 138 X -16 Y 138 X -13 Y 137 X -9 Y 138 X -8 Y 138 X -4 Y 137 X -4 Y 138 X -5 Y 138 X 45 Y 137 X -58 Y f 0.54 0.06 0.06 c 0.999 0.999 0.999 c 0.54 0.06 0.06 c 1 1 1 c black
 0.54 0.06 0.06 c black 3 lw 0.54 0.06 0.06 c 227 486 m 217 Y 137 X -35 Y 138 X -31 Y 138 X -32 Y 138 X -25 Y 137 X -22 Y 138 X -16 Y 138 X -13 Y 137 X -9 Y 138 X -8 Y 138 X -4 Y 137 X -4 Y 138 X -5 Y 138 X 45 Y 137 X -58 Y f 1 0 1 c 0.999 0.999
 0.999 c black 3 lw 0.999 0.999 0.999 c 227 486 m 50 Y 137 X -8 Y 138 X -5 Y 138 X -7 Y 138 X -10 Y 137 X -5 Y 138 X -3 Y 138 X -3 Y 137 X -2 Y 138 X -2 Y 138 X -1 Y 137 X -1 Y 138 X -1 Y 138 X 8 Y 137 X -10 Y f 1 0 1 c 0.999 0.999 0.999 c 1 0 1 c 1
 1 1 c black 1 0 1 c black 3 lw 1 0 1 c 227 486 m 50 Y 137 X -8 Y 138 X -5 Y 138 X -7 Y 138 X -10 Y 137 X -5 Y 138 X -3 Y 138 X -3 Y 137 X -2 Y 138 X -2 Y 138 X -1 Y 137 X -1 Y 138 X -1 Y 138 X 8 Y 137 X -10 Y f 0 0 1 c 0.999 0.999 0.999 c black 3 lw
 0.999 0.999 0.999 c 227 486 m 43 Y 137 X -8 Y 138 X -3 Y 138 X -6 Y 138 X -9 Y 137 X -4 Y 138 X -3 Y 138 X -3 Y 137 X -1 Y 138 X -2 Y 138 X -1 Y 137 X -1 Y 276 X 6 Y 137 X -8 Y f 0 0 1 c 0.999 0.999 0.999 c 0 0 1 c 1 1 1 c black 0 0 1 c black 3 lw 0
 0 1 c 227 486 m 43 Y 137 X -8 Y 138 X -3 Y 138 X -6 Y 138 X -9 Y 137 X -4 Y 138 X -3 Y 138 X -3 Y 137 X -1 Y 138 X -2 Y 138 X -1 Y 137 X -1 Y 276 X 6 Y 137 X -8 Y f 0.2 0.8 0.8 c 0.999 0.999 0.999 c black 3 lw 0.999 0.999 0.999 c 227 486 m 9 Y 137 X
 -3 Y 138 X 2 Y 276 X -5 Y 137 X -1 Y 413 X -1 Y 551 X -1 Y 138 X 3 Y 137 X -3 Y f 0.2 0.8 0.8 c 0.999 0.999 0.999 c 0.2 0.8 0.8 c 1 1 1 c black 0.2 0.8 0.8 c black 3 lw 0.2 0.8 0.8 c 227 486 m 9 Y 137 X -3 Y 138 X 2 Y 276 X -5 Y 137 X -1 Y 413 X -1
 Y 551 X -1 Y 138 X 3 Y 137 X -3 Y f 1 0 0 c 0.999 0.999 0.999 c black 3 lw 0.999 0.999 0.999 c 227 486 m 4 Y 137 X -3 Y 138 X 4 Y 276 X -4 Y 688 X -1 Y 551 X 2 Y 137 X -2 Y f 1 0 0 c 0.999 0.999 0.999 c 1 0 0 c 1 1 1 c black 1 0 0 c black 3 lw 1 0 0
 c 227 486 m 4 Y 137 X -3 Y 138 X 4 Y 276 X -4 Y 688 X -1 Y 551 X 2 Y 137 X -2 Y f 1 0.84 0 c 0.999 0.999 0.999 c black 3 lw 0.999 0.999 0.999 c 227 486 m 3 Y 137 X -2 Y 138 X 3 Y 138 X 1 Y 138 X -4 Y 550 X -1 Y 689 X 2 Y 137 X -2 Y f 1 0.84 0 c
 0.999 0.999 0.999 c 1 0.84 0 c 1 1 1 c black 1 0.84 0 c black 3 lw 1 0.84 0 c 227 486 m 3 Y 137 X -2 Y 138 X 3 Y 138 X 1 Y 138 X -4 Y 550 X -1 Y 689 X 2 Y 137 X -2 Y f black 1 1 1 c black 0.6 0.6 0.6 c 3 lw 364 1030 m -5 -5 d s 358 1043 m -18 -18 d
 s 339 1043 m -19 -18 d s 319 1043 m -18 -18 d s 300 1043 m -18 -18 d s 281 1043 m -18 -18 d s 262 1043 m -19 -18 d s 242 1043 m -15 -15 d s 3 lw 502 918 m -14 -14 d s 485 921 m -16 -17 d s 466 921 m -17 -17 d s 447 921 m -17 -17 d s 428 921 m -17
 -17 d s 408 921 m -16 -17 d s 389 921 m -17 -17 d s 370 921 m -6 -6 d s 3 lw 640 825 m -8 -8 d s 628 832 m -15 -15 d s 608 832 m -15 -15 d s 589 832 m -15 -15 d s 570 832 m -15 -15 d s 551 832 m -15 -15 d s 531 832 m -15 -15 d s 512 832 m -10 -10 d
 s 3 lw 777 751 m -12 -12 d s 758 751 m -12 -12 d s 738 751 m -12 -12 d s 719 751 m -12 -12 d s 700 751 m -12 -12 d s 681 751 m -12 -12 d s 661 751 m -12 -12 d s 642 751 m -2 -3 d s 3 lw 905 687 m -9 -9 d s 886 687 m -9 -9 d s 867 687 m -9 -9 d s 847
 687 m -8 -9 d s 828 687 m -9 -9 d s 809 687 m -9 -9 d s 790 687 m -9 -9 d s 3 lw 1053 642 m -2 -1 d s 1043 651 m -11 -10 d s 1023 651 m -10 -10 d s 1004 651 m -10 -10 d s 985 651 m -11 -10 d s 966 651 m -11 -10 d s 946 651 m -10 -10 d s 927 651 m
 -10 -10 d s 3 lw 1191 607 m -7 -7 d s 1172 608 m -7 -8 d s 1153 608 m -8 -8 d s 1134 608 m -8 -8 d s 1114 608 m -7 -8 d s 1095 608 m -7 -8 d s 1076 608 m -7 -8 d s 1057 608 m -4 -4 d s 3 lw 1317 579 m -7 -6 d s 1297 579 m -6 -6 d s 1278 579 m -6 -6
 d s 1259 579 m -6 -6 d s 1240 579 m -7 -6 d s 1220 579 m -6 -6 d s 1201 579 m -6 -6 d s 3 lw 1454 562 m -6 -6 d s 1435 562 m -6 -6 d s 1415 562 m -6 -6 d s 1396 562 m -6 -6 d s 1377 562 m -6 -6 d s 1358 562 m -6 -6 d s 1338 562 m -5 -6 d s 3 lw 1604
 539 m -1 -1 d s 1589 544 m -5 -6 d s 1570 544 m -5 -6 d s 1551 544 m -6 -6 d s 1531 544 m -5 -6 d s 1512 544 m -5 -6 d s 1493 544 m -5 -6 d s 1474 544 m -6 -6 d s 3 lw 1730 530 m -4 -3 d s 1711 530 m -4 -3 d s 1691 530 m -3 -3 d s 1672 530 m -4 -3 d
 s 1653 530 m -4 -3 d s 1634 530 m -4 -3 d s 1614 530 m -3 -3 d s 3 lw 1876 523 m -4 -4 d s 1857 523 m -4 -4 d s 1838 523 m -5 -4 d s 1818 523 m -4 -4 d s 1799 523 m -4 -4 d s 1780 523 m -4 -4 d s 1761 523 m -5 -4 d s 1741 523 m s 3 lw 2004 517 m -3
 -4 d s 1985 517 m -3 -4 d s 1966 517 m -4 -4 d s 1947 517 m -4 -4 d s 1928 517 m -4 -4 d s 1908 517 m -3 -4 d s 1889 517 m -4 -4 d s 3 lw 2154 608 m -2 -2 d s 2136 609 m -3 -3 d s 2117 609 m -3 -3 d s 2098 609 m -4 -3 d s 2078 609 m -3 -3 d s 2059
 609 m -3 -3 d s 2040 609 m -3 -3 d s 2021 609 m -4 -3 d s black 3 lw 1 1 1 c black 296 998 m 29 Y s 296 1050 m 30 Y s /w 24 def /w2 {w 2 div} def /w3 {w 3 div} def 296 1039 m20 433 884 m 24 Y s 433 932 m 25 Y s 433 920 m20 571 777 m 19 Y s 571 820 m
 19 Y s 571 808 m20 709 733 m 17 Y s 709 774 m 17 Y s 709 762 m20 846 656 m 12 Y s 846 692 m 13 Y s 846 680 m20 984 602 m 9 Y s 984 634 m 9 Y s 984 623 m20 1122 611 m 9 Y s 1122 643 m 10 Y s 1122 632 m20 1259 555 m 4 Y s 1259 583 m 4 Y s 1259 571 m20
 1397 541 m 3 Y s 1397 568 m 2 Y s 1397 556 m20 1535 530 m 2 Y s 1535 555 m 2 Y s 1535 544 m20 1672 528 m 1 Y s 1672 552 m 1 Y s 1672 541 m20 1810 522 m20 1948 519 m20 2085 616 m 10 Y s 2085 650 m 9 Y s 2085 638 m20 227 486 m 1927 X s 227 505 m -19 Y
 s 282 495 m -9 Y s 337 495 m -9 Y s 392 495 m -9 Y s 447 495 m -9 Y s 502 505 m -19 Y s 557 495 m -9 Y s 612 495 m -9 Y s 667 495 m -9 Y s 722 495 m -9 Y s 778 505 m -19 Y s 833 495 m -9 Y s 888 495 m -9 Y s 943 495 m -9 Y s 998 495 m -9 Y s 1053
 505 m -19 Y s 1108 495 m -9 Y s 1163 495 m -9 Y s 1218 495 m -9 Y s 1273 495 m -9 Y s 1328 505 m -19 Y s 1383 495 m -9 Y s 1438 495 m -9 Y s 1493 495 m -9 Y s 1549 495 m -9 Y s 1604 505 m -19 Y s 1659 495 m -9 Y s 1714 495 m -9 Y s 1769 495 m -9 Y s
 1824 495 m -9 Y s 1879 505 m -19 Y s 1934 495 m -9 Y s 1989 495 m -9 Y s 2044 495 m -9 Y s 2099 495 m -9 Y s 2154 505 m -19 Y s 227 1527 m 1927 X s 227 1508 m 19 Y s 282 1518 m 9 Y s 337 1518 m 9 Y s 392 1518 m 9 Y s 447 1518 m 9 Y s 502 1508 m 19 Y
 s 557 1518 m 9 Y s 612 1518 m 9 Y s 667 1518 m 9 Y s 722 1518 m 9 Y s 778 1508 m 19 Y s 833 1518 m 9 Y s 888 1518 m 9 Y s 943 1518 m 9 Y s 998 1518 m 9 Y s 1053 1508 m 19 Y s 1108 1518 m 9 Y s 1163 1518 m 9 Y s 1218 1518 m 9 Y s 1273 1518 m 9 Y s
 1328 1508 m 19 Y s 1383 1518 m 9 Y s 1438 1518 m 9 Y s 1493 1518 m 9 Y s 1549 1518 m 9 Y s 1604 1508 m 19 Y s 1659 1518 m 9 Y s 1714 1518 m 9 Y s 1769 1518 m 9 Y s 1824 1518 m 9 Y s 1879 1508 m 19 Y s 1934 1518 m 9 Y s 1989 1518 m 9 Y s 2044 1518 m
 9 Y s 2099 1518 m 9 Y s 2154 1508 m 19 Y s 227 486 m 1041 Y s 248 638 m -21 X s 237 668 m -10 X s 237 698 m -10 X s 237 729 m -10 X s 237 759 m -10 X s 248 790 m -21 X s 237 820 m -10 X s 237 850 m -10 X s 237 881 m -10 X s 237 911 m -10 X s 248 941
 m -21 X s 237 972 m -10 X s 237 1002 m -10 X s 237 1033 m -10 X s 237 1063 m -10 X s 248 1093 m -21 X s 237 1124 m -10 X s 237 1154 m -10 X s 237 1184 m -10 X s 237 1215 m -10 X s 248 1245 m -21 X s 237 1276 m -10 X s 237 1306 m -10 X s 237 1336 m
 -10 X s 237 1367 m -10 X s 248 1397 m -21 X s 248 638 m -21 X s 237 607 m -10 X s 237 577 m -10 X s 237 547 m -10 X s 237 516 m -10 X s 248 1397 m -21 X s 237 1427 m -10 X s 237 1458 m -10 X s 237 1488 m -10 X s 237 1519 m -10 X s 2154 486 m 1041 Y
 s 2133 638 m 21 X s 2144 668 m 10 X s 2144 698 m 10 X s 2144 729 m 10 X s 2144 759 m 10 X s 2133 790 m 21 X s 2144 820 m 10 X s 2144 850 m 10 X s 2144 881 m 10 X s 2144 911 m 10 X s 2133 941 m 21 X s 2144 972 m 10 X s 2144 1002 m 10 X s 2144 1033 m
 10 X s 2144 1063 m 10 X s 2133 1093 m 21 X s 2144 1124 m 10 X s 2144 1154 m 10 X s 2144 1184 m 10 X s 2144 1215 m 10 X s 2133 1245 m 21 X s 2144 1276 m 10 X s 2144 1306 m 10 X s 2144 1336 m 10 X s 2144 1367 m 10 X s 2133 1397 m 21 X s 2133 638 m 21
 X s 2144 607 m 10 X s 2144 577 m 10 X s 2144 547 m 10 X s 2144 516 m 10 X s 2133 1397 m 21 X s 2144 1427 m 10 X s 2144 1458 m 10 X s 2144 1488 m 10 X s 2144 1519 m 10 X s
 gsave  2268 1108 0 475 C 1313.98 1437.99 t 0 r /Helvetica findfont 56.1323 sf 0 0 m ( Data) show NC gr  1259 1463 m 7 Y s 1259 1440 m -8 Y s 1259 1451 m20
 gsave  2268 1108 0 475 C 1777.56 1437.99 t 0 r /Helvetica findfont 56.1323 sf 0 0 m ( Fakes \(MM\)) show NC gr  0.4 0.6 0.4 c 1682 1429 m 79 X 44 Y -79 X f black
 gsave  2268 1108 0 475 C 1402.56 1375.98 t 0 r /Helvetica findfont 56.1323 sf 0 0 m (single\255top) show NC gr 
 gsave  2268 1108 0 475 C 1373.03 1375.98 t 0 r /Helvetica-Oblique findfont 56.1323 sf 0 0 m (/) show NC gr 
 gsave  2268 1108 0 475 C 1352.36 1375.98 t 0 r /Helvetica-Oblique findfont 56.1323 sf 0 0 m (t) show NC gr  6 lw 1352 1420 m 21 X s
 gsave  2268 1108 0 475 C 1331.69 1375.98 t 0 r /Helvetica-Oblique findfont 56.1323 sf 0 0 m (t) show NC gr 
 gsave  2268 1108 0 475 C 1313.98 1375.98 t 0 r /Helvetica findfont 56.1323 sf 0 0 m ( ) show NC gr  0.06 0.54 0.06 c 3 lw 1219 1366 m 79 X 44 Y -79 X f 6 lw black
 gsave  2268 1108 0 475 C 1907.48 1375.98 t 0 r /Helvetica findfont 56.1323 sf 0 0 m (+jets) show NC gr 
 gsave  2268 1108 0 475 C 1795.28 1375.98 t 0 r /Helvetica-Oblique findfont 56.1323 sf 0 0 m (W/Z) show NC gr 
 gsave  2268 1108 0 475 C 1777.56 1375.98 t 0 r /Helvetica findfont 56.1323 sf 0 0 m ( ) show NC gr  1 0.653333 0 c 3 lw 1682 1366 m 79 X 44 Y -79 X f black
 gsave  2268 1108 0 475 C 1511.81 1311.02 t 0 r /Helvetica findfont 56.1323 sf 0 0 m (+jets) show NC gr 
 gsave  2268 1108 0 475 C 1331.69 1311.02 t 0 r /Helvetica-Oblique findfont 56.1323 sf 0 0 m (WZ/ZZ) show NC gr 
 gsave  2268 1108 0 475 C 1313.98 1311.02 t 0 r /Helvetica findfont 56.1323 sf 0 0 m ( ) show NC gr  0.413333 1 0 c 3 lw 1219 1303 m 79 X 44 Y -79 X f black
 gsave  2268 1108 0 475 C 1836.61 1311.02 t 0 r /Helvetica-Oblique findfont 56.1323 sf 0 0 m (Z) show NC gr 
 gsave  2268 1108 0 475 C 1815.94 1311.02 t 0 r /Helvetica-Oblique findfont 56.1323 sf 0 0 m (t) show NC gr  6 lw 1816 1355 m 21 X s
 gsave  2268 1108 0 475 C 1795.28 1311.02 t 0 r /Helvetica-Oblique findfont 56.1323 sf 0 0 m (t) show NC gr 
 gsave  2268 1108 0 475 C 1777.56 1311.02 t 0 r /Helvetica findfont 56.1323 sf 0 0 m ( ) show NC gr  0.6 0.2 1 c 3 lw 1682 1303 m 79 X 44 Y -79 X f 6 lw black
 gsave  2268 1108 0 475 C 1373.03 1249.02 t 0 r /Helvetica-Oblique findfont 56.1323 sf 0 0 m (W) show NC gr 
 gsave  2268 1108 0 475 C 1352.36 1249.02 t 0 r /Helvetica-Oblique findfont 56.1323 sf 0 0 m (t) show NC gr  6 lw 1352 1293 m 21 X s
 gsave  2268 1108 0 475 C 1331.69 1249.02 t 0 r /Helvetica-Oblique findfont 56.1323 sf 0 0 m (t) show NC gr 
 gsave  2268 1108 0 475 C 1313.98 1249.02 t 0 r /Helvetica findfont 56.1323 sf 0 0 m ( ) show NC gr  0.54 0.06 0.06 c 3 lw 1219 1239 m 79 X 45 Y -79 X f 6 lw black
 gsave  2268 1108 0 475 C 1795.28 1249.02 t 0 r /Helvetica-Oblique findfont 56.1323 sf 0 0 m (tZq) show NC gr 
 gsave  2268 1108 0 475 C 1777.56 1249.02 t 0 r /Helvetica findfont 56.1323 sf 0 0 m ( ) show NC gr  1 0 1 c 3 lw 1682 1239 m 79 X 45 Y -79 X f black
 gsave  2268 1108 0 475 C 1373.03 1184.06 t 0 r /Helvetica-Oblique findfont 56.1323 sf 0 0 m (H) show NC gr 
 gsave  2268 1108 0 475 C 1352.36 1184.06 t 0 r /Helvetica-Oblique findfont 56.1323 sf 0 0 m (t) show NC gr  6 lw 1352 1228 m 21 X s
 gsave  2268 1108 0 475 C 1331.69 1184.06 t 0 r /Helvetica-Oblique findfont 56.1323 sf 0 0 m (t) show NC gr 
 gsave  2268 1108 0 475 C 1313.98 1184.06 t 0 r /Helvetica findfont 56.1323 sf 0 0 m ( ) show NC gr  0 0 1 c 3 lw 1219 1176 m 79 X 44 Y -79 X f 6 lw black
 gsave  2268 1108 0 475 C 1795.28 1184.06 t 0 r /Helvetica-Oblique findfont 56.1323 sf 0 0 m (tWZ/tWH) show NC gr 
 gsave  2268 1108 0 475 C 1777.56 1184.06 t 0 r /Helvetica findfont 56.1323 sf 0 0 m ( ) show NC gr  0.2 0.8 0.8 c 3 lw 1682 1176 m 79 X 44 Y -79 X f black
 gsave  2268 1108 0 475 C 1331.69 1122.05 t 0 r /Helvetica-Oblique findfont 56.1323 sf 0 0 m (tHq) show NC gr 
 gsave  2268 1108 0 475 C 1313.98 1122.05 t 0 r /Helvetica findfont 56.1323 sf 0 0 m ( ) show NC gr  1 0 0 c 3 lw 1219 1113 m 79 X 44 Y -79 X f black
 gsave  2268 1108 0 475 C 1777.56 1122.05 t 0 r /Helvetica findfont 56.1323 sf 0 0 m ( Other) show NC gr  1 0.84 0 c 3 lw 1682 1113 m 79 X 44 Y -79 X f black
 gsave  2268 1108 0 475 C 1313.98 1060.04 t 0 r /Helvetica findfont 56.1323 sf 0 0 m ( Uncertainty) show NC gr  0.6 0.6 0.6 c 3 lw 1298 1060 m -10 -11 d s 1298 1079 m -30 -30 d s 1294 1094 m -45 -45 d s 1274 1094 m -44 -45 d s 1255 1094 m -36 -37 d s
 1236 1094 m -17 -17 d s 1 0.84 0 c 0.6 0.6 0.6 c black
 gsave  2268 1108 0 475 C 894.685 1337.6 t 0 r /Helvetica findfont 41.3606 sf 0 0 m (\2551) show NC gr 
 gsave  2268 1108 0 475 C 401.575 1308.07 t 0 r /Helvetica findfont 62.0409 sf 0 0 m ( = 13 TeV,  139 fb) show NC gr 
 gsave  2268 1108 0 475 C 372.047 1308.07 t 0 r /Helvetica findfont 62.0409 sf 0 0 m (s) show NC gr  6 lw 351 1344 m 6 -39 d s 3 lw 357 1305 m 9 56 d s 366 1361 m 36 X s
 gsave  2268 1108 0 475 C 339.567 1207.68 t 0 r /Helvetica findfont 62.0409 sf 0 0 m ( 2L\(SS\), CR\(fake\255el/mu\)) show NC gr 
 gsave  2268 1108 0 475 C 339.567 1405.51 t 0 r /Helvetica-BoldOblique findfont 73.8583 sf 0 0 m (ATLAS) show NC gr 
 gsave  2268 1108 0 475 C 634.843 1405.51 t 0 r /Helvetica findfont 73.8583 sf 0 0 m (Internal) show NC gr 
 gr  gr showpage
end
%%EOF
