%!PS-Adobe-2.0 EPSF-2.0
%%BoundingBox:  0 0 567 396
%%Title: /lhome/ific/c/cardillo/tHq/Plots/Plots-30-05-22-PLIV-SF/2LSS_MM/Ht_CRttbarEl.eps: Ht_CRttbarEl
%%Creator: ROOT Version 6.20/06
%%CreationDate: Tue May 31 15:04:50 2022
%%DocumentNeededResources: ProcSet (FontSetInit)
%%EndComments
%%BeginProlog
80 dict begin
/s {stroke} def /l {lineto} def /m {moveto} def /t {translate} def
/r {rotate} def /rl {roll}  def /R {repeat} def
/d {rlineto} def /rm {rmoveto} def /gr {grestore} def /f {eofill} def
/c {setrgbcolor} def /black {0 setgray} def /sd {setdash} def
/cl {closepath} def /sf {scalefont setfont} def /lw {setlinewidth} def
/box {m dup 0 exch d exch 0 d 0 exch neg d cl} def
/NC{systemdict begin initclip end}def/C{NC box clip newpath}def
/bl {box s} def /bf {gsave box gsave f grestore 1 lw [] 0 sd s grestore} def /Y { 0 exch d} def /X { 0 d} def 
/K {{pop pop 0 moveto} exch kshow} bind def
/ita {/ang 15 def gsave [1 0 ang dup sin exch cos div 1 0 0] concat} def 
/mp {newpath /y exch def /x exch def} def
/side {[w .77 mul w .23 mul] .385 w mul sd w 0 l currentpoint t -144 r} def
/mr {mp x y w2 0 360 arc} def /m24 {mr s} def /m20 {mr f} def
/mb {mp x y w2 add m w2 neg 0 d 0 w neg d w 0 d 0 w d cl} def
/mt {mp x y w2 add m w2 neg w neg d w 0 d cl} def
/w4 {w 4 div} def
/w6 {w 6 div} def
/w8 {w 8 div} def
/m21 {mb f} def /m25 {mb s} def /m22 {mt f} def /m26{mt s} def
/m23 {mp x y w2 sub m w2 w d w neg 0 d cl f} def
/m27 {mp x y w2 add m w3 neg w2 neg d w3 w2 neg d w3 w2 d cl s} def
/m28 {mp x w2 sub y w2 sub w3 add m w3 0 d  0 w3 neg d w3 0 d 0 w3 d w3 0 d  0 w3 d w3 neg 0 d 0 w3 d w3 neg 0 d 0 w3 neg d w3 neg 0 d cl s } def
/m29 {mp gsave x w2 sub y w2 add w3 sub m currentpoint t 4 {side} repeat cl fill gr} def
/m30 {mp gsave x w2 sub y w2 add w3 sub m currentpoint t 4 {side} repeat cl s gr} def
/m31 {mp x y w2 sub m 0 w d x w2 sub y m w 0 d x w2 sub y w2 add m w w neg d x w2 sub y w2 sub m w w d s} def
/m32 {mp x y w2 sub m w2 w d w neg 0 d cl s} def
/m33 {mp x y w2 add m w3 neg w2 neg d w3 w2 neg d w3 w2 d cl f} def
/m34 {mp x w2 sub y w2 sub w3 add m w3 0 d  0 w3 neg d w3 0 d 0 w3 d w3 0 d  0 w3 d w3 neg 0 d 0 w3 d w3 neg 0 d 0 w3 neg d w3 neg 0 d cl f } def
/m35 {mp x y w2 add m w2 neg w2 neg d w2 w2 neg d w2 w2 d w2 neg w2 d x y w2 sub m 0 w d x w2 sub y m w 0 d s} def
/m36 {mb x w2 sub y w2 add m w w neg d x w2 sub y w2 sub m w w d s} def
/m37 {mp x y m w4 neg w2 d w4 neg w2 neg d w2 0 d  w4 neg w2 neg d w2 0 d w4 neg w2 d w2 0 d w4 neg w2 d w4 neg w2 neg d cl s} def
/m38 {mp x w4 sub y w2 add m w4 neg w4 neg d 0 w2 neg d w4 w4 neg d w2 0 d w4 w4 d 0 w2 d w4 neg w4 d w2 neg 0 d x y w2 sub m 0 w d x w2 sub y m w 0 d cl s} def
/m39 {mp x y m w4 neg w2 d w4 neg w2 neg d w2 0 d  w4 neg w2 neg d w2 0 d w4 neg w2 d w2 0 d w4 neg w2 d w4 neg w2 neg d cl f} def
/m40 {mp x y m w4 w2 d w4 w4 neg d w2 neg w4 neg d w2 w4 neg d w4 neg w4 neg d w4 neg w2 d w4 neg w2 neg d w4 neg w4 d w2 w4 d w2 neg w4 d w4 w4 d w4 w2 neg d cl s} def
/m41 {mp x y m w4 w2 d w4 w4 neg d w2 neg w4 neg d w2 w4 neg d w4 neg w4 neg d w4 neg w2 d w4 neg w2 neg d w4 neg w4 d w2 w4 d w2 neg w4 d w4 w4 d w4 w2 neg d cl f} def
/m42 {mp x y w2 add m w8 neg w2 -3 4 div mul d w2 -3 4 div mul w8 neg d w2 3 4 div mul w8 neg d w8 w2 -3 4 div mul d w8 w2 3 4 div mul d w2 3 4 div mul w8 d w2 -3 4 div mul w8 d w8 neg w2 3 4 div mul d cl s} def
/m43 {mp x y w2 add m w8 neg w2 -3 4 div mul d w2 -3 4 div mul w8 neg d w2 3 4 div mul w8 neg d w8 w2 -3 4 div mul d w8 w2 3 4 div mul d w2 3 4 div mul w8 d w2 -3 4 div mul w8 d w8 neg w2 3 4 div mul d cl f} def
/m44 {mp x y m w6 neg w2 d w2 2 3 div mul 0 d w6 neg w2 neg d w2 w6 d 0 w2 -2 3 div mul d w2 neg w6 d w6 w2 neg d w2 -2 3 div mul 0 d w6 w2 d w2 neg w6 neg d 0 w2 2 3 div mul d w2 w6 neg d cl s} def
/m45 {mp x y m w6 neg w2 d w2 2 3 div mul 0 d w6 neg w2 neg d w2 w6 d 0 w2 -2 3 div mul d w2 neg w6 d w6 w2 neg d w2 -2 3 div mul 0 d w6 w2 d w2 neg w6 neg d 0 w2 2 3 div mul d w2 w6 neg d cl f} def
/m46 {mp x y w4 add m w4 neg w4 d w4 neg w4 neg d  w4 w4 neg d w4 neg w4 neg d w4 w4 neg d w4 w4 d w4 w4 neg d w4 w4 d w4 neg w4 d w4 w4 d w4 neg w4 d w4 neg w4 neg d cl s} def
/m47 {mp x y w4 add m w4 neg w4 d w4 neg w4 neg d w4 w4 neg d w4 neg w4 neg d  w4 w4 neg d w4 w4 d w4 w4 neg d w4 w4 d w4 neg w4 d w4 w4 d w4 neg w4 d w4 neg w4 neg d cl f} def
/m48 {mp x y w4 add m w4 neg w4 d w4 neg w4 neg d w4 w4 neg d  w4 neg w4 neg d w4 w4 neg d w4 w4 d w4 w4 neg d w4 w4 d w4 neg w4 d w4 w4 d w4 neg w4 d w4 neg w4 neg d  w4 w4 neg d w4 neg w4 neg d w4 neg w4 d w4 w4 d cl f} def
/m49 {mp x w2 sub w3 add y w2 sub w3 add m  0 w3 neg d w3 0 d 0 w3 d w3 0 d 0 w3 d w3 neg 0 d 0 w3 d w3 neg 0 d 0 w3 neg d w3 neg 0 d 0 w3 neg d w3 0 d 0 w3 d w3 0 d 0 w3 neg d w3 neg 0 d cl f } def
/m2 {mp x y w2 sub m 0 w d x w2 sub y m w 0 d s} def
/m5 {mp x w2 sub y w2 sub m w w d x w2 sub y w2 add m w w neg d s} def
%%IncludeResource: ProcSet (FontSetInit)
%%IncludeResource: font Times-Roman
%%IncludeResource: font Times-Italic
%%IncludeResource: font Times-Bold
%%IncludeResource: font Times-BoldItalic
%%IncludeResource: font Helvetica
%%IncludeResource: font Helvetica-Oblique
%%IncludeResource: font Helvetica-Bold
%%IncludeResource: font Helvetica-BoldOblique
%%IncludeResource: font Courier
%%IncludeResource: font Courier-Oblique
%%IncludeResource: font Courier-Bold
%%IncludeResource: font Courier-BoldOblique
%%IncludeResource: font Symbol
%%IncludeResource: font ZapfDingbats
/reEncode {exch findfont dup length dict begin {1 index /FID eq  {pop pop} {def} ifelse } forall /Encoding exch def currentdict end dup /FontName get exch definefont pop } def [/Times-Bold /Times-Italic /Times-BoldItalic /Helvetica /Helvetica-Oblique
 /Helvetica-Bold /Helvetica-BoldOblique /Courier /Courier-Oblique /Courier-Bold /Courier-BoldOblique /Times-Roman /AvantGarde-Book /AvantGarde-BookOblique /AvantGarde-Demi /AvantGarde-DemiOblique /Bookman-Demi /Bookman-DemiItalic /Bookman-Light
 /Bookman-LightItalic /Helvetica-Narrow /Helvetica-Narrow-Bold /Helvetica-Narrow-BoldOblique /Helvetica-Narrow-Oblique /NewCenturySchlbk-Roman /NewCenturySchlbk-Bold /NewCenturySchlbk-BoldItalic /NewCenturySchlbk-Italic /Palatino-Bold
 /Palatino-BoldItalic /Palatino-Italic /Palatino-Roman ] {ISOLatin1Encoding reEncode } forall
%%EndProlog
%%BeginSetup
%%EndSetup
newpath  gsave  .25 .25 scale  gsave  0 0 t black[  ] 0 sd 3 lw 1 1 1 c 2268 1583 0 0 bf black 1 1 1 c 2268 475 0 0 bf black 1 1 1 c 1927 275 227 190 bf black 1927 275 227 190 bl 227 190 m 1927 X s 227 202 m -12 Y s 282 196 m -6 Y s 337 196 m -6 Y s
 392 196 m -6 Y s 447 196 m -6 Y s 502 202 m -12 Y s 557 196 m -6 Y s 612 196 m -6 Y s 667 196 m -6 Y s 722 196 m -6 Y s 778 202 m -12 Y s 833 196 m -6 Y s 888 196 m -6 Y s 943 196 m -6 Y s 998 196 m -6 Y s 1053 202 m -12 Y s 1108 196 m -6 Y s 1163
 196 m -6 Y s 1218 196 m -6 Y s 1273 196 m -6 Y s 1328 202 m -12 Y s 1383 196 m -6 Y s 1438 196 m -6 Y s 1493 196 m -6 Y s 1549 196 m -6 Y s 1604 202 m -12 Y s 1659 196 m -6 Y s 1714 196 m -6 Y s 1769 196 m -6 Y s 1824 196 m -6 Y s 1879 202 m -12 Y s
 1934 196 m -6 Y s 1989 196 m -6 Y s 2044 196 m -6 Y s 2099 196 m -6 Y s 2154 202 m -12 Y s
 gsave  2268 475 0 0 C 180.118 126.968 t 0 r /Helvetica findfont 53.4154 sf 0 0 m (300) show NC gr 
 gsave  2268 475 0 0 C 457.677 126.968 t 0 r /Helvetica findfont 53.4154 sf 0 0 m (400) show NC gr 
 gsave  2268 475 0 0 C 732.283 126.968 t 0 r /Helvetica findfont 53.4154 sf 0 0 m (500) show NC gr 
 gsave  2268 475 0 0 C 1006.89 126.968 t 0 r /Helvetica findfont 53.4154 sf 0 0 m (600) show NC gr 
 gsave  2268 475 0 0 C 1281.5 126.968 t 0 r /Helvetica findfont 53.4154 sf 0 0 m (700) show NC gr 
 gsave  2268 475 0 0 C 1559.06 126.968 t 0 r /Helvetica findfont 53.4154 sf 0 0 m (800) show NC gr 
 gsave  2268 475 0 0 C 1833.66 126.968 t 0 r /Helvetica findfont 53.4154 sf 0 0 m (900) show NC gr 
 gsave  2268 475 0 0 C 2093.5 126.968 t 0 r /Helvetica findfont 53.4154 sf 0 0 m (1000) show NC gr 
 gsave  2268 475 0 0 C 1996.06 47.2441 t 0 r /Helvetica findfont 56.3829 sf 0 0 m ( [GeV]) show NC gr 
 gsave  2268 475 0 0 C 1972.44 29.5276 t 0 r /Helvetica findfont 38.5778 sf 0 0 m (T) show NC gr 
 gsave  2268 475 0 0 C 1925.2 47.2441 t 0 r /Helvetica-Oblique findfont 56.3829 sf 0 0 m (H) show NC gr  227 465 m 1927 X s 227 453 m 12 Y s 282 459 m 6 Y s 337 459 m 6 Y s 392 459 m 6 Y s 447 459 m 6 Y s 502 453 m 12 Y s 557 459 m 6 Y s 612 459 m 6
 Y s 667 459 m 6 Y s 722 459 m 6 Y s 778 453 m 12 Y s 833 459 m 6 Y s 888 459 m 6 Y s 943 459 m 6 Y s 998 459 m 6 Y s 1053 453 m 12 Y s 1108 459 m 6 Y s 1163 459 m 6 Y s 1218 459 m 6 Y s 1273 459 m 6 Y s 1328 453 m 12 Y s 1383 459 m 6 Y s 1438 459 m
 6 Y s 1493 459 m 6 Y s 1549 459 m 6 Y s 1604 453 m 12 Y s 1659 459 m 6 Y s 1714 459 m 6 Y s 1769 459 m 6 Y s 1824 459 m 6 Y s 1879 453 m 12 Y s 1934 459 m 6 Y s 1989 459 m 6 Y s 2044 459 m 6 Y s 2099 459 m 6 Y s 2154 453 m 12 Y s 227 190 m 275 Y s
 240 242 m -13 X s 240 328 m -13 X s 240 414 m -13 X s 240 242 m -13 X s 240 414 m -13 X s
 gsave  2268 475 0 0 C 118.11 221.457 t 0 r /Helvetica findfont 53.4154 sf 0 0 m (0.5) show NC gr 
 gsave  2268 475 0 0 C 171.26 307.087 t 0 r /Helvetica findfont 53.4154 sf 0 0 m (1) show NC gr 
 gsave  2268 475 0 0 C 118.11 395.669 t 0 r /Helvetica findfont 53.4154 sf 0 0 m (1.5) show NC gr 
 gsave  2268 475 0 0 C 70.8661 233.268 t 90 r /Helvetica findfont 53.4154 sf 0 0 m (Data / SM) show NC gr  2154 190 m 275 Y s 2141 242 m 13 X s 2141 328 m 13 X s 2141 414 m 13 X s 2141 242 m 13 X s 2141 414 m 13 X s 227 190 m 1927 X s 227 465 m 1927
 X s 227 190 m 275 Y s[ 4 8] 0 sd 2154 242 m -1927 X s 2154 328 m -1927 X s 2154 414 m -1927 X s 2154 242 m -1927 X s 2154 414 m -1927 X s[  ] 0 sd 2154 190 m 275 Y s 1 1 0.6 c 137 0 227 328 bf 138 0 364 328 bf 138 0 502 328 bf 138 0 640 328 bf 137 0
 778 328 bf 138 0 915 328 bf 138 0 1053 328 bf 137 0 1191 328 bf 138 0 1328 328 bf 138 0 1466 328 bf 137 0 1604 328 bf 138 0 1741 328 bf 138 0 1879 328 bf 137 0 2017 328 bf black 0.6 0.6 0.6 c 364 328 m -4 -4 d s 349 332 m -8 -8 d s 330 332 m -8 -8 d
 s 311 332 m -8 -8 d s 292 332 m -9 -8 d s 272 332 m -8 -8 d s 253 332 m -8 -8 d s 234 332 m -7 -7 d s 502 331 m -8 -8 d s 485 333 m -10 -10 d s 466 333 m -10 -10 d s 447 333 m -11 -10 d s 427 333 m -10 -10 d s 408 333 m -10 -10 d s 389 333 m -10 -10
 d s 370 333 m -6 -5 d s 640 334 m -12 -13 d s 621 334 m -12 -13 d s 601 334 m -12 -13 d s 582 334 m -12 -13 d s 563 334 m -12 -13 d s 544 334 m -12 -13 d s 524 334 m -12 -13 d s 505 334 m -3 -3 d s 776 336 m -15 -16 d s 757 336 m -16 -16 d s 738 336
 m -16 -16 d s 719 336 m -16 -16 d s 699 336 m -15 -16 d s 680 336 m -16 -16 d s 661 336 m -16 -16 d s 642 336 m -2 -2 d s 915 320 m -1 -1 d s 912 336 m -17 -17 d s 892 336 m -16 -17 d s 873 336 m -16 -17 d s 854 336 m -17 -17 d s 835 336 m -17 -17 d
 s 815 336 m -16 -17 d s 796 336 m -16 -17 d s 1053 323 m -6 -6 d s 1049 338 m -22 -21 d s 1029 338 m -21 -21 d s 1010 338 m -21 -21 d s 991 338 m -21 -21 d s 972 338 m -22 -21 d s 952 338 m -21 -21 d s 933 338 m -18 -18 d s 1191 326 m -12 -11 d s
 1185 340 m -25 -25 d s 1166 340 m -25 -25 d s 1147 340 m -25 -25 d s 1127 340 m -25 -25 d s 1108 340 m -25 -25 d s 1089 340 m -25 -25 d s 1070 340 m -17 -17 d s 1328 329 m -16 -16 d s 1321 342 m -28 -29 d s 1302 342 m -28 -29 d s 1283 342 m -28 -29
 d s 1264 342 m -28 -29 d s 1244 342 m -28 -29 d s 1225 342 m -28 -29 d s 1206 342 m -15 -16 d s 1466 313 m -4 -4 d s 1466 332 m -23 -23 d s 1460 346 m -36 -37 d s 1441 346 m -37 -37 d s 1422 346 m -37 -37 d s 1403 346 m -37 -37 d s 1384 346 m -37
 -37 d s 1364 346 m -36 -36 d s 1345 346 m -17 -17 d s 1604 316 m -8 -7 d s 1604 335 m -27 -26 d s 1596 347 m -38 -38 d s 1576 347 m -37 -38 d s 1557 347 m -38 -38 d s 1538 347 m -38 -38 d s 1519 347 m -38 -38 d s 1499 347 m -33 -34 d s 1480 347 m
 -14 -15 d s 1741 319 m -12 -13 d s 1741 338 m -32 -32 d s 1733 349 m -43 -43 d s 1713 349 m -42 -43 d s 1694 349 m -42 -43 d s 1675 349 m -43 -43 d s 1656 349 m -43 -43 d s 1636 349 m -32 -33 d s 1617 349 m -13 -14 d s 1879 322 m -12 -12 d s 1879
 341 m -31 -31 d s 1864 345 m -35 -35 d s 1844 345 m -35 -35 d s 1825 345 m -35 -35 d s 1806 345 m -35 -35 d s 1787 345 m -35 -35 d s 1767 345 m -26 -26 d s 1748 345 m -7 -7 d s 2017 306 m -12 -12 d s 2017 325 m -31 -31 d s 2017 344 m -50 -50 d s
 2014 361 m -66 -67 d s 1995 361 m -67 -67 d s 1976 361 m -67 -67 d s 1956 361 m -66 -67 d s 1937 361 m -58 -58 d s 1918 361 m -39 -39 d s 1899 361 m -20 -20 d s 1879 361 m s 2154 328 m -8 -8 d s 2143 335 m -16 -15 d s 2123 335 m -15 -15 d s 2104 335
 m -16 -15 d s 2085 335 m -16 -15 d s 2066 335 m -16 -15 d s 2046 335 m -15 -15 d s 2027 335 m -10 -10 d s black 1 1 1 c black 296 305 m 6 Y s 296 335 m 7 Y s /w 26 def /w2 {w 2 div} def /w3 {w 3 div} def 296 323 m20 433 308 m 12 Y s 433 343 m 12 Y s
 433 332 m20 571 298 m 17 Y s 571 339 m 17 Y s 571 327 m20 709 302 m 26 Y s 709 351 m 26 Y s 709 339 m20 846 281 m 34 Y s 846 338 m 34 Y s 846 327 m20 984 237 m 33 Y s 984 293 m 33 Y s 984 281 m20 1122 246 m 50 Y s 1122 320 m 50 Y s 1122 308 m20 1259
 301 m 77 Y s 1259 402 m 63 Y s 1259 390 m20 1397 190 m 41 Y s 1397 255 m 50 Y s 1397 243 m20 1535 199 m 94 Y s 1535 317 m 93 Y s 1535 305 m20 1672 223 m 150 Y s 1672 396 m 69 Y s 1672 385 m20 2085 190 m 13 Y s 2085 227 m 48 Y s 2085 215 m20 227 328
 m 1927 X s 227 190 m 1927 X s 227 202 m -12 Y s 282 196 m -6 Y s 337 196 m -6 Y s 392 196 m -6 Y s 447 196 m -6 Y s 502 202 m -12 Y s 557 196 m -6 Y s 612 196 m -6 Y s 667 196 m -6 Y s 722 196 m -6 Y s 778 202 m -12 Y s 833 196 m -6 Y s 888 196 m -6
 Y s 943 196 m -6 Y s 998 196 m -6 Y s 1053 202 m -12 Y s 1108 196 m -6 Y s 1163 196 m -6 Y s 1218 196 m -6 Y s 1273 196 m -6 Y s 1328 202 m -12 Y s 1383 196 m -6 Y s 1438 196 m -6 Y s 1493 196 m -6 Y s 1549 196 m -6 Y s 1604 202 m -12 Y s 1659 196 m
 -6 Y s 1714 196 m -6 Y s 1769 196 m -6 Y s 1824 196 m -6 Y s 1879 202 m -12 Y s 1934 196 m -6 Y s 1989 196 m -6 Y s 2044 196 m -6 Y s 2099 196 m -6 Y s 2154 202 m -12 Y s 227 465 m 1927 X s 227 453 m 12 Y s 282 459 m 6 Y s 337 459 m 6 Y s 392 459 m
 6 Y s 447 459 m 6 Y s 502 453 m 12 Y s 557 459 m 6 Y s 612 459 m 6 Y s 667 459 m 6 Y s 722 459 m 6 Y s 778 453 m 12 Y s 833 459 m 6 Y s 888 459 m 6 Y s 943 459 m 6 Y s 998 459 m 6 Y s 1053 453 m 12 Y s 1108 459 m 6 Y s 1163 459 m 6 Y s 1218 459 m 6
 Y s 1273 459 m 6 Y s 1328 453 m 12 Y s 1383 459 m 6 Y s 1438 459 m 6 Y s 1493 459 m 6 Y s 1549 459 m 6 Y s 1604 453 m 12 Y s 1659 459 m 6 Y s 1714 459 m 6 Y s 1769 459 m 6 Y s 1824 459 m 6 Y s 1879 453 m 12 Y s 1934 459 m 6 Y s 1989 459 m 6 Y s 2044
 459 m 6 Y s 2099 459 m 6 Y s 2154 453 m 12 Y s 227 190 m 275 Y s 240 242 m -13 X s 240 328 m -13 X s 240 414 m -13 X s 240 242 m -13 X s 240 414 m -13 X s 2154 190 m 275 Y s 2141 242 m 13 X s 2141 328 m 13 X s 2141 414 m 13 X s 2141 242 m 13 X s
 2141 414 m 13 X s 1 1 1 c 2268 1108 0 475 bf black 1 1 1 c 1927 1041 227 486 bf black 1927 1041 227 486 bl 1 1 1 c black 3 lw 227 486 m 1927 X s 227 505 m -19 Y s 282 495 m -9 Y s 337 495 m -9 Y s 392 495 m -9 Y s 447 495 m -9 Y s 502 505 m -19 Y s
 557 495 m -9 Y s 612 495 m -9 Y s 667 495 m -9 Y s 722 495 m -9 Y s 778 505 m -19 Y s 833 495 m -9 Y s 888 495 m -9 Y s 943 495 m -9 Y s 998 495 m -9 Y s 1053 505 m -19 Y s 1108 495 m -9 Y s 1163 495 m -9 Y s 1218 495 m -9 Y s 1273 495 m -9 Y s 1328
 505 m -19 Y s 1383 495 m -9 Y s 1438 495 m -9 Y s 1493 495 m -9 Y s 1549 495 m -9 Y s 1604 505 m -19 Y s 1659 495 m -9 Y s 1714 495 m -9 Y s 1769 495 m -9 Y s 1824 495 m -9 Y s 1879 505 m -19 Y s 1934 495 m -9 Y s 1989 495 m -9 Y s 2044 495 m -9 Y s
 2099 495 m -9 Y s 2154 505 m -19 Y s
 gsave  2268 1108 0 475 C 2061.02 404.528 t 0 r /Helvetica findfont 32.4976 sf 0 0 m ( [GeV]) show NC gr 
 gsave  2268 1108 0 475 C 2046.26 392.717 t 0 r /Helvetica findfont 20.6803 sf 0 0 m (T) show NC gr 
 gsave  2268 1108 0 475 C 2019.69 404.528 t 0 r /Helvetica-Oblique findfont 32.4976 sf 0 0 m (H) show NC gr  227 1527 m 1927 X s 227 1508 m 19 Y s 282 1518 m 9 Y s 337 1518 m 9 Y s 392 1518 m 9 Y s 447 1518 m 9 Y s 502 1508 m 19 Y s 557 1518 m 9 Y s
 612 1518 m 9 Y s 667 1518 m 9 Y s 722 1518 m 9 Y s 778 1508 m 19 Y s 833 1518 m 9 Y s 888 1518 m 9 Y s 943 1518 m 9 Y s 998 1518 m 9 Y s 1053 1508 m 19 Y s 1108 1518 m 9 Y s 1163 1518 m 9 Y s 1218 1518 m 9 Y s 1273 1518 m 9 Y s 1328 1508 m 19 Y s
 1383 1518 m 9 Y s 1438 1518 m 9 Y s 1493 1518 m 9 Y s 1549 1518 m 9 Y s 1604 1508 m 19 Y s 1659 1518 m 9 Y s 1714 1518 m 9 Y s 1769 1518 m 9 Y s 1824 1518 m 9 Y s 1879 1508 m 19 Y s 1934 1518 m 9 Y s 1989 1518 m 9 Y s 2044 1518 m 9 Y s 2099 1518 m 9
 Y s 2154 1508 m 19 Y s 227 486 m 1041 Y s 248 616 m -21 X s 237 649 m -10 X s 237 681 m -10 X s 237 714 m -10 X s 248 746 m -21 X s 237 779 m -10 X s 237 811 m -10 X s 237 844 m -10 X s 248 876 m -21 X s 237 909 m -10 X s 237 941 m -10 X s 237 974 m
 -10 X s 248 1007 m -21 X s 237 1039 m -10 X s 237 1072 m -10 X s 237 1104 m -10 X s 248 1137 m -21 X s 237 1169 m -10 X s 237 1202 m -10 X s 237 1234 m -10 X s 248 1267 m -21 X s 237 1299 m -10 X s 237 1332 m -10 X s 237 1365 m -10 X s 248 1397 m
 -21 X s 237 1430 m -10 X s 237 1462 m -10 X s 237 1495 m -10 X s 248 1527 m -21 X s 248 616 m -21 X s 237 583 m -10 X s 237 551 m -10 X s 237 518 m -10 X s 248 1527 m -21 X s
 gsave  2268 1108 0 475 C 141.732 596.457 t 0 r /Helvetica findfont 53.178 sf 0 0 m (20) show NC gr 
 gsave  2268 1108 0 475 C 141.732 726.378 t 0 r /Helvetica findfont 53.178 sf 0 0 m (40) show NC gr 
 gsave  2268 1108 0 475 C 141.732 856.299 t 0 r /Helvetica findfont 53.178 sf 0 0 m (60) show NC gr 
 gsave  2268 1108 0 475 C 141.732 986.22 t 0 r /Helvetica findfont 53.178 sf 0 0 m (80) show NC gr 
 gsave  2268 1108 0 475 C 112.205 1116.14 t 0 r /Helvetica findfont 53.178 sf 0 0 m (100) show NC gr 
 gsave  2268 1108 0 475 C 112.205 1249.02 t 0 r /Helvetica findfont 53.178 sf 0 0 m (120) show NC gr 
 gsave  2268 1108 0 475 C 112.205 1378.94 t 0 r /Helvetica findfont 53.178 sf 0 0 m (140) show NC gr 
 gsave  2268 1108 0 475 C 112.205 1508.86 t 0 r /Helvetica findfont 53.178 sf 0 0 m (160) show NC gr 
 gsave  2268 1108 0 475 C 64.9606 1142.72 t 90 r /Helvetica findfont 53.178 sf 0 0 m (Events / 50 GeV) show NC gr  2154 486 m 1041 Y s 2133 616 m 21 X s 2144 649 m 10 X s 2144 681 m 10 X s 2144 714 m 10 X s 2133 746 m 21 X s 2144 779 m 10 X s 2144
 811 m 10 X s 2144 844 m 10 X s 2133 876 m 21 X s 2144 909 m 10 X s 2144 941 m 10 X s 2144 974 m 10 X s 2133 1007 m 21 X s 2144 1039 m 10 X s 2144 1072 m 10 X s 2144 1104 m 10 X s 2133 1137 m 21 X s 2144 1169 m 10 X s 2144 1202 m 10 X s 2144 1234 m
 10 X s 2133 1267 m 21 X s 2144 1299 m 10 X s 2144 1332 m 10 X s 2144 1365 m 10 X s 2133 1397 m 21 X s 2144 1430 m 10 X s 2144 1462 m 10 X s 2144 1495 m 10 X s 2133 1527 m 21 X s 2133 616 m 21 X s 2144 583 m 10 X s 2144 551 m 10 X s 2144 518 m 10 X s
 2133 1527 m 21 X s 0.4 0.6 0.4 c black 3 lw 0.4 0.6 0.4 c 227 486 m 548 Y 137 X -192 Y 138 X -127 Y 138 X -83 Y 138 X -54 Y 137 X -21 Y 138 X -27 Y 138 X -11 Y 137 X -8 Y 138 X -10 Y 138 X -5 Y 137 X -4 Y 276 X 13 Y 137 X -19 Y f 0.06 0.54 0.06 c
 0.999 0.999 0.999 c black 3 lw 0.999 0.999 0.999 c 227 486 m 372 Y 137 X -116 Y 138 X -87 Y 138 X -68 Y 138 X -34 Y 137 X -14 Y 138 X -17 Y 138 X -9 Y 137 X -6 Y 138 X -10 Y 138 X -4 Y 137 X -2 Y 276 X 11 Y 137 X -16 Y f 0.06 0.54 0.06 c 0.999 0.999
 0.999 c 0.06 0.54 0.06 c 1 1 1 c black 0.06 0.54 0.06 c black 3 lw 0.06 0.54 0.06 c 227 486 m 372 Y 137 X -116 Y 138 X -87 Y 138 X -68 Y 138 X -34 Y 137 X -14 Y 138 X -17 Y 138 X -9 Y 137 X -6 Y 138 X -10 Y 138 X -4 Y 137 X -2 Y 276 X 11 Y 137 X -16
 Y f 1 0.653333 0 c 0.999 0.999 0.999 c black 3 lw 0.999 0.999 0.999 c 227 486 m 223 Y 137 X -66 Y 138 X -50 Y 138 X -31 Y 138 X -26 Y 137 X -15 Y 138 X -9 Y 138 X -6 Y 137 X -7 Y 138 X -4 Y 138 X -3 Y 137 X -1 Y 138 X -1 Y 138 X 9 Y 137 X -13 Y f 1
 0.653333 0 c 0.999 0.999 0.999 c 1 0.653333 0 c 1 1 1 c black 1 0.653333 0 c black 3 lw 1 0.653333 0 c 227 486 m 223 Y 137 X -66 Y 138 X -50 Y 138 X -31 Y 138 X -26 Y 137 X -15 Y 138 X -9 Y 138 X -6 Y 137 X -7 Y 138 X -4 Y 138 X -3 Y 137 X -1 Y 138
 X -1 Y 138 X 9 Y 137 X -13 Y f 0.413333 1 0 c 0.999 0.999 0.999 c black 3 lw 0.999 0.999 0.999 c 227 486 m 216 Y 137 X -64 Y 138 X -46 Y 138 X -31 Y 138 X -26 Y 137 X -14 Y 138 X -9 Y 138 X -6 Y 137 X -7 Y 138 X -4 Y 138 X -3 Y 137 X -1 Y 138 X -1 Y
 138 X 9 Y 137 X -13 Y f 0.413333 1 0 c 0.999 0.999 0.999 c 0.413333 1 0 c 1 1 1 c black 0.413333 1 0 c black 3 lw 0.413333 1 0 c 227 486 m 216 Y 137 X -64 Y 138 X -46 Y 138 X -31 Y 138 X -26 Y 137 X -14 Y 138 X -9 Y 138 X -6 Y 137 X -7 Y 138 X -4 Y
 138 X -3 Y 137 X -1 Y 138 X -1 Y 138 X 9 Y 137 X -13 Y f 0.6 0.2 1 c 0.999 0.999 0.999 c black 3 lw 0.999 0.999 0.999 c 227 486 m 191 Y 137 X -54 Y 138 X -40 Y 138 X -28 Y 138 X -23 Y 137 X -13 Y 138 X -10 Y 138 X -5 Y 137 X -6 Y 138 X -4 Y 138 X -2
 Y 137 X -2 Y 138 X -1 Y 138 X 8 Y 137 X -11 Y f 0.6 0.2 1 c 0.999 0.999 0.999 c 0.6 0.2 1 c 1 1 1 c black 0.6 0.2 1 c black 3 lw 0.6 0.2 1 c 227 486 m 191 Y 137 X -54 Y 138 X -40 Y 138 X -28 Y 138 X -23 Y 137 X -13 Y 138 X -10 Y 138 X -5 Y 137 X -6
 Y 138 X -4 Y 138 X -2 Y 137 X -2 Y 138 X -1 Y 138 X 8 Y 137 X -11 Y f 0.54 0.06 0.06 c 0.999 0.999 0.999 c black 3 lw 0.999 0.999 0.999 c 227 486 m 158 Y 137 X -48 Y 138 X -32 Y 138 X -22 Y 138 X -20 Y 137 X -10 Y 138 X -9 Y 138 X -3 Y 137 X -4 Y
 138 X -4 Y 138 X -1 Y 137 X -1 Y 138 X -1 Y 138 X 6 Y 137 X -9 Y f 0.54 0.06 0.06 c 0.999 0.999 0.999 c 0.54 0.06 0.06 c 1 1 1 c black 0.54 0.06 0.06 c black 3 lw 0.54 0.06 0.06 c 227 486 m 158 Y 137 X -48 Y 138 X -32 Y 138 X -22 Y 138 X -20 Y 137 X
 -10 Y 138 X -9 Y 138 X -3 Y 137 X -4 Y 138 X -4 Y 138 X -1 Y 137 X -1 Y 138 X -1 Y 138 X 6 Y 137 X -9 Y f 1 0 1 c 0.999 0.999 0.999 c black 3 lw 0.999 0.999 0.999 c 227 486 m 48 Y 137 X -13 Y 138 X -11 Y 138 X -3 Y 138 X -10 Y 137 X -4 Y 138 X -1 Y
 138 X -2 Y 137 X -1 Y 138 X -1 Y 138 X -1 Y 413 X 2 Y 137 X -3 Y f 1 0 1 c 0.999 0.999 0.999 c 1 0 1 c 1 1 1 c black 1 0 1 c black 3 lw 1 0 1 c 227 486 m 48 Y 137 X -13 Y 138 X -11 Y 138 X -3 Y 138 X -10 Y 137 X -4 Y 138 X -1 Y 138 X -2 Y 137 X -1 Y
 138 X -1 Y 138 X -1 Y 413 X 2 Y 137 X -3 Y f 0 0 1 c 0.999 0.999 0.999 c black 3 lw 0.999 0.999 0.999 c 227 486 m 31 Y 137 X -7 Y 138 X -8 Y 276 X -8 Y 137 X -3 Y 138 X -1 Y 138 X -1 Y 137 X -1 Y 138 X -1 Y 413 X -1 Y 138 X 2 Y 137 X -2 Y f 0 0 1 c
 0.999 0.999 0.999 c 0 0 1 c 1 1 1 c black 0 0 1 c black 3 lw 0 0 1 c 227 486 m 31 Y 137 X -7 Y 138 X -8 Y 276 X -8 Y 137 X -3 Y 138 X -1 Y 138 X -1 Y 137 X -1 Y 138 X -1 Y 413 X -1 Y 138 X 2 Y 137 X -2 Y f 0.2 0.8 0.8 c 0.999 0.999 0.999 c black 3
 lw 0.999 0.999 0.999 c 227 486 m 6 Y 137 X -2 Y 138 X -2 Y 138 X 4 Y 138 X -5 Y 413 X -1 Y 826 X 1 Y 137 X -1 Y f 0.2 0.8 0.8 c 0.999 0.999 0.999 c 0.2 0.8 0.8 c 1 1 1 c black 0.2 0.8 0.8 c black 3 lw 0.2 0.8 0.8 c 227 486 m 6 Y 137 X -2 Y 138 X -2
 Y 138 X 4 Y 138 X -5 Y 413 X -1 Y 826 X 1 Y 137 X -1 Y f 1 0 0 c 0.999 0.999 0.999 c black 3 lw 0.999 0.999 0.999 c 227 486 m 1 Y 413 X 3 Y 138 X -4 Y 1376 X f 1 0 0 c 0.999 0.999 0.999 c 1 0 0 c 1 1 1 c black 1 0 0 c black 3 lw 1 0 0 c 227 486 m 1
 Y 413 X 3 Y 138 X -4 Y 1376 X f 1 0.84 0 c 0.999 0.999 0.999 c black 3 lw 0.999 0.999 0.999 c 227 486 m 413 X 4 Y 138 X -4 Y 1376 X f 1 0.84 0 c 0.999 0.999 0.999 c 1 0.84 0 c 1 1 1 c black 1 0.84 0 c black 3 lw 1 0.84 0 c 227 486 m 413 X 4 Y 138 X
 -4 Y 1376 X f black 1 1 1 c black 0.6 0.6 0.6 c 3 lw 364 1030 m -9 -9 d s 362 1047 m -26 -26 d s 342 1047 m -26 -26 d s 323 1047 m -26 -26 d s 304 1047 m -26 -26 d s 285 1047 m -26 -26 d s 265 1047 m -25 -26 d s 246 1047 m -19 -19 d s 227 1047 m s 3
 lw 502 841 m -10 -9 d s 494 853 m -21 -21 d s 475 853 m -21 -21 d s 456 853 m -21 -21 d s 437 853 m -22 -21 d s 417 853 m -21 -21 d s 398 853 m -21 -21 d s 379 853 m -15 -15 d s 3 lw 640 710 m -4 -3 d s 634 723 m -17 -16 d s 614 723 m -16 -16 d s
 595 723 m -16 -16 d s 576 723 m -17 -16 d s 557 723 m -17 -16 d s 537 723 m -16 -16 d s 518 723 m -16 -16 d s 3 lw 778 636 m -12 -11 d s 761 639 m -14 -14 d s 742 639 m -14 -14 d s 722 639 m -13 -14 d s 703 639 m -13 -14 d s 684 639 m -14 -14 d s
 665 639 m -14 -14 d s 645 639 m -5 -6 d s 3 lw 915 582 m -8 -9 d s 896 582 m -9 -9 d s 877 582 m -9 -9 d s 858 582 m -9 -9 d s 839 582 m -9 -9 d s 819 582 m -9 -9 d s 800 582 m -9 -9 d s 781 582 m -3 -3 d s 3 lw 1049 561 m -9 -8 d s 1030 561 m -9 -8
 d s 1010 561 m -8 -8 d s 991 561 m -9 -8 d s 972 561 m -9 -8 d s 953 561 m -9 -8 d s 933 561 m -8 -8 d s 3 lw 1191 530 m -4 -3 d s 1175 533 m -7 -6 d s 1155 533 m -6 -6 d s 1136 533 m -6 -6 d s 1117 533 m -7 -6 d s 1098 533 m -7 -6 d s 1078 533 m -6
 -6 d s 1059 533 m -6 -6 d s 3 lw 1317 522 m -5 -5 d s 1298 522 m -5 -5 d s 1279 522 m -6 -5 d s 1260 522 m -6 -5 d s 1240 522 m -5 -5 d s 1221 522 m -5 -5 d s 1202 522 m -6 -5 d s 3 lw 1463 514 m -5 -5 d s 1444 514 m -5 -5 d s 1425 514 m -6 -5 d s
 1406 514 m -6 -5 d s 1386 514 m -5 -5 d s 1367 514 m -5 -5 d s 1348 514 m -6 -5 d s 1329 514 m -1 X s 3 lw 1604 500 m -2 -1 d s 1586 502 m -3 -3 d s 1567 502 m -3 -3 d s 1548 502 m -3 -3 d s 1529 502 m -4 -3 d s 1509 502 m -3 -3 d s 1490 502 m -3 -3
 d s 1471 502 m -3 -3 d s 3 lw 1735 497 m -3 -3 d s 1715 497 m -2 -3 d s 1696 497 m -2 -3 d s 1677 497 m -3 -3 d s 1658 497 m -3 -3 d s 1638 497 m -2 -3 d s 1619 497 m -2 -3 d s 3 lw 1865 493 m -1 -2 d s 1846 493 m -1 -2 d s 1827 493 m -2 -2 d s 1808
 493 m -2 -2 d s 1788 493 m -1 -2 d s 1769 493 m -1 -2 d s 1750 493 m -1 -2 d s 3 lw 2001 493 m -3 -2 d s 1981 493 m -2 -2 d s 1962 493 m -2 -2 d s 1943 493 m -3 -2 d s 1924 493 m -3 -2 d s 1904 493 m -2 -2 d s 1885 493 m -2 -2 d s 3 lw 2147 505 m -1
 -1 d s 2128 505 m -2 -1 d s 2109 505 m -2 -1 d s 2090 505 m -2 -1 d s 2070 505 m -1 -1 d s 2051 505 m -2 -1 d s 2032 505 m -2 -1 d s black 3 lw 1 1 1 c black 296 961 m 47 Y s 296 1031 m 47 Y s /w 24 def /w2 {w 2 div} def /w3 {w 3 div} def 296 1020
 m20 433 802 m 37 Y s 433 862 m 37 Y s 433 850 m20 571 675 m 27 Y s 571 725 m 27 Y s 571 714 m20 709 610 m 20 Y s 709 654 m 20 Y s 709 642 m20 846 553 m 12 Y s 846 589 m 12 Y s 846 577 m20 984 519 m 7 Y s 984 550 m 6 Y s 984 538 m20 1122 509 m 4 Y s
 1122 537 m 4 Y s 1122 525 m20 1259 514 m 6 Y s 1259 543 m 6 Y s 1259 531 m20 1397 499 m20 1535 499 m20 1672 499 m20 1948 499 m20 2085 492 m20 227 486 m 1927 X s 227 505 m -19 Y s 282 495 m -9 Y s 337 495 m -9 Y s 392 495 m -9 Y s 447 495 m -9 Y s
 502 505 m -19 Y s 557 495 m -9 Y s 612 495 m -9 Y s 667 495 m -9 Y s 722 495 m -9 Y s 778 505 m -19 Y s 833 495 m -9 Y s 888 495 m -9 Y s 943 495 m -9 Y s 998 495 m -9 Y s 1053 505 m -19 Y s 1108 495 m -9 Y s 1163 495 m -9 Y s 1218 495 m -9 Y s 1273
 495 m -9 Y s 1328 505 m -19 Y s 1383 495 m -9 Y s 1438 495 m -9 Y s 1493 495 m -9 Y s 1549 495 m -9 Y s 1604 505 m -19 Y s 1659 495 m -9 Y s 1714 495 m -9 Y s 1769 495 m -9 Y s 1824 495 m -9 Y s 1879 505 m -19 Y s 1934 495 m -9 Y s 1989 495 m -9 Y s
 2044 495 m -9 Y s 2099 495 m -9 Y s 2154 505 m -19 Y s 227 1527 m 1927 X s 227 1508 m 19 Y s 282 1518 m 9 Y s 337 1518 m 9 Y s 392 1518 m 9 Y s 447 1518 m 9 Y s 502 1508 m 19 Y s 557 1518 m 9 Y s 612 1518 m 9 Y s 667 1518 m 9 Y s 722 1518 m 9 Y s
 778 1508 m 19 Y s 833 1518 m 9 Y s 888 1518 m 9 Y s 943 1518 m 9 Y s 998 1518 m 9 Y s 1053 1508 m 19 Y s 1108 1518 m 9 Y s 1163 1518 m 9 Y s 1218 1518 m 9 Y s 1273 1518 m 9 Y s 1328 1508 m 19 Y s 1383 1518 m 9 Y s 1438 1518 m 9 Y s 1493 1518 m 9 Y s
 1549 1518 m 9 Y s 1604 1508 m 19 Y s 1659 1518 m 9 Y s 1714 1518 m 9 Y s 1769 1518 m 9 Y s 1824 1518 m 9 Y s 1879 1508 m 19 Y s 1934 1518 m 9 Y s 1989 1518 m 9 Y s 2044 1518 m 9 Y s 2099 1518 m 9 Y s 2154 1508 m 19 Y s 227 486 m 1041 Y s 248 616 m
 -21 X s 237 649 m -10 X s 237 681 m -10 X s 237 714 m -10 X s 248 746 m -21 X s 237 779 m -10 X s 237 811 m -10 X s 237 844 m -10 X s 248 876 m -21 X s 237 909 m -10 X s 237 941 m -10 X s 237 974 m -10 X s 248 1007 m -21 X s 237 1039 m -10 X s 237
 1072 m -10 X s 237 1104 m -10 X s 248 1137 m -21 X s 237 1169 m -10 X s 237 1202 m -10 X s 237 1234 m -10 X s 248 1267 m -21 X s 237 1299 m -10 X s 237 1332 m -10 X s 237 1365 m -10 X s 248 1397 m -21 X s 237 1430 m -10 X s 237 1462 m -10 X s 237
 1495 m -10 X s 248 1527 m -21 X s 248 616 m -21 X s 237 583 m -10 X s 237 551 m -10 X s 237 518 m -10 X s 248 1527 m -21 X s 2154 486 m 1041 Y s 2133 616 m 21 X s 2144 649 m 10 X s 2144 681 m 10 X s 2144 714 m 10 X s 2133 746 m 21 X s 2144 779 m 10
 X s 2144 811 m 10 X s 2144 844 m 10 X s 2133 876 m 21 X s 2144 909 m 10 X s 2144 941 m 10 X s 2144 974 m 10 X s 2133 1007 m 21 X s 2144 1039 m 10 X s 2144 1072 m 10 X s 2144 1104 m 10 X s 2133 1137 m 21 X s 2144 1169 m 10 X s 2144 1202 m 10 X s 2144
 1234 m 10 X s 2133 1267 m 21 X s 2144 1299 m 10 X s 2144 1332 m 10 X s 2144 1365 m 10 X s 2133 1397 m 21 X s 2144 1430 m 10 X s 2144 1462 m 10 X s 2144 1495 m 10 X s 2133 1527 m 21 X s 2133 616 m 21 X s 2144 583 m 10 X s 2144 551 m 10 X s 2144 518 m
 10 X s 2133 1527 m 21 X s
 gsave  2268 1108 0 475 C 1313.98 1437.99 t 0 r /Helvetica findfont 56.1323 sf 0 0 m ( Data) show NC gr  1259 1463 m 7 Y s 1259 1440 m -8 Y s 1259 1451 m20
 gsave  2268 1108 0 475 C 1777.56 1437.99 t 0 r /Helvetica findfont 56.1323 sf 0 0 m ( Fakes \(MM\)) show NC gr  0.4 0.6 0.4 c 1682 1429 m 79 X 44 Y -79 X f black
 gsave  2268 1108 0 475 C 1402.56 1375.98 t 0 r /Helvetica findfont 56.1323 sf 0 0 m (single\255top) show NC gr 
 gsave  2268 1108 0 475 C 1373.03 1375.98 t 0 r /Helvetica-Oblique findfont 56.1323 sf 0 0 m (/) show NC gr 
 gsave  2268 1108 0 475 C 1352.36 1375.98 t 0 r /Helvetica-Oblique findfont 56.1323 sf 0 0 m (t) show NC gr  6 lw 1352 1420 m 21 X s
 gsave  2268 1108 0 475 C 1331.69 1375.98 t 0 r /Helvetica-Oblique findfont 56.1323 sf 0 0 m (t) show NC gr 
 gsave  2268 1108 0 475 C 1313.98 1375.98 t 0 r /Helvetica findfont 56.1323 sf 0 0 m ( ) show NC gr  0.06 0.54 0.06 c 3 lw 1219 1366 m 79 X 44 Y -79 X f 6 lw black
 gsave  2268 1108 0 475 C 1907.48 1375.98 t 0 r /Helvetica findfont 56.1323 sf 0 0 m (+jets) show NC gr 
 gsave  2268 1108 0 475 C 1795.28 1375.98 t 0 r /Helvetica-Oblique findfont 56.1323 sf 0 0 m (W/Z) show NC gr 
 gsave  2268 1108 0 475 C 1777.56 1375.98 t 0 r /Helvetica findfont 56.1323 sf 0 0 m ( ) show NC gr  1 0.653333 0 c 3 lw 1682 1366 m 79 X 44 Y -79 X f black
 gsave  2268 1108 0 475 C 1511.81 1311.02 t 0 r /Helvetica findfont 56.1323 sf 0 0 m (+jets) show NC gr 
 gsave  2268 1108 0 475 C 1331.69 1311.02 t 0 r /Helvetica-Oblique findfont 56.1323 sf 0 0 m (WZ/ZZ) show NC gr 
 gsave  2268 1108 0 475 C 1313.98 1311.02 t 0 r /Helvetica findfont 56.1323 sf 0 0 m ( ) show NC gr  0.413333 1 0 c 3 lw 1219 1303 m 79 X 44 Y -79 X f black
 gsave  2268 1108 0 475 C 1836.61 1311.02 t 0 r /Helvetica-Oblique findfont 56.1323 sf 0 0 m (Z) show NC gr 
 gsave  2268 1108 0 475 C 1815.94 1311.02 t 0 r /Helvetica-Oblique findfont 56.1323 sf 0 0 m (t) show NC gr  6 lw 1816 1355 m 21 X s
 gsave  2268 1108 0 475 C 1795.28 1311.02 t 0 r /Helvetica-Oblique findfont 56.1323 sf 0 0 m (t) show NC gr 
 gsave  2268 1108 0 475 C 1777.56 1311.02 t 0 r /Helvetica findfont 56.1323 sf 0 0 m ( ) show NC gr  0.6 0.2 1 c 3 lw 1682 1303 m 79 X 44 Y -79 X f 6 lw black
 gsave  2268 1108 0 475 C 1373.03 1249.02 t 0 r /Helvetica-Oblique findfont 56.1323 sf 0 0 m (W) show NC gr 
 gsave  2268 1108 0 475 C 1352.36 1249.02 t 0 r /Helvetica-Oblique findfont 56.1323 sf 0 0 m (t) show NC gr  6 lw 1352 1293 m 21 X s
 gsave  2268 1108 0 475 C 1331.69 1249.02 t 0 r /Helvetica-Oblique findfont 56.1323 sf 0 0 m (t) show NC gr 
 gsave  2268 1108 0 475 C 1313.98 1249.02 t 0 r /Helvetica findfont 56.1323 sf 0 0 m ( ) show NC gr  0.54 0.06 0.06 c 3 lw 1219 1239 m 79 X 45 Y -79 X f 6 lw black
 gsave  2268 1108 0 475 C 1795.28 1249.02 t 0 r /Helvetica-Oblique findfont 56.1323 sf 0 0 m (tZq) show NC gr 
 gsave  2268 1108 0 475 C 1777.56 1249.02 t 0 r /Helvetica findfont 56.1323 sf 0 0 m ( ) show NC gr  1 0 1 c 3 lw 1682 1239 m 79 X 45 Y -79 X f black
 gsave  2268 1108 0 475 C 1373.03 1184.06 t 0 r /Helvetica-Oblique findfont 56.1323 sf 0 0 m (H) show NC gr 
 gsave  2268 1108 0 475 C 1352.36 1184.06 t 0 r /Helvetica-Oblique findfont 56.1323 sf 0 0 m (t) show NC gr  6 lw 1352 1228 m 21 X s
 gsave  2268 1108 0 475 C 1331.69 1184.06 t 0 r /Helvetica-Oblique findfont 56.1323 sf 0 0 m (t) show NC gr 
 gsave  2268 1108 0 475 C 1313.98 1184.06 t 0 r /Helvetica findfont 56.1323 sf 0 0 m ( ) show NC gr  0 0 1 c 3 lw 1219 1176 m 79 X 44 Y -79 X f 6 lw black
 gsave  2268 1108 0 475 C 1795.28 1184.06 t 0 r /Helvetica-Oblique findfont 56.1323 sf 0 0 m (tWZ/tWH) show NC gr 
 gsave  2268 1108 0 475 C 1777.56 1184.06 t 0 r /Helvetica findfont 56.1323 sf 0 0 m ( ) show NC gr  0.2 0.8 0.8 c 3 lw 1682 1176 m 79 X 44 Y -79 X f black
 gsave  2268 1108 0 475 C 1331.69 1122.05 t 0 r /Helvetica-Oblique findfont 56.1323 sf 0 0 m (tHq) show NC gr 
 gsave  2268 1108 0 475 C 1313.98 1122.05 t 0 r /Helvetica findfont 56.1323 sf 0 0 m ( ) show NC gr  1 0 0 c 3 lw 1219 1113 m 79 X 44 Y -79 X f black
 gsave  2268 1108 0 475 C 1777.56 1122.05 t 0 r /Helvetica findfont 56.1323 sf 0 0 m ( Other) show NC gr  1 0.84 0 c 3 lw 1682 1113 m 79 X 44 Y -79 X f black
 gsave  2268 1108 0 475 C 1313.98 1060.04 t 0 r /Helvetica findfont 56.1323 sf 0 0 m ( Uncertainty) show NC gr  0.6 0.6 0.6 c 3 lw 1298 1060 m -10 -11 d s 1298 1079 m -30 -30 d s 1294 1094 m -45 -45 d s 1274 1094 m -44 -45 d s 1255 1094 m -36 -37 d s
 1236 1094 m -17 -17 d s 1 0.84 0 c 0.6 0.6 0.6 c black
 gsave  2268 1108 0 475 C 894.685 1337.6 t 0 r /Helvetica findfont 41.3606 sf 0 0 m (\2551) show NC gr 
 gsave  2268 1108 0 475 C 401.575 1308.07 t 0 r /Helvetica findfont 62.0409 sf 0 0 m ( = 13 TeV,  139 fb) show NC gr 
 gsave  2268 1108 0 475 C 372.047 1308.07 t 0 r /Helvetica findfont 62.0409 sf 0 0 m (s) show NC gr  6 lw 351 1344 m 6 -39 d s 3 lw 357 1305 m 9 56 d s 366 1361 m 36 X s
 gsave  2268 1108 0 475 C 794.291 1207.68 t 0 r /Helvetica findfont 62.0409 sf 0 0 m (\)) show NC gr 
 gsave  2268 1108 0 475 C 738.189 1175.2 t 0 r /Helvetica findfont 41.3606 sf 0 0 m (HF) show NC gr 
 gsave  2268 1108 0 475 C 339.567 1207.68 t 0 r /Helvetica findfont 62.0409 sf 0 0 m ( 2L\(SS\), CR\(el) show NC gr 
 gsave  2268 1108 0 475 C 339.567 1405.51 t 0 r /Helvetica-BoldOblique findfont 73.8583 sf 0 0 m (ATLAS) show NC gr 
 gsave  2268 1108 0 475 C 634.843 1405.51 t 0 r /Helvetica findfont 73.8583 sf 0 0 m (Internal) show NC gr 
 gr  gr showpage
end
%%EOF
