%!PS-Adobe-2.0 EPSF-2.0
%%BoundingBox:  0 0 567 394
%%Title: /lhome/ific/c/cardillo/tHq/Plots/Plots-30-05-22-PLIV-SF/2LSS_MM/Ht_CRttbar.eps: Ht_CRttbar
%%Creator: ROOT Version 6.20/06
%%CreationDate: Mon May 30 19:25:22 2022
%%DocumentNeededResources: ProcSet (FontSetInit)
%%EndComments
%%BeginProlog
80 dict begin
/s {stroke} def /l {lineto} def /m {moveto} def /t {translate} def
/r {rotate} def /rl {roll}  def /R {repeat} def
/d {rlineto} def /rm {rmoveto} def /gr {grestore} def /f {eofill} def
/c {setrgbcolor} def /black {0 setgray} def /sd {setdash} def
/cl {closepath} def /sf {scalefont setfont} def /lw {setlinewidth} def
/box {m dup 0 exch d exch 0 d 0 exch neg d cl} def
/NC{systemdict begin initclip end}def/C{NC box clip newpath}def
/bl {box s} def /bf {gsave box gsave f grestore 1 lw [] 0 sd s grestore} def /Y { 0 exch d} def /X { 0 d} def 
/K {{pop pop 0 moveto} exch kshow} bind def
/ita {/ang 15 def gsave [1 0 ang dup sin exch cos div 1 0 0] concat} def 
/mp {newpath /y exch def /x exch def} def
/side {[w .77 mul w .23 mul] .385 w mul sd w 0 l currentpoint t -144 r} def
/mr {mp x y w2 0 360 arc} def /m24 {mr s} def /m20 {mr f} def
/mb {mp x y w2 add m w2 neg 0 d 0 w neg d w 0 d 0 w d cl} def
/mt {mp x y w2 add m w2 neg w neg d w 0 d cl} def
/w4 {w 4 div} def
/w6 {w 6 div} def
/w8 {w 8 div} def
/m21 {mb f} def /m25 {mb s} def /m22 {mt f} def /m26{mt s} def
/m23 {mp x y w2 sub m w2 w d w neg 0 d cl f} def
/m27 {mp x y w2 add m w3 neg w2 neg d w3 w2 neg d w3 w2 d cl s} def
/m28 {mp x w2 sub y w2 sub w3 add m w3 0 d  0 w3 neg d w3 0 d 0 w3 d w3 0 d  0 w3 d w3 neg 0 d 0 w3 d w3 neg 0 d 0 w3 neg d w3 neg 0 d cl s } def
/m29 {mp gsave x w2 sub y w2 add w3 sub m currentpoint t 4 {side} repeat cl fill gr} def
/m30 {mp gsave x w2 sub y w2 add w3 sub m currentpoint t 4 {side} repeat cl s gr} def
/m31 {mp x y w2 sub m 0 w d x w2 sub y m w 0 d x w2 sub y w2 add m w w neg d x w2 sub y w2 sub m w w d s} def
/m32 {mp x y w2 sub m w2 w d w neg 0 d cl s} def
/m33 {mp x y w2 add m w3 neg w2 neg d w3 w2 neg d w3 w2 d cl f} def
/m34 {mp x w2 sub y w2 sub w3 add m w3 0 d  0 w3 neg d w3 0 d 0 w3 d w3 0 d  0 w3 d w3 neg 0 d 0 w3 d w3 neg 0 d 0 w3 neg d w3 neg 0 d cl f } def
/m35 {mp x y w2 add m w2 neg w2 neg d w2 w2 neg d w2 w2 d w2 neg w2 d x y w2 sub m 0 w d x w2 sub y m w 0 d s} def
/m36 {mb x w2 sub y w2 add m w w neg d x w2 sub y w2 sub m w w d s} def
/m37 {mp x y m w4 neg w2 d w4 neg w2 neg d w2 0 d  w4 neg w2 neg d w2 0 d w4 neg w2 d w2 0 d w4 neg w2 d w4 neg w2 neg d cl s} def
/m38 {mp x w4 sub y w2 add m w4 neg w4 neg d 0 w2 neg d w4 w4 neg d w2 0 d w4 w4 d 0 w2 d w4 neg w4 d w2 neg 0 d x y w2 sub m 0 w d x w2 sub y m w 0 d cl s} def
/m39 {mp x y m w4 neg w2 d w4 neg w2 neg d w2 0 d  w4 neg w2 neg d w2 0 d w4 neg w2 d w2 0 d w4 neg w2 d w4 neg w2 neg d cl f} def
/m40 {mp x y m w4 w2 d w4 w4 neg d w2 neg w4 neg d w2 w4 neg d w4 neg w4 neg d w4 neg w2 d w4 neg w2 neg d w4 neg w4 d w2 w4 d w2 neg w4 d w4 w4 d w4 w2 neg d cl s} def
/m41 {mp x y m w4 w2 d w4 w4 neg d w2 neg w4 neg d w2 w4 neg d w4 neg w4 neg d w4 neg w2 d w4 neg w2 neg d w4 neg w4 d w2 w4 d w2 neg w4 d w4 w4 d w4 w2 neg d cl f} def
/m42 {mp x y w2 add m w8 neg w2 -3 4 div mul d w2 -3 4 div mul w8 neg d w2 3 4 div mul w8 neg d w8 w2 -3 4 div mul d w8 w2 3 4 div mul d w2 3 4 div mul w8 d w2 -3 4 div mul w8 d w8 neg w2 3 4 div mul d cl s} def
/m43 {mp x y w2 add m w8 neg w2 -3 4 div mul d w2 -3 4 div mul w8 neg d w2 3 4 div mul w8 neg d w8 w2 -3 4 div mul d w8 w2 3 4 div mul d w2 3 4 div mul w8 d w2 -3 4 div mul w8 d w8 neg w2 3 4 div mul d cl f} def
/m44 {mp x y m w6 neg w2 d w2 2 3 div mul 0 d w6 neg w2 neg d w2 w6 d 0 w2 -2 3 div mul d w2 neg w6 d w6 w2 neg d w2 -2 3 div mul 0 d w6 w2 d w2 neg w6 neg d 0 w2 2 3 div mul d w2 w6 neg d cl s} def
/m45 {mp x y m w6 neg w2 d w2 2 3 div mul 0 d w6 neg w2 neg d w2 w6 d 0 w2 -2 3 div mul d w2 neg w6 d w6 w2 neg d w2 -2 3 div mul 0 d w6 w2 d w2 neg w6 neg d 0 w2 2 3 div mul d w2 w6 neg d cl f} def
/m46 {mp x y w4 add m w4 neg w4 d w4 neg w4 neg d  w4 w4 neg d w4 neg w4 neg d w4 w4 neg d w4 w4 d w4 w4 neg d w4 w4 d w4 neg w4 d w4 w4 d w4 neg w4 d w4 neg w4 neg d cl s} def
/m47 {mp x y w4 add m w4 neg w4 d w4 neg w4 neg d w4 w4 neg d w4 neg w4 neg d  w4 w4 neg d w4 w4 d w4 w4 neg d w4 w4 d w4 neg w4 d w4 w4 d w4 neg w4 d w4 neg w4 neg d cl f} def
/m48 {mp x y w4 add m w4 neg w4 d w4 neg w4 neg d w4 w4 neg d  w4 neg w4 neg d w4 w4 neg d w4 w4 d w4 w4 neg d w4 w4 d w4 neg w4 d w4 w4 d w4 neg w4 d w4 neg w4 neg d  w4 w4 neg d w4 neg w4 neg d w4 neg w4 d w4 w4 d cl f} def
/m49 {mp x w2 sub w3 add y w2 sub w3 add m  0 w3 neg d w3 0 d 0 w3 d w3 0 d 0 w3 d w3 neg 0 d 0 w3 d w3 neg 0 d 0 w3 neg d w3 neg 0 d 0 w3 neg d w3 0 d 0 w3 d w3 0 d 0 w3 neg d w3 neg 0 d cl f } def
/m2 {mp x y w2 sub m 0 w d x w2 sub y m w 0 d s} def
/m5 {mp x w2 sub y w2 sub m w w d x w2 sub y w2 add m w w neg d s} def
%%IncludeResource: ProcSet (FontSetInit)
%%IncludeResource: font Times-Roman
%%IncludeResource: font Times-Italic
%%IncludeResource: font Times-Bold
%%IncludeResource: font Times-BoldItalic
%%IncludeResource: font Helvetica
%%IncludeResource: font Helvetica-Oblique
%%IncludeResource: font Helvetica-Bold
%%IncludeResource: font Helvetica-BoldOblique
%%IncludeResource: font Courier
%%IncludeResource: font Courier-Oblique
%%IncludeResource: font Courier-Bold
%%IncludeResource: font Courier-BoldOblique
%%IncludeResource: font Symbol
%%IncludeResource: font ZapfDingbats
/reEncode {exch findfont dup length dict begin {1 index /FID eq  {pop pop} {def} ifelse } forall /Encoding exch def currentdict end dup /FontName get exch definefont pop } def [/Times-Bold /Times-Italic /Times-BoldItalic /Helvetica /Helvetica-Oblique
 /Helvetica-Bold /Helvetica-BoldOblique /Courier /Courier-Oblique /Courier-Bold /Courier-BoldOblique /Times-Roman /AvantGarde-Book /AvantGarde-BookOblique /AvantGarde-Demi /AvantGarde-DemiOblique /Bookman-Demi /Bookman-DemiItalic /Bookman-Light
 /Bookman-LightItalic /Helvetica-Narrow /Helvetica-Narrow-Bold /Helvetica-Narrow-BoldOblique /Helvetica-Narrow-Oblique /NewCenturySchlbk-Roman /NewCenturySchlbk-Bold /NewCenturySchlbk-BoldItalic /NewCenturySchlbk-Italic /Palatino-Bold
 /Palatino-BoldItalic /Palatino-Italic /Palatino-Roman ] {ISOLatin1Encoding reEncode } forall
%%EndProlog
%%BeginSetup
%%EndSetup
newpath  gsave  .25 .25 scale  gsave  0 0 t black[  ] 0 sd 3 lw 1 1 1 c 2268 1575 0 0 bf black 1 1 1 c 2268 472 0 0 bf black 1 1 1 c 1927 274 227 189 bf black 1927 274 227 189 bl 227 189 m 1927 X s 227 201 m -12 Y s 282 195 m -6 Y s 337 195 m -6 Y s
 392 195 m -6 Y s 447 195 m -6 Y s 502 201 m -12 Y s 557 195 m -6 Y s 612 195 m -6 Y s 667 195 m -6 Y s 722 195 m -6 Y s 778 201 m -12 Y s 833 195 m -6 Y s 888 195 m -6 Y s 943 195 m -6 Y s 998 195 m -6 Y s 1053 201 m -12 Y s 1108 195 m -6 Y s 1163
 195 m -6 Y s 1218 195 m -6 Y s 1273 195 m -6 Y s 1328 201 m -12 Y s 1383 195 m -6 Y s 1438 195 m -6 Y s 1493 195 m -6 Y s 1549 195 m -6 Y s 1604 201 m -12 Y s 1659 195 m -6 Y s 1714 195 m -6 Y s 1769 195 m -6 Y s 1824 195 m -6 Y s 1879 201 m -12 Y s
 1934 195 m -6 Y s 1989 195 m -6 Y s 2044 195 m -6 Y s 2099 195 m -6 Y s 2154 201 m -12 Y s
 gsave  2268 472 0 0 C 180.588 127.3 t 0 r /Helvetica findfont 53.4895 sf 0 0 m (300) show NC gr 
 gsave  2268 472 0 0 C 455.912 127.3 t 0 r /Helvetica findfont 53.4895 sf 0 0 m (400) show NC gr 
 gsave  2268 472 0 0 C 731.235 127.3 t 0 r /Helvetica findfont 53.4895 sf 0 0 m (500) show NC gr 
 gsave  2268 472 0 0 C 1006.56 127.3 t 0 r /Helvetica findfont 53.4895 sf 0 0 m (600) show NC gr 
 gsave  2268 472 0 0 C 1281.88 127.3 t 0 r /Helvetica findfont 53.4895 sf 0 0 m (700) show NC gr 
 gsave  2268 472 0 0 C 1557.2 127.3 t 0 r /Helvetica findfont 53.4895 sf 0 0 m (800) show NC gr 
 gsave  2268 472 0 0 C 1832.53 127.3 t 0 r /Helvetica findfont 53.4895 sf 0 0 m (900) show NC gr 
 gsave  2268 472 0 0 C 2093.05 127.3 t 0 r /Helvetica findfont 53.4895 sf 0 0 m (1000) show NC gr 
 gsave  2268 472 0 0 C 1995.35 47.3674 t 0 r /Helvetica findfont 56.4611 sf 0 0 m ( [GeV]) show NC gr 
 gsave  2268 472 0 0 C 1971.67 29.6047 t 0 r /Helvetica findfont 38.6313 sf 0 0 m (T) show NC gr 
 gsave  2268 472 0 0 C 1924.3 47.3674 t 0 r /Helvetica-Oblique findfont 56.4611 sf 0 0 m (H) show NC gr  227 463 m 1927 X s 227 451 m 12 Y s 282 457 m 6 Y s 337 457 m 6 Y s 392 457 m 6 Y s 447 457 m 6 Y s 502 451 m 12 Y s 557 457 m 6 Y s 612 457 m 6
 Y s 667 457 m 6 Y s 722 457 m 6 Y s 778 451 m 12 Y s 833 457 m 6 Y s 888 457 m 6 Y s 943 457 m 6 Y s 998 457 m 6 Y s 1053 451 m 12 Y s 1108 457 m 6 Y s 1163 457 m 6 Y s 1218 457 m 6 Y s 1273 457 m 6 Y s 1328 451 m 12 Y s 1383 457 m 6 Y s 1438 457 m
 6 Y s 1493 457 m 6 Y s 1549 457 m 6 Y s 1604 451 m 12 Y s 1659 457 m 6 Y s 1714 457 m 6 Y s 1769 457 m 6 Y s 1824 457 m 6 Y s 1879 451 m 12 Y s 1934 457 m 6 Y s 1989 457 m 6 Y s 2044 457 m 6 Y s 2099 457 m 6 Y s 2154 451 m 12 Y s 227 189 m 274 Y s
 240 240 m -13 X s 240 326 m -13 X s 240 412 m -13 X s 240 240 m -13 X s 240 412 m -13 X s
 gsave  2268 472 0 0 C 118.419 222.035 t 0 r /Helvetica findfont 53.4895 sf 0 0 m (0.5) show NC gr 
 gsave  2268 472 0 0 C 171.707 307.888 t 0 r /Helvetica findfont 53.4895 sf 0 0 m (1) show NC gr 
 gsave  2268 472 0 0 C 118.419 393.742 t 0 r /Helvetica findfont 53.4895 sf 0 0 m (1.5) show NC gr 
 gsave  2268 472 0 0 C 71.0512 230.916 t 90 r /Helvetica findfont 53.4895 sf 0 0 m (Data / SM) show NC gr  2154 189 m 274 Y s 2141 240 m 13 X s 2141 326 m 13 X s 2141 412 m 13 X s 2141 240 m 13 X s 2141 412 m 13 X s 227 189 m 1927 X s 227 463 m 1927
 X s 227 189 m 274 Y s[ 4 8] 0 sd 2154 240 m -1927 X s 2154 326 m -1927 X s 2154 412 m -1927 X s 2154 240 m -1927 X s 2154 412 m -1927 X s[  ] 0 sd 2154 189 m 274 Y s 1 1 0.6 c 137 0 227 326 bf 138 0 364 326 bf 138 0 502 326 bf 138 0 640 326 bf 137 0
 778 326 bf 138 0 915 326 bf 138 0 1053 326 bf 137 0 1191 326 bf 138 0 1328 326 bf 138 0 1466 326 bf 137 0 1604 326 bf 138 0 1741 326 bf 138 0 1879 326 bf 137 0 2017 326 bf black 0.6 0.6 0.6 c 364 327 m -4 -5 d s 348 330 m -8 -8 d s 328 330 m -7 -8 d
 s 309 330 m -7 -8 d s 290 330 m -7 -8 d s 271 330 m -8 -8 d s 251 330 m -7 -8 d s 232 330 m -5 -6 d s 502 330 m -9 -9 d s 483 331 m -9 -10 d s 464 331 m -9 -10 d s 445 331 m -9 -10 d s 426 331 m -10 -10 d s 406 331 m -9 -10 d s 387 331 m -9 -10 d s
 368 331 m -4 -4 d s 638 332 m -11 -12 d s 619 332 m -11 -12 d s 600 332 m -12 -12 d s 581 332 m -12 -12 d s 561 332 m -11 -12 d s 542 332 m -11 -12 d s 523 332 m -11 -12 d s 504 332 m -2 -2 d s 775 333 m -15 -14 d s 755 333 m -14 -14 d s 736 333 m
 -14 -14 d s 717 333 m -15 -14 d s 698 333 m -15 -14 d s 679 333 m -15 -14 d s 659 333 m -14 -14 d s 640 333 m s 915 320 m -1 -2 d s 910 334 m -16 -16 d s 891 334 m -16 -16 d s 871 334 m -15 -16 d s 852 334 m -15 -16 d s 833 334 m -16 -16 d s 814 334
 m -16 -16 d s 794 334 m -15 -16 d s 1053 323 m -7 -7 d s 1047 336 m -20 -20 d s 1028 336 m -21 -20 d s 1008 336 m -20 -20 d s 989 336 m -20 -20 d s 970 336 m -20 -20 d s 951 336 m -21 -20 d s 931 336 m -16 -16 d s 1191 326 m -12 -12 d s 1183 338 m
 -23 -24 d s 1164 338 m -24 -24 d s 1145 338 m -24 -24 d s 1126 338 m -24 -24 d s 1106 338 m -23 -24 d s 1087 338 m -24 -24 d s 1068 338 m -15 -15 d s 1328 329 m -16 -16 d s 1320 339 m -27 -26 d s 1300 339 m -26 -26 d s 1281 339 m -27 -26 d s 1262
 339 m -27 -26 d s 1243 339 m -27 -26 d s 1223 339 m -26 -26 d s 1204 339 m -13 -13 d s 1466 313 m -4 -5 d s 1466 332 m -24 -24 d s 1458 344 m -35 -36 d s 1439 344 m -35 -36 d s 1420 344 m -35 -36 d s 1401 344 m -35 -36 d s 1381 344 m -35 -36 d s
 1362 344 m -34 -34 d s 1343 344 m -15 -15 d s 1604 316 m -8 -8 d s 1604 335 m -27 -27 d s 1594 344 m -37 -36 d s 1575 344 m -37 -36 d s 1555 344 m -36 -36 d s 1536 344 m -36 -36 d s 1517 344 m -37 -36 d s 1498 344 m -32 -31 d s 1478 344 m -12 -12 d
 s 1741 319 m -13 -14 d s 1741 338 m -32 -33 d s 1731 347 m -41 -42 d s 1712 347 m -42 -42 d s 1692 347 m -41 -42 d s 1673 347 m -41 -42 d s 1654 347 m -41 -42 d s 1635 347 m -31 -31 d s 1615 347 m -11 -12 d s 1879 322 m -13 -13 d s 1879 341 m -32
 -32 d s 1862 343 m -34 -34 d s 1843 343 m -35 -34 d s 1824 343 m -35 -34 d s 1804 343 m -34 -34 d s 1785 343 m -34 -34 d s 1766 343 m -25 -24 d s 1747 343 m -6 -5 d s 2017 305 m -12 -11 d s 2017 325 m -31 -31 d s 2017 344 m -50 -50 d s 2012 358 m
 -65 -64 d s 1993 358 m -65 -64 d s 1973 358 m -64 -64 d s 1954 358 m -64 -64 d s 1935 358 m -56 -56 d s 1916 358 m -37 -36 d s 1896 358 m -17 -17 d s 2154 328 m -9 -10 d s 2141 334 m -15 -16 d s 2122 334 m -15 -16 d s 2103 334 m -15 -16 d s 2083 334
 m -15 -16 d s 2064 334 m -15 -16 d s 2045 334 m -15 -16 d s 2026 334 m -9 -9 d s black 1 1 1 c black 296 300 m 6 Y s 296 330 m 5 Y s /w 26 def /w2 {w 2 div} def /w3 {w 3 div} def 296 318 m20 433 304 m 10 Y s 433 338 m 10 Y s 433 326 m20 571 295 m 16
 Y s 571 334 m 16 Y s 571 322 m20 709 303 m 24 Y s 709 351 m 24 Y s 709 339 m20 846 281 m 32 Y s 846 337 m 32 Y s 846 325 m20 984 231 m 30 Y s 984 285 m 30 Y s 984 273 m20 1122 240 m 47 Y s 1122 311 m 47 Y s 1122 299 m20 1259 292 m 72 Y s 1259 387 m
 72 Y s 1259 375 m20 1397 189 m 37 Y s 1397 250 m 47 Y s 1397 238 m20 1535 196 m 89 Y s 1535 309 m 89 Y s 1535 297 m20 1672 218 m 141 Y s 1672 383 m 80 Y s 1672 371 m20 2085 189 m 68 Y s 2085 281 m 68 Y s 2085 269 m20 227 326 m 1927 X s 227 189 m
 1927 X s 227 201 m -12 Y s 282 195 m -6 Y s 337 195 m -6 Y s 392 195 m -6 Y s 447 195 m -6 Y s 502 201 m -12 Y s 557 195 m -6 Y s 612 195 m -6 Y s 667 195 m -6 Y s 722 195 m -6 Y s 778 201 m -12 Y s 833 195 m -6 Y s 888 195 m -6 Y s 943 195 m -6 Y s
 998 195 m -6 Y s 1053 201 m -12 Y s 1108 195 m -6 Y s 1163 195 m -6 Y s 1218 195 m -6 Y s 1273 195 m -6 Y s 1328 201 m -12 Y s 1383 195 m -6 Y s 1438 195 m -6 Y s 1493 195 m -6 Y s 1549 195 m -6 Y s 1604 201 m -12 Y s 1659 195 m -6 Y s 1714 195 m -6
 Y s 1769 195 m -6 Y s 1824 195 m -6 Y s 1879 201 m -12 Y s 1934 195 m -6 Y s 1989 195 m -6 Y s 2044 195 m -6 Y s 2099 195 m -6 Y s 2154 201 m -12 Y s 227 463 m 1927 X s 227 451 m 12 Y s 282 457 m 6 Y s 337 457 m 6 Y s 392 457 m 6 Y s 447 457 m 6 Y s
 502 451 m 12 Y s 557 457 m 6 Y s 612 457 m 6 Y s 667 457 m 6 Y s 722 457 m 6 Y s 778 451 m 12 Y s 833 457 m 6 Y s 888 457 m 6 Y s 943 457 m 6 Y s 998 457 m 6 Y s 1053 451 m 12 Y s 1108 457 m 6 Y s 1163 457 m 6 Y s 1218 457 m 6 Y s 1273 457 m 6 Y s
 1328 451 m 12 Y s 1383 457 m 6 Y s 1438 457 m 6 Y s 1493 457 m 6 Y s 1549 457 m 6 Y s 1604 451 m 12 Y s 1659 457 m 6 Y s 1714 457 m 6 Y s 1769 457 m 6 Y s 1824 457 m 6 Y s 1879 451 m 12 Y s 1934 457 m 6 Y s 1989 457 m 6 Y s 2044 457 m 6 Y s 2099 457
 m 6 Y s 2154 451 m 12 Y s 227 189 m 274 Y s 240 240 m -13 X s 240 326 m -13 X s 240 412 m -13 X s 240 240 m -13 X s 240 412 m -13 X s 2154 189 m 274 Y s 2141 240 m 13 X s 2141 326 m 13 X s 2141 412 m 13 X s 2141 240 m 13 X s 2141 412 m 13 X s 1 1 1
 c 2268 1103 0 472 bf black 1 1 1 c 1927 1036 227 484 bf black 1927 1036 227 484 bl 1 1 1 c black 3 lw 227 484 m 1927 X s 227 502 m -18 Y s 282 493 m -9 Y s 337 493 m -9 Y s 392 493 m -9 Y s 447 493 m -9 Y s 502 502 m -18 Y s 557 493 m -9 Y s 612 493
 m -9 Y s 667 493 m -9 Y s 722 493 m -9 Y s 778 502 m -18 Y s 833 493 m -9 Y s 888 493 m -9 Y s 943 493 m -9 Y s 998 493 m -9 Y s 1053 502 m -18 Y s 1108 493 m -9 Y s 1163 493 m -9 Y s 1218 493 m -9 Y s 1273 493 m -9 Y s 1328 502 m -18 Y s 1383 493 m
 -9 Y s 1438 493 m -9 Y s 1493 493 m -9 Y s 1549 493 m -9 Y s 1604 502 m -18 Y s 1659 493 m -9 Y s 1714 493 m -9 Y s 1769 493 m -9 Y s 1824 493 m -9 Y s 1879 502 m -18 Y s 1934 493 m -9 Y s 1989 493 m -9 Y s 2044 493 m -9 Y s 2099 493 m -9 Y s 2154
 502 m -18 Y s
 gsave  2268 1103 0 472 C 2069.37 402.623 t 0 r /Helvetica findfont 29.6365 sf 0 0 m ( [GeV]) show NC gr 
 gsave  2268 1103 0 472 C 2054.56 393.742 t 0 r /Helvetica findfont 20.7455 sf 0 0 m (T) show NC gr 
 gsave  2268 1103 0 472 C 2030.88 402.623 t 0 r /Helvetica-Oblique findfont 29.6365 sf 0 0 m (H) show NC gr  227 1520 m 1927 X s 227 1501 m 19 Y s 282 1510 m 10 Y s 337 1510 m 10 Y s 392 1510 m 10 Y s 447 1510 m 10 Y s 502 1501 m 19 Y s 557 1510 m 10
 Y s 612 1510 m 10 Y s 667 1510 m 10 Y s 722 1510 m 10 Y s 778 1501 m 19 Y s 833 1510 m 10 Y s 888 1510 m 10 Y s 943 1510 m 10 Y s 998 1510 m 10 Y s 1053 1501 m 19 Y s 1108 1510 m 10 Y s 1163 1510 m 10 Y s 1218 1510 m 10 Y s 1273 1510 m 10 Y s 1328
 1501 m 19 Y s 1383 1510 m 10 Y s 1438 1510 m 10 Y s 1493 1510 m 10 Y s 1549 1510 m 10 Y s 1604 1501 m 19 Y s 1659 1510 m 10 Y s 1714 1510 m 10 Y s 1769 1510 m 10 Y s 1824 1510 m 10 Y s 1879 1501 m 19 Y s 1934 1510 m 10 Y s 1989 1510 m 10 Y s 2044
 1510 m 10 Y s 2099 1510 m 10 Y s 2154 1501 m 19 Y s 227 484 m 1036 Y s 248 572 m -21 X s 237 594 m -10 X s 237 616 m -10 X s 237 639 m -10 X s 248 661 m -21 X s 237 683 m -10 X s 237 705 m -10 X s 237 727 m -10 X s 248 749 m -21 X s 237 772 m -10 X
 s 237 794 m -10 X s 237 816 m -10 X s 248 838 m -21 X s 237 860 m -10 X s 237 883 m -10 X s 237 905 m -10 X s 248 927 m -21 X s 237 949 m -10 X s 237 971 m -10 X s 237 993 m -10 X s 248 1016 m -21 X s 237 1038 m -10 X s 237 1060 m -10 X s 237 1082 m
 -10 X s 248 1104 m -21 X s 237 1126 m -10 X s 237 1149 m -10 X s 237 1171 m -10 X s 248 1193 m -21 X s 237 1215 m -10 X s 237 1237 m -10 X s 237 1259 m -10 X s 248 1282 m -21 X s 237 1304 m -10 X s 237 1326 m -10 X s 237 1348 m -10 X s 248 1370 m
 -21 X s 237 1392 m -10 X s 237 1415 m -10 X s 237 1437 m -10 X s 248 1459 m -21 X s 248 572 m -21 X s 237 550 m -10 X s 237 528 m -10 X s 237 506 m -10 X s 248 1459 m -21 X s 237 1481 m -10 X s 237 1503 m -10 X s
 gsave  2268 1103 0 472 C 145.063 553.607 t 0 r /Helvetica findfont 50.382 sf 0 0 m (20) show NC gr 
 gsave  2268 1103 0 472 C 145.063 642.421 t 0 r /Helvetica findfont 50.382 sf 0 0 m (40) show NC gr 
 gsave  2268 1103 0 472 C 145.063 731.235 t 0 r /Helvetica findfont 50.382 sf 0 0 m (60) show NC gr 
 gsave  2268 1103 0 472 C 145.063 820.049 t 0 r /Helvetica findfont 50.382 sf 0 0 m (80) show NC gr 
 gsave  2268 1103 0 472 C 118.419 908.863 t 0 r /Helvetica findfont 50.382 sf 0 0 m (100) show NC gr 
 gsave  2268 1103 0 472 C 118.419 997.677 t 0 r /Helvetica findfont 50.382 sf 0 0 m (120) show NC gr 
 gsave  2268 1103 0 472 C 118.419 1083.53 t 0 r /Helvetica findfont 50.382 sf 0 0 m (140) show NC gr 
 gsave  2268 1103 0 472 C 118.419 1172.34 t 0 r /Helvetica findfont 50.382 sf 0 0 m (160) show NC gr 
 gsave  2268 1103 0 472 C 118.419 1261.16 t 0 r /Helvetica findfont 50.382 sf 0 0 m (180) show NC gr 
 gsave  2268 1103 0 472 C 118.419 1349.97 t 0 r /Helvetica findfont 50.382 sf 0 0 m (200) show NC gr 
 gsave  2268 1103 0 472 C 118.419 1438.79 t 0 r /Helvetica findfont 50.382 sf 0 0 m (220) show NC gr 
 gsave  2268 1103 0 472 C 62.1698 1154.58 t 90 r /Helvetica findfont 50.382 sf 0 0 m (Events / 50 GeV) show NC gr  2154 484 m 1036 Y s 2133 572 m 21 X s 2144 594 m 10 X s 2144 616 m 10 X s 2144 639 m 10 X s 2133 661 m 21 X s 2144 683 m 10 X s 2144
 705 m 10 X s 2144 727 m 10 X s 2133 749 m 21 X s 2144 772 m 10 X s 2144 794 m 10 X s 2144 816 m 10 X s 2133 838 m 21 X s 2144 860 m 10 X s 2144 883 m 10 X s 2144 905 m 10 X s 2133 927 m 21 X s 2144 949 m 10 X s 2144 971 m 10 X s 2144 993 m 10 X s
 2133 1016 m 21 X s 2144 1038 m 10 X s 2144 1060 m 10 X s 2144 1082 m 10 X s 2133 1104 m 21 X s 2144 1126 m 10 X s 2144 1149 m 10 X s 2144 1171 m 10 X s 2133 1193 m 21 X s 2144 1215 m 10 X s 2144 1237 m 10 X s 2144 1259 m 10 X s 2133 1282 m 21 X s
 2144 1304 m 10 X s 2144 1326 m 10 X s 2144 1348 m 10 X s 2133 1370 m 21 X s 2144 1392 m 10 X s 2144 1415 m 10 X s 2144 1437 m 10 X s 2133 1459 m 21 X s 2133 572 m 21 X s 2144 550 m 10 X s 2144 528 m 10 X s 2144 506 m 10 X s 2133 1459 m 21 X s 2144
 1481 m 10 X s 2144 1503 m 10 X s 0.4 0.6 0.4 c black 3 lw 0.4 0.6 0.4 c 227 484 m 414 Y 137 X -148 Y 138 X -99 Y 138 X -60 Y 138 X -41 Y 137 X -15 Y 138 X -20 Y 138 X -7 Y 137 X -6 Y 138 X -8 Y 138 X -4 Y 137 X -2 Y 276 X 9 Y 137 X -13 Y f 0.06 0.54
 0.06 c 0.999 0.999 0.999 c black 3 lw 0.999 0.999 0.999 c 227 484 m 273 Y 137 X -87 Y 138 X -65 Y 138 X -49 Y 138 X -25 Y 137 X -9 Y 138 X -13 Y 138 X -6 Y 137 X -5 Y 138 X -7 Y 138 X -2 Y 137 X -2 Y 276 X 8 Y 137 X -11 Y f 0.06 0.54 0.06 c 0.999
 0.999 0.999 c 0.06 0.54 0.06 c 1 1 1 c black 0.06 0.54 0.06 c black 3 lw 0.06 0.54 0.06 c 227 484 m 273 Y 137 X -87 Y 138 X -65 Y 138 X -49 Y 138 X -25 Y 137 X -9 Y 138 X -13 Y 138 X -6 Y 137 X -5 Y 138 X -7 Y 138 X -2 Y 137 X -2 Y 276 X 8 Y 137 X
 -11 Y f 1 0.653333 0 c 0.999 0.999 0.999 c black 3 lw 0.999 0.999 0.999 c 227 484 m 171 Y 137 X -52 Y 138 X -40 Y 138 X -24 Y 138 X -20 Y 137 X -10 Y 138 X -7 Y 138 X -4 Y 137 X -5 Y 138 X -3 Y 138 X -2 Y 137 X -1 Y 138 X -1 Y 138 X 7 Y 137 X -9 Y f
 1 0.653333 0 c 0.999 0.999 0.999 c 1 0.653333 0 c 1 1 1 c black 1 0.653333 0 c black 3 lw 1 0.653333 0 c 227 484 m 171 Y 137 X -52 Y 138 X -40 Y 138 X -24 Y 138 X -20 Y 137 X -10 Y 138 X -7 Y 138 X -4 Y 137 X -5 Y 138 X -3 Y 138 X -2 Y 137 X -1 Y
 138 X -1 Y 138 X 7 Y 137 X -9 Y f 0.413333 1 0 c 0.999 0.999 0.999 c black 3 lw 0.999 0.999 0.999 c 227 484 m 167 Y 137 X -52 Y 138 X -37 Y 138 X -24 Y 138 X -19 Y 137 X -10 Y 138 X -7 Y 138 X -4 Y 137 X -5 Y 138 X -3 Y 138 X -2 Y 137 X -1 Y 138 X
 -1 Y 138 X 7 Y 137 X -9 Y f 0.413333 1 0 c 0.999 0.999 0.999 c 0.413333 1 0 c 1 1 1 c black 0.413333 1 0 c black 3 lw 0.413333 1 0 c 227 484 m 167 Y 137 X -52 Y 138 X -37 Y 138 X -24 Y 138 X -19 Y 137 X -10 Y 138 X -7 Y 138 X -4 Y 137 X -5 Y 138 X
 -3 Y 138 X -2 Y 137 X -1 Y 138 X -1 Y 138 X 7 Y 137 X -9 Y f 0.6 0.2 1 c 0.999 0.999 0.999 c black 3 lw 0.999 0.999 0.999 c 227 484 m 148 Y 137 X -44 Y 138 X -32 Y 138 X -22 Y 138 X -18 Y 137 X -9 Y 138 X -7 Y 138 X -3 Y 137 X -5 Y 138 X -3 Y 138 X
 -1 Y 137 X -1 Y 138 X -1 Y 138 X 5 Y 137 X -7 Y f 0.6 0.2 1 c 0.999 0.999 0.999 c 0.6 0.2 1 c 1 1 1 c black 0.6 0.2 1 c black 3 lw 0.6 0.2 1 c 227 484 m 148 Y 137 X -44 Y 138 X -32 Y 138 X -22 Y 138 X -18 Y 137 X -9 Y 138 X -7 Y 138 X -3 Y 137 X -5
 Y 138 X -3 Y 138 X -1 Y 137 X -1 Y 138 X -1 Y 138 X 5 Y 137 X -7 Y f 0.54 0.06 0.06 c 0.999 0.999 0.999 c black 3 lw 0.999 0.999 0.999 c 227 484 m 122 Y 137 X -38 Y 138 X -26 Y 138 X -17 Y 138 X -15 Y 137 X -8 Y 138 X -6 Y 138 X -2 Y 137 X -3 Y 138
 X -3 Y 138 X -1 Y 137 X -1 Y 138 X -1 Y 138 X 5 Y 137 X -6 Y f 0.54 0.06 0.06 c 0.999 0.999 0.999 c 0.54 0.06 0.06 c 1 1 1 c black 0.54 0.06 0.06 c black 3 lw 0.54 0.06 0.06 c 227 484 m 122 Y 137 X -38 Y 138 X -26 Y 138 X -17 Y 138 X -15 Y 137 X -8
 Y 138 X -6 Y 138 X -2 Y 137 X -3 Y 138 X -3 Y 138 X -1 Y 137 X -1 Y 138 X -1 Y 138 X 5 Y 137 X -6 Y f 1 0 1 c 0.999 0.999 0.999 c black 3 lw 0.999 0.999 0.999 c 227 484 m 38 Y 137 X -12 Y 138 X -8 Y 138 X -3 Y 138 X -7 Y 137 X -3 Y 138 X -1 Y 138 X
 -1 Y 137 X -1 Y 138 X -1 Y 275 X -1 Y 276 X 1 Y 137 X -1 Y f 1 0 1 c 0.999 0.999 0.999 c 1 0 1 c 1 1 1 c black 1 0 1 c black 3 lw 1 0 1 c 227 484 m 38 Y 137 X -12 Y 138 X -8 Y 138 X -3 Y 138 X -7 Y 137 X -3 Y 138 X -1 Y 138 X -1 Y 137 X -1 Y 138 X
 -1 Y 275 X -1 Y 276 X 1 Y 137 X -1 Y f 0 0 1 c 0.999 0.999 0.999 c black 3 lw 0.999 0.999 0.999 c 227 484 m 25 Y 137 X -7 Y 138 X -6 Y 138 X -1 Y 138 X -6 Y 137 X -2 Y 138 X -1 Y 275 X -1 Y 276 X -1 Y 413 X 1 Y 137 X -1 Y f 0 0 1 c 0.999 0.999 0.999
 c 0 0 1 c 1 1 1 c black 0 0 1 c black 3 lw 0 0 1 c 227 484 m 25 Y 137 X -7 Y 138 X -6 Y 138 X -1 Y 138 X -6 Y 137 X -2 Y 138 X -1 Y 275 X -1 Y 276 X -1 Y 413 X 1 Y 137 X -1 Y f 0.2 0.8 0.8 c 0.999 0.999 0.999 c black 3 lw 0.999 0.999 0.999 c 227 484
 m 4 Y 137 X -1 Y 138 X -2 Y 138 X 2 Y 138 X -2 Y 137 X -1 Y 1239 X f 0.2 0.8 0.8 c 0.999 0.999 0.999 c 0.2 0.8 0.8 c 1 1 1 c black 0.2 0.8 0.8 c black 3 lw 0.2 0.8 0.8 c 227 484 m 4 Y 137 X -1 Y 138 X -2 Y 138 X 2 Y 138 X -2 Y 137 X -1 Y 1239 X f 1
 0 0 c 0.999 0.999 0.999 c black 3 lw 0.999 0.999 0.999 c 227 484 m 1 Y 137 X -1 Y 276 X 3 Y 138 X -3 Y 1376 X f 1 0 0 c 0.999 0.999 0.999 c 1 0 0 c 1 1 1 c black 1 0 0 c black 3 lw 1 0 0 c 227 484 m 1 Y 137 X -1 Y 276 X 3 Y 138 X -3 Y 1376 X f 1
 0.84 0 c 0.999 0.999 0.999 c black 3 lw 0.999 0.999 0.999 c 227 484 m 413 X 2 Y 138 X -2 Y 1376 X f 1 0.84 0 c 0.999 0.999 0.999 c 1 0.84 0 c 1 1 1 c black 1 0.84 0 c black 3 lw 1 0.84 0 c 227 484 m 413 X 2 Y 138 X -2 Y 1376 X f black 1 1 1 c black
 0.6 0.6 0.6 c 3 lw 364 894 m -4 -5 d s 358 907 m -18 -18 d s 339 907 m -18 -18 d s 320 907 m -18 -18 d s 300 907 m -17 -18 d s 281 907 m -18 -18 d s 262 907 m -18 -18 d s 243 907 m -16 -16 d s 3 lw 502 743 m s 497 757 m -15 -14 d s 478 757 m -15 -14
 d s 458 757 m -14 -14 d s 439 757 m -14 -14 d s 420 757 m -15 -14 d s 401 757 m -15 -14 d s 381 757 m -14 -14 d s 3 lw 640 650 m -5 -5 d s 627 657 m -11 -12 d s 608 657 m -11 -12 d s 589 657 m -12 -12 d s 569 657 m -11 -12 d s 550 657 m -11 -12 d s
 531 657 m -11 -12 d s 512 657 m -10 -10 d s 3 lw 777 595 m -9 -9 d s 758 595 m -9 -9 d s 739 595 m -9 -9 d s 720 595 m -10 -9 d s 700 595 m -9 -9 d s 681 595 m -9 -9 d s 662 595 m -9 -9 d s 643 595 m -3 -2 d s 3 lw 908 553 m -6 -6 d s 889 553 m -6
 -6 d s 870 553 m -6 -6 d s 851 553 m -6 -6 d s 831 553 m -6 -6 d s 812 553 m -6 -6 d s 793 553 m -6 -6 d s 3 lw 1047 538 m -6 -6 d s 1028 538 m -6 -6 d s 1008 538 m -6 -6 d s 989 538 m -6 -6 d s 970 538 m -6 -6 d s 951 538 m -6 -6 d s 931 538 m -6
 -6 d s 3 lw 1180 517 m -4 -4 d s 1161 517 m -4 -4 d s 1142 517 m -5 -4 d s 1122 517 m -4 -4 d s 1103 517 m -4 -4 d s 1084 517 m -4 -4 d s 1065 517 m -5 -4 d s 3 lw 1326 509 m -4 -3 d s 1307 509 m -4 -3 d s 1288 509 m -4 -3 d s 1269 509 m -4 -3 d s
 1249 509 m -4 -3 d s 1230 509 m -4 -3 d s 1211 509 m -4 -3 d s 1192 509 m -1 -1 d s 3 lw 1455 504 m -4 -4 d s 1436 504 m -4 -4 d s 1417 504 m -4 -4 d s 1397 504 m -3 -4 d s 1378 504 m -4 -4 d s 1359 504 m -4 -4 d s 1340 504 m -4 -4 d s 3 lw 1601 495
 m -3 -2 d s 1581 495 m -2 -2 d s 1562 495 m -2 -2 d s 1543 495 m -2 -2 d s 1524 495 m -3 -2 d s 1504 495 m -2 -2 d s 1485 495 m -2 -2 d s 1466 495 m s 3 lw 1731 491 m -1 -1 d s 1712 491 m -2 -1 d s 1693 491 m -2 -1 d s 1674 491 m -2 -1 d s 1654 491
 m -1 -1 d s 1635 491 m -1 -1 d s 1616 491 m -2 -1 d s 3 lw 1863 488 m -1 -1 d s 1844 488 m -1 -1 d s 1825 488 m -1 -1 d s 1805 488 m -1 -1 d s 1786 488 m -1 -1 d s 1767 488 m -1 -1 d s 1748 488 m -1 -1 d s 3 lw 2017 488 m -1 -1 d s 1998 489 m -1 -2
 d s 1979 489 m -2 -2 d s 1960 489 m -2 -2 d s 1941 489 m -2 -2 d s 1921 489 m -1 -2 d s 1902 489 m -2 -2 d s 1883 489 m -2 -2 d s 3 lw 2142 497 m -2 -1 d s 2122 497 m -1 -1 d s 2103 497 m -1 -1 d s 2084 497 m -1 -1 d s 2065 497 m -2 -1 d s 2045 497
 m -1 -1 d s 2026 497 m -1 -1 d s black 3 lw 1 1 1 c black 296 836 m 30 Y s 296 890 m 30 Y s /w 24 def /w2 {w 2 div} def /w3 {w 3 div} def 296 878 m20 433 715 m 23 Y s 433 761 m 23 Y s 433 749 m20 571 621 m 15 Y s 571 659 m 15 Y s 571 648 m20 709 576
 m 11 Y s 709 611 m 10 Y s 709 599 m20 846 533 m 5 Y s 846 562 m 5 Y s 846 550 m20 984 506 m 1 Y s 984 531 m s 984 519 m20 1122 510 m20 1259 515 m20 1397 492 m20 1535 492 m20 1672 492 m20 1948 492 m20 2085 492 m20 227 484 m 1927 X s 227 502 m -18 Y s
 282 493 m -9 Y s 337 493 m -9 Y s 392 493 m -9 Y s 447 493 m -9 Y s 502 502 m -18 Y s 557 493 m -9 Y s 612 493 m -9 Y s 667 493 m -9 Y s 722 493 m -9 Y s 778 502 m -18 Y s 833 493 m -9 Y s 888 493 m -9 Y s 943 493 m -9 Y s 998 493 m -9 Y s 1053 502
 m -18 Y s 1108 493 m -9 Y s 1163 493 m -9 Y s 1218 493 m -9 Y s 1273 493 m -9 Y s 1328 502 m -18 Y s 1383 493 m -9 Y s 1438 493 m -9 Y s 1493 493 m -9 Y s 1549 493 m -9 Y s 1604 502 m -18 Y s 1659 493 m -9 Y s 1714 493 m -9 Y s 1769 493 m -9 Y s
 1824 493 m -9 Y s 1879 502 m -18 Y s 1934 493 m -9 Y s 1989 493 m -9 Y s 2044 493 m -9 Y s 2099 493 m -9 Y s 2154 502 m -18 Y s 227 1520 m 1927 X s 227 1501 m 19 Y s 282 1510 m 10 Y s 337 1510 m 10 Y s 392 1510 m 10 Y s 447 1510 m 10 Y s 502 1501 m
 19 Y s 557 1510 m 10 Y s 612 1510 m 10 Y s 667 1510 m 10 Y s 722 1510 m 10 Y s 778 1501 m 19 Y s 833 1510 m 10 Y s 888 1510 m 10 Y s 943 1510 m 10 Y s 998 1510 m 10 Y s 1053 1501 m 19 Y s 1108 1510 m 10 Y s 1163 1510 m 10 Y s 1218 1510 m 10 Y s 1273
 1510 m 10 Y s 1328 1501 m 19 Y s 1383 1510 m 10 Y s 1438 1510 m 10 Y s 1493 1510 m 10 Y s 1549 1510 m 10 Y s 1604 1501 m 19 Y s 1659 1510 m 10 Y s 1714 1510 m 10 Y s 1769 1510 m 10 Y s 1824 1510 m 10 Y s 1879 1501 m 19 Y s 1934 1510 m 10 Y s 1989
 1510 m 10 Y s 2044 1510 m 10 Y s 2099 1510 m 10 Y s 2154 1501 m 19 Y s 227 484 m 1036 Y s 248 572 m -21 X s 237 594 m -10 X s 237 616 m -10 X s 237 639 m -10 X s 248 661 m -21 X s 237 683 m -10 X s 237 705 m -10 X s 237 727 m -10 X s 248 749 m -21 X
 s 237 772 m -10 X s 237 794 m -10 X s 237 816 m -10 X s 248 838 m -21 X s 237 860 m -10 X s 237 883 m -10 X s 237 905 m -10 X s 248 927 m -21 X s 237 949 m -10 X s 237 971 m -10 X s 237 993 m -10 X s 248 1016 m -21 X s 237 1038 m -10 X s 237 1060 m
 -10 X s 237 1082 m -10 X s 248 1104 m -21 X s 237 1126 m -10 X s 237 1149 m -10 X s 237 1171 m -10 X s 248 1193 m -21 X s 237 1215 m -10 X s 237 1237 m -10 X s 237 1259 m -10 X s 248 1282 m -21 X s 237 1304 m -10 X s 237 1326 m -10 X s 237 1348 m
 -10 X s 248 1370 m -21 X s 237 1392 m -10 X s 237 1415 m -10 X s 237 1437 m -10 X s 248 1459 m -21 X s 248 572 m -21 X s 237 550 m -10 X s 237 528 m -10 X s 237 506 m -10 X s 248 1459 m -21 X s 237 1481 m -10 X s 237 1503 m -10 X s 2154 484 m 1036 Y
 s 2133 572 m 21 X s 2144 594 m 10 X s 2144 616 m 10 X s 2144 639 m 10 X s 2133 661 m 21 X s 2144 683 m 10 X s 2144 705 m 10 X s 2144 727 m 10 X s 2133 749 m 21 X s 2144 772 m 10 X s 2144 794 m 10 X s 2144 816 m 10 X s 2133 838 m 21 X s 2144 860 m 10
 X s 2144 883 m 10 X s 2144 905 m 10 X s 2133 927 m 21 X s 2144 949 m 10 X s 2144 971 m 10 X s 2144 993 m 10 X s 2133 1016 m 21 X s 2144 1038 m 10 X s 2144 1060 m 10 X s 2144 1082 m 10 X s 2133 1104 m 21 X s 2144 1126 m 10 X s 2144 1149 m 10 X s 2144
 1171 m 10 X s 2133 1193 m 21 X s 2144 1215 m 10 X s 2144 1237 m 10 X s 2144 1259 m 10 X s 2133 1282 m 21 X s 2144 1304 m 10 X s 2144 1326 m 10 X s 2144 1348 m 10 X s 2133 1370 m 21 X s 2144 1392 m 10 X s 2144 1415 m 10 X s 2144 1437 m 10 X s 2133
 1459 m 21 X s 2133 572 m 21 X s 2144 550 m 10 X s 2144 528 m 10 X s 2144 506 m 10 X s 2133 1459 m 21 X s 2144 1481 m 10 X s 2144 1503 m 10 X s
 gsave  2268 1103 0 472 C 1314.45 1432.87 t 0 r /Helvetica findfont 56.3093 sf 0 0 m ( Data) show NC gr  1259 1456 m 7 Y s 1259 1432 m -7 Y s 1259 1444 m20
 gsave  2268 1103 0 472 C 1776.28 1432.87 t 0 r /Helvetica findfont 56.3093 sf 0 0 m ( Fakes \(MM\)) show NC gr  0.4 0.6 0.4 c 1682 1422 m 79 X 44 Y -79 X f black
 gsave  2268 1103 0 472 C 1403.26 1367.74 t 0 r /Helvetica findfont 56.3093 sf 0 0 m (single\255top) show NC gr 
 gsave  2268 1103 0 472 C 1373.66 1367.74 t 0 r /Helvetica-Oblique findfont 56.3093 sf 0 0 m (/) show NC gr 
 gsave  2268 1103 0 472 C 1352.93 1367.74 t 0 r /Helvetica-Oblique findfont 56.3093 sf 0 0 m (t) show NC gr  6 lw 1353 1412 m 21 X s
 gsave  2268 1103 0 472 C 1332.21 1367.74 t 0 r /Helvetica-Oblique findfont 56.3093 sf 0 0 m (t) show NC gr 
 gsave  2268 1103 0 472 C 1314.45 1367.74 t 0 r /Helvetica findfont 56.3093 sf 0 0 m ( ) show NC gr  0.06 0.54 0.06 c 3 lw 1219 1359 m 79 X 44 Y -79 X f 6 lw black
 gsave  2268 1103 0 472 C 1906.54 1367.74 t 0 r /Helvetica findfont 56.3093 sf 0 0 m (+jets) show NC gr 
 gsave  2268 1103 0 472 C 1794.04 1367.74 t 0 r /Helvetica-Oblique findfont 56.3093 sf 0 0 m (W/Z) show NC gr 
 gsave  2268 1103 0 472 C 1776.28 1367.74 t 0 r /Helvetica findfont 56.3093 sf 0 0 m ( ) show NC gr  1 0.653333 0 c 3 lw 1682 1359 m 79 X 44 Y -79 X f black
 gsave  2268 1103 0 472 C 1512.8 1305.57 t 0 r /Helvetica findfont 56.3093 sf 0 0 m (+jets) show NC gr 
 gsave  2268 1103 0 472 C 1332.21 1305.57 t 0 r /Helvetica-Oblique findfont 56.3093 sf 0 0 m (WZ/ZZ) show NC gr 
 gsave  2268 1103 0 472 C 1314.45 1305.57 t 0 r /Helvetica findfont 56.3093 sf 0 0 m ( ) show NC gr  0.413333 1 0 c 3 lw 1219 1296 m 79 X 44 Y -79 X f black
 gsave  2268 1103 0 472 C 1835.49 1305.57 t 0 r /Helvetica-Oblique findfont 56.3093 sf 0 0 m (Z) show NC gr 
 gsave  2268 1103 0 472 C 1814.77 1305.57 t 0 r /Helvetica-Oblique findfont 56.3093 sf 0 0 m (t) show NC gr  6 lw 1815 1350 m 20 X s
 gsave  2268 1103 0 472 C 1794.04 1305.57 t 0 r /Helvetica-Oblique findfont 56.3093 sf 0 0 m (t) show NC gr 
 gsave  2268 1103 0 472 C 1776.28 1305.57 t 0 r /Helvetica findfont 56.3093 sf 0 0 m ( ) show NC gr  0.6 0.2 1 c 3 lw 1682 1296 m 79 X 44 Y -79 X f 6 lw black
 gsave  2268 1103 0 472 C 1373.66 1243.4 t 0 r /Helvetica-Oblique findfont 56.3093 sf 0 0 m (W) show NC gr 
 gsave  2268 1103 0 472 C 1352.93 1243.4 t 0 r /Helvetica-Oblique findfont 56.3093 sf 0 0 m (t) show NC gr  6 lw 1353 1288 m 21 X s
 gsave  2268 1103 0 472 C 1332.21 1243.4 t 0 r /Helvetica-Oblique findfont 56.3093 sf 0 0 m (t) show NC gr 
 gsave  2268 1103 0 472 C 1314.45 1243.4 t 0 r /Helvetica findfont 56.3093 sf 0 0 m ( ) show NC gr  0.54 0.06 0.06 c 3 lw 1219 1233 m 79 X 44 Y -79 X f 6 lw black
 gsave  2268 1103 0 472 C 1794.04 1243.4 t 0 r /Helvetica-Oblique findfont 56.3093 sf 0 0 m (tZq) show NC gr 
 gsave  2268 1103 0 472 C 1776.28 1243.4 t 0 r /Helvetica findfont 56.3093 sf 0 0 m ( ) show NC gr  1 0 1 c 3 lw 1682 1233 m 79 X 44 Y -79 X f black
 gsave  2268 1103 0 472 C 1373.66 1178.27 t 0 r /Helvetica-Oblique findfont 56.3093 sf 0 0 m (H) show NC gr 
 gsave  2268 1103 0 472 C 1352.93 1178.27 t 0 r /Helvetica-Oblique findfont 56.3093 sf 0 0 m (t) show NC gr  6 lw 1353 1223 m 21 X s
 gsave  2268 1103 0 472 C 1332.21 1178.27 t 0 r /Helvetica-Oblique findfont 56.3093 sf 0 0 m (t) show NC gr 
 gsave  2268 1103 0 472 C 1314.45 1178.27 t 0 r /Helvetica findfont 56.3093 sf 0 0 m ( ) show NC gr  0 0 1 c 3 lw 1219 1170 m 79 X 44 Y -79 X f 6 lw black
 gsave  2268 1103 0 472 C 1794.04 1178.27 t 0 r /Helvetica-Oblique findfont 56.3093 sf 0 0 m (tWZ/tWH) show NC gr 
 gsave  2268 1103 0 472 C 1776.28 1178.27 t 0 r /Helvetica findfont 56.3093 sf 0 0 m ( ) show NC gr  0.2 0.8 0.8 c 3 lw 1682 1170 m 79 X 44 Y -79 X f black
 gsave  2268 1103 0 472 C 1332.21 1116.1 t 0 r /Helvetica-Oblique findfont 56.3093 sf 0 0 m (tHq) show NC gr 
 gsave  2268 1103 0 472 C 1314.45 1116.1 t 0 r /Helvetica findfont 56.3093 sf 0 0 m ( ) show NC gr  1 0 0 c 3 lw 1219 1107 m 79 X 44 Y -79 X f black
 gsave  2268 1103 0 472 C 1776.28 1116.1 t 0 r /Helvetica findfont 56.3093 sf 0 0 m ( Other) show NC gr  1 0.84 0 c 3 lw 1682 1107 m 79 X 44 Y -79 X f black
 gsave  2268 1103 0 472 C 1314.45 1053.93 t 0 r /Helvetica findfont 56.3093 sf 0 0 m ( Uncertainty) show NC gr  0.6 0.6 0.6 c 3 lw 1298 1058 m -13 -14 d s 1298 1077 m -33 -33 d s 1290 1088 m -44 -44 d s 1271 1088 m -44 -44 d s 1252 1088 m -33 -33 d s
 1233 1088 m -14 -13 d s 1 0.84 0 c 0.6 0.6 0.6 c black
 gsave  2268 1103 0 472 C 894.061 1329.25 t 0 r /Helvetica findfont 41.4911 sf 0 0 m (\2551) show NC gr 
 gsave  2268 1103 0 472 C 399.663 1299.64 t 0 r /Helvetica findfont 62.2366 sf 0 0 m ( = 13 TeV,  139 fb) show NC gr 
 gsave  2268 1103 0 472 C 370.058 1299.64 t 0 r /Helvetica findfont 62.2366 sf 0 0 m (s) show NC gr  6 lw 349 1335 m 6 -38 d s 3 lw 355 1297 m 6 56 d s 361 1353 m 39 X s
 gsave  2268 1103 0 472 C 899.982 1201.95 t 0 r /Helvetica findfont 62.2366 sf 0 0 m (\)) show NC gr 
 gsave  2268 1103 0 472 C 843.733 1169.38 t 0 r /Helvetica findfont 41.4911 sf 0 0 m (HF) show NC gr 
 gsave  2268 1103 0 472 C 337.493 1201.95 t 0 r /Helvetica findfont 62.2366 sf 0 0 m ( 2L\(SS\), CR\(el/mu) show NC gr 
 gsave  2268 1103 0 472 C 337.493 1400.3 t 0 r /Helvetica-BoldOblique findfont 71.1276 sf 0 0 m (ATLAS) show NC gr 
 gsave  2268 1103 0 472 C 633.54 1400.3 t 0 r /Helvetica findfont 71.1276 sf 0 0 m (Internal) show NC gr 
 gr  gr showpage
end
%%EOF
