%!PS-Adobe-2.0 EPSF-2.0
%%BoundingBox:  0 0 567 394
%%Title: /lhome/ific/c/cardillo/tHq/Plots/Plots-30-05-22-PLIV-SF/2LSS_MM/Ht_CRttW.eps: Ht_CRttW
%%Creator: ROOT Version 6.20/06
%%CreationDate: Mon May 30 19:25:23 2022
%%DocumentNeededResources: ProcSet (FontSetInit)
%%EndComments
%%BeginProlog
80 dict begin
/s {stroke} def /l {lineto} def /m {moveto} def /t {translate} def
/r {rotate} def /rl {roll}  def /R {repeat} def
/d {rlineto} def /rm {rmoveto} def /gr {grestore} def /f {eofill} def
/c {setrgbcolor} def /black {0 setgray} def /sd {setdash} def
/cl {closepath} def /sf {scalefont setfont} def /lw {setlinewidth} def
/box {m dup 0 exch d exch 0 d 0 exch neg d cl} def
/NC{systemdict begin initclip end}def/C{NC box clip newpath}def
/bl {box s} def /bf {gsave box gsave f grestore 1 lw [] 0 sd s grestore} def /Y { 0 exch d} def /X { 0 d} def 
/K {{pop pop 0 moveto} exch kshow} bind def
/ita {/ang 15 def gsave [1 0 ang dup sin exch cos div 1 0 0] concat} def 
/mp {newpath /y exch def /x exch def} def
/side {[w .77 mul w .23 mul] .385 w mul sd w 0 l currentpoint t -144 r} def
/mr {mp x y w2 0 360 arc} def /m24 {mr s} def /m20 {mr f} def
/mb {mp x y w2 add m w2 neg 0 d 0 w neg d w 0 d 0 w d cl} def
/mt {mp x y w2 add m w2 neg w neg d w 0 d cl} def
/w4 {w 4 div} def
/w6 {w 6 div} def
/w8 {w 8 div} def
/m21 {mb f} def /m25 {mb s} def /m22 {mt f} def /m26{mt s} def
/m23 {mp x y w2 sub m w2 w d w neg 0 d cl f} def
/m27 {mp x y w2 add m w3 neg w2 neg d w3 w2 neg d w3 w2 d cl s} def
/m28 {mp x w2 sub y w2 sub w3 add m w3 0 d  0 w3 neg d w3 0 d 0 w3 d w3 0 d  0 w3 d w3 neg 0 d 0 w3 d w3 neg 0 d 0 w3 neg d w3 neg 0 d cl s } def
/m29 {mp gsave x w2 sub y w2 add w3 sub m currentpoint t 4 {side} repeat cl fill gr} def
/m30 {mp gsave x w2 sub y w2 add w3 sub m currentpoint t 4 {side} repeat cl s gr} def
/m31 {mp x y w2 sub m 0 w d x w2 sub y m w 0 d x w2 sub y w2 add m w w neg d x w2 sub y w2 sub m w w d s} def
/m32 {mp x y w2 sub m w2 w d w neg 0 d cl s} def
/m33 {mp x y w2 add m w3 neg w2 neg d w3 w2 neg d w3 w2 d cl f} def
/m34 {mp x w2 sub y w2 sub w3 add m w3 0 d  0 w3 neg d w3 0 d 0 w3 d w3 0 d  0 w3 d w3 neg 0 d 0 w3 d w3 neg 0 d 0 w3 neg d w3 neg 0 d cl f } def
/m35 {mp x y w2 add m w2 neg w2 neg d w2 w2 neg d w2 w2 d w2 neg w2 d x y w2 sub m 0 w d x w2 sub y m w 0 d s} def
/m36 {mb x w2 sub y w2 add m w w neg d x w2 sub y w2 sub m w w d s} def
/m37 {mp x y m w4 neg w2 d w4 neg w2 neg d w2 0 d  w4 neg w2 neg d w2 0 d w4 neg w2 d w2 0 d w4 neg w2 d w4 neg w2 neg d cl s} def
/m38 {mp x w4 sub y w2 add m w4 neg w4 neg d 0 w2 neg d w4 w4 neg d w2 0 d w4 w4 d 0 w2 d w4 neg w4 d w2 neg 0 d x y w2 sub m 0 w d x w2 sub y m w 0 d cl s} def
/m39 {mp x y m w4 neg w2 d w4 neg w2 neg d w2 0 d  w4 neg w2 neg d w2 0 d w4 neg w2 d w2 0 d w4 neg w2 d w4 neg w2 neg d cl f} def
/m40 {mp x y m w4 w2 d w4 w4 neg d w2 neg w4 neg d w2 w4 neg d w4 neg w4 neg d w4 neg w2 d w4 neg w2 neg d w4 neg w4 d w2 w4 d w2 neg w4 d w4 w4 d w4 w2 neg d cl s} def
/m41 {mp x y m w4 w2 d w4 w4 neg d w2 neg w4 neg d w2 w4 neg d w4 neg w4 neg d w4 neg w2 d w4 neg w2 neg d w4 neg w4 d w2 w4 d w2 neg w4 d w4 w4 d w4 w2 neg d cl f} def
/m42 {mp x y w2 add m w8 neg w2 -3 4 div mul d w2 -3 4 div mul w8 neg d w2 3 4 div mul w8 neg d w8 w2 -3 4 div mul d w8 w2 3 4 div mul d w2 3 4 div mul w8 d w2 -3 4 div mul w8 d w8 neg w2 3 4 div mul d cl s} def
/m43 {mp x y w2 add m w8 neg w2 -3 4 div mul d w2 -3 4 div mul w8 neg d w2 3 4 div mul w8 neg d w8 w2 -3 4 div mul d w8 w2 3 4 div mul d w2 3 4 div mul w8 d w2 -3 4 div mul w8 d w8 neg w2 3 4 div mul d cl f} def
/m44 {mp x y m w6 neg w2 d w2 2 3 div mul 0 d w6 neg w2 neg d w2 w6 d 0 w2 -2 3 div mul d w2 neg w6 d w6 w2 neg d w2 -2 3 div mul 0 d w6 w2 d w2 neg w6 neg d 0 w2 2 3 div mul d w2 w6 neg d cl s} def
/m45 {mp x y m w6 neg w2 d w2 2 3 div mul 0 d w6 neg w2 neg d w2 w6 d 0 w2 -2 3 div mul d w2 neg w6 d w6 w2 neg d w2 -2 3 div mul 0 d w6 w2 d w2 neg w6 neg d 0 w2 2 3 div mul d w2 w6 neg d cl f} def
/m46 {mp x y w4 add m w4 neg w4 d w4 neg w4 neg d  w4 w4 neg d w4 neg w4 neg d w4 w4 neg d w4 w4 d w4 w4 neg d w4 w4 d w4 neg w4 d w4 w4 d w4 neg w4 d w4 neg w4 neg d cl s} def
/m47 {mp x y w4 add m w4 neg w4 d w4 neg w4 neg d w4 w4 neg d w4 neg w4 neg d  w4 w4 neg d w4 w4 d w4 w4 neg d w4 w4 d w4 neg w4 d w4 w4 d w4 neg w4 d w4 neg w4 neg d cl f} def
/m48 {mp x y w4 add m w4 neg w4 d w4 neg w4 neg d w4 w4 neg d  w4 neg w4 neg d w4 w4 neg d w4 w4 d w4 w4 neg d w4 w4 d w4 neg w4 d w4 w4 d w4 neg w4 d w4 neg w4 neg d  w4 w4 neg d w4 neg w4 neg d w4 neg w4 d w4 w4 d cl f} def
/m49 {mp x w2 sub w3 add y w2 sub w3 add m  0 w3 neg d w3 0 d 0 w3 d w3 0 d 0 w3 d w3 neg 0 d 0 w3 d w3 neg 0 d 0 w3 neg d w3 neg 0 d 0 w3 neg d w3 0 d 0 w3 d w3 0 d 0 w3 neg d w3 neg 0 d cl f } def
/m2 {mp x y w2 sub m 0 w d x w2 sub y m w 0 d s} def
/m5 {mp x w2 sub y w2 sub m w w d x w2 sub y w2 add m w w neg d s} def
%%IncludeResource: ProcSet (FontSetInit)
%%IncludeResource: font Times-Roman
%%IncludeResource: font Times-Italic
%%IncludeResource: font Times-Bold
%%IncludeResource: font Times-BoldItalic
%%IncludeResource: font Helvetica
%%IncludeResource: font Helvetica-Oblique
%%IncludeResource: font Helvetica-Bold
%%IncludeResource: font Helvetica-BoldOblique
%%IncludeResource: font Courier
%%IncludeResource: font Courier-Oblique
%%IncludeResource: font Courier-Bold
%%IncludeResource: font Courier-BoldOblique
%%IncludeResource: font Symbol
%%IncludeResource: font ZapfDingbats
/reEncode {exch findfont dup length dict begin {1 index /FID eq  {pop pop} {def} ifelse } forall /Encoding exch def currentdict end dup /FontName get exch definefont pop } def [/Times-Bold /Times-Italic /Times-BoldItalic /Helvetica /Helvetica-Oblique
 /Helvetica-Bold /Helvetica-BoldOblique /Courier /Courier-Oblique /Courier-Bold /Courier-BoldOblique /Times-Roman /AvantGarde-Book /AvantGarde-BookOblique /AvantGarde-Demi /AvantGarde-DemiOblique /Bookman-Demi /Bookman-DemiItalic /Bookman-Light
 /Bookman-LightItalic /Helvetica-Narrow /Helvetica-Narrow-Bold /Helvetica-Narrow-BoldOblique /Helvetica-Narrow-Oblique /NewCenturySchlbk-Roman /NewCenturySchlbk-Bold /NewCenturySchlbk-BoldItalic /NewCenturySchlbk-Italic /Palatino-Bold
 /Palatino-BoldItalic /Palatino-Italic /Palatino-Roman ] {ISOLatin1Encoding reEncode } forall
%%EndProlog
%%BeginSetup
%%EndSetup
newpath  gsave  .25 .25 scale  gsave  0 0 t black[  ] 0 sd 3 lw 1 1 1 c 2268 1575 0 0 bf black 1 1 1 c 2268 472 0 0 bf black 1 1 1 c 1927 274 227 189 bf black 1927 274 227 189 bl 227 189 m 1927 X s 227 201 m -12 Y s 282 195 m -6 Y s 337 195 m -6 Y s
 392 195 m -6 Y s 447 195 m -6 Y s 502 201 m -12 Y s 557 195 m -6 Y s 612 195 m -6 Y s 667 195 m -6 Y s 722 195 m -6 Y s 778 201 m -12 Y s 833 195 m -6 Y s 888 195 m -6 Y s 943 195 m -6 Y s 998 195 m -6 Y s 1053 201 m -12 Y s 1108 195 m -6 Y s 1163
 195 m -6 Y s 1218 195 m -6 Y s 1273 195 m -6 Y s 1328 201 m -12 Y s 1383 195 m -6 Y s 1438 195 m -6 Y s 1493 195 m -6 Y s 1549 195 m -6 Y s 1604 201 m -12 Y s 1659 195 m -6 Y s 1714 195 m -6 Y s 1769 195 m -6 Y s 1824 195 m -6 Y s 1879 201 m -12 Y s
 1934 195 m -6 Y s 1989 195 m -6 Y s 2044 195 m -6 Y s 2099 195 m -6 Y s 2154 201 m -12 Y s
 gsave  2268 472 0 0 C 180.588 127.3 t 0 r /Helvetica findfont 53.4895 sf 0 0 m (300) show NC gr 
 gsave  2268 472 0 0 C 455.912 127.3 t 0 r /Helvetica findfont 53.4895 sf 0 0 m (400) show NC gr 
 gsave  2268 472 0 0 C 731.235 127.3 t 0 r /Helvetica findfont 53.4895 sf 0 0 m (500) show NC gr 
 gsave  2268 472 0 0 C 1006.56 127.3 t 0 r /Helvetica findfont 53.4895 sf 0 0 m (600) show NC gr 
 gsave  2268 472 0 0 C 1281.88 127.3 t 0 r /Helvetica findfont 53.4895 sf 0 0 m (700) show NC gr 
 gsave  2268 472 0 0 C 1557.2 127.3 t 0 r /Helvetica findfont 53.4895 sf 0 0 m (800) show NC gr 
 gsave  2268 472 0 0 C 1832.53 127.3 t 0 r /Helvetica findfont 53.4895 sf 0 0 m (900) show NC gr 
 gsave  2268 472 0 0 C 2093.05 127.3 t 0 r /Helvetica findfont 53.4895 sf 0 0 m (1000) show NC gr 
 gsave  2268 472 0 0 C 1995.35 47.3674 t 0 r /Helvetica findfont 56.4611 sf 0 0 m ( [GeV]) show NC gr 
 gsave  2268 472 0 0 C 1971.67 29.6047 t 0 r /Helvetica findfont 38.6313 sf 0 0 m (T) show NC gr 
 gsave  2268 472 0 0 C 1924.3 47.3674 t 0 r /Helvetica-Oblique findfont 56.4611 sf 0 0 m (H) show NC gr  227 463 m 1927 X s 227 451 m 12 Y s 282 457 m 6 Y s 337 457 m 6 Y s 392 457 m 6 Y s 447 457 m 6 Y s 502 451 m 12 Y s 557 457 m 6 Y s 612 457 m 6
 Y s 667 457 m 6 Y s 722 457 m 6 Y s 778 451 m 12 Y s 833 457 m 6 Y s 888 457 m 6 Y s 943 457 m 6 Y s 998 457 m 6 Y s 1053 451 m 12 Y s 1108 457 m 6 Y s 1163 457 m 6 Y s 1218 457 m 6 Y s 1273 457 m 6 Y s 1328 451 m 12 Y s 1383 457 m 6 Y s 1438 457 m
 6 Y s 1493 457 m 6 Y s 1549 457 m 6 Y s 1604 451 m 12 Y s 1659 457 m 6 Y s 1714 457 m 6 Y s 1769 457 m 6 Y s 1824 457 m 6 Y s 1879 451 m 12 Y s 1934 457 m 6 Y s 1989 457 m 6 Y s 2044 457 m 6 Y s 2099 457 m 6 Y s 2154 451 m 12 Y s 227 189 m 274 Y s
 240 240 m -13 X s 240 326 m -13 X s 240 412 m -13 X s 240 240 m -13 X s 240 412 m -13 X s
 gsave  2268 472 0 0 C 118.419 222.035 t 0 r /Helvetica findfont 53.4895 sf 0 0 m (0.5) show NC gr 
 gsave  2268 472 0 0 C 171.707 307.888 t 0 r /Helvetica findfont 53.4895 sf 0 0 m (1) show NC gr 
 gsave  2268 472 0 0 C 118.419 393.742 t 0 r /Helvetica findfont 53.4895 sf 0 0 m (1.5) show NC gr 
 gsave  2268 472 0 0 C 71.0512 230.916 t 90 r /Helvetica findfont 53.4895 sf 0 0 m (Data / SM) show NC gr  2154 189 m 274 Y s 2141 240 m 13 X s 2141 326 m 13 X s 2141 412 m 13 X s 2141 240 m 13 X s 2141 412 m 13 X s 227 189 m 1927 X s 227 463 m 1927
 X s 227 189 m 274 Y s[ 4 8] 0 sd 2154 240 m -1927 X s 2154 326 m -1927 X s 2154 412 m -1927 X s 2154 240 m -1927 X s 2154 412 m -1927 X s[  ] 0 sd 2154 189 m 274 Y s 1 1 0.6 c 137 0 227 326 bf 138 0 364 326 bf 138 0 502 326 bf 138 0 640 326 bf 137 0
 778 326 bf 138 0 915 326 bf 138 0 1053 326 bf 137 0 1191 326 bf 138 0 1328 326 bf 138 0 1466 326 bf 137 0 1604 326 bf 138 0 1741 326 bf 138 0 1879 326 bf 137 0 2017 326 bf black 0.6 0.6 0.6 c 364 327 m -4 -4 d s 347 329 m -6 -6 d s 328 329 m -6 -6 d
 s 309 329 m -6 -6 d s 289 329 m -6 -6 d s 270 329 m -6 -6 d s 251 329 m -6 -6 d s 232 329 m -5 -5 d s 501 329 m -6 -6 d s 482 329 m -7 -6 d s 463 329 m -7 -6 d s 444 329 m -7 -6 d s 424 329 m -6 -6 d s 405 329 m -7 -6 d s 386 329 m -7 -6 d s 367 329
 m -3 -2 d s 636 330 m -7 -8 d s 617 330 m -7 -8 d s 598 330 m -7 -8 d s 579 330 m -8 -8 d s 559 330 m -7 -8 d s 540 330 m -7 -8 d s 521 330 m -7 -8 d s 771 330 m -7 -8 d s 752 330 m -8 -8 d s 733 330 m -8 -8 d s 713 330 m -7 -8 d s 694 330 m -7 -8 d
 s 675 330 m -8 -8 d s 656 330 m -8 -8 d s 907 331 m -10 -10 d s 888 331 m -10 -10 d s 868 331 m -9 -10 d s 849 331 m -9 -10 d s 830 331 m -10 -10 d s 811 331 m -10 -10 d s 791 331 m -9 -10 d s 1053 323 m -2 -2 d s 1042 332 m -11 -11 d s 1023 332 m
 -11 -11 d s 1004 332 m -11 -11 d s 985 332 m -11 -11 d s 965 332 m -11 -11 d s 946 332 m -11 -11 d s 927 332 m -11 -11 d s 1191 326 m -5 -5 d s 1176 331 m -9 -10 d s 1157 331 m -10 -10 d s 1138 331 m -10 -10 d s 1119 331 m -10 -10 d s 1099 331 m -9
 -10 d s 1080 331 m -10 -10 d s 1061 331 m -8 -8 d s 1328 329 m -11 -11 d s 1314 334 m -16 -16 d s 1295 334 m -16 -16 d s 1276 334 m -16 -16 d s 1257 334 m -17 -16 d s 1237 334 m -16 -16 d s 1218 334 m -16 -16 d s 1199 334 m -8 -8 d s 1466 332 m -12
 -12 d s 1447 332 m -12 -12 d s 1428 332 m -12 -12 d s 1408 332 m -12 -12 d s 1389 332 m -12 -12 d s 1370 332 m -12 -12 d s 1351 332 m -12 -12 d s 1331 332 m -3 -3 d s 1602 333 m -14 -14 d s 1583 333 m -15 -14 d s 1563 333 m -14 -14 d s 1544 333 m
 -14 -14 d s 1525 333 m -14 -14 d s 1506 333 m -14 -14 d s 1486 333 m -14 -14 d s 1467 333 m -1 -1 d s 1737 333 m -15 -14 d s 1718 333 m -15 -14 d s 1698 333 m -14 -14 d s 1679 333 m -15 -14 d s 1660 333 m -15 -14 d s 1641 333 m -15 -14 d s 1621 333
 m -14 -14 d s 1879 322 m -5 -5 d s 1873 335 m -18 -18 d s 1854 335 m -18 -18 d s 1835 335 m -18 -18 d s 1815 335 m -18 -18 d s 1796 335 m -18 -18 d s 1777 335 m -18 -18 d s 1758 335 m -17 -16 d s 2017 325 m -13 -13 d s 2013 340 m -28 -28 d s 1994
 340 m -29 -28 d s 1975 340 m -29 -28 d s 1955 340 m -28 -28 d s 1936 340 m -28 -28 d s 1917 340 m -29 -28 d s 1898 340 m -19 -18 d s 2154 328 m -3 -4 d s 2136 328 m -5 -4 d s 2116 328 m -4 -4 d s 2097 328 m -4 -4 d s 2078 328 m -4 -4 d s 2059 328 m
 -4 -4 d s 2039 328 m -4 -4 d s 2020 328 m -3 -3 d s black 1 1 1 c black 296 279 m 16 Y s 296 318 m 16 Y s /w 26 def /w2 {w 2 div} def /w3 {w 3 div} def 296 306 m20 433 352 m 22 Y s 433 398 m 21 Y s 433 386 m20 571 318 m 21 Y s 571 363 m 21 Y s 571
 351 m20 709 335 m 27 Y s 709 386 m 27 Y s 709 374 m20 846 264 m 22 Y s 846 310 m 22 Y s 846 298 m20 984 223 m 20 Y s 984 267 m 20 Y s 984 255 m20 1122 350 m 49 Y s 1122 423 m 40 Y s 1122 411 m20 1259 233 m 36 Y s 1259 293 m 36 Y s 1259 281 m20 1397
 238 m 46 Y s 1397 308 m 45 Y s 1397 296 m20 1535 330 m 85 Y s 1535 438 m 25 Y s 1535 427 m20 1672 264 m 77 Y s 1672 365 m 76 Y s 1672 353 m20 1948 239 m 103 Y s 1948 366 m 97 Y s 1948 354 m20 2085 256 m 39 Y s 2085 319 m 39 Y s 2085 307 m20 227 326
 m 1927 X s 227 189 m 1927 X s 227 201 m -12 Y s 282 195 m -6 Y s 337 195 m -6 Y s 392 195 m -6 Y s 447 195 m -6 Y s 502 201 m -12 Y s 557 195 m -6 Y s 612 195 m -6 Y s 667 195 m -6 Y s 722 195 m -6 Y s 778 201 m -12 Y s 833 195 m -6 Y s 888 195 m -6
 Y s 943 195 m -6 Y s 998 195 m -6 Y s 1053 201 m -12 Y s 1108 195 m -6 Y s 1163 195 m -6 Y s 1218 195 m -6 Y s 1273 195 m -6 Y s 1328 201 m -12 Y s 1383 195 m -6 Y s 1438 195 m -6 Y s 1493 195 m -6 Y s 1549 195 m -6 Y s 1604 201 m -12 Y s 1659 195 m
 -6 Y s 1714 195 m -6 Y s 1769 195 m -6 Y s 1824 195 m -6 Y s 1879 201 m -12 Y s 1934 195 m -6 Y s 1989 195 m -6 Y s 2044 195 m -6 Y s 2099 195 m -6 Y s 2154 201 m -12 Y s 227 463 m 1927 X s 227 451 m 12 Y s 282 457 m 6 Y s 337 457 m 6 Y s 392 457 m
 6 Y s 447 457 m 6 Y s 502 451 m 12 Y s 557 457 m 6 Y s 612 457 m 6 Y s 667 457 m 6 Y s 722 457 m 6 Y s 778 451 m 12 Y s 833 457 m 6 Y s 888 457 m 6 Y s 943 457 m 6 Y s 998 457 m 6 Y s 1053 451 m 12 Y s 1108 457 m 6 Y s 1163 457 m 6 Y s 1218 457 m 6
 Y s 1273 457 m 6 Y s 1328 451 m 12 Y s 1383 457 m 6 Y s 1438 457 m 6 Y s 1493 457 m 6 Y s 1549 457 m 6 Y s 1604 451 m 12 Y s 1659 457 m 6 Y s 1714 457 m 6 Y s 1769 457 m 6 Y s 1824 457 m 6 Y s 1879 451 m 12 Y s 1934 457 m 6 Y s 1989 457 m 6 Y s 2044
 457 m 6 Y s 2099 457 m 6 Y s 2154 451 m 12 Y s 227 189 m 274 Y s 240 240 m -13 X s 240 326 m -13 X s 240 412 m -13 X s 240 240 m -13 X s 240 412 m -13 X s 2154 189 m 274 Y s 2141 240 m 13 X s 2141 326 m 13 X s 2141 412 m 13 X s 2141 240 m 13 X s
 2141 412 m 13 X s 1 1 1 c 2268 1103 0 472 bf black 1 1 1 c 1927 1036 227 484 bf black 1927 1036 227 484 bl 1 1 1 c black 3 lw 227 484 m 1927 X s 227 502 m -18 Y s 282 493 m -9 Y s 337 493 m -9 Y s 392 493 m -9 Y s 447 493 m -9 Y s 502 502 m -18 Y s
 557 493 m -9 Y s 612 493 m -9 Y s 667 493 m -9 Y s 722 493 m -9 Y s 778 502 m -18 Y s 833 493 m -9 Y s 888 493 m -9 Y s 943 493 m -9 Y s 998 493 m -9 Y s 1053 502 m -18 Y s 1108 493 m -9 Y s 1163 493 m -9 Y s 1218 493 m -9 Y s 1273 493 m -9 Y s 1328
 502 m -18 Y s 1383 493 m -9 Y s 1438 493 m -9 Y s 1493 493 m -9 Y s 1549 493 m -9 Y s 1604 502 m -18 Y s 1659 493 m -9 Y s 1714 493 m -9 Y s 1769 493 m -9 Y s 1824 493 m -9 Y s 1879 502 m -18 Y s 1934 493 m -9 Y s 1989 493 m -9 Y s 2044 493 m -9 Y s
 2099 493 m -9 Y s 2154 502 m -18 Y s
 gsave  2268 1103 0 472 C 2069.37 402.623 t 0 r /Helvetica findfont 29.6365 sf 0 0 m ( [GeV]) show NC gr 
 gsave  2268 1103 0 472 C 2054.56 393.742 t 0 r /Helvetica findfont 20.7455 sf 0 0 m (T) show NC gr 
 gsave  2268 1103 0 472 C 2030.88 402.623 t 0 r /Helvetica-Oblique findfont 29.6365 sf 0 0 m (H) show NC gr  227 1520 m 1927 X s 227 1501 m 19 Y s 282 1510 m 10 Y s 337 1510 m 10 Y s 392 1510 m 10 Y s 447 1510 m 10 Y s 502 1501 m 19 Y s 557 1510 m 10
 Y s 612 1510 m 10 Y s 667 1510 m 10 Y s 722 1510 m 10 Y s 778 1501 m 19 Y s 833 1510 m 10 Y s 888 1510 m 10 Y s 943 1510 m 10 Y s 998 1510 m 10 Y s 1053 1501 m 19 Y s 1108 1510 m 10 Y s 1163 1510 m 10 Y s 1218 1510 m 10 Y s 1273 1510 m 10 Y s 1328
 1501 m 19 Y s 1383 1510 m 10 Y s 1438 1510 m 10 Y s 1493 1510 m 10 Y s 1549 1510 m 10 Y s 1604 1501 m 19 Y s 1659 1510 m 10 Y s 1714 1510 m 10 Y s 1769 1510 m 10 Y s 1824 1510 m 10 Y s 1879 1501 m 19 Y s 1934 1510 m 10 Y s 1989 1510 m 10 Y s 2044
 1510 m 10 Y s 2099 1510 m 10 Y s 2154 1501 m 19 Y s 227 484 m 1036 Y s 248 602 m -21 X s 237 626 m -10 X s 237 650 m -10 X s 237 674 m -10 X s 237 698 m -10 X s 248 721 m -21 X s 237 745 m -10 X s 237 769 m -10 X s 237 793 m -10 X s 237 817 m -10 X
 s 248 840 m -21 X s 237 864 m -10 X s 237 888 m -10 X s 237 912 m -10 X s 237 935 m -10 X s 248 959 m -21 X s 237 983 m -10 X s 237 1007 m -10 X s 237 1031 m -10 X s 237 1054 m -10 X s 248 1078 m -21 X s 237 1102 m -10 X s 237 1126 m -10 X s 237
 1150 m -10 X s 237 1173 m -10 X s 248 1197 m -21 X s 237 1221 m -10 X s 237 1245 m -10 X s 237 1269 m -10 X s 237 1292 m -10 X s 248 1316 m -21 X s 237 1340 m -10 X s 237 1364 m -10 X s 237 1388 m -10 X s 237 1411 m -10 X s 248 1435 m -21 X s 248
 602 m -21 X s 237 579 m -10 X s 237 555 m -10 X s 237 531 m -10 X s 237 507 m -10 X s 248 1435 m -21 X s 237 1459 m -10 X s 237 1483 m -10 X s 237 1507 m -10 X s
 gsave  2268 1103 0 472 C 145.063 583.212 t 0 r /Helvetica findfont 50.382 sf 0 0 m (10) show NC gr 
 gsave  2268 1103 0 472 C 145.063 701.63 t 0 r /Helvetica findfont 50.382 sf 0 0 m (20) show NC gr 
 gsave  2268 1103 0 472 C 145.063 820.049 t 0 r /Helvetica findfont 50.382 sf 0 0 m (30) show NC gr 
 gsave  2268 1103 0 472 C 145.063 941.428 t 0 r /Helvetica findfont 50.382 sf 0 0 m (40) show NC gr 
 gsave  2268 1103 0 472 C 145.063 1059.85 t 0 r /Helvetica findfont 50.382 sf 0 0 m (50) show NC gr 
 gsave  2268 1103 0 472 C 145.063 1178.27 t 0 r /Helvetica findfont 50.382 sf 0 0 m (60) show NC gr 
 gsave  2268 1103 0 472 C 145.063 1296.68 t 0 r /Helvetica findfont 50.382 sf 0 0 m (70) show NC gr 
 gsave  2268 1103 0 472 C 145.063 1415.1 t 0 r /Helvetica findfont 50.382 sf 0 0 m (80) show NC gr 
 gsave  2268 1103 0 472 C 62.1698 1154.58 t 90 r /Helvetica findfont 50.382 sf 0 0 m (Events / 50 GeV) show NC gr  2154 484 m 1036 Y s 2133 602 m 21 X s 2144 626 m 10 X s 2144 650 m 10 X s 2144 674 m 10 X s 2144 698 m 10 X s 2133 721 m 21 X s 2144
 745 m 10 X s 2144 769 m 10 X s 2144 793 m 10 X s 2144 817 m 10 X s 2133 840 m 21 X s 2144 864 m 10 X s 2144 888 m 10 X s 2144 912 m 10 X s 2144 935 m 10 X s 2133 959 m 21 X s 2144 983 m 10 X s 2144 1007 m 10 X s 2144 1031 m 10 X s 2144 1054 m 10 X s
 2133 1078 m 21 X s 2144 1102 m 10 X s 2144 1126 m 10 X s 2144 1150 m 10 X s 2144 1173 m 10 X s 2133 1197 m 21 X s 2144 1221 m 10 X s 2144 1245 m 10 X s 2144 1269 m 10 X s 2144 1292 m 10 X s 2133 1316 m 21 X s 2144 1340 m 10 X s 2144 1364 m 10 X s
 2144 1388 m 10 X s 2144 1411 m 10 X s 2133 1435 m 21 X s 2133 602 m 21 X s 2144 579 m 10 X s 2144 555 m 10 X s 2144 531 m 10 X s 2144 507 m 10 X s 2133 1435 m 21 X s 2144 1459 m 10 X s 2144 1483 m 10 X s 2144 1507 m 10 X s 0.4 0.6 0.4 c black 3 lw
 0.4 0.6 0.4 c 227 484 m 402 Y 137 X 12 Y 138 X -51 Y 138 X -66 Y 138 X -42 Y 137 X -52 Y 138 X -60 Y 138 X -31 Y 137 X -26 Y 138 X -27 Y 138 X -8 Y 137 X -16 Y 138 X -5 Y 138 X 90 Y 137 X -120 Y f 0.06 0.54 0.06 c 0.999 0.999 0.999 c black 3 lw
 0.999 0.999 0.999 c 227 484 m 363 Y 137 X 19 Y 138 X -54 Y 138 X -52 Y 138 X -34 Y 137 X -52 Y 138 X -54 Y 138 X -29 Y 137 X -25 Y 138 X -26 Y 138 X -7 Y 137 X -14 Y 138 X -6 Y 138 X 86 Y 137 X -115 Y f 0.06 0.54 0.06 c 0.999 0.999 0.999 c 0.06 0.54
 0.06 c 1 1 1 c black 0.06 0.54 0.06 c black 3 lw 0.06 0.54 0.06 c 227 484 m 363 Y 137 X 19 Y 138 X -54 Y 138 X -52 Y 138 X -34 Y 137 X -52 Y 138 X -54 Y 138 X -29 Y 137 X -25 Y 138 X -26 Y 138 X -7 Y 137 X -14 Y 138 X -6 Y 138 X 86 Y 137 X -115 Y f
 1 0.653333 0 c 0.999 0.999 0.999 c black 3 lw 0.999 0.999 0.999 c 227 484 m 355 Y 137 X 9 Y 138 X -48 Y 138 X -48 Y 138 X -43 Y 137 X -50 Y 138 X -41 Y 138 X -38 Y 137 X -16 Y 138 X -25 Y 138 X -6 Y 137 X -14 Y 138 X -8 Y 138 X 82 Y 137 X -109 Y f 1
 0.653333 0 c 0.999 0.999 0.999 c 1 0.653333 0 c 1 1 1 c black 1 0.653333 0 c black 3 lw 1 0.653333 0 c 227 484 m 355 Y 137 X 9 Y 138 X -48 Y 138 X -48 Y 138 X -43 Y 137 X -50 Y 138 X -41 Y 138 X -38 Y 137 X -16 Y 138 X -25 Y 138 X -6 Y 137 X -14 Y
 138 X -8 Y 138 X 82 Y 137 X -109 Y f 0.413333 1 0 c 0.999 0.999 0.999 c black 3 lw 0.999 0.999 0.999 c 227 484 m 354 Y 137 X 10 Y 138 X -48 Y 138 X -48 Y 138 X -43 Y 137 X -50 Y 138 X -41 Y 138 X -38 Y 137 X -16 Y 138 X -25 Y 138 X -6 Y 137 X -14 Y
 138 X -8 Y 138 X 82 Y 137 X -109 Y f 0.413333 1 0 c 0.999 0.999 0.999 c 0.413333 1 0 c 1 1 1 c black 0.413333 1 0 c black 3 lw 0.413333 1 0 c 227 484 m 354 Y 137 X 10 Y 138 X -48 Y 138 X -48 Y 138 X -43 Y 137 X -50 Y 138 X -41 Y 138 X -38 Y 137 X
 -16 Y 138 X -25 Y 138 X -6 Y 137 X -14 Y 138 X -8 Y 138 X 82 Y 137 X -109 Y f 0.6 0.2 1 c 0.999 0.999 0.999 c black 3 lw 0.999 0.999 0.999 c 227 484 m 339 Y 137 X 8 Y 138 X -48 Y 138 X -44 Y 138 X -42 Y 137 X -48 Y 138 X -39 Y 138 X -36 Y 137 X -16
 Y 138 X -23 Y 138 X -7 Y 137 X -12 Y 138 X -7 Y 138 X 68 Y 137 X -93 Y f 0.6 0.2 1 c 0.999 0.999 0.999 c 0.6 0.2 1 c 1 1 1 c black 0.6 0.2 1 c black 3 lw 0.6 0.2 1 c 227 484 m 339 Y 137 X 8 Y 138 X -48 Y 138 X -44 Y 138 X -42 Y 137 X -48 Y 138 X -39
 Y 138 X -36 Y 137 X -16 Y 138 X -23 Y 138 X -7 Y 137 X -12 Y 138 X -7 Y 138 X 68 Y 137 X -93 Y f 0.54 0.06 0.06 c 0.999 0.999 0.999 c black 3 lw 0.999 0.999 0.999 c 227 484 m 301 Y 137 X 5 Y 138 X -42 Y 138 X -41 Y 138 X -36 Y 137 X -42 Y 138 X -34
 Y 138 X -31 Y 137 X -15 Y 138 X -20 Y 138 X -6 Y 137 X -10 Y 138 X -7 Y 138 X 63 Y 137 X -85 Y f 0.54 0.06 0.06 c 0.999 0.999 0.999 c 0.54 0.06 0.06 c 1 1 1 c black 0.54 0.06 0.06 c black 3 lw 0.54 0.06 0.06 c 227 484 m 301 Y 137 X 5 Y 138 X -42 Y
 138 X -41 Y 138 X -36 Y 137 X -42 Y 138 X -34 Y 138 X -31 Y 137 X -15 Y 138 X -20 Y 138 X -6 Y 137 X -10 Y 138 X -7 Y 138 X 63 Y 137 X -85 Y f 1 0 1 c 0.999 0.999 0.999 c black 3 lw 0.999 0.999 0.999 c 227 484 m 51 Y 137 X 3 Y 138 X -5 Y 138 X -8 Y
 138 X -7 Y 137 X -9 Y 138 X -6 Y 138 X -6 Y 137 X -4 Y 138 X -2 Y 138 X -2 Y 137 X -2 Y 276 X 8 Y 137 X -11 Y f 1 0 1 c 0.999 0.999 0.999 c 1 0 1 c 1 1 1 c black 1 0 1 c black 3 lw 1 0 1 c 227 484 m 51 Y 137 X 3 Y 138 X -5 Y 138 X -8 Y 138 X -7 Y
 137 X -9 Y 138 X -6 Y 138 X -6 Y 137 X -4 Y 138 X -2 Y 138 X -2 Y 137 X -2 Y 276 X 8 Y 137 X -11 Y f 0 0 1 c 0.999 0.999 0.999 c black 3 lw 0.999 0.999 0.999 c 227 484 m 49 Y 137 X 3 Y 138 X -6 Y 138 X -8 Y 138 X -6 Y 137 X -9 Y 138 X -5 Y 138 X -6
 Y 137 X -4 Y 138 X -2 Y 138 X -1 Y 137 X -2 Y 138 X -1 Y 138 X 8 Y 137 X -10 Y f 0 0 1 c 0.999 0.999 0.999 c 0 0 1 c 1 1 1 c black 0 0 1 c black 3 lw 0 0 1 c 227 484 m 49 Y 137 X 3 Y 138 X -6 Y 138 X -8 Y 138 X -6 Y 137 X -9 Y 138 X -5 Y 138 X -6 Y
 137 X -4 Y 138 X -2 Y 138 X -1 Y 137 X -2 Y 138 X -1 Y 138 X 8 Y 137 X -10 Y f 0.2 0.8 0.8 c 0.999 0.999 0.999 c black 3 lw 0.999 0.999 0.999 c 227 484 m 5 Y 137 X 2 Y 138 X -1 Y 138 X -1 Y 275 X -2 Y 276 X -1 Y 275 X -1 Y 275 X -1 Y 276 X 4 Y 137 X
 -4 Y f 0.2 0.8 0.8 c 0.999 0.999 0.999 c 0.2 0.8 0.8 c 1 1 1 c black 0.2 0.8 0.8 c black 3 lw 0.2 0.8 0.8 c 227 484 m 5 Y 137 X 2 Y 138 X -1 Y 138 X -1 Y 275 X -2 Y 276 X -1 Y 275 X -1 Y 275 X -1 Y 276 X 4 Y 137 X -4 Y f 1 0 0 c 0.999 0.999 0.999 c
 black 3 lw 0.999 0.999 0.999 c 227 484 m 1 Y 137 X 1 Y 551 X -1 Y 551 X -1 Y 551 X 2 Y 137 X -2 Y f 1 0 0 c 0.999 0.999 0.999 c 1 0 0 c 1 1 1 c black 1 0 0 c black 3 lw 1 0 0 c 227 484 m 1 Y 137 X 1 Y 551 X -1 Y 551 X -1 Y 551 X 2 Y 137 X -2 Y f 1
 0.84 0 c 0.999 0.999 0.999 c black 3 lw 0.999 0.999 0.999 c 227 484 m 137 X 1 Y 1102 X -1 Y 551 X 2 Y 137 X -2 Y f 1 0.84 0 c 0.999 0.999 0.999 c 1 0.84 0 c 1 1 1 c black 1 0.84 0 c black 3 lw 1 0.84 0 c 227 484 m 137 X 1 Y 1102 X -1 Y 551 X 2 Y 137
 X -2 Y f black 1 1 1 c black 0.6 0.6 0.6 c 3 lw 364 893 m -14 -14 d s 345 893 m -15 -14 d s 325 893 m -14 -14 d s 306 893 m -14 -14 d s 287 893 m -14 -14 d s 268 893 m -15 -14 d s 248 893 m -14 -14 d s 229 893 m -2 -2 d s 3 lw 502 897 m -7 -7 d s
 492 906 m -16 -16 d s 473 906 m -16 -16 d s 454 906 m -17 -16 d s 434 906 m -16 -16 d s 415 906 m -16 -16 d s 396 906 m -16 -16 d s 377 906 m -13 -12 d s 3 lw 640 842 m -3 -3 d s 633 854 m -16 -15 d s 613 854 m -15 -15 d s 594 854 m -15 -15 d s 575
 854 m -15 -15 d s 556 854 m -16 -15 d s 536 854 m -15 -15 d s 517 854 m -15 -15 d s 3 lw 777 787 m -13 -13 d s 758 787 m -13 -13 d s 739 787 m -13 -13 d s 720 787 m -13 -13 d s 700 787 m -13 -13 d s 681 787 m -13 -13 d s 662 787 m -13 -13 d s 643
 787 m -3 -2 d s 3 lw 915 733 m -1 Y s 909 747 m -14 -15 d s 890 747 m -14 -15 d s 871 747 m -14 -15 d s 852 747 m -14 -15 d s 833 747 m -15 -15 d s 813 747 m -14 -15 d s 794 747 m -14 -15 d s 3 lw 1049 693 m -13 -13 d s 1029 693 m -13 -13 d s 1010
 693 m -13 -13 d s 991 693 m -13 -13 d s 972 693 m -13 -13 d s 953 693 m -14 -13 d s 933 693 m -13 -13 d s 3 lw 1191 624 m -2 -1 d s 1178 631 m -8 -8 d s 1159 631 m -8 -8 d s 1140 631 m -8 -8 d s 1121 631 m -9 -8 d s 1101 631 m -8 -8 d s 1082 631 m
 -8 -8 d s 1063 631 m -8 -8 d s 3 lw 1322 602 m -10 -11 d s 1303 602 m -11 -11 d s 1284 602 m -11 -11 d s 1265 602 m -11 -11 d s 1245 602 m -10 -11 d s 1226 602 m -10 -11 d s 1207 602 m -11 -11 d s 3 lw 1466 572 m -5 -5 d s 1448 573 m -6 -6 d s 1429
 573 m -7 -6 d s 1409 573 m -6 -6 d s 1390 573 m -6 -6 d s 1371 573 m -6 -6 d s 1352 573 m -7 -6 d s 1332 573 m -4 -4 d s 3 lw 1594 546 m -5 -5 d s 1574 546 m -5 -5 d s 1555 546 m -5 -5 d s 1536 546 m -5 -5 d s 1517 546 m -5 -5 d s 1497 546 m -5 -5 d
 s 1478 546 m -5 -5 d s 3 lw 1739 537 m -5 -4 d s 1719 537 m -4 -4 d s 1700 537 m -4 -4 d s 1681 537 m -4 -4 d s 1662 537 m -5 -4 d s 1642 537 m -4 -4 d s 1623 537 m -4 -4 d s 1604 537 m s 3 lw 1877 521 m -4 -4 d s 1858 521 m -4 -4 d s 1838 521 m -3
 -4 d s 1819 521 m -4 -4 d s 1800 521 m -4 -4 d s 1781 521 m -4 -4 d s 1761 521 m -3 -4 d s 1742 521 m -1 -1 d s 3 lw 2007 517 m -5 -6 d s 1988 517 m -5 -6 d s 1968 517 m -5 -6 d s 1949 517 m -5 -6 d s 1930 517 m -5 -6 d s 1911 517 m -5 -6 d s 1891
 517 m -5 -6 d s 3 lw 2153 605 m -3 -3 d s 2134 605 m -3 -3 d s 2115 605 m -3 -3 d s 2096 605 m -3 -3 d s 2076 605 m -3 -3 d s 2057 605 m -3 -3 d s 2038 605 m -3 -3 d s 2019 605 m -2 -2 d s black 3 lw 1 1 1 c black 296 775 m 53 Y s 296 852 m 53 Y s
 /w 24 def /w2 {w 2 div} def /w3 {w 3 div} def 296 840 m20 433 961 m 70 Y s 433 1054 m 70 Y s 433 1043 m20 571 829 m 59 Y s 571 912 m 58 Y s 571 900 m20 709 797 m 55 Y s 709 876 m 55 Y s 709 864 m20 846 647 m 39 Y s 846 709 m 39 Y s 846 698 m20 984
 565 m 26 Y s 984 614 m 26 Y s 984 602 m20 1122 647 m 39 Y s 1122 709 m 39 Y s 1122 698 m20 1259 535 m 20 Y s 1259 579 m 19 Y s 1259 567 m20 1397 526 m 17 Y s 1397 567 m 17 Y s 1397 555 m20 1535 545 m 22 Y s 1535 590 m 22 Y s 1535 579 m20 1672 516 m
 15 Y s 1672 555 m 14 Y s 1672 543 m20 1810 526 m 17 Y s 1810 567 m 17 Y s 1810 555 m20 1948 498 m 9 Y s 1948 531 m 9 Y s 1948 519 m20 2085 555 m 24 Y s 2085 602 m 24 Y s 2085 590 m20 227 484 m 1927 X s 227 502 m -18 Y s 282 493 m -9 Y s 337 493 m -9
 Y s 392 493 m -9 Y s 447 493 m -9 Y s 502 502 m -18 Y s 557 493 m -9 Y s 612 493 m -9 Y s 667 493 m -9 Y s 722 493 m -9 Y s 778 502 m -18 Y s 833 493 m -9 Y s 888 493 m -9 Y s 943 493 m -9 Y s 998 493 m -9 Y s 1053 502 m -18 Y s 1108 493 m -9 Y s
 1163 493 m -9 Y s 1218 493 m -9 Y s 1273 493 m -9 Y s 1328 502 m -18 Y s 1383 493 m -9 Y s 1438 493 m -9 Y s 1493 493 m -9 Y s 1549 493 m -9 Y s 1604 502 m -18 Y s 1659 493 m -9 Y s 1714 493 m -9 Y s 1769 493 m -9 Y s 1824 493 m -9 Y s 1879 502 m
 -18 Y s 1934 493 m -9 Y s 1989 493 m -9 Y s 2044 493 m -9 Y s 2099 493 m -9 Y s 2154 502 m -18 Y s 227 1520 m 1927 X s 227 1501 m 19 Y s 282 1510 m 10 Y s 337 1510 m 10 Y s 392 1510 m 10 Y s 447 1510 m 10 Y s 502 1501 m 19 Y s 557 1510 m 10 Y s 612
 1510 m 10 Y s 667 1510 m 10 Y s 722 1510 m 10 Y s 778 1501 m 19 Y s 833 1510 m 10 Y s 888 1510 m 10 Y s 943 1510 m 10 Y s 998 1510 m 10 Y s 1053 1501 m 19 Y s 1108 1510 m 10 Y s 1163 1510 m 10 Y s 1218 1510 m 10 Y s 1273 1510 m 10 Y s 1328 1501 m 19
 Y s 1383 1510 m 10 Y s 1438 1510 m 10 Y s 1493 1510 m 10 Y s 1549 1510 m 10 Y s 1604 1501 m 19 Y s 1659 1510 m 10 Y s 1714 1510 m 10 Y s 1769 1510 m 10 Y s 1824 1510 m 10 Y s 1879 1501 m 19 Y s 1934 1510 m 10 Y s 1989 1510 m 10 Y s 2044 1510 m 10 Y
 s 2099 1510 m 10 Y s 2154 1501 m 19 Y s 227 484 m 1036 Y s 248 602 m -21 X s 237 626 m -10 X s 237 650 m -10 X s 237 674 m -10 X s 237 698 m -10 X s 248 721 m -21 X s 237 745 m -10 X s 237 769 m -10 X s 237 793 m -10 X s 237 817 m -10 X s 248 840 m
 -21 X s 237 864 m -10 X s 237 888 m -10 X s 237 912 m -10 X s 237 935 m -10 X s 248 959 m -21 X s 237 983 m -10 X s 237 1007 m -10 X s 237 1031 m -10 X s 237 1054 m -10 X s 248 1078 m -21 X s 237 1102 m -10 X s 237 1126 m -10 X s 237 1150 m -10 X s
 237 1173 m -10 X s 248 1197 m -21 X s 237 1221 m -10 X s 237 1245 m -10 X s 237 1269 m -10 X s 237 1292 m -10 X s 248 1316 m -21 X s 237 1340 m -10 X s 237 1364 m -10 X s 237 1388 m -10 X s 237 1411 m -10 X s 248 1435 m -21 X s 248 602 m -21 X s 237
 579 m -10 X s 237 555 m -10 X s 237 531 m -10 X s 237 507 m -10 X s 248 1435 m -21 X s 237 1459 m -10 X s 237 1483 m -10 X s 237 1507 m -10 X s 2154 484 m 1036 Y s 2133 602 m 21 X s 2144 626 m 10 X s 2144 650 m 10 X s 2144 674 m 10 X s 2144 698 m 10
 X s 2133 721 m 21 X s 2144 745 m 10 X s 2144 769 m 10 X s 2144 793 m 10 X s 2144 817 m 10 X s 2133 840 m 21 X s 2144 864 m 10 X s 2144 888 m 10 X s 2144 912 m 10 X s 2144 935 m 10 X s 2133 959 m 21 X s 2144 983 m 10 X s 2144 1007 m 10 X s 2144 1031
 m 10 X s 2144 1054 m 10 X s 2133 1078 m 21 X s 2144 1102 m 10 X s 2144 1126 m 10 X s 2144 1150 m 10 X s 2144 1173 m 10 X s 2133 1197 m 21 X s 2144 1221 m 10 X s 2144 1245 m 10 X s 2144 1269 m 10 X s 2144 1292 m 10 X s 2133 1316 m 21 X s 2144 1340 m
 10 X s 2144 1364 m 10 X s 2144 1388 m 10 X s 2144 1411 m 10 X s 2133 1435 m 21 X s 2133 602 m 21 X s 2144 579 m 10 X s 2144 555 m 10 X s 2144 531 m 10 X s 2144 507 m 10 X s 2133 1435 m 21 X s 2144 1459 m 10 X s 2144 1483 m 10 X s 2144 1507 m 10 X s
 gsave  2268 1103 0 472 C 1314.45 1432.87 t 0 r /Helvetica findfont 56.3093 sf 0 0 m ( Data) show NC gr  1259 1456 m 7 Y s 1259 1432 m -7 Y s 1259 1444 m20
 gsave  2268 1103 0 472 C 1776.28 1432.87 t 0 r /Helvetica findfont 56.3093 sf 0 0 m ( Fakes \(MM\)) show NC gr  0.4 0.6 0.4 c 1682 1422 m 79 X 44 Y -79 X f black
 gsave  2268 1103 0 472 C 1403.26 1367.74 t 0 r /Helvetica findfont 56.3093 sf 0 0 m (single\255top) show NC gr 
 gsave  2268 1103 0 472 C 1373.66 1367.74 t 0 r /Helvetica-Oblique findfont 56.3093 sf 0 0 m (/) show NC gr 
 gsave  2268 1103 0 472 C 1352.93 1367.74 t 0 r /Helvetica-Oblique findfont 56.3093 sf 0 0 m (t) show NC gr  6 lw 1353 1412 m 21 X s
 gsave  2268 1103 0 472 C 1332.21 1367.74 t 0 r /Helvetica-Oblique findfont 56.3093 sf 0 0 m (t) show NC gr 
 gsave  2268 1103 0 472 C 1314.45 1367.74 t 0 r /Helvetica findfont 56.3093 sf 0 0 m ( ) show NC gr  0.06 0.54 0.06 c 3 lw 1219 1359 m 79 X 44 Y -79 X f 6 lw black
 gsave  2268 1103 0 472 C 1906.54 1367.74 t 0 r /Helvetica findfont 56.3093 sf 0 0 m (+jets) show NC gr 
 gsave  2268 1103 0 472 C 1794.04 1367.74 t 0 r /Helvetica-Oblique findfont 56.3093 sf 0 0 m (W/Z) show NC gr 
 gsave  2268 1103 0 472 C 1776.28 1367.74 t 0 r /Helvetica findfont 56.3093 sf 0 0 m ( ) show NC gr  1 0.653333 0 c 3 lw 1682 1359 m 79 X 44 Y -79 X f black
 gsave  2268 1103 0 472 C 1512.8 1305.57 t 0 r /Helvetica findfont 56.3093 sf 0 0 m (+jets) show NC gr 
 gsave  2268 1103 0 472 C 1332.21 1305.57 t 0 r /Helvetica-Oblique findfont 56.3093 sf 0 0 m (WZ/ZZ) show NC gr 
 gsave  2268 1103 0 472 C 1314.45 1305.57 t 0 r /Helvetica findfont 56.3093 sf 0 0 m ( ) show NC gr  0.413333 1 0 c 3 lw 1219 1296 m 79 X 44 Y -79 X f black
 gsave  2268 1103 0 472 C 1835.49 1305.57 t 0 r /Helvetica-Oblique findfont 56.3093 sf 0 0 m (Z) show NC gr 
 gsave  2268 1103 0 472 C 1814.77 1305.57 t 0 r /Helvetica-Oblique findfont 56.3093 sf 0 0 m (t) show NC gr  6 lw 1815 1350 m 20 X s
 gsave  2268 1103 0 472 C 1794.04 1305.57 t 0 r /Helvetica-Oblique findfont 56.3093 sf 0 0 m (t) show NC gr 
 gsave  2268 1103 0 472 C 1776.28 1305.57 t 0 r /Helvetica findfont 56.3093 sf 0 0 m ( ) show NC gr  0.6 0.2 1 c 3 lw 1682 1296 m 79 X 44 Y -79 X f 6 lw black
 gsave  2268 1103 0 472 C 1373.66 1243.4 t 0 r /Helvetica-Oblique findfont 56.3093 sf 0 0 m (W) show NC gr 
 gsave  2268 1103 0 472 C 1352.93 1243.4 t 0 r /Helvetica-Oblique findfont 56.3093 sf 0 0 m (t) show NC gr  6 lw 1353 1288 m 21 X s
 gsave  2268 1103 0 472 C 1332.21 1243.4 t 0 r /Helvetica-Oblique findfont 56.3093 sf 0 0 m (t) show NC gr 
 gsave  2268 1103 0 472 C 1314.45 1243.4 t 0 r /Helvetica findfont 56.3093 sf 0 0 m ( ) show NC gr  0.54 0.06 0.06 c 3 lw 1219 1233 m 79 X 44 Y -79 X f 6 lw black
 gsave  2268 1103 0 472 C 1794.04 1243.4 t 0 r /Helvetica-Oblique findfont 56.3093 sf 0 0 m (tZq) show NC gr 
 gsave  2268 1103 0 472 C 1776.28 1243.4 t 0 r /Helvetica findfont 56.3093 sf 0 0 m ( ) show NC gr  1 0 1 c 3 lw 1682 1233 m 79 X 44 Y -79 X f black
 gsave  2268 1103 0 472 C 1373.66 1178.27 t 0 r /Helvetica-Oblique findfont 56.3093 sf 0 0 m (H) show NC gr 
 gsave  2268 1103 0 472 C 1352.93 1178.27 t 0 r /Helvetica-Oblique findfont 56.3093 sf 0 0 m (t) show NC gr  6 lw 1353 1223 m 21 X s
 gsave  2268 1103 0 472 C 1332.21 1178.27 t 0 r /Helvetica-Oblique findfont 56.3093 sf 0 0 m (t) show NC gr 
 gsave  2268 1103 0 472 C 1314.45 1178.27 t 0 r /Helvetica findfont 56.3093 sf 0 0 m ( ) show NC gr  0 0 1 c 3 lw 1219 1170 m 79 X 44 Y -79 X f 6 lw black
 gsave  2268 1103 0 472 C 1794.04 1178.27 t 0 r /Helvetica-Oblique findfont 56.3093 sf 0 0 m (tWZ/tWH) show NC gr 
 gsave  2268 1103 0 472 C 1776.28 1178.27 t 0 r /Helvetica findfont 56.3093 sf 0 0 m ( ) show NC gr  0.2 0.8 0.8 c 3 lw 1682 1170 m 79 X 44 Y -79 X f black
 gsave  2268 1103 0 472 C 1332.21 1116.1 t 0 r /Helvetica-Oblique findfont 56.3093 sf 0 0 m (tHq) show NC gr 
 gsave  2268 1103 0 472 C 1314.45 1116.1 t 0 r /Helvetica findfont 56.3093 sf 0 0 m ( ) show NC gr  1 0 0 c 3 lw 1219 1107 m 79 X 44 Y -79 X f black
 gsave  2268 1103 0 472 C 1776.28 1116.1 t 0 r /Helvetica findfont 56.3093 sf 0 0 m ( Other) show NC gr  1 0.84 0 c 3 lw 1682 1107 m 79 X 44 Y -79 X f black
 gsave  2268 1103 0 472 C 1314.45 1053.93 t 0 r /Helvetica findfont 56.3093 sf 0 0 m ( Uncertainty) show NC gr  0.6 0.6 0.6 c 3 lw 1298 1058 m -13 -14 d s 1298 1077 m -33 -33 d s 1290 1088 m -44 -44 d s 1271 1088 m -44 -44 d s 1252 1088 m -33 -33 d s
 1233 1088 m -14 -13 d s 1 0.84 0 c 0.6 0.6 0.6 c black
 gsave  2268 1103 0 472 C 894.061 1329.25 t 0 r /Helvetica findfont 41.4911 sf 0 0 m (\2551) show NC gr 
 gsave  2268 1103 0 472 C 399.663 1299.64 t 0 r /Helvetica findfont 62.2366 sf 0 0 m ( = 13 TeV,  139 fb) show NC gr 
 gsave  2268 1103 0 472 C 370.058 1299.64 t 0 r /Helvetica findfont 62.2366 sf 0 0 m (s) show NC gr  6 lw 349 1335 m 6 -38 d s 3 lw 355 1297 m 6 56 d s 361 1353 m 39 X s
 gsave  2268 1103 0 472 C 808.207 1201.95 t 0 r /Helvetica findfont 62.2366 sf 0 0 m (\)) show NC gr 
 gsave  2268 1103 0 472 C 740.116 1201.95 t 0 r /Helvetica-Oblique findfont 62.2366 sf 0 0 m (W) show NC gr 
 gsave  2268 1103 0 472 C 716.433 1201.95 t 0 r /Helvetica-Oblique findfont 62.2366 sf 0 0 m (t) show NC gr  6 lw 716 1252 m 24 X s
 gsave  2268 1103 0 472 C 692.749 1201.95 t 0 r /Helvetica-Oblique findfont 62.2366 sf 0 0 m (t) show NC gr 
 gsave  2268 1103 0 472 C 337.493 1201.95 t 0 r /Helvetica findfont 62.2366 sf 0 0 m ( 2L\(SS\), CR\() show NC gr 
 gsave  2268 1103 0 472 C 337.493 1400.3 t 0 r /Helvetica-BoldOblique findfont 71.1276 sf 0 0 m (ATLAS) show NC gr 
 gsave  2268 1103 0 472 C 633.54 1400.3 t 0 r /Helvetica findfont 71.1276 sf 0 0 m (Internal) show NC gr 
 gr  gr showpage
end
%%EOF
