%!PS-Adobe-2.0 EPSF-2.0
%%BoundingBox:  0 0 567 396
%%Title: /lhome/ific/c/cardillo/tHq/Plots/Plots-30-05-22-PLIV-SF/2LSS_MM/Ht_CRttbarMu.eps: Ht_CRttbarMu
%%Creator: ROOT Version 6.20/06
%%CreationDate: Tue May 31 15:04:50 2022
%%DocumentNeededResources: ProcSet (FontSetInit)
%%EndComments
%%BeginProlog
80 dict begin
/s {stroke} def /l {lineto} def /m {moveto} def /t {translate} def
/r {rotate} def /rl {roll}  def /R {repeat} def
/d {rlineto} def /rm {rmoveto} def /gr {grestore} def /f {eofill} def
/c {setrgbcolor} def /black {0 setgray} def /sd {setdash} def
/cl {closepath} def /sf {scalefont setfont} def /lw {setlinewidth} def
/box {m dup 0 exch d exch 0 d 0 exch neg d cl} def
/NC{systemdict begin initclip end}def/C{NC box clip newpath}def
/bl {box s} def /bf {gsave box gsave f grestore 1 lw [] 0 sd s grestore} def /Y { 0 exch d} def /X { 0 d} def 
/K {{pop pop 0 moveto} exch kshow} bind def
/ita {/ang 15 def gsave [1 0 ang dup sin exch cos div 1 0 0] concat} def 
/mp {newpath /y exch def /x exch def} def
/side {[w .77 mul w .23 mul] .385 w mul sd w 0 l currentpoint t -144 r} def
/mr {mp x y w2 0 360 arc} def /m24 {mr s} def /m20 {mr f} def
/mb {mp x y w2 add m w2 neg 0 d 0 w neg d w 0 d 0 w d cl} def
/mt {mp x y w2 add m w2 neg w neg d w 0 d cl} def
/w4 {w 4 div} def
/w6 {w 6 div} def
/w8 {w 8 div} def
/m21 {mb f} def /m25 {mb s} def /m22 {mt f} def /m26{mt s} def
/m23 {mp x y w2 sub m w2 w d w neg 0 d cl f} def
/m27 {mp x y w2 add m w3 neg w2 neg d w3 w2 neg d w3 w2 d cl s} def
/m28 {mp x w2 sub y w2 sub w3 add m w3 0 d  0 w3 neg d w3 0 d 0 w3 d w3 0 d  0 w3 d w3 neg 0 d 0 w3 d w3 neg 0 d 0 w3 neg d w3 neg 0 d cl s } def
/m29 {mp gsave x w2 sub y w2 add w3 sub m currentpoint t 4 {side} repeat cl fill gr} def
/m30 {mp gsave x w2 sub y w2 add w3 sub m currentpoint t 4 {side} repeat cl s gr} def
/m31 {mp x y w2 sub m 0 w d x w2 sub y m w 0 d x w2 sub y w2 add m w w neg d x w2 sub y w2 sub m w w d s} def
/m32 {mp x y w2 sub m w2 w d w neg 0 d cl s} def
/m33 {mp x y w2 add m w3 neg w2 neg d w3 w2 neg d w3 w2 d cl f} def
/m34 {mp x w2 sub y w2 sub w3 add m w3 0 d  0 w3 neg d w3 0 d 0 w3 d w3 0 d  0 w3 d w3 neg 0 d 0 w3 d w3 neg 0 d 0 w3 neg d w3 neg 0 d cl f } def
/m35 {mp x y w2 add m w2 neg w2 neg d w2 w2 neg d w2 w2 d w2 neg w2 d x y w2 sub m 0 w d x w2 sub y m w 0 d s} def
/m36 {mb x w2 sub y w2 add m w w neg d x w2 sub y w2 sub m w w d s} def
/m37 {mp x y m w4 neg w2 d w4 neg w2 neg d w2 0 d  w4 neg w2 neg d w2 0 d w4 neg w2 d w2 0 d w4 neg w2 d w4 neg w2 neg d cl s} def
/m38 {mp x w4 sub y w2 add m w4 neg w4 neg d 0 w2 neg d w4 w4 neg d w2 0 d w4 w4 d 0 w2 d w4 neg w4 d w2 neg 0 d x y w2 sub m 0 w d x w2 sub y m w 0 d cl s} def
/m39 {mp x y m w4 neg w2 d w4 neg w2 neg d w2 0 d  w4 neg w2 neg d w2 0 d w4 neg w2 d w2 0 d w4 neg w2 d w4 neg w2 neg d cl f} def
/m40 {mp x y m w4 w2 d w4 w4 neg d w2 neg w4 neg d w2 w4 neg d w4 neg w4 neg d w4 neg w2 d w4 neg w2 neg d w4 neg w4 d w2 w4 d w2 neg w4 d w4 w4 d w4 w2 neg d cl s} def
/m41 {mp x y m w4 w2 d w4 w4 neg d w2 neg w4 neg d w2 w4 neg d w4 neg w4 neg d w4 neg w2 d w4 neg w2 neg d w4 neg w4 d w2 w4 d w2 neg w4 d w4 w4 d w4 w2 neg d cl f} def
/m42 {mp x y w2 add m w8 neg w2 -3 4 div mul d w2 -3 4 div mul w8 neg d w2 3 4 div mul w8 neg d w8 w2 -3 4 div mul d w8 w2 3 4 div mul d w2 3 4 div mul w8 d w2 -3 4 div mul w8 d w8 neg w2 3 4 div mul d cl s} def
/m43 {mp x y w2 add m w8 neg w2 -3 4 div mul d w2 -3 4 div mul w8 neg d w2 3 4 div mul w8 neg d w8 w2 -3 4 div mul d w8 w2 3 4 div mul d w2 3 4 div mul w8 d w2 -3 4 div mul w8 d w8 neg w2 3 4 div mul d cl f} def
/m44 {mp x y m w6 neg w2 d w2 2 3 div mul 0 d w6 neg w2 neg d w2 w6 d 0 w2 -2 3 div mul d w2 neg w6 d w6 w2 neg d w2 -2 3 div mul 0 d w6 w2 d w2 neg w6 neg d 0 w2 2 3 div mul d w2 w6 neg d cl s} def
/m45 {mp x y m w6 neg w2 d w2 2 3 div mul 0 d w6 neg w2 neg d w2 w6 d 0 w2 -2 3 div mul d w2 neg w6 d w6 w2 neg d w2 -2 3 div mul 0 d w6 w2 d w2 neg w6 neg d 0 w2 2 3 div mul d w2 w6 neg d cl f} def
/m46 {mp x y w4 add m w4 neg w4 d w4 neg w4 neg d  w4 w4 neg d w4 neg w4 neg d w4 w4 neg d w4 w4 d w4 w4 neg d w4 w4 d w4 neg w4 d w4 w4 d w4 neg w4 d w4 neg w4 neg d cl s} def
/m47 {mp x y w4 add m w4 neg w4 d w4 neg w4 neg d w4 w4 neg d w4 neg w4 neg d  w4 w4 neg d w4 w4 d w4 w4 neg d w4 w4 d w4 neg w4 d w4 w4 d w4 neg w4 d w4 neg w4 neg d cl f} def
/m48 {mp x y w4 add m w4 neg w4 d w4 neg w4 neg d w4 w4 neg d  w4 neg w4 neg d w4 w4 neg d w4 w4 d w4 w4 neg d w4 w4 d w4 neg w4 d w4 w4 d w4 neg w4 d w4 neg w4 neg d  w4 w4 neg d w4 neg w4 neg d w4 neg w4 d w4 w4 d cl f} def
/m49 {mp x w2 sub w3 add y w2 sub w3 add m  0 w3 neg d w3 0 d 0 w3 d w3 0 d 0 w3 d w3 neg 0 d 0 w3 d w3 neg 0 d 0 w3 neg d w3 neg 0 d 0 w3 neg d w3 0 d 0 w3 d w3 0 d 0 w3 neg d w3 neg 0 d cl f } def
/m2 {mp x y w2 sub m 0 w d x w2 sub y m w 0 d s} def
/m5 {mp x w2 sub y w2 sub m w w d x w2 sub y w2 add m w w neg d s} def
%%IncludeResource: ProcSet (FontSetInit)
%%IncludeResource: font Times-Roman
%%IncludeResource: font Times-Italic
%%IncludeResource: font Times-Bold
%%IncludeResource: font Times-BoldItalic
%%IncludeResource: font Helvetica
%%IncludeResource: font Helvetica-Oblique
%%IncludeResource: font Helvetica-Bold
%%IncludeResource: font Helvetica-BoldOblique
%%IncludeResource: font Courier
%%IncludeResource: font Courier-Oblique
%%IncludeResource: font Courier-Bold
%%IncludeResource: font Courier-BoldOblique
%%IncludeResource: font Symbol
%%IncludeResource: font ZapfDingbats
/reEncode {exch findfont dup length dict begin {1 index /FID eq  {pop pop} {def} ifelse } forall /Encoding exch def currentdict end dup /FontName get exch definefont pop } def [/Times-Bold /Times-Italic /Times-BoldItalic /Helvetica /Helvetica-Oblique
 /Helvetica-Bold /Helvetica-BoldOblique /Courier /Courier-Oblique /Courier-Bold /Courier-BoldOblique /Times-Roman /AvantGarde-Book /AvantGarde-BookOblique /AvantGarde-Demi /AvantGarde-DemiOblique /Bookman-Demi /Bookman-DemiItalic /Bookman-Light
 /Bookman-LightItalic /Helvetica-Narrow /Helvetica-Narrow-Bold /Helvetica-Narrow-BoldOblique /Helvetica-Narrow-Oblique /NewCenturySchlbk-Roman /NewCenturySchlbk-Bold /NewCenturySchlbk-BoldItalic /NewCenturySchlbk-Italic /Palatino-Bold
 /Palatino-BoldItalic /Palatino-Italic /Palatino-Roman ] {ISOLatin1Encoding reEncode } forall
%%EndProlog
%%BeginSetup
%%EndSetup
newpath  gsave  .25 .25 scale  gsave  0 0 t black[  ] 0 sd 3 lw 1 1 1 c 2268 1583 0 0 bf black 1 1 1 c 2268 475 0 0 bf black 1 1 1 c 1927 275 227 190 bf black 1927 275 227 190 bl 227 190 m 1927 X s 227 202 m -12 Y s 282 196 m -6 Y s 337 196 m -6 Y s
 392 196 m -6 Y s 447 196 m -6 Y s 502 202 m -12 Y s 557 196 m -6 Y s 612 196 m -6 Y s 667 196 m -6 Y s 722 196 m -6 Y s 778 202 m -12 Y s 833 196 m -6 Y s 888 196 m -6 Y s 943 196 m -6 Y s 998 196 m -6 Y s 1053 202 m -12 Y s 1108 196 m -6 Y s 1163
 196 m -6 Y s 1218 196 m -6 Y s 1273 196 m -6 Y s 1328 202 m -12 Y s 1383 196 m -6 Y s 1438 196 m -6 Y s 1493 196 m -6 Y s 1549 196 m -6 Y s 1604 202 m -12 Y s 1659 196 m -6 Y s 1714 196 m -6 Y s 1769 196 m -6 Y s 1824 196 m -6 Y s 1879 202 m -12 Y s
 1934 196 m -6 Y s 1989 196 m -6 Y s 2044 196 m -6 Y s 2099 196 m -6 Y s 2154 202 m -12 Y s
 gsave  2268 475 0 0 C 180.118 126.968 t 0 r /Helvetica findfont 53.4154 sf 0 0 m (300) show NC gr 
 gsave  2268 475 0 0 C 457.677 126.968 t 0 r /Helvetica findfont 53.4154 sf 0 0 m (400) show NC gr 
 gsave  2268 475 0 0 C 732.283 126.968 t 0 r /Helvetica findfont 53.4154 sf 0 0 m (500) show NC gr 
 gsave  2268 475 0 0 C 1006.89 126.968 t 0 r /Helvetica findfont 53.4154 sf 0 0 m (600) show NC gr 
 gsave  2268 475 0 0 C 1281.5 126.968 t 0 r /Helvetica findfont 53.4154 sf 0 0 m (700) show NC gr 
 gsave  2268 475 0 0 C 1559.06 126.968 t 0 r /Helvetica findfont 53.4154 sf 0 0 m (800) show NC gr 
 gsave  2268 475 0 0 C 1833.66 126.968 t 0 r /Helvetica findfont 53.4154 sf 0 0 m (900) show NC gr 
 gsave  2268 475 0 0 C 2093.5 126.968 t 0 r /Helvetica findfont 53.4154 sf 0 0 m (1000) show NC gr 
 gsave  2268 475 0 0 C 1996.06 47.2441 t 0 r /Helvetica findfont 56.3829 sf 0 0 m ( [GeV]) show NC gr 
 gsave  2268 475 0 0 C 1972.44 29.5276 t 0 r /Helvetica findfont 38.5778 sf 0 0 m (T) show NC gr 
 gsave  2268 475 0 0 C 1925.2 47.2441 t 0 r /Helvetica-Oblique findfont 56.3829 sf 0 0 m (H) show NC gr  227 465 m 1927 X s 227 453 m 12 Y s 282 459 m 6 Y s 337 459 m 6 Y s 392 459 m 6 Y s 447 459 m 6 Y s 502 453 m 12 Y s 557 459 m 6 Y s 612 459 m 6
 Y s 667 459 m 6 Y s 722 459 m 6 Y s 778 453 m 12 Y s 833 459 m 6 Y s 888 459 m 6 Y s 943 459 m 6 Y s 998 459 m 6 Y s 1053 453 m 12 Y s 1108 459 m 6 Y s 1163 459 m 6 Y s 1218 459 m 6 Y s 1273 459 m 6 Y s 1328 453 m 12 Y s 1383 459 m 6 Y s 1438 459 m
 6 Y s 1493 459 m 6 Y s 1549 459 m 6 Y s 1604 453 m 12 Y s 1659 459 m 6 Y s 1714 459 m 6 Y s 1769 459 m 6 Y s 1824 459 m 6 Y s 1879 453 m 12 Y s 1934 459 m 6 Y s 1989 459 m 6 Y s 2044 459 m 6 Y s 2099 459 m 6 Y s 2154 453 m 12 Y s 227 190 m 275 Y s
 240 242 m -13 X s 240 328 m -13 X s 240 414 m -13 X s 240 242 m -13 X s 240 414 m -13 X s
 gsave  2268 475 0 0 C 118.11 221.457 t 0 r /Helvetica findfont 53.4154 sf 0 0 m (0.5) show NC gr 
 gsave  2268 475 0 0 C 171.26 307.087 t 0 r /Helvetica findfont 53.4154 sf 0 0 m (1) show NC gr 
 gsave  2268 475 0 0 C 118.11 395.669 t 0 r /Helvetica findfont 53.4154 sf 0 0 m (1.5) show NC gr 
 gsave  2268 475 0 0 C 70.8661 233.268 t 90 r /Helvetica findfont 53.4154 sf 0 0 m (Data / SM) show NC gr  2154 190 m 275 Y s 2141 242 m 13 X s 2141 328 m 13 X s 2141 414 m 13 X s 2141 242 m 13 X s 2141 414 m 13 X s 227 190 m 1927 X s 227 465 m 1927
 X s 227 190 m 275 Y s[ 4 8] 0 sd 2154 242 m -1927 X s 2154 328 m -1927 X s 2154 414 m -1927 X s 2154 242 m -1927 X s 2154 414 m -1927 X s[  ] 0 sd 2154 190 m 275 Y s 1 1 0.6 c 137 0 227 328 bf 138 0 364 328 bf 138 0 502 328 bf 138 0 640 328 bf 137 0
 778 328 bf 138 0 915 328 bf 138 0 1053 328 bf 137 0 1191 328 bf 138 0 1328 328 bf 138 0 1466 328 bf 137 0 1604 328 bf 138 0 1741 328 bf 138 0 1879 328 bf 137 0 2017 328 bf black 0.6 0.6 0.6 c 364 328 m -6 -6 d s 351 334 m -12 -12 d s 332 334 m -12
 -12 d s 313 334 m -12 -12 d s 293 334 m -11 -12 d s 274 334 m -12 -12 d s 255 334 m -12 -12 d s 236 334 m -9 -9 d s 502 331 m -10 -11 d s 488 335 m -16 -15 d s 468 335 m -15 -15 d s 449 335 m -15 -15 d s 430 335 m -15 -15 d s 411 335 m -16 -15 d s
 391 335 m -15 -15 d s 372 335 m -8 -7 d s 640 334 m -17 -17 d s 626 339 m -22 -22 d s 606 339 m -22 -22 d s 587 339 m -22 -22 d s 568 339 m -22 -22 d s 549 339 m -22 -22 d s 529 339 m -22 -22 d s 510 339 m -8 -8 d s 778 317 m -5 -4 d s 778 337 m -24
 -24 d s 764 342 m -29 -29 d s 745 342 m -30 -29 d s 725 342 m -29 -29 d s 706 342 m -29 -29 d s 687 342 m -29 -29 d s 668 342 m -28 -28 d s 648 342 m -8 -8 d s 915 320 m -12 -12 d s 915 340 m -31 -32 d s 903 347 m -38 -39 d s 884 347 m -38 -39 d s
 865 347 m -39 -39 d s 845 347 m -38 -39 d s 826 347 m -38 -39 d s 807 347 m -29 -30 d s 788 347 m -10 -10 d s 1053 323 m -17 -17 d s 1053 343 m -36 -37 d s 1040 349 m -43 -43 d s 1021 349 m -43 -43 d s 1001 349 m -42 -43 d s 982 349 m -42 -43 d s
 963 349 m -43 -43 d s 944 349 m -29 -29 d s 925 349 m -10 -9 d s 1191 307 m -15 -14 d s 1191 326 m -34 -33 d s 1191 346 m -53 -53 d s 1188 362 m -69 -69 d s 1169 362 m -70 -69 d s 1150 362 m -70 -69 d s 1130 362 m -69 -69 d s 1111 362 m -58 -58 d s
 1092 362 m -39 -39 d s 1073 362 m -20 -19 d s 1053 362 m s 1328 194 m -4 -4 d s 1328 213 m -23 -23 d s 1328 233 m -42 -43 d s 1328 252 m -61 -62 d s 1328 271 m -81 -81 d s 1328 291 m -100 -101 d s 1328 310 m -119 -120 d s 1328 329 m -137 -138 d s
 1328 349 m -137 -139 d s 1328 368 m -137 -138 d s 1328 387 m -137 -138 d s 1328 407 m -137 -139 d s 1328 426 m -137 -138 d s 1328 445 m -137 -138 d s 1328 465 m -137 -139 d s 1310 465 m -119 -119 d s 1290 465 m -99 -100 d s 1271 465 m -80 -81 d s
 1252 465 m -61 -61 d s 1233 465 m -42 -42 d s 1213 465 m -22 -23 d s 1194 465 m -3 -3 d s 1466 294 m -10 -11 d s 1466 313 m -30 -30 d s 1466 332 m -49 -49 d s 1466 352 m -68 -69 d s 1466 371 m -87 -88 d s 1448 372 m -89 -89 d s 1429 372 m -89 -89 d
 s 1409 372 m -81 -81 d s 1390 372 m -62 -62 d s 1371 372 m -43 -43 d s 1352 372 m -24 -23 d s 1332 372 m -4 -4 d s 1604 297 m -8 -8 d s 1604 316 m -27 -27 d s 1604 335 m -47 -46 d s 1604 355 m -66 -66 d s 1596 367 m -77 -78 d s 1577 367 m -77 -78 d
 s 1558 367 m -78 -78 d s 1538 367 m -72 -73 d s 1519 367 m -53 -54 d s 1500 367 m -34 -35 d s 1481 367 m -15 -15 d s 1741 242 m -4 -5 d s 1741 261 m -23 -24 d s 1741 280 m -42 -43 d s 1741 300 m -62 -63 d s 1741 319 m -81 -82 d s 1741 338 m -100
 -101 d s 1741 358 m -119 -121 d s 1741 377 m -137 -138 d s 1741 396 m -137 -138 d s 1741 416 m -137 -139 d s 1724 418 m -120 -121 d s 1705 418 m -101 -102 d s 1686 418 m -82 -83 d s 1667 418 m -63 -63 d s 1647 418 m -43 -44 d s 1628 418 m -24 -25 d
 s 1609 418 m -5 -5 d s 1879 283 m -17 -17 d s 1879 303 m -36 -37 d s 1879 322 m -56 -56 d s 1879 341 m -75 -75 d s 1879 361 m -94 -95 d s 1879 380 m -113 -114 d s 1869 389 m -122 -123 d s 1850 389 m -109 -109 d s 1830 389 m -89 -89 d s 1811 389 m
 -70 -70 d s 1792 389 m -51 -51 d s 1773 389 m -32 -31 d s 1753 389 m -12 -12 d s 2017 228 m -9 -9 d s 2017 248 m -28 -29 d s 2017 267 m -48 -48 d s 2017 286 m -67 -67 d s 2017 306 m -86 -87 d s 2017 325 m -105 -106 d s 2017 344 m -125 -125 d s 2017
 364 m -138 -139 d s 2017 383 m -138 -138 d s 2017 402 m -138 -138 d s 2017 422 m -138 -139 d s 2011 436 m -132 -133 d s 1992 436 m -113 -114 d s 1973 436 m -94 -95 d s 1954 436 m -75 -75 d s 1934 436 m -55 -56 d s 1915 436 m -36 -37 d s 1896 436 m
 -17 -17 d s 2154 328 m -18 -19 d s 2153 346 m -37 -37 d s 2134 346 m -37 -37 d s 2115 346 m -37 -37 d s 2095 346 m -36 -37 d s 2076 346 m -37 -37 d s 2057 346 m -37 -37 d s 2038 346 m -21 -21 d s 2018 346 m -1 -2 d s black 1 1 1 c black 296 237 m 37
 Y s 296 298 m 38 Y s /w 26 def /w2 {w 2 div} def /w3 {w 3 div} def 296 286 m20 433 220 m 53 Y s 433 297 m 53 Y s 433 285 m20 571 194 m 82 Y s 571 299 m 82 Y s 571 288 m20 709 214 m 130 Y s 709 368 m 97 Y s 709 356 m20 846 190 m 129 Y s 846 342 m 123
 Y s 846 331 m20 227 328 m 1927 X s 227 190 m 1927 X s 227 202 m -12 Y s 282 196 m -6 Y s 337 196 m -6 Y s 392 196 m -6 Y s 447 196 m -6 Y s 502 202 m -12 Y s 557 196 m -6 Y s 612 196 m -6 Y s 667 196 m -6 Y s 722 196 m -6 Y s 778 202 m -12 Y s 833
 196 m -6 Y s 888 196 m -6 Y s 943 196 m -6 Y s 998 196 m -6 Y s 1053 202 m -12 Y s 1108 196 m -6 Y s 1163 196 m -6 Y s 1218 196 m -6 Y s 1273 196 m -6 Y s 1328 202 m -12 Y s 1383 196 m -6 Y s 1438 196 m -6 Y s 1493 196 m -6 Y s 1549 196 m -6 Y s
 1604 202 m -12 Y s 1659 196 m -6 Y s 1714 196 m -6 Y s 1769 196 m -6 Y s 1824 196 m -6 Y s 1879 202 m -12 Y s 1934 196 m -6 Y s 1989 196 m -6 Y s 2044 196 m -6 Y s 2099 196 m -6 Y s 2154 202 m -12 Y s 227 465 m 1927 X s 227 453 m 12 Y s 282 459 m 6
 Y s 337 459 m 6 Y s 392 459 m 6 Y s 447 459 m 6 Y s 502 453 m 12 Y s 557 459 m 6 Y s 612 459 m 6 Y s 667 459 m 6 Y s 722 459 m 6 Y s 778 453 m 12 Y s 833 459 m 6 Y s 888 459 m 6 Y s 943 459 m 6 Y s 998 459 m 6 Y s 1053 453 m 12 Y s 1108 459 m 6 Y s
 1163 459 m 6 Y s 1218 459 m 6 Y s 1273 459 m 6 Y s 1328 453 m 12 Y s 1383 459 m 6 Y s 1438 459 m 6 Y s 1493 459 m 6 Y s 1549 459 m 6 Y s 1604 453 m 12 Y s 1659 459 m 6 Y s 1714 459 m 6 Y s 1769 459 m 6 Y s 1824 459 m 6 Y s 1879 453 m 12 Y s 1934 459
 m 6 Y s 1989 459 m 6 Y s 2044 459 m 6 Y s 2099 459 m 6 Y s 2154 453 m 12 Y s 227 190 m 275 Y s 240 242 m -13 X s 240 328 m -13 X s 240 414 m -13 X s 240 242 m -13 X s 240 414 m -13 X s 2154 190 m 275 Y s 2141 242 m 13 X s 2141 328 m 13 X s 2141 414
 m 13 X s 2141 242 m 13 X s 2141 414 m 13 X s 1 1 1 c 2268 1108 0 475 bf black 1 1 1 c 1927 1041 227 486 bf black 1927 1041 227 486 bl 1 1 1 c black 3 lw 227 486 m 1927 X s 227 505 m -19 Y s 282 495 m -9 Y s 337 495 m -9 Y s 392 495 m -9 Y s 447 495
 m -9 Y s 502 505 m -19 Y s 557 495 m -9 Y s 612 495 m -9 Y s 667 495 m -9 Y s 722 495 m -9 Y s 778 505 m -19 Y s 833 495 m -9 Y s 888 495 m -9 Y s 943 495 m -9 Y s 998 495 m -9 Y s 1053 505 m -19 Y s 1108 495 m -9 Y s 1163 495 m -9 Y s 1218 495 m -9
 Y s 1273 495 m -9 Y s 1328 505 m -19 Y s 1383 495 m -9 Y s 1438 495 m -9 Y s 1493 495 m -9 Y s 1549 495 m -9 Y s 1604 505 m -19 Y s 1659 495 m -9 Y s 1714 495 m -9 Y s 1769 495 m -9 Y s 1824 495 m -9 Y s 1879 505 m -19 Y s 1934 495 m -9 Y s 1989 495
 m -9 Y s 2044 495 m -9 Y s 2099 495 m -9 Y s 2154 505 m -19 Y s
 gsave  2268 1108 0 475 C 2061.02 404.528 t 0 r /Helvetica findfont 32.4976 sf 0 0 m ( [GeV]) show NC gr 
 gsave  2268 1108 0 475 C 2046.26 392.717 t 0 r /Helvetica findfont 20.6803 sf 0 0 m (T) show NC gr 
 gsave  2268 1108 0 475 C 2019.69 404.528 t 0 r /Helvetica-Oblique findfont 32.4976 sf 0 0 m (H) show NC gr  227 1527 m 1927 X s 227 1508 m 19 Y s 282 1518 m 9 Y s 337 1518 m 9 Y s 392 1518 m 9 Y s 447 1518 m 9 Y s 502 1508 m 19 Y s 557 1518 m 9 Y s
 612 1518 m 9 Y s 667 1518 m 9 Y s 722 1518 m 9 Y s 778 1508 m 19 Y s 833 1518 m 9 Y s 888 1518 m 9 Y s 943 1518 m 9 Y s 998 1518 m 9 Y s 1053 1508 m 19 Y s 1108 1518 m 9 Y s 1163 1518 m 9 Y s 1218 1518 m 9 Y s 1273 1518 m 9 Y s 1328 1508 m 19 Y s
 1383 1518 m 9 Y s 1438 1518 m 9 Y s 1493 1518 m 9 Y s 1549 1518 m 9 Y s 1604 1508 m 19 Y s 1659 1518 m 9 Y s 1714 1518 m 9 Y s 1769 1518 m 9 Y s 1824 1518 m 9 Y s 1879 1508 m 19 Y s 1934 1518 m 9 Y s 1989 1518 m 9 Y s 2044 1518 m 9 Y s 2099 1518 m 9
 Y s 2154 1508 m 19 Y s 227 486 m 1041 Y s 248 604 m -21 X s 237 634 m -10 X s 237 664 m -10 X s 237 694 m -10 X s 248 723 m -21 X s 237 753 m -10 X s 237 783 m -10 X s 237 813 m -10 X s 248 842 m -21 X s 237 872 m -10 X s 237 902 m -10 X s 237 932 m
 -10 X s 248 961 m -21 X s 237 991 m -10 X s 237 1021 m -10 X s 237 1051 m -10 X s 248 1081 m -21 X s 237 1110 m -10 X s 237 1140 m -10 X s 237 1170 m -10 X s 248 1200 m -21 X s 237 1229 m -10 X s 237 1259 m -10 X s 237 1289 m -10 X s 248 1319 m -21
 X s 237 1348 m -10 X s 237 1378 m -10 X s 237 1408 m -10 X s 248 1438 m -21 X s 248 604 m -21 X s 237 575 m -10 X s 237 545 m -10 X s 237 515 m -10 X s 248 1438 m -21 X s 237 1467 m -10 X s 237 1497 m -10 X s 237 1527 m -10 X s
 gsave  2268 1108 0 475 C 171.26 584.646 t 0 r /Helvetica findfont 53.178 sf 0 0 m (2) show NC gr 
 gsave  2268 1108 0 475 C 171.26 702.756 t 0 r /Helvetica findfont 53.178 sf 0 0 m (4) show NC gr 
 gsave  2268 1108 0 475 C 171.26 823.819 t 0 r /Helvetica findfont 53.178 sf 0 0 m (6) show NC gr 
 gsave  2268 1108 0 475 C 171.26 941.929 t 0 r /Helvetica findfont 53.178 sf 0 0 m (8) show NC gr 
 gsave  2268 1108 0 475 C 141.732 1060.04 t 0 r /Helvetica findfont 53.178 sf 0 0 m (10) show NC gr 
 gsave  2268 1108 0 475 C 141.732 1181.1 t 0 r /Helvetica findfont 53.178 sf 0 0 m (12) show NC gr 
 gsave  2268 1108 0 475 C 141.732 1299.21 t 0 r /Helvetica findfont 53.178 sf 0 0 m (14) show NC gr 
 gsave  2268 1108 0 475 C 141.732 1417.32 t 0 r /Helvetica findfont 53.178 sf 0 0 m (16) show NC gr 
 gsave  2268 1108 0 475 C 64.9606 1142.72 t 90 r /Helvetica findfont 53.178 sf 0 0 m (Events / 50 GeV) show NC gr  2154 486 m 1041 Y s 2133 604 m 21 X s 2144 634 m 10 X s 2144 664 m 10 X s 2144 694 m 10 X s 2133 723 m 21 X s 2144 753 m 10 X s 2144
 783 m 10 X s 2144 813 m 10 X s 2133 842 m 21 X s 2144 872 m 10 X s 2144 902 m 10 X s 2144 932 m 10 X s 2133 961 m 21 X s 2144 991 m 10 X s 2144 1021 m 10 X s 2144 1051 m 10 X s 2133 1081 m 21 X s 2144 1110 m 10 X s 2144 1140 m 10 X s 2144 1170 m 10
 X s 2133 1200 m 21 X s 2144 1229 m 10 X s 2144 1259 m 10 X s 2144 1289 m 10 X s 2133 1319 m 21 X s 2144 1348 m 10 X s 2144 1378 m 10 X s 2144 1408 m 10 X s 2133 1438 m 21 X s 2133 604 m 21 X s 2144 575 m 10 X s 2144 545 m 10 X s 2144 515 m 10 X s
 2133 1438 m 21 X s 2144 1467 m 10 X s 2144 1497 m 10 X s 2144 1527 m 10 X s 0.4 0.6 0.4 c black 3 lw 0.4 0.6 0.4 c 227 486 m 548 Y 137 X -233 Y 138 X -161 Y 138 X -52 Y 138 X -44 Y 137 X -20 Y 138 X -18 Y 138 X -7 Y 137 X -2 Y 138 X -7 Y 275 X -3 Y
 138 X 1 Y 138 X 5 Y 137 X -7 Y f 0.06 0.54 0.06 c 0.999 0.999 0.999 c black 3 lw 0.999 0.999 0.999 c 227 486 m 267 Y 137 X -103 Y 138 X -78 Y 138 X -34 Y 138 X -28 Y 137 X -2 Y 138 X -8 Y 138 X -3 Y 137 X -4 Y 138 X -3 Y 138 X -3 Y 275 X -1 Y 138 X
 4 Y 137 X -4 Y f 0.06 0.54 0.06 c 0.999 0.999 0.999 c 0.06 0.54 0.06 c 1 1 1 c black 0.06 0.54 0.06 c black 3 lw 0.06 0.54 0.06 c 227 486 m 267 Y 137 X -103 Y 138 X -78 Y 138 X -34 Y 138 X -28 Y 137 X -2 Y 138 X -8 Y 138 X -3 Y 137 X -4 Y 138 X -3 Y
 138 X -3 Y 275 X -1 Y 138 X 4 Y 137 X -4 Y f 1 0.653333 0 c 0.999 0.999 0.999 c black 3 lw 0.999 0.999 0.999 c 227 486 m 267 Y 137 X -103 Y 138 X -78 Y 138 X -34 Y 138 X -28 Y 137 X -2 Y 138 X -8 Y 138 X -3 Y 137 X -4 Y 138 X -3 Y 138 X -3 Y 275 X
 -1 Y 138 X 4 Y 137 X -4 Y f 1 0.653333 0 c 0.999 0.999 0.999 c 1 0.653333 0 c 1 1 1 c black 1 0.653333 0 c black 3 lw 1 0.653333 0 c 227 486 m 267 Y 137 X -103 Y 138 X -78 Y 138 X -34 Y 138 X -28 Y 137 X -2 Y 138 X -8 Y 138 X -3 Y 137 X -4 Y 138 X
 -3 Y 138 X -3 Y 275 X -1 Y 138 X 4 Y 137 X -4 Y f 0.413333 1 0 c 0.999 0.999 0.999 c black 3 lw 0.999 0.999 0.999 c 227 486 m 267 Y 137 X -103 Y 138 X -78 Y 138 X -34 Y 138 X -28 Y 137 X -2 Y 138 X -8 Y 138 X -3 Y 137 X -4 Y 138 X -3 Y 138 X -3 Y
 275 X -1 Y 138 X 4 Y 137 X -4 Y f 0.413333 1 0 c 0.999 0.999 0.999 c 0.413333 1 0 c 1 1 1 c black 0.413333 1 0 c black 3 lw 0.413333 1 0 c 227 486 m 267 Y 137 X -103 Y 138 X -78 Y 138 X -34 Y 138 X -28 Y 137 X -2 Y 138 X -8 Y 138 X -3 Y 137 X -4 Y
 138 X -3 Y 138 X -3 Y 275 X -1 Y 138 X 4 Y 137 X -4 Y f 0.6 0.2 1 c 0.999 0.999 0.999 c black 3 lw 0.999 0.999 0.999 c 227 486 m 246 Y 137 X -90 Y 138 X -74 Y 138 X -35 Y 138 X -25 Y 137 X -2 Y 138 X -10 Y 138 X 1 Y 137 X -5 Y 138 X -2 Y 138 X -3 Y
 275 X -1 Y 138 X 4 Y 137 X -4 Y f 0.6 0.2 1 c 0.999 0.999 0.999 c 0.6 0.2 1 c 1 1 1 c black 0.6 0.2 1 c black 3 lw 0.6 0.2 1 c 227 486 m 246 Y 137 X -90 Y 138 X -74 Y 138 X -35 Y 138 X -25 Y 137 X -2 Y 138 X -10 Y 138 X 1 Y 137 X -5 Y 138 X -2 Y 138
 X -3 Y 275 X -1 Y 138 X 4 Y 137 X -4 Y f 0.54 0.06 0.06 c 0.999 0.999 0.999 c black 3 lw 0.999 0.999 0.999 c 227 486 m 202 Y 137 X -79 Y 138 X -60 Y 138 X -25 Y 138 X -19 Y 137 X -4 Y 138 X -6 Y 138 X -1 Y 137 X -3 Y 138 X -2 Y 138 X -2 Y 275 X -1 Y
 138 X 2 Y 137 X -2 Y f 0.54 0.06 0.06 c 0.999 0.999 0.999 c 0.54 0.06 0.06 c 1 1 1 c black 0.54 0.06 0.06 c black 3 lw 0.54 0.06 0.06 c 227 486 m 202 Y 137 X -79 Y 138 X -60 Y 138 X -25 Y 138 X -19 Y 137 X -4 Y 138 X -6 Y 138 X -1 Y 137 X -3 Y 138 X
 -2 Y 138 X -2 Y 275 X -1 Y 138 X 2 Y 137 X -2 Y f 1 0 1 c 0.999 0.999 0.999 c black 3 lw 0.999 0.999 0.999 c 227 486 m 67 Y 137 X -27 Y 138 X -18 Y 138 X -10 Y 138 X -4 Y 137 X -3 Y 138 X -2 Y 138 X -2 Y 413 X -1 Y 550 X f 1 0 1 c 0.999 0.999 0.999
 c 1 0 1 c 1 1 1 c black 1 0 1 c black 3 lw 1 0 1 c 227 486 m 67 Y 137 X -27 Y 138 X -18 Y 138 X -10 Y 138 X -4 Y 137 X -3 Y 138 X -2 Y 138 X -2 Y 413 X -1 Y 550 X f 0 0 1 c 0.999 0.999 0.999 c black 3 lw 0.999 0.999 0.999 c 227 486 m 57 Y 137 X -27
 Y 138 X -13 Y 138 X -7 Y 138 X -4 Y 137 X -3 Y 138 X -2 Y 275 X -1 Y 826 X f 0 0 1 c 0.999 0.999 0.999 c 0 0 1 c 1 1 1 c black 0 0 1 c black 3 lw 0 0 1 c 227 486 m 57 Y 137 X -27 Y 138 X -13 Y 138 X -7 Y 138 X -4 Y 137 X -3 Y 138 X -2 Y 275 X -1 Y
 826 X f 0.2 0.8 0.8 c 0.999 0.999 0.999 c black 3 lw 0.999 0.999 0.999 c 227 486 m 6 Y 137 X -2 Y 138 X -2 Y 138 X -1 Y 138 X -1 Y 1376 X f 0.2 0.8 0.8 c 0.999 0.999 0.999 c 0.2 0.8 0.8 c 1 1 1 c black 0.2 0.8 0.8 c black 3 lw 0.2 0.8 0.8 c 227 486
 m 6 Y 137 X -2 Y 138 X -2 Y 138 X -1 Y 138 X -1 Y 1376 X f 1 0 0 c 0.999 0.999 0.999 c black 3 lw 0.999 0.999 0.999 c 227 486 m 2 Y 137 X -1 Y 138 X -1 Y 1652 X f 1 0 0 c 0.999 0.999 0.999 c 1 0 0 c 1 1 1 c black 1 0 0 c black 3 lw 1 0 0 c 227 486 m
 2 Y 137 X -1 Y 138 X -1 Y 1652 X f 1 0.84 0 c 0.999 0.999 0.999 c black 3 lw 0.999 0.999 0.999 c 227 486 m 1927 X f 1 0.84 0 c 0.999 0.999 0.999 c 1 0.84 0 c 1 1 1 c black 1 0.84 0 c black 3 lw 1 0.84 0 c 227 486 m 1927 X f black 1 1 1 c black 0.6
 0.6 0.6 c 3 lw 364 1030 m -15 -15 d s 364 1050 m -35 -35 d s 348 1053 m -38 -38 d s 329 1053 m -38 -38 d s 310 1053 m -38 -38 d s 291 1053 m -39 -38 d s 271 1053 m -38 -38 d s 252 1053 m -25 -25 d s 233 1053 m -6 -6 d s 3 lw 502 803 m -16 -16 d s
 495 815 m -28 -28 d s 476 815 m -28 -28 d s 457 815 m -29 -28 d s 437 815 m -28 -28 d s 418 815 m -28 -28 d s 399 815 m -28 -28 d s 380 815 m -16 -15 d s 3 lw 640 633 m -3 -3 d s 638 650 m -20 -20 d s 618 650 m -20 -20 d s 599 650 m -20 -20 d s 580
 650 m -20 -20 d s 561 650 m -20 -20 d s 541 650 m -20 -20 d s 522 650 m -20 -20 d s 503 650 m -1 -1 d s 3 lw 776 596 m -17 -17 d s 757 596 m -18 -17 d s 737 596 m -17 -17 d s 718 596 m -17 -17 d s 699 596 m -17 -17 d s 680 596 m -18 -17 d s 661 596
 m -18 -17 d s 641 596 m -1 -1 d s 3 lw 915 543 m -6 -6 d s 903 550 m -13 -13 d s 884 550 m -13 -13 d s 865 550 m -14 -13 d s 845 550 m -13 -13 d s 826 550 m -13 -13 d s 807 550 m -13 -13 d s 788 550 m -10 -10 d s 3 lw 1053 527 m -8 -8 d s 1035 528 m
 -10 -9 d s 1016 528 m -10 -9 d s 996 528 m -9 -9 d s 977 528 m -9 -9 d s 958 528 m -10 -9 d s 939 528 m -10 -9 d s 919 528 m -4 -4 d s 3 lw 1190 510 m -9 -8 d s 1170 510 m -8 -8 d s 1151 510 m -8 -8 d s 1132 510 m -8 -8 d s 1113 510 m -9 -8 d s 1093
 510 m -8 -8 d s 1074 510 m -8 -8 d s 1055 510 m -2 -2 d s 3 lw 1328 495 m -8 -8 d s 1327 512 m -26 -25 d s 1308 512 m -26 -25 d s 1288 512 m -25 -25 d s 1269 512 m -26 -25 d s 1250 512 m -26 -25 d s 1231 512 m -26 -25 d s 1211 512 m -20 -20 d s 1192
 512 m -1 -1 d s 3 lw 1466 498 m -4 -4 d s 1449 500 m -6 -6 d s 1430 500 m -6 -6 d s 1410 500 m -5 -6 d s 1391 500 m -6 -6 d s 1372 500 m -6 -6 d s 1353 500 m -6 -6 d s 1334 500 m -6 -5 d s 3 lw 1595 492 m -3 -3 d s 1575 492 m -2 -3 d s 1556 492 m -2
 -3 d s 1537 492 m -2 -3 d s 1518 492 m -3 -3 d s 1499 492 m -3 -3 d s 1479 492 m -2 -3 d s 3 lw 1730 492 m -5 -5 d s 1710 492 m -4 -5 d s 1691 492 m -4 -5 d s 1672 492 m -5 -5 d s 1653 492 m -5 -5 d s 1633 492 m -4 -5 d s 1614 492 m -4 -5 d s 3 lw
 1879 487 m -1 -1 d s 1860 487 m -1 -1 d s 1841 487 m -2 -1 d s 1821 487 m -1 -1 d s 1802 487 m -1 -1 d s 1783 487 m -1 -1 d s 1764 487 m -1 -1 d s 1744 487 m -1 -1 d s 3 lw 2015 489 m -2 -3 d s 1996 489 m -3 -3 d s 1977 489 m -3 -3 d s 1958 489 m -3
 -3 d s 1939 489 m -3 -3 d s 1919 489 m -3 -3 d s 1900 489 m -3 -3 d s 1881 489 m -2 -2 d s 3 lw 2154 493 m -1 -1 d s 2135 493 m -1 -1 d s 2116 493 m -2 -1 d s 2097 493 m -2 -1 d s 2077 493 m -1 -1 d s 2058 493 m -1 -1 d s 2039 493 m -2 -1 d s 2020
 493 m -2 -1 d s black 3 lw 1 1 1 c black 296 744 m 146 Y s 296 914 m 145 Y s /w 24 def /w2 {w 2 div} def /w3 {w 3 div} def 296 902 m20 433 604 m 108 Y s 433 735 m 107 Y s 433 723 m20 571 520 m 73 Y s 571 616 m 73 Y s 571 604 m20 709 520 m 73 Y s 709
 616 m 73 Y s 709 604 m20 846 486 m 47 Y s 846 557 m 47 Y s 846 545 m20 2085 486 m 47 Y s 2085 557 m 47 Y s 2085 545 m20 227 486 m 1927 X s 227 505 m -19 Y s 282 495 m -9 Y s 337 495 m -9 Y s 392 495 m -9 Y s 447 495 m -9 Y s 502 505 m -19 Y s 557
 495 m -9 Y s 612 495 m -9 Y s 667 495 m -9 Y s 722 495 m -9 Y s 778 505 m -19 Y s 833 495 m -9 Y s 888 495 m -9 Y s 943 495 m -9 Y s 998 495 m -9 Y s 1053 505 m -19 Y s 1108 495 m -9 Y s 1163 495 m -9 Y s 1218 495 m -9 Y s 1273 495 m -9 Y s 1328 505
 m -19 Y s 1383 495 m -9 Y s 1438 495 m -9 Y s 1493 495 m -9 Y s 1549 495 m -9 Y s 1604 505 m -19 Y s 1659 495 m -9 Y s 1714 495 m -9 Y s 1769 495 m -9 Y s 1824 495 m -9 Y s 1879 505 m -19 Y s 1934 495 m -9 Y s 1989 495 m -9 Y s 2044 495 m -9 Y s
 2099 495 m -9 Y s 2154 505 m -19 Y s 227 1527 m 1927 X s 227 1508 m 19 Y s 282 1518 m 9 Y s 337 1518 m 9 Y s 392 1518 m 9 Y s 447 1518 m 9 Y s 502 1508 m 19 Y s 557 1518 m 9 Y s 612 1518 m 9 Y s 667 1518 m 9 Y s 722 1518 m 9 Y s 778 1508 m 19 Y s
 833 1518 m 9 Y s 888 1518 m 9 Y s 943 1518 m 9 Y s 998 1518 m 9 Y s 1053 1508 m 19 Y s 1108 1518 m 9 Y s 1163 1518 m 9 Y s 1218 1518 m 9 Y s 1273 1518 m 9 Y s 1328 1508 m 19 Y s 1383 1518 m 9 Y s 1438 1518 m 9 Y s 1493 1518 m 9 Y s 1549 1518 m 9 Y s
 1604 1508 m 19 Y s 1659 1518 m 9 Y s 1714 1518 m 9 Y s 1769 1518 m 9 Y s 1824 1518 m 9 Y s 1879 1508 m 19 Y s 1934 1518 m 9 Y s 1989 1518 m 9 Y s 2044 1518 m 9 Y s 2099 1518 m 9 Y s 2154 1508 m 19 Y s 227 486 m 1041 Y s 248 604 m -21 X s 237 634 m
 -10 X s 237 664 m -10 X s 237 694 m -10 X s 248 723 m -21 X s 237 753 m -10 X s 237 783 m -10 X s 237 813 m -10 X s 248 842 m -21 X s 237 872 m -10 X s 237 902 m -10 X s 237 932 m -10 X s 248 961 m -21 X s 237 991 m -10 X s 237 1021 m -10 X s 237
 1051 m -10 X s 248 1081 m -21 X s 237 1110 m -10 X s 237 1140 m -10 X s 237 1170 m -10 X s 248 1200 m -21 X s 237 1229 m -10 X s 237 1259 m -10 X s 237 1289 m -10 X s 248 1319 m -21 X s 237 1348 m -10 X s 237 1378 m -10 X s 237 1408 m -10 X s 248
 1438 m -21 X s 248 604 m -21 X s 237 575 m -10 X s 237 545 m -10 X s 237 515 m -10 X s 248 1438 m -21 X s 237 1467 m -10 X s 237 1497 m -10 X s 237 1527 m -10 X s 2154 486 m 1041 Y s 2133 604 m 21 X s 2144 634 m 10 X s 2144 664 m 10 X s 2144 694 m
 10 X s 2133 723 m 21 X s 2144 753 m 10 X s 2144 783 m 10 X s 2144 813 m 10 X s 2133 842 m 21 X s 2144 872 m 10 X s 2144 902 m 10 X s 2144 932 m 10 X s 2133 961 m 21 X s 2144 991 m 10 X s 2144 1021 m 10 X s 2144 1051 m 10 X s 2133 1081 m 21 X s 2144
 1110 m 10 X s 2144 1140 m 10 X s 2144 1170 m 10 X s 2133 1200 m 21 X s 2144 1229 m 10 X s 2144 1259 m 10 X s 2144 1289 m 10 X s 2133 1319 m 21 X s 2144 1348 m 10 X s 2144 1378 m 10 X s 2144 1408 m 10 X s 2133 1438 m 21 X s 2133 604 m 21 X s 2144 575
 m 10 X s 2144 545 m 10 X s 2144 515 m 10 X s 2133 1438 m 21 X s 2144 1467 m 10 X s 2144 1497 m 10 X s 2144 1527 m 10 X s
 gsave  2268 1108 0 475 C 1313.98 1437.99 t 0 r /Helvetica findfont 56.1323 sf 0 0 m ( Data) show NC gr  1259 1463 m 7 Y s 1259 1440 m -8 Y s 1259 1451 m20
 gsave  2268 1108 0 475 C 1777.56 1437.99 t 0 r /Helvetica findfont 56.1323 sf 0 0 m ( Fakes \(MM\)) show NC gr  0.4 0.6 0.4 c 1682 1429 m 79 X 44 Y -79 X f black
 gsave  2268 1108 0 475 C 1402.56 1375.98 t 0 r /Helvetica findfont 56.1323 sf 0 0 m (single\255top) show NC gr 
 gsave  2268 1108 0 475 C 1373.03 1375.98 t 0 r /Helvetica-Oblique findfont 56.1323 sf 0 0 m (/) show NC gr 
 gsave  2268 1108 0 475 C 1352.36 1375.98 t 0 r /Helvetica-Oblique findfont 56.1323 sf 0 0 m (t) show NC gr  6 lw 1352 1420 m 21 X s
 gsave  2268 1108 0 475 C 1331.69 1375.98 t 0 r /Helvetica-Oblique findfont 56.1323 sf 0 0 m (t) show NC gr 
 gsave  2268 1108 0 475 C 1313.98 1375.98 t 0 r /Helvetica findfont 56.1323 sf 0 0 m ( ) show NC gr  0.06 0.54 0.06 c 3 lw 1219 1366 m 79 X 44 Y -79 X f 6 lw black
 gsave  2268 1108 0 475 C 1907.48 1375.98 t 0 r /Helvetica findfont 56.1323 sf 0 0 m (+jets) show NC gr 
 gsave  2268 1108 0 475 C 1795.28 1375.98 t 0 r /Helvetica-Oblique findfont 56.1323 sf 0 0 m (W/Z) show NC gr 
 gsave  2268 1108 0 475 C 1777.56 1375.98 t 0 r /Helvetica findfont 56.1323 sf 0 0 m ( ) show NC gr  1 0.653333 0 c 3 lw 1682 1366 m 79 X 44 Y -79 X f black
 gsave  2268 1108 0 475 C 1511.81 1311.02 t 0 r /Helvetica findfont 56.1323 sf 0 0 m (+jets) show NC gr 
 gsave  2268 1108 0 475 C 1331.69 1311.02 t 0 r /Helvetica-Oblique findfont 56.1323 sf 0 0 m (WZ/ZZ) show NC gr 
 gsave  2268 1108 0 475 C 1313.98 1311.02 t 0 r /Helvetica findfont 56.1323 sf 0 0 m ( ) show NC gr  0.413333 1 0 c 3 lw 1219 1303 m 79 X 44 Y -79 X f black
 gsave  2268 1108 0 475 C 1836.61 1311.02 t 0 r /Helvetica-Oblique findfont 56.1323 sf 0 0 m (Z) show NC gr 
 gsave  2268 1108 0 475 C 1815.94 1311.02 t 0 r /Helvetica-Oblique findfont 56.1323 sf 0 0 m (t) show NC gr  6 lw 1816 1355 m 21 X s
 gsave  2268 1108 0 475 C 1795.28 1311.02 t 0 r /Helvetica-Oblique findfont 56.1323 sf 0 0 m (t) show NC gr 
 gsave  2268 1108 0 475 C 1777.56 1311.02 t 0 r /Helvetica findfont 56.1323 sf 0 0 m ( ) show NC gr  0.6 0.2 1 c 3 lw 1682 1303 m 79 X 44 Y -79 X f 6 lw black
 gsave  2268 1108 0 475 C 1373.03 1249.02 t 0 r /Helvetica-Oblique findfont 56.1323 sf 0 0 m (W) show NC gr 
 gsave  2268 1108 0 475 C 1352.36 1249.02 t 0 r /Helvetica-Oblique findfont 56.1323 sf 0 0 m (t) show NC gr  6 lw 1352 1293 m 21 X s
 gsave  2268 1108 0 475 C 1331.69 1249.02 t 0 r /Helvetica-Oblique findfont 56.1323 sf 0 0 m (t) show NC gr 
 gsave  2268 1108 0 475 C 1313.98 1249.02 t 0 r /Helvetica findfont 56.1323 sf 0 0 m ( ) show NC gr  0.54 0.06 0.06 c 3 lw 1219 1239 m 79 X 45 Y -79 X f 6 lw black
 gsave  2268 1108 0 475 C 1795.28 1249.02 t 0 r /Helvetica-Oblique findfont 56.1323 sf 0 0 m (tZq) show NC gr 
 gsave  2268 1108 0 475 C 1777.56 1249.02 t 0 r /Helvetica findfont 56.1323 sf 0 0 m ( ) show NC gr  1 0 1 c 3 lw 1682 1239 m 79 X 45 Y -79 X f black
 gsave  2268 1108 0 475 C 1373.03 1184.06 t 0 r /Helvetica-Oblique findfont 56.1323 sf 0 0 m (H) show NC gr 
 gsave  2268 1108 0 475 C 1352.36 1184.06 t 0 r /Helvetica-Oblique findfont 56.1323 sf 0 0 m (t) show NC gr  6 lw 1352 1228 m 21 X s
 gsave  2268 1108 0 475 C 1331.69 1184.06 t 0 r /Helvetica-Oblique findfont 56.1323 sf 0 0 m (t) show NC gr 
 gsave  2268 1108 0 475 C 1313.98 1184.06 t 0 r /Helvetica findfont 56.1323 sf 0 0 m ( ) show NC gr  0 0 1 c 3 lw 1219 1176 m 79 X 44 Y -79 X f 6 lw black
 gsave  2268 1108 0 475 C 1795.28 1184.06 t 0 r /Helvetica-Oblique findfont 56.1323 sf 0 0 m (tWZ/tWH) show NC gr 
 gsave  2268 1108 0 475 C 1777.56 1184.06 t 0 r /Helvetica findfont 56.1323 sf 0 0 m ( ) show NC gr  0.2 0.8 0.8 c 3 lw 1682 1176 m 79 X 44 Y -79 X f black
 gsave  2268 1108 0 475 C 1331.69 1122.05 t 0 r /Helvetica-Oblique findfont 56.1323 sf 0 0 m (tHq) show NC gr 
 gsave  2268 1108 0 475 C 1313.98 1122.05 t 0 r /Helvetica findfont 56.1323 sf 0 0 m ( ) show NC gr  1 0 0 c 3 lw 1219 1113 m 79 X 44 Y -79 X f black
 gsave  2268 1108 0 475 C 1777.56 1122.05 t 0 r /Helvetica findfont 56.1323 sf 0 0 m ( Other) show NC gr  1 0.84 0 c 3 lw 1682 1113 m 79 X 44 Y -79 X f black
 gsave  2268 1108 0 475 C 1313.98 1060.04 t 0 r /Helvetica findfont 56.1323 sf 0 0 m ( Uncertainty) show NC gr  0.6 0.6 0.6 c 3 lw 1298 1060 m -10 -11 d s 1298 1079 m -30 -30 d s 1294 1094 m -45 -45 d s 1274 1094 m -44 -45 d s 1255 1094 m -36 -37 d s
 1236 1094 m -17 -17 d s 1 0.84 0 c 0.6 0.6 0.6 c black
 gsave  2268 1108 0 475 C 894.685 1337.6 t 0 r /Helvetica findfont 41.3606 sf 0 0 m (\2551) show NC gr 
 gsave  2268 1108 0 475 C 401.575 1308.07 t 0 r /Helvetica findfont 62.0409 sf 0 0 m ( = 13 TeV,  139 fb) show NC gr 
 gsave  2268 1108 0 475 C 372.047 1308.07 t 0 r /Helvetica findfont 62.0409 sf 0 0 m (s) show NC gr  6 lw 351 1344 m 6 -39 d s 3 lw 357 1305 m 9 56 d s 366 1361 m 36 X s
 gsave  2268 1108 0 475 C 832.677 1207.68 t 0 r /Helvetica findfont 62.0409 sf 0 0 m (\)) show NC gr 
 gsave  2268 1108 0 475 C 776.575 1175.2 t 0 r /Helvetica findfont 41.3606 sf 0 0 m (HF) show NC gr 
 gsave  2268 1108 0 475 C 339.567 1207.68 t 0 r /Helvetica findfont 62.0409 sf 0 0 m ( 2L\(SS\), CR\(mu) show NC gr 
 gsave  2268 1108 0 475 C 339.567 1405.51 t 0 r /Helvetica-BoldOblique findfont 73.8583 sf 0 0 m (ATLAS) show NC gr 
 gsave  2268 1108 0 475 C 634.843 1405.51 t 0 r /Helvetica findfont 73.8583 sf 0 0 m (Internal) show NC gr 
 gr  gr showpage
end
%%EOF
