%!PS-Adobe-2.0 EPSF-2.0
%%BoundingBox:  0 0 567 396
%%Title: /lhome/ific/c/cardillo/tHq/Plots/Plots-30-05-22-PLIV-SF/2LSS_MM/Ht_Pre.eps: Ht_Pre
%%Creator: ROOT Version 6.20/06
%%CreationDate: Tue May 31 15:04:49 2022
%%DocumentNeededResources: ProcSet (FontSetInit)
%%EndComments
%%BeginProlog
80 dict begin
/s {stroke} def /l {lineto} def /m {moveto} def /t {translate} def
/r {rotate} def /rl {roll}  def /R {repeat} def
/d {rlineto} def /rm {rmoveto} def /gr {grestore} def /f {eofill} def
/c {setrgbcolor} def /black {0 setgray} def /sd {setdash} def
/cl {closepath} def /sf {scalefont setfont} def /lw {setlinewidth} def
/box {m dup 0 exch d exch 0 d 0 exch neg d cl} def
/NC{systemdict begin initclip end}def/C{NC box clip newpath}def
/bl {box s} def /bf {gsave box gsave f grestore 1 lw [] 0 sd s grestore} def /Y { 0 exch d} def /X { 0 d} def 
/K {{pop pop 0 moveto} exch kshow} bind def
/ita {/ang 15 def gsave [1 0 ang dup sin exch cos div 1 0 0] concat} def 
/mp {newpath /y exch def /x exch def} def
/side {[w .77 mul w .23 mul] .385 w mul sd w 0 l currentpoint t -144 r} def
/mr {mp x y w2 0 360 arc} def /m24 {mr s} def /m20 {mr f} def
/mb {mp x y w2 add m w2 neg 0 d 0 w neg d w 0 d 0 w d cl} def
/mt {mp x y w2 add m w2 neg w neg d w 0 d cl} def
/w4 {w 4 div} def
/w6 {w 6 div} def
/w8 {w 8 div} def
/m21 {mb f} def /m25 {mb s} def /m22 {mt f} def /m26{mt s} def
/m23 {mp x y w2 sub m w2 w d w neg 0 d cl f} def
/m27 {mp x y w2 add m w3 neg w2 neg d w3 w2 neg d w3 w2 d cl s} def
/m28 {mp x w2 sub y w2 sub w3 add m w3 0 d  0 w3 neg d w3 0 d 0 w3 d w3 0 d  0 w3 d w3 neg 0 d 0 w3 d w3 neg 0 d 0 w3 neg d w3 neg 0 d cl s } def
/m29 {mp gsave x w2 sub y w2 add w3 sub m currentpoint t 4 {side} repeat cl fill gr} def
/m30 {mp gsave x w2 sub y w2 add w3 sub m currentpoint t 4 {side} repeat cl s gr} def
/m31 {mp x y w2 sub m 0 w d x w2 sub y m w 0 d x w2 sub y w2 add m w w neg d x w2 sub y w2 sub m w w d s} def
/m32 {mp x y w2 sub m w2 w d w neg 0 d cl s} def
/m33 {mp x y w2 add m w3 neg w2 neg d w3 w2 neg d w3 w2 d cl f} def
/m34 {mp x w2 sub y w2 sub w3 add m w3 0 d  0 w3 neg d w3 0 d 0 w3 d w3 0 d  0 w3 d w3 neg 0 d 0 w3 d w3 neg 0 d 0 w3 neg d w3 neg 0 d cl f } def
/m35 {mp x y w2 add m w2 neg w2 neg d w2 w2 neg d w2 w2 d w2 neg w2 d x y w2 sub m 0 w d x w2 sub y m w 0 d s} def
/m36 {mb x w2 sub y w2 add m w w neg d x w2 sub y w2 sub m w w d s} def
/m37 {mp x y m w4 neg w2 d w4 neg w2 neg d w2 0 d  w4 neg w2 neg d w2 0 d w4 neg w2 d w2 0 d w4 neg w2 d w4 neg w2 neg d cl s} def
/m38 {mp x w4 sub y w2 add m w4 neg w4 neg d 0 w2 neg d w4 w4 neg d w2 0 d w4 w4 d 0 w2 d w4 neg w4 d w2 neg 0 d x y w2 sub m 0 w d x w2 sub y m w 0 d cl s} def
/m39 {mp x y m w4 neg w2 d w4 neg w2 neg d w2 0 d  w4 neg w2 neg d w2 0 d w4 neg w2 d w2 0 d w4 neg w2 d w4 neg w2 neg d cl f} def
/m40 {mp x y m w4 w2 d w4 w4 neg d w2 neg w4 neg d w2 w4 neg d w4 neg w4 neg d w4 neg w2 d w4 neg w2 neg d w4 neg w4 d w2 w4 d w2 neg w4 d w4 w4 d w4 w2 neg d cl s} def
/m41 {mp x y m w4 w2 d w4 w4 neg d w2 neg w4 neg d w2 w4 neg d w4 neg w4 neg d w4 neg w2 d w4 neg w2 neg d w4 neg w4 d w2 w4 d w2 neg w4 d w4 w4 d w4 w2 neg d cl f} def
/m42 {mp x y w2 add m w8 neg w2 -3 4 div mul d w2 -3 4 div mul w8 neg d w2 3 4 div mul w8 neg d w8 w2 -3 4 div mul d w8 w2 3 4 div mul d w2 3 4 div mul w8 d w2 -3 4 div mul w8 d w8 neg w2 3 4 div mul d cl s} def
/m43 {mp x y w2 add m w8 neg w2 -3 4 div mul d w2 -3 4 div mul w8 neg d w2 3 4 div mul w8 neg d w8 w2 -3 4 div mul d w8 w2 3 4 div mul d w2 3 4 div mul w8 d w2 -3 4 div mul w8 d w8 neg w2 3 4 div mul d cl f} def
/m44 {mp x y m w6 neg w2 d w2 2 3 div mul 0 d w6 neg w2 neg d w2 w6 d 0 w2 -2 3 div mul d w2 neg w6 d w6 w2 neg d w2 -2 3 div mul 0 d w6 w2 d w2 neg w6 neg d 0 w2 2 3 div mul d w2 w6 neg d cl s} def
/m45 {mp x y m w6 neg w2 d w2 2 3 div mul 0 d w6 neg w2 neg d w2 w6 d 0 w2 -2 3 div mul d w2 neg w6 d w6 w2 neg d w2 -2 3 div mul 0 d w6 w2 d w2 neg w6 neg d 0 w2 2 3 div mul d w2 w6 neg d cl f} def
/m46 {mp x y w4 add m w4 neg w4 d w4 neg w4 neg d  w4 w4 neg d w4 neg w4 neg d w4 w4 neg d w4 w4 d w4 w4 neg d w4 w4 d w4 neg w4 d w4 w4 d w4 neg w4 d w4 neg w4 neg d cl s} def
/m47 {mp x y w4 add m w4 neg w4 d w4 neg w4 neg d w4 w4 neg d w4 neg w4 neg d  w4 w4 neg d w4 w4 d w4 w4 neg d w4 w4 d w4 neg w4 d w4 w4 d w4 neg w4 d w4 neg w4 neg d cl f} def
/m48 {mp x y w4 add m w4 neg w4 d w4 neg w4 neg d w4 w4 neg d  w4 neg w4 neg d w4 w4 neg d w4 w4 d w4 w4 neg d w4 w4 d w4 neg w4 d w4 w4 d w4 neg w4 d w4 neg w4 neg d  w4 w4 neg d w4 neg w4 neg d w4 neg w4 d w4 w4 d cl f} def
/m49 {mp x w2 sub w3 add y w2 sub w3 add m  0 w3 neg d w3 0 d 0 w3 d w3 0 d 0 w3 d w3 neg 0 d 0 w3 d w3 neg 0 d 0 w3 neg d w3 neg 0 d 0 w3 neg d w3 0 d 0 w3 d w3 0 d 0 w3 neg d w3 neg 0 d cl f } def
/m2 {mp x y w2 sub m 0 w d x w2 sub y m w 0 d s} def
/m5 {mp x w2 sub y w2 sub m w w d x w2 sub y w2 add m w w neg d s} def
%%IncludeResource: ProcSet (FontSetInit)
%%IncludeResource: font Times-Roman
%%IncludeResource: font Times-Italic
%%IncludeResource: font Times-Bold
%%IncludeResource: font Times-BoldItalic
%%IncludeResource: font Helvetica
%%IncludeResource: font Helvetica-Oblique
%%IncludeResource: font Helvetica-Bold
%%IncludeResource: font Helvetica-BoldOblique
%%IncludeResource: font Courier
%%IncludeResource: font Courier-Oblique
%%IncludeResource: font Courier-Bold
%%IncludeResource: font Courier-BoldOblique
%%IncludeResource: font Symbol
%%IncludeResource: font ZapfDingbats
/reEncode {exch findfont dup length dict begin {1 index /FID eq  {pop pop} {def} ifelse } forall /Encoding exch def currentdict end dup /FontName get exch definefont pop } def [/Times-Bold /Times-Italic /Times-BoldItalic /Helvetica /Helvetica-Oblique
 /Helvetica-Bold /Helvetica-BoldOblique /Courier /Courier-Oblique /Courier-Bold /Courier-BoldOblique /Times-Roman /AvantGarde-Book /AvantGarde-BookOblique /AvantGarde-Demi /AvantGarde-DemiOblique /Bookman-Demi /Bookman-DemiItalic /Bookman-Light
 /Bookman-LightItalic /Helvetica-Narrow /Helvetica-Narrow-Bold /Helvetica-Narrow-BoldOblique /Helvetica-Narrow-Oblique /NewCenturySchlbk-Roman /NewCenturySchlbk-Bold /NewCenturySchlbk-BoldItalic /NewCenturySchlbk-Italic /Palatino-Bold
 /Palatino-BoldItalic /Palatino-Italic /Palatino-Roman ] {ISOLatin1Encoding reEncode } forall
%%EndProlog
%%BeginSetup
%%EndSetup
newpath  gsave  .25 .25 scale  gsave  0 0 t black[  ] 0 sd 3 lw 1 1 1 c 2268 1583 0 0 bf black 1 1 1 c 2268 475 0 0 bf black 1 1 1 c 1927 275 227 190 bf black 1927 275 227 190 bl 227 190 m 1927 X s 227 202 m -12 Y s 282 196 m -6 Y s 337 196 m -6 Y s
 392 196 m -6 Y s 447 196 m -6 Y s 502 202 m -12 Y s 557 196 m -6 Y s 612 196 m -6 Y s 667 196 m -6 Y s 722 196 m -6 Y s 778 202 m -12 Y s 833 196 m -6 Y s 888 196 m -6 Y s 943 196 m -6 Y s 998 196 m -6 Y s 1053 202 m -12 Y s 1108 196 m -6 Y s 1163
 196 m -6 Y s 1218 196 m -6 Y s 1273 196 m -6 Y s 1328 202 m -12 Y s 1383 196 m -6 Y s 1438 196 m -6 Y s 1493 196 m -6 Y s 1549 196 m -6 Y s 1604 202 m -12 Y s 1659 196 m -6 Y s 1714 196 m -6 Y s 1769 196 m -6 Y s 1824 196 m -6 Y s 1879 202 m -12 Y s
 1934 196 m -6 Y s 1989 196 m -6 Y s 2044 196 m -6 Y s 2099 196 m -6 Y s 2154 202 m -12 Y s
 gsave  2268 475 0 0 C 180.118 126.968 t 0 r /Helvetica findfont 53.4154 sf 0 0 m (300) show NC gr 
 gsave  2268 475 0 0 C 457.677 126.968 t 0 r /Helvetica findfont 53.4154 sf 0 0 m (400) show NC gr 
 gsave  2268 475 0 0 C 732.283 126.968 t 0 r /Helvetica findfont 53.4154 sf 0 0 m (500) show NC gr 
 gsave  2268 475 0 0 C 1006.89 126.968 t 0 r /Helvetica findfont 53.4154 sf 0 0 m (600) show NC gr 
 gsave  2268 475 0 0 C 1281.5 126.968 t 0 r /Helvetica findfont 53.4154 sf 0 0 m (700) show NC gr 
 gsave  2268 475 0 0 C 1559.06 126.968 t 0 r /Helvetica findfont 53.4154 sf 0 0 m (800) show NC gr 
 gsave  2268 475 0 0 C 1833.66 126.968 t 0 r /Helvetica findfont 53.4154 sf 0 0 m (900) show NC gr 
 gsave  2268 475 0 0 C 2093.5 126.968 t 0 r /Helvetica findfont 53.4154 sf 0 0 m (1000) show NC gr 
 gsave  2268 475 0 0 C 1996.06 47.2441 t 0 r /Helvetica findfont 56.3829 sf 0 0 m ( [GeV]) show NC gr 
 gsave  2268 475 0 0 C 1972.44 29.5276 t 0 r /Helvetica findfont 38.5778 sf 0 0 m (T) show NC gr 
 gsave  2268 475 0 0 C 1925.2 47.2441 t 0 r /Helvetica-Oblique findfont 56.3829 sf 0 0 m (H) show NC gr  227 465 m 1927 X s 227 453 m 12 Y s 282 459 m 6 Y s 337 459 m 6 Y s 392 459 m 6 Y s 447 459 m 6 Y s 502 453 m 12 Y s 557 459 m 6 Y s 612 459 m 6
 Y s 667 459 m 6 Y s 722 459 m 6 Y s 778 453 m 12 Y s 833 459 m 6 Y s 888 459 m 6 Y s 943 459 m 6 Y s 998 459 m 6 Y s 1053 453 m 12 Y s 1108 459 m 6 Y s 1163 459 m 6 Y s 1218 459 m 6 Y s 1273 459 m 6 Y s 1328 453 m 12 Y s 1383 459 m 6 Y s 1438 459 m
 6 Y s 1493 459 m 6 Y s 1549 459 m 6 Y s 1604 453 m 12 Y s 1659 459 m 6 Y s 1714 459 m 6 Y s 1769 459 m 6 Y s 1824 459 m 6 Y s 1879 453 m 12 Y s 1934 459 m 6 Y s 1989 459 m 6 Y s 2044 459 m 6 Y s 2099 459 m 6 Y s 2154 453 m 12 Y s 227 190 m 275 Y s
 240 242 m -13 X s 240 328 m -13 X s 240 414 m -13 X s 240 242 m -13 X s 240 414 m -13 X s
 gsave  2268 475 0 0 C 118.11 221.457 t 0 r /Helvetica findfont 53.4154 sf 0 0 m (0.5) show NC gr 
 gsave  2268 475 0 0 C 171.26 307.087 t 0 r /Helvetica findfont 53.4154 sf 0 0 m (1) show NC gr 
 gsave  2268 475 0 0 C 118.11 395.669 t 0 r /Helvetica findfont 53.4154 sf 0 0 m (1.5) show NC gr 
 gsave  2268 475 0 0 C 70.8661 233.268 t 90 r /Helvetica findfont 53.4154 sf 0 0 m (Data / SM) show NC gr  2154 190 m 275 Y s 2141 242 m 13 X s 2141 328 m 13 X s 2141 414 m 13 X s 2141 242 m 13 X s 2141 414 m 13 X s 227 190 m 1927 X s 227 465 m 1927
 X s 227 190 m 275 Y s[ 4 8] 0 sd 2154 242 m -1927 X s 2154 328 m -1927 X s 2154 414 m -1927 X s 2154 242 m -1927 X s 2154 414 m -1927 X s[  ] 0 sd 2154 190 m 275 Y s 1 1 0.6 c 137 0 227 328 bf 138 0 364 328 bf 138 0 502 328 bf 138 0 640 328 bf 137 0
 778 328 bf 138 0 915 328 bf 138 0 1053 328 bf 137 0 1191 328 bf 138 0 1328 328 bf 138 0 1466 328 bf 137 0 1604 328 bf 138 0 1741 328 bf 138 0 1879 328 bf 137 0 2017 328 bf black 0.6 0.6 0.6 c 364 328 m -2 -3 d s 347 330 m -4 -5 d s 328 330 m -4 -5 d
 s 309 330 m -4 -5 d s 290 330 m -5 -5 d s 270 330 m -4 -5 d s 251 330 m -4 -5 d s 232 330 m -4 -5 d s 502 330 m -5 -5 d s 482 330 m -5 -5 d s 463 330 m -5 -5 d s 444 330 m -5 -5 d s 425 330 m -5 -5 d s 405 330 m -5 -5 d s 386 330 m -5 -5 d s 367 330
 m -3 -2 d s 637 330 m -6 -5 d s 617 330 m -5 -5 d s 598 330 m -5 -5 d s 579 330 m -6 -5 d s 560 330 m -6 -5 d s 540 330 m -5 -5 d s 521 330 m -5 -5 d s 772 331 m -7 -6 d s 752 331 m -6 -6 d s 733 331 m -6 -6 d s 714 331 m -6 -6 d s 695 331 m -6 -6 d
 s 675 331 m -6 -6 d s 656 331 m -6 -6 d s 907 331 m -7 -7 d s 888 331 m -7 -7 d s 868 331 m -7 -7 d s 849 331 m -7 -7 d s 830 331 m -7 -7 d s 811 331 m -7 -7 d s 791 331 m -7 -7 d s 1042 332 m -8 -9 d s 1023 332 m -8 -9 d s 1004 332 m -9 -9 d s 984
 332 m -8 -9 d s 965 332 m -8 -9 d s 946 332 m -8 -9 d s 927 332 m -9 -9 d s 1191 326 m -4 -3 d s 1177 332 m -9 -9 d s 1158 332 m -9 -9 d s 1139 332 m -9 -9 d s 1119 332 m -9 -9 d s 1100 332 m -9 -9 d s 1081 332 m -9 -9 d s 1062 332 m -9 -9 d s 1328
 329 m -7 -7 d s 1312 333 m -10 -11 d s 1293 333 m -10 -11 d s 1274 333 m -10 -11 d s 1255 333 m -10 -11 d s 1235 333 m -10 -11 d s 1216 333 m -10 -11 d s 1197 333 m -6 -7 d s 1466 332 m -10 -10 d s 1448 333 m -12 -11 d s 1428 333 m -11 -11 d s 1409
 333 m -11 -11 d s 1390 333 m -11 -11 d s 1371 333 m -12 -11 d s 1351 333 m -11 -11 d s 1332 333 m -4 -4 d s 1602 334 m -13 -13 d s 1583 334 m -13 -13 d s 1564 334 m -13 -13 d s 1545 334 m -13 -13 d s 1526 334 m -14 -13 d s 1506 334 m -13 -13 d s
 1487 334 m -13 -13 d s 1468 334 m -2 -2 d s 1738 335 m -14 -14 d s 1718 335 m -14 -14 d s 1699 335 m -14 -14 d s 1680 335 m -14 -14 d s 1661 335 m -14 -14 d s 1641 335 m -14 -14 d s 1622 335 m -14 -14 d s 1879 322 m -3 -3 d s 1874 336 m -17 -17 d s
 1855 336 m -17 -17 d s 1835 336 m -17 -17 d s 1816 336 m -17 -17 d s 1797 336 m -17 -17 d s 1778 336 m -17 -17 d s 1758 336 m -17 -17 d s 2017 325 m -7 -7 d s 2010 337 m -19 -19 d s 1990 337 m -19 -19 d s 1971 337 m -19 -19 d s 1952 337 m -19 -19 d
 s 1933 337 m -19 -19 d s 1913 337 m -19 -19 d s 1894 337 m -15 -15 d s 2154 328 m -2 -2 d s 2137 329 m -4 -3 d s 2117 329 m -3 -3 d s 2098 329 m -4 -3 d s 2079 329 m -4 -3 d s 2060 329 m -4 -3 d s 2040 329 m -3 -3 d s 2021 329 m -4 -3 d s black 1 1
 1 c black /w 26 def /w2 {w 2 div} def /w3 {w 3 div} def 296 327 m20 433 330 m20 571 331 m 1 Y s 571 356 m 1 Y s 571 344 m20 709 321 m 3 Y s 709 347 m 3 Y s 709 335 m20 846 301 m 5 Y s 846 329 m 4 Y s 846 317 m20 984 295 m 6 Y s 984 325 m 6 Y s 984
 313 m20 1122 327 m 11 Y s 1122 362 m 11 Y s 1122 350 m20 1259 282 m 11 Y s 1259 316 m 11 Y s 1259 304 m20 1397 309 m 17 Y s 1397 349 m 17 Y s 1397 337 m20 1535 315 m 22 Y s 1535 361 m 22 Y s 1535 349 m20 1672 327 m 28 Y s 1672 379 m 28 Y s 1672 367
 m20 1810 353 m 39 Y s 1810 416 m 38 Y s 1810 404 m20 1948 281 m 33 Y s 1948 337 m 32 Y s 1948 325 m20 2085 325 m 11 Y s 2085 360 m 11 Y s 2085 348 m20 227 328 m 1927 X s 227 190 m 1927 X s 227 202 m -12 Y s 282 196 m -6 Y s 337 196 m -6 Y s 392 196
 m -6 Y s 447 196 m -6 Y s 502 202 m -12 Y s 557 196 m -6 Y s 612 196 m -6 Y s 667 196 m -6 Y s 722 196 m -6 Y s 778 202 m -12 Y s 833 196 m -6 Y s 888 196 m -6 Y s 943 196 m -6 Y s 998 196 m -6 Y s 1053 202 m -12 Y s 1108 196 m -6 Y s 1163 196 m -6
 Y s 1218 196 m -6 Y s 1273 196 m -6 Y s 1328 202 m -12 Y s 1383 196 m -6 Y s 1438 196 m -6 Y s 1493 196 m -6 Y s 1549 196 m -6 Y s 1604 202 m -12 Y s 1659 196 m -6 Y s 1714 196 m -6 Y s 1769 196 m -6 Y s 1824 196 m -6 Y s 1879 202 m -12 Y s 1934 196
 m -6 Y s 1989 196 m -6 Y s 2044 196 m -6 Y s 2099 196 m -6 Y s 2154 202 m -12 Y s 227 465 m 1927 X s 227 453 m 12 Y s 282 459 m 6 Y s 337 459 m 6 Y s 392 459 m 6 Y s 447 459 m 6 Y s 502 453 m 12 Y s 557 459 m 6 Y s 612 459 m 6 Y s 667 459 m 6 Y s
 722 459 m 6 Y s 778 453 m 12 Y s 833 459 m 6 Y s 888 459 m 6 Y s 943 459 m 6 Y s 998 459 m 6 Y s 1053 453 m 12 Y s 1108 459 m 6 Y s 1163 459 m 6 Y s 1218 459 m 6 Y s 1273 459 m 6 Y s 1328 453 m 12 Y s 1383 459 m 6 Y s 1438 459 m 6 Y s 1493 459 m 6 Y
 s 1549 459 m 6 Y s 1604 453 m 12 Y s 1659 459 m 6 Y s 1714 459 m 6 Y s 1769 459 m 6 Y s 1824 459 m 6 Y s 1879 453 m 12 Y s 1934 459 m 6 Y s 1989 459 m 6 Y s 2044 459 m 6 Y s 2099 459 m 6 Y s 2154 453 m 12 Y s 227 190 m 275 Y s 240 242 m -13 X s 240
 328 m -13 X s 240 414 m -13 X s 240 242 m -13 X s 240 414 m -13 X s 2154 190 m 275 Y s 2141 242 m 13 X s 2141 328 m 13 X s 2141 414 m 13 X s 2141 242 m 13 X s 2141 414 m 13 X s 1 1 1 c 2268 1108 0 475 bf black 1 1 1 c 1927 1041 227 486 bf black 1927
 1041 227 486 bl 1 1 1 c black 3 lw 227 486 m 1927 X s 227 505 m -19 Y s 282 495 m -9 Y s 337 495 m -9 Y s 392 495 m -9 Y s 447 495 m -9 Y s 502 505 m -19 Y s 557 495 m -9 Y s 612 495 m -9 Y s 667 495 m -9 Y s 722 495 m -9 Y s 778 505 m -19 Y s 833
 495 m -9 Y s 888 495 m -9 Y s 943 495 m -9 Y s 998 495 m -9 Y s 1053 505 m -19 Y s 1108 495 m -9 Y s 1163 495 m -9 Y s 1218 495 m -9 Y s 1273 495 m -9 Y s 1328 505 m -19 Y s 1383 495 m -9 Y s 1438 495 m -9 Y s 1493 495 m -9 Y s 1549 495 m -9 Y s
 1604 505 m -19 Y s 1659 495 m -9 Y s 1714 495 m -9 Y s 1769 495 m -9 Y s 1824 495 m -9 Y s 1879 505 m -19 Y s 1934 495 m -9 Y s 1989 495 m -9 Y s 2044 495 m -9 Y s 2099 495 m -9 Y s 2154 505 m -19 Y s
 gsave  2268 1108 0 475 C 2061.02 404.528 t 0 r /Helvetica findfont 32.4976 sf 0 0 m ( [GeV]) show NC gr 
 gsave  2268 1108 0 475 C 2046.26 392.717 t 0 r /Helvetica findfont 20.6803 sf 0 0 m (T) show NC gr 
 gsave  2268 1108 0 475 C 2019.69 404.528 t 0 r /Helvetica-Oblique findfont 32.4976 sf 0 0 m (H) show NC gr  227 1527 m 1927 X s 227 1508 m 19 Y s 282 1518 m 9 Y s 337 1518 m 9 Y s 392 1518 m 9 Y s 447 1518 m 9 Y s 502 1508 m 19 Y s 557 1518 m 9 Y s
 612 1518 m 9 Y s 667 1518 m 9 Y s 722 1518 m 9 Y s 778 1508 m 19 Y s 833 1518 m 9 Y s 888 1518 m 9 Y s 943 1518 m 9 Y s 998 1518 m 9 Y s 1053 1508 m 19 Y s 1108 1518 m 9 Y s 1163 1518 m 9 Y s 1218 1518 m 9 Y s 1273 1518 m 9 Y s 1328 1508 m 19 Y s
 1383 1518 m 9 Y s 1438 1518 m 9 Y s 1493 1518 m 9 Y s 1549 1518 m 9 Y s 1604 1508 m 19 Y s 1659 1518 m 9 Y s 1714 1518 m 9 Y s 1769 1518 m 9 Y s 1824 1518 m 9 Y s 1879 1508 m 19 Y s 1934 1518 m 9 Y s 1989 1518 m 9 Y s 2044 1518 m 9 Y s 2099 1518 m 9
 Y s 2154 1508 m 19 Y s 227 486 m 1041 Y s 248 668 m -21 X s 237 704 m -10 X s 237 741 m -10 X s 237 777 m -10 X s 237 814 m -10 X s 248 850 m -21 X s 237 887 m -10 X s 237 923 m -10 X s 237 959 m -10 X s 237 996 m -10 X s 248 1032 m -21 X s 237 1069
 m -10 X s 237 1105 m -10 X s 237 1142 m -10 X s 237 1178 m -10 X s 248 1214 m -21 X s 237 1251 m -10 X s 237 1287 m -10 X s 237 1324 m -10 X s 237 1360 m -10 X s 248 1397 m -21 X s 248 668 m -21 X s 237 632 m -10 X s 237 595 m -10 X s 237 559 m -10
 X s 237 522 m -10 X s 248 1397 m -21 X s 237 1433 m -10 X s 237 1469 m -10 X s 237 1506 m -10 X s
 gsave  2268 1108 0 475 C 112.205 649.606 t 0 r /Helvetica findfont 53.178 sf 0 0 m (100) show NC gr 
 gsave  2268 1108 0 475 C 112.205 829.724 t 0 r /Helvetica findfont 53.178 sf 0 0 m (200) show NC gr 
 gsave  2268 1108 0 475 C 112.205 1012.8 t 0 r /Helvetica findfont 53.178 sf 0 0 m (300) show NC gr 
 gsave  2268 1108 0 475 C 112.205 1195.87 t 0 r /Helvetica findfont 53.178 sf 0 0 m (400) show NC gr 
 gsave  2268 1108 0 475 C 112.205 1375.98 t 0 r /Helvetica findfont 53.178 sf 0 0 m (500) show NC gr 
 gsave  2268 1108 0 475 C 64.9606 1142.72 t 90 r /Helvetica findfont 53.178 sf 0 0 m (Events / 50 GeV) show NC gr  2154 486 m 1041 Y s 2133 668 m 21 X s 2144 704 m 10 X s 2144 741 m 10 X s 2144 777 m 10 X s 2144 814 m 10 X s 2133 850 m 21 X s 2144
 887 m 10 X s 2144 923 m 10 X s 2144 959 m 10 X s 2144 996 m 10 X s 2133 1032 m 21 X s 2144 1069 m 10 X s 2144 1105 m 10 X s 2144 1142 m 10 X s 2144 1178 m 10 X s 2133 1214 m 21 X s 2144 1251 m 10 X s 2144 1287 m 10 X s 2144 1324 m 10 X s 2144 1360 m
 10 X s 2133 1397 m 21 X s 2133 668 m 21 X s 2144 632 m 10 X s 2144 595 m 10 X s 2144 559 m 10 X s 2144 522 m 10 X s 2133 1397 m 21 X s 2144 1433 m 10 X s 2144 1469 m 10 X s 2144 1506 m 10 X s 0.4 0.6 0.4 c black 3 lw 0.4 0.6 0.4 c 227 486 m 548 Y
 137 X -110 Y 138 X -99 Y 138 X -81 Y 138 X -63 Y 137 X -40 Y 138 X -41 Y 138 X -24 Y 137 X -19 Y 138 X -19 Y 138 X -11 Y 137 X -11 Y 138 X -2 Y 138 X 84 Y 137 X -112 Y f 0.06 0.54 0.06 c 0.999 0.999 0.999 c black 3 lw 0.999 0.999 0.999 c 227 486 m
 424 Y 137 X -68 Y 138 X -71 Y 138 X -66 Y 138 X -47 Y 137 X -34 Y 138 X -35 Y 138 X -20 Y 137 X -18 Y 138 X -18 Y 138 X -8 Y 137 X -10 Y 138 X -3 Y 138 X 80 Y 137 X -106 Y f 0.06 0.54 0.06 c 0.999 0.999 0.999 c 0.06 0.54 0.06 c 1 1 1 c black 0.06
 0.54 0.06 c black 3 lw 0.06 0.54 0.06 c 227 486 m 424 Y 137 X -68 Y 138 X -71 Y 138 X -66 Y 138 X -47 Y 137 X -34 Y 138 X -35 Y 138 X -20 Y 137 X -18 Y 138 X -18 Y 138 X -8 Y 137 X -10 Y 138 X -3 Y 138 X 80 Y 137 X -106 Y f 1 0.653333 0 c 0.999
 0.999 0.999 c black 3 lw 0.999 0.999 0.999 c 227 486 m 302 Y 137 X -42 Y 138 X -51 Y 138 X -44 Y 138 X -34 Y 137 X -29 Y 138 X -21 Y 138 X -19 Y 137 X -14 Y 138 X -12 Y 138 X -6 Y 137 X -8 Y 138 X -3 Y 138 X 66 Y 137 X -85 Y f 1 0.653333 0 c 0.999
 0.999 0.999 c 1 0.653333 0 c 1 1 1 c black 1 0.653333 0 c black 3 lw 1 0.653333 0 c 227 486 m 302 Y 137 X -42 Y 138 X -51 Y 138 X -44 Y 138 X -34 Y 137 X -29 Y 138 X -21 Y 138 X -19 Y 137 X -14 Y 138 X -12 Y 138 X -6 Y 137 X -8 Y 138 X -3 Y 138 X 66
 Y 137 X -85 Y f 0.413333 1 0 c 0.999 0.999 0.999 c black 3 lw 0.999 0.999 0.999 c 227 486 m 274 Y 137 X -41 Y 138 X -42 Y 138 X -42 Y 138 X -32 Y 137 X -26 Y 138 X -20 Y 138 X -17 Y 137 X -11 Y 138 X -11 Y 138 X -5 Y 137 X -7 Y 138 X -4 Y 138 X 55 Y
 137 X -71 Y f 0.413333 1 0 c 0.999 0.999 0.999 c 0.413333 1 0 c 1 1 1 c black 0.413333 1 0 c black 3 lw 0.413333 1 0 c 227 486 m 274 Y 137 X -41 Y 138 X -42 Y 138 X -42 Y 138 X -32 Y 137 X -26 Y 138 X -20 Y 138 X -17 Y 137 X -11 Y 138 X -11 Y 138 X
 -5 Y 137 X -7 Y 138 X -4 Y 138 X 55 Y 137 X -71 Y f 0.6 0.2 1 c 0.999 0.999 0.999 c black 3 lw 0.999 0.999 0.999 c 227 486 m 242 Y 137 X -35 Y 138 X -37 Y 138 X -38 Y 138 X -29 Y 137 X -23 Y 138 X -18 Y 138 X -16 Y 137 X -9 Y 138 X -10 Y 138 X -4 Y
 137 X -6 Y 138 X -3 Y 138 X 42 Y 137 X -56 Y f 0.6 0.2 1 c 0.999 0.999 0.999 c 0.6 0.2 1 c 1 1 1 c black 0.6 0.2 1 c black 3 lw 0.6 0.2 1 c 227 486 m 242 Y 137 X -35 Y 138 X -37 Y 138 X -38 Y 138 X -29 Y 137 X -23 Y 138 X -18 Y 138 X -16 Y 137 X -9
 Y 138 X -10 Y 138 X -4 Y 137 X -6 Y 138 X -3 Y 138 X 42 Y 137 X -56 Y f 0.54 0.06 0.06 c 0.999 0.999 0.999 c black 3 lw 0.999 0.999 0.999 c 227 486 m 207 Y 137 X -33 Y 138 X -31 Y 138 X -32 Y 138 X -25 Y 137 X -19 Y 138 X -16 Y 138 X -13 Y 137 X -7
 Y 138 X -8 Y 138 X -4 Y 137 X -4 Y 138 X -4 Y 138 X 37 Y 137 X -48 Y f 0.54 0.06 0.06 c 0.999 0.999 0.999 c 0.54 0.06 0.06 c 1 1 1 c black 0.54 0.06 0.06 c black 3 lw 0.54 0.06 0.06 c 227 486 m 207 Y 137 X -33 Y 138 X -31 Y 138 X -32 Y 138 X -25 Y
 137 X -19 Y 138 X -16 Y 138 X -13 Y 137 X -7 Y 138 X -8 Y 138 X -4 Y 137 X -4 Y 138 X -4 Y 138 X 37 Y 137 X -48 Y f 1 0 1 c 0.999 0.999 0.999 c black 3 lw 0.999 0.999 0.999 c 227 486 m 55 Y 137 X -10 Y 138 X -7 Y 138 X -9 Y 138 X -8 Y 137 X -6 Y 138
 X -3 Y 138 X -4 Y 137 X -2 Y 138 X -1 Y 138 X -1 Y 137 X -2 Y 276 X 6 Y 137 X -8 Y f 1 0 1 c 0.999 0.999 0.999 c 1 0 1 c 1 1 1 c black 1 0 1 c black 3 lw 1 0 1 c 227 486 m 55 Y 137 X -10 Y 138 X -7 Y 138 X -9 Y 138 X -8 Y 137 X -6 Y 138 X -3 Y 138 X
 -4 Y 137 X -2 Y 138 X -1 Y 138 X -1 Y 137 X -2 Y 276 X 6 Y 137 X -8 Y f 0 0 1 c 0.999 0.999 0.999 c black 3 lw 0.999 0.999 0.999 c 227 486 m 39 Y 137 X -6 Y 138 X -5 Y 138 X -5 Y 138 X -7 Y 137 X -4 Y 138 X -3 Y 138 X -3 Y 137 X -1 Y 138 X -1 Y 138
 X -1 Y 137 X -1 Y 276 X 5 Y 137 X -7 Y f 0 0 1 c 0.999 0.999 0.999 c 0 0 1 c 1 1 1 c black 0 0 1 c black 3 lw 0 0 1 c 227 486 m 39 Y 137 X -6 Y 138 X -5 Y 138 X -5 Y 138 X -7 Y 137 X -4 Y 138 X -3 Y 138 X -3 Y 137 X -1 Y 138 X -1 Y 138 X -1 Y 137 X
 -1 Y 276 X 5 Y 137 X -7 Y f 0.2 0.8 0.8 c 0.999 0.999 0.999 c black 3 lw 0.999 0.999 0.999 c 227 486 m 8 Y 137 X -2 Y 138 X 1 Y 138 X -1 Y 138 X -3 Y 137 X -1 Y 413 X -1 Y 551 X -1 Y 138 X 3 Y 137 X -3 Y f 0.2 0.8 0.8 c 0.999 0.999 0.999 c 0.2 0.8
 0.8 c 1 1 1 c black 0.2 0.8 0.8 c black 3 lw 0.2 0.8 0.8 c 227 486 m 8 Y 137 X -2 Y 138 X 1 Y 138 X -1 Y 138 X -3 Y 137 X -1 Y 413 X -1 Y 551 X -1 Y 138 X 3 Y 137 X -3 Y f 1 0 0 c 0.999 0.999 0.999 c black 3 lw 0.999 0.999 0.999 c 227 486 m 4 Y 137
 X -2 Y 138 X 2 Y 276 X -3 Y 688 X -1 Y 551 X 1 Y 137 X -1 Y f 1 0 0 c 0.999 0.999 0.999 c 1 0 0 c 1 1 1 c black 1 0 0 c black 3 lw 1 0 0 c 227 486 m 4 Y 137 X -2 Y 138 X 2 Y 276 X -3 Y 688 X -1 Y 551 X 1 Y 137 X -1 Y f 1 0.84 0 c 0.999 0.999 0.999 c
 black 3 lw 0.999 0.999 0.999 c 227 486 m 2 Y 137 X -1 Y 138 X 2 Y 276 X -2 Y 413 X -1 Y 826 X 1 Y 137 X -1 Y f 1 0.84 0 c 0.999 0.999 0.999 c 1 0.84 0 c 1 1 1 c black 1 0.84 0 c black 3 lw 1 0.84 0 c 227 486 m 2 Y 137 X -1 Y 138 X 2 Y 276 X -2 Y 413
 X -1 Y 826 X 1 Y 137 X -1 Y f black 1 1 1 c black 0.6 0.6 0.6 c 3 lw 364 1030 m -3 -3 d s 356 1041 m -14 -14 d s 336 1041 m -13 -14 d s 317 1041 m -14 -14 d s 298 1041 m -14 -14 d s 279 1041 m -14 -14 d s 259 1041 m -13 -14 d s 240 1041 m -13 -13 d
 s 3 lw 502 918 m -1 -1 d s 495 930 m -13 -13 d s 475 930 m -12 -13 d s 456 930 m -13 -13 d s 437 930 m -13 -13 d s 418 930 m -13 -13 d s 398 930 m -12 -13 d s 379 930 m -13 -13 d s 3 lw 640 825 m -6 -6 d s 626 830 m -12 -11 d s 606 830 m -11 -11 d s
 587 830 m -11 -11 d s 568 830 m -11 -11 d s 549 830 m -12 -11 d s 529 830 m -11 -11 d s 510 830 m -8 -8 d s 3 lw 775 748 m -10 -9 d s 755 748 m -9 -9 d s 736 748 m -9 -9 d s 717 748 m -9 -9 d s 698 748 m -10 -9 d s 678 748 m -9 -9 d s 659 748 m -9
 -9 d s 640 748 m s 3 lw 915 678 m -1 Y s 904 685 m -8 -8 d s 885 685 m -8 -8 d s 865 685 m -8 -8 d s 846 685 m -8 -8 d s 827 685 m -8 -8 d s 808 685 m -8 -8 d s 788 685 m -8 -8 d s 3 lw 1053 642 m -5 -5 d s 1037 645 m -8 -8 d s 1017 645 m -7 -8 d s
 998 645 m -8 -8 d s 979 645 m -8 -8 d s 960 645 m -8 -8 d s 940 645 m -7 -8 d s 921 645 m -6 -6 d s 3 lw 1187 603 m -6 -6 d s 1168 603 m -6 -6 d s 1149 603 m -6 -6 d s 1129 603 m -6 -6 d s 1110 603 m -6 -6 d s 1091 603 m -6 -6 d s 1072 603 m -6 -6 d
 s 3 lw 1317 579 m -6 -5 d s 1298 579 m -6 -5 d s 1278 579 m -5 -5 d s 1259 579 m -5 -5 d s 1240 579 m -6 -5 d s 1221 579 m -6 -5 d s 1201 579 m -5 -5 d s 3 lw 1466 555 m -1 -1 d s 1450 559 m -4 -5 d s 1431 559 m -4 -5 d s 1412 559 m -5 -5 d s 1393
 559 m -5 -5 d s 1373 559 m -4 -5 d s 1354 559 m -4 -5 d s 1335 559 m -5 -5 d s 3 lw 1604 539 m -4 -3 d s 1585 540 m -4 -4 d s 1566 540 m -4 -4 d s 1547 540 m -4 -4 d s 1527 540 m -4 -4 d s 1508 540 m -4 -4 d s 1489 540 m -4 -4 d s 1470 540 m -4 -4 d
 s 3 lw 1728 529 m -3 -3 d s 1709 529 m -3 -3 d s 1690 529 m -3 -3 d s 1671 529 m -4 -3 d s 1651 529 m -3 -3 d s 1632 529 m -3 -3 d s 1613 529 m -3 -3 d s 3 lw 1871 518 m -3 -3 d s 1852 518 m -3 -3 d s 1832 518 m -3 -3 d s 1813 518 m -3 -3 d s 1794
 518 m -3 -3 d s 1775 518 m -3 -3 d s 1756 518 m -3 -3 d s 3 lw 2003 515 m -3 -3 d s 1984 515 m -3 -3 d s 1965 515 m -3 -3 d s 1945 515 m -3 -3 d s 1926 515 m -3 -3 d s 1907 515 m -3 -3 d s 1888 515 m -3 -3 d s 3 lw 2145 599 m -2 -2 d s 2126 599 m -2
 -2 d s 2107 599 m -2 -2 d s 2088 599 m -3 -2 d s 2068 599 m -2 -2 d s 2049 599 m -2 -2 d s 2030 599 m -2 -2 d s black 3 lw 1 1 1 c black 296 999 m 20 Y s 296 1042 m 20 Y s /w 24 def /w2 {w 2 div} def /w3 {w 3 div} def 296 1030 m20 433 902 m 16 Y s
 433 942 m 17 Y s 433 930 m20 571 831 m 15 Y s 571 869 m 14 Y s 571 857 m20 709 733 m 11 Y s 709 767 m 11 Y s 709 755 m20 846 652 m 6 Y s 846 682 m 6 Y s 846 670 m20 984 612 m 4 Y s 984 640 m 4 Y s 984 628 m20 1122 600 m 3 Y s 1122 627 m 4 Y s 1122
 615 m20 1259 552 m s 1259 576 m s 1259 564 m20 1397 561 m20 1535 544 m20 1672 537 m20 1810 530 m20 1948 513 m20 2085 596 m 4 Y s 2085 623 m 4 Y s 2085 612 m20 227 486 m 1927 X s 227 505 m -19 Y s 282 495 m -9 Y s 337 495 m -9 Y s 392 495 m -9 Y s
 447 495 m -9 Y s 502 505 m -19 Y s 557 495 m -9 Y s 612 495 m -9 Y s 667 495 m -9 Y s 722 495 m -9 Y s 778 505 m -19 Y s 833 495 m -9 Y s 888 495 m -9 Y s 943 495 m -9 Y s 998 495 m -9 Y s 1053 505 m -19 Y s 1108 495 m -9 Y s 1163 495 m -9 Y s 1218
 495 m -9 Y s 1273 495 m -9 Y s 1328 505 m -19 Y s 1383 495 m -9 Y s 1438 495 m -9 Y s 1493 495 m -9 Y s 1549 495 m -9 Y s 1604 505 m -19 Y s 1659 495 m -9 Y s 1714 495 m -9 Y s 1769 495 m -9 Y s 1824 495 m -9 Y s 1879 505 m -19 Y s 1934 495 m -9 Y s
 1989 495 m -9 Y s 2044 495 m -9 Y s 2099 495 m -9 Y s 2154 505 m -19 Y s 227 1527 m 1927 X s 227 1508 m 19 Y s 282 1518 m 9 Y s 337 1518 m 9 Y s 392 1518 m 9 Y s 447 1518 m 9 Y s 502 1508 m 19 Y s 557 1518 m 9 Y s 612 1518 m 9 Y s 667 1518 m 9 Y s
 722 1518 m 9 Y s 778 1508 m 19 Y s 833 1518 m 9 Y s 888 1518 m 9 Y s 943 1518 m 9 Y s 998 1518 m 9 Y s 1053 1508 m 19 Y s 1108 1518 m 9 Y s 1163 1518 m 9 Y s 1218 1518 m 9 Y s 1273 1518 m 9 Y s 1328 1508 m 19 Y s 1383 1518 m 9 Y s 1438 1518 m 9 Y s
 1493 1518 m 9 Y s 1549 1518 m 9 Y s 1604 1508 m 19 Y s 1659 1518 m 9 Y s 1714 1518 m 9 Y s 1769 1518 m 9 Y s 1824 1518 m 9 Y s 1879 1508 m 19 Y s 1934 1518 m 9 Y s 1989 1518 m 9 Y s 2044 1518 m 9 Y s 2099 1518 m 9 Y s 2154 1508 m 19 Y s 227 486 m
 1041 Y s 248 668 m -21 X s 237 704 m -10 X s 237 741 m -10 X s 237 777 m -10 X s 237 814 m -10 X s 248 850 m -21 X s 237 887 m -10 X s 237 923 m -10 X s 237 959 m -10 X s 237 996 m -10 X s 248 1032 m -21 X s 237 1069 m -10 X s 237 1105 m -10 X s 237
 1142 m -10 X s 237 1178 m -10 X s 248 1214 m -21 X s 237 1251 m -10 X s 237 1287 m -10 X s 237 1324 m -10 X s 237 1360 m -10 X s 248 1397 m -21 X s 248 668 m -21 X s 237 632 m -10 X s 237 595 m -10 X s 237 559 m -10 X s 237 522 m -10 X s 248 1397 m
 -21 X s 237 1433 m -10 X s 237 1469 m -10 X s 237 1506 m -10 X s 2154 486 m 1041 Y s 2133 668 m 21 X s 2144 704 m 10 X s 2144 741 m 10 X s 2144 777 m 10 X s 2144 814 m 10 X s 2133 850 m 21 X s 2144 887 m 10 X s 2144 923 m 10 X s 2144 959 m 10 X s
 2144 996 m 10 X s 2133 1032 m 21 X s 2144 1069 m 10 X s 2144 1105 m 10 X s 2144 1142 m 10 X s 2144 1178 m 10 X s 2133 1214 m 21 X s 2144 1251 m 10 X s 2144 1287 m 10 X s 2144 1324 m 10 X s 2144 1360 m 10 X s 2133 1397 m 21 X s 2133 668 m 21 X s 2144
 632 m 10 X s 2144 595 m 10 X s 2144 559 m 10 X s 2144 522 m 10 X s 2133 1397 m 21 X s 2144 1433 m 10 X s 2144 1469 m 10 X s 2144 1506 m 10 X s
 gsave  2268 1108 0 475 C 1313.98 1437.99 t 0 r /Helvetica findfont 56.1323 sf 0 0 m ( Data) show NC gr  1259 1463 m 7 Y s 1259 1440 m -8 Y s 1259 1451 m20
 gsave  2268 1108 0 475 C 1777.56 1437.99 t 0 r /Helvetica findfont 56.1323 sf 0 0 m ( Fakes \(MM\)) show NC gr  0.4 0.6 0.4 c 1682 1429 m 79 X 44 Y -79 X f black
 gsave  2268 1108 0 475 C 1402.56 1375.98 t 0 r /Helvetica findfont 56.1323 sf 0 0 m (single\255top) show NC gr 
 gsave  2268 1108 0 475 C 1373.03 1375.98 t 0 r /Helvetica-Oblique findfont 56.1323 sf 0 0 m (/) show NC gr 
 gsave  2268 1108 0 475 C 1352.36 1375.98 t 0 r /Helvetica-Oblique findfont 56.1323 sf 0 0 m (t) show NC gr  6 lw 1352 1420 m 21 X s
 gsave  2268 1108 0 475 C 1331.69 1375.98 t 0 r /Helvetica-Oblique findfont 56.1323 sf 0 0 m (t) show NC gr 
 gsave  2268 1108 0 475 C 1313.98 1375.98 t 0 r /Helvetica findfont 56.1323 sf 0 0 m ( ) show NC gr  0.06 0.54 0.06 c 3 lw 1219 1366 m 79 X 44 Y -79 X f 6 lw black
 gsave  2268 1108 0 475 C 1907.48 1375.98 t 0 r /Helvetica findfont 56.1323 sf 0 0 m (+jets) show NC gr 
 gsave  2268 1108 0 475 C 1795.28 1375.98 t 0 r /Helvetica-Oblique findfont 56.1323 sf 0 0 m (W/Z) show NC gr 
 gsave  2268 1108 0 475 C 1777.56 1375.98 t 0 r /Helvetica findfont 56.1323 sf 0 0 m ( ) show NC gr  1 0.653333 0 c 3 lw 1682 1366 m 79 X 44 Y -79 X f black
 gsave  2268 1108 0 475 C 1511.81 1311.02 t 0 r /Helvetica findfont 56.1323 sf 0 0 m (+jets) show NC gr 
 gsave  2268 1108 0 475 C 1331.69 1311.02 t 0 r /Helvetica-Oblique findfont 56.1323 sf 0 0 m (WZ/ZZ) show NC gr 
 gsave  2268 1108 0 475 C 1313.98 1311.02 t 0 r /Helvetica findfont 56.1323 sf 0 0 m ( ) show NC gr  0.413333 1 0 c 3 lw 1219 1303 m 79 X 44 Y -79 X f black
 gsave  2268 1108 0 475 C 1836.61 1311.02 t 0 r /Helvetica-Oblique findfont 56.1323 sf 0 0 m (Z) show NC gr 
 gsave  2268 1108 0 475 C 1815.94 1311.02 t 0 r /Helvetica-Oblique findfont 56.1323 sf 0 0 m (t) show NC gr  6 lw 1816 1355 m 21 X s
 gsave  2268 1108 0 475 C 1795.28 1311.02 t 0 r /Helvetica-Oblique findfont 56.1323 sf 0 0 m (t) show NC gr 
 gsave  2268 1108 0 475 C 1777.56 1311.02 t 0 r /Helvetica findfont 56.1323 sf 0 0 m ( ) show NC gr  0.6 0.2 1 c 3 lw 1682 1303 m 79 X 44 Y -79 X f 6 lw black
 gsave  2268 1108 0 475 C 1373.03 1249.02 t 0 r /Helvetica-Oblique findfont 56.1323 sf 0 0 m (W) show NC gr 
 gsave  2268 1108 0 475 C 1352.36 1249.02 t 0 r /Helvetica-Oblique findfont 56.1323 sf 0 0 m (t) show NC gr  6 lw 1352 1293 m 21 X s
 gsave  2268 1108 0 475 C 1331.69 1249.02 t 0 r /Helvetica-Oblique findfont 56.1323 sf 0 0 m (t) show NC gr 
 gsave  2268 1108 0 475 C 1313.98 1249.02 t 0 r /Helvetica findfont 56.1323 sf 0 0 m ( ) show NC gr  0.54 0.06 0.06 c 3 lw 1219 1239 m 79 X 45 Y -79 X f 6 lw black
 gsave  2268 1108 0 475 C 1795.28 1249.02 t 0 r /Helvetica-Oblique findfont 56.1323 sf 0 0 m (tZq) show NC gr 
 gsave  2268 1108 0 475 C 1777.56 1249.02 t 0 r /Helvetica findfont 56.1323 sf 0 0 m ( ) show NC gr  1 0 1 c 3 lw 1682 1239 m 79 X 45 Y -79 X f black
 gsave  2268 1108 0 475 C 1373.03 1184.06 t 0 r /Helvetica-Oblique findfont 56.1323 sf 0 0 m (H) show NC gr 
 gsave  2268 1108 0 475 C 1352.36 1184.06 t 0 r /Helvetica-Oblique findfont 56.1323 sf 0 0 m (t) show NC gr  6 lw 1352 1228 m 21 X s
 gsave  2268 1108 0 475 C 1331.69 1184.06 t 0 r /Helvetica-Oblique findfont 56.1323 sf 0 0 m (t) show NC gr 
 gsave  2268 1108 0 475 C 1313.98 1184.06 t 0 r /Helvetica findfont 56.1323 sf 0 0 m ( ) show NC gr  0 0 1 c 3 lw 1219 1176 m 79 X 44 Y -79 X f 6 lw black
 gsave  2268 1108 0 475 C 1795.28 1184.06 t 0 r /Helvetica-Oblique findfont 56.1323 sf 0 0 m (tWZ/tWH) show NC gr 
 gsave  2268 1108 0 475 C 1777.56 1184.06 t 0 r /Helvetica findfont 56.1323 sf 0 0 m ( ) show NC gr  0.2 0.8 0.8 c 3 lw 1682 1176 m 79 X 44 Y -79 X f black
 gsave  2268 1108 0 475 C 1331.69 1122.05 t 0 r /Helvetica-Oblique findfont 56.1323 sf 0 0 m (tHq) show NC gr 
 gsave  2268 1108 0 475 C 1313.98 1122.05 t 0 r /Helvetica findfont 56.1323 sf 0 0 m ( ) show NC gr  1 0 0 c 3 lw 1219 1113 m 79 X 44 Y -79 X f black
 gsave  2268 1108 0 475 C 1777.56 1122.05 t 0 r /Helvetica findfont 56.1323 sf 0 0 m ( Other) show NC gr  1 0.84 0 c 3 lw 1682 1113 m 79 X 44 Y -79 X f black
 gsave  2268 1108 0 475 C 1313.98 1060.04 t 0 r /Helvetica findfont 56.1323 sf 0 0 m ( Uncertainty) show NC gr  0.6 0.6 0.6 c 3 lw 1298 1060 m -10 -11 d s 1298 1079 m -30 -30 d s 1294 1094 m -45 -45 d s 1274 1094 m -44 -45 d s 1255 1094 m -36 -37 d s
 1236 1094 m -17 -17 d s 1 0.84 0 c 0.6 0.6 0.6 c black
 gsave  2268 1108 0 475 C 894.685 1337.6 t 0 r /Helvetica findfont 41.3606 sf 0 0 m (\2551) show NC gr 
 gsave  2268 1108 0 475 C 401.575 1308.07 t 0 r /Helvetica findfont 62.0409 sf 0 0 m ( = 13 TeV,  139 fb) show NC gr 
 gsave  2268 1108 0 475 C 372.047 1308.07 t 0 r /Helvetica findfont 62.0409 sf 0 0 m (s) show NC gr  6 lw 351 1344 m 6 -39 d s 3 lw 357 1305 m 9 56 d s 366 1361 m 36 X s
 gsave  2268 1108 0 475 C 339.567 1207.68 t 0 r /Helvetica findfont 62.0409 sf 0 0 m ( 2L\(SS\) pre\255selection) show NC gr 
 gsave  2268 1108 0 475 C 339.567 1405.51 t 0 r /Helvetica-BoldOblique findfont 73.8583 sf 0 0 m (ATLAS) show NC gr 
 gsave  2268 1108 0 475 C 634.843 1405.51 t 0 r /Helvetica findfont 73.8583 sf 0 0 m (Internal) show NC gr 
 gr  gr showpage
end
%%EOF
