%!PS-Adobe-2.0 EPSF-2.0
%%BoundingBox:  0 0 567 394
%%Title: /lhome/ific/c/cardillo/tHq/Plots/Plots-30-05-22-PLIV-SF/2LSS_MM/Ht_SRtHq.eps: Ht_SRtHq
%%Creator: ROOT Version 6.20/06
%%CreationDate: Mon May 30 19:25:22 2022
%%DocumentNeededResources: ProcSet (FontSetInit)
%%EndComments
%%BeginProlog
80 dict begin
/s {stroke} def /l {lineto} def /m {moveto} def /t {translate} def
/r {rotate} def /rl {roll}  def /R {repeat} def
/d {rlineto} def /rm {rmoveto} def /gr {grestore} def /f {eofill} def
/c {setrgbcolor} def /black {0 setgray} def /sd {setdash} def
/cl {closepath} def /sf {scalefont setfont} def /lw {setlinewidth} def
/box {m dup 0 exch d exch 0 d 0 exch neg d cl} def
/NC{systemdict begin initclip end}def/C{NC box clip newpath}def
/bl {box s} def /bf {gsave box gsave f grestore 1 lw [] 0 sd s grestore} def /Y { 0 exch d} def /X { 0 d} def 
/K {{pop pop 0 moveto} exch kshow} bind def
/ita {/ang 15 def gsave [1 0 ang dup sin exch cos div 1 0 0] concat} def 
/mp {newpath /y exch def /x exch def} def
/side {[w .77 mul w .23 mul] .385 w mul sd w 0 l currentpoint t -144 r} def
/mr {mp x y w2 0 360 arc} def /m24 {mr s} def /m20 {mr f} def
/mb {mp x y w2 add m w2 neg 0 d 0 w neg d w 0 d 0 w d cl} def
/mt {mp x y w2 add m w2 neg w neg d w 0 d cl} def
/w4 {w 4 div} def
/w6 {w 6 div} def
/w8 {w 8 div} def
/m21 {mb f} def /m25 {mb s} def /m22 {mt f} def /m26{mt s} def
/m23 {mp x y w2 sub m w2 w d w neg 0 d cl f} def
/m27 {mp x y w2 add m w3 neg w2 neg d w3 w2 neg d w3 w2 d cl s} def
/m28 {mp x w2 sub y w2 sub w3 add m w3 0 d  0 w3 neg d w3 0 d 0 w3 d w3 0 d  0 w3 d w3 neg 0 d 0 w3 d w3 neg 0 d 0 w3 neg d w3 neg 0 d cl s } def
/m29 {mp gsave x w2 sub y w2 add w3 sub m currentpoint t 4 {side} repeat cl fill gr} def
/m30 {mp gsave x w2 sub y w2 add w3 sub m currentpoint t 4 {side} repeat cl s gr} def
/m31 {mp x y w2 sub m 0 w d x w2 sub y m w 0 d x w2 sub y w2 add m w w neg d x w2 sub y w2 sub m w w d s} def
/m32 {mp x y w2 sub m w2 w d w neg 0 d cl s} def
/m33 {mp x y w2 add m w3 neg w2 neg d w3 w2 neg d w3 w2 d cl f} def
/m34 {mp x w2 sub y w2 sub w3 add m w3 0 d  0 w3 neg d w3 0 d 0 w3 d w3 0 d  0 w3 d w3 neg 0 d 0 w3 d w3 neg 0 d 0 w3 neg d w3 neg 0 d cl f } def
/m35 {mp x y w2 add m w2 neg w2 neg d w2 w2 neg d w2 w2 d w2 neg w2 d x y w2 sub m 0 w d x w2 sub y m w 0 d s} def
/m36 {mb x w2 sub y w2 add m w w neg d x w2 sub y w2 sub m w w d s} def
/m37 {mp x y m w4 neg w2 d w4 neg w2 neg d w2 0 d  w4 neg w2 neg d w2 0 d w4 neg w2 d w2 0 d w4 neg w2 d w4 neg w2 neg d cl s} def
/m38 {mp x w4 sub y w2 add m w4 neg w4 neg d 0 w2 neg d w4 w4 neg d w2 0 d w4 w4 d 0 w2 d w4 neg w4 d w2 neg 0 d x y w2 sub m 0 w d x w2 sub y m w 0 d cl s} def
/m39 {mp x y m w4 neg w2 d w4 neg w2 neg d w2 0 d  w4 neg w2 neg d w2 0 d w4 neg w2 d w2 0 d w4 neg w2 d w4 neg w2 neg d cl f} def
/m40 {mp x y m w4 w2 d w4 w4 neg d w2 neg w4 neg d w2 w4 neg d w4 neg w4 neg d w4 neg w2 d w4 neg w2 neg d w4 neg w4 d w2 w4 d w2 neg w4 d w4 w4 d w4 w2 neg d cl s} def
/m41 {mp x y m w4 w2 d w4 w4 neg d w2 neg w4 neg d w2 w4 neg d w4 neg w4 neg d w4 neg w2 d w4 neg w2 neg d w4 neg w4 d w2 w4 d w2 neg w4 d w4 w4 d w4 w2 neg d cl f} def
/m42 {mp x y w2 add m w8 neg w2 -3 4 div mul d w2 -3 4 div mul w8 neg d w2 3 4 div mul w8 neg d w8 w2 -3 4 div mul d w8 w2 3 4 div mul d w2 3 4 div mul w8 d w2 -3 4 div mul w8 d w8 neg w2 3 4 div mul d cl s} def
/m43 {mp x y w2 add m w8 neg w2 -3 4 div mul d w2 -3 4 div mul w8 neg d w2 3 4 div mul w8 neg d w8 w2 -3 4 div mul d w8 w2 3 4 div mul d w2 3 4 div mul w8 d w2 -3 4 div mul w8 d w8 neg w2 3 4 div mul d cl f} def
/m44 {mp x y m w6 neg w2 d w2 2 3 div mul 0 d w6 neg w2 neg d w2 w6 d 0 w2 -2 3 div mul d w2 neg w6 d w6 w2 neg d w2 -2 3 div mul 0 d w6 w2 d w2 neg w6 neg d 0 w2 2 3 div mul d w2 w6 neg d cl s} def
/m45 {mp x y m w6 neg w2 d w2 2 3 div mul 0 d w6 neg w2 neg d w2 w6 d 0 w2 -2 3 div mul d w2 neg w6 d w6 w2 neg d w2 -2 3 div mul 0 d w6 w2 d w2 neg w6 neg d 0 w2 2 3 div mul d w2 w6 neg d cl f} def
/m46 {mp x y w4 add m w4 neg w4 d w4 neg w4 neg d  w4 w4 neg d w4 neg w4 neg d w4 w4 neg d w4 w4 d w4 w4 neg d w4 w4 d w4 neg w4 d w4 w4 d w4 neg w4 d w4 neg w4 neg d cl s} def
/m47 {mp x y w4 add m w4 neg w4 d w4 neg w4 neg d w4 w4 neg d w4 neg w4 neg d  w4 w4 neg d w4 w4 d w4 w4 neg d w4 w4 d w4 neg w4 d w4 w4 d w4 neg w4 d w4 neg w4 neg d cl f} def
/m48 {mp x y w4 add m w4 neg w4 d w4 neg w4 neg d w4 w4 neg d  w4 neg w4 neg d w4 w4 neg d w4 w4 d w4 w4 neg d w4 w4 d w4 neg w4 d w4 w4 d w4 neg w4 d w4 neg w4 neg d  w4 w4 neg d w4 neg w4 neg d w4 neg w4 d w4 w4 d cl f} def
/m49 {mp x w2 sub w3 add y w2 sub w3 add m  0 w3 neg d w3 0 d 0 w3 d w3 0 d 0 w3 d w3 neg 0 d 0 w3 d w3 neg 0 d 0 w3 neg d w3 neg 0 d 0 w3 neg d w3 0 d 0 w3 d w3 0 d 0 w3 neg d w3 neg 0 d cl f } def
/m2 {mp x y w2 sub m 0 w d x w2 sub y m w 0 d s} def
/m5 {mp x w2 sub y w2 sub m w w d x w2 sub y w2 add m w w neg d s} def
%%IncludeResource: ProcSet (FontSetInit)
%%IncludeResource: font Times-Roman
%%IncludeResource: font Times-Italic
%%IncludeResource: font Times-Bold
%%IncludeResource: font Times-BoldItalic
%%IncludeResource: font Helvetica
%%IncludeResource: font Helvetica-Oblique
%%IncludeResource: font Helvetica-Bold
%%IncludeResource: font Helvetica-BoldOblique
%%IncludeResource: font Courier
%%IncludeResource: font Courier-Oblique
%%IncludeResource: font Courier-Bold
%%IncludeResource: font Courier-BoldOblique
%%IncludeResource: font Symbol
%%IncludeResource: font ZapfDingbats
/reEncode {exch findfont dup length dict begin {1 index /FID eq  {pop pop} {def} ifelse } forall /Encoding exch def currentdict end dup /FontName get exch definefont pop } def [/Times-Bold /Times-Italic /Times-BoldItalic /Helvetica /Helvetica-Oblique
 /Helvetica-Bold /Helvetica-BoldOblique /Courier /Courier-Oblique /Courier-Bold /Courier-BoldOblique /Times-Roman /AvantGarde-Book /AvantGarde-BookOblique /AvantGarde-Demi /AvantGarde-DemiOblique /Bookman-Demi /Bookman-DemiItalic /Bookman-Light
 /Bookman-LightItalic /Helvetica-Narrow /Helvetica-Narrow-Bold /Helvetica-Narrow-BoldOblique /Helvetica-Narrow-Oblique /NewCenturySchlbk-Roman /NewCenturySchlbk-Bold /NewCenturySchlbk-BoldItalic /NewCenturySchlbk-Italic /Palatino-Bold
 /Palatino-BoldItalic /Palatino-Italic /Palatino-Roman ] {ISOLatin1Encoding reEncode } forall
%%EndProlog
%%BeginSetup
%%EndSetup
newpath  gsave  .25 .25 scale  gsave  0 0 t black[  ] 0 sd 3 lw 1 1 1 c 2268 1575 0 0 bf black 1 1 1 c 2268 472 0 0 bf black 1 1 1 c 1927 274 227 189 bf black 1927 274 227 189 bl 227 189 m 1927 X s 227 201 m -12 Y s 282 195 m -6 Y s 337 195 m -6 Y s
 392 195 m -6 Y s 447 195 m -6 Y s 502 201 m -12 Y s 557 195 m -6 Y s 612 195 m -6 Y s 667 195 m -6 Y s 722 195 m -6 Y s 778 201 m -12 Y s 833 195 m -6 Y s 888 195 m -6 Y s 943 195 m -6 Y s 998 195 m -6 Y s 1053 201 m -12 Y s 1108 195 m -6 Y s 1163
 195 m -6 Y s 1218 195 m -6 Y s 1273 195 m -6 Y s 1328 201 m -12 Y s 1383 195 m -6 Y s 1438 195 m -6 Y s 1493 195 m -6 Y s 1549 195 m -6 Y s 1604 201 m -12 Y s 1659 195 m -6 Y s 1714 195 m -6 Y s 1769 195 m -6 Y s 1824 195 m -6 Y s 1879 201 m -12 Y s
 1934 195 m -6 Y s 1989 195 m -6 Y s 2044 195 m -6 Y s 2099 195 m -6 Y s 2154 201 m -12 Y s
 gsave  2268 472 0 0 C 180.588 127.3 t 0 r /Helvetica findfont 53.4895 sf 0 0 m (300) show NC gr 
 gsave  2268 472 0 0 C 455.912 127.3 t 0 r /Helvetica findfont 53.4895 sf 0 0 m (400) show NC gr 
 gsave  2268 472 0 0 C 731.235 127.3 t 0 r /Helvetica findfont 53.4895 sf 0 0 m (500) show NC gr 
 gsave  2268 472 0 0 C 1006.56 127.3 t 0 r /Helvetica findfont 53.4895 sf 0 0 m (600) show NC gr 
 gsave  2268 472 0 0 C 1281.88 127.3 t 0 r /Helvetica findfont 53.4895 sf 0 0 m (700) show NC gr 
 gsave  2268 472 0 0 C 1557.2 127.3 t 0 r /Helvetica findfont 53.4895 sf 0 0 m (800) show NC gr 
 gsave  2268 472 0 0 C 1832.53 127.3 t 0 r /Helvetica findfont 53.4895 sf 0 0 m (900) show NC gr 
 gsave  2268 472 0 0 C 2093.05 127.3 t 0 r /Helvetica findfont 53.4895 sf 0 0 m (1000) show NC gr 
 gsave  2268 472 0 0 C 1995.35 47.3674 t 0 r /Helvetica findfont 56.4611 sf 0 0 m ( [GeV]) show NC gr 
 gsave  2268 472 0 0 C 1971.67 29.6047 t 0 r /Helvetica findfont 38.6313 sf 0 0 m (T) show NC gr 
 gsave  2268 472 0 0 C 1924.3 47.3674 t 0 r /Helvetica-Oblique findfont 56.4611 sf 0 0 m (H) show NC gr  227 463 m 1927 X s 227 451 m 12 Y s 282 457 m 6 Y s 337 457 m 6 Y s 392 457 m 6 Y s 447 457 m 6 Y s 502 451 m 12 Y s 557 457 m 6 Y s 612 457 m 6
 Y s 667 457 m 6 Y s 722 457 m 6 Y s 778 451 m 12 Y s 833 457 m 6 Y s 888 457 m 6 Y s 943 457 m 6 Y s 998 457 m 6 Y s 1053 451 m 12 Y s 1108 457 m 6 Y s 1163 457 m 6 Y s 1218 457 m 6 Y s 1273 457 m 6 Y s 1328 451 m 12 Y s 1383 457 m 6 Y s 1438 457 m
 6 Y s 1493 457 m 6 Y s 1549 457 m 6 Y s 1604 451 m 12 Y s 1659 457 m 6 Y s 1714 457 m 6 Y s 1769 457 m 6 Y s 1824 457 m 6 Y s 1879 451 m 12 Y s 1934 457 m 6 Y s 1989 457 m 6 Y s 2044 457 m 6 Y s 2099 457 m 6 Y s 2154 451 m 12 Y s 227 189 m 274 Y s
 240 240 m -13 X s 240 326 m -13 X s 240 412 m -13 X s 240 240 m -13 X s 240 412 m -13 X s
 gsave  2268 472 0 0 C 118.419 222.035 t 0 r /Helvetica findfont 53.4895 sf 0 0 m (0.5) show NC gr 
 gsave  2268 472 0 0 C 171.707 307.888 t 0 r /Helvetica findfont 53.4895 sf 0 0 m (1) show NC gr 
 gsave  2268 472 0 0 C 118.419 393.742 t 0 r /Helvetica findfont 53.4895 sf 0 0 m (1.5) show NC gr 
 gsave  2268 472 0 0 C 71.0512 230.916 t 90 r /Helvetica findfont 53.4895 sf 0 0 m (Data / SM) show NC gr  2154 189 m 274 Y s 2141 240 m 13 X s 2141 326 m 13 X s 2141 412 m 13 X s 2141 240 m 13 X s 2141 412 m 13 X s 227 189 m 1927 X s 227 463 m 1927
 X s 227 189 m 274 Y s[ 4 8] 0 sd 2154 240 m -1927 X s 2154 326 m -1927 X s 2154 412 m -1927 X s 2154 240 m -1927 X s 2154 412 m -1927 X s[  ] 0 sd 2154 189 m 274 Y s 1 1 0.6 c 137 0 227 326 bf 138 0 364 326 bf 138 0 502 326 bf 138 0 640 326 bf 137 0
 778 326 bf 138 0 915 326 bf 138 0 1053 326 bf 137 0 1191 326 bf 138 0 1328 326 bf 138 0 1466 326 bf 137 0 1604 326 bf 138 0 1741 326 bf 138 0 1879 326 bf 137 0 2017 326 bf black 0.6 0.6 0.6 c 364 327 m -9 -9 d s 352 334 m -16 -16 d s 333 334 m -17
 -16 d s 314 334 m -17 -16 d s 295 334 m -17 -16 d s 275 334 m -16 -16 d s 256 334 m -17 -16 d s 237 334 m -10 -10 d s 502 330 m -18 -18 d s 492 340 m -27 -28 d s 473 340 m -27 -28 d s 454 340 m -27 -28 d s 434 340 m -26 -28 d s 415 340 m -27 -28 d s
 396 340 m -27 -28 d s 377 340 m -13 -13 d s 640 333 m -19 -19 d s 625 338 m -23 -24 d s 606 338 m -24 -24 d s 587 338 m -24 -24 d s 567 338 m -23 -24 d s 548 338 m -23 -24 d s 529 338 m -24 -24 d s 510 338 m -8 -8 d s 778 317 m -9 -9 d s 778 336 m
 -29 -28 d s 766 344 m -36 -36 d s 747 344 m -36 -36 d s 728 344 m -36 -36 d s 708 344 m -35 -36 d s 689 344 m -36 -36 d s 670 344 m -30 -30 d s 651 344 m -11 -11 d s 915 320 m -16 -16 d s 915 339 m -35 -35 d s 905 348 m -44 -44 d s 886 348 m -44 -44
 d s 866 348 m -44 -44 d s 847 348 m -44 -44 d s 828 348 m -44 -44 d s 809 348 m -31 -31 d s 789 348 m -11 -12 d s 1053 284 m -4 -4 d s 1053 304 m -24 -24 d s 1053 323 m -43 -43 d s 1053 342 m -62 -62 d s 1053 362 m -81 -82 d s 1044 372 m -91 -92 d s
 1025 372 m -92 -92 d s 1006 372 m -91 -91 d s 986 372 m -71 -71 d s 967 372 m -52 -52 d s 948 372 m -33 -33 d s 929 372 m -14 -13 d s 1191 307 m -13 -13 d s 1191 326 m -32 -32 d s 1191 345 m -52 -51 d s 1184 358 m -64 -64 d s 1165 358 m -64 -64 d s
 1146 358 m -64 -64 d s 1127 358 m -65 -64 d s 1107 358 m -54 -54 d s 1088 358 m -35 -35 d s 1069 358 m -16 -16 d s 1328 290 m -16 -16 d s 1328 310 m -35 -36 d s 1328 329 m -54 -55 d s 1328 348 m -74 -74 d s 1328 368 m -93 -94 d s 1319 378 m -103
 -104 d s 1300 378 m -103 -104 d s 1281 378 m -90 -91 d s 1262 378 m -71 -71 d s 1242 378 m -51 -52 d s 1223 378 m -32 -33 d s 1204 378 m -13 -13 d s 1466 293 m -18 -17 d s 1466 313 m -37 -37 d s 1466 332 m -56 -56 d s 1466 351 m -75 -75 d s 1466 371
 m -95 -95 d s 1453 376 m -101 -100 d s 1433 376 m -100 -100 d s 1414 376 m -86 -86 d s 1395 376 m -67 -66 d s 1376 376 m -48 -47 d s 1356 376 m -28 -28 d s 1337 376 m -9 -8 d s 1604 258 m -2 -2 d s 1604 277 m -22 -21 d s 1604 296 m -41 -40 d s 1604
 316 m -60 -60 d s 1604 335 m -79 -79 d s 1604 354 m -99 -98 d s 1604 374 m -118 -118 d s 1604 393 m -137 -137 d s 1588 396 m -122 -122 d s 1569 396 m -103 -103 d s 1550 396 m -84 -83 d s 1530 396 m -64 -64 d s 1511 396 m -45 -45 d s 1492 396 m -26
 -25 d s 1473 396 m -7 -6 d s 1741 203 m -3 -3 d s 1741 222 m -22 -22 d s 1741 241 m -41 -41 d s 1741 261 m -60 -61 d s 1741 280 m -80 -80 d s 1741 299 m -99 -99 d s 1741 319 m -118 -119 d s 1741 338 m -137 -138 d s 1741 357 m -137 -138 d s 1741 377
 m -137 -139 d s 1741 396 m -137 -138 d s 1741 415 m -137 -138 d s 1741 434 m -137 -138 d s 1740 452 m -136 -136 d s 1721 452 m -117 -117 d s 1701 452 m -97 -98 d s 1682 452 m -78 -78 d s 1663 452 m -59 -59 d s 1644 452 m -40 -40 d s 1624 452 m -20
 -21 d s 1605 452 m -1 -1 d s 1879 264 m -16 -17 d s 1879 283 m -36 -36 d s 1879 302 m -55 -55 d s 1879 322 m -74 -75 d s 1879 341 m -93 -94 d s 1879 360 m -113 -113 d s 1879 379 m -132 -132 d s 1879 399 m -138 -138 d s 1866 405 m -125 -125 d s 1846
 405 m -105 -106 d s 1827 405 m -86 -86 d s 1808 405 m -67 -67 d s 1789 405 m -48 -48 d s 1769 405 m -28 -28 d s 1750 405 m -9 -9 d s 2017 228 m -11 -11 d s 2017 247 m -31 -30 d s 2017 267 m -50 -50 d s 2017 286 m -69 -69 d s 2017 305 m -88 -88 d s
 2017 325 m -108 -108 d s 2017 344 m -127 -127 d s 2017 363 m -138 -138 d s 2017 382 m -138 -138 d s 2017 402 m -138 -138 d s 2017 421 m -138 -138 d s 2011 435 m -132 -133 d s 1992 435 m -113 -113 d s 1973 435 m -94 -94 d s 1954 435 m -75 -75 d s
 1934 435 m -55 -56 d s 1915 435 m -36 -36 d s 1896 435 m -17 -17 d s 2154 328 m -5 -6 d s 2138 330 m -8 -8 d s 2118 330 m -8 -8 d s 2099 330 m -8 -8 d s 2080 330 m -8 -8 d s 2061 330 m -8 -8 d s 2041 330 m -8 -8 d s 2022 330 m -5 -5 d s black 1 1 1
 c black 296 189 m s 296 213 m 34 Y s /w 26 def /w2 {w 2 div} def /w3 {w 3 div} def 296 201 m20 433 189 m 6 Y s 433 218 m 41 Y s 433 207 m20 709 189 m 131 Y s 709 343 m 120 Y s 709 331 m20 984 189 m 261 Y s 984 462 m20 227 326 m 1927 X s 227 189 m
 1927 X s 227 201 m -12 Y s 282 195 m -6 Y s 337 195 m -6 Y s 392 195 m -6 Y s 447 195 m -6 Y s 502 201 m -12 Y s 557 195 m -6 Y s 612 195 m -6 Y s 667 195 m -6 Y s 722 195 m -6 Y s 778 201 m -12 Y s 833 195 m -6 Y s 888 195 m -6 Y s 943 195 m -6 Y s
 998 195 m -6 Y s 1053 201 m -12 Y s 1108 195 m -6 Y s 1163 195 m -6 Y s 1218 195 m -6 Y s 1273 195 m -6 Y s 1328 201 m -12 Y s 1383 195 m -6 Y s 1438 195 m -6 Y s 1493 195 m -6 Y s 1549 195 m -6 Y s 1604 201 m -12 Y s 1659 195 m -6 Y s 1714 195 m -6
 Y s 1769 195 m -6 Y s 1824 195 m -6 Y s 1879 201 m -12 Y s 1934 195 m -6 Y s 1989 195 m -6 Y s 2044 195 m -6 Y s 2099 195 m -6 Y s 2154 201 m -12 Y s 227 463 m 1927 X s 227 451 m 12 Y s 282 457 m 6 Y s 337 457 m 6 Y s 392 457 m 6 Y s 447 457 m 6 Y s
 502 451 m 12 Y s 557 457 m 6 Y s 612 457 m 6 Y s 667 457 m 6 Y s 722 457 m 6 Y s 778 451 m 12 Y s 833 457 m 6 Y s 888 457 m 6 Y s 943 457 m 6 Y s 998 457 m 6 Y s 1053 451 m 12 Y s 1108 457 m 6 Y s 1163 457 m 6 Y s 1218 457 m 6 Y s 1273 457 m 6 Y s
 1328 451 m 12 Y s 1383 457 m 6 Y s 1438 457 m 6 Y s 1493 457 m 6 Y s 1549 457 m 6 Y s 1604 451 m 12 Y s 1659 457 m 6 Y s 1714 457 m 6 Y s 1769 457 m 6 Y s 1824 457 m 6 Y s 1879 451 m 12 Y s 1934 457 m 6 Y s 1989 457 m 6 Y s 2044 457 m 6 Y s 2099 457
 m 6 Y s 2154 451 m 12 Y s 227 189 m 274 Y s 240 240 m -13 X s 240 326 m -13 X s 240 412 m -13 X s 240 240 m -13 X s 240 412 m -13 X s 2154 189 m 274 Y s 2141 240 m 13 X s 2141 326 m 13 X s 2141 412 m 13 X s 2141 240 m 13 X s 2141 412 m 13 X s 1 1 1
 c 2268 1103 0 472 bf black 1 1 1 c 1927 1036 227 484 bf black 1927 1036 227 484 bl 1 1 1 c black 3 lw 227 484 m 1927 X s 227 502 m -18 Y s 282 493 m -9 Y s 337 493 m -9 Y s 392 493 m -9 Y s 447 493 m -9 Y s 502 502 m -18 Y s 557 493 m -9 Y s 612 493
 m -9 Y s 667 493 m -9 Y s 722 493 m -9 Y s 778 502 m -18 Y s 833 493 m -9 Y s 888 493 m -9 Y s 943 493 m -9 Y s 998 493 m -9 Y s 1053 502 m -18 Y s 1108 493 m -9 Y s 1163 493 m -9 Y s 1218 493 m -9 Y s 1273 493 m -9 Y s 1328 502 m -18 Y s 1383 493 m
 -9 Y s 1438 493 m -9 Y s 1493 493 m -9 Y s 1549 493 m -9 Y s 1604 502 m -18 Y s 1659 493 m -9 Y s 1714 493 m -9 Y s 1769 493 m -9 Y s 1824 493 m -9 Y s 1879 502 m -18 Y s 1934 493 m -9 Y s 1989 493 m -9 Y s 2044 493 m -9 Y s 2099 493 m -9 Y s 2154
 502 m -18 Y s
 gsave  2268 1103 0 472 C 2069.37 402.623 t 0 r /Helvetica findfont 29.6365 sf 0 0 m ( [GeV]) show NC gr 
 gsave  2268 1103 0 472 C 2054.56 393.742 t 0 r /Helvetica findfont 20.7455 sf 0 0 m (T) show NC gr 
 gsave  2268 1103 0 472 C 2030.88 402.623 t 0 r /Helvetica-Oblique findfont 29.6365 sf 0 0 m (H) show NC gr  227 1520 m 1927 X s 227 1501 m 19 Y s 282 1510 m 10 Y s 337 1510 m 10 Y s 392 1510 m 10 Y s 447 1510 m 10 Y s 502 1501 m 19 Y s 557 1510 m 10
 Y s 612 1510 m 10 Y s 667 1510 m 10 Y s 722 1510 m 10 Y s 778 1501 m 19 Y s 833 1510 m 10 Y s 888 1510 m 10 Y s 943 1510 m 10 Y s 998 1510 m 10 Y s 1053 1501 m 19 Y s 1108 1510 m 10 Y s 1163 1510 m 10 Y s 1218 1510 m 10 Y s 1273 1510 m 10 Y s 1328
 1501 m 19 Y s 1383 1510 m 10 Y s 1438 1510 m 10 Y s 1493 1510 m 10 Y s 1549 1510 m 10 Y s 1604 1501 m 19 Y s 1659 1510 m 10 Y s 1714 1510 m 10 Y s 1769 1510 m 10 Y s 1824 1510 m 10 Y s 1879 1501 m 19 Y s 1934 1510 m 10 Y s 1989 1510 m 10 Y s 2044
 1510 m 10 Y s 2099 1510 m 10 Y s 2154 1501 m 19 Y s 227 484 m 1036 Y s 248 595 m -21 X s 237 617 m -10 X s 237 640 m -10 X s 237 662 m -10 X s 237 685 m -10 X s 248 707 m -21 X s 237 729 m -10 X s 237 752 m -10 X s 237 774 m -10 X s 237 797 m -10 X
 s 248 819 m -21 X s 237 842 m -10 X s 237 864 m -10 X s 237 887 m -10 X s 237 909 m -10 X s 248 932 m -21 X s 237 954 m -10 X s 237 976 m -10 X s 237 999 m -10 X s 237 1021 m -10 X s 248 1044 m -21 X s 237 1066 m -10 X s 237 1089 m -10 X s 237 1111
 m -10 X s 237 1134 m -10 X s 248 1156 m -21 X s 237 1179 m -10 X s 237 1201 m -10 X s 237 1224 m -10 X s 237 1246 m -10 X s 248 1268 m -21 X s 237 1291 m -10 X s 237 1313 m -10 X s 237 1336 m -10 X s 237 1358 m -10 X s 248 1381 m -21 X s 237 1403 m
 -10 X s 237 1426 m -10 X s 237 1448 m -10 X s 237 1471 m -10 X s 248 1493 m -21 X s 248 595 m -21 X s 237 572 m -10 X s 237 550 m -10 X s 237 527 m -10 X s 237 505 m -10 X s 248 1493 m -21 X s 237 1515 m -10 X s
 gsave  2268 1103 0 472 C 183.549 574.33 t 0 r /Helvetica findfont 50.382 sf 0 0 m (1) show NC gr 
 gsave  2268 1103 0 472 C 174.667 686.828 t 0 r /Helvetica findfont 50.382 sf 0 0 m (2) show NC gr 
 gsave  2268 1103 0 472 C 174.667 799.326 t 0 r /Helvetica findfont 50.382 sf 0 0 m (3) show NC gr 
 gsave  2268 1103 0 472 C 174.667 911.823 t 0 r /Helvetica findfont 50.382 sf 0 0 m (4) show NC gr 
 gsave  2268 1103 0 472 C 174.667 1024.32 t 0 r /Helvetica findfont 50.382 sf 0 0 m (5) show NC gr 
 gsave  2268 1103 0 472 C 174.667 1136.82 t 0 r /Helvetica findfont 50.382 sf 0 0 m (6) show NC gr 
 gsave  2268 1103 0 472 C 174.667 1249.32 t 0 r /Helvetica findfont 50.382 sf 0 0 m (7) show NC gr 
 gsave  2268 1103 0 472 C 174.667 1361.81 t 0 r /Helvetica findfont 50.382 sf 0 0 m (8) show NC gr 
 gsave  2268 1103 0 472 C 174.667 1474.31 t 0 r /Helvetica findfont 50.382 sf 0 0 m (9) show NC gr 
 gsave  2268 1103 0 472 C 62.1698 1154.58 t 90 r /Helvetica findfont 50.382 sf 0 0 m (Events / 50 GeV) show NC gr  2154 484 m 1036 Y s 2133 595 m 21 X s 2144 617 m 10 X s 2144 640 m 10 X s 2144 662 m 10 X s 2144 685 m 10 X s 2133 707 m 21 X s 2144
 729 m 10 X s 2144 752 m 10 X s 2144 774 m 10 X s 2144 797 m 10 X s 2133 819 m 21 X s 2144 842 m 10 X s 2144 864 m 10 X s 2144 887 m 10 X s 2144 909 m 10 X s 2133 932 m 21 X s 2144 954 m 10 X s 2144 976 m 10 X s 2144 999 m 10 X s 2144 1021 m 10 X s
 2133 1044 m 21 X s 2144 1066 m 10 X s 2144 1089 m 10 X s 2144 1111 m 10 X s 2144 1134 m 10 X s 2133 1156 m 21 X s 2144 1179 m 10 X s 2144 1201 m 10 X s 2144 1224 m 10 X s 2144 1246 m 10 X s 2133 1268 m 21 X s 2144 1291 m 10 X s 2144 1313 m 10 X s
 2144 1336 m 10 X s 2144 1358 m 10 X s 2133 1381 m 21 X s 2144 1403 m 10 X s 2144 1426 m 10 X s 2144 1448 m 10 X s 2144 1471 m 10 X s 2133 1493 m 21 X s 2133 595 m 21 X s 2144 572 m 10 X s 2144 550 m 10 X s 2144 527 m 10 X s 2144 505 m 10 X s 2133
 1493 m 21 X s 2144 1515 m 10 X s 0.4 0.6 0.4 c black 3 lw 0.4 0.6 0.4 c 227 484 m 413 Y 137 X -44 Y 138 X -148 Y 138 X -114 Y 138 X -32 Y 137 X -14 Y 138 X -28 Y 138 X -20 Y 137 X -2 Y 138 X -5 Y 138 X -6 Y 137 X 2 Y 413 X -2 Y f 0.06 0.54 0.06 c
 0.999 0.999 0.999 c black 3 lw 0.999 0.999 0.999 c 227 484 m 279 Y 137 X -22 Y 138 X -101 Y 138 X -80 Y 138 X -22 Y 137 X -11 Y 138 X -21 Y 138 X -12 Y 137 X -3 Y 138 X -3 Y 138 X -4 Y 137 X 2 Y 138 X -1 Y 138 X 1 Y 137 X -2 Y f 0.06 0.54 0.06 c
 0.999 0.999 0.999 c 0.06 0.54 0.06 c 1 1 1 c black 0.06 0.54 0.06 c black 3 lw 0.06 0.54 0.06 c 227 484 m 279 Y 137 X -22 Y 138 X -101 Y 138 X -80 Y 138 X -22 Y 137 X -11 Y 138 X -21 Y 138 X -12 Y 137 X -3 Y 138 X -3 Y 138 X -4 Y 137 X 2 Y 138 X -1
 Y 138 X 1 Y 137 X -2 Y f 1 0.653333 0 c 0.999 0.999 0.999 c black 3 lw 0.999 0.999 0.999 c 227 484 m 279 Y 137 X -49 Y 138 X -74 Y 138 X -80 Y 138 X -22 Y 137 X -25 Y 138 X -7 Y 138 X -12 Y 137 X -3 Y 138 X -3 Y 138 X -4 Y 137 X 2 Y 138 X -1 Y 138 X
 1 Y 137 X -2 Y f 1 0.653333 0 c 0.999 0.999 0.999 c 1 0.653333 0 c 1 1 1 c black 1 0.653333 0 c black 3 lw 1 0.653333 0 c 227 484 m 279 Y 137 X -49 Y 138 X -74 Y 138 X -80 Y 138 X -22 Y 137 X -25 Y 138 X -7 Y 138 X -12 Y 137 X -3 Y 138 X -3 Y 138 X
 -4 Y 137 X 2 Y 138 X -1 Y 138 X 1 Y 137 X -2 Y f 0.413333 1 0 c 0.999 0.999 0.999 c black 3 lw 0.999 0.999 0.999 c 227 484 m 279 Y 137 X -49 Y 138 X -74 Y 138 X -80 Y 138 X -22 Y 137 X -25 Y 138 X -7 Y 138 X -12 Y 137 X -3 Y 138 X -3 Y 138 X -4 Y
 137 X 2 Y 138 X -1 Y 138 X 1 Y 137 X -2 Y f 0.413333 1 0 c 0.999 0.999 0.999 c 0.413333 1 0 c 1 1 1 c black 0.413333 1 0 c black 3 lw 0.413333 1 0 c 227 484 m 279 Y 137 X -49 Y 138 X -74 Y 138 X -80 Y 138 X -22 Y 137 X -25 Y 138 X -7 Y 138 X -12 Y
 137 X -3 Y 138 X -3 Y 138 X -4 Y 137 X 2 Y 138 X -1 Y 138 X 1 Y 137 X -2 Y f 0.6 0.2 1 c 0.999 0.999 0.999 c black 3 lw 0.999 0.999 0.999 c 227 484 m 252 Y 137 X -51 Y 138 X -61 Y 138 X -71 Y 138 X -24 Y 137 X -21 Y 138 X -4 Y 138 X -13 Y 137 X -1 Y
 138 X -4 Y 138 X -2 Y 137 X 2 Y 138 X -1 Y 275 X -1 Y f 0.6 0.2 1 c 0.999 0.999 0.999 c 0.6 0.2 1 c 1 1 1 c black 0.6 0.2 1 c black 3 lw 0.6 0.2 1 c 227 484 m 252 Y 137 X -51 Y 138 X -61 Y 138 X -71 Y 138 X -24 Y 137 X -21 Y 138 X -4 Y 138 X -13 Y
 137 X -1 Y 138 X -4 Y 138 X -2 Y 137 X 2 Y 138 X -1 Y 275 X -1 Y f 0.54 0.06 0.06 c 0.999 0.999 0.999 c black 3 lw 0.999 0.999 0.999 c 227 484 m 222 Y 137 X -40 Y 138 X -57 Y 138 X -67 Y 138 X -26 Y 137 X -13 Y 138 X -3 Y 138 X -10 Y 275 X -4 Y 138
 X -2 Y 137 X 1 Y 276 X -1 Y 137 X f 0.54 0.06 0.06 c 0.999 0.999 0.999 c 0.54 0.06 0.06 c 1 1 1 c black 0.54 0.06 0.06 c black 3 lw 0.54 0.06 0.06 c 227 484 m 222 Y 137 X -40 Y 138 X -57 Y 138 X -67 Y 138 X -26 Y 137 X -13 Y 138 X -3 Y 138 X -10 Y
 275 X -4 Y 138 X -2 Y 137 X 1 Y 276 X -1 Y 137 X f 1 0 1 c 0.999 0.999 0.999 c black 3 lw 0.999 0.999 0.999 c 227 484 m 133 Y 137 X -19 Y 138 X -55 Y 138 X -27 Y 138 X -17 Y 137 X -9 Y 138 X 3 Y 138 X -8 Y 137 X 1 Y 138 X -2 Y 688 X f 1 0 1 c 0.999
 0.999 0.999 c 1 0 1 c 1 1 1 c black 1 0 1 c black 3 lw 1 0 1 c 227 484 m 133 Y 137 X -19 Y 138 X -55 Y 138 X -27 Y 138 X -17 Y 137 X -9 Y 138 X 3 Y 138 X -8 Y 137 X 1 Y 138 X -2 Y 688 X f 0 0 1 c 0.999 0.999 0.999 c black 3 lw 0.999 0.999 0.999 c
 227 484 m 44 Y 137 X -7 Y 138 X -12 Y 138 X -9 Y 138 X -9 Y 137 X -5 Y 138 X 1 Y 138 X -3 Y 137 X 1 Y 138 X -1 Y 688 X f 0 0 1 c 0.999 0.999 0.999 c 0 0 1 c 1 1 1 c black 0 0 1 c black 3 lw 0 0 1 c 227 484 m 44 Y 137 X -7 Y 138 X -12 Y 138 X -9 Y
 138 X -9 Y 137 X -5 Y 138 X 1 Y 138 X -3 Y 137 X 1 Y 138 X -1 Y 688 X f 0.2 0.8 0.8 c 0.999 0.999 0.999 c black 3 lw 0.999 0.999 0.999 c 227 484 m 22 Y 137 X -5 Y 138 X -5 Y 138 X -6 Y 138 X -5 Y 137 X -1 Y 138 X 1 Y 138 X -1 Y 963 X f 0.2 0.8 0.8 c
 0.999 0.999 0.999 c 0.2 0.8 0.8 c 1 1 1 c black 0.2 0.8 0.8 c black 3 lw 0.2 0.8 0.8 c 227 484 m 22 Y 137 X -5 Y 138 X -5 Y 138 X -6 Y 138 X -5 Y 137 X -1 Y 138 X 1 Y 138 X -1 Y 963 X f 1 0 0 c 0.999 0.999 0.999 c black 3 lw 0.999 0.999 0.999 c 227
 484 m 18 Y 137 X -4 Y 138 X -5 Y 138 X -5 Y 138 X -3 Y 137 X -1 Y 138 X 1 Y 138 X -1 Y 963 X f 1 0 0 c 0.999 0.999 0.999 c 1 0 0 c 1 1 1 c black 1 0 0 c black 3 lw 1 0 0 c 227 484 m 18 Y 137 X -4 Y 138 X -5 Y 138 X -5 Y 138 X -3 Y 137 X -1 Y 138 X 1
 Y 138 X -1 Y 963 X f 1 0.84 0 c 0.999 0.999 0.999 c black 3 lw 0.999 0.999 0.999 c 227 484 m 1927 X f 1 0.84 0 c 0.999 0.999 0.999 c 1 0.84 0 c 1 1 1 c black 1 0.84 0 c black 3 lw 1 0.84 0 c 227 484 m 1927 X f black 1 1 1 c black 0.6 0.6 0.6 c 3 lw
 364 894 m -17 -17 d s 364 913 m -36 -36 d s 350 918 m -41 -41 d s 331 918 m -41 -41 d s 311 918 m -41 -41 d s 292 918 m -41 -41 d s 273 918 m -41 -41 d s 254 918 m -27 -27 d s 234 918 m -7 -8 d s 3 lw 502 839 m -16 -15 d s 502 859 m -35 -35 d s 502
 878 m -54 -54 d s 487 882 m -58 -58 d s 468 882 m -59 -58 d s 449 882 m -59 -58 d s 430 882 m -59 -58 d s 410 882 m -46 -46 d s 391 882 m -27 -26 d s 372 882 m -8 -7 d s 3 lw 640 708 m -18 -18 d s 633 720 m -31 -30 d s 614 720 m -31 -30 d s 595 720
 m -31 -30 d s 576 720 m -31 -30 d s 556 720 m -30 -30 d s 537 720 m -31 -30 d s 518 720 m -16 -15 d s 3 lw 778 596 m -16 -16 d s 765 603 m -22 -23 d s 746 603 m -23 -23 d s 727 603 m -23 -23 d s 708 603 m -23 -23 d s 688 603 m -22 -23 d s 669 603 m
 -23 -23 d s 650 603 m -10 -10 d s 3 lw 915 560 m -10 -11 d s 905 569 m -20 -20 d s 886 569 m -20 -20 d s 867 569 m -20 -20 d s 848 569 m -20 -20 d s 828 569 m -20 -20 d s 809 569 m -20 -20 d s 790 569 m -12 -12 d s 3 lw 1053 544 m -16 -16 d s 1052
 562 m -34 -34 d s 1032 562 m -33 -34 d s 1013 562 m -34 -34 d s 994 562 m -34 -34 d s 975 562 m -34 -34 d s 955 562 m -33 -34 d s 936 562 m -21 -21 d s 917 562 m -2 -2 d s 3 lw 1186 523 m -13 -13 d s 1167 523 m -13 -13 d s 1148 523 m -13 -13 d s
 1128 523 m -13 -13 d s 1109 523 m -13 -13 d s 1090 523 m -13 -13 d s 1071 523 m -13 -13 d s 3 lw 1318 501 m -9 -8 d s 1299 501 m -9 -8 d s 1280 501 m -9 -8 d s 1260 501 m -8 -8 d s 1241 501 m -9 -8 d s 1222 501 m -9 -8 d s 1203 501 m -9 -8 d s 3 lw
 1466 495 m -4 -4 d s 1450 498 m -8 -7 d s 1430 498 m -7 -7 d s 1411 498 m -7 -7 d s 1392 498 m -7 -7 d s 1373 498 m -8 -7 d s 1353 498 m -7 -7 d s 1334 498 m -6 -6 d s 3 lw 1598 493 m -6 -6 d s 1579 493 m -6 -6 d s 1560 493 m -6 -6 d s 1540 493 m -6
 -6 d s 1521 493 m -6 -6 d s 1502 493 m -6 -6 d s 1483 493 m -6 -6 d s 3 lw 1726 486 m -2 -2 d s 1707 486 m -3 -2 d s 1688 486 m -3 -2 d s 1668 486 m -2 -2 d s 1649 486 m -2 -2 d s 1630 486 m -3 -2 d s 1611 486 m -3 -2 d s 3 lw 1879 485 m -1 -1 d s
 1862 488 m -3 -4 d s 1843 488 m -3 -4 d s 1824 488 m -3 -4 d s 1805 488 m -4 -4 d s 1785 488 m -3 -4 d s 1766 488 m -3 -4 d s 1747 488 m -3 -4 d s 3 lw 2017 488 m -4 -4 d s 1998 489 m -5 -5 d s 1979 489 m -5 -5 d s 1960 489 m -5 -5 d s 1941 489 m -5
 -5 d s 1921 489 m -5 -5 d s 1902 489 m -5 -5 d s 1883 489 m -4 -4 d s 3 lw 2149 486 m s 2130 486 m s 2111 486 m s 2091 486 m s 2072 486 m s 2053 486 m s 2034 486 m s black 3 lw 1 1 1 c black 296 484 m 99 Y s 296 607 m 100 Y s /w 24 def /w2 {w 2 div}
 def /w3 {w 3 div} def 296 595 m20 433 484 m 99 Y s 433 607 m 100 Y s 433 595 m20 571 707 m 213 Y s 571 943 m 213 Y s 571 932 m20 709 484 m 99 Y s 709 607 m 100 Y s 709 595 m20 984 484 m 99 Y s 984 607 m 100 Y s 984 595 m20 227 484 m 1927 X s 227 502
 m -18 Y s 282 493 m -9 Y s 337 493 m -9 Y s 392 493 m -9 Y s 447 493 m -9 Y s 502 502 m -18 Y s 557 493 m -9 Y s 612 493 m -9 Y s 667 493 m -9 Y s 722 493 m -9 Y s 778 502 m -18 Y s 833 493 m -9 Y s 888 493 m -9 Y s 943 493 m -9 Y s 998 493 m -9 Y s
 1053 502 m -18 Y s 1108 493 m -9 Y s 1163 493 m -9 Y s 1218 493 m -9 Y s 1273 493 m -9 Y s 1328 502 m -18 Y s 1383 493 m -9 Y s 1438 493 m -9 Y s 1493 493 m -9 Y s 1549 493 m -9 Y s 1604 502 m -18 Y s 1659 493 m -9 Y s 1714 493 m -9 Y s 1769 493 m
 -9 Y s 1824 493 m -9 Y s 1879 502 m -18 Y s 1934 493 m -9 Y s 1989 493 m -9 Y s 2044 493 m -9 Y s 2099 493 m -9 Y s 2154 502 m -18 Y s 227 1520 m 1927 X s 227 1501 m 19 Y s 282 1510 m 10 Y s 337 1510 m 10 Y s 392 1510 m 10 Y s 447 1510 m 10 Y s 502
 1501 m 19 Y s 557 1510 m 10 Y s 612 1510 m 10 Y s 667 1510 m 10 Y s 722 1510 m 10 Y s 778 1501 m 19 Y s 833 1510 m 10 Y s 888 1510 m 10 Y s 943 1510 m 10 Y s 998 1510 m 10 Y s 1053 1501 m 19 Y s 1108 1510 m 10 Y s 1163 1510 m 10 Y s 1218 1510 m 10 Y
 s 1273 1510 m 10 Y s 1328 1501 m 19 Y s 1383 1510 m 10 Y s 1438 1510 m 10 Y s 1493 1510 m 10 Y s 1549 1510 m 10 Y s 1604 1501 m 19 Y s 1659 1510 m 10 Y s 1714 1510 m 10 Y s 1769 1510 m 10 Y s 1824 1510 m 10 Y s 1879 1501 m 19 Y s 1934 1510 m 10 Y s
 1989 1510 m 10 Y s 2044 1510 m 10 Y s 2099 1510 m 10 Y s 2154 1501 m 19 Y s 227 484 m 1036 Y s 248 595 m -21 X s 237 617 m -10 X s 237 640 m -10 X s 237 662 m -10 X s 237 685 m -10 X s 248 707 m -21 X s 237 729 m -10 X s 237 752 m -10 X s 237 774 m
 -10 X s 237 797 m -10 X s 248 819 m -21 X s 237 842 m -10 X s 237 864 m -10 X s 237 887 m -10 X s 237 909 m -10 X s 248 932 m -21 X s 237 954 m -10 X s 237 976 m -10 X s 237 999 m -10 X s 237 1021 m -10 X s 248 1044 m -21 X s 237 1066 m -10 X s 237
 1089 m -10 X s 237 1111 m -10 X s 237 1134 m -10 X s 248 1156 m -21 X s 237 1179 m -10 X s 237 1201 m -10 X s 237 1224 m -10 X s 237 1246 m -10 X s 248 1268 m -21 X s 237 1291 m -10 X s 237 1313 m -10 X s 237 1336 m -10 X s 237 1358 m -10 X s 248
 1381 m -21 X s 237 1403 m -10 X s 237 1426 m -10 X s 237 1448 m -10 X s 237 1471 m -10 X s 248 1493 m -21 X s 248 595 m -21 X s 237 572 m -10 X s 237 550 m -10 X s 237 527 m -10 X s 237 505 m -10 X s 248 1493 m -21 X s 237 1515 m -10 X s 2154 484 m
 1036 Y s 2133 595 m 21 X s 2144 617 m 10 X s 2144 640 m 10 X s 2144 662 m 10 X s 2144 685 m 10 X s 2133 707 m 21 X s 2144 729 m 10 X s 2144 752 m 10 X s 2144 774 m 10 X s 2144 797 m 10 X s 2133 819 m 21 X s 2144 842 m 10 X s 2144 864 m 10 X s 2144
 887 m 10 X s 2144 909 m 10 X s 2133 932 m 21 X s 2144 954 m 10 X s 2144 976 m 10 X s 2144 999 m 10 X s 2144 1021 m 10 X s 2133 1044 m 21 X s 2144 1066 m 10 X s 2144 1089 m 10 X s 2144 1111 m 10 X s 2144 1134 m 10 X s 2133 1156 m 21 X s 2144 1179 m
 10 X s 2144 1201 m 10 X s 2144 1224 m 10 X s 2144 1246 m 10 X s 2133 1268 m 21 X s 2144 1291 m 10 X s 2144 1313 m 10 X s 2144 1336 m 10 X s 2144 1358 m 10 X s 2133 1381 m 21 X s 2144 1403 m 10 X s 2144 1426 m 10 X s 2144 1448 m 10 X s 2144 1471 m 10
 X s 2133 1493 m 21 X s 2133 595 m 21 X s 2144 572 m 10 X s 2144 550 m 10 X s 2144 527 m 10 X s 2144 505 m 10 X s 2133 1493 m 21 X s 2144 1515 m 10 X s
 gsave  2268 1103 0 472 C 1314.45 1432.87 t 0 r /Helvetica findfont 56.3093 sf 0 0 m ( Data) show NC gr  1259 1456 m 7 Y s 1259 1432 m -7 Y s 1259 1444 m20
 gsave  2268 1103 0 472 C 1776.28 1432.87 t 0 r /Helvetica findfont 56.3093 sf 0 0 m ( Fakes \(MM\)) show NC gr  0.4 0.6 0.4 c 1682 1422 m 79 X 44 Y -79 X f black
 gsave  2268 1103 0 472 C 1403.26 1367.74 t 0 r /Helvetica findfont 56.3093 sf 0 0 m (single\255top) show NC gr 
 gsave  2268 1103 0 472 C 1373.66 1367.74 t 0 r /Helvetica-Oblique findfont 56.3093 sf 0 0 m (/) show NC gr 
 gsave  2268 1103 0 472 C 1352.93 1367.74 t 0 r /Helvetica-Oblique findfont 56.3093 sf 0 0 m (t) show NC gr  6 lw 1353 1412 m 21 X s
 gsave  2268 1103 0 472 C 1332.21 1367.74 t 0 r /Helvetica-Oblique findfont 56.3093 sf 0 0 m (t) show NC gr 
 gsave  2268 1103 0 472 C 1314.45 1367.74 t 0 r /Helvetica findfont 56.3093 sf 0 0 m ( ) show NC gr  0.06 0.54 0.06 c 3 lw 1219 1359 m 79 X 44 Y -79 X f 6 lw black
 gsave  2268 1103 0 472 C 1906.54 1367.74 t 0 r /Helvetica findfont 56.3093 sf 0 0 m (+jets) show NC gr 
 gsave  2268 1103 0 472 C 1794.04 1367.74 t 0 r /Helvetica-Oblique findfont 56.3093 sf 0 0 m (W/Z) show NC gr 
 gsave  2268 1103 0 472 C 1776.28 1367.74 t 0 r /Helvetica findfont 56.3093 sf 0 0 m ( ) show NC gr  1 0.653333 0 c 3 lw 1682 1359 m 79 X 44 Y -79 X f black
 gsave  2268 1103 0 472 C 1512.8 1305.57 t 0 r /Helvetica findfont 56.3093 sf 0 0 m (+jets) show NC gr 
 gsave  2268 1103 0 472 C 1332.21 1305.57 t 0 r /Helvetica-Oblique findfont 56.3093 sf 0 0 m (WZ/ZZ) show NC gr 
 gsave  2268 1103 0 472 C 1314.45 1305.57 t 0 r /Helvetica findfont 56.3093 sf 0 0 m ( ) show NC gr  0.413333 1 0 c 3 lw 1219 1296 m 79 X 44 Y -79 X f black
 gsave  2268 1103 0 472 C 1835.49 1305.57 t 0 r /Helvetica-Oblique findfont 56.3093 sf 0 0 m (Z) show NC gr 
 gsave  2268 1103 0 472 C 1814.77 1305.57 t 0 r /Helvetica-Oblique findfont 56.3093 sf 0 0 m (t) show NC gr  6 lw 1815 1350 m 20 X s
 gsave  2268 1103 0 472 C 1794.04 1305.57 t 0 r /Helvetica-Oblique findfont 56.3093 sf 0 0 m (t) show NC gr 
 gsave  2268 1103 0 472 C 1776.28 1305.57 t 0 r /Helvetica findfont 56.3093 sf 0 0 m ( ) show NC gr  0.6 0.2 1 c 3 lw 1682 1296 m 79 X 44 Y -79 X f 6 lw black
 gsave  2268 1103 0 472 C 1373.66 1243.4 t 0 r /Helvetica-Oblique findfont 56.3093 sf 0 0 m (W) show NC gr 
 gsave  2268 1103 0 472 C 1352.93 1243.4 t 0 r /Helvetica-Oblique findfont 56.3093 sf 0 0 m (t) show NC gr  6 lw 1353 1288 m 21 X s
 gsave  2268 1103 0 472 C 1332.21 1243.4 t 0 r /Helvetica-Oblique findfont 56.3093 sf 0 0 m (t) show NC gr 
 gsave  2268 1103 0 472 C 1314.45 1243.4 t 0 r /Helvetica findfont 56.3093 sf 0 0 m ( ) show NC gr  0.54 0.06 0.06 c 3 lw 1219 1233 m 79 X 44 Y -79 X f 6 lw black
 gsave  2268 1103 0 472 C 1794.04 1243.4 t 0 r /Helvetica-Oblique findfont 56.3093 sf 0 0 m (tZq) show NC gr 
 gsave  2268 1103 0 472 C 1776.28 1243.4 t 0 r /Helvetica findfont 56.3093 sf 0 0 m ( ) show NC gr  1 0 1 c 3 lw 1682 1233 m 79 X 44 Y -79 X f black
 gsave  2268 1103 0 472 C 1373.66 1178.27 t 0 r /Helvetica-Oblique findfont 56.3093 sf 0 0 m (H) show NC gr 
 gsave  2268 1103 0 472 C 1352.93 1178.27 t 0 r /Helvetica-Oblique findfont 56.3093 sf 0 0 m (t) show NC gr  6 lw 1353 1223 m 21 X s
 gsave  2268 1103 0 472 C 1332.21 1178.27 t 0 r /Helvetica-Oblique findfont 56.3093 sf 0 0 m (t) show NC gr 
 gsave  2268 1103 0 472 C 1314.45 1178.27 t 0 r /Helvetica findfont 56.3093 sf 0 0 m ( ) show NC gr  0 0 1 c 3 lw 1219 1170 m 79 X 44 Y -79 X f 6 lw black
 gsave  2268 1103 0 472 C 1794.04 1178.27 t 0 r /Helvetica-Oblique findfont 56.3093 sf 0 0 m (tWZ/tWH) show NC gr 
 gsave  2268 1103 0 472 C 1776.28 1178.27 t 0 r /Helvetica findfont 56.3093 sf 0 0 m ( ) show NC gr  0.2 0.8 0.8 c 3 lw 1682 1170 m 79 X 44 Y -79 X f black
 gsave  2268 1103 0 472 C 1332.21 1116.1 t 0 r /Helvetica-Oblique findfont 56.3093 sf 0 0 m (tHq) show NC gr 
 gsave  2268 1103 0 472 C 1314.45 1116.1 t 0 r /Helvetica findfont 56.3093 sf 0 0 m ( ) show NC gr  1 0 0 c 3 lw 1219 1107 m 79 X 44 Y -79 X f black
 gsave  2268 1103 0 472 C 1776.28 1116.1 t 0 r /Helvetica findfont 56.3093 sf 0 0 m ( Other) show NC gr  1 0.84 0 c 3 lw 1682 1107 m 79 X 44 Y -79 X f black
 gsave  2268 1103 0 472 C 1314.45 1053.93 t 0 r /Helvetica findfont 56.3093 sf 0 0 m ( Uncertainty) show NC gr  0.6 0.6 0.6 c 3 lw 1298 1058 m -13 -14 d s 1298 1077 m -33 -33 d s 1290 1088 m -44 -44 d s 1271 1088 m -44 -44 d s 1252 1088 m -33 -33 d s
 1233 1088 m -14 -13 d s 1 0.84 0 c 0.6 0.6 0.6 c black
 gsave  2268 1103 0 472 C 894.061 1329.25 t 0 r /Helvetica findfont 41.4911 sf 0 0 m (\2551) show NC gr 
 gsave  2268 1103 0 472 C 399.663 1299.64 t 0 r /Helvetica findfont 62.2366 sf 0 0 m ( = 13 TeV,  139 fb) show NC gr 
 gsave  2268 1103 0 472 C 370.058 1299.64 t 0 r /Helvetica findfont 62.2366 sf 0 0 m (s) show NC gr  6 lw 349 1335 m 6 -38 d s 3 lw 355 1297 m 6 56 d s 361 1353 m 39 X s
 gsave  2268 1103 0 472 C 337.493 1201.95 t 0 r /Helvetica findfont 62.2366 sf 0 0 m ( 2L\(SS\), SR) show NC gr 
 gsave  2268 1103 0 472 C 337.493 1400.3 t 0 r /Helvetica-BoldOblique findfont 71.1276 sf 0 0 m (ATLAS) show NC gr 
 gsave  2268 1103 0 472 C 633.54 1400.3 t 0 r /Helvetica findfont 71.1276 sf 0 0 m (Internal) show NC gr 
 gr  gr showpage
end
%%EOF
