%!PS-Adobe-2.0 EPSF-2.0
%%BoundingBox:  0 0 567 394
%%Title: /lhome/ific/c/cardillo/tHq/Plots/Plots-30-05-22-PLIV-SF/2LSS_MM/LepPt1_CRVV.eps: LepPt1_CRVV
%%Creator: ROOT Version 6.20/06
%%CreationDate: Mon May 30 19:25:23 2022
%%DocumentNeededResources: ProcSet (FontSetInit)
%%EndComments
%%BeginProlog
80 dict begin
/s {stroke} def /l {lineto} def /m {moveto} def /t {translate} def
/r {rotate} def /rl {roll}  def /R {repeat} def
/d {rlineto} def /rm {rmoveto} def /gr {grestore} def /f {eofill} def
/c {setrgbcolor} def /black {0 setgray} def /sd {setdash} def
/cl {closepath} def /sf {scalefont setfont} def /lw {setlinewidth} def
/box {m dup 0 exch d exch 0 d 0 exch neg d cl} def
/NC{systemdict begin initclip end}def/C{NC box clip newpath}def
/bl {box s} def /bf {gsave box gsave f grestore 1 lw [] 0 sd s grestore} def /Y { 0 exch d} def /X { 0 d} def 
/K {{pop pop 0 moveto} exch kshow} bind def
/ita {/ang 15 def gsave [1 0 ang dup sin exch cos div 1 0 0] concat} def 
/mp {newpath /y exch def /x exch def} def
/side {[w .77 mul w .23 mul] .385 w mul sd w 0 l currentpoint t -144 r} def
/mr {mp x y w2 0 360 arc} def /m24 {mr s} def /m20 {mr f} def
/mb {mp x y w2 add m w2 neg 0 d 0 w neg d w 0 d 0 w d cl} def
/mt {mp x y w2 add m w2 neg w neg d w 0 d cl} def
/w4 {w 4 div} def
/w6 {w 6 div} def
/w8 {w 8 div} def
/m21 {mb f} def /m25 {mb s} def /m22 {mt f} def /m26{mt s} def
/m23 {mp x y w2 sub m w2 w d w neg 0 d cl f} def
/m27 {mp x y w2 add m w3 neg w2 neg d w3 w2 neg d w3 w2 d cl s} def
/m28 {mp x w2 sub y w2 sub w3 add m w3 0 d  0 w3 neg d w3 0 d 0 w3 d w3 0 d  0 w3 d w3 neg 0 d 0 w3 d w3 neg 0 d 0 w3 neg d w3 neg 0 d cl s } def
/m29 {mp gsave x w2 sub y w2 add w3 sub m currentpoint t 4 {side} repeat cl fill gr} def
/m30 {mp gsave x w2 sub y w2 add w3 sub m currentpoint t 4 {side} repeat cl s gr} def
/m31 {mp x y w2 sub m 0 w d x w2 sub y m w 0 d x w2 sub y w2 add m w w neg d x w2 sub y w2 sub m w w d s} def
/m32 {mp x y w2 sub m w2 w d w neg 0 d cl s} def
/m33 {mp x y w2 add m w3 neg w2 neg d w3 w2 neg d w3 w2 d cl f} def
/m34 {mp x w2 sub y w2 sub w3 add m w3 0 d  0 w3 neg d w3 0 d 0 w3 d w3 0 d  0 w3 d w3 neg 0 d 0 w3 d w3 neg 0 d 0 w3 neg d w3 neg 0 d cl f } def
/m35 {mp x y w2 add m w2 neg w2 neg d w2 w2 neg d w2 w2 d w2 neg w2 d x y w2 sub m 0 w d x w2 sub y m w 0 d s} def
/m36 {mb x w2 sub y w2 add m w w neg d x w2 sub y w2 sub m w w d s} def
/m37 {mp x y m w4 neg w2 d w4 neg w2 neg d w2 0 d  w4 neg w2 neg d w2 0 d w4 neg w2 d w2 0 d w4 neg w2 d w4 neg w2 neg d cl s} def
/m38 {mp x w4 sub y w2 add m w4 neg w4 neg d 0 w2 neg d w4 w4 neg d w2 0 d w4 w4 d 0 w2 d w4 neg w4 d w2 neg 0 d x y w2 sub m 0 w d x w2 sub y m w 0 d cl s} def
/m39 {mp x y m w4 neg w2 d w4 neg w2 neg d w2 0 d  w4 neg w2 neg d w2 0 d w4 neg w2 d w2 0 d w4 neg w2 d w4 neg w2 neg d cl f} def
/m40 {mp x y m w4 w2 d w4 w4 neg d w2 neg w4 neg d w2 w4 neg d w4 neg w4 neg d w4 neg w2 d w4 neg w2 neg d w4 neg w4 d w2 w4 d w2 neg w4 d w4 w4 d w4 w2 neg d cl s} def
/m41 {mp x y m w4 w2 d w4 w4 neg d w2 neg w4 neg d w2 w4 neg d w4 neg w4 neg d w4 neg w2 d w4 neg w2 neg d w4 neg w4 d w2 w4 d w2 neg w4 d w4 w4 d w4 w2 neg d cl f} def
/m42 {mp x y w2 add m w8 neg w2 -3 4 div mul d w2 -3 4 div mul w8 neg d w2 3 4 div mul w8 neg d w8 w2 -3 4 div mul d w8 w2 3 4 div mul d w2 3 4 div mul w8 d w2 -3 4 div mul w8 d w8 neg w2 3 4 div mul d cl s} def
/m43 {mp x y w2 add m w8 neg w2 -3 4 div mul d w2 -3 4 div mul w8 neg d w2 3 4 div mul w8 neg d w8 w2 -3 4 div mul d w8 w2 3 4 div mul d w2 3 4 div mul w8 d w2 -3 4 div mul w8 d w8 neg w2 3 4 div mul d cl f} def
/m44 {mp x y m w6 neg w2 d w2 2 3 div mul 0 d w6 neg w2 neg d w2 w6 d 0 w2 -2 3 div mul d w2 neg w6 d w6 w2 neg d w2 -2 3 div mul 0 d w6 w2 d w2 neg w6 neg d 0 w2 2 3 div mul d w2 w6 neg d cl s} def
/m45 {mp x y m w6 neg w2 d w2 2 3 div mul 0 d w6 neg w2 neg d w2 w6 d 0 w2 -2 3 div mul d w2 neg w6 d w6 w2 neg d w2 -2 3 div mul 0 d w6 w2 d w2 neg w6 neg d 0 w2 2 3 div mul d w2 w6 neg d cl f} def
/m46 {mp x y w4 add m w4 neg w4 d w4 neg w4 neg d  w4 w4 neg d w4 neg w4 neg d w4 w4 neg d w4 w4 d w4 w4 neg d w4 w4 d w4 neg w4 d w4 w4 d w4 neg w4 d w4 neg w4 neg d cl s} def
/m47 {mp x y w4 add m w4 neg w4 d w4 neg w4 neg d w4 w4 neg d w4 neg w4 neg d  w4 w4 neg d w4 w4 d w4 w4 neg d w4 w4 d w4 neg w4 d w4 w4 d w4 neg w4 d w4 neg w4 neg d cl f} def
/m48 {mp x y w4 add m w4 neg w4 d w4 neg w4 neg d w4 w4 neg d  w4 neg w4 neg d w4 w4 neg d w4 w4 d w4 w4 neg d w4 w4 d w4 neg w4 d w4 w4 d w4 neg w4 d w4 neg w4 neg d  w4 w4 neg d w4 neg w4 neg d w4 neg w4 d w4 w4 d cl f} def
/m49 {mp x w2 sub w3 add y w2 sub w3 add m  0 w3 neg d w3 0 d 0 w3 d w3 0 d 0 w3 d w3 neg 0 d 0 w3 d w3 neg 0 d 0 w3 neg d w3 neg 0 d 0 w3 neg d w3 0 d 0 w3 d w3 0 d 0 w3 neg d w3 neg 0 d cl f } def
/m2 {mp x y w2 sub m 0 w d x w2 sub y m w 0 d s} def
/m5 {mp x w2 sub y w2 sub m w w d x w2 sub y w2 add m w w neg d s} def
%%IncludeResource: ProcSet (FontSetInit)
%%IncludeResource: font Times-Roman
%%IncludeResource: font Times-Italic
%%IncludeResource: font Times-Bold
%%IncludeResource: font Times-BoldItalic
%%IncludeResource: font Helvetica
%%IncludeResource: font Helvetica-Oblique
%%IncludeResource: font Helvetica-Bold
%%IncludeResource: font Helvetica-BoldOblique
%%IncludeResource: font Courier
%%IncludeResource: font Courier-Oblique
%%IncludeResource: font Courier-Bold
%%IncludeResource: font Courier-BoldOblique
%%IncludeResource: font Symbol
%%IncludeResource: font ZapfDingbats
/reEncode {exch findfont dup length dict begin {1 index /FID eq  {pop pop} {def} ifelse } forall /Encoding exch def currentdict end dup /FontName get exch definefont pop } def [/Times-Bold /Times-Italic /Times-BoldItalic /Helvetica /Helvetica-Oblique
 /Helvetica-Bold /Helvetica-BoldOblique /Courier /Courier-Oblique /Courier-Bold /Courier-BoldOblique /Times-Roman /AvantGarde-Book /AvantGarde-BookOblique /AvantGarde-Demi /AvantGarde-DemiOblique /Bookman-Demi /Bookman-DemiItalic /Bookman-Light
 /Bookman-LightItalic /Helvetica-Narrow /Helvetica-Narrow-Bold /Helvetica-Narrow-BoldOblique /Helvetica-Narrow-Oblique /NewCenturySchlbk-Roman /NewCenturySchlbk-Bold /NewCenturySchlbk-BoldItalic /NewCenturySchlbk-Italic /Palatino-Bold
 /Palatino-BoldItalic /Palatino-Italic /Palatino-Roman ] {ISOLatin1Encoding reEncode } forall
%%EndProlog
%%BeginSetup
%%EndSetup
newpath  gsave  .25 .25 scale  gsave  0 0 t black[  ] 0 sd 3 lw 1 1 1 c 2268 1575 0 0 bf black 1 1 1 c 2268 472 0 0 bf black 1 1 1 c 1927 274 227 189 bf black 1927 274 227 189 bl 227 189 m 1927 X s 227 201 m -12 Y s 265 195 m -6 Y s 304 195 m -6 Y s
 342 195 m -6 Y s 381 195 m -6 Y s 420 201 m -12 Y s 458 195 m -6 Y s 497 195 m -6 Y s 535 195 m -6 Y s 574 195 m -6 Y s 612 201 m -12 Y s 651 195 m -6 Y s 689 195 m -6 Y s 728 195 m -6 Y s 766 195 m -6 Y s 805 201 m -12 Y s 844 195 m -6 Y s 882 195
 m -6 Y s 921 195 m -6 Y s 959 195 m -6 Y s 998 201 m -12 Y s 1036 195 m -6 Y s 1075 195 m -6 Y s 1113 195 m -6 Y s 1152 195 m -6 Y s 1191 201 m -12 Y s 1229 195 m -6 Y s 1268 195 m -6 Y s 1306 195 m -6 Y s 1345 195 m -6 Y s 1383 201 m -12 Y s 1422
 195 m -6 Y s 1460 195 m -6 Y s 1499 195 m -6 Y s 1538 195 m -6 Y s 1576 201 m -12 Y s 1615 195 m -6 Y s 1653 195 m -6 Y s 1692 195 m -6 Y s 1730 195 m -6 Y s 1769 201 m -12 Y s 1807 195 m -6 Y s 1846 195 m -6 Y s 1884 195 m -6 Y s 1923 195 m -6 Y s
 1962 201 m -12 Y s 2000 195 m -6 Y s 2039 195 m -6 Y s 2077 195 m -6 Y s 2116 195 m -6 Y s 2154 201 m -12 Y s
 gsave  2268 472 0 0 C 210.193 127.3 t 0 r /Helvetica findfont 53.4895 sf 0 0 m (0) show NC gr 
 gsave  2268 472 0 0 C 387.821 127.3 t 0 r /Helvetica findfont 53.4895 sf 0 0 m (50) show NC gr 
 gsave  2268 472 0 0 C 565.449 127.3 t 0 r /Helvetica findfont 53.4895 sf 0 0 m (100) show NC gr 
 gsave  2268 472 0 0 C 757.879 127.3 t 0 r /Helvetica findfont 53.4895 sf 0 0 m (150) show NC gr 
 gsave  2268 472 0 0 C 953.27 127.3 t 0 r /Helvetica findfont 53.4895 sf 0 0 m (200) show NC gr 
 gsave  2268 472 0 0 C 1145.7 127.3 t 0 r /Helvetica findfont 53.4895 sf 0 0 m (250) show NC gr 
 gsave  2268 472 0 0 C 1338.13 127.3 t 0 r /Helvetica findfont 53.4895 sf 0 0 m (300) show NC gr 
 gsave  2268 472 0 0 C 1530.56 127.3 t 0 r /Helvetica findfont 53.4895 sf 0 0 m (350) show NC gr 
 gsave  2268 472 0 0 C 1722.99 127.3 t 0 r /Helvetica findfont 53.4895 sf 0 0 m (400) show NC gr 
 gsave  2268 472 0 0 C 1915.42 127.3 t 0 r /Helvetica findfont 53.4895 sf 0 0 m (450) show NC gr 
 gsave  2268 472 0 0 C 2107.85 127.3 t 0 r /Helvetica findfont 53.4895 sf 0 0 m (500) show NC gr 
 gsave  2268 472 0 0 C 1977.59 53.2884 t 0 r /Helvetica findfont 56.4611 sf 0 0 m (\) [GeV]) show NC gr 
 gsave  2268 472 0 0 C 1962.79 20.7233 t 0 r /Helvetica findfont 38.6313 sf 0 0 m (1) show NC gr 
 gsave  2268 472 0 0 C 1868.05 53.2884 t 0 r /Helvetica findfont 56.4611 sf 0 0 m (\(lep) show NC gr 
 gsave  2268 472 0 0 C 1844.37 20.7233 t 0 r /Helvetica findfont 38.6313 sf 0 0 m (T) show NC gr 
 gsave  2268 472 0 0 C 1808.84 53.2884 t 0 r /Helvetica-Oblique findfont 56.4611 sf 0 0 m (p) show NC gr  227 463 m 1927 X s 227 451 m 12 Y s 265 457 m 6 Y s 304 457 m 6 Y s 342 457 m 6 Y s 381 457 m 6 Y s 420 451 m 12 Y s 458 457 m 6 Y s 497 457 m 6
 Y s 535 457 m 6 Y s 574 457 m 6 Y s 612 451 m 12 Y s 651 457 m 6 Y s 689 457 m 6 Y s 728 457 m 6 Y s 766 457 m 6 Y s 805 451 m 12 Y s 844 457 m 6 Y s 882 457 m 6 Y s 921 457 m 6 Y s 959 457 m 6 Y s 998 451 m 12 Y s 1036 457 m 6 Y s 1075 457 m 6 Y s
 1113 457 m 6 Y s 1152 457 m 6 Y s 1191 451 m 12 Y s 1229 457 m 6 Y s 1268 457 m 6 Y s 1306 457 m 6 Y s 1345 457 m 6 Y s 1383 451 m 12 Y s 1422 457 m 6 Y s 1460 457 m 6 Y s 1499 457 m 6 Y s 1538 457 m 6 Y s 1576 451 m 12 Y s 1615 457 m 6 Y s 1653 457
 m 6 Y s 1692 457 m 6 Y s 1730 457 m 6 Y s 1769 451 m 12 Y s 1807 457 m 6 Y s 1846 457 m 6 Y s 1884 457 m 6 Y s 1923 457 m 6 Y s 1962 451 m 12 Y s 2000 457 m 6 Y s 2039 457 m 6 Y s 2077 457 m 6 Y s 2116 457 m 6 Y s 2154 451 m 12 Y s 227 189 m 274 Y s
 240 240 m -13 X s 240 326 m -13 X s 240 412 m -13 X s 240 240 m -13 X s 240 412 m -13 X s
 gsave  2268 472 0 0 C 118.419 222.035 t 0 r /Helvetica findfont 53.4895 sf 0 0 m (0.5) show NC gr 
 gsave  2268 472 0 0 C 171.707 307.888 t 0 r /Helvetica findfont 53.4895 sf 0 0 m (1) show NC gr 
 gsave  2268 472 0 0 C 118.419 393.742 t 0 r /Helvetica findfont 53.4895 sf 0 0 m (1.5) show NC gr 
 gsave  2268 472 0 0 C 71.0512 230.916 t 90 r /Helvetica findfont 53.4895 sf 0 0 m (Data / SM) show NC gr  2154 189 m 274 Y s 2141 240 m 13 X s 2141 326 m 13 X s 2141 412 m 13 X s 2141 240 m 13 X s 2141 412 m 13 X s 227 189 m 1927 X s 227 463 m 1927
 X s 227 189 m 274 Y s[ 4 8] 0 sd 2154 240 m -1927 X s 2154 326 m -1927 X s 2154 412 m -1927 X s 2154 240 m -1927 X s 2154 412 m -1927 X s[  ] 0 sd 2154 189 m 274 Y s 1 1 0.6 c 193 0 227 326 bf 192 0 420 326 bf 193 0 612 326 bf 193 0 805 326 bf 193 0
 998 326 bf 192 0 1191 326 bf 193 0 1383 326 bf 193 0 1576 326 bf 193 0 1769 326 bf 192 0 1962 326 bf black 0.6 0.6 0.6 c 420 325 m -8 -8 d s 410 335 m -17 -18 d s 391 335 m -17 -18 d s 372 335 m -17 -18 d s 353 335 m -18 -18 d s 333 335 m -17 -18 d
 s 314 335 m -17 -18 d s 295 335 m -17 -18 d s 276 335 m -18 -18 d s 257 335 m -18 -18 d s 237 335 m -10 -11 d s 612 325 m -7 -8 d s 603 335 m -17 -18 d s 584 335 m -18 -18 d s 564 335 m -17 -18 d s 545 335 m -17 -18 d s 526 335 m -17 -18 d s 507 335
 m -18 -18 d s 487 335 m -17 -18 d s 468 335 m -17 -18 d s 449 335 m -17 -18 d s 430 335 m -10 -10 d s 805 325 m -16 -16 d s 804 343 m -34 -34 d s 784 343 m -34 -34 d s 765 343 m -34 -34 d s 746 343 m -34 -34 d s 727 343 m -34 -34 d s 707 343 m -34
 -34 d s 688 343 m -34 -34 d s 669 343 m -34 -34 d s 650 343 m -34 -34 d s 630 343 m -18 -18 d s 998 306 m -9 -9 d s 998 326 m -29 -29 d s 998 345 m -48 -48 d s 989 355 m -58 -58 d s 969 355 m -57 -58 d s 950 355 m -58 -58 d s 931 355 m -58 -58 d s
 912 355 m -58 -58 d s 892 355 m -57 -58 d s 873 355 m -58 -58 d s 854 355 m -49 -49 d s 835 355 m -30 -30 d s 815 355 m -10 -10 d s 1191 326 m -16 -15 d s 1187 341 m -31 -30 d s 1168 341 m -31 -30 d s 1148 341 m -30 -30 d s 1129 341 m -31 -30 d s
 1110 341 m -31 -30 d s 1091 341 m -31 -30 d s 1071 341 m -30 -30 d s 1052 341 m -31 -30 d s 1033 341 m -31 -30 d s 1014 341 m -16 -15 d s 1383 326 m -19 -19 d s 1383 345 m -38 -38 d s 1364 345 m -38 -38 d s 1344 345 m -38 -38 d s 1325 345 m -38 -38
 d s 1306 345 m -38 -38 d s 1287 345 m -38 -38 d s 1267 345 m -37 -38 d s 1248 345 m -38 -38 d s 1229 345 m -38 -38 d s 1210 345 m -19 -19 d s 1576 288 m -18 -18 d s 1576 307 m -37 -37 d s 1576 327 m -56 -57 d s 1576 346 m -76 -76 d s 1576 365 m -95
 -95 d s 1574 382 m -112 -112 d s 1555 382 m -112 -112 d s 1535 382 m -112 -112 d s 1516 382 m -112 -112 d s 1497 382 m -112 -112 d s 1478 382 m -95 -94 d s 1458 382 m -75 -75 d s 1439 382 m -56 -56 d s 1420 382 m -37 -36 d s 1401 382 m -18 -17 d s
 1769 288 m -1 X s 1769 308 m -20 -20 d s 1769 327 m -39 -39 d s 1769 346 m -58 -58 d s 1768 364 m -77 -76 d s 1748 364 m -76 -76 d s 1729 364 m -76 -76 d s 1710 364 m -76 -76 d s 1691 364 m -77 -76 d s 1671 364 m -76 -76 d s 1652 364 m -76 -76 d s
 1633 364 m -57 -57 d s 1614 364 m -38 -37 d s 1594 364 m -18 -18 d s 1962 308 m -16 -16 d s 1962 327 m -35 -35 d s 1962 347 m -54 -55 d s 1955 360 m -67 -68 d s 1936 360 m -67 -68 d s 1917 360 m -67 -68 d s 1898 360 m -67 -68 d s 1878 360 m -67 -68
 d s 1859 360 m -67 -68 d s 1840 360 m -67 -68 d s 1821 360 m -52 -52 d s 1801 360 m -32 -33 d s 1782 360 m -13 -14 d s 2154 328 m -18 -19 d s 2150 343 m -33 -34 d s 2131 343 m -33 -34 d s 2112 343 m -34 -34 d s 2093 343 m -34 -34 d s 2073 343 m -33
 -34 d s 2054 343 m -33 -34 d s 2035 343 m -34 -34 d s 2016 343 m -34 -34 d s 1996 343 m -33 -34 d s 1977 343 m -15 -16 d s black 1 1 1 c black 323 361 m 19 Y s 323 404 m 19 Y s /w 26 def /w2 {w 2 div} def /w3 {w 3 div} def 323 392 m20 516 301 m 12 Y
 s 516 337 m 13 Y s 516 325 m20 709 243 m 29 Y s 709 295 m 29 Y s 709 284 m20 901 259 m 60 Y s 901 343 m 60 Y s 901 331 m20 1094 226 m 160 Y s 1094 410 m 53 Y s 1094 398 m20 227 326 m 1927 X s 227 189 m 1927 X s 227 201 m -12 Y s 265 195 m -6 Y s 304
 195 m -6 Y s 342 195 m -6 Y s 381 195 m -6 Y s 420 201 m -12 Y s 458 195 m -6 Y s 497 195 m -6 Y s 535 195 m -6 Y s 574 195 m -6 Y s 612 201 m -12 Y s 651 195 m -6 Y s 689 195 m -6 Y s 728 195 m -6 Y s 766 195 m -6 Y s 805 201 m -12 Y s 844 195 m -6
 Y s 882 195 m -6 Y s 921 195 m -6 Y s 959 195 m -6 Y s 998 201 m -12 Y s 1036 195 m -6 Y s 1075 195 m -6 Y s 1113 195 m -6 Y s 1152 195 m -6 Y s 1191 201 m -12 Y s 1229 195 m -6 Y s 1268 195 m -6 Y s 1306 195 m -6 Y s 1345 195 m -6 Y s 1383 201 m
 -12 Y s 1422 195 m -6 Y s 1460 195 m -6 Y s 1499 195 m -6 Y s 1538 195 m -6 Y s 1576 201 m -12 Y s 1615 195 m -6 Y s 1653 195 m -6 Y s 1692 195 m -6 Y s 1730 195 m -6 Y s 1769 201 m -12 Y s 1807 195 m -6 Y s 1846 195 m -6 Y s 1884 195 m -6 Y s 1923
 195 m -6 Y s 1962 201 m -12 Y s 2000 195 m -6 Y s 2039 195 m -6 Y s 2077 195 m -6 Y s 2116 195 m -6 Y s 2154 201 m -12 Y s 227 463 m 1927 X s 227 451 m 12 Y s 265 457 m 6 Y s 304 457 m 6 Y s 342 457 m 6 Y s 381 457 m 6 Y s 420 451 m 12 Y s 458 457 m
 6 Y s 497 457 m 6 Y s 535 457 m 6 Y s 574 457 m 6 Y s 612 451 m 12 Y s 651 457 m 6 Y s 689 457 m 6 Y s 728 457 m 6 Y s 766 457 m 6 Y s 805 451 m 12 Y s 844 457 m 6 Y s 882 457 m 6 Y s 921 457 m 6 Y s 959 457 m 6 Y s 998 451 m 12 Y s 1036 457 m 6 Y s
 1075 457 m 6 Y s 1113 457 m 6 Y s 1152 457 m 6 Y s 1191 451 m 12 Y s 1229 457 m 6 Y s 1268 457 m 6 Y s 1306 457 m 6 Y s 1345 457 m 6 Y s 1383 451 m 12 Y s 1422 457 m 6 Y s 1460 457 m 6 Y s 1499 457 m 6 Y s 1538 457 m 6 Y s 1576 451 m 12 Y s 1615 457
 m 6 Y s 1653 457 m 6 Y s 1692 457 m 6 Y s 1730 457 m 6 Y s 1769 451 m 12 Y s 1807 457 m 6 Y s 1846 457 m 6 Y s 1884 457 m 6 Y s 1923 457 m 6 Y s 1962 451 m 12 Y s 2000 457 m 6 Y s 2039 457 m 6 Y s 2077 457 m 6 Y s 2116 457 m 6 Y s 2154 451 m 12 Y s
 227 189 m 274 Y s 240 240 m -13 X s 240 326 m -13 X s 240 412 m -13 X s 240 240 m -13 X s 240 412 m -13 X s 2154 189 m 274 Y s 2141 240 m 13 X s 2141 326 m 13 X s 2141 412 m 13 X s 2141 240 m 13 X s 2141 412 m 13 X s 1 1 1 c 2268 1103 0 472 bf black
 1 1 1 c 1927 1036 227 484 bf black 1927 1036 227 484 bl 1 1 1 c black 3 lw 227 484 m 1927 X s 227 502 m -18 Y s 265 493 m -9 Y s 304 493 m -9 Y s 342 493 m -9 Y s 381 493 m -9 Y s 420 502 m -18 Y s 458 493 m -9 Y s 497 493 m -9 Y s 535 493 m -9 Y s
 574 493 m -9 Y s 612 502 m -18 Y s 651 493 m -9 Y s 689 493 m -9 Y s 728 493 m -9 Y s 766 493 m -9 Y s 805 502 m -18 Y s 844 493 m -9 Y s 882 493 m -9 Y s 921 493 m -9 Y s 959 493 m -9 Y s 998 502 m -18 Y s 1036 493 m -9 Y s 1075 493 m -9 Y s 1113
 493 m -9 Y s 1152 493 m -9 Y s 1191 502 m -18 Y s 1229 493 m -9 Y s 1268 493 m -9 Y s 1306 493 m -9 Y s 1345 493 m -9 Y s 1383 502 m -18 Y s 1422 493 m -9 Y s 1460 493 m -9 Y s 1499 493 m -9 Y s 1538 493 m -9 Y s 1576 502 m -18 Y s 1615 493 m -9 Y s
 1653 493 m -9 Y s 1692 493 m -9 Y s 1730 493 m -9 Y s 1769 502 m -18 Y s 1807 493 m -9 Y s 1846 493 m -9 Y s 1884 493 m -9 Y s 1923 493 m -9 Y s 1962 502 m -18 Y s 2000 493 m -9 Y s 2039 493 m -9 Y s 2077 493 m -9 Y s 2116 493 m -9 Y s 2154 502 m
 -18 Y s
 gsave  2268 1103 0 472 C 2060.48 408.544 t 0 r /Helvetica findfont 29.6365 sf 0 0 m (\) [GeV]) show NC gr 
 gsave  2268 1103 0 472 C 2051.6 390.781 t 0 r /Helvetica findfont 20.7455 sf 0 0 m (1) show NC gr 
 gsave  2268 1103 0 472 C 2001.27 408.544 t 0 r /Helvetica findfont 29.6365 sf 0 0 m (\(lep) show NC gr 
 gsave  2268 1103 0 472 C 1986.47 387.821 t 0 r /Helvetica findfont 20.7455 sf 0 0 m (T) show NC gr 
 gsave  2268 1103 0 472 C 1968.71 408.544 t 0 r /Helvetica-Oblique findfont 29.6365 sf 0 0 m (p) show NC gr  227 1520 m 1927 X s 227 1501 m 19 Y s 265 1510 m 10 Y s 304 1510 m 10 Y s 342 1510 m 10 Y s 381 1510 m 10 Y s 420 1501 m 19 Y s 458 1510 m 10
 Y s 497 1510 m 10 Y s 535 1510 m 10 Y s 574 1510 m 10 Y s 612 1501 m 19 Y s 651 1510 m 10 Y s 689 1510 m 10 Y s 728 1510 m 10 Y s 766 1510 m 10 Y s 805 1501 m 19 Y s 844 1510 m 10 Y s 882 1510 m 10 Y s 921 1510 m 10 Y s 959 1510 m 10 Y s 998 1501 m
 19 Y s 1036 1510 m 10 Y s 1075 1510 m 10 Y s 1113 1510 m 10 Y s 1152 1510 m 10 Y s 1191 1501 m 19 Y s 1229 1510 m 10 Y s 1268 1510 m 10 Y s 1306 1510 m 10 Y s 1345 1510 m 10 Y s 1383 1501 m 19 Y s 1422 1510 m 10 Y s 1460 1510 m 10 Y s 1499 1510 m 10
 Y s 1538 1510 m 10 Y s 1576 1501 m 19 Y s 1615 1510 m 10 Y s 1653 1510 m 10 Y s 1692 1510 m 10 Y s 1730 1510 m 10 Y s 1769 1501 m 19 Y s 1807 1510 m 10 Y s 1846 1510 m 10 Y s 1884 1510 m 10 Y s 1923 1510 m 10 Y s 1962 1501 m 19 Y s 2000 1510 m 10 Y
 s 2039 1510 m 10 Y s 2077 1510 m 10 Y s 2116 1510 m 10 Y s 2154 1501 m 19 Y s 227 484 m 1036 Y s 248 655 m -21 X s 237 698 m -10 X s 237 741 m -10 X s 237 784 m -10 X s 248 827 m -21 X s 237 870 m -10 X s 237 913 m -10 X s 237 956 m -10 X s 248 999
 m -21 X s 237 1042 m -10 X s 237 1085 m -10 X s 237 1128 m -10 X s 248 1171 m -21 X s 237 1214 m -10 X s 237 1257 m -10 X s 237 1300 m -10 X s 248 1343 m -21 X s 237 1386 m -10 X s 237 1429 m -10 X s 237 1472 m -10 X s 248 1515 m -21 X s 248 655 m
 -21 X s 237 612 m -10 X s 237 569 m -10 X s 237 526 m -10 X s 248 1515 m -21 X s
 gsave  2268 1103 0 472 C 145.063 636.5 t 0 r /Helvetica findfont 50.382 sf 0 0 m (20) show NC gr 
 gsave  2268 1103 0 472 C 145.063 808.207 t 0 r /Helvetica findfont 50.382 sf 0 0 m (40) show NC gr 
 gsave  2268 1103 0 472 C 145.063 979.914 t 0 r /Helvetica findfont 50.382 sf 0 0 m (60) show NC gr 
 gsave  2268 1103 0 472 C 145.063 1151.62 t 0 r /Helvetica findfont 50.382 sf 0 0 m (80) show NC gr 
 gsave  2268 1103 0 472 C 118.419 1323.33 t 0 r /Helvetica findfont 50.382 sf 0 0 m (100) show NC gr 
 gsave  2268 1103 0 472 C 118.419 1495.04 t 0 r /Helvetica findfont 50.382 sf 0 0 m (120) show NC gr 
 gsave  2268 1103 0 472 C 62.1698 1154.58 t 90 r /Helvetica findfont 50.382 sf 0 0 m (Events / 50 GeV) show NC gr  2154 484 m 1036 Y s 2133 655 m 21 X s 2144 698 m 10 X s 2144 741 m 10 X s 2144 784 m 10 X s 2133 827 m 21 X s 2144 870 m 10 X s 2144
 913 m 10 X s 2144 956 m 10 X s 2133 999 m 21 X s 2144 1042 m 10 X s 2144 1085 m 10 X s 2144 1128 m 10 X s 2133 1171 m 21 X s 2144 1214 m 10 X s 2144 1257 m 10 X s 2144 1300 m 10 X s 2133 1343 m 21 X s 2144 1386 m 10 X s 2144 1429 m 10 X s 2144 1472
 m 10 X s 2133 1515 m 21 X s 2133 655 m 21 X s 2144 612 m 10 X s 2144 569 m 10 X s 2144 526 m 10 X s 2133 1515 m 21 X s 0.4 0.6 0.4 c black 3 lw 0.4 0.6 0.4 c 227 484 m 353 Y 193 X 61 Y 192 X -300 Y 193 X -64 Y 193 X -38 Y 193 X -4 Y 192 X -4 Y 193 X
 -3 Y 386 X 1 Y 192 X -2 Y f 0.06 0.54 0.06 c 0.999 0.999 0.999 c black 3 lw 0.999 0.999 0.999 c 227 484 m 217 Y 193 X 83 Y 192 X -204 Y 193 X -50 Y 193 X -35 Y 193 X -3 Y 192 X -4 Y 193 X -3 Y 386 X 1 Y 192 X -2 Y f 0.06 0.54 0.06 c 0.999 0.999
 0.999 c 0.06 0.54 0.06 c 1 1 1 c black 0.06 0.54 0.06 c black 3 lw 0.06 0.54 0.06 c 227 484 m 217 Y 193 X 83 Y 192 X -204 Y 193 X -50 Y 193 X -35 Y 193 X -3 Y 192 X -4 Y 193 X -3 Y 386 X 1 Y 192 X -2 Y f 1 0.653333 0 c 0.999 0.999 0.999 c black 3 lw
 0.999 0.999 0.999 c 227 484 m 216 Y 193 X 71 Y 192 X -196 Y 193 X -51 Y 193 X -29 Y 193 X -3 Y 192 X -6 Y 193 X -1 Y 386 X 1 Y 192 X -2 Y f 1 0.653333 0 c 0.999 0.999 0.999 c 1 0.653333 0 c 1 1 1 c black 1 0.653333 0 c black 3 lw 1 0.653333 0 c 227
 484 m 216 Y 193 X 71 Y 192 X -196 Y 193 X -51 Y 193 X -29 Y 193 X -3 Y 192 X -6 Y 193 X -1 Y 386 X 1 Y 192 X -2 Y f 0.413333 1 0 c 0.999 0.999 0.999 c black 3 lw 0.999 0.999 0.999 c 227 484 m 203 Y 193 X 56 Y 192 X -169 Y 193 X -50 Y 193 X -29 Y 193
 X -3 Y 192 X -6 Y 193 X -1 Y 386 X 1 Y 192 X -2 Y f 0.413333 1 0 c 0.999 0.999 0.999 c 0.413333 1 0 c 1 1 1 c black 0.413333 1 0 c black 3 lw 0.413333 1 0 c 227 484 m 203 Y 193 X 56 Y 192 X -169 Y 193 X -50 Y 193 X -29 Y 193 X -3 Y 192 X -6 Y 193 X
 -1 Y 386 X 1 Y 192 X -2 Y f 0.6 0.2 1 c 0.999 0.999 0.999 c black 3 lw 0.999 0.999 0.999 c 227 484 m 24 Y 193 X 11 Y 192 X -7 Y 193 X -17 Y 193 X -10 Y 385 X -1 Y 771 X f 0.6 0.2 1 c 0.999 0.999 0.999 c 0.6 0.2 1 c 1 1 1 c black 0.6 0.2 1 c black 3
 lw 0.6 0.2 1 c 227 484 m 24 Y 193 X 11 Y 192 X -7 Y 193 X -17 Y 193 X -10 Y 385 X -1 Y 771 X f 0.54 0.06 0.06 c 0.999 0.999 0.999 c black 3 lw 0.999 0.999 0.999 c 227 484 m 23 Y 193 X 9 Y 192 X -6 Y 193 X -15 Y 193 X -10 Y 385 X -1 Y 771 X f 0.54
 0.06 0.06 c 0.999 0.999 0.999 c 0.54 0.06 0.06 c 1 1 1 c black 0.54 0.06 0.06 c black 3 lw 0.54 0.06 0.06 c 227 484 m 23 Y 193 X 9 Y 192 X -6 Y 193 X -15 Y 193 X -10 Y 385 X -1 Y 771 X f 1 0 1 c 0.999 0.999 0.999 c black 3 lw 0.999 0.999 0.999 c 227
 484 m 19 Y 193 X 1 Y 385 X -12 Y 193 X -8 Y 1156 X f 1 0 1 c 0.999 0.999 0.999 c 1 0 1 c 1 1 1 c black 1 0 1 c black 3 lw 1 0 1 c 227 484 m 19 Y 193 X 1 Y 385 X -12 Y 193 X -8 Y 1156 X f 0 0 1 c 0.999 0.999 0.999 c black 3 lw 0.999 0.999 0.999 c 227
 484 m 15 Y 193 X -1 Y 192 X 4 Y 193 X -10 Y 193 X -8 Y 1156 X f 0 0 1 c 0.999 0.999 0.999 c 0 0 1 c 1 1 1 c black 0 0 1 c black 3 lw 0 0 1 c 227 484 m 15 Y 193 X -1 Y 192 X 4 Y 193 X -10 Y 193 X -8 Y 1156 X f 0.2 0.8 0.8 c 0.999 0.999 0.999 c black
 3 lw 0.999 0.999 0.999 c 227 484 m 14 Y 193 X -1 Y 192 X 4 Y 193 X -9 Y 193 X -8 Y 1156 X f 0.2 0.8 0.8 c 0.999 0.999 0.999 c 0.2 0.8 0.8 c 1 1 1 c black 0.2 0.8 0.8 c black 3 lw 0.2 0.8 0.8 c 227 484 m 14 Y 193 X -1 Y 192 X 4 Y 193 X -9 Y 193 X -8
 Y 1156 X f 1 0 0 c 0.999 0.999 0.999 c black 3 lw 0.999 0.999 0.999 c 227 484 m 14 Y 193 X -2 Y 192 X 5 Y 193 X -10 Y 193 X -7 Y 1156 X f 1 0 0 c 0.999 0.999 0.999 c 1 0 0 c 1 1 1 c black 1 0 0 c black 3 lw 1 0 0 c 227 484 m 14 Y 193 X -2 Y 192 X 5
 Y 193 X -10 Y 193 X -7 Y 1156 X f 1 0.84 0 c 0.999 0.999 0.999 c black 3 lw 0.999 0.999 0.999 c 227 484 m 14 Y 193 X -3 Y 192 X 6 Y 193 X -10 Y 193 X -7 Y 1156 X f 1 0.84 0 c 0.999 0.999 0.999 c 1 0.84 0 c 1 1 1 c black 1 0.84 0 c black 3 lw 1 0.84
 0 c 227 484 m 14 Y 193 X -3 Y 192 X 6 Y 193 X -10 Y 193 X -7 Y 1156 X f black 1 1 1 c black 0.6 0.6 0.6 c 3 lw 420 834 m -15 -15 d s 420 853 m -35 -34 d s 402 855 m -36 -36 d s 383 855 m -36 -36 d s 364 855 m -36 -36 d s 345 855 m -37 -36 d s 325
 855 m -36 -36 d s 306 855 m -36 -36 d s 287 855 m -36 -36 d s 268 855 m -36 -36 d s 248 855 m -21 -22 d s 229 855 m -2 -2 d s 3 lw 612 892 m -14 -15 d s 612 911 m -33 -34 d s 601 919 m -42 -42 d s 582 919 m -42 -42 d s 563 919 m -42 -42 d s 543 919
 m -41 -42 d s 524 919 m -42 -42 d s 505 919 m -42 -42 d s 486 919 m -42 -42 d s 466 919 m -41 -42 d s 447 919 m -27 -28 d s 428 919 m -8 -8 d s 3 lw 805 604 m -18 -18 d s 791 609 m -23 -23 d s 772 609 m -23 -23 d s 752 609 m -22 -23 d s 733 609 m
 -22 -23 d s 714 609 m -23 -23 d s 695 609 m -23 -23 d s 675 609 m -22 -23 d s 656 609 m -22 -23 d s 637 609 m -23 -23 d s 618 609 m -6 -5 d s 3 lw 998 527 m -3 -2 d s 993 542 m -17 -17 d s 974 542 m -17 -17 d s 955 542 m -17 -17 d s 935 542 m -16
 -17 d s 916 542 m -17 -17 d s 897 542 m -17 -17 d s 878 542 m -17 -17 d s 859 542 m -17 -17 d s 839 542 m -17 -17 d s 820 542 m -15 -15 d s 3 lw 1179 497 m -2 -3 d s 1159 497 m -2 -3 d s 1140 497 m -2 -3 d s 1121 497 m -2 -3 d s 1102 497 m -2 -3 d s
 1082 497 m -2 -3 d s 1063 497 m -2 -3 d s 1044 497 m -2 -3 d s 1025 497 m -2 -3 d s 1006 497 m -3 -3 d s 3 lw 1367 493 m -2 -2 d s 1348 493 m -2 -2 d s 1329 493 m -2 -2 d s 1310 493 m -2 -2 d s 1290 493 m -2 -2 d s 1271 493 m -2 -2 d s 1252 493 m -2
 -2 d s 1233 493 m -2 -2 d s 1213 493 m -1 -2 d s 1194 493 m -2 -2 d s 3 lw 1576 490 m -3 -3 d s 1557 490 m -4 -3 d s 1537 490 m -3 -3 d s 1518 490 m -3 -3 d s 1499 490 m -3 -3 d s 1480 490 m -3 -3 d s 1460 490 m -3 -3 d s 1441 490 m -3 -3 d s 1422
 490 m -3 -3 d s 1403 490 m -3 -3 d s 1383 490 m s 3 lw 1764 486 m -1 Y s 1745 486 m -1 -1 d s 1726 486 m -1 -1 d s 1707 486 m -1 -1 d s 1687 486 m -1 Y s 1668 486 m -1 -1 d s 1649 486 m -1 -1 d s 1630 486 m -1 -1 d s 1611 486 m -1 -1 d s 1591 486 m
 -1 -1 d s 3 lw 1956 485 m -1 -1 d s 1937 485 m -1 -1 d s 1917 485 m -1 Y s 1898 485 m -1 Y s 1879 485 m -1 -1 d s 1860 485 m -1 -1 d s 1841 485 m -1 -1 d s 1821 485 m -1 Y s 1802 485 m -1 Y s 1783 485 m -1 -1 d s 3 lw 2150 486 m -1 X s 2131 486 m -1
 X s 2111 486 m s 2092 486 m s 2073 486 m -1 X s 2054 486 m -1 X s 2034 486 m s 2015 486 m s 1996 486 m -1 X s 1977 486 m -1 X s black 3 lw 1 1 1 c black 323 908 m 53 Y s 323 985 m 53 Y s /w 24 def /w2 {w 2 div} def /w3 {w 3 div} def 323 973 m20 516
 836 m 48 Y s 516 908 m 47 Y s 516 896 m20 709 542 m 16 Y s 709 581 m 16 Y s 709 569 m20 901 514 m 9 Y s 901 547 m 9 Y s 901 535 m20 1094 488 m 1 Y s 1094 512 m 1 Y s 1094 501 m20 1287 494 m 3 Y s 1287 521 m 3 Y s 1287 509 m20 1480 492 m20 1672 492
 m20 2058 492 m20 227 484 m 1927 X s 227 502 m -18 Y s 265 493 m -9 Y s 304 493 m -9 Y s 342 493 m -9 Y s 381 493 m -9 Y s 420 502 m -18 Y s 458 493 m -9 Y s 497 493 m -9 Y s 535 493 m -9 Y s 574 493 m -9 Y s 612 502 m -18 Y s 651 493 m -9 Y s 689
 493 m -9 Y s 728 493 m -9 Y s 766 493 m -9 Y s 805 502 m -18 Y s 844 493 m -9 Y s 882 493 m -9 Y s 921 493 m -9 Y s 959 493 m -9 Y s 998 502 m -18 Y s 1036 493 m -9 Y s 1075 493 m -9 Y s 1113 493 m -9 Y s 1152 493 m -9 Y s 1191 502 m -18 Y s 1229
 493 m -9 Y s 1268 493 m -9 Y s 1306 493 m -9 Y s 1345 493 m -9 Y s 1383 502 m -18 Y s 1422 493 m -9 Y s 1460 493 m -9 Y s 1499 493 m -9 Y s 1538 493 m -9 Y s 1576 502 m -18 Y s 1615 493 m -9 Y s 1653 493 m -9 Y s 1692 493 m -9 Y s 1730 493 m -9 Y s
 1769 502 m -18 Y s 1807 493 m -9 Y s 1846 493 m -9 Y s 1884 493 m -9 Y s 1923 493 m -9 Y s 1962 502 m -18 Y s 2000 493 m -9 Y s 2039 493 m -9 Y s 2077 493 m -9 Y s 2116 493 m -9 Y s 2154 502 m -18 Y s 227 1520 m 1927 X s 227 1501 m 19 Y s 265 1510 m
 10 Y s 304 1510 m 10 Y s 342 1510 m 10 Y s 381 1510 m 10 Y s 420 1501 m 19 Y s 458 1510 m 10 Y s 497 1510 m 10 Y s 535 1510 m 10 Y s 574 1510 m 10 Y s 612 1501 m 19 Y s 651 1510 m 10 Y s 689 1510 m 10 Y s 728 1510 m 10 Y s 766 1510 m 10 Y s 805 1501
 m 19 Y s 844 1510 m 10 Y s 882 1510 m 10 Y s 921 1510 m 10 Y s 959 1510 m 10 Y s 998 1501 m 19 Y s 1036 1510 m 10 Y s 1075 1510 m 10 Y s 1113 1510 m 10 Y s 1152 1510 m 10 Y s 1191 1501 m 19 Y s 1229 1510 m 10 Y s 1268 1510 m 10 Y s 1306 1510 m 10 Y
 s 1345 1510 m 10 Y s 1383 1501 m 19 Y s 1422 1510 m 10 Y s 1460 1510 m 10 Y s 1499 1510 m 10 Y s 1538 1510 m 10 Y s 1576 1501 m 19 Y s 1615 1510 m 10 Y s 1653 1510 m 10 Y s 1692 1510 m 10 Y s 1730 1510 m 10 Y s 1769 1501 m 19 Y s 1807 1510 m 10 Y s
 1846 1510 m 10 Y s 1884 1510 m 10 Y s 1923 1510 m 10 Y s 1962 1501 m 19 Y s 2000 1510 m 10 Y s 2039 1510 m 10 Y s 2077 1510 m 10 Y s 2116 1510 m 10 Y s 2154 1501 m 19 Y s 227 484 m 1036 Y s 248 655 m -21 X s 237 698 m -10 X s 237 741 m -10 X s 237
 784 m -10 X s 248 827 m -21 X s 237 870 m -10 X s 237 913 m -10 X s 237 956 m -10 X s 248 999 m -21 X s 237 1042 m -10 X s 237 1085 m -10 X s 237 1128 m -10 X s 248 1171 m -21 X s 237 1214 m -10 X s 237 1257 m -10 X s 237 1300 m -10 X s 248 1343 m
 -21 X s 237 1386 m -10 X s 237 1429 m -10 X s 237 1472 m -10 X s 248 1515 m -21 X s 248 655 m -21 X s 237 612 m -10 X s 237 569 m -10 X s 237 526 m -10 X s 248 1515 m -21 X s 2154 484 m 1036 Y s 2133 655 m 21 X s 2144 698 m 10 X s 2144 741 m 10 X s
 2144 784 m 10 X s 2133 827 m 21 X s 2144 870 m 10 X s 2144 913 m 10 X s 2144 956 m 10 X s 2133 999 m 21 X s 2144 1042 m 10 X s 2144 1085 m 10 X s 2144 1128 m 10 X s 2133 1171 m 21 X s 2144 1214 m 10 X s 2144 1257 m 10 X s 2144 1300 m 10 X s 2133
 1343 m 21 X s 2144 1386 m 10 X s 2144 1429 m 10 X s 2144 1472 m 10 X s 2133 1515 m 21 X s 2133 655 m 21 X s 2144 612 m 10 X s 2144 569 m 10 X s 2144 526 m 10 X s 2133 1515 m 21 X s
 gsave  2268 1103 0 472 C 1314.45 1432.87 t 0 r /Helvetica findfont 56.3093 sf 0 0 m ( Data) show NC gr  1259 1456 m 7 Y s 1259 1432 m -7 Y s 1259 1444 m20
 gsave  2268 1103 0 472 C 1776.28 1432.87 t 0 r /Helvetica findfont 56.3093 sf 0 0 m ( Fakes \(MM\)) show NC gr  0.4 0.6 0.4 c 1682 1422 m 79 X 44 Y -79 X f black
 gsave  2268 1103 0 472 C 1403.26 1367.74 t 0 r /Helvetica findfont 56.3093 sf 0 0 m (single\255top) show NC gr 
 gsave  2268 1103 0 472 C 1373.66 1367.74 t 0 r /Helvetica-Oblique findfont 56.3093 sf 0 0 m (/) show NC gr 
 gsave  2268 1103 0 472 C 1352.93 1367.74 t 0 r /Helvetica-Oblique findfont 56.3093 sf 0 0 m (t) show NC gr  6 lw 1353 1412 m 21 X s
 gsave  2268 1103 0 472 C 1332.21 1367.74 t 0 r /Helvetica-Oblique findfont 56.3093 sf 0 0 m (t) show NC gr 
 gsave  2268 1103 0 472 C 1314.45 1367.74 t 0 r /Helvetica findfont 56.3093 sf 0 0 m ( ) show NC gr  0.06 0.54 0.06 c 3 lw 1219 1359 m 79 X 44 Y -79 X f 6 lw black
 gsave  2268 1103 0 472 C 1906.54 1367.74 t 0 r /Helvetica findfont 56.3093 sf 0 0 m (+jets) show NC gr 
 gsave  2268 1103 0 472 C 1794.04 1367.74 t 0 r /Helvetica-Oblique findfont 56.3093 sf 0 0 m (W/Z) show NC gr 
 gsave  2268 1103 0 472 C 1776.28 1367.74 t 0 r /Helvetica findfont 56.3093 sf 0 0 m ( ) show NC gr  1 0.653333 0 c 3 lw 1682 1359 m 79 X 44 Y -79 X f black
 gsave  2268 1103 0 472 C 1512.8 1305.57 t 0 r /Helvetica findfont 56.3093 sf 0 0 m (+jets) show NC gr 
 gsave  2268 1103 0 472 C 1332.21 1305.57 t 0 r /Helvetica-Oblique findfont 56.3093 sf 0 0 m (WZ/ZZ) show NC gr 
 gsave  2268 1103 0 472 C 1314.45 1305.57 t 0 r /Helvetica findfont 56.3093 sf 0 0 m ( ) show NC gr  0.413333 1 0 c 3 lw 1219 1296 m 79 X 44 Y -79 X f black
 gsave  2268 1103 0 472 C 1835.49 1305.57 t 0 r /Helvetica-Oblique findfont 56.3093 sf 0 0 m (Z) show NC gr 
 gsave  2268 1103 0 472 C 1814.77 1305.57 t 0 r /Helvetica-Oblique findfont 56.3093 sf 0 0 m (t) show NC gr  6 lw 1815 1350 m 20 X s
 gsave  2268 1103 0 472 C 1794.04 1305.57 t 0 r /Helvetica-Oblique findfont 56.3093 sf 0 0 m (t) show NC gr 
 gsave  2268 1103 0 472 C 1776.28 1305.57 t 0 r /Helvetica findfont 56.3093 sf 0 0 m ( ) show NC gr  0.6 0.2 1 c 3 lw 1682 1296 m 79 X 44 Y -79 X f 6 lw black
 gsave  2268 1103 0 472 C 1373.66 1243.4 t 0 r /Helvetica-Oblique findfont 56.3093 sf 0 0 m (W) show NC gr 
 gsave  2268 1103 0 472 C 1352.93 1243.4 t 0 r /Helvetica-Oblique findfont 56.3093 sf 0 0 m (t) show NC gr  6 lw 1353 1288 m 21 X s
 gsave  2268 1103 0 472 C 1332.21 1243.4 t 0 r /Helvetica-Oblique findfont 56.3093 sf 0 0 m (t) show NC gr 
 gsave  2268 1103 0 472 C 1314.45 1243.4 t 0 r /Helvetica findfont 56.3093 sf 0 0 m ( ) show NC gr  0.54 0.06 0.06 c 3 lw 1219 1233 m 79 X 44 Y -79 X f 6 lw black
 gsave  2268 1103 0 472 C 1794.04 1243.4 t 0 r /Helvetica-Oblique findfont 56.3093 sf 0 0 m (tZq) show NC gr 
 gsave  2268 1103 0 472 C 1776.28 1243.4 t 0 r /Helvetica findfont 56.3093 sf 0 0 m ( ) show NC gr  1 0 1 c 3 lw 1682 1233 m 79 X 44 Y -79 X f black
 gsave  2268 1103 0 472 C 1373.66 1178.27 t 0 r /Helvetica-Oblique findfont 56.3093 sf 0 0 m (H) show NC gr 
 gsave  2268 1103 0 472 C 1352.93 1178.27 t 0 r /Helvetica-Oblique findfont 56.3093 sf 0 0 m (t) show NC gr  6 lw 1353 1223 m 21 X s
 gsave  2268 1103 0 472 C 1332.21 1178.27 t 0 r /Helvetica-Oblique findfont 56.3093 sf 0 0 m (t) show NC gr 
 gsave  2268 1103 0 472 C 1314.45 1178.27 t 0 r /Helvetica findfont 56.3093 sf 0 0 m ( ) show NC gr  0 0 1 c 3 lw 1219 1170 m 79 X 44 Y -79 X f 6 lw black
 gsave  2268 1103 0 472 C 1794.04 1178.27 t 0 r /Helvetica-Oblique findfont 56.3093 sf 0 0 m (tWZ/tWH) show NC gr 
 gsave  2268 1103 0 472 C 1776.28 1178.27 t 0 r /Helvetica findfont 56.3093 sf 0 0 m ( ) show NC gr  0.2 0.8 0.8 c 3 lw 1682 1170 m 79 X 44 Y -79 X f black
 gsave  2268 1103 0 472 C 1332.21 1116.1 t 0 r /Helvetica-Oblique findfont 56.3093 sf 0 0 m (tHq) show NC gr 
 gsave  2268 1103 0 472 C 1314.45 1116.1 t 0 r /Helvetica findfont 56.3093 sf 0 0 m ( ) show NC gr  1 0 0 c 3 lw 1219 1107 m 79 X 44 Y -79 X f black
 gsave  2268 1103 0 472 C 1776.28 1116.1 t 0 r /Helvetica findfont 56.3093 sf 0 0 m ( Other) show NC gr  1 0.84 0 c 3 lw 1682 1107 m 79 X 44 Y -79 X f black
 gsave  2268 1103 0 472 C 1314.45 1053.93 t 0 r /Helvetica findfont 56.3093 sf 0 0 m ( Uncertainty) show NC gr  0.6 0.6 0.6 c 3 lw 1298 1058 m -13 -14 d s 1298 1077 m -33 -33 d s 1290 1088 m -44 -44 d s 1271 1088 m -44 -44 d s 1252 1088 m -33 -33 d s
 1233 1088 m -14 -13 d s 1 0.84 0 c 0.6 0.6 0.6 c black
 gsave  2268 1103 0 472 C 894.061 1329.25 t 0 r /Helvetica findfont 41.4911 sf 0 0 m (\2551) show NC gr 
 gsave  2268 1103 0 472 C 399.663 1299.64 t 0 r /Helvetica findfont 62.2366 sf 0 0 m ( = 13 TeV,  139 fb) show NC gr 
 gsave  2268 1103 0 472 C 370.058 1299.64 t 0 r /Helvetica findfont 62.2366 sf 0 0 m (s) show NC gr  6 lw 349 1335 m 6 -38 d s 3 lw 355 1297 m 6 56 d s 361 1353 m 39 X s
 gsave  2268 1103 0 472 C 337.493 1201.95 t 0 r /Helvetica findfont 62.2366 sf 0 0 m ( 2L\(SS\), VR\(di\255boson\)) show NC gr 
 gsave  2268 1103 0 472 C 337.493 1400.3 t 0 r /Helvetica-BoldOblique findfont 71.1276 sf 0 0 m (ATLAS) show NC gr 
 gsave  2268 1103 0 472 C 633.54 1400.3 t 0 r /Helvetica findfont 71.1276 sf 0 0 m (Internal) show NC gr 
 gr  gr showpage
end
%%EOF
