%!PS-Adobe-2.0 EPSF-2.0
%%BoundingBox:  0 0 567 394
%%Title: : LepPt1_CRfakes
%%Creator: ROOT Version 6.20/06
%%CreationDate: Mon May 30 19:25:21 2022
%%DocumentNeededResources: ProcSet (FontSetInit)
%%EndComments
%%BeginProlog
80 dict begin
/s {stroke} def /l {lineto} def /m {moveto} def /t {translate} def
/r {rotate} def /rl {roll}  def /R {repeat} def
/d {rlineto} def /rm {rmoveto} def /gr {grestore} def /f {eofill} def
/c {setrgbcolor} def /black {0 setgray} def /sd {setdash} def
/cl {closepath} def /sf {scalefont setfont} def /lw {setlinewidth} def
/box {m dup 0 exch d exch 0 d 0 exch neg d cl} def
/NC{systemdict begin initclip end}def/C{NC box clip newpath}def
/bl {box s} def /bf {gsave box gsave f grestore 1 lw [] 0 sd s grestore} def /Y { 0 exch d} def /X { 0 d} def 
/K {{pop pop 0 moveto} exch kshow} bind def
/ita {/ang 15 def gsave [1 0 ang dup sin exch cos div 1 0 0] concat} def 
/mp {newpath /y exch def /x exch def} def
/side {[w .77 mul w .23 mul] .385 w mul sd w 0 l currentpoint t -144 r} def
/mr {mp x y w2 0 360 arc} def /m24 {mr s} def /m20 {mr f} def
/mb {mp x y w2 add m w2 neg 0 d 0 w neg d w 0 d 0 w d cl} def
/mt {mp x y w2 add m w2 neg w neg d w 0 d cl} def
/w4 {w 4 div} def
/w6 {w 6 div} def
/w8 {w 8 div} def
/m21 {mb f} def /m25 {mb s} def /m22 {mt f} def /m26{mt s} def
/m23 {mp x y w2 sub m w2 w d w neg 0 d cl f} def
/m27 {mp x y w2 add m w3 neg w2 neg d w3 w2 neg d w3 w2 d cl s} def
/m28 {mp x w2 sub y w2 sub w3 add m w3 0 d  0 w3 neg d w3 0 d 0 w3 d w3 0 d  0 w3 d w3 neg 0 d 0 w3 d w3 neg 0 d 0 w3 neg d w3 neg 0 d cl s } def
/m29 {mp gsave x w2 sub y w2 add w3 sub m currentpoint t 4 {side} repeat cl fill gr} def
/m30 {mp gsave x w2 sub y w2 add w3 sub m currentpoint t 4 {side} repeat cl s gr} def
/m31 {mp x y w2 sub m 0 w d x w2 sub y m w 0 d x w2 sub y w2 add m w w neg d x w2 sub y w2 sub m w w d s} def
/m32 {mp x y w2 sub m w2 w d w neg 0 d cl s} def
/m33 {mp x y w2 add m w3 neg w2 neg d w3 w2 neg d w3 w2 d cl f} def
/m34 {mp x w2 sub y w2 sub w3 add m w3 0 d  0 w3 neg d w3 0 d 0 w3 d w3 0 d  0 w3 d w3 neg 0 d 0 w3 d w3 neg 0 d 0 w3 neg d w3 neg 0 d cl f } def
/m35 {mp x y w2 add m w2 neg w2 neg d w2 w2 neg d w2 w2 d w2 neg w2 d x y w2 sub m 0 w d x w2 sub y m w 0 d s} def
/m36 {mb x w2 sub y w2 add m w w neg d x w2 sub y w2 sub m w w d s} def
/m37 {mp x y m w4 neg w2 d w4 neg w2 neg d w2 0 d  w4 neg w2 neg d w2 0 d w4 neg w2 d w2 0 d w4 neg w2 d w4 neg w2 neg d cl s} def
/m38 {mp x w4 sub y w2 add m w4 neg w4 neg d 0 w2 neg d w4 w4 neg d w2 0 d w4 w4 d 0 w2 d w4 neg w4 d w2 neg 0 d x y w2 sub m 0 w d x w2 sub y m w 0 d cl s} def
/m39 {mp x y m w4 neg w2 d w4 neg w2 neg d w2 0 d  w4 neg w2 neg d w2 0 d w4 neg w2 d w2 0 d w4 neg w2 d w4 neg w2 neg d cl f} def
/m40 {mp x y m w4 w2 d w4 w4 neg d w2 neg w4 neg d w2 w4 neg d w4 neg w4 neg d w4 neg w2 d w4 neg w2 neg d w4 neg w4 d w2 w4 d w2 neg w4 d w4 w4 d w4 w2 neg d cl s} def
/m41 {mp x y m w4 w2 d w4 w4 neg d w2 neg w4 neg d w2 w4 neg d w4 neg w4 neg d w4 neg w2 d w4 neg w2 neg d w4 neg w4 d w2 w4 d w2 neg w4 d w4 w4 d w4 w2 neg d cl f} def
/m42 {mp x y w2 add m w8 neg w2 -3 4 div mul d w2 -3 4 div mul w8 neg d w2 3 4 div mul w8 neg d w8 w2 -3 4 div mul d w8 w2 3 4 div mul d w2 3 4 div mul w8 d w2 -3 4 div mul w8 d w8 neg w2 3 4 div mul d cl s} def
/m43 {mp x y w2 add m w8 neg w2 -3 4 div mul d w2 -3 4 div mul w8 neg d w2 3 4 div mul w8 neg d w8 w2 -3 4 div mul d w8 w2 3 4 div mul d w2 3 4 div mul w8 d w2 -3 4 div mul w8 d w8 neg w2 3 4 div mul d cl f} def
/m44 {mp x y m w6 neg w2 d w2 2 3 div mul 0 d w6 neg w2 neg d w2 w6 d 0 w2 -2 3 div mul d w2 neg w6 d w6 w2 neg d w2 -2 3 div mul 0 d w6 w2 d w2 neg w6 neg d 0 w2 2 3 div mul d w2 w6 neg d cl s} def
/m45 {mp x y m w6 neg w2 d w2 2 3 div mul 0 d w6 neg w2 neg d w2 w6 d 0 w2 -2 3 div mul d w2 neg w6 d w6 w2 neg d w2 -2 3 div mul 0 d w6 w2 d w2 neg w6 neg d 0 w2 2 3 div mul d w2 w6 neg d cl f} def
/m46 {mp x y w4 add m w4 neg w4 d w4 neg w4 neg d  w4 w4 neg d w4 neg w4 neg d w4 w4 neg d w4 w4 d w4 w4 neg d w4 w4 d w4 neg w4 d w4 w4 d w4 neg w4 d w4 neg w4 neg d cl s} def
/m47 {mp x y w4 add m w4 neg w4 d w4 neg w4 neg d w4 w4 neg d w4 neg w4 neg d  w4 w4 neg d w4 w4 d w4 w4 neg d w4 w4 d w4 neg w4 d w4 w4 d w4 neg w4 d w4 neg w4 neg d cl f} def
/m48 {mp x y w4 add m w4 neg w4 d w4 neg w4 neg d w4 w4 neg d  w4 neg w4 neg d w4 w4 neg d w4 w4 d w4 w4 neg d w4 w4 d w4 neg w4 d w4 w4 d w4 neg w4 d w4 neg w4 neg d  w4 w4 neg d w4 neg w4 neg d w4 neg w4 d w4 w4 d cl f} def
/m49 {mp x w2 sub w3 add y w2 sub w3 add m  0 w3 neg d w3 0 d 0 w3 d w3 0 d 0 w3 d w3 neg 0 d 0 w3 d w3 neg 0 d 0 w3 neg d w3 neg 0 d 0 w3 neg d w3 0 d 0 w3 d w3 0 d 0 w3 neg d w3 neg 0 d cl f } def
/m2 {mp x y w2 sub m 0 w d x w2 sub y m w 0 d s} def
/m5 {mp x w2 sub y w2 sub m w w d x w2 sub y w2 add m w w neg d s} def
%%IncludeResource: ProcSet (FontSetInit)
%%IncludeResource: font Times-Roman
%%IncludeResource: font Times-Italic
%%IncludeResource: font Times-Bold
%%IncludeResource: font Times-BoldItalic
%%IncludeResource: font Helvetica
%%IncludeResource: font Helvetica-Oblique
%%IncludeResource: font Helvetica-Bold
%%IncludeResource: font Helvetica-BoldOblique
%%IncludeResource: font Courier
%%IncludeResource: font Courier-Oblique
%%IncludeResource: font Courier-Bold
%%IncludeResource: font Courier-BoldOblique
%%IncludeResource: font Symbol
%%IncludeResource: font ZapfDingbats
/reEncode {exch findfont dup length dict begin {1 index /FID eq  {pop pop} {def} ifelse } forall /Encoding exch def currentdict end dup /FontName get exch definefont pop } def [/Times-Bold /Times-Italic /Times-BoldItalic /Helvetica /Helvetica-Oblique
 /Helvetica-Bold /Helvetica-BoldOblique /Courier /Courier-Oblique /Courier-Bold /Courier-BoldOblique /Times-Roman /AvantGarde-Book /AvantGarde-BookOblique /AvantGarde-Demi /AvantGarde-DemiOblique /Bookman-Demi /Bookman-DemiItalic /Bookman-Light
 /Bookman-LightItalic /Helvetica-Narrow /Helvetica-Narrow-Bold /Helvetica-Narrow-BoldOblique /Helvetica-Narrow-Oblique /NewCenturySchlbk-Roman /NewCenturySchlbk-Bold /NewCenturySchlbk-BoldItalic /NewCenturySchlbk-Italic /Palatino-Bold
 /Palatino-BoldItalic /Palatino-Italic /Palatino-Roman ] {ISOLatin1Encoding reEncode } forall
%%EndProlog
%%BeginSetup
%%EndSetup
newpath  gsave  .25 .25 scale  gsave  0 0 t black[  ] 0 sd 3 lw 1 1 1 c 2268 1575 0 0 bf black 1 1 1 c 2268 472 0 0 bf black 1 1 1 c 1927 274 227 189 bf black 1927 274 227 189 bl 227 189 m 1927 X s 227 201 m -12 Y s 265 195 m -6 Y s 304 195 m -6 Y s
 342 195 m -6 Y s 381 195 m -6 Y s 420 201 m -12 Y s 458 195 m -6 Y s 497 195 m -6 Y s 535 195 m -6 Y s 574 195 m -6 Y s 612 201 m -12 Y s 651 195 m -6 Y s 689 195 m -6 Y s 728 195 m -6 Y s 766 195 m -6 Y s 805 201 m -12 Y s 844 195 m -6 Y s 882 195
 m -6 Y s 921 195 m -6 Y s 959 195 m -6 Y s 998 201 m -12 Y s 1036 195 m -6 Y s 1075 195 m -6 Y s 1113 195 m -6 Y s 1152 195 m -6 Y s 1191 201 m -12 Y s 1229 195 m -6 Y s 1268 195 m -6 Y s 1306 195 m -6 Y s 1345 195 m -6 Y s 1383 201 m -12 Y s 1422
 195 m -6 Y s 1460 195 m -6 Y s 1499 195 m -6 Y s 1538 195 m -6 Y s 1576 201 m -12 Y s 1615 195 m -6 Y s 1653 195 m -6 Y s 1692 195 m -6 Y s 1730 195 m -6 Y s 1769 201 m -12 Y s 1807 195 m -6 Y s 1846 195 m -6 Y s 1884 195 m -6 Y s 1923 195 m -6 Y s
 1962 201 m -12 Y s 2000 195 m -6 Y s 2039 195 m -6 Y s 2077 195 m -6 Y s 2116 195 m -6 Y s 2154 201 m -12 Y s
 gsave  2268 472 0 0 C 210.193 127.3 t 0 r /Helvetica findfont 53.4895 sf 0 0 m (0) show NC gr 
 gsave  2268 472 0 0 C 387.821 127.3 t 0 r /Helvetica findfont 53.4895 sf 0 0 m (50) show NC gr 
 gsave  2268 472 0 0 C 565.449 127.3 t 0 r /Helvetica findfont 53.4895 sf 0 0 m (100) show NC gr 
 gsave  2268 472 0 0 C 757.879 127.3 t 0 r /Helvetica findfont 53.4895 sf 0 0 m (150) show NC gr 
 gsave  2268 472 0 0 C 953.27 127.3 t 0 r /Helvetica findfont 53.4895 sf 0 0 m (200) show NC gr 
 gsave  2268 472 0 0 C 1145.7 127.3 t 0 r /Helvetica findfont 53.4895 sf 0 0 m (250) show NC gr 
 gsave  2268 472 0 0 C 1338.13 127.3 t 0 r /Helvetica findfont 53.4895 sf 0 0 m (300) show NC gr 
 gsave  2268 472 0 0 C 1530.56 127.3 t 0 r /Helvetica findfont 53.4895 sf 0 0 m (350) show NC gr 
 gsave  2268 472 0 0 C 1722.99 127.3 t 0 r /Helvetica findfont 53.4895 sf 0 0 m (400) show NC gr 
 gsave  2268 472 0 0 C 1915.42 127.3 t 0 r /Helvetica findfont 53.4895 sf 0 0 m (450) show NC gr 
 gsave  2268 472 0 0 C 2107.85 127.3 t 0 r /Helvetica findfont 53.4895 sf 0 0 m (500) show NC gr 
 gsave  2268 472 0 0 C 1977.59 53.2884 t 0 r /Helvetica findfont 56.4611 sf 0 0 m (\) [GeV]) show NC gr 
 gsave  2268 472 0 0 C 1962.79 20.7233 t 0 r /Helvetica findfont 38.6313 sf 0 0 m (1) show NC gr 
 gsave  2268 472 0 0 C 1868.05 53.2884 t 0 r /Helvetica findfont 56.4611 sf 0 0 m (\(lep) show NC gr 
 gsave  2268 472 0 0 C 1844.37 20.7233 t 0 r /Helvetica findfont 38.6313 sf 0 0 m (T) show NC gr 
 gsave  2268 472 0 0 C 1808.84 53.2884 t 0 r /Helvetica-Oblique findfont 56.4611 sf 0 0 m (p) show NC gr  227 463 m 1927 X s 227 451 m 12 Y s 265 457 m 6 Y s 304 457 m 6 Y s 342 457 m 6 Y s 381 457 m 6 Y s 420 451 m 12 Y s 458 457 m 6 Y s 497 457 m 6
 Y s 535 457 m 6 Y s 574 457 m 6 Y s 612 451 m 12 Y s 651 457 m 6 Y s 689 457 m 6 Y s 728 457 m 6 Y s 766 457 m 6 Y s 805 451 m 12 Y s 844 457 m 6 Y s 882 457 m 6 Y s 921 457 m 6 Y s 959 457 m 6 Y s 998 451 m 12 Y s 1036 457 m 6 Y s 1075 457 m 6 Y s
 1113 457 m 6 Y s 1152 457 m 6 Y s 1191 451 m 12 Y s 1229 457 m 6 Y s 1268 457 m 6 Y s 1306 457 m 6 Y s 1345 457 m 6 Y s 1383 451 m 12 Y s 1422 457 m 6 Y s 1460 457 m 6 Y s 1499 457 m 6 Y s 1538 457 m 6 Y s 1576 451 m 12 Y s 1615 457 m 6 Y s 1653 457
 m 6 Y s 1692 457 m 6 Y s 1730 457 m 6 Y s 1769 451 m 12 Y s 1807 457 m 6 Y s 1846 457 m 6 Y s 1884 457 m 6 Y s 1923 457 m 6 Y s 1962 451 m 12 Y s 2000 457 m 6 Y s 2039 457 m 6 Y s 2077 457 m 6 Y s 2116 457 m 6 Y s 2154 451 m 12 Y s 227 189 m 274 Y s
 240 240 m -13 X s 240 326 m -13 X s 240 412 m -13 X s 240 240 m -13 X s 240 412 m -13 X s
 gsave  2268 472 0 0 C 118.419 222.035 t 0 r /Helvetica findfont 53.4895 sf 0 0 m (0.5) show NC gr 
 gsave  2268 472 0 0 C 171.707 307.888 t 0 r /Helvetica findfont 53.4895 sf 0 0 m (1) show NC gr 
 gsave  2268 472 0 0 C 118.419 393.742 t 0 r /Helvetica findfont 53.4895 sf 0 0 m (1.5) show NC gr 
 gsave  2268 472 0 0 C 71.0512 230.916 t 90 r /Helvetica findfont 53.4895 sf 0 0 m (Data / SM) show NC gr  2154 189 m 274 Y s 2141 240 m 13 X s 2141 326 m 13 X s 2141 412 m 13 X s 2141 240 m 13 X s 2141 412 m 13 X s 227 189 m 1927 X s 227 463 m 1927
 X s 227 189 m 274 Y s[ 4 8] 0 sd 2154 240 m -1927 X s 2154 326 m -1927 X s 2154 412 m -1927 X s 2154 240 m -1927 X s 2154 412 m -1927 X s[  ] 0 sd 2154 189 m 274 Y s 1 1 0.6 c 193 0 227 326 bf 192 0 420 326 bf 193 0 612 326 bf 193 0 805 326 bf 193 0
 998 326 bf 192 0 1191 326 bf 193 0 1383 326 bf 193 0 1576 326 bf 193 0 1769 326 bf 192 0 1962 326 bf black 0.6 0.6 0.6 c 420 325 m -3 -3 d s 406 330 m -8 -8 d s 386 330 m -7 -8 d s 367 330 m -7 -8 d s 348 330 m -8 -8 d s 329 330 m -8 -8 d s 309 330
 m -7 -8 d s 290 330 m -7 -8 d s 271 330 m -8 -8 d s 252 330 m -8 -8 d s 232 330 m -5 -6 d s 612 325 m -1 -2 d s 597 329 m -5 -6 d s 577 329 m -5 -6 d s 558 329 m -5 -6 d s 539 329 m -5 -6 d s 520 329 m -5 -6 d s 500 329 m -5 -6 d s 481 329 m -5 -6 d
 s 462 329 m -5 -6 d s 443 329 m -5 -6 d s 424 329 m -4 -4 d s 805 325 m -2 -2 d s 789 329 m -5 -6 d s 770 329 m -5 -6 d s 751 329 m -5 -6 d s 731 329 m -5 -6 d s 712 329 m -5 -6 d s 693 329 m -5 -6 d s 674 329 m -5 -6 d s 655 329 m -6 -6 d s 635 329
 m -5 -6 d s 616 329 m -4 -4 d s 998 326 m -3 -4 d s 983 330 m -8 -8 d s 963 330 m -7 -8 d s 944 330 m -7 -8 d s 925 330 m -7 -8 d s 906 330 m -8 -8 d s 886 330 m -7 -8 d s 867 330 m -7 -8 d s 848 330 m -7 -8 d s 829 330 m -7 -8 d s 809 330 m -4 -5 d
 s 1191 326 m -7 -6 d s 1178 332 m -13 -12 d s 1159 332 m -13 -12 d s 1139 332 m -12 -12 d s 1120 332 m -13 -12 d s 1101 332 m -13 -12 d s 1082 332 m -13 -12 d s 1062 332 m -12 -12 d s 1043 332 m -13 -12 d s 1024 332 m -13 -12 d s 1005 332 m -7 -6 d
 s 1383 326 m -9 -9 d s 1373 335 m -18 -18 d s 1354 335 m -19 -18 d s 1335 335 m -19 -18 d s 1315 335 m -18 -18 d s 1296 335 m -18 -18 d s 1277 335 m -19 -18 d s 1258 335 m -19 -18 d s 1238 335 m -18 -18 d s 1219 335 m -18 -18 d s 1200 335 m -9 -9 d
 s 1576 327 m -14 -14 d s 1570 339 m -27 -26 d s 1550 339 m -26 -26 d s 1531 339 m -27 -26 d s 1512 339 m -27 -26 d s 1493 339 m -27 -26 d s 1473 339 m -26 -26 d s 1454 339 m -27 -26 d s 1435 339 m -27 -26 d s 1416 339 m -27 -26 d s 1396 339 m -13
 -13 d s 1769 327 m -17 -17 d s 1765 342 m -33 -32 d s 1746 342 m -33 -32 d s 1727 342 m -33 -32 d s 1707 342 m -32 -32 d s 1688 342 m -33 -32 d s 1669 342 m -33 -32 d s 1650 342 m -33 -32 d s 1630 342 m -32 -32 d s 1611 342 m -32 -32 d s 1592 342 m
 -16 -15 d s 1962 327 m -19 -19 d s 1959 344 m -36 -36 d s 1940 344 m -36 -36 d s 1920 344 m -35 -36 d s 1901 344 m -35 -36 d s 1882 344 m -36 -36 d s 1863 344 m -36 -36 d s 1844 344 m -36 -36 d s 1824 344 m -35 -36 d s 1805 344 m -36 -36 d s 1786
 344 m -17 -17 d s 2154 328 m -7 -7 d s 2139 331 m -11 -10 d s 2120 331 m -11 -10 d s 2100 331 m -10 -10 d s 2081 331 m -11 -10 d s 2062 331 m -11 -10 d s 2043 331 m -11 -10 d s 2023 331 m -10 -10 d s 2004 331 m -10 -10 d s 1985 331 m -11 -10 d s
 1966 331 m -4 -4 d s black 1 1 1 c black /w 26 def /w2 {w 2 div} def /w3 {w 3 div} def 323 314 m20 516 317 m20 709 316 m20 901 321 m 1 Y s 901 346 m 1 Y s 901 334 m20 1094 315 m 9 Y s 1094 348 m 9 Y s 1094 336 m20 1287 326 m 19 Y s 1287 369 m 19 Y s
 1287 357 m20 1480 275 m 27 Y s 1480 325 m 27 Y s 1480 314 m20 1672 332 m 65 Y s 1672 420 m 43 Y s 1672 408 m20 1865 221 m 54 Y s 1865 299 m 54 Y s 1865 287 m20 2058 353 m 74 Y s 2058 451 m 12 Y s 2058 439 m20 227 326 m 1927 X s 227 189 m 1927 X s
 227 201 m -12 Y s 265 195 m -6 Y s 304 195 m -6 Y s 342 195 m -6 Y s 381 195 m -6 Y s 420 201 m -12 Y s 458 195 m -6 Y s 497 195 m -6 Y s 535 195 m -6 Y s 574 195 m -6 Y s 612 201 m -12 Y s 651 195 m -6 Y s 689 195 m -6 Y s 728 195 m -6 Y s 766 195
 m -6 Y s 805 201 m -12 Y s 844 195 m -6 Y s 882 195 m -6 Y s 921 195 m -6 Y s 959 195 m -6 Y s 998 201 m -12 Y s 1036 195 m -6 Y s 1075 195 m -6 Y s 1113 195 m -6 Y s 1152 195 m -6 Y s 1191 201 m -12 Y s 1229 195 m -6 Y s 1268 195 m -6 Y s 1306 195
 m -6 Y s 1345 195 m -6 Y s 1383 201 m -12 Y s 1422 195 m -6 Y s 1460 195 m -6 Y s 1499 195 m -6 Y s 1538 195 m -6 Y s 1576 201 m -12 Y s 1615 195 m -6 Y s 1653 195 m -6 Y s 1692 195 m -6 Y s 1730 195 m -6 Y s 1769 201 m -12 Y s 1807 195 m -6 Y s
 1846 195 m -6 Y s 1884 195 m -6 Y s 1923 195 m -6 Y s 1962 201 m -12 Y s 2000 195 m -6 Y s 2039 195 m -6 Y s 2077 195 m -6 Y s 2116 195 m -6 Y s 2154 201 m -12 Y s 227 463 m 1927 X s 227 451 m 12 Y s 265 457 m 6 Y s 304 457 m 6 Y s 342 457 m 6 Y s
 381 457 m 6 Y s 420 451 m 12 Y s 458 457 m 6 Y s 497 457 m 6 Y s 535 457 m 6 Y s 574 457 m 6 Y s 612 451 m 12 Y s 651 457 m 6 Y s 689 457 m 6 Y s 728 457 m 6 Y s 766 457 m 6 Y s 805 451 m 12 Y s 844 457 m 6 Y s 882 457 m 6 Y s 921 457 m 6 Y s 959
 457 m 6 Y s 998 451 m 12 Y s 1036 457 m 6 Y s 1075 457 m 6 Y s 1113 457 m 6 Y s 1152 457 m 6 Y s 1191 451 m 12 Y s 1229 457 m 6 Y s 1268 457 m 6 Y s 1306 457 m 6 Y s 1345 457 m 6 Y s 1383 451 m 12 Y s 1422 457 m 6 Y s 1460 457 m 6 Y s 1499 457 m 6 Y
 s 1538 457 m 6 Y s 1576 451 m 12 Y s 1615 457 m 6 Y s 1653 457 m 6 Y s 1692 457 m 6 Y s 1730 457 m 6 Y s 1769 451 m 12 Y s 1807 457 m 6 Y s 1846 457 m 6 Y s 1884 457 m 6 Y s 1923 457 m 6 Y s 1962 451 m 12 Y s 2000 457 m 6 Y s 2039 457 m 6 Y s 2077
 457 m 6 Y s 2116 457 m 6 Y s 2154 451 m 12 Y s 227 189 m 274 Y s 240 240 m -13 X s 240 326 m -13 X s 240 412 m -13 X s 240 240 m -13 X s 240 412 m -13 X s 2154 189 m 274 Y s 2141 240 m 13 X s 2141 326 m 13 X s 2141 412 m 13 X s 2141 240 m 13 X s
 2141 412 m 13 X s 1 1 1 c 2268 1103 0 472 bf black 1 1 1 c 1927 1036 227 484 bf black 1927 1036 227 484 bl 1 1 1 c black 3 lw 227 484 m 1927 X s 227 502 m -18 Y s 265 493 m -9 Y s 304 493 m -9 Y s 342 493 m -9 Y s 381 493 m -9 Y s 420 502 m -18 Y s
 458 493 m -9 Y s 497 493 m -9 Y s 535 493 m -9 Y s 574 493 m -9 Y s 612 502 m -18 Y s 651 493 m -9 Y s 689 493 m -9 Y s 728 493 m -9 Y s 766 493 m -9 Y s 805 502 m -18 Y s 844 493 m -9 Y s 882 493 m -9 Y s 921 493 m -9 Y s 959 493 m -9 Y s 998 502 m
 -18 Y s 1036 493 m -9 Y s 1075 493 m -9 Y s 1113 493 m -9 Y s 1152 493 m -9 Y s 1191 502 m -18 Y s 1229 493 m -9 Y s 1268 493 m -9 Y s 1306 493 m -9 Y s 1345 493 m -9 Y s 1383 502 m -18 Y s 1422 493 m -9 Y s 1460 493 m -9 Y s 1499 493 m -9 Y s 1538
 493 m -9 Y s 1576 502 m -18 Y s 1615 493 m -9 Y s 1653 493 m -9 Y s 1692 493 m -9 Y s 1730 493 m -9 Y s 1769 502 m -18 Y s 1807 493 m -9 Y s 1846 493 m -9 Y s 1884 493 m -9 Y s 1923 493 m -9 Y s 1962 502 m -18 Y s 2000 493 m -9 Y s 2039 493 m -9 Y s
 2077 493 m -9 Y s 2116 493 m -9 Y s 2154 502 m -18 Y s
 gsave  2268 1103 0 472 C 2060.48 408.544 t 0 r /Helvetica findfont 29.6365 sf 0 0 m (\) [GeV]) show NC gr 
 gsave  2268 1103 0 472 C 2051.6 390.781 t 0 r /Helvetica findfont 20.7455 sf 0 0 m (1) show NC gr 
 gsave  2268 1103 0 472 C 2001.27 408.544 t 0 r /Helvetica findfont 29.6365 sf 0 0 m (\(lep) show NC gr 
 gsave  2268 1103 0 472 C 1986.47 387.821 t 0 r /Helvetica findfont 20.7455 sf 0 0 m (T) show NC gr 
 gsave  2268 1103 0 472 C 1968.71 408.544 t 0 r /Helvetica-Oblique findfont 29.6365 sf 0 0 m (p) show NC gr  227 1520 m 1927 X s 227 1501 m 19 Y s 265 1510 m 10 Y s 304 1510 m 10 Y s 342 1510 m 10 Y s 381 1510 m 10 Y s 420 1501 m 19 Y s 458 1510 m 10
 Y s 497 1510 m 10 Y s 535 1510 m 10 Y s 574 1510 m 10 Y s 612 1501 m 19 Y s 651 1510 m 10 Y s 689 1510 m 10 Y s 728 1510 m 10 Y s 766 1510 m 10 Y s 805 1501 m 19 Y s 844 1510 m 10 Y s 882 1510 m 10 Y s 921 1510 m 10 Y s 959 1510 m 10 Y s 998 1501 m
 19 Y s 1036 1510 m 10 Y s 1075 1510 m 10 Y s 1113 1510 m 10 Y s 1152 1510 m 10 Y s 1191 1501 m 19 Y s 1229 1510 m 10 Y s 1268 1510 m 10 Y s 1306 1510 m 10 Y s 1345 1510 m 10 Y s 1383 1501 m 19 Y s 1422 1510 m 10 Y s 1460 1510 m 10 Y s 1499 1510 m 10
 Y s 1538 1510 m 10 Y s 1576 1501 m 19 Y s 1615 1510 m 10 Y s 1653 1510 m 10 Y s 1692 1510 m 10 Y s 1730 1510 m 10 Y s 1769 1501 m 19 Y s 1807 1510 m 10 Y s 1846 1510 m 10 Y s 1884 1510 m 10 Y s 1923 1510 m 10 Y s 1962 1501 m 19 Y s 2000 1510 m 10 Y
 s 2039 1510 m 10 Y s 2077 1510 m 10 Y s 2116 1510 m 10 Y s 2154 1501 m 19 Y s 227 484 m 1036 Y s 248 570 m -21 X s 237 591 m -10 X s 237 613 m -10 X s 237 634 m -10 X s 248 656 m -21 X s 237 677 m -10 X s 237 699 m -10 X s 237 720 m -10 X s 248 742
 m -21 X s 237 763 m -10 X s 237 785 m -10 X s 237 806 m -10 X s 248 828 m -21 X s 237 849 m -10 X s 237 871 m -10 X s 237 892 m -10 X s 248 914 m -21 X s 237 935 m -10 X s 237 957 m -10 X s 237 978 m -10 X s 248 1000 m -21 X s 237 1021 m -10 X s 237
 1043 m -10 X s 237 1064 m -10 X s 248 1086 m -21 X s 237 1107 m -10 X s 237 1129 m -10 X s 237 1150 m -10 X s 248 1172 m -21 X s 237 1193 m -10 X s 237 1215 m -10 X s 237 1236 m -10 X s 248 1258 m -21 X s 237 1279 m -10 X s 237 1301 m -10 X s 237
 1322 m -10 X s 248 1344 m -21 X s 237 1365 m -10 X s 237 1387 m -10 X s 237 1408 m -10 X s 248 1430 m -21 X s 237 1451 m -10 X s 237 1473 m -10 X s 237 1494 m -10 X s 248 1516 m -21 X s 248 570 m -21 X s 237 548 m -10 X s 237 527 m -10 X s 237 505 m
 -10 X s 248 1516 m -21 X s
 gsave  2268 1103 0 472 C 118.419 550.647 t 0 r /Helvetica findfont 50.382 sf 0 0 m (200) show NC gr 
 gsave  2268 1103 0 472 C 118.419 636.5 t 0 r /Helvetica findfont 50.382 sf 0 0 m (400) show NC gr 
 gsave  2268 1103 0 472 C 118.419 722.354 t 0 r /Helvetica findfont 50.382 sf 0 0 m (600) show NC gr 
 gsave  2268 1103 0 472 C 118.419 808.207 t 0 r /Helvetica findfont 50.382 sf 0 0 m (800) show NC gr 
 gsave  2268 1103 0 472 C 91.7744 894.061 t 0 r /Helvetica findfont 50.382 sf 0 0 m (1000) show NC gr 
 gsave  2268 1103 0 472 C 91.7744 979.914 t 0 r /Helvetica findfont 50.382 sf 0 0 m (1200) show NC gr 
 gsave  2268 1103 0 472 C 91.7744 1065.77 t 0 r /Helvetica findfont 50.382 sf 0 0 m (1400) show NC gr 
 gsave  2268 1103 0 472 C 91.7744 1151.62 t 0 r /Helvetica findfont 50.382 sf 0 0 m (1600) show NC gr 
 gsave  2268 1103 0 472 C 91.7744 1237.47 t 0 r /Helvetica findfont 50.382 sf 0 0 m (1800) show NC gr 
 gsave  2268 1103 0 472 C 91.7744 1323.33 t 0 r /Helvetica findfont 50.382 sf 0 0 m (2000) show NC gr 
 gsave  2268 1103 0 472 C 91.7744 1409.18 t 0 r /Helvetica findfont 50.382 sf 0 0 m (2200) show NC gr 
 gsave  2268 1103 0 472 C 91.7744 1498 t 0 r /Helvetica findfont 50.382 sf 0 0 m (2400) show NC gr 
 gsave  2268 1103 0 472 C 62.1698 1154.58 t 90 r /Helvetica findfont 50.382 sf 0 0 m (Events / 50 GeV) show NC gr  2154 484 m 1036 Y s 2133 570 m 21 X s 2144 591 m 10 X s 2144 613 m 10 X s 2144 634 m 10 X s 2133 656 m 21 X s 2144 677 m 10 X s 2144
 699 m 10 X s 2144 720 m 10 X s 2133 742 m 21 X s 2144 763 m 10 X s 2144 785 m 10 X s 2144 806 m 10 X s 2133 828 m 21 X s 2144 849 m 10 X s 2144 871 m 10 X s 2144 892 m 10 X s 2133 914 m 21 X s 2144 935 m 10 X s 2144 957 m 10 X s 2144 978 m 10 X s
 2133 1000 m 21 X s 2144 1021 m 10 X s 2144 1043 m 10 X s 2144 1064 m 10 X s 2133 1086 m 21 X s 2144 1107 m 10 X s 2144 1129 m 10 X s 2144 1150 m 10 X s 2133 1172 m 21 X s 2144 1193 m 10 X s 2144 1215 m 10 X s 2144 1236 m 10 X s 2133 1258 m 21 X s
 2144 1279 m 10 X s 2144 1301 m 10 X s 2144 1322 m 10 X s 2133 1344 m 21 X s 2144 1365 m 10 X s 2144 1387 m 10 X s 2144 1408 m 10 X s 2133 1430 m 21 X s 2144 1451 m 10 X s 2144 1473 m 10 X s 2144 1494 m 10 X s 2133 1516 m 21 X s 2133 570 m 21 X s
 2144 548 m 10 X s 2144 527 m 10 X s 2144 505 m 10 X s 2133 1516 m 21 X s 0.4 0.6 0.4 c black 3 lw 0.4 0.6 0.4 c 227 484 m 181 Y 193 X 233 Y 192 X -242 Y 193 X -96 Y 193 X -46 Y 193 X -15 Y 192 X -8 Y 193 X -4 Y 193 X -1 Y 385 X -2 Y f 0.06 0.54 0.06
 c 0.999 0.999 0.999 c black 3 lw 0.999 0.999 0.999 c 227 484 m 80 Y 193 X 199 Y 192 X -133 Y 193 X -76 Y 193 X -41 Y 193 X -15 Y 192 X -7 Y 193 X -5 Y 578 X -2 Y f 0.06 0.54 0.06 c 0.999 0.999 0.999 c 0.06 0.54 0.06 c 1 1 1 c black 0.06 0.54 0.06 c
 black 3 lw 0.06 0.54 0.06 c 227 484 m 80 Y 193 X 199 Y 192 X -133 Y 193 X -76 Y 193 X -41 Y 193 X -15 Y 192 X -7 Y 193 X -5 Y 578 X -2 Y f 1 0.653333 0 c 0.999 0.999 0.999 c black 3 lw 0.999 0.999 0.999 c 227 484 m 74 Y 193 X 155 Y 192 X -136 Y 193
 X -52 Y 193 X -23 Y 193 X -9 Y 192 X -5 Y 193 X -2 Y 193 X -1 Y 193 X 1 Y 192 X -2 Y f 1 0.653333 0 c 0.999 0.999 0.999 c 1 0.653333 0 c 1 1 1 c black 1 0.653333 0 c black 3 lw 1 0.653333 0 c 227 484 m 74 Y 193 X 155 Y 192 X -136 Y 193 X -52 Y 193 X
 -23 Y 193 X -9 Y 192 X -5 Y 193 X -2 Y 193 X -1 Y 193 X 1 Y 192 X -2 Y f 0.413333 1 0 c 0.999 0.999 0.999 c black 3 lw 0.999 0.999 0.999 c 227 484 m 66 Y 193 X 114 Y 192 X -101 Y 193 X -46 Y 193 X -20 Y 193 X -6 Y 192 X -4 Y 193 X -2 Y 578 X -1 Y f
 0.413333 1 0 c 0.999 0.999 0.999 c 0.413333 1 0 c 1 1 1 c black 0.413333 1 0 c black 3 lw 0.413333 1 0 c 227 484 m 66 Y 193 X 114 Y 192 X -101 Y 193 X -46 Y 193 X -20 Y 193 X -6 Y 192 X -4 Y 193 X -2 Y 578 X -1 Y f 0.6 0.2 1 c 0.999 0.999 0.999 c
 black 3 lw 0.999 0.999 0.999 c 227 484 m 47 Y 193 X 98 Y 192 X -79 Y 193 X -39 Y 193 X -16 Y 193 X -6 Y 192 X -3 Y 193 X -1 Y 193 X -1 Y 193 X 1 Y 192 X -1 Y f 0.6 0.2 1 c 0.999 0.999 0.999 c 0.6 0.2 1 c 1 1 1 c black 0.6 0.2 1 c black 3 lw 0.6 0.2
 1 c 227 484 m 47 Y 193 X 98 Y 192 X -79 Y 193 X -39 Y 193 X -16 Y 193 X -6 Y 192 X -3 Y 193 X -1 Y 193 X -1 Y 193 X 1 Y 192 X -1 Y f 0.54 0.06 0.06 c 0.999 0.999 0.999 c black 3 lw 0.999 0.999 0.999 c 227 484 m 41 Y 193 X 85 Y 192 X -70 Y 193 X -33
 Y 193 X -14 Y 193 X -4 Y 192 X -3 Y 193 X -1 Y 193 X -1 Y 193 X 1 Y 192 X -1 Y f 0.54 0.06 0.06 c 0.999 0.999 0.999 c 0.54 0.06 0.06 c 1 1 1 c black 0.54 0.06 0.06 c black 3 lw 0.54 0.06 0.06 c 227 484 m 41 Y 193 X 85 Y 192 X -70 Y 193 X -33 Y 193 X
 -14 Y 193 X -4 Y 192 X -3 Y 193 X -1 Y 193 X -1 Y 193 X 1 Y 192 X -1 Y f 1 0 1 c 0.999 0.999 0.999 c black 3 lw 0.999 0.999 0.999 c 227 484 m 11 Y 193 X 20 Y 192 X -20 Y 193 X -7 Y 193 X -3 Y 385 X -1 Y 771 X f 1 0 1 c 0.999 0.999 0.999 c 1 0 1 c 1
 1 1 c black 1 0 1 c black 3 lw 1 0 1 c 227 484 m 11 Y 193 X 20 Y 192 X -20 Y 193 X -7 Y 193 X -3 Y 385 X -1 Y 771 X f 0 0 1 c 0.999 0.999 0.999 c black 3 lw 0.999 0.999 0.999 c 227 484 m 9 Y 193 X 16 Y 192 X -16 Y 193 X -6 Y 193 X -2 Y 385 X -1 Y
 771 X f 0 0 1 c 0.999 0.999 0.999 c 0 0 1 c 1 1 1 c black 0 0 1 c black 3 lw 0 0 1 c 227 484 m 9 Y 193 X 16 Y 192 X -16 Y 193 X -6 Y 193 X -2 Y 385 X -1 Y 771 X f 0.2 0.8 0.8 c 0.999 0.999 0.999 c black 3 lw 0.999 0.999 0.999 c 227 484 m 2 Y 193 X 4
 Y 192 X -4 Y 193 X -1 Y 193 X -1 Y 1156 X f 0.2 0.8 0.8 c 0.999 0.999 0.999 c 0.2 0.8 0.8 c 1 1 1 c black 0.2 0.8 0.8 c black 3 lw 0.2 0.8 0.8 c 227 484 m 2 Y 193 X 4 Y 192 X -4 Y 193 X -1 Y 193 X -1 Y 1156 X f 1 0 0 c 0.999 0.999 0.999 c black 3 lw
 0.999 0.999 0.999 c 227 484 m 1 Y 193 X 3 Y 192 X -3 Y 386 X -1 Y 1156 X f 1 0 0 c 0.999 0.999 0.999 c 1 0 0 c 1 1 1 c black 1 0 0 c black 3 lw 1 0 0 c 227 484 m 1 Y 193 X 3 Y 192 X -3 Y 386 X -1 Y 1156 X f 1 0.84 0 c 0.999 0.999 0.999 c black 3 lw
 0.999 0.999 0.999 c 227 484 m 1 Y 193 X 2 Y 192 X -2 Y 386 X -1 Y 1156 X f 1 0.84 0 c 0.999 0.999 0.999 c 1 0.84 0 c 1 1 1 c black 1 0.84 0 c black 3 lw 1 0.84 0 c 227 484 m 1 Y 193 X 2 Y 192 X -2 Y 386 X -1 Y 1156 X f black 1 1 1 c black 0.6 0.6
 0.6 c 3 lw 409 669 m -8 -8 d s 389 669 m -8 -8 d s 370 669 m -8 -8 d s 351 669 m -8 -8 d s 332 669 m -8 -8 d s 312 669 m -8 -8 d s 293 669 m -8 -8 d s 274 669 m -8 -8 d s 255 669 m -8 -8 d s 236 669 m -8 -8 d s 3 lw 606 904 m -13 -12 d s 586 904 m
 -12 -12 d s 567 904 m -12 -12 d s 548 904 m -12 -12 d s 529 904 m -13 -12 d s 509 904 m -12 -12 d s 490 904 m -12 -12 d s 471 904 m -12 -12 d s 452 904 m -13 -12 d s 432 904 m -12 -12 d s 3 lw 802 658 m -5 -5 d s 783 658 m -6 -5 d s 763 658 m -5 -5
 d s 744 658 m -5 -5 d s 725 658 m -5 -5 d s 706 658 m -6 -5 d s 686 658 m -5 -5 d s 667 658 m -5 -5 d s 648 658 m -5 -5 d s 629 658 m -6 -5 d s 3 lw 993 561 m -3 -3 d s 974 561 m -3 -3 d s 955 561 m -3 -3 d s 935 561 m -3 -3 d s 916 561 m -3 -3 d s
 897 561 m -3 -3 d s 878 561 m -3 -3 d s 859 561 m -4 -3 d s 839 561 m -3 -3 d s 820 561 m -3 -3 d s 3 lw 1178 516 m -2 -3 d s 1159 516 m -2 -3 d s 1140 516 m -2 -3 d s 1121 516 m -3 -3 d s 1101 516 m -2 -3 d s 1082 516 m -2 -3 d s 1063 516 m -2 -3 d
 s 1044 516 m -3 -3 d s 1024 516 m -2 -3 d s 1005 516 m -2 -3 d s 3 lw 1374 500 m -1 -2 d s 1355 500 m -2 -2 d s 1336 500 m -2 -2 d s 1316 500 m -1 -2 d s 1297 500 m -1 -2 d s 1278 500 m -2 -2 d s 1259 500 m -2 -2 d s 1239 500 m -1 -2 d s 1220 500 m
 -1 -2 d s 1201 500 m -2 -2 d s 3 lw 1559 492 m -1 -1 d s 1540 492 m -2 -1 d s 1520 492 m -1 -1 d s 1501 492 m -1 -1 d s 1482 492 m -1 -1 d s 1463 492 m -2 -1 d s 1443 492 m -1 -1 d s 1424 492 m -1 -1 d s 1405 492 m -1 -1 d s 1386 492 m -1 -1 d s 3
 lw 1766 487 m -1 -1 d s 1746 487 m -1 Y s 1727 487 m -1 -1 d s 1708 487 m -1 -1 d s 1689 487 m -1 -1 d s 1669 487 m -1 Y s 1650 487 m -1 Y s 1631 487 m -1 -1 d s 1612 487 m -1 -1 d s 1592 487 m -1 Y s 3 lw 1957 486 m s 1938 486 m -1 X s 1918 486 m s
 1899 486 m s 1880 486 m s 1861 486 m -1 X s 1842 486 m -1 X s 1822 486 m s 1803 486 m s 1784 486 m -1 X s 3 lw 2150 486 m s 2131 486 m -1 X s 2111 486 m s 2092 486 m s 2073 486 m s 2054 486 m -1 X s 2034 486 m s 2015 486 m s 1996 486 m s 1977 486 m
 s black 3 lw 1 1 1 c black /w 24 def /w2 {w 2 div} def /w3 {w 3 div} def 323 652 m20 516 862 m 2 Y s 516 887 m 1 Y s 516 875 m20 709 646 m20 901 563 m20 1094 516 m20 1287 502 m20 1480 491 m20 1672 488 m20 1865 485 m20 2058 488 m20 227 484 m 1927 X s
 227 502 m -18 Y s 265 493 m -9 Y s 304 493 m -9 Y s 342 493 m -9 Y s 381 493 m -9 Y s 420 502 m -18 Y s 458 493 m -9 Y s 497 493 m -9 Y s 535 493 m -9 Y s 574 493 m -9 Y s 612 502 m -18 Y s 651 493 m -9 Y s 689 493 m -9 Y s 728 493 m -9 Y s 766 493
 m -9 Y s 805 502 m -18 Y s 844 493 m -9 Y s 882 493 m -9 Y s 921 493 m -9 Y s 959 493 m -9 Y s 998 502 m -18 Y s 1036 493 m -9 Y s 1075 493 m -9 Y s 1113 493 m -9 Y s 1152 493 m -9 Y s 1191 502 m -18 Y s 1229 493 m -9 Y s 1268 493 m -9 Y s 1306 493
 m -9 Y s 1345 493 m -9 Y s 1383 502 m -18 Y s 1422 493 m -9 Y s 1460 493 m -9 Y s 1499 493 m -9 Y s 1538 493 m -9 Y s 1576 502 m -18 Y s 1615 493 m -9 Y s 1653 493 m -9 Y s 1692 493 m -9 Y s 1730 493 m -9 Y s 1769 502 m -18 Y s 1807 493 m -9 Y s
 1846 493 m -9 Y s 1884 493 m -9 Y s 1923 493 m -9 Y s 1962 502 m -18 Y s 2000 493 m -9 Y s 2039 493 m -9 Y s 2077 493 m -9 Y s 2116 493 m -9 Y s 2154 502 m -18 Y s 227 1520 m 1927 X s 227 1501 m 19 Y s 265 1510 m 10 Y s 304 1510 m 10 Y s 342 1510 m
 10 Y s 381 1510 m 10 Y s 420 1501 m 19 Y s 458 1510 m 10 Y s 497 1510 m 10 Y s 535 1510 m 10 Y s 574 1510 m 10 Y s 612 1501 m 19 Y s 651 1510 m 10 Y s 689 1510 m 10 Y s 728 1510 m 10 Y s 766 1510 m 10 Y s 805 1501 m 19 Y s 844 1510 m 10 Y s 882 1510
 m 10 Y s 921 1510 m 10 Y s 959 1510 m 10 Y s 998 1501 m 19 Y s 1036 1510 m 10 Y s 1075 1510 m 10 Y s 1113 1510 m 10 Y s 1152 1510 m 10 Y s 1191 1501 m 19 Y s 1229 1510 m 10 Y s 1268 1510 m 10 Y s 1306 1510 m 10 Y s 1345 1510 m 10 Y s 1383 1501 m 19
 Y s 1422 1510 m 10 Y s 1460 1510 m 10 Y s 1499 1510 m 10 Y s 1538 1510 m 10 Y s 1576 1501 m 19 Y s 1615 1510 m 10 Y s 1653 1510 m 10 Y s 1692 1510 m 10 Y s 1730 1510 m 10 Y s 1769 1501 m 19 Y s 1807 1510 m 10 Y s 1846 1510 m 10 Y s 1884 1510 m 10 Y
 s 1923 1510 m 10 Y s 1962 1501 m 19 Y s 2000 1510 m 10 Y s 2039 1510 m 10 Y s 2077 1510 m 10 Y s 2116 1510 m 10 Y s 2154 1501 m 19 Y s 227 484 m 1036 Y s 248 570 m -21 X s 237 591 m -10 X s 237 613 m -10 X s 237 634 m -10 X s 248 656 m -21 X s 237
 677 m -10 X s 237 699 m -10 X s 237 720 m -10 X s 248 742 m -21 X s 237 763 m -10 X s 237 785 m -10 X s 237 806 m -10 X s 248 828 m -21 X s 237 849 m -10 X s 237 871 m -10 X s 237 892 m -10 X s 248 914 m -21 X s 237 935 m -10 X s 237 957 m -10 X s
 237 978 m -10 X s 248 1000 m -21 X s 237 1021 m -10 X s 237 1043 m -10 X s 237 1064 m -10 X s 248 1086 m -21 X s 237 1107 m -10 X s 237 1129 m -10 X s 237 1150 m -10 X s 248 1172 m -21 X s 237 1193 m -10 X s 237 1215 m -10 X s 237 1236 m -10 X s 248
 1258 m -21 X s 237 1279 m -10 X s 237 1301 m -10 X s 237 1322 m -10 X s 248 1344 m -21 X s 237 1365 m -10 X s 237 1387 m -10 X s 237 1408 m -10 X s 248 1430 m -21 X s 237 1451 m -10 X s 237 1473 m -10 X s 237 1494 m -10 X s 248 1516 m -21 X s 248
 570 m -21 X s 237 548 m -10 X s 237 527 m -10 X s 237 505 m -10 X s 248 1516 m -21 X s 2154 484 m 1036 Y s 2133 570 m 21 X s 2144 591 m 10 X s 2144 613 m 10 X s 2144 634 m 10 X s 2133 656 m 21 X s 2144 677 m 10 X s 2144 699 m 10 X s 2144 720 m 10 X
 s 2133 742 m 21 X s 2144 763 m 10 X s 2144 785 m 10 X s 2144 806 m 10 X s 2133 828 m 21 X s 2144 849 m 10 X s 2144 871 m 10 X s 2144 892 m 10 X s 2133 914 m 21 X s 2144 935 m 10 X s 2144 957 m 10 X s 2144 978 m 10 X s 2133 1000 m 21 X s 2144 1021 m
 10 X s 2144 1043 m 10 X s 2144 1064 m 10 X s 2133 1086 m 21 X s 2144 1107 m 10 X s 2144 1129 m 10 X s 2144 1150 m 10 X s 2133 1172 m 21 X s 2144 1193 m 10 X s 2144 1215 m 10 X s 2144 1236 m 10 X s 2133 1258 m 21 X s 2144 1279 m 10 X s 2144 1301 m 10
 X s 2144 1322 m 10 X s 2133 1344 m 21 X s 2144 1365 m 10 X s 2144 1387 m 10 X s 2144 1408 m 10 X s 2133 1430 m 21 X s 2144 1451 m 10 X s 2144 1473 m 10 X s 2144 1494 m 10 X s 2133 1516 m 21 X s 2133 570 m 21 X s 2144 548 m 10 X s 2144 527 m 10 X s
 2144 505 m 10 X s 2133 1516 m 21 X s
 gsave  2268 1103 0 472 C 1314.45 1432.87 t 0 r /Helvetica findfont 56.3093 sf 0 0 m ( Data) show NC gr  1259 1456 m 7 Y s 1259 1432 m -7 Y s 1259 1444 m20
 gsave  2268 1103 0 472 C 1776.28 1432.87 t 0 r /Helvetica findfont 56.3093 sf 0 0 m ( Fakes \(MM\)) show NC gr  0.4 0.6 0.4 c 1682 1422 m 79 X 44 Y -79 X f black
 gsave  2268 1103 0 472 C 1403.26 1367.74 t 0 r /Helvetica findfont 56.3093 sf 0 0 m (single\255top) show NC gr 
 gsave  2268 1103 0 472 C 1373.66 1367.74 t 0 r /Helvetica-Oblique findfont 56.3093 sf 0 0 m (/) show NC gr 
 gsave  2268 1103 0 472 C 1352.93 1367.74 t 0 r /Helvetica-Oblique findfont 56.3093 sf 0 0 m (t) show NC gr  6 lw 1353 1412 m 21 X s
 gsave  2268 1103 0 472 C 1332.21 1367.74 t 0 r /Helvetica-Oblique findfont 56.3093 sf 0 0 m (t) show NC gr 
 gsave  2268 1103 0 472 C 1314.45 1367.74 t 0 r /Helvetica findfont 56.3093 sf 0 0 m ( ) show NC gr  0.06 0.54 0.06 c 3 lw 1219 1359 m 79 X 44 Y -79 X f 6 lw black
 gsave  2268 1103 0 472 C 1906.54 1367.74 t 0 r /Helvetica findfont 56.3093 sf 0 0 m (+jets) show NC gr 
 gsave  2268 1103 0 472 C 1794.04 1367.74 t 0 r /Helvetica-Oblique findfont 56.3093 sf 0 0 m (W/Z) show NC gr 
 gsave  2268 1103 0 472 C 1776.28 1367.74 t 0 r /Helvetica findfont 56.3093 sf 0 0 m ( ) show NC gr  1 0.653333 0 c 3 lw 1682 1359 m 79 X 44 Y -79 X f black
 gsave  2268 1103 0 472 C 1512.8 1305.57 t 0 r /Helvetica findfont 56.3093 sf 0 0 m (+jets) show NC gr 
 gsave  2268 1103 0 472 C 1332.21 1305.57 t 0 r /Helvetica-Oblique findfont 56.3093 sf 0 0 m (WZ/ZZ) show NC gr 
 gsave  2268 1103 0 472 C 1314.45 1305.57 t 0 r /Helvetica findfont 56.3093 sf 0 0 m ( ) show NC gr  0.413333 1 0 c 3 lw 1219 1296 m 79 X 44 Y -79 X f black
 gsave  2268 1103 0 472 C 1835.49 1305.57 t 0 r /Helvetica-Oblique findfont 56.3093 sf 0 0 m (Z) show NC gr 
 gsave  2268 1103 0 472 C 1814.77 1305.57 t 0 r /Helvetica-Oblique findfont 56.3093 sf 0 0 m (t) show NC gr  6 lw 1815 1350 m 20 X s
 gsave  2268 1103 0 472 C 1794.04 1305.57 t 0 r /Helvetica-Oblique findfont 56.3093 sf 0 0 m (t) show NC gr 
 gsave  2268 1103 0 472 C 1776.28 1305.57 t 0 r /Helvetica findfont 56.3093 sf 0 0 m ( ) show NC gr  0.6 0.2 1 c 3 lw 1682 1296 m 79 X 44 Y -79 X f 6 lw black
 gsave  2268 1103 0 472 C 1373.66 1243.4 t 0 r /Helvetica-Oblique findfont 56.3093 sf 0 0 m (W) show NC gr 
 gsave  2268 1103 0 472 C 1352.93 1243.4 t 0 r /Helvetica-Oblique findfont 56.3093 sf 0 0 m (t) show NC gr  6 lw 1353 1288 m 21 X s
 gsave  2268 1103 0 472 C 1332.21 1243.4 t 0 r /Helvetica-Oblique findfont 56.3093 sf 0 0 m (t) show NC gr 
 gsave  2268 1103 0 472 C 1314.45 1243.4 t 0 r /Helvetica findfont 56.3093 sf 0 0 m ( ) show NC gr  0.54 0.06 0.06 c 3 lw 1219 1233 m 79 X 44 Y -79 X f 6 lw black
 gsave  2268 1103 0 472 C 1794.04 1243.4 t 0 r /Helvetica-Oblique findfont 56.3093 sf 0 0 m (tZq) show NC gr 
 gsave  2268 1103 0 472 C 1776.28 1243.4 t 0 r /Helvetica findfont 56.3093 sf 0 0 m ( ) show NC gr  1 0 1 c 3 lw 1682 1233 m 79 X 44 Y -79 X f black
 gsave  2268 1103 0 472 C 1373.66 1178.27 t 0 r /Helvetica-Oblique findfont 56.3093 sf 0 0 m (H) show NC gr 
 gsave  2268 1103 0 472 C 1352.93 1178.27 t 0 r /Helvetica-Oblique findfont 56.3093 sf 0 0 m (t) show NC gr  6 lw 1353 1223 m 21 X s
 gsave  2268 1103 0 472 C 1332.21 1178.27 t 0 r /Helvetica-Oblique findfont 56.3093 sf 0 0 m (t) show NC gr 
 gsave  2268 1103 0 472 C 1314.45 1178.27 t 0 r /Helvetica findfont 56.3093 sf 0 0 m ( ) show NC gr  0 0 1 c 3 lw 1219 1170 m 79 X 44 Y -79 X f 6 lw black
 gsave  2268 1103 0 472 C 1794.04 1178.27 t 0 r /Helvetica-Oblique findfont 56.3093 sf 0 0 m (tWZ/tWH) show NC gr 
 gsave  2268 1103 0 472 C 1776.28 1178.27 t 0 r /Helvetica findfont 56.3093 sf 0 0 m ( ) show NC gr  0.2 0.8 0.8 c 3 lw 1682 1170 m 79 X 44 Y -79 X f black
 gsave  2268 1103 0 472 C 1332.21 1116.1 t 0 r /Helvetica-Oblique findfont 56.3093 sf 0 0 m (tHq) show NC gr 
 gsave  2268 1103 0 472 C 1314.45 1116.1 t 0 r /Helvetica findfont 56.3093 sf 0 0 m ( ) show NC gr  1 0 0 c 3 lw 1219 1107 m 79 X 44 Y -79 X f black
 gsave  2268 1103 0 472 C 1776.28 1116.1 t 0 r /Helvetica findfont 56.3093 sf 0 0 m ( Other) show NC gr  1 0.84 0 c 3 lw 1682 1107 m 79 X 44 Y -79 X f black
 gsave  2268 1103 0 472 C 1314.45 1053.93 t 0 r /Helvetica findfont 56.3093 sf 0 0 m ( Uncertainty) show NC gr  0.6 0.6 0.6 c 3 lw 1298 1058 m -13 -14 d s 1298 1077 m -33 -33 d s 1290 1088 m -44 -44 d s 1271 1088 m -44 -44 d s 1252 1088 m -33 -33 d s
 1233 1088 m -14 -13 d s 1 0.84 0 c 0.6 0.6 0.6 c black
 gsave  2268 1103 0 472 C 894.061 1329.25 t 0 r /Helvetica findfont 41.4911 sf 0 0 m (\2551) show NC gr 
 gsave  2268 1103 0 472 C 399.663 1299.64 t 0 r /Helvetica findfont 62.2366 sf 0 0 m ( = 13 TeV,  139 fb) show NC gr 
 gsave  2268 1103 0 472 C 370.058 1299.64 t 0 r /Helvetica findfont 62.2366 sf 0 0 m (s) show NC gr  6 lw 349 1335 m 6 -38 d s 3 lw 355 1297 m 6 56 d s 361 1353 m 39 X s
 gsave  2268 1103 0 472 C 337.493 1201.95 t 0 r /Helvetica findfont 62.2366 sf 0 0 m ( 2L\(SS\), CR\(fake\255el/mu\)) show NC gr 
 gsave  2268 1103 0 472 C 337.493 1400.3 t 0 r /Helvetica-BoldOblique findfont 71.1276 sf 0 0 m (ATLAS) show NC gr 
 gsave  2268 1103 0 472 C 633.54 1400.3 t 0 r /Helvetica findfont 71.1276 sf 0 0 m (Internal) show NC gr 
 gr  gr showpage
end
%%EOF
