%!PS-Adobe-2.0 EPSF-2.0
%%BoundingBox:  0 0 567 396
%%Title: : LepPt2_CRttbarEl
%%Creator: ROOT Version 6.20/06
%%CreationDate: Tue May 31 15:04:49 2022
%%DocumentNeededResources: ProcSet (FontSetInit)
%%EndComments
%%BeginProlog
80 dict begin
/s {stroke} def /l {lineto} def /m {moveto} def /t {translate} def
/r {rotate} def /rl {roll}  def /R {repeat} def
/d {rlineto} def /rm {rmoveto} def /gr {grestore} def /f {eofill} def
/c {setrgbcolor} def /black {0 setgray} def /sd {setdash} def
/cl {closepath} def /sf {scalefont setfont} def /lw {setlinewidth} def
/box {m dup 0 exch d exch 0 d 0 exch neg d cl} def
/NC{systemdict begin initclip end}def/C{NC box clip newpath}def
/bl {box s} def /bf {gsave box gsave f grestore 1 lw [] 0 sd s grestore} def /Y { 0 exch d} def /X { 0 d} def 
/K {{pop pop 0 moveto} exch kshow} bind def
/ita {/ang 15 def gsave [1 0 ang dup sin exch cos div 1 0 0] concat} def 
/mp {newpath /y exch def /x exch def} def
/side {[w .77 mul w .23 mul] .385 w mul sd w 0 l currentpoint t -144 r} def
/mr {mp x y w2 0 360 arc} def /m24 {mr s} def /m20 {mr f} def
/mb {mp x y w2 add m w2 neg 0 d 0 w neg d w 0 d 0 w d cl} def
/mt {mp x y w2 add m w2 neg w neg d w 0 d cl} def
/w4 {w 4 div} def
/w6 {w 6 div} def
/w8 {w 8 div} def
/m21 {mb f} def /m25 {mb s} def /m22 {mt f} def /m26{mt s} def
/m23 {mp x y w2 sub m w2 w d w neg 0 d cl f} def
/m27 {mp x y w2 add m w3 neg w2 neg d w3 w2 neg d w3 w2 d cl s} def
/m28 {mp x w2 sub y w2 sub w3 add m w3 0 d  0 w3 neg d w3 0 d 0 w3 d w3 0 d  0 w3 d w3 neg 0 d 0 w3 d w3 neg 0 d 0 w3 neg d w3 neg 0 d cl s } def
/m29 {mp gsave x w2 sub y w2 add w3 sub m currentpoint t 4 {side} repeat cl fill gr} def
/m30 {mp gsave x w2 sub y w2 add w3 sub m currentpoint t 4 {side} repeat cl s gr} def
/m31 {mp x y w2 sub m 0 w d x w2 sub y m w 0 d x w2 sub y w2 add m w w neg d x w2 sub y w2 sub m w w d s} def
/m32 {mp x y w2 sub m w2 w d w neg 0 d cl s} def
/m33 {mp x y w2 add m w3 neg w2 neg d w3 w2 neg d w3 w2 d cl f} def
/m34 {mp x w2 sub y w2 sub w3 add m w3 0 d  0 w3 neg d w3 0 d 0 w3 d w3 0 d  0 w3 d w3 neg 0 d 0 w3 d w3 neg 0 d 0 w3 neg d w3 neg 0 d cl f } def
/m35 {mp x y w2 add m w2 neg w2 neg d w2 w2 neg d w2 w2 d w2 neg w2 d x y w2 sub m 0 w d x w2 sub y m w 0 d s} def
/m36 {mb x w2 sub y w2 add m w w neg d x w2 sub y w2 sub m w w d s} def
/m37 {mp x y m w4 neg w2 d w4 neg w2 neg d w2 0 d  w4 neg w2 neg d w2 0 d w4 neg w2 d w2 0 d w4 neg w2 d w4 neg w2 neg d cl s} def
/m38 {mp x w4 sub y w2 add m w4 neg w4 neg d 0 w2 neg d w4 w4 neg d w2 0 d w4 w4 d 0 w2 d w4 neg w4 d w2 neg 0 d x y w2 sub m 0 w d x w2 sub y m w 0 d cl s} def
/m39 {mp x y m w4 neg w2 d w4 neg w2 neg d w2 0 d  w4 neg w2 neg d w2 0 d w4 neg w2 d w2 0 d w4 neg w2 d w4 neg w2 neg d cl f} def
/m40 {mp x y m w4 w2 d w4 w4 neg d w2 neg w4 neg d w2 w4 neg d w4 neg w4 neg d w4 neg w2 d w4 neg w2 neg d w4 neg w4 d w2 w4 d w2 neg w4 d w4 w4 d w4 w2 neg d cl s} def
/m41 {mp x y m w4 w2 d w4 w4 neg d w2 neg w4 neg d w2 w4 neg d w4 neg w4 neg d w4 neg w2 d w4 neg w2 neg d w4 neg w4 d w2 w4 d w2 neg w4 d w4 w4 d w4 w2 neg d cl f} def
/m42 {mp x y w2 add m w8 neg w2 -3 4 div mul d w2 -3 4 div mul w8 neg d w2 3 4 div mul w8 neg d w8 w2 -3 4 div mul d w8 w2 3 4 div mul d w2 3 4 div mul w8 d w2 -3 4 div mul w8 d w8 neg w2 3 4 div mul d cl s} def
/m43 {mp x y w2 add m w8 neg w2 -3 4 div mul d w2 -3 4 div mul w8 neg d w2 3 4 div mul w8 neg d w8 w2 -3 4 div mul d w8 w2 3 4 div mul d w2 3 4 div mul w8 d w2 -3 4 div mul w8 d w8 neg w2 3 4 div mul d cl f} def
/m44 {mp x y m w6 neg w2 d w2 2 3 div mul 0 d w6 neg w2 neg d w2 w6 d 0 w2 -2 3 div mul d w2 neg w6 d w6 w2 neg d w2 -2 3 div mul 0 d w6 w2 d w2 neg w6 neg d 0 w2 2 3 div mul d w2 w6 neg d cl s} def
/m45 {mp x y m w6 neg w2 d w2 2 3 div mul 0 d w6 neg w2 neg d w2 w6 d 0 w2 -2 3 div mul d w2 neg w6 d w6 w2 neg d w2 -2 3 div mul 0 d w6 w2 d w2 neg w6 neg d 0 w2 2 3 div mul d w2 w6 neg d cl f} def
/m46 {mp x y w4 add m w4 neg w4 d w4 neg w4 neg d  w4 w4 neg d w4 neg w4 neg d w4 w4 neg d w4 w4 d w4 w4 neg d w4 w4 d w4 neg w4 d w4 w4 d w4 neg w4 d w4 neg w4 neg d cl s} def
/m47 {mp x y w4 add m w4 neg w4 d w4 neg w4 neg d w4 w4 neg d w4 neg w4 neg d  w4 w4 neg d w4 w4 d w4 w4 neg d w4 w4 d w4 neg w4 d w4 w4 d w4 neg w4 d w4 neg w4 neg d cl f} def
/m48 {mp x y w4 add m w4 neg w4 d w4 neg w4 neg d w4 w4 neg d  w4 neg w4 neg d w4 w4 neg d w4 w4 d w4 w4 neg d w4 w4 d w4 neg w4 d w4 w4 d w4 neg w4 d w4 neg w4 neg d  w4 w4 neg d w4 neg w4 neg d w4 neg w4 d w4 w4 d cl f} def
/m49 {mp x w2 sub w3 add y w2 sub w3 add m  0 w3 neg d w3 0 d 0 w3 d w3 0 d 0 w3 d w3 neg 0 d 0 w3 d w3 neg 0 d 0 w3 neg d w3 neg 0 d 0 w3 neg d w3 0 d 0 w3 d w3 0 d 0 w3 neg d w3 neg 0 d cl f } def
/m2 {mp x y w2 sub m 0 w d x w2 sub y m w 0 d s} def
/m5 {mp x w2 sub y w2 sub m w w d x w2 sub y w2 add m w w neg d s} def
%%IncludeResource: ProcSet (FontSetInit)
%%IncludeResource: font Times-Roman
%%IncludeResource: font Times-Italic
%%IncludeResource: font Times-Bold
%%IncludeResource: font Times-BoldItalic
%%IncludeResource: font Helvetica
%%IncludeResource: font Helvetica-Oblique
%%IncludeResource: font Helvetica-Bold
%%IncludeResource: font Helvetica-BoldOblique
%%IncludeResource: font Courier
%%IncludeResource: font Courier-Oblique
%%IncludeResource: font Courier-Bold
%%IncludeResource: font Courier-BoldOblique
%%IncludeResource: font Symbol
%%IncludeResource: font ZapfDingbats
/reEncode {exch findfont dup length dict begin {1 index /FID eq  {pop pop} {def} ifelse } forall /Encoding exch def currentdict end dup /FontName get exch definefont pop } def [/Times-Bold /Times-Italic /Times-BoldItalic /Helvetica /Helvetica-Oblique
 /Helvetica-Bold /Helvetica-BoldOblique /Courier /Courier-Oblique /Courier-Bold /Courier-BoldOblique /Times-Roman /AvantGarde-Book /AvantGarde-BookOblique /AvantGarde-Demi /AvantGarde-DemiOblique /Bookman-Demi /Bookman-DemiItalic /Bookman-Light
 /Bookman-LightItalic /Helvetica-Narrow /Helvetica-Narrow-Bold /Helvetica-Narrow-BoldOblique /Helvetica-Narrow-Oblique /NewCenturySchlbk-Roman /NewCenturySchlbk-Bold /NewCenturySchlbk-BoldItalic /NewCenturySchlbk-Italic /Palatino-Bold
 /Palatino-BoldItalic /Palatino-Italic /Palatino-Roman ] {ISOLatin1Encoding reEncode } forall
%%EndProlog
%%BeginSetup
%%EndSetup
newpath  gsave  .25 .25 scale  gsave  0 0 t black[  ] 0 sd 3 lw 1 1 1 c 2268 1583 0 0 bf black 1 1 1 c 2268 475 0 0 bf black 1 1 1 c 1927 275 227 190 bf black 1927 275 227 190 bl 227 190 m 1927 X s 227 202 m -12 Y s 304 196 m -6 Y s 381 196 m -6 Y s
 458 196 m -6 Y s 535 196 m -6 Y s 612 202 m -12 Y s 689 196 m -6 Y s 766 196 m -6 Y s 844 196 m -6 Y s 921 196 m -6 Y s 998 202 m -12 Y s 1075 196 m -6 Y s 1152 196 m -6 Y s 1229 196 m -6 Y s 1306 196 m -6 Y s 1383 202 m -12 Y s 1460 196 m -6 Y s
 1538 196 m -6 Y s 1615 196 m -6 Y s 1692 196 m -6 Y s 1769 202 m -12 Y s 1846 196 m -6 Y s 1923 196 m -6 Y s 2000 196 m -6 Y s 2077 196 m -6 Y s 2154 202 m -12 Y s
 gsave  2268 475 0 0 C 209.646 126.968 t 0 r /Helvetica findfont 53.4154 sf 0 0 m (0) show NC gr 
 gsave  2268 475 0 0 C 581.693 126.968 t 0 r /Helvetica findfont 53.4154 sf 0 0 m (50) show NC gr 
 gsave  2268 475 0 0 C 950.787 126.968 t 0 r /Helvetica findfont 53.4154 sf 0 0 m (100) show NC gr 
 gsave  2268 475 0 0 C 1337.6 126.968 t 0 r /Helvetica findfont 53.4154 sf 0 0 m (150) show NC gr 
 gsave  2268 475 0 0 C 1724.41 126.968 t 0 r /Helvetica findfont 53.4154 sf 0 0 m (200) show NC gr 
 gsave  2268 475 0 0 C 2108.27 126.968 t 0 r /Helvetica findfont 53.4154 sf 0 0 m (250) show NC gr 
 gsave  2268 475 0 0 C 1978.35 53.1496 t 0 r /Helvetica findfont 56.3829 sf 0 0 m (\) [GeV]) show NC gr 
 gsave  2268 475 0 0 C 1957.68 20.6693 t 0 r /Helvetica findfont 38.5778 sf 0 0 m (2) show NC gr 
 gsave  2268 475 0 0 C 1863.19 53.1496 t 0 r /Helvetica findfont 56.3829 sf 0 0 m (\(lep) show NC gr 
 gsave  2268 475 0 0 C 1839.57 20.6693 t 0 r /Helvetica findfont 38.5778 sf 0 0 m (T) show NC gr 
 gsave  2268 475 0 0 C 1804.13 53.1496 t 0 r /Helvetica-Oblique findfont 56.3829 sf 0 0 m (p) show NC gr  227 465 m 1927 X s 227 453 m 12 Y s 304 459 m 6 Y s 381 459 m 6 Y s 458 459 m 6 Y s 535 459 m 6 Y s 612 453 m 12 Y s 689 459 m 6 Y s 766 459 m 6
 Y s 844 459 m 6 Y s 921 459 m 6 Y s 998 453 m 12 Y s 1075 459 m 6 Y s 1152 459 m 6 Y s 1229 459 m 6 Y s 1306 459 m 6 Y s 1383 453 m 12 Y s 1460 459 m 6 Y s 1538 459 m 6 Y s 1615 459 m 6 Y s 1692 459 m 6 Y s 1769 453 m 12 Y s 1846 459 m 6 Y s 1923
 459 m 6 Y s 2000 459 m 6 Y s 2077 459 m 6 Y s 2154 453 m 12 Y s 227 190 m 275 Y s 240 242 m -13 X s 240 328 m -13 X s 240 414 m -13 X s 240 242 m -13 X s 240 414 m -13 X s
 gsave  2268 475 0 0 C 118.11 221.457 t 0 r /Helvetica findfont 53.4154 sf 0 0 m (0.5) show NC gr 
 gsave  2268 475 0 0 C 171.26 307.087 t 0 r /Helvetica findfont 53.4154 sf 0 0 m (1) show NC gr 
 gsave  2268 475 0 0 C 118.11 395.669 t 0 r /Helvetica findfont 53.4154 sf 0 0 m (1.5) show NC gr 
 gsave  2268 475 0 0 C 70.8661 233.268 t 90 r /Helvetica findfont 53.4154 sf 0 0 m (Data / SM) show NC gr  2154 190 m 275 Y s 2141 242 m 13 X s 2141 328 m 13 X s 2141 414 m 13 X s 2141 242 m 13 X s 2141 414 m 13 X s 227 190 m 1927 X s 227 465 m 1927
 X s 227 190 m 275 Y s[ 4 8] 0 sd 2154 242 m -1927 X s 2154 328 m -1927 X s 2154 414 m -1927 X s 2154 242 m -1927 X s 2154 414 m -1927 X s[  ] 0 sd 2154 190 m 275 Y s 1 1 0.6 c 193 0 227 328 bf 192 0 420 328 bf 193 0 612 328 bf 193 0 805 328 bf 193 0
 998 328 bf 192 0 1191 328 bf 193 0 1383 328 bf 193 0 1576 328 bf 193 0 1769 328 bf 192 0 1962 328 bf black 0.6 0.6 0.6 c 420 325 m -1 X s 406 331 m -6 -6 d s 387 331 m -6 -6 d s 367 331 m -5 -6 d s 348 331 m -6 -6 d s 329 331 m -6 -6 d s 310 331 m
 -6 -6 d s 290 331 m -5 -6 d s 271 331 m -6 -6 d s 252 331 m -6 -6 d s 233 331 m -6 -6 d s 597 329 m -3 -3 d s 578 329 m -4 -3 d s 559 329 m -4 -3 d s 539 329 m -3 -3 d s 520 329 m -3 -3 d s 501 329 m -4 -3 d s 482 329 m -4 -3 d s 463 329 m -4 -3 d s
 443 329 m -3 -3 d s 424 329 m -4 -3 d s 805 326 m -2 -2 d s 791 331 m -7 -7 d s 772 331 m -7 -7 d s 753 331 m -7 -7 d s 734 331 m -8 -7 d s 715 331 m -8 -7 d s 695 331 m -7 -7 d s 676 331 m -7 -7 d s 657 331 m -8 -7 d s 638 331 m -8 -7 d s 618 331 m
 -6 -6 d s 998 326 m -5 -5 d s 987 334 m -14 -13 d s 968 334 m -14 -13 d s 948 334 m -13 -13 d s 929 334 m -13 -13 d s 910 334 m -13 -13 d s 891 334 m -14 -13 d s 872 334 m -14 -13 d s 852 334 m -13 -13 d s 833 334 m -13 -13 d s 814 334 m -9 -8 d s
 1191 307 m -3 -3 d s 1191 326 m -23 -22 d s 1191 346 m -42 -42 d s 1177 351 m -47 -47 d s 1158 351 m -47 -47 d s 1138 351 m -47 -47 d s 1119 351 m -47 -47 d s 1100 351 m -47 -47 d s 1081 351 m -47 -47 d s 1062 351 m -48 -47 d s 1042 351 m -44 -44 d
 s 1023 351 m -25 -25 d s 1004 351 m -6 -6 d s 1365 328 m cl s 1346 328 m cl s 1327 328 m cl s 1307 328 m cl s 1288 328 m cl s 1269 328 m cl s 1250 328 m cl s 1230 328 m cl s 1211 328 m cl s 1192 328 m cl s 1557 328 m cl s 1538 328 m cl s 1519 328 m
 cl s 1500 328 m cl s 1481 328 m cl s 1461 328 m cl s 1442 328 m cl s 1423 328 m cl s 1404 328 m cl s 1384 328 m cl s 1750 328 m cl s 1731 328 m cl s 1711 328 m cl s 1692 328 m cl s 1673 328 m cl s 1654 328 m cl s 1634 328 m cl s 1615 328 m cl s 1596
 328 m cl s 1577 328 m cl s 1962 328 m cl s 1942 328 m cl s 1923 328 m cl s 1904 328 m cl s 1885 328 m cl s 1865 328 m cl s 1846 328 m cl s 1827 328 m cl s 1808 328 m cl s 1788 328 m cl s 1769 328 m cl s 2154 328 m cl s 2135 328 m cl s 2116 328 m cl
 s 2096 328 m cl s 2077 328 m cl s 2058 328 m cl s 2039 328 m cl s 2019 328 m cl s 2000 328 m cl s 1981 328 m cl s black 1 1 1 c black 323 281 m s 323 305 m s /w 26 def /w2 {w 2 div} def /w3 {w 3 div} def 323 293 m20 516 296 m20 709 317 m 2 Y s 709
 342 m 2 Y s 709 330 m20 901 337 m 14 Y s 901 375 m 13 Y s 901 363 m20 1094 318 m 87 Y s 1094 429 m 36 Y s 1094 417 m20 227 328 m 1927 X s 227 190 m 1927 X s 227 202 m -12 Y s 304 196 m -6 Y s 381 196 m -6 Y s 458 196 m -6 Y s 535 196 m -6 Y s 612
 202 m -12 Y s 689 196 m -6 Y s 766 196 m -6 Y s 844 196 m -6 Y s 921 196 m -6 Y s 998 202 m -12 Y s 1075 196 m -6 Y s 1152 196 m -6 Y s 1229 196 m -6 Y s 1306 196 m -6 Y s 1383 202 m -12 Y s 1460 196 m -6 Y s 1538 196 m -6 Y s 1615 196 m -6 Y s 1692
 196 m -6 Y s 1769 202 m -12 Y s 1846 196 m -6 Y s 1923 196 m -6 Y s 2000 196 m -6 Y s 2077 196 m -6 Y s 2154 202 m -12 Y s 227 465 m 1927 X s 227 453 m 12 Y s 304 459 m 6 Y s 381 459 m 6 Y s 458 459 m 6 Y s 535 459 m 6 Y s 612 453 m 12 Y s 689 459 m
 6 Y s 766 459 m 6 Y s 844 459 m 6 Y s 921 459 m 6 Y s 998 453 m 12 Y s 1075 459 m 6 Y s 1152 459 m 6 Y s 1229 459 m 6 Y s 1306 459 m 6 Y s 1383 453 m 12 Y s 1460 459 m 6 Y s 1538 459 m 6 Y s 1615 459 m 6 Y s 1692 459 m 6 Y s 1769 453 m 12 Y s 1846
 459 m 6 Y s 1923 459 m 6 Y s 2000 459 m 6 Y s 2077 459 m 6 Y s 2154 453 m 12 Y s 227 190 m 275 Y s 240 242 m -13 X s 240 328 m -13 X s 240 414 m -13 X s 240 242 m -13 X s 240 414 m -13 X s 2154 190 m 275 Y s 2141 242 m 13 X s 2141 328 m 13 X s 2141
 414 m 13 X s 2141 242 m 13 X s 2141 414 m 13 X s 1 1 1 c 2268 1108 0 475 bf black 1 1 1 c 1927 1041 227 486 bf black 1927 1041 227 486 bl 1 1 1 c black 3 lw 227 486 m 1927 X s 227 505 m -19 Y s 304 495 m -9 Y s 381 495 m -9 Y s 458 495 m -9 Y s 535
 495 m -9 Y s 612 505 m -19 Y s 689 495 m -9 Y s 766 495 m -9 Y s 844 495 m -9 Y s 921 495 m -9 Y s 998 505 m -19 Y s 1075 495 m -9 Y s 1152 495 m -9 Y s 1229 495 m -9 Y s 1306 495 m -9 Y s 1383 505 m -19 Y s 1460 495 m -9 Y s 1538 495 m -9 Y s 1615
 495 m -9 Y s 1692 495 m -9 Y s 1769 505 m -19 Y s 1846 495 m -9 Y s 1923 495 m -9 Y s 2000 495 m -9 Y s 2077 495 m -9 Y s 2154 505 m -19 Y s
 gsave  2268 1108 0 475 C 2049.21 407.48 t 0 r /Helvetica findfont 32.4976 sf 0 0 m (\) [GeV]) show NC gr 
 gsave  2268 1108 0 475 C 2037.4 389.764 t 0 r /Helvetica findfont 20.6803 sf 0 0 m (2) show NC gr 
 gsave  2268 1108 0 475 C 1981.3 407.48 t 0 r /Helvetica findfont 32.4976 sf 0 0 m (\(lep) show NC gr 
 gsave  2268 1108 0 475 C 1966.54 389.764 t 0 r /Helvetica findfont 20.6803 sf 0 0 m (T) show NC gr 
 gsave  2268 1108 0 475 C 1945.87 407.48 t 0 r /Helvetica-Oblique findfont 32.4976 sf 0 0 m (p) show NC gr  227 1527 m 1927 X s 227 1508 m 19 Y s 304 1518 m 9 Y s 381 1518 m 9 Y s 458 1518 m 9 Y s 535 1518 m 9 Y s 612 1508 m 19 Y s 689 1518 m 9 Y s
 766 1518 m 9 Y s 844 1518 m 9 Y s 921 1518 m 9 Y s 998 1508 m 19 Y s 1075 1518 m 9 Y s 1152 1518 m 9 Y s 1229 1518 m 9 Y s 1306 1518 m 9 Y s 1383 1508 m 19 Y s 1460 1518 m 9 Y s 1538 1518 m 9 Y s 1615 1518 m 9 Y s 1692 1518 m 9 Y s 1769 1508 m 19 Y
 s 1846 1518 m 9 Y s 1923 1518 m 9 Y s 2000 1518 m 9 Y s 2077 1518 m 9 Y s 2154 1508 m 19 Y s 227 486 m 1041 Y s 248 600 m -21 X s 237 622 m -10 X s 237 645 m -10 X s 237 668 m -10 X s 237 690 m -10 X s 248 713 m -21 X s 237 736 m -10 X s 237 759 m
 -10 X s 237 781 m -10 X s 237 804 m -10 X s 248 827 m -21 X s 237 850 m -10 X s 237 872 m -10 X s 237 895 m -10 X s 237 918 m -10 X s 248 940 m -21 X s 237 963 m -10 X s 237 986 m -10 X s 237 1009 m -10 X s 237 1031 m -10 X s 248 1054 m -21 X s 237
 1077 m -10 X s 237 1100 m -10 X s 237 1122 m -10 X s 237 1145 m -10 X s 248 1168 m -21 X s 237 1191 m -10 X s 237 1213 m -10 X s 237 1236 m -10 X s 237 1259 m -10 X s 248 1281 m -21 X s 237 1304 m -10 X s 237 1327 m -10 X s 237 1350 m -10 X s 237
 1372 m -10 X s 248 1395 m -21 X s 237 1418 m -10 X s 237 1441 m -10 X s 237 1463 m -10 X s 237 1486 m -10 X s 248 1509 m -21 X s 248 600 m -21 X s 237 577 m -10 X s 237 554 m -10 X s 237 531 m -10 X s 237 509 m -10 X s 248 1509 m -21 X s
 gsave  2268 1108 0 475 C 112.205 581.693 t 0 r /Helvetica findfont 53.178 sf 0 0 m (100) show NC gr 
 gsave  2268 1108 0 475 C 112.205 693.898 t 0 r /Helvetica findfont 53.178 sf 0 0 m (200) show NC gr 
 gsave  2268 1108 0 475 C 112.205 809.055 t 0 r /Helvetica findfont 53.178 sf 0 0 m (300) show NC gr 
 gsave  2268 1108 0 475 C 112.205 921.26 t 0 r /Helvetica findfont 53.178 sf 0 0 m (400) show NC gr 
 gsave  2268 1108 0 475 C 112.205 1036.42 t 0 r /Helvetica findfont 53.178 sf 0 0 m (500) show NC gr 
 gsave  2268 1108 0 475 C 112.205 1148.62 t 0 r /Helvetica findfont 53.178 sf 0 0 m (600) show NC gr 
 gsave  2268 1108 0 475 C 112.205 1260.83 t 0 r /Helvetica findfont 53.178 sf 0 0 m (700) show NC gr 
 gsave  2268 1108 0 475 C 112.205 1375.98 t 0 r /Helvetica findfont 53.178 sf 0 0 m (800) show NC gr 
 gsave  2268 1108 0 475 C 112.205 1488.19 t 0 r /Helvetica findfont 53.178 sf 0 0 m (900) show NC gr 
 gsave  2268 1108 0 475 C 64.9606 1142.72 t 90 r /Helvetica findfont 53.178 sf 0 0 m (Events / 25 GeV) show NC gr  2154 486 m 1041 Y s 2133 600 m 21 X s 2144 622 m 10 X s 2144 645 m 10 X s 2144 668 m 10 X s 2144 690 m 10 X s 2133 713 m 21 X s 2144
 736 m 10 X s 2144 759 m 10 X s 2144 781 m 10 X s 2144 804 m 10 X s 2133 827 m 21 X s 2144 850 m 10 X s 2144 872 m 10 X s 2144 895 m 10 X s 2144 918 m 10 X s 2133 940 m 21 X s 2144 963 m 10 X s 2144 986 m 10 X s 2144 1009 m 10 X s 2144 1031 m 10 X s
 2133 1054 m 21 X s 2144 1077 m 10 X s 2144 1100 m 10 X s 2144 1122 m 10 X s 2144 1145 m 10 X s 2133 1168 m 21 X s 2144 1191 m 10 X s 2144 1213 m 10 X s 2144 1236 m 10 X s 2144 1259 m 10 X s 2133 1281 m 21 X s 2144 1304 m 10 X s 2144 1327 m 10 X s
 2144 1350 m 10 X s 2144 1372 m 10 X s 2133 1395 m 21 X s 2144 1418 m 10 X s 2144 1441 m 10 X s 2144 1463 m 10 X s 2144 1486 m 10 X s 2133 1509 m 21 X s 2133 600 m 21 X s 2144 577 m 10 X s 2144 554 m 10 X s 2144 531 m 10 X s 2144 509 m 10 X s 2133
 1509 m 21 X s 0.4 0.6 0.4 c black 3 lw 0.4 0.6 0.4 c 227 486 m 179 Y 193 X 369 Y 192 X -360 Y 193 X -127 Y 193 X -56 Y 193 X -5 Y 963 X f 0.06 0.54 0.06 c 0.999 0.999 0.999 c black 3 lw 0.999 0.999 0.999 c 227 486 m 64 Y 193 X 213 Y 192 X -121 Y 193
 X -100 Y 193 X -51 Y 193 X -5 Y 963 X f 0.06 0.54 0.06 c 0.999 0.999 0.999 c 0.06 0.54 0.06 c 1 1 1 c black 0.06 0.54 0.06 c black 3 lw 0.06 0.54 0.06 c 227 486 m 64 Y 193 X 213 Y 192 X -121 Y 193 X -100 Y 193 X -51 Y 193 X -5 Y 963 X f 1 0.653333 0
 c 0.999 0.999 0.999 c black 3 lw 0.999 0.999 0.999 c 227 486 m 48 Y 193 X 139 Y 192 X -108 Y 193 X -59 Y 193 X -18 Y 193 X -2 Y 963 X f 1 0.653333 0 c 0.999 0.999 0.999 c 1 0.653333 0 c 1 1 1 c black 1 0.653333 0 c black 3 lw 1 0.653333 0 c 227 486
 m 48 Y 193 X 139 Y 192 X -108 Y 193 X -59 Y 193 X -18 Y 193 X -2 Y 963 X f 0.413333 1 0 c 0.999 0.999 0.999 c black 3 lw 0.999 0.999 0.999 c 227 486 m 42 Y 193 X 135 Y 192 X -103 Y 193 X -54 Y 193 X -19 Y 193 X -1 Y 963 X f 0.413333 1 0 c 0.999
 0.999 0.999 c 0.413333 1 0 c 1 1 1 c black 0.413333 1 0 c black 3 lw 0.413333 1 0 c 227 486 m 42 Y 193 X 135 Y 192 X -103 Y 193 X -54 Y 193 X -19 Y 193 X -1 Y 963 X f 0.6 0.2 1 c 0.999 0.999 0.999 c black 3 lw 0.999 0.999 0.999 c 227 486 m 34 Y 193
 X 112 Y 192 X -85 Y 193 X -44 Y 193 X -16 Y 193 X -1 Y 963 X f 0.6 0.2 1 c 0.999 0.999 0.999 c 0.6 0.2 1 c 1 1 1 c black 0.6 0.2 1 c black 3 lw 0.6 0.2 1 c 227 486 m 34 Y 193 X 112 Y 192 X -85 Y 193 X -44 Y 193 X -16 Y 193 X -1 Y 963 X f 0.54 0.06
 0.06 c 0.999 0.999 0.999 c black 3 lw 0.999 0.999 0.999 c 227 486 m 28 Y 193 X 96 Y 192 X -72 Y 193 X -38 Y 193 X -13 Y 193 X -1 Y 963 X f 0.54 0.06 0.06 c 0.999 0.999 0.999 c 0.54 0.06 0.06 c 1 1 1 c black 0.54 0.06 0.06 c black 3 lw 0.54 0.06 0.06
 c 227 486 m 28 Y 193 X 96 Y 192 X -72 Y 193 X -38 Y 193 X -13 Y 193 X -1 Y 963 X f 1 0 1 c 0.999 0.999 0.999 c black 3 lw 0.999 0.999 0.999 c 227 486 m 10 Y 193 X 28 Y 192 X -23 Y 193 X -11 Y 193 X -4 Y 1156 X f 1 0 1 c 0.999 0.999 0.999 c 1 0 1 c 1
 1 1 c black 1 0 1 c black 3 lw 1 0 1 c 227 486 m 10 Y 193 X 28 Y 192 X -23 Y 193 X -11 Y 193 X -4 Y 1156 X f 0 0 1 c 0.999 0.999 0.999 c black 3 lw 0.999 0.999 0.999 c 227 486 m 7 Y 193 X 17 Y 192 X -15 Y 193 X -7 Y 193 X -2 Y 1156 X f 0 0 1 c 0.999
 0.999 0.999 c 0 0 1 c 1 1 1 c black 0 0 1 c black 3 lw 0 0 1 c 227 486 m 7 Y 193 X 17 Y 192 X -15 Y 193 X -7 Y 193 X -2 Y 1156 X f 0.2 0.8 0.8 c 0.999 0.999 0.999 c black 3 lw 0.999 0.999 0.999 c 227 486 m 2 Y 193 X 4 Y 192 X -3 Y 193 X -3 Y 1349 X
 f 0.2 0.8 0.8 c 0.999 0.999 0.999 c 0.2 0.8 0.8 c 1 1 1 c black 0.2 0.8 0.8 c black 3 lw 0.2 0.8 0.8 c 227 486 m 2 Y 193 X 4 Y 192 X -3 Y 193 X -3 Y 1349 X f 1 0 0 c 0.999 0.999 0.999 c black 3 lw 0.999 0.999 0.999 c 227 486 m 2 Y 193 X 1 Y 192 X -1
 Y 193 X -2 Y 1349 X f 1 0 0 c 0.999 0.999 0.999 c 1 0 0 c 1 1 1 c black 1 0 0 c black 3 lw 1 0 0 c 227 486 m 2 Y 193 X 1 Y 192 X -1 Y 193 X -2 Y 1349 X f 1 0.84 0 c 0.999 0.999 0.999 c black 3 lw 0.999 0.999 0.999 c 227 486 m 1 Y 578 X -1 Y 1349 X f
 1 0.84 0 c 0.999 0.999 0.999 c 1 0.84 0 c 1 1 1 c black 1 0.84 0 c black 3 lw 1 0.84 0 c 227 486 m 1 Y 578 X -1 Y 1349 X f black 1 1 1 c black 0.6 0.6 0.6 c 3 lw 420 663 m -1 -1 d s 405 668 m -6 -6 d s 386 668 m -6 -6 d s 367 668 m -6 -6 d s 348 668
 m -6 -6 d s 328 668 m -6 -6 d s 309 668 m -6 -6 d s 290 668 m -6 -6 d s 271 668 m -6 -6 d s 251 668 m -6 -6 d s 232 668 m -5 -5 d s 3 lw 612 1028 m s 605 1040 m -12 -12 d s 586 1040 m -12 -12 d s 566 1040 m -12 -12 d s 547 1040 m -12 -12 d s 528
 1040 m -12 -12 d s 509 1040 m -12 -12 d s 489 1040 m -12 -12 d s 470 1040 m -12 -12 d s 451 1040 m -12 -12 d s 432 1040 m -12 -12 d s 3 lw 800 678 m -8 -8 d s 781 678 m -8 -8 d s 762 678 m -9 -8 d s 742 678 m -8 -8 d s 723 678 m -8 -8 d s 704 678 m
 -8 -8 d s 685 678 m -9 -8 d s 665 678 m -8 -8 d s 646 678 m -8 -8 d s 627 678 m -8 -8 d s 3 lw 998 549 m -4 -4 d s 979 550 m -4 -5 d s 960 550 m -5 -5 d s 941 550 m -5 -5 d s 922 550 m -5 -5 d s 902 550 m -4 -5 d s 883 550 m -5 -5 d s 864 550 m -5
 -5 d s 845 550 m -5 -5 d s 825 550 m -4 -5 d s 806 550 m -1 -2 d s 3 lw 1191 492 m -2 -2 d s 1172 492 m -2 -2 d s 1152 492 m -1 -2 d s 1133 492 m -1 -2 d s 1114 492 m -2 -2 d s 1095 492 m -2 -2 d s 1075 492 m -1 -2 d s 1056 492 m -1 -2 d s 1037 492
 m -2 -2 d s 1018 492 m -2 -2 d s 998 492 m -1 Y s black 3 lw 1 1 1 c black 323 616 m 1 Y s 323 641 m 1 Y s /w 24 def /w2 {w 2 div} def /w3 {w 3 div} def 323 629 m20 516 912 m 11 Y s 516 947 m 10 Y s 516 935 m20 709 662 m 3 Y s 709 689 m 3 Y s 709
 677 m20 901 560 m20 1094 494 m20 227 486 m 1927 X s 227 505 m -19 Y s 304 495 m -9 Y s 381 495 m -9 Y s 458 495 m -9 Y s 535 495 m -9 Y s 612 505 m -19 Y s 689 495 m -9 Y s 766 495 m -9 Y s 844 495 m -9 Y s 921 495 m -9 Y s 998 505 m -19 Y s 1075
 495 m -9 Y s 1152 495 m -9 Y s 1229 495 m -9 Y s 1306 495 m -9 Y s 1383 505 m -19 Y s 1460 495 m -9 Y s 1538 495 m -9 Y s 1615 495 m -9 Y s 1692 495 m -9 Y s 1769 505 m -19 Y s 1846 495 m -9 Y s 1923 495 m -9 Y s 2000 495 m -9 Y s 2077 495 m -9 Y s
 2154 505 m -19 Y s 227 1527 m 1927 X s 227 1508 m 19 Y s 304 1518 m 9 Y s 381 1518 m 9 Y s 458 1518 m 9 Y s 535 1518 m 9 Y s 612 1508 m 19 Y s 689 1518 m 9 Y s 766 1518 m 9 Y s 844 1518 m 9 Y s 921 1518 m 9 Y s 998 1508 m 19 Y s 1075 1518 m 9 Y s
 1152 1518 m 9 Y s 1229 1518 m 9 Y s 1306 1518 m 9 Y s 1383 1508 m 19 Y s 1460 1518 m 9 Y s 1538 1518 m 9 Y s 1615 1518 m 9 Y s 1692 1518 m 9 Y s 1769 1508 m 19 Y s 1846 1518 m 9 Y s 1923 1518 m 9 Y s 2000 1518 m 9 Y s 2077 1518 m 9 Y s 2154 1508 m
 19 Y s 227 486 m 1041 Y s 248 600 m -21 X s 237 622 m -10 X s 237 645 m -10 X s 237 668 m -10 X s 237 690 m -10 X s 248 713 m -21 X s 237 736 m -10 X s 237 759 m -10 X s 237 781 m -10 X s 237 804 m -10 X s 248 827 m -21 X s 237 850 m -10 X s 237 872
 m -10 X s 237 895 m -10 X s 237 918 m -10 X s 248 940 m -21 X s 237 963 m -10 X s 237 986 m -10 X s 237 1009 m -10 X s 237 1031 m -10 X s 248 1054 m -21 X s 237 1077 m -10 X s 237 1100 m -10 X s 237 1122 m -10 X s 237 1145 m -10 X s 248 1168 m -21 X
 s 237 1191 m -10 X s 237 1213 m -10 X s 237 1236 m -10 X s 237 1259 m -10 X s 248 1281 m -21 X s 237 1304 m -10 X s 237 1327 m -10 X s 237 1350 m -10 X s 237 1372 m -10 X s 248 1395 m -21 X s 237 1418 m -10 X s 237 1441 m -10 X s 237 1463 m -10 X s
 237 1486 m -10 X s 248 1509 m -21 X s 248 600 m -21 X s 237 577 m -10 X s 237 554 m -10 X s 237 531 m -10 X s 237 509 m -10 X s 248 1509 m -21 X s 2154 486 m 1041 Y s 2133 600 m 21 X s 2144 622 m 10 X s 2144 645 m 10 X s 2144 668 m 10 X s 2144 690 m
 10 X s 2133 713 m 21 X s 2144 736 m 10 X s 2144 759 m 10 X s 2144 781 m 10 X s 2144 804 m 10 X s 2133 827 m 21 X s 2144 850 m 10 X s 2144 872 m 10 X s 2144 895 m 10 X s 2144 918 m 10 X s 2133 940 m 21 X s 2144 963 m 10 X s 2144 986 m 10 X s 2144
 1009 m 10 X s 2144 1031 m 10 X s 2133 1054 m 21 X s 2144 1077 m 10 X s 2144 1100 m 10 X s 2144 1122 m 10 X s 2144 1145 m 10 X s 2133 1168 m 21 X s 2144 1191 m 10 X s 2144 1213 m 10 X s 2144 1236 m 10 X s 2144 1259 m 10 X s 2133 1281 m 21 X s 2144
 1304 m 10 X s 2144 1327 m 10 X s 2144 1350 m 10 X s 2144 1372 m 10 X s 2133 1395 m 21 X s 2144 1418 m 10 X s 2144 1441 m 10 X s 2144 1463 m 10 X s 2144 1486 m 10 X s 2133 1509 m 21 X s 2133 600 m 21 X s 2144 577 m 10 X s 2144 554 m 10 X s 2144 531 m
 10 X s 2144 509 m 10 X s 2133 1509 m 21 X s
 gsave  2268 1108 0 475 C 1313.98 1437.99 t 0 r /Helvetica findfont 56.1323 sf 0 0 m ( Data) show NC gr  1259 1463 m 7 Y s 1259 1440 m -8 Y s 1259 1451 m20
 gsave  2268 1108 0 475 C 1777.56 1437.99 t 0 r /Helvetica findfont 56.1323 sf 0 0 m ( Fakes \(MM\)) show NC gr  0.4 0.6 0.4 c 1682 1429 m 79 X 44 Y -79 X f black
 gsave  2268 1108 0 475 C 1402.56 1375.98 t 0 r /Helvetica findfont 56.1323 sf 0 0 m (single\255top) show NC gr 
 gsave  2268 1108 0 475 C 1373.03 1375.98 t 0 r /Helvetica-Oblique findfont 56.1323 sf 0 0 m (/) show NC gr 
 gsave  2268 1108 0 475 C 1352.36 1375.98 t 0 r /Helvetica-Oblique findfont 56.1323 sf 0 0 m (t) show NC gr  6 lw 1352 1420 m 21 X s
 gsave  2268 1108 0 475 C 1331.69 1375.98 t 0 r /Helvetica-Oblique findfont 56.1323 sf 0 0 m (t) show NC gr 
 gsave  2268 1108 0 475 C 1313.98 1375.98 t 0 r /Helvetica findfont 56.1323 sf 0 0 m ( ) show NC gr  0.06 0.54 0.06 c 3 lw 1219 1366 m 79 X 44 Y -79 X f 6 lw black
 gsave  2268 1108 0 475 C 1907.48 1375.98 t 0 r /Helvetica findfont 56.1323 sf 0 0 m (+jets) show NC gr 
 gsave  2268 1108 0 475 C 1795.28 1375.98 t 0 r /Helvetica-Oblique findfont 56.1323 sf 0 0 m (W/Z) show NC gr 
 gsave  2268 1108 0 475 C 1777.56 1375.98 t 0 r /Helvetica findfont 56.1323 sf 0 0 m ( ) show NC gr  1 0.653333 0 c 3 lw 1682 1366 m 79 X 44 Y -79 X f black
 gsave  2268 1108 0 475 C 1511.81 1311.02 t 0 r /Helvetica findfont 56.1323 sf 0 0 m (+jets) show NC gr 
 gsave  2268 1108 0 475 C 1331.69 1311.02 t 0 r /Helvetica-Oblique findfont 56.1323 sf 0 0 m (WZ/ZZ) show NC gr 
 gsave  2268 1108 0 475 C 1313.98 1311.02 t 0 r /Helvetica findfont 56.1323 sf 0 0 m ( ) show NC gr  0.413333 1 0 c 3 lw 1219 1303 m 79 X 44 Y -79 X f black
 gsave  2268 1108 0 475 C 1836.61 1311.02 t 0 r /Helvetica-Oblique findfont 56.1323 sf 0 0 m (Z) show NC gr 
 gsave  2268 1108 0 475 C 1815.94 1311.02 t 0 r /Helvetica-Oblique findfont 56.1323 sf 0 0 m (t) show NC gr  6 lw 1816 1355 m 21 X s
 gsave  2268 1108 0 475 C 1795.28 1311.02 t 0 r /Helvetica-Oblique findfont 56.1323 sf 0 0 m (t) show NC gr 
 gsave  2268 1108 0 475 C 1777.56 1311.02 t 0 r /Helvetica findfont 56.1323 sf 0 0 m ( ) show NC gr  0.6 0.2 1 c 3 lw 1682 1303 m 79 X 44 Y -79 X f 6 lw black
 gsave  2268 1108 0 475 C 1373.03 1249.02 t 0 r /Helvetica-Oblique findfont 56.1323 sf 0 0 m (W) show NC gr 
 gsave  2268 1108 0 475 C 1352.36 1249.02 t 0 r /Helvetica-Oblique findfont 56.1323 sf 0 0 m (t) show NC gr  6 lw 1352 1293 m 21 X s
 gsave  2268 1108 0 475 C 1331.69 1249.02 t 0 r /Helvetica-Oblique findfont 56.1323 sf 0 0 m (t) show NC gr 
 gsave  2268 1108 0 475 C 1313.98 1249.02 t 0 r /Helvetica findfont 56.1323 sf 0 0 m ( ) show NC gr  0.54 0.06 0.06 c 3 lw 1219 1239 m 79 X 45 Y -79 X f 6 lw black
 gsave  2268 1108 0 475 C 1795.28 1249.02 t 0 r /Helvetica-Oblique findfont 56.1323 sf 0 0 m (tZq) show NC gr 
 gsave  2268 1108 0 475 C 1777.56 1249.02 t 0 r /Helvetica findfont 56.1323 sf 0 0 m ( ) show NC gr  1 0 1 c 3 lw 1682 1239 m 79 X 45 Y -79 X f black
 gsave  2268 1108 0 475 C 1373.03 1184.06 t 0 r /Helvetica-Oblique findfont 56.1323 sf 0 0 m (H) show NC gr 
 gsave  2268 1108 0 475 C 1352.36 1184.06 t 0 r /Helvetica-Oblique findfont 56.1323 sf 0 0 m (t) show NC gr  6 lw 1352 1228 m 21 X s
 gsave  2268 1108 0 475 C 1331.69 1184.06 t 0 r /Helvetica-Oblique findfont 56.1323 sf 0 0 m (t) show NC gr 
 gsave  2268 1108 0 475 C 1313.98 1184.06 t 0 r /Helvetica findfont 56.1323 sf 0 0 m ( ) show NC gr  0 0 1 c 3 lw 1219 1176 m 79 X 44 Y -79 X f 6 lw black
 gsave  2268 1108 0 475 C 1795.28 1184.06 t 0 r /Helvetica-Oblique findfont 56.1323 sf 0 0 m (tWZ/tWH) show NC gr 
 gsave  2268 1108 0 475 C 1777.56 1184.06 t 0 r /Helvetica findfont 56.1323 sf 0 0 m ( ) show NC gr  0.2 0.8 0.8 c 3 lw 1682 1176 m 79 X 44 Y -79 X f black
 gsave  2268 1108 0 475 C 1331.69 1122.05 t 0 r /Helvetica-Oblique findfont 56.1323 sf 0 0 m (tHq) show NC gr 
 gsave  2268 1108 0 475 C 1313.98 1122.05 t 0 r /Helvetica findfont 56.1323 sf 0 0 m ( ) show NC gr  1 0 0 c 3 lw 1219 1113 m 79 X 44 Y -79 X f black
 gsave  2268 1108 0 475 C 1777.56 1122.05 t 0 r /Helvetica findfont 56.1323 sf 0 0 m ( Other) show NC gr  1 0.84 0 c 3 lw 1682 1113 m 79 X 44 Y -79 X f black
 gsave  2268 1108 0 475 C 1313.98 1060.04 t 0 r /Helvetica findfont 56.1323 sf 0 0 m ( Uncertainty) show NC gr  0.6 0.6 0.6 c 3 lw 1298 1060 m -10 -11 d s 1298 1079 m -30 -30 d s 1294 1094 m -45 -45 d s 1274 1094 m -44 -45 d s 1255 1094 m -36 -37 d s
 1236 1094 m -17 -17 d s 1 0.84 0 c 0.6 0.6 0.6 c black
 gsave  2268 1108 0 475 C 894.685 1337.6 t 0 r /Helvetica findfont 41.3606 sf 0 0 m (\2551) show NC gr 
 gsave  2268 1108 0 475 C 401.575 1308.07 t 0 r /Helvetica findfont 62.0409 sf 0 0 m ( = 13 TeV,  139 fb) show NC gr 
 gsave  2268 1108 0 475 C 372.047 1308.07 t 0 r /Helvetica findfont 62.0409 sf 0 0 m (s) show NC gr  6 lw 351 1344 m 6 -39 d s 3 lw 357 1305 m 9 56 d s 366 1361 m 36 X s
 gsave  2268 1108 0 475 C 794.291 1207.68 t 0 r /Helvetica findfont 62.0409 sf 0 0 m (\)) show NC gr 
 gsave  2268 1108 0 475 C 738.189 1175.2 t 0 r /Helvetica findfont 41.3606 sf 0 0 m (HF) show NC gr 
 gsave  2268 1108 0 475 C 339.567 1207.68 t 0 r /Helvetica findfont 62.0409 sf 0 0 m ( 2L\(SS\), CR\(el) show NC gr 
 gsave  2268 1108 0 475 C 339.567 1405.51 t 0 r /Helvetica-BoldOblique findfont 73.8583 sf 0 0 m (ATLAS) show NC gr 
 gsave  2268 1108 0 475 C 634.843 1405.51 t 0 r /Helvetica findfont 73.8583 sf 0 0 m (Internal) show NC gr 
 gr  gr showpage
end
%%EOF
