%!PS-Adobe-2.0 EPSF-2.0
%%BoundingBox:  0 0 567 396
%%Title: /lhome/ific/c/cardillo/tHq/Plots/Plots-30-05-22-PLIV-SF/2LSS_MM/LepPt2_Pre.eps: LepPt2_Pre
%%Creator: ROOT Version 6.20/06
%%CreationDate: Tue May 31 15:04:49 2022
%%DocumentNeededResources: ProcSet (FontSetInit)
%%EndComments
%%BeginProlog
80 dict begin
/s {stroke} def /l {lineto} def /m {moveto} def /t {translate} def
/r {rotate} def /rl {roll}  def /R {repeat} def
/d {rlineto} def /rm {rmoveto} def /gr {grestore} def /f {eofill} def
/c {setrgbcolor} def /black {0 setgray} def /sd {setdash} def
/cl {closepath} def /sf {scalefont setfont} def /lw {setlinewidth} def
/box {m dup 0 exch d exch 0 d 0 exch neg d cl} def
/NC{systemdict begin initclip end}def/C{NC box clip newpath}def
/bl {box s} def /bf {gsave box gsave f grestore 1 lw [] 0 sd s grestore} def /Y { 0 exch d} def /X { 0 d} def 
/K {{pop pop 0 moveto} exch kshow} bind def
/ita {/ang 15 def gsave [1 0 ang dup sin exch cos div 1 0 0] concat} def 
/mp {newpath /y exch def /x exch def} def
/side {[w .77 mul w .23 mul] .385 w mul sd w 0 l currentpoint t -144 r} def
/mr {mp x y w2 0 360 arc} def /m24 {mr s} def /m20 {mr f} def
/mb {mp x y w2 add m w2 neg 0 d 0 w neg d w 0 d 0 w d cl} def
/mt {mp x y w2 add m w2 neg w neg d w 0 d cl} def
/w4 {w 4 div} def
/w6 {w 6 div} def
/w8 {w 8 div} def
/m21 {mb f} def /m25 {mb s} def /m22 {mt f} def /m26{mt s} def
/m23 {mp x y w2 sub m w2 w d w neg 0 d cl f} def
/m27 {mp x y w2 add m w3 neg w2 neg d w3 w2 neg d w3 w2 d cl s} def
/m28 {mp x w2 sub y w2 sub w3 add m w3 0 d  0 w3 neg d w3 0 d 0 w3 d w3 0 d  0 w3 d w3 neg 0 d 0 w3 d w3 neg 0 d 0 w3 neg d w3 neg 0 d cl s } def
/m29 {mp gsave x w2 sub y w2 add w3 sub m currentpoint t 4 {side} repeat cl fill gr} def
/m30 {mp gsave x w2 sub y w2 add w3 sub m currentpoint t 4 {side} repeat cl s gr} def
/m31 {mp x y w2 sub m 0 w d x w2 sub y m w 0 d x w2 sub y w2 add m w w neg d x w2 sub y w2 sub m w w d s} def
/m32 {mp x y w2 sub m w2 w d w neg 0 d cl s} def
/m33 {mp x y w2 add m w3 neg w2 neg d w3 w2 neg d w3 w2 d cl f} def
/m34 {mp x w2 sub y w2 sub w3 add m w3 0 d  0 w3 neg d w3 0 d 0 w3 d w3 0 d  0 w3 d w3 neg 0 d 0 w3 d w3 neg 0 d 0 w3 neg d w3 neg 0 d cl f } def
/m35 {mp x y w2 add m w2 neg w2 neg d w2 w2 neg d w2 w2 d w2 neg w2 d x y w2 sub m 0 w d x w2 sub y m w 0 d s} def
/m36 {mb x w2 sub y w2 add m w w neg d x w2 sub y w2 sub m w w d s} def
/m37 {mp x y m w4 neg w2 d w4 neg w2 neg d w2 0 d  w4 neg w2 neg d w2 0 d w4 neg w2 d w2 0 d w4 neg w2 d w4 neg w2 neg d cl s} def
/m38 {mp x w4 sub y w2 add m w4 neg w4 neg d 0 w2 neg d w4 w4 neg d w2 0 d w4 w4 d 0 w2 d w4 neg w4 d w2 neg 0 d x y w2 sub m 0 w d x w2 sub y m w 0 d cl s} def
/m39 {mp x y m w4 neg w2 d w4 neg w2 neg d w2 0 d  w4 neg w2 neg d w2 0 d w4 neg w2 d w2 0 d w4 neg w2 d w4 neg w2 neg d cl f} def
/m40 {mp x y m w4 w2 d w4 w4 neg d w2 neg w4 neg d w2 w4 neg d w4 neg w4 neg d w4 neg w2 d w4 neg w2 neg d w4 neg w4 d w2 w4 d w2 neg w4 d w4 w4 d w4 w2 neg d cl s} def
/m41 {mp x y m w4 w2 d w4 w4 neg d w2 neg w4 neg d w2 w4 neg d w4 neg w4 neg d w4 neg w2 d w4 neg w2 neg d w4 neg w4 d w2 w4 d w2 neg w4 d w4 w4 d w4 w2 neg d cl f} def
/m42 {mp x y w2 add m w8 neg w2 -3 4 div mul d w2 -3 4 div mul w8 neg d w2 3 4 div mul w8 neg d w8 w2 -3 4 div mul d w8 w2 3 4 div mul d w2 3 4 div mul w8 d w2 -3 4 div mul w8 d w8 neg w2 3 4 div mul d cl s} def
/m43 {mp x y w2 add m w8 neg w2 -3 4 div mul d w2 -3 4 div mul w8 neg d w2 3 4 div mul w8 neg d w8 w2 -3 4 div mul d w8 w2 3 4 div mul d w2 3 4 div mul w8 d w2 -3 4 div mul w8 d w8 neg w2 3 4 div mul d cl f} def
/m44 {mp x y m w6 neg w2 d w2 2 3 div mul 0 d w6 neg w2 neg d w2 w6 d 0 w2 -2 3 div mul d w2 neg w6 d w6 w2 neg d w2 -2 3 div mul 0 d w6 w2 d w2 neg w6 neg d 0 w2 2 3 div mul d w2 w6 neg d cl s} def
/m45 {mp x y m w6 neg w2 d w2 2 3 div mul 0 d w6 neg w2 neg d w2 w6 d 0 w2 -2 3 div mul d w2 neg w6 d w6 w2 neg d w2 -2 3 div mul 0 d w6 w2 d w2 neg w6 neg d 0 w2 2 3 div mul d w2 w6 neg d cl f} def
/m46 {mp x y w4 add m w4 neg w4 d w4 neg w4 neg d  w4 w4 neg d w4 neg w4 neg d w4 w4 neg d w4 w4 d w4 w4 neg d w4 w4 d w4 neg w4 d w4 w4 d w4 neg w4 d w4 neg w4 neg d cl s} def
/m47 {mp x y w4 add m w4 neg w4 d w4 neg w4 neg d w4 w4 neg d w4 neg w4 neg d  w4 w4 neg d w4 w4 d w4 w4 neg d w4 w4 d w4 neg w4 d w4 w4 d w4 neg w4 d w4 neg w4 neg d cl f} def
/m48 {mp x y w4 add m w4 neg w4 d w4 neg w4 neg d w4 w4 neg d  w4 neg w4 neg d w4 w4 neg d w4 w4 d w4 w4 neg d w4 w4 d w4 neg w4 d w4 w4 d w4 neg w4 d w4 neg w4 neg d  w4 w4 neg d w4 neg w4 neg d w4 neg w4 d w4 w4 d cl f} def
/m49 {mp x w2 sub w3 add y w2 sub w3 add m  0 w3 neg d w3 0 d 0 w3 d w3 0 d 0 w3 d w3 neg 0 d 0 w3 d w3 neg 0 d 0 w3 neg d w3 neg 0 d 0 w3 neg d w3 0 d 0 w3 d w3 0 d 0 w3 neg d w3 neg 0 d cl f } def
/m2 {mp x y w2 sub m 0 w d x w2 sub y m w 0 d s} def
/m5 {mp x w2 sub y w2 sub m w w d x w2 sub y w2 add m w w neg d s} def
%%IncludeResource: ProcSet (FontSetInit)
%%IncludeResource: font Times-Roman
%%IncludeResource: font Times-Italic
%%IncludeResource: font Times-Bold
%%IncludeResource: font Times-BoldItalic
%%IncludeResource: font Helvetica
%%IncludeResource: font Helvetica-Oblique
%%IncludeResource: font Helvetica-Bold
%%IncludeResource: font Helvetica-BoldOblique
%%IncludeResource: font Courier
%%IncludeResource: font Courier-Oblique
%%IncludeResource: font Courier-Bold
%%IncludeResource: font Courier-BoldOblique
%%IncludeResource: font Symbol
%%IncludeResource: font ZapfDingbats
/reEncode {exch findfont dup length dict begin {1 index /FID eq  {pop pop} {def} ifelse } forall /Encoding exch def currentdict end dup /FontName get exch definefont pop } def [/Times-Bold /Times-Italic /Times-BoldItalic /Helvetica /Helvetica-Oblique
 /Helvetica-Bold /Helvetica-BoldOblique /Courier /Courier-Oblique /Courier-Bold /Courier-BoldOblique /Times-Roman /AvantGarde-Book /AvantGarde-BookOblique /AvantGarde-Demi /AvantGarde-DemiOblique /Bookman-Demi /Bookman-DemiItalic /Bookman-Light
 /Bookman-LightItalic /Helvetica-Narrow /Helvetica-Narrow-Bold /Helvetica-Narrow-BoldOblique /Helvetica-Narrow-Oblique /NewCenturySchlbk-Roman /NewCenturySchlbk-Bold /NewCenturySchlbk-BoldItalic /NewCenturySchlbk-Italic /Palatino-Bold
 /Palatino-BoldItalic /Palatino-Italic /Palatino-Roman ] {ISOLatin1Encoding reEncode } forall
%%EndProlog
%%BeginSetup
%%EndSetup
newpath  gsave  .25 .25 scale  gsave  0 0 t black[  ] 0 sd 3 lw 1 1 1 c 2268 1583 0 0 bf black 1 1 1 c 2268 475 0 0 bf black 1 1 1 c 1927 275 227 190 bf black 1927 275 227 190 bl 227 190 m 1927 X s 227 202 m -12 Y s 304 196 m -6 Y s 381 196 m -6 Y s
 458 196 m -6 Y s 535 196 m -6 Y s 612 202 m -12 Y s 689 196 m -6 Y s 766 196 m -6 Y s 844 196 m -6 Y s 921 196 m -6 Y s 998 202 m -12 Y s 1075 196 m -6 Y s 1152 196 m -6 Y s 1229 196 m -6 Y s 1306 196 m -6 Y s 1383 202 m -12 Y s 1460 196 m -6 Y s
 1538 196 m -6 Y s 1615 196 m -6 Y s 1692 196 m -6 Y s 1769 202 m -12 Y s 1846 196 m -6 Y s 1923 196 m -6 Y s 2000 196 m -6 Y s 2077 196 m -6 Y s 2154 202 m -12 Y s
 gsave  2268 475 0 0 C 209.646 126.968 t 0 r /Helvetica findfont 53.4154 sf 0 0 m (0) show NC gr 
 gsave  2268 475 0 0 C 581.693 126.968 t 0 r /Helvetica findfont 53.4154 sf 0 0 m (50) show NC gr 
 gsave  2268 475 0 0 C 950.787 126.968 t 0 r /Helvetica findfont 53.4154 sf 0 0 m (100) show NC gr 
 gsave  2268 475 0 0 C 1337.6 126.968 t 0 r /Helvetica findfont 53.4154 sf 0 0 m (150) show NC gr 
 gsave  2268 475 0 0 C 1724.41 126.968 t 0 r /Helvetica findfont 53.4154 sf 0 0 m (200) show NC gr 
 gsave  2268 475 0 0 C 2108.27 126.968 t 0 r /Helvetica findfont 53.4154 sf 0 0 m (250) show NC gr 
 gsave  2268 475 0 0 C 1978.35 53.1496 t 0 r /Helvetica findfont 56.3829 sf 0 0 m (\) [GeV]) show NC gr 
 gsave  2268 475 0 0 C 1957.68 20.6693 t 0 r /Helvetica findfont 38.5778 sf 0 0 m (2) show NC gr 
 gsave  2268 475 0 0 C 1863.19 53.1496 t 0 r /Helvetica findfont 56.3829 sf 0 0 m (\(lep) show NC gr 
 gsave  2268 475 0 0 C 1839.57 20.6693 t 0 r /Helvetica findfont 38.5778 sf 0 0 m (T) show NC gr 
 gsave  2268 475 0 0 C 1804.13 53.1496 t 0 r /Helvetica-Oblique findfont 56.3829 sf 0 0 m (p) show NC gr  227 465 m 1927 X s 227 453 m 12 Y s 304 459 m 6 Y s 381 459 m 6 Y s 458 459 m 6 Y s 535 459 m 6 Y s 612 453 m 12 Y s 689 459 m 6 Y s 766 459 m 6
 Y s 844 459 m 6 Y s 921 459 m 6 Y s 998 453 m 12 Y s 1075 459 m 6 Y s 1152 459 m 6 Y s 1229 459 m 6 Y s 1306 459 m 6 Y s 1383 453 m 12 Y s 1460 459 m 6 Y s 1538 459 m 6 Y s 1615 459 m 6 Y s 1692 459 m 6 Y s 1769 453 m 12 Y s 1846 459 m 6 Y s 1923
 459 m 6 Y s 2000 459 m 6 Y s 2077 459 m 6 Y s 2154 453 m 12 Y s 227 190 m 275 Y s 240 242 m -13 X s 240 328 m -13 X s 240 414 m -13 X s 240 242 m -13 X s 240 414 m -13 X s
 gsave  2268 475 0 0 C 118.11 221.457 t 0 r /Helvetica findfont 53.4154 sf 0 0 m (0.5) show NC gr 
 gsave  2268 475 0 0 C 171.26 307.087 t 0 r /Helvetica findfont 53.4154 sf 0 0 m (1) show NC gr 
 gsave  2268 475 0 0 C 118.11 395.669 t 0 r /Helvetica findfont 53.4154 sf 0 0 m (1.5) show NC gr 
 gsave  2268 475 0 0 C 70.8661 233.268 t 90 r /Helvetica findfont 53.4154 sf 0 0 m (Data / SM) show NC gr  2154 190 m 275 Y s 2141 242 m 13 X s 2141 328 m 13 X s 2141 414 m 13 X s 2141 242 m 13 X s 2141 414 m 13 X s 227 190 m 1927 X s 227 465 m 1927
 X s 227 190 m 275 Y s[ 4 8] 0 sd 2154 242 m -1927 X s 2154 328 m -1927 X s 2154 414 m -1927 X s 2154 242 m -1927 X s 2154 414 m -1927 X s[  ] 0 sd 2154 190 m 275 Y s 1 1 0.6 c 193 0 227 328 bf 192 0 420 328 bf 193 0 612 328 bf 193 0 805 328 bf 193 0
 998 328 bf 192 0 1191 328 bf 193 0 1383 328 bf 193 0 1576 328 bf 193 0 1769 328 bf 192 0 1962 328 bf black 0.6 0.6 0.6 c 405 330 m -4 -5 d s 386 330 m -5 -5 d s 367 330 m -5 -5 d s 348 330 m -5 -5 d s 328 330 m -4 -5 d s 309 330 m -5 -5 d s 290 330
 m -5 -5 d s 271 330 m -5 -5 d s 251 330 m -4 -5 d s 232 330 m -5 -5 d s 597 330 m -4 -4 d s 578 330 m -4 -4 d s 559 330 m -4 -4 d s 540 330 m -4 -4 d s 520 330 m -3 -4 d s 501 330 m -4 -4 d s 482 330 m -4 -4 d s 463 330 m -4 -4 d s 443 330 m -3 -4 d
 s 424 330 m -4 -4 d s 805 326 m s 790 330 m -4 -4 d s 771 330 m -5 -4 d s 751 330 m -4 -4 d s 732 330 m -4 -4 d s 713 330 m -4 -4 d s 694 330 m -4 -4 d s 674 330 m -4 -4 d s 655 330 m -4 -4 d s 636 330 m -4 -4 d s 617 330 m -4 -4 d s 998 326 m -2 -2
 d s 984 331 m -7 -7 d s 964 331 m -6 -7 d s 945 331 m -7 -7 d s 926 331 m -7 -7 d s 907 331 m -7 -7 d s 887 331 m -6 -7 d s 868 331 m -7 -7 d s 849 331 m -7 -7 d s 830 331 m -7 -7 d s 810 331 m -5 -5 d s 1191 326 m -4 -3 d s 1178 333 m -10 -10 d s
 1158 333 m -9 -10 d s 1139 333 m -10 -10 d s 1120 333 m -10 -10 d s 1101 333 m -10 -10 d s 1081 333 m -9 -10 d s 1062 333 m -10 -10 d s 1043 333 m -10 -10 d s 1024 333 m -10 -10 d s 1004 333 m -6 -7 d s 1383 327 m -15 -16 d s 1382 344 m -33 -33 d s
 1362 344 m -33 -33 d s 1343 344 m -33 -33 d s 1324 344 m -33 -33 d s 1305 344 m -33 -33 d s 1285 344 m -33 -33 d s 1266 344 m -33 -33 d s 1247 344 m -33 -33 d s 1228 344 m -33 -33 d s 1208 344 m -17 -18 d s 1576 327 m -9 -10 d s 1568 338 m -21 -21 d
 s 1548 338 m -20 -21 d s 1529 338 m -20 -21 d s 1510 338 m -20 -21 d s 1491 338 m -21 -21 d s 1471 338 m -20 -21 d s 1452 338 m -20 -21 d s 1433 338 m -20 -21 d s 1414 338 m -21 -21 d s 1394 338 m -11 -11 d s 1769 327 m -15 -15 d s 1765 343 m -31
 -31 d s 1746 343 m -31 -31 d s 1727 343 m -31 -31 d s 1708 343 m -31 -31 d s 1688 343 m -31 -31 d s 1669 343 m -31 -31 d s 1650 343 m -31 -31 d s 1631 343 m -31 -31 d s 1611 343 m -31 -31 d s 1592 343 m -16 -16 d s 1962 308 m -15 -14 d s 1962 328 m
 -34 -34 d s 1962 347 m -53 -53 d s 1957 361 m -68 -67 d s 1937 361 m -67 -67 d s 1918 361 m -67 -67 d s 1899 361 m -67 -67 d s 1880 361 m -68 -67 d s 1860 361 m -67 -67 d s 1841 361 m -67 -67 d s 1822 361 m -53 -53 d s 1803 361 m -34 -34 d s 1784
 361 m -15 -14 d s 2154 328 m -14 -15 d s 2149 342 m -29 -29 d s 2130 342 m -29 -29 d s 2111 342 m -29 -29 d s 2091 342 m -28 -29 d s 2072 342 m -29 -29 d s 2053 342 m -29 -29 d s 2034 342 m -29 -29 d s 2014 342 m -28 -29 d s 1995 342 m -28 -29 d s
 1976 342 m -14 -14 d s black 1 1 1 c black /w 26 def /w2 {w 2 div} def /w3 {w 3 div} def 323 305 m20 516 319 m20 709 343 m20 901 331 m s 901 354 m s 901 343 m20 1094 345 m 7 Y s 1094 376 m 7 Y s 1094 364 m20 1287 300 m 13 Y s 1287 337 m 13 Y s 1287
 325 m20 1480 301 m 26 Y s 1480 350 m 26 Y s 1480 338 m20 1672 314 m 44 Y s 1672 381 m 44 Y s 1672 370 m20 1865 291 m 51 Y s 1865 366 m 51 Y s 1865 354 m20 2058 239 m 30 Y s 2058 292 m 30 Y s 2058 280 m20 227 328 m 1927 X s 227 190 m 1927 X s 227 202
 m -12 Y s 304 196 m -6 Y s 381 196 m -6 Y s 458 196 m -6 Y s 535 196 m -6 Y s 612 202 m -12 Y s 689 196 m -6 Y s 766 196 m -6 Y s 844 196 m -6 Y s 921 196 m -6 Y s 998 202 m -12 Y s 1075 196 m -6 Y s 1152 196 m -6 Y s 1229 196 m -6 Y s 1306 196 m -6
 Y s 1383 202 m -12 Y s 1460 196 m -6 Y s 1538 196 m -6 Y s 1615 196 m -6 Y s 1692 196 m -6 Y s 1769 202 m -12 Y s 1846 196 m -6 Y s 1923 196 m -6 Y s 2000 196 m -6 Y s 2077 196 m -6 Y s 2154 202 m -12 Y s 227 465 m 1927 X s 227 453 m 12 Y s 304 459
 m 6 Y s 381 459 m 6 Y s 458 459 m 6 Y s 535 459 m 6 Y s 612 453 m 12 Y s 689 459 m 6 Y s 766 459 m 6 Y s 844 459 m 6 Y s 921 459 m 6 Y s 998 453 m 12 Y s 1075 459 m 6 Y s 1152 459 m 6 Y s 1229 459 m 6 Y s 1306 459 m 6 Y s 1383 453 m 12 Y s 1460 459
 m 6 Y s 1538 459 m 6 Y s 1615 459 m 6 Y s 1692 459 m 6 Y s 1769 453 m 12 Y s 1846 459 m 6 Y s 1923 459 m 6 Y s 2000 459 m 6 Y s 2077 459 m 6 Y s 2154 453 m 12 Y s 227 190 m 275 Y s 240 242 m -13 X s 240 328 m -13 X s 240 414 m -13 X s 240 242 m -13
 X s 240 414 m -13 X s 2154 190 m 275 Y s 2141 242 m 13 X s 2141 328 m 13 X s 2141 414 m 13 X s 2141 242 m 13 X s 2141 414 m 13 X s 1 1 1 c 2268 1108 0 475 bf black 1 1 1 c 1927 1041 227 486 bf black 1927 1041 227 486 bl 1 1 1 c black 3 lw 227 486 m
 1927 X s 227 505 m -19 Y s 304 495 m -9 Y s 381 495 m -9 Y s 458 495 m -9 Y s 535 495 m -9 Y s 612 505 m -19 Y s 689 495 m -9 Y s 766 495 m -9 Y s 844 495 m -9 Y s 921 495 m -9 Y s 998 505 m -19 Y s 1075 495 m -9 Y s 1152 495 m -9 Y s 1229 495 m -9
 Y s 1306 495 m -9 Y s 1383 505 m -19 Y s 1460 495 m -9 Y s 1538 495 m -9 Y s 1615 495 m -9 Y s 1692 495 m -9 Y s 1769 505 m -19 Y s 1846 495 m -9 Y s 1923 495 m -9 Y s 2000 495 m -9 Y s 2077 495 m -9 Y s 2154 505 m -19 Y s
 gsave  2268 1108 0 475 C 2049.21 407.48 t 0 r /Helvetica findfont 32.4976 sf 0 0 m (\) [GeV]) show NC gr 
 gsave  2268 1108 0 475 C 2037.4 389.764 t 0 r /Helvetica findfont 20.6803 sf 0 0 m (2) show NC gr 
 gsave  2268 1108 0 475 C 1981.3 407.48 t 0 r /Helvetica findfont 32.4976 sf 0 0 m (\(lep) show NC gr 
 gsave  2268 1108 0 475 C 1966.54 389.764 t 0 r /Helvetica findfont 20.6803 sf 0 0 m (T) show NC gr 
 gsave  2268 1108 0 475 C 1945.87 407.48 t 0 r /Helvetica-Oblique findfont 32.4976 sf 0 0 m (p) show NC gr  227 1527 m 1927 X s 227 1508 m 19 Y s 304 1518 m 9 Y s 381 1518 m 9 Y s 458 1518 m 9 Y s 535 1518 m 9 Y s 612 1508 m 19 Y s 689 1518 m 9 Y s
 766 1518 m 9 Y s 844 1518 m 9 Y s 921 1518 m 9 Y s 998 1508 m 19 Y s 1075 1518 m 9 Y s 1152 1518 m 9 Y s 1229 1518 m 9 Y s 1306 1518 m 9 Y s 1383 1508 m 19 Y s 1460 1518 m 9 Y s 1538 1518 m 9 Y s 1615 1518 m 9 Y s 1692 1518 m 9 Y s 1769 1508 m 19 Y
 s 1846 1518 m 9 Y s 1923 1518 m 9 Y s 2000 1518 m 9 Y s 2077 1518 m 9 Y s 2154 1508 m 19 Y s 227 486 m 1041 Y s 248 644 m -21 X s 237 675 m -10 X s 237 707 m -10 X s 237 738 m -10 X s 237 770 m -10 X s 248 801 m -21 X s 237 833 m -10 X s 237 864 m
 -10 X s 237 896 m -10 X s 237 927 m -10 X s 248 959 m -21 X s 237 990 m -10 X s 237 1022 m -10 X s 237 1053 m -10 X s 237 1085 m -10 X s 248 1116 m -21 X s 237 1148 m -10 X s 237 1179 m -10 X s 237 1211 m -10 X s 237 1242 m -10 X s 248 1274 m -21 X
 s 237 1306 m -10 X s 237 1337 m -10 X s 237 1369 m -10 X s 237 1400 m -10 X s 248 1432 m -21 X s 248 644 m -21 X s 237 612 m -10 X s 237 580 m -10 X s 237 549 m -10 X s 237 517 m -10 X s 248 1432 m -21 X s 237 1463 m -10 X s 237 1495 m -10 X s 237
 1526 m -10 X s
 gsave  2268 1108 0 475 C 112.205 623.031 t 0 r /Helvetica findfont 53.178 sf 0 0 m (500) show NC gr 
 gsave  2268 1108 0 475 C 82.6772 782.48 t 0 r /Helvetica findfont 53.178 sf 0 0 m (1000) show NC gr 
 gsave  2268 1108 0 475 C 82.6772 938.976 t 0 r /Helvetica findfont 53.178 sf 0 0 m (1500) show NC gr 
 gsave  2268 1108 0 475 C 82.6772 1098.43 t 0 r /Helvetica findfont 53.178 sf 0 0 m (2000) show NC gr 
 gsave  2268 1108 0 475 C 82.6772 1254.92 t 0 r /Helvetica findfont 53.178 sf 0 0 m (2500) show NC gr 
 gsave  2268 1108 0 475 C 82.6772 1411.42 t 0 r /Helvetica findfont 53.178 sf 0 0 m (3000) show NC gr 
 gsave  2268 1108 0 475 C 64.9606 1142.72 t 90 r /Helvetica findfont 53.178 sf 0 0 m (Events / 25 GeV) show NC gr  2154 486 m 1041 Y s 2133 644 m 21 X s 2144 675 m 10 X s 2144 707 m 10 X s 2144 738 m 10 X s 2144 770 m 10 X s 2133 801 m 21 X s 2144
 833 m 10 X s 2144 864 m 10 X s 2144 896 m 10 X s 2144 927 m 10 X s 2133 959 m 21 X s 2144 990 m 10 X s 2144 1022 m 10 X s 2144 1053 m 10 X s 2144 1085 m 10 X s 2133 1116 m 21 X s 2144 1148 m 10 X s 2144 1179 m 10 X s 2144 1211 m 10 X s 2144 1242 m
 10 X s 2133 1274 m 21 X s 2144 1306 m 10 X s 2144 1337 m 10 X s 2144 1369 m 10 X s 2144 1400 m 10 X s 2133 1432 m 21 X s 2133 644 m 21 X s 2144 612 m 10 X s 2144 580 m 10 X s 2144 549 m 10 X s 2144 517 m 10 X s 2133 1432 m 21 X s 2144 1463 m 10 X s
 2144 1495 m 10 X s 2144 1526 m 10 X s 0.4 0.6 0.4 c black 3 lw 0.4 0.6 0.4 c 227 486 m 158 Y 193 X 390 Y 192 X -360 Y 193 X -116 Y 193 X -41 Y 193 X -16 Y 192 X -8 Y 193 X -3 Y 193 X -1 Y 193 X 1 Y 192 X -4 Y f 0.06 0.54 0.06 c 0.999 0.999 0.999 c
 black 3 lw 0.999 0.999 0.999 c 227 486 m 69 Y 193 X 287 Y 192 X -192 Y 193 X -96 Y 193 X -38 Y 193 X -16 Y 192 X -7 Y 193 X -3 Y 193 X -1 Y 193 X 1 Y 192 X -4 Y f 0.06 0.54 0.06 c 0.999 0.999 0.999 c 0.06 0.54 0.06 c 1 1 1 c black 0.06 0.54 0.06 c
 black 3 lw 0.06 0.54 0.06 c 227 486 m 69 Y 193 X 287 Y 192 X -192 Y 193 X -96 Y 193 X -38 Y 193 X -16 Y 192 X -7 Y 193 X -3 Y 193 X -1 Y 193 X 1 Y 192 X -4 Y f 1 0.653333 0 c 0.999 0.999 0.999 c black 3 lw 0.999 0.999 0.999 c 227 486 m 59 Y 193 X
 230 Y 192 X -175 Y 193 X -75 Y 193 X -24 Y 193 X -9 Y 192 X -3 Y 193 X -1 Y 193 X -1 Y 193 X 1 Y 192 X -2 Y f 1 0.653333 0 c 0.999 0.999 0.999 c 1 0.653333 0 c 1 1 1 c black 1 0.653333 0 c black 3 lw 1 0.653333 0 c 227 486 m 59 Y 193 X 230 Y 192 X
 -175 Y 193 X -75 Y 193 X -24 Y 193 X -9 Y 192 X -3 Y 193 X -1 Y 193 X -1 Y 193 X 1 Y 192 X -2 Y f 0.413333 1 0 c 0.999 0.999 0.999 c black 3 lw 0.999 0.999 0.999 c 227 486 m 46 Y 193 X 189 Y 192 X -135 Y 193 X -66 Y 193 X -21 Y 193 X -7 Y 192 X -4 Y
 193 X -1 Y 578 X -1 Y f 0.413333 1 0 c 0.999 0.999 0.999 c 0.413333 1 0 c 1 1 1 c black 0.413333 1 0 c black 3 lw 0.413333 1 0 c 227 486 m 46 Y 193 X 189 Y 192 X -135 Y 193 X -66 Y 193 X -21 Y 193 X -7 Y 192 X -4 Y 193 X -1 Y 578 X -1 Y f 0.6 0.2 1
 c 0.999 0.999 0.999 c black 3 lw 0.999 0.999 0.999 c 227 486 m 35 Y 193 X 152 Y 192 X -104 Y 193 X -55 Y 193 X -18 Y 193 X -5 Y 192 X -3 Y 193 X -1 Y 193 X -1 Y 385 X f 0.6 0.2 1 c 0.999 0.999 0.999 c 0.6 0.2 1 c 1 1 1 c black 0.6 0.2 1 c black 3 lw
 0.6 0.2 1 c 227 486 m 35 Y 193 X 152 Y 192 X -104 Y 193 X -55 Y 193 X -18 Y 193 X -5 Y 192 X -3 Y 193 X -1 Y 193 X -1 Y 385 X f 0.54 0.06 0.06 c 0.999 0.999 0.999 c black 3 lw 0.999 0.999 0.999 c 227 486 m 29 Y 193 X 132 Y 192 X -90 Y 193 X -47 Y
 193 X -15 Y 193 X -5 Y 192 X -3 Y 386 X -1 Y 385 X f 0.54 0.06 0.06 c 0.999 0.999 0.999 c 0.54 0.06 0.06 c 1 1 1 c black 0.54 0.06 0.06 c black 3 lw 0.54 0.06 0.06 c 227 486 m 29 Y 193 X 132 Y 192 X -90 Y 193 X -47 Y 193 X -15 Y 193 X -5 Y 192 X -3
 Y 386 X -1 Y 385 X f 1 0 1 c 0.999 0.999 0.999 c black 3 lw 0.999 0.999 0.999 c 227 486 m 9 Y 193 X 37 Y 192 X -29 Y 193 X -12 Y 193 X -3 Y 193 X -1 Y 192 X -1 Y 771 X f 1 0 1 c 0.999 0.999 0.999 c 1 0 1 c 1 1 1 c black 1 0 1 c black 3 lw 1 0 1 c
 227 486 m 9 Y 193 X 37 Y 192 X -29 Y 193 X -12 Y 193 X -3 Y 193 X -1 Y 192 X -1 Y 771 X f 0 0 1 c 0.999 0.999 0.999 c black 3 lw 0.999 0.999 0.999 c 227 486 m 6 Y 193 X 26 Y 192 X -20 Y 193 X -9 Y 193 X -2 Y 385 X -1 Y 771 X f 0 0 1 c 0.999 0.999
 0.999 c 0 0 1 c 1 1 1 c black 0 0 1 c black 3 lw 0 0 1 c 227 486 m 6 Y 193 X 26 Y 192 X -20 Y 193 X -9 Y 193 X -2 Y 385 X -1 Y 771 X f 0.2 0.8 0.8 c 0.999 0.999 0.999 c black 3 lw 0.999 0.999 0.999 c 227 486 m 2 Y 193 X 7 Y 192 X -5 Y 193 X -3 Y 193
 X -1 Y 1156 X f 0.2 0.8 0.8 c 0.999 0.999 0.999 c 0.2 0.8 0.8 c 1 1 1 c black 0.2 0.8 0.8 c black 3 lw 0.2 0.8 0.8 c 227 486 m 2 Y 193 X 7 Y 192 X -5 Y 193 X -3 Y 193 X -1 Y 1156 X f 1 0 0 c 0.999 0.999 0.999 c black 3 lw 0.999 0.999 0.999 c 227 486
 m 1 Y 193 X 5 Y 192 X -4 Y 193 X -2 Y 1349 X f 1 0 0 c 0.999 0.999 0.999 c 1 0 0 c 1 1 1 c black 1 0 0 c black 3 lw 1 0 0 c 227 486 m 1 Y 193 X 5 Y 192 X -4 Y 193 X -2 Y 1349 X f 1 0.84 0 c 0.999 0.999 0.999 c black 3 lw 0.999 0.999 0.999 c 227 486
 m 1 Y 193 X 3 Y 192 X -2 Y 193 X -2 Y 1349 X f 1 0.84 0 c 0.999 0.999 0.999 c 1 0.84 0 c 1 1 1 c black 1 0.84 0 c black 3 lw 1 0.84 0 c 227 486 m 1 Y 193 X 3 Y 192 X -2 Y 193 X -2 Y 1349 X f black 1 1 1 c black 0.6 0.6 0.6 c 3 lw 420 644 m -2 -2 d s
 403 646 m -5 -4 d s 383 646 m -4 -4 d s 364 646 m -4 -4 d s 345 646 m -4 -4 d s 326 646 m -5 -4 d s 306 646 m -4 -4 d s 287 646 m -4 -4 d s 268 646 m -4 -4 d s 249 646 m -5 -4 d s 229 646 m -2 -3 d s 3 lw 612 1028 m s 605 1040 m -12 -12 d s 586 1040
 m -12 -12 d s 566 1040 m -12 -12 d s 547 1040 m -12 -12 d s 528 1040 m -12 -12 d s 509 1040 m -12 -12 d s 489 1040 m -12 -12 d s 470 1040 m -12 -12 d s 451 1040 m -12 -12 d s 432 1040 m -12 -12 d s 3 lw 798 676 m -4 -5 d s 779 676 m -5 -5 d s 760
 676 m -5 -5 d s 740 676 m -4 -5 d s 721 676 m -4 -5 d s 702 676 m -5 -5 d s 683 676 m -5 -5 d s 663 676 m -4 -5 d s 644 676 m -4 -5 d s 625 676 m -5 -5 d s 3 lw 990 560 m -3 -3 d s 970 560 m -3 -3 d s 951 560 m -3 -3 d s 932 560 m -3 -3 d s 913 560
 m -3 -3 d s 893 560 m -2 -3 d s 874 560 m -3 -3 d s 855 560 m -3 -3 d s 836 560 m -3 -3 d s 816 560 m -2 -3 d s 3 lw 1179 518 m -2 -2 d s 1160 518 m -2 -2 d s 1140 518 m -1 -2 d s 1121 518 m -2 -2 d s 1102 518 m -2 -2 d s 1083 518 m -2 -2 d s 1063
 518 m -1 -2 d s 1044 518 m -2 -2 d s 1025 518 m -2 -2 d s 1006 518 m -2 -2 d s 3 lw 1374 502 m -3 -3 d s 1355 502 m -3 -3 d s 1336 502 m -3 -3 d s 1317 502 m -3 -3 d s 1297 502 m -3 -3 d s 1278 502 m -3 -3 d s 1259 502 m -3 -3 d s 1240 502 m -3 -3 d
 s 1220 502 m -3 -3 d s 1201 502 m -3 -3 d s 3 lw 1558 493 m -1 X s 1539 493 m -1 X s 1520 493 m -1 X s 1500 493 m -1 X s 1481 493 m -1 X s 1462 493 m -1 X s 1443 493 m -1 X s 1423 493 m -1 X s 1404 493 m -1 X s 1385 493 m -1 X s 3 lw 1766 490 m -1 Y
 s 1747 490 m -1 -1 d s 1728 490 m -1 -1 d s 1709 490 m -1 -1 d s 1689 490 m -1 Y s 1670 490 m -1 -1 d s 1651 490 m -1 -1 d s 1632 490 m -1 -1 d s 1612 490 m -1 Y s 1593 490 m -1 -1 d s 3 lw 1958 489 m -1 -1 d s 1939 489 m -1 -1 d s 1919 489 m -1 -1
 d s 1900 489 m -1 -1 d s 1881 489 m -1 -1 d s 1862 489 m -1 -1 d s 1842 489 m -1 -1 d s 1823 489 m -1 -1 d s 1804 489 m -1 -1 d s 1785 489 m -1 -1 d s 3 lw 2151 490 m -1 Y s 2132 490 m -1 -1 d s 2113 490 m -1 -1 d s 2094 490 m -1 -1 d s 2074 490 m
 -1 Y s 2055 490 m -1 -1 d s 2036 490 m -1 -1 d s 2017 490 m -1 -1 d s 1997 490 m -1 Y s 1978 490 m -1 -1 d s black 3 lw 1 1 1 c black /w 24 def /w2 {w 2 div} def /w3 {w 3 div} def 323 623 m20 516 994 m 1 Y s 516 1019 m 1 Y s 516 1007 m20 709 690 m20
 901 565 m20 1094 524 m20 1287 500 m20 1480 493 m20 1672 491 m20 1865 489 m20 2058 489 m20 227 486 m 1927 X s 227 505 m -19 Y s 304 495 m -9 Y s 381 495 m -9 Y s 458 495 m -9 Y s 535 495 m -9 Y s 612 505 m -19 Y s 689 495 m -9 Y s 766 495 m -9 Y s
 844 495 m -9 Y s 921 495 m -9 Y s 998 505 m -19 Y s 1075 495 m -9 Y s 1152 495 m -9 Y s 1229 495 m -9 Y s 1306 495 m -9 Y s 1383 505 m -19 Y s 1460 495 m -9 Y s 1538 495 m -9 Y s 1615 495 m -9 Y s 1692 495 m -9 Y s 1769 505 m -19 Y s 1846 495 m -9 Y
 s 1923 495 m -9 Y s 2000 495 m -9 Y s 2077 495 m -9 Y s 2154 505 m -19 Y s 227 1527 m 1927 X s 227 1508 m 19 Y s 304 1518 m 9 Y s 381 1518 m 9 Y s 458 1518 m 9 Y s 535 1518 m 9 Y s 612 1508 m 19 Y s 689 1518 m 9 Y s 766 1518 m 9 Y s 844 1518 m 9 Y s
 921 1518 m 9 Y s 998 1508 m 19 Y s 1075 1518 m 9 Y s 1152 1518 m 9 Y s 1229 1518 m 9 Y s 1306 1518 m 9 Y s 1383 1508 m 19 Y s 1460 1518 m 9 Y s 1538 1518 m 9 Y s 1615 1518 m 9 Y s 1692 1518 m 9 Y s 1769 1508 m 19 Y s 1846 1518 m 9 Y s 1923 1518 m 9
 Y s 2000 1518 m 9 Y s 2077 1518 m 9 Y s 2154 1508 m 19 Y s 227 486 m 1041 Y s 248 644 m -21 X s 237 675 m -10 X s 237 707 m -10 X s 237 738 m -10 X s 237 770 m -10 X s 248 801 m -21 X s 237 833 m -10 X s 237 864 m -10 X s 237 896 m -10 X s 237 927 m
 -10 X s 248 959 m -21 X s 237 990 m -10 X s 237 1022 m -10 X s 237 1053 m -10 X s 237 1085 m -10 X s 248 1116 m -21 X s 237 1148 m -10 X s 237 1179 m -10 X s 237 1211 m -10 X s 237 1242 m -10 X s 248 1274 m -21 X s 237 1306 m -10 X s 237 1337 m -10
 X s 237 1369 m -10 X s 237 1400 m -10 X s 248 1432 m -21 X s 248 644 m -21 X s 237 612 m -10 X s 237 580 m -10 X s 237 549 m -10 X s 237 517 m -10 X s 248 1432 m -21 X s 237 1463 m -10 X s 237 1495 m -10 X s 237 1526 m -10 X s 2154 486 m 1041 Y s
 2133 644 m 21 X s 2144 675 m 10 X s 2144 707 m 10 X s 2144 738 m 10 X s 2144 770 m 10 X s 2133 801 m 21 X s 2144 833 m 10 X s 2144 864 m 10 X s 2144 896 m 10 X s 2144 927 m 10 X s 2133 959 m 21 X s 2144 990 m 10 X s 2144 1022 m 10 X s 2144 1053 m 10
 X s 2144 1085 m 10 X s 2133 1116 m 21 X s 2144 1148 m 10 X s 2144 1179 m 10 X s 2144 1211 m 10 X s 2144 1242 m 10 X s 2133 1274 m 21 X s 2144 1306 m 10 X s 2144 1337 m 10 X s 2144 1369 m 10 X s 2144 1400 m 10 X s 2133 1432 m 21 X s 2133 644 m 21 X s
 2144 612 m 10 X s 2144 580 m 10 X s 2144 549 m 10 X s 2144 517 m 10 X s 2133 1432 m 21 X s 2144 1463 m 10 X s 2144 1495 m 10 X s 2144 1526 m 10 X s
 gsave  2268 1108 0 475 C 1313.98 1437.99 t 0 r /Helvetica findfont 56.1323 sf 0 0 m ( Data) show NC gr  1259 1463 m 7 Y s 1259 1440 m -8 Y s 1259 1451 m20
 gsave  2268 1108 0 475 C 1777.56 1437.99 t 0 r /Helvetica findfont 56.1323 sf 0 0 m ( Fakes \(MM\)) show NC gr  0.4 0.6 0.4 c 1682 1429 m 79 X 44 Y -79 X f black
 gsave  2268 1108 0 475 C 1402.56 1375.98 t 0 r /Helvetica findfont 56.1323 sf 0 0 m (single\255top) show NC gr 
 gsave  2268 1108 0 475 C 1373.03 1375.98 t 0 r /Helvetica-Oblique findfont 56.1323 sf 0 0 m (/) show NC gr 
 gsave  2268 1108 0 475 C 1352.36 1375.98 t 0 r /Helvetica-Oblique findfont 56.1323 sf 0 0 m (t) show NC gr  6 lw 1352 1420 m 21 X s
 gsave  2268 1108 0 475 C 1331.69 1375.98 t 0 r /Helvetica-Oblique findfont 56.1323 sf 0 0 m (t) show NC gr 
 gsave  2268 1108 0 475 C 1313.98 1375.98 t 0 r /Helvetica findfont 56.1323 sf 0 0 m ( ) show NC gr  0.06 0.54 0.06 c 3 lw 1219 1366 m 79 X 44 Y -79 X f 6 lw black
 gsave  2268 1108 0 475 C 1907.48 1375.98 t 0 r /Helvetica findfont 56.1323 sf 0 0 m (+jets) show NC gr 
 gsave  2268 1108 0 475 C 1795.28 1375.98 t 0 r /Helvetica-Oblique findfont 56.1323 sf 0 0 m (W/Z) show NC gr 
 gsave  2268 1108 0 475 C 1777.56 1375.98 t 0 r /Helvetica findfont 56.1323 sf 0 0 m ( ) show NC gr  1 0.653333 0 c 3 lw 1682 1366 m 79 X 44 Y -79 X f black
 gsave  2268 1108 0 475 C 1511.81 1311.02 t 0 r /Helvetica findfont 56.1323 sf 0 0 m (+jets) show NC gr 
 gsave  2268 1108 0 475 C 1331.69 1311.02 t 0 r /Helvetica-Oblique findfont 56.1323 sf 0 0 m (WZ/ZZ) show NC gr 
 gsave  2268 1108 0 475 C 1313.98 1311.02 t 0 r /Helvetica findfont 56.1323 sf 0 0 m ( ) show NC gr  0.413333 1 0 c 3 lw 1219 1303 m 79 X 44 Y -79 X f black
 gsave  2268 1108 0 475 C 1836.61 1311.02 t 0 r /Helvetica-Oblique findfont 56.1323 sf 0 0 m (Z) show NC gr 
 gsave  2268 1108 0 475 C 1815.94 1311.02 t 0 r /Helvetica-Oblique findfont 56.1323 sf 0 0 m (t) show NC gr  6 lw 1816 1355 m 21 X s
 gsave  2268 1108 0 475 C 1795.28 1311.02 t 0 r /Helvetica-Oblique findfont 56.1323 sf 0 0 m (t) show NC gr 
 gsave  2268 1108 0 475 C 1777.56 1311.02 t 0 r /Helvetica findfont 56.1323 sf 0 0 m ( ) show NC gr  0.6 0.2 1 c 3 lw 1682 1303 m 79 X 44 Y -79 X f 6 lw black
 gsave  2268 1108 0 475 C 1373.03 1249.02 t 0 r /Helvetica-Oblique findfont 56.1323 sf 0 0 m (W) show NC gr 
 gsave  2268 1108 0 475 C 1352.36 1249.02 t 0 r /Helvetica-Oblique findfont 56.1323 sf 0 0 m (t) show NC gr  6 lw 1352 1293 m 21 X s
 gsave  2268 1108 0 475 C 1331.69 1249.02 t 0 r /Helvetica-Oblique findfont 56.1323 sf 0 0 m (t) show NC gr 
 gsave  2268 1108 0 475 C 1313.98 1249.02 t 0 r /Helvetica findfont 56.1323 sf 0 0 m ( ) show NC gr  0.54 0.06 0.06 c 3 lw 1219 1239 m 79 X 45 Y -79 X f 6 lw black
 gsave  2268 1108 0 475 C 1795.28 1249.02 t 0 r /Helvetica-Oblique findfont 56.1323 sf 0 0 m (tZq) show NC gr 
 gsave  2268 1108 0 475 C 1777.56 1249.02 t 0 r /Helvetica findfont 56.1323 sf 0 0 m ( ) show NC gr  1 0 1 c 3 lw 1682 1239 m 79 X 45 Y -79 X f black
 gsave  2268 1108 0 475 C 1373.03 1184.06 t 0 r /Helvetica-Oblique findfont 56.1323 sf 0 0 m (H) show NC gr 
 gsave  2268 1108 0 475 C 1352.36 1184.06 t 0 r /Helvetica-Oblique findfont 56.1323 sf 0 0 m (t) show NC gr  6 lw 1352 1228 m 21 X s
 gsave  2268 1108 0 475 C 1331.69 1184.06 t 0 r /Helvetica-Oblique findfont 56.1323 sf 0 0 m (t) show NC gr 
 gsave  2268 1108 0 475 C 1313.98 1184.06 t 0 r /Helvetica findfont 56.1323 sf 0 0 m ( ) show NC gr  0 0 1 c 3 lw 1219 1176 m 79 X 44 Y -79 X f 6 lw black
 gsave  2268 1108 0 475 C 1795.28 1184.06 t 0 r /Helvetica-Oblique findfont 56.1323 sf 0 0 m (tWZ/tWH) show NC gr 
 gsave  2268 1108 0 475 C 1777.56 1184.06 t 0 r /Helvetica findfont 56.1323 sf 0 0 m ( ) show NC gr  0.2 0.8 0.8 c 3 lw 1682 1176 m 79 X 44 Y -79 X f black
 gsave  2268 1108 0 475 C 1331.69 1122.05 t 0 r /Helvetica-Oblique findfont 56.1323 sf 0 0 m (tHq) show NC gr 
 gsave  2268 1108 0 475 C 1313.98 1122.05 t 0 r /Helvetica findfont 56.1323 sf 0 0 m ( ) show NC gr  1 0 0 c 3 lw 1219 1113 m 79 X 44 Y -79 X f black
 gsave  2268 1108 0 475 C 1777.56 1122.05 t 0 r /Helvetica findfont 56.1323 sf 0 0 m ( Other) show NC gr  1 0.84 0 c 3 lw 1682 1113 m 79 X 44 Y -79 X f black
 gsave  2268 1108 0 475 C 1313.98 1060.04 t 0 r /Helvetica findfont 56.1323 sf 0 0 m ( Uncertainty) show NC gr  0.6 0.6 0.6 c 3 lw 1298 1060 m -10 -11 d s 1298 1079 m -30 -30 d s 1294 1094 m -45 -45 d s 1274 1094 m -44 -45 d s 1255 1094 m -36 -37 d s
 1236 1094 m -17 -17 d s 1 0.84 0 c 0.6 0.6 0.6 c black
 gsave  2268 1108 0 475 C 894.685 1337.6 t 0 r /Helvetica findfont 41.3606 sf 0 0 m (\2551) show NC gr 
 gsave  2268 1108 0 475 C 401.575 1308.07 t 0 r /Helvetica findfont 62.0409 sf 0 0 m ( = 13 TeV,  139 fb) show NC gr 
 gsave  2268 1108 0 475 C 372.047 1308.07 t 0 r /Helvetica findfont 62.0409 sf 0 0 m (s) show NC gr  6 lw 351 1344 m 6 -39 d s 3 lw 357 1305 m 9 56 d s 366 1361 m 36 X s
 gsave  2268 1108 0 475 C 339.567 1207.68 t 0 r /Helvetica findfont 62.0409 sf 0 0 m ( 2L\(SS\) pre\255selection) show NC gr 
 gsave  2268 1108 0 475 C 339.567 1405.51 t 0 r /Helvetica-BoldOblique findfont 73.8583 sf 0 0 m (ATLAS) show NC gr 
 gsave  2268 1108 0 475 C 634.843 1405.51 t 0 r /Helvetica findfont 73.8583 sf 0 0 m (Internal) show NC gr 
 gr  gr showpage
end
%%EOF
