%!PS-Adobe-2.0 EPSF-2.0
%%BoundingBox:  0 0 567 396
%%Title: /lhome/ific/c/cardillo/tHq/Plots/Plots-30-05-22-PLIV-SF/2LSS_MM/LepPt3_Pre.eps: LepPt3_Pre
%%Creator: ROOT Version 6.20/06
%%CreationDate: Tue May 31 15:04:49 2022
%%DocumentNeededResources: ProcSet (FontSetInit)
%%EndComments
%%BeginProlog
80 dict begin
/s {stroke} def /l {lineto} def /m {moveto} def /t {translate} def
/r {rotate} def /rl {roll}  def /R {repeat} def
/d {rlineto} def /rm {rmoveto} def /gr {grestore} def /f {eofill} def
/c {setrgbcolor} def /black {0 setgray} def /sd {setdash} def
/cl {closepath} def /sf {scalefont setfont} def /lw {setlinewidth} def
/box {m dup 0 exch d exch 0 d 0 exch neg d cl} def
/NC{systemdict begin initclip end}def/C{NC box clip newpath}def
/bl {box s} def /bf {gsave box gsave f grestore 1 lw [] 0 sd s grestore} def /Y { 0 exch d} def /X { 0 d} def 
/K {{pop pop 0 moveto} exch kshow} bind def
/ita {/ang 15 def gsave [1 0 ang dup sin exch cos div 1 0 0] concat} def 
/mp {newpath /y exch def /x exch def} def
/side {[w .77 mul w .23 mul] .385 w mul sd w 0 l currentpoint t -144 r} def
/mr {mp x y w2 0 360 arc} def /m24 {mr s} def /m20 {mr f} def
/mb {mp x y w2 add m w2 neg 0 d 0 w neg d w 0 d 0 w d cl} def
/mt {mp x y w2 add m w2 neg w neg d w 0 d cl} def
/w4 {w 4 div} def
/w6 {w 6 div} def
/w8 {w 8 div} def
/m21 {mb f} def /m25 {mb s} def /m22 {mt f} def /m26{mt s} def
/m23 {mp x y w2 sub m w2 w d w neg 0 d cl f} def
/m27 {mp x y w2 add m w3 neg w2 neg d w3 w2 neg d w3 w2 d cl s} def
/m28 {mp x w2 sub y w2 sub w3 add m w3 0 d  0 w3 neg d w3 0 d 0 w3 d w3 0 d  0 w3 d w3 neg 0 d 0 w3 d w3 neg 0 d 0 w3 neg d w3 neg 0 d cl s } def
/m29 {mp gsave x w2 sub y w2 add w3 sub m currentpoint t 4 {side} repeat cl fill gr} def
/m30 {mp gsave x w2 sub y w2 add w3 sub m currentpoint t 4 {side} repeat cl s gr} def
/m31 {mp x y w2 sub m 0 w d x w2 sub y m w 0 d x w2 sub y w2 add m w w neg d x w2 sub y w2 sub m w w d s} def
/m32 {mp x y w2 sub m w2 w d w neg 0 d cl s} def
/m33 {mp x y w2 add m w3 neg w2 neg d w3 w2 neg d w3 w2 d cl f} def
/m34 {mp x w2 sub y w2 sub w3 add m w3 0 d  0 w3 neg d w3 0 d 0 w3 d w3 0 d  0 w3 d w3 neg 0 d 0 w3 d w3 neg 0 d 0 w3 neg d w3 neg 0 d cl f } def
/m35 {mp x y w2 add m w2 neg w2 neg d w2 w2 neg d w2 w2 d w2 neg w2 d x y w2 sub m 0 w d x w2 sub y m w 0 d s} def
/m36 {mb x w2 sub y w2 add m w w neg d x w2 sub y w2 sub m w w d s} def
/m37 {mp x y m w4 neg w2 d w4 neg w2 neg d w2 0 d  w4 neg w2 neg d w2 0 d w4 neg w2 d w2 0 d w4 neg w2 d w4 neg w2 neg d cl s} def
/m38 {mp x w4 sub y w2 add m w4 neg w4 neg d 0 w2 neg d w4 w4 neg d w2 0 d w4 w4 d 0 w2 d w4 neg w4 d w2 neg 0 d x y w2 sub m 0 w d x w2 sub y m w 0 d cl s} def
/m39 {mp x y m w4 neg w2 d w4 neg w2 neg d w2 0 d  w4 neg w2 neg d w2 0 d w4 neg w2 d w2 0 d w4 neg w2 d w4 neg w2 neg d cl f} def
/m40 {mp x y m w4 w2 d w4 w4 neg d w2 neg w4 neg d w2 w4 neg d w4 neg w4 neg d w4 neg w2 d w4 neg w2 neg d w4 neg w4 d w2 w4 d w2 neg w4 d w4 w4 d w4 w2 neg d cl s} def
/m41 {mp x y m w4 w2 d w4 w4 neg d w2 neg w4 neg d w2 w4 neg d w4 neg w4 neg d w4 neg w2 d w4 neg w2 neg d w4 neg w4 d w2 w4 d w2 neg w4 d w4 w4 d w4 w2 neg d cl f} def
/m42 {mp x y w2 add m w8 neg w2 -3 4 div mul d w2 -3 4 div mul w8 neg d w2 3 4 div mul w8 neg d w8 w2 -3 4 div mul d w8 w2 3 4 div mul d w2 3 4 div mul w8 d w2 -3 4 div mul w8 d w8 neg w2 3 4 div mul d cl s} def
/m43 {mp x y w2 add m w8 neg w2 -3 4 div mul d w2 -3 4 div mul w8 neg d w2 3 4 div mul w8 neg d w8 w2 -3 4 div mul d w8 w2 3 4 div mul d w2 3 4 div mul w8 d w2 -3 4 div mul w8 d w8 neg w2 3 4 div mul d cl f} def
/m44 {mp x y m w6 neg w2 d w2 2 3 div mul 0 d w6 neg w2 neg d w2 w6 d 0 w2 -2 3 div mul d w2 neg w6 d w6 w2 neg d w2 -2 3 div mul 0 d w6 w2 d w2 neg w6 neg d 0 w2 2 3 div mul d w2 w6 neg d cl s} def
/m45 {mp x y m w6 neg w2 d w2 2 3 div mul 0 d w6 neg w2 neg d w2 w6 d 0 w2 -2 3 div mul d w2 neg w6 d w6 w2 neg d w2 -2 3 div mul 0 d w6 w2 d w2 neg w6 neg d 0 w2 2 3 div mul d w2 w6 neg d cl f} def
/m46 {mp x y w4 add m w4 neg w4 d w4 neg w4 neg d  w4 w4 neg d w4 neg w4 neg d w4 w4 neg d w4 w4 d w4 w4 neg d w4 w4 d w4 neg w4 d w4 w4 d w4 neg w4 d w4 neg w4 neg d cl s} def
/m47 {mp x y w4 add m w4 neg w4 d w4 neg w4 neg d w4 w4 neg d w4 neg w4 neg d  w4 w4 neg d w4 w4 d w4 w4 neg d w4 w4 d w4 neg w4 d w4 w4 d w4 neg w4 d w4 neg w4 neg d cl f} def
/m48 {mp x y w4 add m w4 neg w4 d w4 neg w4 neg d w4 w4 neg d  w4 neg w4 neg d w4 w4 neg d w4 w4 d w4 w4 neg d w4 w4 d w4 neg w4 d w4 w4 d w4 neg w4 d w4 neg w4 neg d  w4 w4 neg d w4 neg w4 neg d w4 neg w4 d w4 w4 d cl f} def
/m49 {mp x w2 sub w3 add y w2 sub w3 add m  0 w3 neg d w3 0 d 0 w3 d w3 0 d 0 w3 d w3 neg 0 d 0 w3 d w3 neg 0 d 0 w3 neg d w3 neg 0 d 0 w3 neg d w3 0 d 0 w3 d w3 0 d 0 w3 neg d w3 neg 0 d cl f } def
/m2 {mp x y w2 sub m 0 w d x w2 sub y m w 0 d s} def
/m5 {mp x w2 sub y w2 sub m w w d x w2 sub y w2 add m w w neg d s} def
%%IncludeResource: ProcSet (FontSetInit)
%%IncludeResource: font Times-Roman
%%IncludeResource: font Times-Italic
%%IncludeResource: font Times-Bold
%%IncludeResource: font Times-BoldItalic
%%IncludeResource: font Helvetica
%%IncludeResource: font Helvetica-Oblique
%%IncludeResource: font Helvetica-Bold
%%IncludeResource: font Helvetica-BoldOblique
%%IncludeResource: font Courier
%%IncludeResource: font Courier-Oblique
%%IncludeResource: font Courier-Bold
%%IncludeResource: font Courier-BoldOblique
%%IncludeResource: font Symbol
%%IncludeResource: font ZapfDingbats
/reEncode {exch findfont dup length dict begin {1 index /FID eq  {pop pop} {def} ifelse } forall /Encoding exch def currentdict end dup /FontName get exch definefont pop } def [/Times-Bold /Times-Italic /Times-BoldItalic /Helvetica /Helvetica-Oblique
 /Helvetica-Bold /Helvetica-BoldOblique /Courier /Courier-Oblique /Courier-Bold /Courier-BoldOblique /Times-Roman /AvantGarde-Book /AvantGarde-BookOblique /AvantGarde-Demi /AvantGarde-DemiOblique /Bookman-Demi /Bookman-DemiItalic /Bookman-Light
 /Bookman-LightItalic /Helvetica-Narrow /Helvetica-Narrow-Bold /Helvetica-Narrow-BoldOblique /Helvetica-Narrow-Oblique /NewCenturySchlbk-Roman /NewCenturySchlbk-Bold /NewCenturySchlbk-BoldItalic /NewCenturySchlbk-Italic /Palatino-Bold
 /Palatino-BoldItalic /Palatino-Italic /Palatino-Roman ] {ISOLatin1Encoding reEncode } forall
%%EndProlog
%%BeginSetup
%%EndSetup
newpath  gsave  .25 .25 scale  gsave  0 0 t black[  ] 0 sd 3 lw 1 1 1 c 2268 1583 0 0 bf black 1 1 1 c 2268 475 0 0 bf black 1 1 1 c 1927 275 227 190 bf black 1927 275 227 190 bl 227 190 m 1927 X s 227 202 m -12 Y s 291 196 m -6 Y s 355 196 m -6 Y s
 420 196 m -6 Y s 484 202 m -12 Y s 548 196 m -6 Y s 612 196 m -6 Y s 677 196 m -6 Y s 741 202 m -12 Y s 805 196 m -6 Y s 869 196 m -6 Y s 934 196 m -6 Y s 998 202 m -12 Y s 1062 196 m -6 Y s 1126 196 m -6 Y s 1191 196 m -6 Y s 1255 202 m -12 Y s
 1319 196 m -6 Y s 1383 196 m -6 Y s 1448 196 m -6 Y s 1512 202 m -12 Y s 1576 196 m -6 Y s 1640 196 m -6 Y s 1705 196 m -6 Y s 1769 202 m -12 Y s 1833 196 m -6 Y s 1897 196 m -6 Y s 1962 196 m -6 Y s 2026 202 m -12 Y s 2026 202 m -12 Y s 2090 196 m
 -6 Y s 2154 196 m -6 Y s
 gsave  2268 475 0 0 C 209.646 126.968 t 0 r /Helvetica findfont 53.4154 sf 0 0 m (0) show NC gr 
 gsave  2268 475 0 0 C 451.772 126.968 t 0 r /Helvetica findfont 53.4154 sf 0 0 m (20) show NC gr 
 gsave  2268 475 0 0 C 708.661 126.968 t 0 r /Helvetica findfont 53.4154 sf 0 0 m (40) show NC gr 
 gsave  2268 475 0 0 C 965.551 126.968 t 0 r /Helvetica findfont 53.4154 sf 0 0 m (60) show NC gr 
 gsave  2268 475 0 0 C 1222.44 126.968 t 0 r /Helvetica findfont 53.4154 sf 0 0 m (80) show NC gr 
 gsave  2268 475 0 0 C 1467.52 126.968 t 0 r /Helvetica findfont 53.4154 sf 0 0 m (100) show NC gr 
 gsave  2268 475 0 0 C 1724.41 126.968 t 0 r /Helvetica findfont 53.4154 sf 0 0 m (120) show NC gr 
 gsave  2268 475 0 0 C 1981.3 126.968 t 0 r /Helvetica findfont 53.4154 sf 0 0 m (140) show NC gr 
 gsave  2268 475 0 0 C 1978.35 56.1024 t 0 r /Helvetica findfont 56.3829 sf 0 0 m (\) [GeV]) show NC gr 
 gsave  2268 475 0 0 C 1957.68 23.622 t 0 r /Helvetica findfont 38.5778 sf 0 0 m (3) show NC gr 
 gsave  2268 475 0 0 C 1863.19 56.1024 t 0 r /Helvetica findfont 56.3829 sf 0 0 m (\(lep) show NC gr 
 gsave  2268 475 0 0 C 1839.57 23.622 t 0 r /Helvetica findfont 38.5778 sf 0 0 m (T) show NC gr 
 gsave  2268 475 0 0 C 1804.13 56.1024 t 0 r /Helvetica-Oblique findfont 56.3829 sf 0 0 m (p) show NC gr  227 465 m 1927 X s 227 453 m 12 Y s 291 459 m 6 Y s 355 459 m 6 Y s 420 459 m 6 Y s 484 453 m 12 Y s 548 459 m 6 Y s 612 459 m 6 Y s 677 459 m 6
 Y s 741 453 m 12 Y s 805 459 m 6 Y s 869 459 m 6 Y s 934 459 m 6 Y s 998 453 m 12 Y s 1062 459 m 6 Y s 1126 459 m 6 Y s 1191 459 m 6 Y s 1255 453 m 12 Y s 1319 459 m 6 Y s 1383 459 m 6 Y s 1448 459 m 6 Y s 1512 453 m 12 Y s 1576 459 m 6 Y s 1640 459
 m 6 Y s 1705 459 m 6 Y s 1769 453 m 12 Y s 1833 459 m 6 Y s 1897 459 m 6 Y s 1962 459 m 6 Y s 2026 453 m 12 Y s 2026 453 m 12 Y s 2090 459 m 6 Y s 2154 459 m 6 Y s 227 190 m 275 Y s 240 242 m -13 X s 240 328 m -13 X s 240 414 m -13 X s 240 242 m -13
 X s 240 414 m -13 X s
 gsave  2268 475 0 0 C 118.11 221.457 t 0 r /Helvetica findfont 53.4154 sf 0 0 m (0.5) show NC gr 
 gsave  2268 475 0 0 C 171.26 307.087 t 0 r /Helvetica findfont 53.4154 sf 0 0 m (1) show NC gr 
 gsave  2268 475 0 0 C 118.11 395.669 t 0 r /Helvetica findfont 53.4154 sf 0 0 m (1.5) show NC gr 
 gsave  2268 475 0 0 C 70.8661 233.268 t 90 r /Helvetica findfont 53.4154 sf 0 0 m (Data / SM) show NC gr  2154 190 m 275 Y s 2141 242 m 13 X s 2141 328 m 13 X s 2141 414 m 13 X s 2141 242 m 13 X s 2141 414 m 13 X s 227 190 m 1927 X s 227 465 m 1927
 X s 227 190 m 275 Y s[ 4 8] 0 sd 2154 242 m -1927 X s 2154 328 m -1927 X s 2154 414 m -1927 X s 2154 242 m -1927 X s 2154 414 m -1927 X s[  ] 0 sd 2154 190 m 275 Y s 1 1 0.6 c 193 0 227 328 bf 192 0 420 328 bf 193 0 612 328 bf 193 0 805 328 bf 193 0
 998 328 bf 192 0 1191 328 bf 193 0 1383 328 bf 193 0 1576 328 bf 193 0 1769 328 bf 192 0 1962 328 bf black 0.6 0.6 0.6 c 403 328 m -1 Y s 384 328 m -1 -1 d s 365 328 m -1 -1 d s 345 328 m -1 Y s 326 328 m -1 Y s 307 328 m -1 Y s 288 328 m -1 -1 d s
 268 328 m -1 Y s 249 328 m -1 Y s 230 328 m -1 Y s 595 328 m cl s 576 328 m cl s 557 328 m cl s 538 328 m cl s 518 328 m cl s 499 328 m cl s 480 328 m cl s 461 328 m cl s 441 328 m cl s 422 328 m cl s 788 328 m cl s 769 328 m cl s 749 328 m cl s 730
 328 m cl s 711 328 m cl s 692 328 m cl s 672 328 m cl s 653 328 m cl s 634 328 m cl s 615 328 m cl s 980 328 m cl s 961 328 m cl s 942 328 m cl s 922 328 m cl s 903 328 m cl s 884 328 m cl s 865 328 m cl s 846 328 m cl s 826 328 m cl s 807 328 m cl
 s 1173 328 m cl s 1153 328 m cl s 1134 328 m cl s 1115 328 m cl s 1096 328 m cl s 1076 328 m cl s 1057 328 m cl s 1038 328 m cl s 1019 328 m cl s 999 328 m cl s 1365 328 m cl s 1346 328 m cl s 1327 328 m cl s 1307 328 m cl s 1288 328 m cl s 1269 328
 m cl s 1250 328 m cl s 1230 328 m cl s 1211 328 m cl s 1192 328 m cl s 1557 328 m cl s 1538 328 m cl s 1519 328 m cl s 1500 328 m cl s 1481 328 m cl s 1461 328 m cl s 1442 328 m cl s 1423 328 m cl s 1404 328 m cl s 1384 328 m cl s 1750 328 m cl s
 1731 328 m cl s 1711 328 m cl s 1692 328 m cl s 1673 328 m cl s 1654 328 m cl s 1634 328 m cl s 1615 328 m cl s 1596 328 m cl s 1577 328 m cl s 1962 328 m cl s 1942 328 m cl s 1923 328 m cl s 1904 328 m cl s 1885 328 m cl s 1865 328 m cl s 1846 328
 m cl s 1827 328 m cl s 1808 328 m cl s 1788 328 m cl s 1769 328 m cl s 2154 328 m cl s 2135 328 m cl s 2116 328 m cl s 2096 328 m cl s 2077 328 m cl s 2058 328 m cl s 2039 328 m cl s 2019 328 m cl s 2000 328 m cl s 1981 328 m cl s black 1 1 1 c
 black /w 26 def /w2 {w 2 div} def /w3 {w 3 div} def 323 324 m20 227 328 m 1927 X s 227 190 m 1927 X s 227 202 m -12 Y s 291 196 m -6 Y s 355 196 m -6 Y s 420 196 m -6 Y s 484 202 m -12 Y s 548 196 m -6 Y s 612 196 m -6 Y s 677 196 m -6 Y s 741 202 m
 -12 Y s 805 196 m -6 Y s 869 196 m -6 Y s 934 196 m -6 Y s 998 202 m -12 Y s 1062 196 m -6 Y s 1126 196 m -6 Y s 1191 196 m -6 Y s 1255 202 m -12 Y s 1319 196 m -6 Y s 1383 196 m -6 Y s 1448 196 m -6 Y s 1512 202 m -12 Y s 1576 196 m -6 Y s 1640 196
 m -6 Y s 1705 196 m -6 Y s 1769 202 m -12 Y s 1833 196 m -6 Y s 1897 196 m -6 Y s 1962 196 m -6 Y s 2026 202 m -12 Y s 2026 202 m -12 Y s 2090 196 m -6 Y s 2154 196 m -6 Y s 227 465 m 1927 X s 227 453 m 12 Y s 291 459 m 6 Y s 355 459 m 6 Y s 420 459
 m 6 Y s 484 453 m 12 Y s 548 459 m 6 Y s 612 459 m 6 Y s 677 459 m 6 Y s 741 453 m 12 Y s 805 459 m 6 Y s 869 459 m 6 Y s 934 459 m 6 Y s 998 453 m 12 Y s 1062 459 m 6 Y s 1126 459 m 6 Y s 1191 459 m 6 Y s 1255 453 m 12 Y s 1319 459 m 6 Y s 1383 459
 m 6 Y s 1448 459 m 6 Y s 1512 453 m 12 Y s 1576 459 m 6 Y s 1640 459 m 6 Y s 1705 459 m 6 Y s 1769 453 m 12 Y s 1833 459 m 6 Y s 1897 459 m 6 Y s 1962 459 m 6 Y s 2026 453 m 12 Y s 2026 453 m 12 Y s 2090 459 m 6 Y s 2154 459 m 6 Y s 227 190 m 275 Y
 s 240 242 m -13 X s 240 328 m -13 X s 240 414 m -13 X s 240 242 m -13 X s 240 414 m -13 X s 2154 190 m 275 Y s 2141 242 m 13 X s 2141 328 m 13 X s 2141 414 m 13 X s 2141 242 m 13 X s 2141 414 m 13 X s 1 1 1 c 2268 1108 0 475 bf black 1 1 1 c 1927
 1041 227 486 bf black 1927 1041 227 486 bl 1 1 1 c black 3 lw 227 486 m 1927 X s 227 505 m -19 Y s 291 495 m -9 Y s 355 495 m -9 Y s 420 495 m -9 Y s 484 505 m -19 Y s 548 495 m -9 Y s 612 495 m -9 Y s 677 495 m -9 Y s 741 505 m -19 Y s 805 495 m -9
 Y s 869 495 m -9 Y s 934 495 m -9 Y s 998 505 m -19 Y s 1062 495 m -9 Y s 1126 495 m -9 Y s 1191 495 m -9 Y s 1255 505 m -19 Y s 1319 495 m -9 Y s 1383 495 m -9 Y s 1448 495 m -9 Y s 1512 505 m -19 Y s 1576 495 m -9 Y s 1640 495 m -9 Y s 1705 495 m
 -9 Y s 1769 505 m -19 Y s 1833 495 m -9 Y s 1897 495 m -9 Y s 1962 495 m -9 Y s 2026 505 m -19 Y s 2026 505 m -19 Y s 2090 495 m -9 Y s 2154 495 m -9 Y s
 gsave  2268 1108 0 475 C 2049.21 407.48 t 0 r /Helvetica findfont 32.4976 sf 0 0 m (\) [GeV]) show NC gr 
 gsave  2268 1108 0 475 C 2037.4 389.764 t 0 r /Helvetica findfont 20.6803 sf 0 0 m (3) show NC gr 
 gsave  2268 1108 0 475 C 1981.3 407.48 t 0 r /Helvetica findfont 32.4976 sf 0 0 m (\(lep) show NC gr 
 gsave  2268 1108 0 475 C 1966.54 389.764 t 0 r /Helvetica findfont 20.6803 sf 0 0 m (T) show NC gr 
 gsave  2268 1108 0 475 C 1945.87 407.48 t 0 r /Helvetica-Oblique findfont 32.4976 sf 0 0 m (p) show NC gr  227 1527 m 1927 X s 227 1508 m 19 Y s 291 1518 m 9 Y s 355 1518 m 9 Y s 420 1518 m 9 Y s 484 1508 m 19 Y s 548 1518 m 9 Y s 612 1518 m 9 Y s
 677 1518 m 9 Y s 741 1508 m 19 Y s 805 1518 m 9 Y s 869 1518 m 9 Y s 934 1518 m 9 Y s 998 1508 m 19 Y s 1062 1518 m 9 Y s 1126 1518 m 9 Y s 1191 1518 m 9 Y s 1255 1508 m 19 Y s 1319 1518 m 9 Y s 1383 1518 m 9 Y s 1448 1518 m 9 Y s 1512 1508 m 19 Y s
 1576 1518 m 9 Y s 1640 1518 m 9 Y s 1705 1518 m 9 Y s 1769 1508 m 19 Y s 1833 1518 m 9 Y s 1897 1518 m 9 Y s 1962 1518 m 9 Y s 2026 1508 m 19 Y s 2026 1508 m 19 Y s 2090 1518 m 9 Y s 2154 1518 m 9 Y s 227 486 m 1041 Y s 248 653 m -21 X s 237 687 m
 -10 X s 237 720 m -10 X s 237 754 m -10 X s 237 787 m -10 X s 248 821 m -21 X s 237 854 m -10 X s 237 888 m -10 X s 237 921 m -10 X s 237 955 m -10 X s 248 988 m -21 X s 237 1022 m -10 X s 237 1055 m -10 X s 237 1089 m -10 X s 237 1122 m -10 X s 248
 1156 m -21 X s 237 1189 m -10 X s 237 1223 m -10 X s 237 1256 m -10 X s 237 1290 m -10 X s 248 1323 m -21 X s 237 1357 m -10 X s 237 1390 m -10 X s 237 1424 m -10 X s 237 1457 m -10 X s 248 1491 m -21 X s 248 653 m -21 X s 237 620 m -10 X s 237 586
 m -10 X s 237 553 m -10 X s 237 519 m -10 X s 248 1491 m -21 X s 237 1524 m -10 X s
 gsave  2268 1108 0 475 C 82.6772 634.843 t 0 r /Helvetica findfont 53.178 sf 0 0 m (1000) show NC gr 
 gsave  2268 1108 0 475 C 82.6772 800.197 t 0 r /Helvetica findfont 53.178 sf 0 0 m (2000) show NC gr 
 gsave  2268 1108 0 475 C 82.6772 968.504 t 0 r /Helvetica findfont 53.178 sf 0 0 m (3000) show NC gr 
 gsave  2268 1108 0 475 C 82.6772 1136.81 t 0 r /Helvetica findfont 53.178 sf 0 0 m (4000) show NC gr 
 gsave  2268 1108 0 475 C 82.6772 1305.12 t 0 r /Helvetica findfont 53.178 sf 0 0 m (5000) show NC gr 
 gsave  2268 1108 0 475 C 82.6772 1470.47 t 0 r /Helvetica findfont 53.178 sf 0 0 m (6000) show NC gr 
 gsave  2268 1108 0 475 C 64.9606 1142.72 t 90 r /Helvetica findfont 53.178 sf 0 0 m (Events / 15 GeV) show NC gr  2154 486 m 1041 Y s 2133 653 m 21 X s 2144 687 m 10 X s 2144 720 m 10 X s 2144 754 m 10 X s 2144 787 m 10 X s 2133 821 m 21 X s 2144
 854 m 10 X s 2144 888 m 10 X s 2144 921 m 10 X s 2144 955 m 10 X s 2133 988 m 21 X s 2144 1022 m 10 X s 2144 1055 m 10 X s 2144 1089 m 10 X s 2144 1122 m 10 X s 2133 1156 m 21 X s 2144 1189 m 10 X s 2144 1223 m 10 X s 2144 1256 m 10 X s 2144 1290 m
 10 X s 2133 1323 m 21 X s 2144 1357 m 10 X s 2144 1390 m 10 X s 2144 1424 m 10 X s 2144 1457 m 10 X s 2133 1491 m 21 X s 2133 653 m 21 X s 2144 620 m 10 X s 2144 586 m 10 X s 2144 553 m 10 X s 2144 519 m 10 X s 2133 1491 m 21 X s 2144 1524 m 10 X s
 0.4 0.6 0.4 c black 3 lw 0.4 0.6 0.4 c 227 486 m 548 Y 193 X -548 Y 1734 X f 0.06 0.54 0.06 c 0.999 0.999 0.999 c black 3 lw 0.999 0.999 0.999 c 227 486 m 383 Y 193 X -383 Y 1734 X f 0.06 0.54 0.06 c 0.999 0.999 0.999 c 0.06 0.54 0.06 c 1 1 1 c
 black 0.06 0.54 0.06 c black 3 lw 0.06 0.54 0.06 c 227 486 m 383 Y 193 X -383 Y 1734 X f 1 0.653333 0 c 0.999 0.999 0.999 c black 3 lw 0.999 0.999 0.999 c 227 486 m 282 Y 193 X -282 Y 1734 X f 1 0.653333 0 c 0.999 0.999 0.999 c 1 0.653333 0 c 1 1 1
 c black 1 0.653333 0 c black 3 lw 1 0.653333 0 c 227 486 m 282 Y 193 X -282 Y 1734 X f 0.413333 1 0 c 0.999 0.999 0.999 c black 3 lw 0.999 0.999 0.999 c 227 486 m 234 Y 193 X -234 Y 1734 X f 0.413333 1 0 c 0.999 0.999 0.999 c 0.413333 1 0 c 1 1 1 c
 black 0.413333 1 0 c black 3 lw 0.413333 1 0 c 227 486 m 234 Y 193 X -234 Y 1734 X f 0.6 0.2 1 c 0.999 0.999 0.999 c black 3 lw 0.999 0.999 0.999 c 227 486 m 187 Y 193 X -187 Y 1734 X f 0.6 0.2 1 c 0.999 0.999 0.999 c 0.6 0.2 1 c 1 1 1 c black 0.6
 0.2 1 c black 3 lw 0.6 0.2 1 c 227 486 m 187 Y 193 X -187 Y 1734 X f 0.54 0.06 0.06 c 0.999 0.999 0.999 c black 3 lw 0.999 0.999 0.999 c 227 486 m 161 Y 193 X -161 Y 1734 X f 0.54 0.06 0.06 c 0.999 0.999 0.999 c 0.54 0.06 0.06 c 1 1 1 c black 0.54
 0.06 0.06 c black 3 lw 0.54 0.06 0.06 c 227 486 m 161 Y 193 X -161 Y 1734 X f 1 0 1 c 0.999 0.999 0.999 c black 3 lw 0.999 0.999 0.999 c 227 486 m 43 Y 193 X -43 Y 1734 X f 1 0 1 c 0.999 0.999 0.999 c 1 0 1 c 1 1 1 c black 1 0 1 c black 3 lw 1 0 1 c
 227 486 m 43 Y 193 X -43 Y 1734 X f 0 0 1 c 0.999 0.999 0.999 c black 3 lw 0.999 0.999 0.999 c 227 486 m 30 Y 193 X -30 Y 1734 X f 0 0 1 c 0.999 0.999 0.999 c 0 0 1 c 1 1 1 c black 0 0 1 c black 3 lw 0 0 1 c 227 486 m 30 Y 193 X -30 Y 1734 X f 0.2
 0.8 0.8 c 0.999 0.999 0.999 c black 3 lw 0.999 0.999 0.999 c 227 486 m 9 Y 193 X -9 Y 1734 X f 0.2 0.8 0.8 c 0.999 0.999 0.999 c 0.2 0.8 0.8 c 1 1 1 c black 0.2 0.8 0.8 c black 3 lw 0.2 0.8 0.8 c 227 486 m 9 Y 193 X -9 Y 1734 X f 1 0 0 c 0.999 0.999
 0.999 c black 3 lw 0.999 0.999 0.999 c 227 486 m 6 Y 193 X -6 Y 1734 X f 1 0 0 c 0.999 0.999 0.999 c 1 0 0 c 1 1 1 c black 1 0 0 c black 3 lw 1 0 0 c 227 486 m 6 Y 193 X -6 Y 1734 X f 1 0.84 0 c 0.999 0.999 0.999 c black 3 lw 0.999 0.999 0.999 c 227
 486 m 4 Y 193 X -4 Y 1734 X f 1 0.84 0 c 0.999 0.999 0.999 c 1 0.84 0 c 1 1 1 c black 1 0.84 0 c black 3 lw 1 0.84 0 c 227 486 m 4 Y 193 X -4 Y 1734 X f black 1 1 1 c black 0.6 0.6 0.6 c 3 lw 407 1035 m -1 -2 d s 388 1035 m -2 -2 d s 369 1035 m -2
 -2 d s 349 1035 m -1 -2 d s 330 1035 m -1 -2 d s 311 1035 m -2 -2 d s 292 1035 m -2 -2 d s 273 1035 m -2 -2 d s 253 1035 m -1 -2 d s 234 1035 m -1 -2 d s black 3 lw 1 1 1 c black /w 24 def /w2 {w 2 div} def /w3 {w 3 div} def 323 1024 m20 227 486 m
 1927 X s 227 505 m -19 Y s 291 495 m -9 Y s 355 495 m -9 Y s 420 495 m -9 Y s 484 505 m -19 Y s 548 495 m -9 Y s 612 495 m -9 Y s 677 495 m -9 Y s 741 505 m -19 Y s 805 495 m -9 Y s 869 495 m -9 Y s 934 495 m -9 Y s 998 505 m -19 Y s 1062 495 m -9 Y
 s 1126 495 m -9 Y s 1191 495 m -9 Y s 1255 505 m -19 Y s 1319 495 m -9 Y s 1383 495 m -9 Y s 1448 495 m -9 Y s 1512 505 m -19 Y s 1576 495 m -9 Y s 1640 495 m -9 Y s 1705 495 m -9 Y s 1769 505 m -19 Y s 1833 495 m -9 Y s 1897 495 m -9 Y s 1962 495 m
 -9 Y s 2026 505 m -19 Y s 2026 505 m -19 Y s 2090 495 m -9 Y s 2154 495 m -9 Y s 227 1527 m 1927 X s 227 1508 m 19 Y s 291 1518 m 9 Y s 355 1518 m 9 Y s 420 1518 m 9 Y s 484 1508 m 19 Y s 548 1518 m 9 Y s 612 1518 m 9 Y s 677 1518 m 9 Y s 741 1508 m
 19 Y s 805 1518 m 9 Y s 869 1518 m 9 Y s 934 1518 m 9 Y s 998 1508 m 19 Y s 1062 1518 m 9 Y s 1126 1518 m 9 Y s 1191 1518 m 9 Y s 1255 1508 m 19 Y s 1319 1518 m 9 Y s 1383 1518 m 9 Y s 1448 1518 m 9 Y s 1512 1508 m 19 Y s 1576 1518 m 9 Y s 1640 1518
 m 9 Y s 1705 1518 m 9 Y s 1769 1508 m 19 Y s 1833 1518 m 9 Y s 1897 1518 m 9 Y s 1962 1518 m 9 Y s 2026 1508 m 19 Y s 2026 1508 m 19 Y s 2090 1518 m 9 Y s 2154 1518 m 9 Y s 227 486 m 1041 Y s 248 653 m -21 X s 237 687 m -10 X s 237 720 m -10 X s 237
 754 m -10 X s 237 787 m -10 X s 248 821 m -21 X s 237 854 m -10 X s 237 888 m -10 X s 237 921 m -10 X s 237 955 m -10 X s 248 988 m -21 X s 237 1022 m -10 X s 237 1055 m -10 X s 237 1089 m -10 X s 237 1122 m -10 X s 248 1156 m -21 X s 237 1189 m -10
 X s 237 1223 m -10 X s 237 1256 m -10 X s 237 1290 m -10 X s 248 1323 m -21 X s 237 1357 m -10 X s 237 1390 m -10 X s 237 1424 m -10 X s 237 1457 m -10 X s 248 1491 m -21 X s 248 653 m -21 X s 237 620 m -10 X s 237 586 m -10 X s 237 553 m -10 X s
 237 519 m -10 X s 248 1491 m -21 X s 237 1524 m -10 X s 2154 486 m 1041 Y s 2133 653 m 21 X s 2144 687 m 10 X s 2144 720 m 10 X s 2144 754 m 10 X s 2144 787 m 10 X s 2133 821 m 21 X s 2144 854 m 10 X s 2144 888 m 10 X s 2144 921 m 10 X s 2144 955 m
 10 X s 2133 988 m 21 X s 2144 1022 m 10 X s 2144 1055 m 10 X s 2144 1089 m 10 X s 2144 1122 m 10 X s 2133 1156 m 21 X s 2144 1189 m 10 X s 2144 1223 m 10 X s 2144 1256 m 10 X s 2144 1290 m 10 X s 2133 1323 m 21 X s 2144 1357 m 10 X s 2144 1390 m 10
 X s 2144 1424 m 10 X s 2144 1457 m 10 X s 2133 1491 m 21 X s 2133 653 m 21 X s 2144 620 m 10 X s 2144 586 m 10 X s 2144 553 m 10 X s 2144 519 m 10 X s 2133 1491 m 21 X s 2144 1524 m 10 X s
 gsave  2268 1108 0 475 C 1313.98 1437.99 t 0 r /Helvetica findfont 56.1323 sf 0 0 m ( Data) show NC gr  1259 1463 m 7 Y s 1259 1440 m -8 Y s 1259 1451 m20
 gsave  2268 1108 0 475 C 1777.56 1437.99 t 0 r /Helvetica findfont 56.1323 sf 0 0 m ( Fakes \(MM\)) show NC gr  0.4 0.6 0.4 c 1682 1429 m 79 X 44 Y -79 X f black
 gsave  2268 1108 0 475 C 1402.56 1375.98 t 0 r /Helvetica findfont 56.1323 sf 0 0 m (single\255top) show NC gr 
 gsave  2268 1108 0 475 C 1373.03 1375.98 t 0 r /Helvetica-Oblique findfont 56.1323 sf 0 0 m (/) show NC gr 
 gsave  2268 1108 0 475 C 1352.36 1375.98 t 0 r /Helvetica-Oblique findfont 56.1323 sf 0 0 m (t) show NC gr  6 lw 1352 1420 m 21 X s
 gsave  2268 1108 0 475 C 1331.69 1375.98 t 0 r /Helvetica-Oblique findfont 56.1323 sf 0 0 m (t) show NC gr 
 gsave  2268 1108 0 475 C 1313.98 1375.98 t 0 r /Helvetica findfont 56.1323 sf 0 0 m ( ) show NC gr  0.06 0.54 0.06 c 3 lw 1219 1366 m 79 X 44 Y -79 X f 6 lw black
 gsave  2268 1108 0 475 C 1907.48 1375.98 t 0 r /Helvetica findfont 56.1323 sf 0 0 m (+jets) show NC gr 
 gsave  2268 1108 0 475 C 1795.28 1375.98 t 0 r /Helvetica-Oblique findfont 56.1323 sf 0 0 m (W/Z) show NC gr 
 gsave  2268 1108 0 475 C 1777.56 1375.98 t 0 r /Helvetica findfont 56.1323 sf 0 0 m ( ) show NC gr  1 0.653333 0 c 3 lw 1682 1366 m 79 X 44 Y -79 X f black
 gsave  2268 1108 0 475 C 1511.81 1311.02 t 0 r /Helvetica findfont 56.1323 sf 0 0 m (+jets) show NC gr 
 gsave  2268 1108 0 475 C 1331.69 1311.02 t 0 r /Helvetica-Oblique findfont 56.1323 sf 0 0 m (WZ/ZZ) show NC gr 
 gsave  2268 1108 0 475 C 1313.98 1311.02 t 0 r /Helvetica findfont 56.1323 sf 0 0 m ( ) show NC gr  0.413333 1 0 c 3 lw 1219 1303 m 79 X 44 Y -79 X f black
 gsave  2268 1108 0 475 C 1836.61 1311.02 t 0 r /Helvetica-Oblique findfont 56.1323 sf 0 0 m (Z) show NC gr 
 gsave  2268 1108 0 475 C 1815.94 1311.02 t 0 r /Helvetica-Oblique findfont 56.1323 sf 0 0 m (t) show NC gr  6 lw 1816 1355 m 21 X s
 gsave  2268 1108 0 475 C 1795.28 1311.02 t 0 r /Helvetica-Oblique findfont 56.1323 sf 0 0 m (t) show NC gr 
 gsave  2268 1108 0 475 C 1777.56 1311.02 t 0 r /Helvetica findfont 56.1323 sf 0 0 m ( ) show NC gr  0.6 0.2 1 c 3 lw 1682 1303 m 79 X 44 Y -79 X f 6 lw black
 gsave  2268 1108 0 475 C 1373.03 1249.02 t 0 r /Helvetica-Oblique findfont 56.1323 sf 0 0 m (W) show NC gr 
 gsave  2268 1108 0 475 C 1352.36 1249.02 t 0 r /Helvetica-Oblique findfont 56.1323 sf 0 0 m (t) show NC gr  6 lw 1352 1293 m 21 X s
 gsave  2268 1108 0 475 C 1331.69 1249.02 t 0 r /Helvetica-Oblique findfont 56.1323 sf 0 0 m (t) show NC gr 
 gsave  2268 1108 0 475 C 1313.98 1249.02 t 0 r /Helvetica findfont 56.1323 sf 0 0 m ( ) show NC gr  0.54 0.06 0.06 c 3 lw 1219 1239 m 79 X 45 Y -79 X f 6 lw black
 gsave  2268 1108 0 475 C 1795.28 1249.02 t 0 r /Helvetica-Oblique findfont 56.1323 sf 0 0 m (tZq) show NC gr 
 gsave  2268 1108 0 475 C 1777.56 1249.02 t 0 r /Helvetica findfont 56.1323 sf 0 0 m ( ) show NC gr  1 0 1 c 3 lw 1682 1239 m 79 X 45 Y -79 X f black
 gsave  2268 1108 0 475 C 1373.03 1184.06 t 0 r /Helvetica-Oblique findfont 56.1323 sf 0 0 m (H) show NC gr 
 gsave  2268 1108 0 475 C 1352.36 1184.06 t 0 r /Helvetica-Oblique findfont 56.1323 sf 0 0 m (t) show NC gr  6 lw 1352 1228 m 21 X s
 gsave  2268 1108 0 475 C 1331.69 1184.06 t 0 r /Helvetica-Oblique findfont 56.1323 sf 0 0 m (t) show NC gr 
 gsave  2268 1108 0 475 C 1313.98 1184.06 t 0 r /Helvetica findfont 56.1323 sf 0 0 m ( ) show NC gr  0 0 1 c 3 lw 1219 1176 m 79 X 44 Y -79 X f 6 lw black
 gsave  2268 1108 0 475 C 1795.28 1184.06 t 0 r /Helvetica-Oblique findfont 56.1323 sf 0 0 m (tWZ/tWH) show NC gr 
 gsave  2268 1108 0 475 C 1777.56 1184.06 t 0 r /Helvetica findfont 56.1323 sf 0 0 m ( ) show NC gr  0.2 0.8 0.8 c 3 lw 1682 1176 m 79 X 44 Y -79 X f black
 gsave  2268 1108 0 475 C 1331.69 1122.05 t 0 r /Helvetica-Oblique findfont 56.1323 sf 0 0 m (tHq) show NC gr 
 gsave  2268 1108 0 475 C 1313.98 1122.05 t 0 r /Helvetica findfont 56.1323 sf 0 0 m ( ) show NC gr  1 0 0 c 3 lw 1219 1113 m 79 X 44 Y -79 X f black
 gsave  2268 1108 0 475 C 1777.56 1122.05 t 0 r /Helvetica findfont 56.1323 sf 0 0 m ( Other) show NC gr  1 0.84 0 c 3 lw 1682 1113 m 79 X 44 Y -79 X f black
 gsave  2268 1108 0 475 C 1313.98 1060.04 t 0 r /Helvetica findfont 56.1323 sf 0 0 m ( Uncertainty) show NC gr  0.6 0.6 0.6 c 3 lw 1298 1060 m -10 -11 d s 1298 1079 m -30 -30 d s 1294 1094 m -45 -45 d s 1274 1094 m -44 -45 d s 1255 1094 m -36 -37 d s
 1236 1094 m -17 -17 d s 1 0.84 0 c 0.6 0.6 0.6 c black
 gsave  2268 1108 0 475 C 894.685 1337.6 t 0 r /Helvetica findfont 41.3606 sf 0 0 m (\2551) show NC gr 
 gsave  2268 1108 0 475 C 401.575 1308.07 t 0 r /Helvetica findfont 62.0409 sf 0 0 m ( = 13 TeV,  139 fb) show NC gr 
 gsave  2268 1108 0 475 C 372.047 1308.07 t 0 r /Helvetica findfont 62.0409 sf 0 0 m (s) show NC gr  6 lw 351 1344 m 6 -39 d s 3 lw 357 1305 m 9 56 d s 366 1361 m 36 X s
 gsave  2268 1108 0 475 C 339.567 1207.68 t 0 r /Helvetica findfont 62.0409 sf 0 0 m ( 2L\(SS\) pre\255selection) show NC gr 
 gsave  2268 1108 0 475 C 339.567 1405.51 t 0 r /Helvetica-BoldOblique findfont 73.8583 sf 0 0 m (ATLAS) show NC gr 
 gsave  2268 1108 0 475 C 634.843 1405.51 t 0 r /Helvetica findfont 73.8583 sf 0 0 m (Internal) show NC gr 
 gr  gr showpage
end
%%EOF
