%!PS-Adobe-2.0 EPSF-2.0
%%BoundingBox:  0 0 567 394
%%Title: /lhome/ific/c/cardillo/tHq/Plots/Plots-30-05-22-PLIV-SF/2LSS_MM/LepPt2_SRtHq.eps: LepPt2_SRtHq
%%Creator: ROOT Version 6.20/06
%%CreationDate: Mon May 30 19:25:22 2022
%%DocumentNeededResources: ProcSet (FontSetInit)
%%EndComments
%%BeginProlog
80 dict begin
/s {stroke} def /l {lineto} def /m {moveto} def /t {translate} def
/r {rotate} def /rl {roll}  def /R {repeat} def
/d {rlineto} def /rm {rmoveto} def /gr {grestore} def /f {eofill} def
/c {setrgbcolor} def /black {0 setgray} def /sd {setdash} def
/cl {closepath} def /sf {scalefont setfont} def /lw {setlinewidth} def
/box {m dup 0 exch d exch 0 d 0 exch neg d cl} def
/NC{systemdict begin initclip end}def/C{NC box clip newpath}def
/bl {box s} def /bf {gsave box gsave f grestore 1 lw [] 0 sd s grestore} def /Y { 0 exch d} def /X { 0 d} def 
/K {{pop pop 0 moveto} exch kshow} bind def
/ita {/ang 15 def gsave [1 0 ang dup sin exch cos div 1 0 0] concat} def 
/mp {newpath /y exch def /x exch def} def
/side {[w .77 mul w .23 mul] .385 w mul sd w 0 l currentpoint t -144 r} def
/mr {mp x y w2 0 360 arc} def /m24 {mr s} def /m20 {mr f} def
/mb {mp x y w2 add m w2 neg 0 d 0 w neg d w 0 d 0 w d cl} def
/mt {mp x y w2 add m w2 neg w neg d w 0 d cl} def
/w4 {w 4 div} def
/w6 {w 6 div} def
/w8 {w 8 div} def
/m21 {mb f} def /m25 {mb s} def /m22 {mt f} def /m26{mt s} def
/m23 {mp x y w2 sub m w2 w d w neg 0 d cl f} def
/m27 {mp x y w2 add m w3 neg w2 neg d w3 w2 neg d w3 w2 d cl s} def
/m28 {mp x w2 sub y w2 sub w3 add m w3 0 d  0 w3 neg d w3 0 d 0 w3 d w3 0 d  0 w3 d w3 neg 0 d 0 w3 d w3 neg 0 d 0 w3 neg d w3 neg 0 d cl s } def
/m29 {mp gsave x w2 sub y w2 add w3 sub m currentpoint t 4 {side} repeat cl fill gr} def
/m30 {mp gsave x w2 sub y w2 add w3 sub m currentpoint t 4 {side} repeat cl s gr} def
/m31 {mp x y w2 sub m 0 w d x w2 sub y m w 0 d x w2 sub y w2 add m w w neg d x w2 sub y w2 sub m w w d s} def
/m32 {mp x y w2 sub m w2 w d w neg 0 d cl s} def
/m33 {mp x y w2 add m w3 neg w2 neg d w3 w2 neg d w3 w2 d cl f} def
/m34 {mp x w2 sub y w2 sub w3 add m w3 0 d  0 w3 neg d w3 0 d 0 w3 d w3 0 d  0 w3 d w3 neg 0 d 0 w3 d w3 neg 0 d 0 w3 neg d w3 neg 0 d cl f } def
/m35 {mp x y w2 add m w2 neg w2 neg d w2 w2 neg d w2 w2 d w2 neg w2 d x y w2 sub m 0 w d x w2 sub y m w 0 d s} def
/m36 {mb x w2 sub y w2 add m w w neg d x w2 sub y w2 sub m w w d s} def
/m37 {mp x y m w4 neg w2 d w4 neg w2 neg d w2 0 d  w4 neg w2 neg d w2 0 d w4 neg w2 d w2 0 d w4 neg w2 d w4 neg w2 neg d cl s} def
/m38 {mp x w4 sub y w2 add m w4 neg w4 neg d 0 w2 neg d w4 w4 neg d w2 0 d w4 w4 d 0 w2 d w4 neg w4 d w2 neg 0 d x y w2 sub m 0 w d x w2 sub y m w 0 d cl s} def
/m39 {mp x y m w4 neg w2 d w4 neg w2 neg d w2 0 d  w4 neg w2 neg d w2 0 d w4 neg w2 d w2 0 d w4 neg w2 d w4 neg w2 neg d cl f} def
/m40 {mp x y m w4 w2 d w4 w4 neg d w2 neg w4 neg d w2 w4 neg d w4 neg w4 neg d w4 neg w2 d w4 neg w2 neg d w4 neg w4 d w2 w4 d w2 neg w4 d w4 w4 d w4 w2 neg d cl s} def
/m41 {mp x y m w4 w2 d w4 w4 neg d w2 neg w4 neg d w2 w4 neg d w4 neg w4 neg d w4 neg w2 d w4 neg w2 neg d w4 neg w4 d w2 w4 d w2 neg w4 d w4 w4 d w4 w2 neg d cl f} def
/m42 {mp x y w2 add m w8 neg w2 -3 4 div mul d w2 -3 4 div mul w8 neg d w2 3 4 div mul w8 neg d w8 w2 -3 4 div mul d w8 w2 3 4 div mul d w2 3 4 div mul w8 d w2 -3 4 div mul w8 d w8 neg w2 3 4 div mul d cl s} def
/m43 {mp x y w2 add m w8 neg w2 -3 4 div mul d w2 -3 4 div mul w8 neg d w2 3 4 div mul w8 neg d w8 w2 -3 4 div mul d w8 w2 3 4 div mul d w2 3 4 div mul w8 d w2 -3 4 div mul w8 d w8 neg w2 3 4 div mul d cl f} def
/m44 {mp x y m w6 neg w2 d w2 2 3 div mul 0 d w6 neg w2 neg d w2 w6 d 0 w2 -2 3 div mul d w2 neg w6 d w6 w2 neg d w2 -2 3 div mul 0 d w6 w2 d w2 neg w6 neg d 0 w2 2 3 div mul d w2 w6 neg d cl s} def
/m45 {mp x y m w6 neg w2 d w2 2 3 div mul 0 d w6 neg w2 neg d w2 w6 d 0 w2 -2 3 div mul d w2 neg w6 d w6 w2 neg d w2 -2 3 div mul 0 d w6 w2 d w2 neg w6 neg d 0 w2 2 3 div mul d w2 w6 neg d cl f} def
/m46 {mp x y w4 add m w4 neg w4 d w4 neg w4 neg d  w4 w4 neg d w4 neg w4 neg d w4 w4 neg d w4 w4 d w4 w4 neg d w4 w4 d w4 neg w4 d w4 w4 d w4 neg w4 d w4 neg w4 neg d cl s} def
/m47 {mp x y w4 add m w4 neg w4 d w4 neg w4 neg d w4 w4 neg d w4 neg w4 neg d  w4 w4 neg d w4 w4 d w4 w4 neg d w4 w4 d w4 neg w4 d w4 w4 d w4 neg w4 d w4 neg w4 neg d cl f} def
/m48 {mp x y w4 add m w4 neg w4 d w4 neg w4 neg d w4 w4 neg d  w4 neg w4 neg d w4 w4 neg d w4 w4 d w4 w4 neg d w4 w4 d w4 neg w4 d w4 w4 d w4 neg w4 d w4 neg w4 neg d  w4 w4 neg d w4 neg w4 neg d w4 neg w4 d w4 w4 d cl f} def
/m49 {mp x w2 sub w3 add y w2 sub w3 add m  0 w3 neg d w3 0 d 0 w3 d w3 0 d 0 w3 d w3 neg 0 d 0 w3 d w3 neg 0 d 0 w3 neg d w3 neg 0 d 0 w3 neg d w3 0 d 0 w3 d w3 0 d 0 w3 neg d w3 neg 0 d cl f } def
/m2 {mp x y w2 sub m 0 w d x w2 sub y m w 0 d s} def
/m5 {mp x w2 sub y w2 sub m w w d x w2 sub y w2 add m w w neg d s} def
%%IncludeResource: ProcSet (FontSetInit)
%%IncludeResource: font Times-Roman
%%IncludeResource: font Times-Italic
%%IncludeResource: font Times-Bold
%%IncludeResource: font Times-BoldItalic
%%IncludeResource: font Helvetica
%%IncludeResource: font Helvetica-Oblique
%%IncludeResource: font Helvetica-Bold
%%IncludeResource: font Helvetica-BoldOblique
%%IncludeResource: font Courier
%%IncludeResource: font Courier-Oblique
%%IncludeResource: font Courier-Bold
%%IncludeResource: font Courier-BoldOblique
%%IncludeResource: font Symbol
%%IncludeResource: font ZapfDingbats
/reEncode {exch findfont dup length dict begin {1 index /FID eq  {pop pop} {def} ifelse } forall /Encoding exch def currentdict end dup /FontName get exch definefont pop } def [/Times-Bold /Times-Italic /Times-BoldItalic /Helvetica /Helvetica-Oblique
 /Helvetica-Bold /Helvetica-BoldOblique /Courier /Courier-Oblique /Courier-Bold /Courier-BoldOblique /Times-Roman /AvantGarde-Book /AvantGarde-BookOblique /AvantGarde-Demi /AvantGarde-DemiOblique /Bookman-Demi /Bookman-DemiItalic /Bookman-Light
 /Bookman-LightItalic /Helvetica-Narrow /Helvetica-Narrow-Bold /Helvetica-Narrow-BoldOblique /Helvetica-Narrow-Oblique /NewCenturySchlbk-Roman /NewCenturySchlbk-Bold /NewCenturySchlbk-BoldItalic /NewCenturySchlbk-Italic /Palatino-Bold
 /Palatino-BoldItalic /Palatino-Italic /Palatino-Roman ] {ISOLatin1Encoding reEncode } forall
%%EndProlog
%%BeginSetup
%%EndSetup
newpath  gsave  .25 .25 scale  gsave  0 0 t black[  ] 0 sd 3 lw 1 1 1 c 2268 1575 0 0 bf black 1 1 1 c 2268 472 0 0 bf black 1 1 1 c 1927 274 227 189 bf black 1927 274 227 189 bl 227 189 m 1927 X s 227 201 m -12 Y s 304 195 m -6 Y s 381 195 m -6 Y s
 458 195 m -6 Y s 535 195 m -6 Y s 612 201 m -12 Y s 689 195 m -6 Y s 766 195 m -6 Y s 844 195 m -6 Y s 921 195 m -6 Y s 998 201 m -12 Y s 1075 195 m -6 Y s 1152 195 m -6 Y s 1229 195 m -6 Y s 1306 195 m -6 Y s 1383 201 m -12 Y s 1460 195 m -6 Y s
 1538 195 m -6 Y s 1615 195 m -6 Y s 1692 195 m -6 Y s 1769 201 m -12 Y s 1846 195 m -6 Y s 1923 195 m -6 Y s 2000 195 m -6 Y s 2077 195 m -6 Y s 2154 201 m -12 Y s
 gsave  2268 472 0 0 C 210.193 127.3 t 0 r /Helvetica findfont 53.4895 sf 0 0 m (0) show NC gr 
 gsave  2268 472 0 0 C 580.251 127.3 t 0 r /Helvetica findfont 53.4895 sf 0 0 m (50) show NC gr 
 gsave  2268 472 0 0 C 953.27 127.3 t 0 r /Helvetica findfont 53.4895 sf 0 0 m (100) show NC gr 
 gsave  2268 472 0 0 C 1338.13 127.3 t 0 r /Helvetica findfont 53.4895 sf 0 0 m (150) show NC gr 
 gsave  2268 472 0 0 C 1722.99 127.3 t 0 r /Helvetica findfont 53.4895 sf 0 0 m (200) show NC gr 
 gsave  2268 472 0 0 C 2107.85 127.3 t 0 r /Helvetica findfont 53.4895 sf 0 0 m (250) show NC gr 
 gsave  2268 472 0 0 C 1977.59 53.2884 t 0 r /Helvetica findfont 56.4611 sf 0 0 m (\) [GeV]) show NC gr 
 gsave  2268 472 0 0 C 1956.87 20.7233 t 0 r /Helvetica findfont 38.6313 sf 0 0 m (2) show NC gr 
 gsave  2268 472 0 0 C 1862.13 53.2884 t 0 r /Helvetica findfont 56.4611 sf 0 0 m (\(lep) show NC gr 
 gsave  2268 472 0 0 C 1838.45 20.7233 t 0 r /Helvetica findfont 38.6313 sf 0 0 m (T) show NC gr 
 gsave  2268 472 0 0 C 1802.92 53.2884 t 0 r /Helvetica-Oblique findfont 56.4611 sf 0 0 m (p) show NC gr  227 463 m 1927 X s 227 451 m 12 Y s 304 457 m 6 Y s 381 457 m 6 Y s 458 457 m 6 Y s 535 457 m 6 Y s 612 451 m 12 Y s 689 457 m 6 Y s 766 457 m 6
 Y s 844 457 m 6 Y s 921 457 m 6 Y s 998 451 m 12 Y s 1075 457 m 6 Y s 1152 457 m 6 Y s 1229 457 m 6 Y s 1306 457 m 6 Y s 1383 451 m 12 Y s 1460 457 m 6 Y s 1538 457 m 6 Y s 1615 457 m 6 Y s 1692 457 m 6 Y s 1769 451 m 12 Y s 1846 457 m 6 Y s 1923
 457 m 6 Y s 2000 457 m 6 Y s 2077 457 m 6 Y s 2154 451 m 12 Y s 227 189 m 274 Y s 240 240 m -13 X s 240 326 m -13 X s 240 412 m -13 X s 240 240 m -13 X s 240 412 m -13 X s
 gsave  2268 472 0 0 C 118.419 222.035 t 0 r /Helvetica findfont 53.4895 sf 0 0 m (0.5) show NC gr 
 gsave  2268 472 0 0 C 171.707 307.888 t 0 r /Helvetica findfont 53.4895 sf 0 0 m (1) show NC gr 
 gsave  2268 472 0 0 C 118.419 393.742 t 0 r /Helvetica findfont 53.4895 sf 0 0 m (1.5) show NC gr 
 gsave  2268 472 0 0 C 71.0512 230.916 t 90 r /Helvetica findfont 53.4895 sf 0 0 m (Data / SM) show NC gr  2154 189 m 274 Y s 2141 240 m 13 X s 2141 326 m 13 X s 2141 412 m 13 X s 2141 240 m 13 X s 2141 412 m 13 X s 227 189 m 1927 X s 227 463 m 1927
 X s 227 189 m 274 Y s[ 4 8] 0 sd 2154 240 m -1927 X s 2154 326 m -1927 X s 2154 412 m -1927 X s 2154 240 m -1927 X s 2154 412 m -1927 X s[  ] 0 sd 2154 189 m 274 Y s 1 1 0.6 c 193 0 227 326 bf 192 0 420 326 bf 193 0 612 326 bf 193 0 805 326 bf 193 0
 998 326 bf 192 0 1191 326 bf 193 0 1383 326 bf 193 0 1576 326 bf 193 0 1769 326 bf 192 0 1962 326 bf black 0.6 0.6 0.6 c 420 325 m -7 -7 d s 409 334 m -15 -16 d s 390 334 m -15 -16 d s 371 334 m -15 -16 d s 352 334 m -16 -16 d s 332 334 m -15 -16 d
 s 313 334 m -15 -16 d s 294 334 m -15 -16 d s 275 334 m -16 -16 d s 255 334 m -15 -16 d s 236 334 m -9 -10 d s 612 325 m -3 -3 d s 598 330 m -8 -8 d s 579 330 m -8 -8 d s 560 330 m -8 -8 d s 540 330 m -7 -8 d s 521 330 m -8 -8 d s 502 330 m -8 -8 d
 s 483 330 m -8 -8 d s 463 330 m -7 -8 d s 444 330 m -8 -8 d s 425 330 m -5 -5 d s 805 325 m -11 -11 d s 798 338 m -23 -24 d s 779 338 m -23 -24 d s 760 338 m -24 -24 d s 741 338 m -24 -24 d s 721 338 m -23 -24 d s 702 338 m -23 -24 d s 683 338 m -24
 -24 d s 664 338 m -24 -24 d s 644 338 m -23 -24 d s 625 338 m -13 -13 d s 998 306 m -8 -8 d s 998 326 m -27 -28 d s 998 345 m -47 -47 d s 988 354 m -56 -56 d s 968 354 m -55 -56 d s 949 354 m -55 -56 d s 930 354 m -56 -56 d s 911 354 m -56 -56 d s
 891 354 m -55 -56 d s 872 354 m -55 -56 d s 853 354 m -48 -48 d s 834 354 m -29 -29 d s 814 354 m -9 -9 d s 1191 229 m -5 -4 d s 1191 249 m -24 -24 d s 1191 268 m -43 -43 d s 1191 287 m -62 -62 d s 1191 307 m -82 -82 d s 1191 326 m -101 -101 d s
 1191 345 m -120 -120 d s 1191 365 m -139 -140 d s 1191 384 m -159 -159 d s 1191 403 m -178 -178 d s 1191 422 m -193 -193 d s 1176 427 m -178 -179 d s 1157 427 m -159 -159 d s 1137 427 m -139 -140 d s 1118 427 m -120 -121 d s 1099 427 m -101 -101 d s
 1080 427 m -82 -82 d s 1060 427 m -62 -63 d s 1041 427 m -43 -44 d s 1022 427 m -24 -24 d s 1003 427 m -5 -5 d s 1383 210 m -12 -12 d s 1383 230 m -31 -32 d s 1383 249 m -50 -51 d s 1383 268 m -70 -70 d s 1383 288 m -89 -90 d s 1383 307 m -108 -109
 d s 1383 326 m -127 -128 d s 1383 346 m -146 -148 d s 1383 365 m -166 -167 d s 1383 384 m -185 -186 d s 1383 403 m -192 -193 d s 1383 423 m -192 -194 d s 1383 442 m -192 -193 d s 1376 454 m -185 -186 d s 1357 454 m -166 -167 d s 1337 454 m -146 -147
 d s 1318 454 m -127 -128 d s 1299 454 m -108 -109 d s 1280 454 m -89 -89 d s 1260 454 m -69 -70 d s 1241 454 m -50 -51 d s 1222 454 m -31 -32 d s 1203 454 m -12 -12 d s 1576 326 m cl s 1556 326 m cl s 1537 326 m cl s 1518 326 m cl s 1499 326 m cl s
 1479 326 m cl s 1460 326 m cl s 1441 326 m cl s 1422 326 m cl s 1402 326 m cl s 1768 326 m cl s 1749 326 m cl s 1729 326 m cl s 1710 326 m cl s 1691 326 m cl s 1672 326 m cl s 1653 326 m cl s 1633 326 m cl s 1614 326 m cl s 1595 326 m cl s 1960 326
 m cl s 1941 326 m cl s 1922 326 m cl s 1903 326 m cl s 1883 326 m cl s 1864 326 m cl s 1845 326 m cl s 1826 326 m cl s 1806 326 m cl s 1787 326 m cl s 2153 326 m cl s 2134 326 m cl s 2114 326 m cl s 2095 326 m cl s 2076 326 m cl s 2057 326 m cl s
 2037 326 m cl s 2018 326 m cl s 1999 326 m cl s 1980 326 m cl s black 1 1 1 c black 323 222 m 34 Y s 323 279 m 35 Y s /w 26 def /w2 {w 2 div} def /w3 {w 3 div} def 323 268 m20 516 282 m 15 Y s 516 320 m 15 Y s 516 309 m20 709 294 m 73 Y s 709 391 m
 72 Y s 709 379 m20 227 326 m 1927 X s 227 189 m 1927 X s 227 201 m -12 Y s 304 195 m -6 Y s 381 195 m -6 Y s 458 195 m -6 Y s 535 195 m -6 Y s 612 201 m -12 Y s 689 195 m -6 Y s 766 195 m -6 Y s 844 195 m -6 Y s 921 195 m -6 Y s 998 201 m -12 Y s
 1075 195 m -6 Y s 1152 195 m -6 Y s 1229 195 m -6 Y s 1306 195 m -6 Y s 1383 201 m -12 Y s 1460 195 m -6 Y s 1538 195 m -6 Y s 1615 195 m -6 Y s 1692 195 m -6 Y s 1769 201 m -12 Y s 1846 195 m -6 Y s 1923 195 m -6 Y s 2000 195 m -6 Y s 2077 195 m -6
 Y s 2154 201 m -12 Y s 227 463 m 1927 X s 227 451 m 12 Y s 304 457 m 6 Y s 381 457 m 6 Y s 458 457 m 6 Y s 535 457 m 6 Y s 612 451 m 12 Y s 689 457 m 6 Y s 766 457 m 6 Y s 844 457 m 6 Y s 921 457 m 6 Y s 998 451 m 12 Y s 1075 457 m 6 Y s 1152 457 m
 6 Y s 1229 457 m 6 Y s 1306 457 m 6 Y s 1383 451 m 12 Y s 1460 457 m 6 Y s 1538 457 m 6 Y s 1615 457 m 6 Y s 1692 457 m 6 Y s 1769 451 m 12 Y s 1846 457 m 6 Y s 1923 457 m 6 Y s 2000 457 m 6 Y s 2077 457 m 6 Y s 2154 451 m 12 Y s 227 189 m 274 Y s
 240 240 m -13 X s 240 326 m -13 X s 240 412 m -13 X s 240 240 m -13 X s 240 412 m -13 X s 2154 189 m 274 Y s 2141 240 m 13 X s 2141 326 m 13 X s 2141 412 m 13 X s 2141 240 m 13 X s 2141 412 m 13 X s 1 1 1 c 2268 1103 0 472 bf black 1 1 1 c 1927 1036
 227 484 bf black 1927 1036 227 484 bl 1 1 1 c black 3 lw 227 484 m 1927 X s 227 502 m -18 Y s 304 493 m -9 Y s 381 493 m -9 Y s 458 493 m -9 Y s 535 493 m -9 Y s 612 502 m -18 Y s 689 493 m -9 Y s 766 493 m -9 Y s 844 493 m -9 Y s 921 493 m -9 Y s
 998 502 m -18 Y s 1075 493 m -9 Y s 1152 493 m -9 Y s 1229 493 m -9 Y s 1306 493 m -9 Y s 1383 502 m -18 Y s 1460 493 m -9 Y s 1538 493 m -9 Y s 1615 493 m -9 Y s 1692 493 m -9 Y s 1769 502 m -18 Y s 1846 493 m -9 Y s 1923 493 m -9 Y s 2000 493 m -9
 Y s 2077 493 m -9 Y s 2154 502 m -18 Y s
 gsave  2268 1103 0 472 C 2060.48 408.544 t 0 r /Helvetica findfont 29.6365 sf 0 0 m (\) [GeV]) show NC gr 
 gsave  2268 1103 0 472 C 2048.64 390.781 t 0 r /Helvetica findfont 20.7455 sf 0 0 m (2) show NC gr 
 gsave  2268 1103 0 472 C 1998.31 408.544 t 0 r /Helvetica findfont 29.6365 sf 0 0 m (\(lep) show NC gr 
 gsave  2268 1103 0 472 C 1983.51 387.821 t 0 r /Helvetica findfont 20.7455 sf 0 0 m (T) show NC gr 
 gsave  2268 1103 0 472 C 1965.75 408.544 t 0 r /Helvetica-Oblique findfont 29.6365 sf 0 0 m (p) show NC gr  227 1520 m 1927 X s 227 1501 m 19 Y s 304 1510 m 10 Y s 381 1510 m 10 Y s 458 1510 m 10 Y s 535 1510 m 10 Y s 612 1501 m 19 Y s 689 1510 m 10
 Y s 766 1510 m 10 Y s 844 1510 m 10 Y s 921 1510 m 10 Y s 998 1501 m 19 Y s 1075 1510 m 10 Y s 1152 1510 m 10 Y s 1229 1510 m 10 Y s 1306 1510 m 10 Y s 1383 1501 m 19 Y s 1460 1510 m 10 Y s 1538 1510 m 10 Y s 1615 1510 m 10 Y s 1692 1510 m 10 Y s
 1769 1501 m 19 Y s 1846 1510 m 10 Y s 1923 1510 m 10 Y s 2000 1510 m 10 Y s 2077 1510 m 10 Y s 2154 1501 m 19 Y s 227 484 m 1036 Y s 248 596 m -21 X s 237 619 m -10 X s 237 641 m -10 X s 237 664 m -10 X s 237 686 m -10 X s 248 709 m -21 X s 237 732
 m -10 X s 237 754 m -10 X s 237 777 m -10 X s 237 799 m -10 X s 248 822 m -21 X s 237 844 m -10 X s 237 867 m -10 X s 237 889 m -10 X s 237 912 m -10 X s 248 935 m -21 X s 237 957 m -10 X s 237 980 m -10 X s 237 1002 m -10 X s 237 1025 m -10 X s 248
 1047 m -21 X s 237 1070 m -10 X s 237 1092 m -10 X s 237 1115 m -10 X s 237 1138 m -10 X s 248 1160 m -21 X s 237 1183 m -10 X s 237 1205 m -10 X s 237 1228 m -10 X s 237 1250 m -10 X s 248 1273 m -21 X s 237 1295 m -10 X s 237 1318 m -10 X s 237
 1341 m -10 X s 237 1363 m -10 X s 248 1386 m -21 X s 237 1408 m -10 X s 237 1431 m -10 X s 237 1453 m -10 X s 237 1476 m -10 X s 248 1498 m -21 X s 248 596 m -21 X s 237 574 m -10 X s 237 551 m -10 X s 237 529 m -10 X s 237 506 m -10 X s 248 1498 m
 -21 X s
 gsave  2268 1103 0 472 C 145.063 577.291 t 0 r /Helvetica findfont 50.382 sf 0 0 m (10) show NC gr 
 gsave  2268 1103 0 472 C 145.063 689.788 t 0 r /Helvetica findfont 50.382 sf 0 0 m (20) show NC gr 
 gsave  2268 1103 0 472 C 145.063 802.286 t 0 r /Helvetica findfont 50.382 sf 0 0 m (30) show NC gr 
 gsave  2268 1103 0 472 C 145.063 914.784 t 0 r /Helvetica findfont 50.382 sf 0 0 m (40) show NC gr 
 gsave  2268 1103 0 472 C 145.063 1027.28 t 0 r /Helvetica findfont 50.382 sf 0 0 m (50) show NC gr 
 gsave  2268 1103 0 472 C 145.063 1139.78 t 0 r /Helvetica findfont 50.382 sf 0 0 m (60) show NC gr 
 gsave  2268 1103 0 472 C 145.063 1252.28 t 0 r /Helvetica findfont 50.382 sf 0 0 m (70) show NC gr 
 gsave  2268 1103 0 472 C 145.063 1367.74 t 0 r /Helvetica findfont 50.382 sf 0 0 m (80) show NC gr 
 gsave  2268 1103 0 472 C 145.063 1480.23 t 0 r /Helvetica findfont 50.382 sf 0 0 m (90) show NC gr 
 gsave  2268 1103 0 472 C 62.1698 1154.58 t 90 r /Helvetica findfont 50.382 sf 0 0 m (Events / 25 GeV) show NC gr  2154 484 m 1036 Y s 2133 596 m 21 X s 2144 619 m 10 X s 2144 641 m 10 X s 2144 664 m 10 X s 2144 686 m 10 X s 2133 709 m 21 X s 2144
 732 m 10 X s 2144 754 m 10 X s 2144 777 m 10 X s 2144 799 m 10 X s 2133 822 m 21 X s 2144 844 m 10 X s 2144 867 m 10 X s 2144 889 m 10 X s 2144 912 m 10 X s 2133 935 m 21 X s 2144 957 m 10 X s 2144 980 m 10 X s 2144 1002 m 10 X s 2144 1025 m 10 X s
 2133 1047 m 21 X s 2144 1070 m 10 X s 2144 1092 m 10 X s 2144 1115 m 10 X s 2144 1138 m 10 X s 2133 1160 m 21 X s 2144 1183 m 10 X s 2144 1205 m 10 X s 2144 1228 m 10 X s 2144 1250 m 10 X s 2133 1273 m 21 X s 2144 1295 m 10 X s 2144 1318 m 10 X s
 2144 1341 m 10 X s 2144 1363 m 10 X s 2133 1386 m 21 X s 2144 1408 m 10 X s 2144 1431 m 10 X s 2144 1453 m 10 X s 2144 1476 m 10 X s 2133 1498 m 21 X s 2133 596 m 21 X s 2144 574 m 10 X s 2144 551 m 10 X s 2144 529 m 10 X s 2144 506 m 10 X s 2133
 1498 m 21 X s 0.4 0.6 0.4 c black 3 lw 0.4 0.6 0.4 c 227 484 m 102 Y 193 X 312 Y 192 X -354 Y 193 X -57 Y 193 X -3 Y 1156 X f 0.06 0.54 0.06 c 0.999 0.999 0.999 c black 3 lw 0.999 0.999 0.999 c 227 484 m 35 Y 193 X 183 Y 192 X -171 Y 193 X -44 Y 193
 X -3 Y 1156 X f 0.06 0.54 0.06 c 0.999 0.999 0.999 c 0.06 0.54 0.06 c 1 1 1 c black 0.06 0.54 0.06 c black 3 lw 0.06 0.54 0.06 c 227 484 m 35 Y 193 X 183 Y 192 X -171 Y 193 X -44 Y 193 X -3 Y 1156 X f 1 0.653333 0 c 0.999 0.999 0.999 c black 3 lw
 0.999 0.999 0.999 c 227 484 m 32 Y 193 X 164 Y 192 X -156 Y 193 X -37 Y 193 X -3 Y 1156 X f 1 0.653333 0 c 0.999 0.999 0.999 c 1 0.653333 0 c 1 1 1 c black 1 0.653333 0 c black 3 lw 1 0.653333 0 c 227 484 m 32 Y 193 X 164 Y 192 X -156 Y 193 X -37 Y
 193 X -3 Y 1156 X f 0.413333 1 0 c 0.999 0.999 0.999 c black 3 lw 0.999 0.999 0.999 c 227 484 m 32 Y 193 X 164 Y 192 X -156 Y 193 X -37 Y 193 X -3 Y 1156 X f 0.413333 1 0 c 0.999 0.999 0.999 c 0.413333 1 0 c 1 1 1 c black 0.413333 1 0 c black 3 lw
 0.413333 1 0 c 227 484 m 32 Y 193 X 164 Y 192 X -156 Y 193 X -37 Y 193 X -3 Y 1156 X f 0.6 0.2 1 c 0.999 0.999 0.999 c black 3 lw 0.999 0.999 0.999 c 227 484 m 26 Y 193 X 139 Y 192 X -132 Y 193 X -31 Y 193 X -2 Y 1156 X f 0.6 0.2 1 c 0.999 0.999
 0.999 c 0.6 0.2 1 c 1 1 1 c black 0.6 0.2 1 c black 3 lw 0.6 0.2 1 c 227 484 m 26 Y 193 X 139 Y 192 X -132 Y 193 X -31 Y 193 X -2 Y 1156 X f 0.54 0.06 0.06 c 0.999 0.999 0.999 c black 3 lw 0.999 0.999 0.999 c 227 484 m 23 Y 193 X 127 Y 192 X -120 Y
 193 X -28 Y 193 X -2 Y 1156 X f 0.54 0.06 0.06 c 0.999 0.999 0.999 c 0.54 0.06 0.06 c 1 1 1 c black 0.54 0.06 0.06 c black 3 lw 0.54 0.06 0.06 c 227 484 m 23 Y 193 X 127 Y 192 X -120 Y 193 X -28 Y 193 X -2 Y 1156 X f 1 0 1 c 0.999 0.999 0.999 c
 black 3 lw 0.999 0.999 0.999 c 227 484 m 16 Y 193 X 83 Y 192 X -80 Y 193 X -18 Y 193 X -1 Y 1156 X f 1 0 1 c 0.999 0.999 0.999 c 1 0 1 c 1 1 1 c black 1 0 1 c black 3 lw 1 0 1 c 227 484 m 16 Y 193 X 83 Y 192 X -80 Y 193 X -18 Y 193 X -1 Y 1156 X f 0
 0 1 c 0.999 0.999 0.999 c black 3 lw 0.999 0.999 0.999 c 227 484 m 5 Y 193 X 25 Y 192 X -25 Y 193 X -5 Y 1349 X f 0 0 1 c 0.999 0.999 0.999 c 0 0 1 c 1 1 1 c black 0 0 1 c black 3 lw 0 0 1 c 227 484 m 5 Y 193 X 25 Y 192 X -25 Y 193 X -5 Y 1349 X f
 0.2 0.8 0.8 c 0.999 0.999 0.999 c black 3 lw 0.999 0.999 0.999 c 227 484 m 3 Y 193 X 16 Y 192 X -16 Y 193 X -3 Y 1349 X f 0.2 0.8 0.8 c 0.999 0.999 0.999 c 0.2 0.8 0.8 c 1 1 1 c black 0.2 0.8 0.8 c black 3 lw 0.2 0.8 0.8 c 227 484 m 3 Y 193 X 16 Y
 192 X -16 Y 193 X -3 Y 1349 X f 1 0 0 c 0.999 0.999 0.999 c black 3 lw 0.999 0.999 0.999 c 227 484 m 3 Y 193 X 14 Y 192 X -14 Y 193 X -3 Y 1349 X f 1 0 0 c 0.999 0.999 0.999 c 1 0 0 c 1 1 1 c black 1 0 0 c black 3 lw 1 0 0 c 227 484 m 3 Y 193 X 14 Y
 192 X -14 Y 193 X -3 Y 1349 X f 1 0.84 0 c 0.999 0.999 0.999 c black 3 lw 0.999 0.999 0.999 c 227 484 m 1927 X f 1 0.84 0 c 0.999 0.999 0.999 c 1 0.84 0 c 1 1 1 c black 1 0.84 0 c black 3 lw 1 0.84 0 c 227 484 m 1927 X f black 1 1 1 c black 0.6 0.6
 0.6 c 3 lw 420 584 m -3 -3 d s 407 591 m -9 -10 d s 388 591 m -9 -10 d s 369 591 m -10 -10 d s 349 591 m -9 -10 d s 330 591 m -9 -10 d s 311 591 m -9 -10 d s 292 591 m -10 -10 d s 272 591 m -9 -10 d s 253 591 m -9 -10 d s 234 591 m -7 -7 d s 3 lw
 612 892 m -3 -4 d s 609 908 m -19 -20 d s 590 908 m -20 -20 d s 570 908 m -19 -20 d s 551 908 m -19 -20 d s 532 908 m -19 -20 d s 513 908 m -19 -20 d s 494 908 m -20 -20 d s 474 908 m -19 -20 d s 455 908 m -19 -20 d s 436 908 m -16 -17 d s 3 lw 805
 546 m -7 -7 d s 787 548 m -8 -9 d s 768 548 m -8 -9 d s 749 548 m -8 -9 d s 730 548 m -9 -9 d s 710 548 m -8 -9 d s 691 548 m -8 -9 d s 672 548 m -8 -9 d s 653 548 m -9 -9 d s 633 548 m -8 -9 d s 614 548 m -2 -2 d s 3 lw 997 488 m -1 -1 d s 978 488
 m -2 -1 d s 958 488 m -1 -1 d s 939 488 m -1 -1 d s 920 488 m -1 -1 d s 901 488 m -2 -1 d s 882 488 m -2 -1 d s 862 488 m -1 -1 d s 843 488 m -1 -1 d s 824 488 m -2 -1 d s 3 lw 1185 484 m s 1166 484 m s 1147 484 m -1 X s 1127 484 m s 1108 484 m s
 1089 484 m s 1070 484 m -1 X s 1051 484 m -1 X s 1031 484 m s 1012 484 m s black 3 lw 1 1 1 c black 323 523 m 16 Y s 323 563 m 16 Y s /w 24 def /w2 {w 2 div} def /w3 {w 3 div} def 323 551 m20 516 791 m 53 Y s 516 867 m 53 Y s 516 856 m20 709 533 m
 18 Y s 709 574 m 18 Y s 709 562 m20 1094 495 m20 227 484 m 1927 X s 227 502 m -18 Y s 304 493 m -9 Y s 381 493 m -9 Y s 458 493 m -9 Y s 535 493 m -9 Y s 612 502 m -18 Y s 689 493 m -9 Y s 766 493 m -9 Y s 844 493 m -9 Y s 921 493 m -9 Y s 998 502 m
 -18 Y s 1075 493 m -9 Y s 1152 493 m -9 Y s 1229 493 m -9 Y s 1306 493 m -9 Y s 1383 502 m -18 Y s 1460 493 m -9 Y s 1538 493 m -9 Y s 1615 493 m -9 Y s 1692 493 m -9 Y s 1769 502 m -18 Y s 1846 493 m -9 Y s 1923 493 m -9 Y s 2000 493 m -9 Y s 2077
 493 m -9 Y s 2154 502 m -18 Y s 227 1520 m 1927 X s 227 1501 m 19 Y s 304 1510 m 10 Y s 381 1510 m 10 Y s 458 1510 m 10 Y s 535 1510 m 10 Y s 612 1501 m 19 Y s 689 1510 m 10 Y s 766 1510 m 10 Y s 844 1510 m 10 Y s 921 1510 m 10 Y s 998 1501 m 19 Y s
 1075 1510 m 10 Y s 1152 1510 m 10 Y s 1229 1510 m 10 Y s 1306 1510 m 10 Y s 1383 1501 m 19 Y s 1460 1510 m 10 Y s 1538 1510 m 10 Y s 1615 1510 m 10 Y s 1692 1510 m 10 Y s 1769 1501 m 19 Y s 1846 1510 m 10 Y s 1923 1510 m 10 Y s 2000 1510 m 10 Y s
 2077 1510 m 10 Y s 2154 1501 m 19 Y s 227 484 m 1036 Y s 248 596 m -21 X s 237 619 m -10 X s 237 641 m -10 X s 237 664 m -10 X s 237 686 m -10 X s 248 709 m -21 X s 237 732 m -10 X s 237 754 m -10 X s 237 777 m -10 X s 237 799 m -10 X s 248 822 m
 -21 X s 237 844 m -10 X s 237 867 m -10 X s 237 889 m -10 X s 237 912 m -10 X s 248 935 m -21 X s 237 957 m -10 X s 237 980 m -10 X s 237 1002 m -10 X s 237 1025 m -10 X s 248 1047 m -21 X s 237 1070 m -10 X s 237 1092 m -10 X s 237 1115 m -10 X s
 237 1138 m -10 X s 248 1160 m -21 X s 237 1183 m -10 X s 237 1205 m -10 X s 237 1228 m -10 X s 237 1250 m -10 X s 248 1273 m -21 X s 237 1295 m -10 X s 237 1318 m -10 X s 237 1341 m -10 X s 237 1363 m -10 X s 248 1386 m -21 X s 237 1408 m -10 X s
 237 1431 m -10 X s 237 1453 m -10 X s 237 1476 m -10 X s 248 1498 m -21 X s 248 596 m -21 X s 237 574 m -10 X s 237 551 m -10 X s 237 529 m -10 X s 237 506 m -10 X s 248 1498 m -21 X s 2154 484 m 1036 Y s 2133 596 m 21 X s 2144 619 m 10 X s 2144 641
 m 10 X s 2144 664 m 10 X s 2144 686 m 10 X s 2133 709 m 21 X s 2144 732 m 10 X s 2144 754 m 10 X s 2144 777 m 10 X s 2144 799 m 10 X s 2133 822 m 21 X s 2144 844 m 10 X s 2144 867 m 10 X s 2144 889 m 10 X s 2144 912 m 10 X s 2133 935 m 21 X s 2144
 957 m 10 X s 2144 980 m 10 X s 2144 1002 m 10 X s 2144 1025 m 10 X s 2133 1047 m 21 X s 2144 1070 m 10 X s 2144 1092 m 10 X s 2144 1115 m 10 X s 2144 1138 m 10 X s 2133 1160 m 21 X s 2144 1183 m 10 X s 2144 1205 m 10 X s 2144 1228 m 10 X s 2144 1250
 m 10 X s 2133 1273 m 21 X s 2144 1295 m 10 X s 2144 1318 m 10 X s 2144 1341 m 10 X s 2144 1363 m 10 X s 2133 1386 m 21 X s 2144 1408 m 10 X s 2144 1431 m 10 X s 2144 1453 m 10 X s 2144 1476 m 10 X s 2133 1498 m 21 X s 2133 596 m 21 X s 2144 574 m 10
 X s 2144 551 m 10 X s 2144 529 m 10 X s 2144 506 m 10 X s 2133 1498 m 21 X s
 gsave  2268 1103 0 472 C 1314.45 1432.87 t 0 r /Helvetica findfont 56.3093 sf 0 0 m ( Data) show NC gr  1259 1456 m 7 Y s 1259 1432 m -7 Y s 1259 1444 m20
 gsave  2268 1103 0 472 C 1776.28 1432.87 t 0 r /Helvetica findfont 56.3093 sf 0 0 m ( Fakes \(MM\)) show NC gr  0.4 0.6 0.4 c 1682 1422 m 79 X 44 Y -79 X f black
 gsave  2268 1103 0 472 C 1403.26 1367.74 t 0 r /Helvetica findfont 56.3093 sf 0 0 m (single\255top) show NC gr 
 gsave  2268 1103 0 472 C 1373.66 1367.74 t 0 r /Helvetica-Oblique findfont 56.3093 sf 0 0 m (/) show NC gr 
 gsave  2268 1103 0 472 C 1352.93 1367.74 t 0 r /Helvetica-Oblique findfont 56.3093 sf 0 0 m (t) show NC gr  6 lw 1353 1412 m 21 X s
 gsave  2268 1103 0 472 C 1332.21 1367.74 t 0 r /Helvetica-Oblique findfont 56.3093 sf 0 0 m (t) show NC gr 
 gsave  2268 1103 0 472 C 1314.45 1367.74 t 0 r /Helvetica findfont 56.3093 sf 0 0 m ( ) show NC gr  0.06 0.54 0.06 c 3 lw 1219 1359 m 79 X 44 Y -79 X f 6 lw black
 gsave  2268 1103 0 472 C 1906.54 1367.74 t 0 r /Helvetica findfont 56.3093 sf 0 0 m (+jets) show NC gr 
 gsave  2268 1103 0 472 C 1794.04 1367.74 t 0 r /Helvetica-Oblique findfont 56.3093 sf 0 0 m (W/Z) show NC gr 
 gsave  2268 1103 0 472 C 1776.28 1367.74 t 0 r /Helvetica findfont 56.3093 sf 0 0 m ( ) show NC gr  1 0.653333 0 c 3 lw 1682 1359 m 79 X 44 Y -79 X f black
 gsave  2268 1103 0 472 C 1512.8 1305.57 t 0 r /Helvetica findfont 56.3093 sf 0 0 m (+jets) show NC gr 
 gsave  2268 1103 0 472 C 1332.21 1305.57 t 0 r /Helvetica-Oblique findfont 56.3093 sf 0 0 m (WZ/ZZ) show NC gr 
 gsave  2268 1103 0 472 C 1314.45 1305.57 t 0 r /Helvetica findfont 56.3093 sf 0 0 m ( ) show NC gr  0.413333 1 0 c 3 lw 1219 1296 m 79 X 44 Y -79 X f black
 gsave  2268 1103 0 472 C 1835.49 1305.57 t 0 r /Helvetica-Oblique findfont 56.3093 sf 0 0 m (Z) show NC gr 
 gsave  2268 1103 0 472 C 1814.77 1305.57 t 0 r /Helvetica-Oblique findfont 56.3093 sf 0 0 m (t) show NC gr  6 lw 1815 1350 m 20 X s
 gsave  2268 1103 0 472 C 1794.04 1305.57 t 0 r /Helvetica-Oblique findfont 56.3093 sf 0 0 m (t) show NC gr 
 gsave  2268 1103 0 472 C 1776.28 1305.57 t 0 r /Helvetica findfont 56.3093 sf 0 0 m ( ) show NC gr  0.6 0.2 1 c 3 lw 1682 1296 m 79 X 44 Y -79 X f 6 lw black
 gsave  2268 1103 0 472 C 1373.66 1243.4 t 0 r /Helvetica-Oblique findfont 56.3093 sf 0 0 m (W) show NC gr 
 gsave  2268 1103 0 472 C 1352.93 1243.4 t 0 r /Helvetica-Oblique findfont 56.3093 sf 0 0 m (t) show NC gr  6 lw 1353 1288 m 21 X s
 gsave  2268 1103 0 472 C 1332.21 1243.4 t 0 r /Helvetica-Oblique findfont 56.3093 sf 0 0 m (t) show NC gr 
 gsave  2268 1103 0 472 C 1314.45 1243.4 t 0 r /Helvetica findfont 56.3093 sf 0 0 m ( ) show NC gr  0.54 0.06 0.06 c 3 lw 1219 1233 m 79 X 44 Y -79 X f 6 lw black
 gsave  2268 1103 0 472 C 1794.04 1243.4 t 0 r /Helvetica-Oblique findfont 56.3093 sf 0 0 m (tZq) show NC gr 
 gsave  2268 1103 0 472 C 1776.28 1243.4 t 0 r /Helvetica findfont 56.3093 sf 0 0 m ( ) show NC gr  1 0 1 c 3 lw 1682 1233 m 79 X 44 Y -79 X f black
 gsave  2268 1103 0 472 C 1373.66 1178.27 t 0 r /Helvetica-Oblique findfont 56.3093 sf 0 0 m (H) show NC gr 
 gsave  2268 1103 0 472 C 1352.93 1178.27 t 0 r /Helvetica-Oblique findfont 56.3093 sf 0 0 m (t) show NC gr  6 lw 1353 1223 m 21 X s
 gsave  2268 1103 0 472 C 1332.21 1178.27 t 0 r /Helvetica-Oblique findfont 56.3093 sf 0 0 m (t) show NC gr 
 gsave  2268 1103 0 472 C 1314.45 1178.27 t 0 r /Helvetica findfont 56.3093 sf 0 0 m ( ) show NC gr  0 0 1 c 3 lw 1219 1170 m 79 X 44 Y -79 X f 6 lw black
 gsave  2268 1103 0 472 C 1794.04 1178.27 t 0 r /Helvetica-Oblique findfont 56.3093 sf 0 0 m (tWZ/tWH) show NC gr 
 gsave  2268 1103 0 472 C 1776.28 1178.27 t 0 r /Helvetica findfont 56.3093 sf 0 0 m ( ) show NC gr  0.2 0.8 0.8 c 3 lw 1682 1170 m 79 X 44 Y -79 X f black
 gsave  2268 1103 0 472 C 1332.21 1116.1 t 0 r /Helvetica-Oblique findfont 56.3093 sf 0 0 m (tHq) show NC gr 
 gsave  2268 1103 0 472 C 1314.45 1116.1 t 0 r /Helvetica findfont 56.3093 sf 0 0 m ( ) show NC gr  1 0 0 c 3 lw 1219 1107 m 79 X 44 Y -79 X f black
 gsave  2268 1103 0 472 C 1776.28 1116.1 t 0 r /Helvetica findfont 56.3093 sf 0 0 m ( Other) show NC gr  1 0.84 0 c 3 lw 1682 1107 m 79 X 44 Y -79 X f black
 gsave  2268 1103 0 472 C 1314.45 1053.93 t 0 r /Helvetica findfont 56.3093 sf 0 0 m ( Uncertainty) show NC gr  0.6 0.6 0.6 c 3 lw 1298 1058 m -13 -14 d s 1298 1077 m -33 -33 d s 1290 1088 m -44 -44 d s 1271 1088 m -44 -44 d s 1252 1088 m -33 -33 d s
 1233 1088 m -14 -13 d s 1 0.84 0 c 0.6 0.6 0.6 c black
 gsave  2268 1103 0 472 C 894.061 1329.25 t 0 r /Helvetica findfont 41.4911 sf 0 0 m (\2551) show NC gr 
 gsave  2268 1103 0 472 C 399.663 1299.64 t 0 r /Helvetica findfont 62.2366 sf 0 0 m ( = 13 TeV,  139 fb) show NC gr 
 gsave  2268 1103 0 472 C 370.058 1299.64 t 0 r /Helvetica findfont 62.2366 sf 0 0 m (s) show NC gr  6 lw 349 1335 m 6 -38 d s 3 lw 355 1297 m 6 56 d s 361 1353 m 39 X s
 gsave  2268 1103 0 472 C 337.493 1201.95 t 0 r /Helvetica findfont 62.2366 sf 0 0 m ( 2L\(SS\), SR) show NC gr 
 gsave  2268 1103 0 472 C 337.493 1400.3 t 0 r /Helvetica-BoldOblique findfont 71.1276 sf 0 0 m (ATLAS) show NC gr 
 gsave  2268 1103 0 472 C 633.54 1400.3 t 0 r /Helvetica findfont 71.1276 sf 0 0 m (Internal) show NC gr 
 gr  gr showpage
end
%%EOF
