%!PS-Adobe-2.0 EPSF-2.0
%%BoundingBox:  0 0 567 396
%%Title: : LepPt2_CR1b3j
%%Creator: ROOT Version 6.20/06
%%CreationDate: Tue May 31 15:04:48 2022
%%DocumentNeededResources: ProcSet (FontSetInit)
%%EndComments
%%BeginProlog
80 dict begin
/s {stroke} def /l {lineto} def /m {moveto} def /t {translate} def
/r {rotate} def /rl {roll}  def /R {repeat} def
/d {rlineto} def /rm {rmoveto} def /gr {grestore} def /f {eofill} def
/c {setrgbcolor} def /black {0 setgray} def /sd {setdash} def
/cl {closepath} def /sf {scalefont setfont} def /lw {setlinewidth} def
/box {m dup 0 exch d exch 0 d 0 exch neg d cl} def
/NC{systemdict begin initclip end}def/C{NC box clip newpath}def
/bl {box s} def /bf {gsave box gsave f grestore 1 lw [] 0 sd s grestore} def /Y { 0 exch d} def /X { 0 d} def 
/K {{pop pop 0 moveto} exch kshow} bind def
/ita {/ang 15 def gsave [1 0 ang dup sin exch cos div 1 0 0] concat} def 
/mp {newpath /y exch def /x exch def} def
/side {[w .77 mul w .23 mul] .385 w mul sd w 0 l currentpoint t -144 r} def
/mr {mp x y w2 0 360 arc} def /m24 {mr s} def /m20 {mr f} def
/mb {mp x y w2 add m w2 neg 0 d 0 w neg d w 0 d 0 w d cl} def
/mt {mp x y w2 add m w2 neg w neg d w 0 d cl} def
/w4 {w 4 div} def
/w6 {w 6 div} def
/w8 {w 8 div} def
/m21 {mb f} def /m25 {mb s} def /m22 {mt f} def /m26{mt s} def
/m23 {mp x y w2 sub m w2 w d w neg 0 d cl f} def
/m27 {mp x y w2 add m w3 neg w2 neg d w3 w2 neg d w3 w2 d cl s} def
/m28 {mp x w2 sub y w2 sub w3 add m w3 0 d  0 w3 neg d w3 0 d 0 w3 d w3 0 d  0 w3 d w3 neg 0 d 0 w3 d w3 neg 0 d 0 w3 neg d w3 neg 0 d cl s } def
/m29 {mp gsave x w2 sub y w2 add w3 sub m currentpoint t 4 {side} repeat cl fill gr} def
/m30 {mp gsave x w2 sub y w2 add w3 sub m currentpoint t 4 {side} repeat cl s gr} def
/m31 {mp x y w2 sub m 0 w d x w2 sub y m w 0 d x w2 sub y w2 add m w w neg d x w2 sub y w2 sub m w w d s} def
/m32 {mp x y w2 sub m w2 w d w neg 0 d cl s} def
/m33 {mp x y w2 add m w3 neg w2 neg d w3 w2 neg d w3 w2 d cl f} def
/m34 {mp x w2 sub y w2 sub w3 add m w3 0 d  0 w3 neg d w3 0 d 0 w3 d w3 0 d  0 w3 d w3 neg 0 d 0 w3 d w3 neg 0 d 0 w3 neg d w3 neg 0 d cl f } def
/m35 {mp x y w2 add m w2 neg w2 neg d w2 w2 neg d w2 w2 d w2 neg w2 d x y w2 sub m 0 w d x w2 sub y m w 0 d s} def
/m36 {mb x w2 sub y w2 add m w w neg d x w2 sub y w2 sub m w w d s} def
/m37 {mp x y m w4 neg w2 d w4 neg w2 neg d w2 0 d  w4 neg w2 neg d w2 0 d w4 neg w2 d w2 0 d w4 neg w2 d w4 neg w2 neg d cl s} def
/m38 {mp x w4 sub y w2 add m w4 neg w4 neg d 0 w2 neg d w4 w4 neg d w2 0 d w4 w4 d 0 w2 d w4 neg w4 d w2 neg 0 d x y w2 sub m 0 w d x w2 sub y m w 0 d cl s} def
/m39 {mp x y m w4 neg w2 d w4 neg w2 neg d w2 0 d  w4 neg w2 neg d w2 0 d w4 neg w2 d w2 0 d w4 neg w2 d w4 neg w2 neg d cl f} def
/m40 {mp x y m w4 w2 d w4 w4 neg d w2 neg w4 neg d w2 w4 neg d w4 neg w4 neg d w4 neg w2 d w4 neg w2 neg d w4 neg w4 d w2 w4 d w2 neg w4 d w4 w4 d w4 w2 neg d cl s} def
/m41 {mp x y m w4 w2 d w4 w4 neg d w2 neg w4 neg d w2 w4 neg d w4 neg w4 neg d w4 neg w2 d w4 neg w2 neg d w4 neg w4 d w2 w4 d w2 neg w4 d w4 w4 d w4 w2 neg d cl f} def
/m42 {mp x y w2 add m w8 neg w2 -3 4 div mul d w2 -3 4 div mul w8 neg d w2 3 4 div mul w8 neg d w8 w2 -3 4 div mul d w8 w2 3 4 div mul d w2 3 4 div mul w8 d w2 -3 4 div mul w8 d w8 neg w2 3 4 div mul d cl s} def
/m43 {mp x y w2 add m w8 neg w2 -3 4 div mul d w2 -3 4 div mul w8 neg d w2 3 4 div mul w8 neg d w8 w2 -3 4 div mul d w8 w2 3 4 div mul d w2 3 4 div mul w8 d w2 -3 4 div mul w8 d w8 neg w2 3 4 div mul d cl f} def
/m44 {mp x y m w6 neg w2 d w2 2 3 div mul 0 d w6 neg w2 neg d w2 w6 d 0 w2 -2 3 div mul d w2 neg w6 d w6 w2 neg d w2 -2 3 div mul 0 d w6 w2 d w2 neg w6 neg d 0 w2 2 3 div mul d w2 w6 neg d cl s} def
/m45 {mp x y m w6 neg w2 d w2 2 3 div mul 0 d w6 neg w2 neg d w2 w6 d 0 w2 -2 3 div mul d w2 neg w6 d w6 w2 neg d w2 -2 3 div mul 0 d w6 w2 d w2 neg w6 neg d 0 w2 2 3 div mul d w2 w6 neg d cl f} def
/m46 {mp x y w4 add m w4 neg w4 d w4 neg w4 neg d  w4 w4 neg d w4 neg w4 neg d w4 w4 neg d w4 w4 d w4 w4 neg d w4 w4 d w4 neg w4 d w4 w4 d w4 neg w4 d w4 neg w4 neg d cl s} def
/m47 {mp x y w4 add m w4 neg w4 d w4 neg w4 neg d w4 w4 neg d w4 neg w4 neg d  w4 w4 neg d w4 w4 d w4 w4 neg d w4 w4 d w4 neg w4 d w4 w4 d w4 neg w4 d w4 neg w4 neg d cl f} def
/m48 {mp x y w4 add m w4 neg w4 d w4 neg w4 neg d w4 w4 neg d  w4 neg w4 neg d w4 w4 neg d w4 w4 d w4 w4 neg d w4 w4 d w4 neg w4 d w4 w4 d w4 neg w4 d w4 neg w4 neg d  w4 w4 neg d w4 neg w4 neg d w4 neg w4 d w4 w4 d cl f} def
/m49 {mp x w2 sub w3 add y w2 sub w3 add m  0 w3 neg d w3 0 d 0 w3 d w3 0 d 0 w3 d w3 neg 0 d 0 w3 d w3 neg 0 d 0 w3 neg d w3 neg 0 d 0 w3 neg d w3 0 d 0 w3 d w3 0 d 0 w3 neg d w3 neg 0 d cl f } def
/m2 {mp x y w2 sub m 0 w d x w2 sub y m w 0 d s} def
/m5 {mp x w2 sub y w2 sub m w w d x w2 sub y w2 add m w w neg d s} def
%%IncludeResource: ProcSet (FontSetInit)
%%IncludeResource: font Times-Roman
%%IncludeResource: font Times-Italic
%%IncludeResource: font Times-Bold
%%IncludeResource: font Times-BoldItalic
%%IncludeResource: font Helvetica
%%IncludeResource: font Helvetica-Oblique
%%IncludeResource: font Helvetica-Bold
%%IncludeResource: font Helvetica-BoldOblique
%%IncludeResource: font Courier
%%IncludeResource: font Courier-Oblique
%%IncludeResource: font Courier-Bold
%%IncludeResource: font Courier-BoldOblique
%%IncludeResource: font Symbol
%%IncludeResource: font ZapfDingbats
/reEncode {exch findfont dup length dict begin {1 index /FID eq  {pop pop} {def} ifelse } forall /Encoding exch def currentdict end dup /FontName get exch definefont pop } def [/Times-Bold /Times-Italic /Times-BoldItalic /Helvetica /Helvetica-Oblique
 /Helvetica-Bold /Helvetica-BoldOblique /Courier /Courier-Oblique /Courier-Bold /Courier-BoldOblique /Times-Roman /AvantGarde-Book /AvantGarde-BookOblique /AvantGarde-Demi /AvantGarde-DemiOblique /Bookman-Demi /Bookman-DemiItalic /Bookman-Light
 /Bookman-LightItalic /Helvetica-Narrow /Helvetica-Narrow-Bold /Helvetica-Narrow-BoldOblique /Helvetica-Narrow-Oblique /NewCenturySchlbk-Roman /NewCenturySchlbk-Bold /NewCenturySchlbk-BoldItalic /NewCenturySchlbk-Italic /Palatino-Bold
 /Palatino-BoldItalic /Palatino-Italic /Palatino-Roman ] {ISOLatin1Encoding reEncode } forall
%%EndProlog
%%BeginSetup
%%EndSetup
newpath  gsave  .25 .25 scale  gsave  0 0 t black[  ] 0 sd 3 lw 1 1 1 c 2268 1583 0 0 bf black 1 1 1 c 2268 475 0 0 bf black 1 1 1 c 1927 275 227 190 bf black 1927 275 227 190 bl 227 190 m 1927 X s 227 202 m -12 Y s 304 196 m -6 Y s 381 196 m -6 Y s
 458 196 m -6 Y s 535 196 m -6 Y s 612 202 m -12 Y s 689 196 m -6 Y s 766 196 m -6 Y s 844 196 m -6 Y s 921 196 m -6 Y s 998 202 m -12 Y s 1075 196 m -6 Y s 1152 196 m -6 Y s 1229 196 m -6 Y s 1306 196 m -6 Y s 1383 202 m -12 Y s 1460 196 m -6 Y s
 1538 196 m -6 Y s 1615 196 m -6 Y s 1692 196 m -6 Y s 1769 202 m -12 Y s 1846 196 m -6 Y s 1923 196 m -6 Y s 2000 196 m -6 Y s 2077 196 m -6 Y s 2154 202 m -12 Y s
 gsave  2268 475 0 0 C 209.646 126.968 t 0 r /Helvetica findfont 53.4154 sf 0 0 m (0) show NC gr 
 gsave  2268 475 0 0 C 581.693 126.968 t 0 r /Helvetica findfont 53.4154 sf 0 0 m (50) show NC gr 
 gsave  2268 475 0 0 C 950.787 126.968 t 0 r /Helvetica findfont 53.4154 sf 0 0 m (100) show NC gr 
 gsave  2268 475 0 0 C 1337.6 126.968 t 0 r /Helvetica findfont 53.4154 sf 0 0 m (150) show NC gr 
 gsave  2268 475 0 0 C 1724.41 126.968 t 0 r /Helvetica findfont 53.4154 sf 0 0 m (200) show NC gr 
 gsave  2268 475 0 0 C 2108.27 126.968 t 0 r /Helvetica findfont 53.4154 sf 0 0 m (250) show NC gr 
 gsave  2268 475 0 0 C 1978.35 53.1496 t 0 r /Helvetica findfont 56.3829 sf 0 0 m (\) [GeV]) show NC gr 
 gsave  2268 475 0 0 C 1957.68 20.6693 t 0 r /Helvetica findfont 38.5778 sf 0 0 m (2) show NC gr 
 gsave  2268 475 0 0 C 1863.19 53.1496 t 0 r /Helvetica findfont 56.3829 sf 0 0 m (\(lep) show NC gr 
 gsave  2268 475 0 0 C 1839.57 20.6693 t 0 r /Helvetica findfont 38.5778 sf 0 0 m (T) show NC gr 
 gsave  2268 475 0 0 C 1804.13 53.1496 t 0 r /Helvetica-Oblique findfont 56.3829 sf 0 0 m (p) show NC gr  227 465 m 1927 X s 227 453 m 12 Y s 304 459 m 6 Y s 381 459 m 6 Y s 458 459 m 6 Y s 535 459 m 6 Y s 612 453 m 12 Y s 689 459 m 6 Y s 766 459 m 6
 Y s 844 459 m 6 Y s 921 459 m 6 Y s 998 453 m 12 Y s 1075 459 m 6 Y s 1152 459 m 6 Y s 1229 459 m 6 Y s 1306 459 m 6 Y s 1383 453 m 12 Y s 1460 459 m 6 Y s 1538 459 m 6 Y s 1615 459 m 6 Y s 1692 459 m 6 Y s 1769 453 m 12 Y s 1846 459 m 6 Y s 1923
 459 m 6 Y s 2000 459 m 6 Y s 2077 459 m 6 Y s 2154 453 m 12 Y s 227 190 m 275 Y s 240 242 m -13 X s 240 328 m -13 X s 240 414 m -13 X s 240 242 m -13 X s 240 414 m -13 X s
 gsave  2268 475 0 0 C 118.11 221.457 t 0 r /Helvetica findfont 53.4154 sf 0 0 m (0.5) show NC gr 
 gsave  2268 475 0 0 C 171.26 307.087 t 0 r /Helvetica findfont 53.4154 sf 0 0 m (1) show NC gr 
 gsave  2268 475 0 0 C 118.11 395.669 t 0 r /Helvetica findfont 53.4154 sf 0 0 m (1.5) show NC gr 
 gsave  2268 475 0 0 C 70.8661 233.268 t 90 r /Helvetica findfont 53.4154 sf 0 0 m (Data / SM) show NC gr  2154 190 m 275 Y s 2141 242 m 13 X s 2141 328 m 13 X s 2141 414 m 13 X s 2141 242 m 13 X s 2141 414 m 13 X s 227 190 m 1927 X s 227 465 m 1927
 X s 227 190 m 275 Y s[ 4 8] 0 sd 2154 242 m -1927 X s 2154 328 m -1927 X s 2154 414 m -1927 X s 2154 242 m -1927 X s 2154 414 m -1927 X s[  ] 0 sd 2154 190 m 275 Y s 1 1 0.6 c 193 0 227 328 bf 192 0 420 328 bf 193 0 612 328 bf 193 0 805 328 bf 193 0
 998 328 bf 192 0 1191 328 bf 193 0 1383 328 bf 193 0 1576 328 bf 193 0 1769 328 bf 192 0 1962 328 bf black 0.6 0.6 0.6 c 420 325 m -2 -2 d s 407 332 m -8 -9 d s 388 332 m -8 -9 d s 369 332 m -9 -9 d s 349 332 m -8 -9 d s 330 332 m -8 -9 d s 311 332
 m -8 -9 d s 292 332 m -9 -9 d s 272 332 m -8 -9 d s 253 332 m -8 -9 d s 234 332 m -7 -7 d s 612 325 m -1 -1 d s 599 331 m -7 -7 d s 579 331 m -6 -7 d s 560 331 m -6 -7 d s 541 331 m -7 -7 d s 522 331 m -7 -7 d s 502 331 m -6 -7 d s 483 331 m -6 -7 d
 s 464 331 m -7 -7 d s 445 331 m -7 -7 d s 425 331 m -5 -6 d s 805 326 m -4 -4 d s 794 334 m -12 -12 d s 775 334 m -12 -12 d s 755 334 m -12 -12 d s 736 334 m -12 -12 d s 717 334 m -12 -12 d s 698 334 m -12 -12 d s 678 334 m -12 -12 d s 659 334 m -12
 -12 d s 640 334 m -12 -12 d s 621 334 m -9 -9 d s 998 326 m -6 -6 d s 988 335 m -16 -15 d s 969 335 m -16 -15 d s 949 335 m -15 -15 d s 930 335 m -15 -15 d s 911 335 m -15 -15 d s 892 335 m -16 -15 d s 873 335 m -16 -15 d s 853 335 m -15 -15 d s 834
 335 m -15 -15 d s 815 335 m -10 -9 d s 1191 326 m -11 -10 d s 1184 339 m -23 -23 d s 1165 339 m -23 -23 d s 1146 339 m -24 -23 d s 1127 339 m -24 -23 d s 1107 339 m -23 -23 d s 1088 339 m -23 -23 d s 1069 339 m -24 -23 d s 1050 339 m -24 -23 d s
 1030 339 m -23 -23 d s 1011 339 m -13 -13 d s 1383 327 m -18 -18 d s 1383 346 m -37 -37 d s 1365 347 m -38 -38 d s 1345 347 m -37 -38 d s 1326 347 m -37 -38 d s 1307 347 m -38 -38 d s 1288 347 m -38 -38 d s 1268 347 m -37 -38 d s 1249 347 m -37 -38
 d s 1230 347 m -38 -38 d s 1211 347 m -20 -21 d s 1191 347 m -1 Y s 1576 308 m -4 -5 d s 1576 327 m -24 -24 d s 1576 346 m -43 -43 d s 1562 352 m -48 -49 d s 1543 352 m -48 -49 d s 1524 352 m -48 -49 d s 1505 352 m -49 -49 d s 1486 352 m -49 -49 d s
 1466 352 m -48 -49 d s 1447 352 m -48 -49 d s 1428 352 m -45 -45 d s 1409 352 m -26 -25 d s 1389 352 m -6 -6 d s 1769 289 m -1 Y s 1769 308 m -20 -20 d s 1769 327 m -39 -39 d s 1769 347 m -58 -59 d s 1769 366 m -77 -78 d s 1750 367 m -78 -79 d s
 1731 367 m -78 -79 d s 1712 367 m -78 -79 d s 1693 367 m -78 -79 d s 1673 367 m -78 -79 d s 1654 367 m -78 -79 d s 1635 367 m -59 -59 d s 1616 367 m -40 -40 d s 1596 367 m -20 -21 d s 1577 367 m -1 -1 d s 1962 289 m -7 -7 d s 1962 308 m -27 -26 d s
 1962 328 m -46 -46 d s 1962 347 m -65 -65 d s 1962 366 m -84 -84 d s 1949 373 m -91 -91 d s 1930 373 m -91 -91 d s 1911 373 m -91 -91 d s 1892 373 m -91 -91 d s 1872 373 m -91 -91 d s 1853 373 m -84 -84 d s 1834 373 m -65 -65 d s 1815 373 m -46 -46
 d s 1795 373 m -26 -26 d s 1776 373 m -7 -7 d s 2154 251 m -4 -5 d s 2154 270 m -23 -24 d s 2154 289 m -43 -43 d s 2154 309 m -62 -63 d s 2154 328 m -81 -82 d s 2154 347 m -100 -101 d s 2154 367 m -120 -121 d s 2154 386 m -139 -140 d s 2154 405 m
 -158 -159 d s 2139 409 m -162 -163 d s 2120 409 m -158 -159 d s 2100 409 m -138 -139 d s 2081 409 m -119 -120 d s 2062 409 m -100 -101 d s 2043 409 m -81 -81 d s 2024 409 m -62 -62 d s 2004 409 m -42 -43 d s 1985 409 m -23 -23 d s 1966 409 m -4 -4 d
 s black 1 1 1 c black 323 281 m 4 Y s 323 308 m 4 Y s /w 26 def /w2 {w 2 div} def /w3 {w 3 div} def 323 297 m20 516 301 m20 709 328 m 7 Y s 709 358 m 6 Y s 709 346 m20 901 347 m 19 Y s 901 390 m 19 Y s 901 378 m20 1094 289 m 29 Y s 1094 342 m 29 Y s
 1094 330 m20 1287 203 m 35 Y s 1287 261 m 36 Y s 1287 250 m20 1480 234 m 66 Y s 1480 324 m 66 Y s 1480 312 m20 1672 190 m 44 Y s 1672 257 m 79 Y s 1672 246 m20 227 328 m 1927 X s 227 190 m 1927 X s 227 202 m -12 Y s 304 196 m -6 Y s 381 196 m -6 Y s
 458 196 m -6 Y s 535 196 m -6 Y s 612 202 m -12 Y s 689 196 m -6 Y s 766 196 m -6 Y s 844 196 m -6 Y s 921 196 m -6 Y s 998 202 m -12 Y s 1075 196 m -6 Y s 1152 196 m -6 Y s 1229 196 m -6 Y s 1306 196 m -6 Y s 1383 202 m -12 Y s 1460 196 m -6 Y s
 1538 196 m -6 Y s 1615 196 m -6 Y s 1692 196 m -6 Y s 1769 202 m -12 Y s 1846 196 m -6 Y s 1923 196 m -6 Y s 2000 196 m -6 Y s 2077 196 m -6 Y s 2154 202 m -12 Y s 227 465 m 1927 X s 227 453 m 12 Y s 304 459 m 6 Y s 381 459 m 6 Y s 458 459 m 6 Y s
 535 459 m 6 Y s 612 453 m 12 Y s 689 459 m 6 Y s 766 459 m 6 Y s 844 459 m 6 Y s 921 459 m 6 Y s 998 453 m 12 Y s 1075 459 m 6 Y s 1152 459 m 6 Y s 1229 459 m 6 Y s 1306 459 m 6 Y s 1383 453 m 12 Y s 1460 459 m 6 Y s 1538 459 m 6 Y s 1615 459 m 6 Y
 s 1692 459 m 6 Y s 1769 453 m 12 Y s 1846 459 m 6 Y s 1923 459 m 6 Y s 2000 459 m 6 Y s 2077 459 m 6 Y s 2154 453 m 12 Y s 227 190 m 275 Y s 240 242 m -13 X s 240 328 m -13 X s 240 414 m -13 X s 240 242 m -13 X s 240 414 m -13 X s 2154 190 m 275 Y s
 2141 242 m 13 X s 2141 328 m 13 X s 2141 414 m 13 X s 2141 242 m 13 X s 2141 414 m 13 X s 1 1 1 c 2268 1108 0 475 bf black 1 1 1 c 1927 1041 227 486 bf black 1927 1041 227 486 bl 1 1 1 c black 3 lw 227 486 m 1927 X s 227 505 m -19 Y s 304 495 m -9 Y
 s 381 495 m -9 Y s 458 495 m -9 Y s 535 495 m -9 Y s 612 505 m -19 Y s 689 495 m -9 Y s 766 495 m -9 Y s 844 495 m -9 Y s 921 495 m -9 Y s 998 505 m -19 Y s 1075 495 m -9 Y s 1152 495 m -9 Y s 1229 495 m -9 Y s 1306 495 m -9 Y s 1383 505 m -19 Y s
 1460 495 m -9 Y s 1538 495 m -9 Y s 1615 495 m -9 Y s 1692 495 m -9 Y s 1769 505 m -19 Y s 1846 495 m -9 Y s 1923 495 m -9 Y s 2000 495 m -9 Y s 2077 495 m -9 Y s 2154 505 m -19 Y s
 gsave  2268 1108 0 475 C 2049.21 407.48 t 0 r /Helvetica findfont 32.4976 sf 0 0 m (\) [GeV]) show NC gr 
 gsave  2268 1108 0 475 C 2037.4 389.764 t 0 r /Helvetica findfont 20.6803 sf 0 0 m (2) show NC gr 
 gsave  2268 1108 0 475 C 1981.3 407.48 t 0 r /Helvetica findfont 32.4976 sf 0 0 m (\(lep) show NC gr 
 gsave  2268 1108 0 475 C 1966.54 389.764 t 0 r /Helvetica findfont 20.6803 sf 0 0 m (T) show NC gr 
 gsave  2268 1108 0 475 C 1945.87 407.48 t 0 r /Helvetica-Oblique findfont 32.4976 sf 0 0 m (p) show NC gr  227 1527 m 1927 X s 227 1508 m 19 Y s 304 1518 m 9 Y s 381 1518 m 9 Y s 458 1518 m 9 Y s 535 1518 m 9 Y s 612 1508 m 19 Y s 689 1518 m 9 Y s
 766 1518 m 9 Y s 844 1518 m 9 Y s 921 1518 m 9 Y s 998 1508 m 19 Y s 1075 1518 m 9 Y s 1152 1518 m 9 Y s 1229 1518 m 9 Y s 1306 1518 m 9 Y s 1383 1508 m 19 Y s 1460 1518 m 9 Y s 1538 1518 m 9 Y s 1615 1518 m 9 Y s 1692 1518 m 9 Y s 1769 1508 m 19 Y
 s 1846 1518 m 9 Y s 1923 1518 m 9 Y s 2000 1518 m 9 Y s 2077 1518 m 9 Y s 2154 1508 m 19 Y s 227 486 m 1041 Y s 248 658 m -21 X s 237 692 m -10 X s 237 726 m -10 X s 237 761 m -10 X s 237 795 m -10 X s 248 829 m -21 X s 237 864 m -10 X s 237 898 m
 -10 X s 237 932 m -10 X s 237 967 m -10 X s 248 1001 m -21 X s 237 1036 m -10 X s 237 1070 m -10 X s 237 1104 m -10 X s 237 1139 m -10 X s 248 1173 m -21 X s 237 1207 m -10 X s 237 1242 m -10 X s 237 1276 m -10 X s 237 1310 m -10 X s 248 1345 m -21
 X s 237 1379 m -10 X s 237 1413 m -10 X s 237 1448 m -10 X s 237 1482 m -10 X s 248 1516 m -21 X s 248 658 m -21 X s 237 623 m -10 X s 237 589 m -10 X s 237 555 m -10 X s 237 520 m -10 X s 248 1516 m -21 X s
 gsave  2268 1108 0 475 C 112.205 637.795 t 0 r /Helvetica findfont 53.178 sf 0 0 m (100) show NC gr 
 gsave  2268 1108 0 475 C 112.205 809.055 t 0 r /Helvetica findfont 53.178 sf 0 0 m (200) show NC gr 
 gsave  2268 1108 0 475 C 112.205 983.268 t 0 r /Helvetica findfont 53.178 sf 0 0 m (300) show NC gr 
 gsave  2268 1108 0 475 C 112.205 1154.53 t 0 r /Helvetica findfont 53.178 sf 0 0 m (400) show NC gr 
 gsave  2268 1108 0 475 C 112.205 1325.79 t 0 r /Helvetica findfont 53.178 sf 0 0 m (500) show NC gr 
 gsave  2268 1108 0 475 C 112.205 1497.05 t 0 r /Helvetica findfont 53.178 sf 0 0 m (600) show NC gr 
 gsave  2268 1108 0 475 C 64.9606 1142.72 t 90 r /Helvetica findfont 53.178 sf 0 0 m (Events / 25 GeV) show NC gr  2154 486 m 1041 Y s 2133 658 m 21 X s 2144 692 m 10 X s 2144 726 m 10 X s 2144 761 m 10 X s 2144 795 m 10 X s 2133 829 m 21 X s 2144
 864 m 10 X s 2144 898 m 10 X s 2144 932 m 10 X s 2144 967 m 10 X s 2133 1001 m 21 X s 2144 1036 m 10 X s 2144 1070 m 10 X s 2144 1104 m 10 X s 2144 1139 m 10 X s 2133 1173 m 21 X s 2144 1207 m 10 X s 2144 1242 m 10 X s 2144 1276 m 10 X s 2144 1310 m
 10 X s 2133 1345 m 21 X s 2144 1379 m 10 X s 2144 1413 m 10 X s 2144 1448 m 10 X s 2144 1482 m 10 X s 2133 1516 m 21 X s 2133 658 m 21 X s 2144 623 m 10 X s 2144 589 m 10 X s 2144 555 m 10 X s 2144 520 m 10 X s 2133 1516 m 21 X s 0.4 0.6 0.4 c black
 3 lw 0.4 0.6 0.4 c 227 486 m 176 Y 193 X 372 Y 192 X -372 Y 193 X -108 Y 193 X -38 Y 193 X -18 Y 192 X -5 Y 193 X -4 Y 193 X -1 Y 193 X 1 Y 192 X -3 Y f 0.06 0.54 0.06 c 0.999 0.999 0.999 c black 3 lw 0.999 0.999 0.999 c 227 486 m 56 Y 193 X 229 Y
 192 X -139 Y 193 X -83 Y 193 X -34 Y 193 X -17 Y 192 X -5 Y 193 X -4 Y 193 X -1 Y 193 X 1 Y 192 X -3 Y f 0.06 0.54 0.06 c 0.999 0.999 0.999 c 0.06 0.54 0.06 c 1 1 1 c black 0.06 0.54 0.06 c black 3 lw 0.06 0.54 0.06 c 227 486 m 56 Y 193 X 229 Y 192
 X -139 Y 193 X -83 Y 193 X -34 Y 193 X -17 Y 192 X -5 Y 193 X -4 Y 193 X -1 Y 193 X 1 Y 192 X -3 Y f 1 0.653333 0 c 0.999 0.999 0.999 c black 3 lw 0.999 0.999 0.999 c 227 486 m 45 Y 193 X 180 Y 192 X -131 Y 193 X -62 Y 193 X -19 Y 193 X -8 Y 192 X
 -2 Y 193 X -2 Y 386 X 2 Y 192 X -3 Y f 1 0.653333 0 c 0.999 0.999 0.999 c 1 0.653333 0 c 1 1 1 c black 1 0.653333 0 c black 3 lw 1 0.653333 0 c 227 486 m 45 Y 193 X 180 Y 192 X -131 Y 193 X -62 Y 193 X -19 Y 193 X -8 Y 192 X -2 Y 193 X -2 Y 386 X 2
 Y 192 X -3 Y f 0.413333 1 0 c 0.999 0.999 0.999 c black 3 lw 0.999 0.999 0.999 c 227 486 m 37 Y 193 X 151 Y 192 X -110 Y 193 X -53 Y 193 X -16 Y 193 X -6 Y 192 X -1 Y 193 X -1 Y 193 X -1 Y 193 X 1 Y 192 X -1 Y f 0.413333 1 0 c 0.999 0.999 0.999 c
 0.413333 1 0 c 1 1 1 c black 0.413333 1 0 c black 3 lw 0.413333 1 0 c 227 486 m 37 Y 193 X 151 Y 192 X -110 Y 193 X -53 Y 193 X -16 Y 193 X -6 Y 192 X -1 Y 193 X -1 Y 193 X -1 Y 193 X 1 Y 192 X -1 Y f 0.6 0.2 1 c 0.999 0.999 0.999 c black 3 lw 0.999
 0.999 0.999 c 227 486 m 24 Y 193 X 98 Y 192 X -67 Y 193 X -38 Y 193 X -11 Y 193 X -4 Y 192 X -1 Y 193 X -1 Y 578 X f 0.6 0.2 1 c 0.999 0.999 0.999 c 0.6 0.2 1 c 1 1 1 c black 0.6 0.2 1 c black 3 lw 0.6 0.2 1 c 227 486 m 24 Y 193 X 98 Y 192 X -67 Y
 193 X -38 Y 193 X -11 Y 193 X -4 Y 192 X -1 Y 193 X -1 Y 578 X f 0.54 0.06 0.06 c 0.999 0.999 0.999 c black 3 lw 0.999 0.999 0.999 c 227 486 m 21 Y 193 X 89 Y 192 X -60 Y 193 X -35 Y 193 X -10 Y 193 X -3 Y 192 X -1 Y 193 X -1 Y 578 X f 0.54 0.06
 0.06 c 0.999 0.999 0.999 c 0.54 0.06 0.06 c 1 1 1 c black 0.54 0.06 0.06 c black 3 lw 0.54 0.06 0.06 c 227 486 m 21 Y 193 X 89 Y 192 X -60 Y 193 X -35 Y 193 X -10 Y 193 X -3 Y 192 X -1 Y 193 X -1 Y 578 X f 1 0 1 c 0.999 0.999 0.999 c black 3 lw
 0.999 0.999 0.999 c 227 486 m 8 Y 193 X 27 Y 192 X -22 Y 193 X -10 Y 193 X -2 Y 193 X -1 Y 963 X f 1 0 1 c 0.999 0.999 0.999 c 1 0 1 c 1 1 1 c black 1 0 1 c black 3 lw 1 0 1 c 227 486 m 8 Y 193 X 27 Y 192 X -22 Y 193 X -10 Y 193 X -2 Y 193 X -1 Y
 963 X f 0 0 1 c 0.999 0.999 0.999 c black 3 lw 0.999 0.999 0.999 c 227 486 m 4 Y 193 X 11 Y 192 X -9 Y 193 X -5 Y 193 X -1 Y 1156 X f 0 0 1 c 0.999 0.999 0.999 c 0 0 1 c 1 1 1 c black 0 0 1 c black 3 lw 0 0 1 c 227 486 m 4 Y 193 X 11 Y 192 X -9 Y
 193 X -5 Y 193 X -1 Y 1156 X f 0.2 0.8 0.8 c 0.999 0.999 0.999 c black 3 lw 0.999 0.999 0.999 c 227 486 m 2 Y 193 X 6 Y 192 X -4 Y 193 X -3 Y 193 X -1 Y 1156 X f 0.2 0.8 0.8 c 0.999 0.999 0.999 c 0.2 0.8 0.8 c 1 1 1 c black 0.2 0.8 0.8 c black 3 lw
 0.2 0.8 0.8 c 227 486 m 2 Y 193 X 6 Y 192 X -4 Y 193 X -3 Y 193 X -1 Y 1156 X f 1 0 0 c 0.999 0.999 0.999 c black 3 lw 0.999 0.999 0.999 c 227 486 m 2 Y 193 X 3 Y 192 X -3 Y 193 X -2 Y 1349 X f 1 0 0 c 0.999 0.999 0.999 c 1 0 0 c 1 1 1 c black 1 0 0
 c black 3 lw 1 0 0 c 227 486 m 2 Y 193 X 3 Y 192 X -3 Y 193 X -2 Y 1349 X f 1 0.84 0 c 0.999 0.999 0.999 c black 3 lw 0.999 0.999 0.999 c 227 486 m 1 Y 193 X 2 Y 192 X -1 Y 193 X -2 Y 1349 X f 1 0.84 0 c 0.999 0.999 0.999 c 1 0.84 0 c 1 1 1 c black
 1 0.84 0 c black 3 lw 1 0.84 0 c 227 486 m 1 Y 193 X 2 Y 192 X -1 Y 193 X -2 Y 1349 X f black 1 1 1 c black 0.6 0.6 0.6 c 3 lw 420 663 m -6 -5 d s 403 666 m -8 -8 d s 384 666 m -8 -8 d s 365 666 m -9 -8 d s 346 666 m -9 -8 d s 326 666 m -8 -8 d s
 307 666 m -8 -8 d s 288 666 m -9 -8 d s 269 666 m -9 -8 d s 249 666 m -8 -8 d s 230 666 m -3 -3 d s 3 lw 612 1028 m -4 -4 d s 609 1044 m -21 -20 d s 590 1044 m -21 -20 d s 571 1044 m -21 -20 d s 551 1044 m -20 -20 d s 532 1044 m -20 -20 d s 513 1044
 m -21 -20 d s 494 1044 m -21 -20 d s 475 1044 m -21 -20 d s 455 1044 m -20 -20 d s 436 1044 m -16 -16 d s 3 lw 805 664 m -7 -8 d s 791 669 m -13 -13 d s 771 669 m -12 -13 d s 752 669 m -12 -13 d s 733 669 m -12 -13 d s 714 669 m -13 -13 d s 694 669
 m -12 -13 d s 675 669 m -12 -13 d s 656 669 m -12 -13 d s 637 669 m -13 -13 d s 618 669 m -6 -6 d s 3 lw 986 557 m -6 -6 d s 967 557 m -6 -6 d s 948 557 m -6 -6 d s 929 557 m -6 -6 d s 909 557 m -6 -6 d s 890 557 m -6 -6 d s 871 557 m -6 -6 d s 852
 557 m -6 -6 d s 832 557 m -6 -6 d s 813 557 m -6 -6 d s 3 lw 1179 518 m -4 -4 d s 1160 518 m -4 -4 d s 1141 518 m -5 -4 d s 1121 518 m -4 -4 d s 1102 518 m -4 -4 d s 1083 518 m -4 -4 d s 1064 518 m -5 -4 d s 1044 518 m -4 -4 d s 1025 518 m -4 -4 d s
 1006 518 m -4 -4 d s 3 lw 1372 500 m -3 -3 d s 1353 500 m -3 -3 d s 1334 500 m -3 -3 d s 1314 500 m -2 -3 d s 1295 500 m -3 -3 d s 1276 500 m -3 -3 d s 1257 500 m -3 -3 d s 1237 500 m -2 -3 d s 1218 500 m -3 -3 d s 1199 500 m -3 -3 d s 3 lw 1559 494
 m -2 -2 d s 1540 494 m -2 -2 d s 1521 494 m -3 -2 d s 1501 494 m -2 -2 d s 1482 494 m -2 -2 d s 1463 494 m -2 -2 d s 1444 494 m -2 -2 d s 1424 494 m -2 -2 d s 1405 494 m -2 -2 d s 1386 494 m -2 -2 d s 3 lw 1766 490 m -1 -2 d s 1747 490 m -2 -2 d s
 1728 490 m -2 -2 d s 1708 490 m -1 -2 d s 1689 490 m -1 -2 d s 1670 490 m -2 -2 d s 1651 490 m -2 -2 d s 1631 490 m -1 -2 d s 1612 490 m -1 -2 d s 1593 490 m -2 -2 d s 3 lw 1957 489 m -1 -1 d s 1938 489 m -1 -1 d s 1919 489 m -1 -1 d s 1900 489 m -2
 -1 d s 1880 489 m -1 -1 d s 1861 489 m -1 -1 d s 1842 489 m -1 -1 d s 1823 489 m -2 -1 d s 1803 489 m -1 -1 d s 1784 489 m -1 -1 d s 3 lw 2151 490 m -2 -3 d s 2132 490 m -3 -3 d s 2113 490 m -3 -3 d s 2094 490 m -3 -3 d s 2074 490 m -2 -3 d s 2055
 490 m -3 -3 d s 2036 490 m -3 -3 d s 2017 490 m -3 -3 d s 1997 490 m -2 -3 d s 1978 490 m -3 -3 d s black 3 lw 1 1 1 c black 323 614 m 4 Y s 323 642 m 4 Y s /w 24 def /w2 {w 2 div} def /w3 {w 3 div} def 323 630 m20 516 921 m 17 Y s 516 961 m 17 Y s
 516 950 m20 709 663 m 7 Y s 709 693 m 7 Y s 709 682 m20 901 561 m 1 Y s 901 585 m 1 Y s 901 573 m20 1094 517 m20 1287 493 m20 1480 493 m20 1672 488 m20 1865 491 m20 227 486 m 1927 X s 227 505 m -19 Y s 304 495 m -9 Y s 381 495 m -9 Y s 458 495 m -9
 Y s 535 495 m -9 Y s 612 505 m -19 Y s 689 495 m -9 Y s 766 495 m -9 Y s 844 495 m -9 Y s 921 495 m -9 Y s 998 505 m -19 Y s 1075 495 m -9 Y s 1152 495 m -9 Y s 1229 495 m -9 Y s 1306 495 m -9 Y s 1383 505 m -19 Y s 1460 495 m -9 Y s 1538 495 m -9 Y
 s 1615 495 m -9 Y s 1692 495 m -9 Y s 1769 505 m -19 Y s 1846 495 m -9 Y s 1923 495 m -9 Y s 2000 495 m -9 Y s 2077 495 m -9 Y s 2154 505 m -19 Y s 227 1527 m 1927 X s 227 1508 m 19 Y s 304 1518 m 9 Y s 381 1518 m 9 Y s 458 1518 m 9 Y s 535 1518 m 9
 Y s 612 1508 m 19 Y s 689 1518 m 9 Y s 766 1518 m 9 Y s 844 1518 m 9 Y s 921 1518 m 9 Y s 998 1508 m 19 Y s 1075 1518 m 9 Y s 1152 1518 m 9 Y s 1229 1518 m 9 Y s 1306 1518 m 9 Y s 1383 1508 m 19 Y s 1460 1518 m 9 Y s 1538 1518 m 9 Y s 1615 1518 m 9
 Y s 1692 1518 m 9 Y s 1769 1508 m 19 Y s 1846 1518 m 9 Y s 1923 1518 m 9 Y s 2000 1518 m 9 Y s 2077 1518 m 9 Y s 2154 1508 m 19 Y s 227 486 m 1041 Y s 248 658 m -21 X s 237 692 m -10 X s 237 726 m -10 X s 237 761 m -10 X s 237 795 m -10 X s 248 829
 m -21 X s 237 864 m -10 X s 237 898 m -10 X s 237 932 m -10 X s 237 967 m -10 X s 248 1001 m -21 X s 237 1036 m -10 X s 237 1070 m -10 X s 237 1104 m -10 X s 237 1139 m -10 X s 248 1173 m -21 X s 237 1207 m -10 X s 237 1242 m -10 X s 237 1276 m -10
 X s 237 1310 m -10 X s 248 1345 m -21 X s 237 1379 m -10 X s 237 1413 m -10 X s 237 1448 m -10 X s 237 1482 m -10 X s 248 1516 m -21 X s 248 658 m -21 X s 237 623 m -10 X s 237 589 m -10 X s 237 555 m -10 X s 237 520 m -10 X s 248 1516 m -21 X s
 2154 486 m 1041 Y s 2133 658 m 21 X s 2144 692 m 10 X s 2144 726 m 10 X s 2144 761 m 10 X s 2144 795 m 10 X s 2133 829 m 21 X s 2144 864 m 10 X s 2144 898 m 10 X s 2144 932 m 10 X s 2144 967 m 10 X s 2133 1001 m 21 X s 2144 1036 m 10 X s 2144 1070 m
 10 X s 2144 1104 m 10 X s 2144 1139 m 10 X s 2133 1173 m 21 X s 2144 1207 m 10 X s 2144 1242 m 10 X s 2144 1276 m 10 X s 2144 1310 m 10 X s 2133 1345 m 21 X s 2144 1379 m 10 X s 2144 1413 m 10 X s 2144 1448 m 10 X s 2144 1482 m 10 X s 2133 1516 m 21
 X s 2133 658 m 21 X s 2144 623 m 10 X s 2144 589 m 10 X s 2144 555 m 10 X s 2144 520 m 10 X s 2133 1516 m 21 X s
 gsave  2268 1108 0 475 C 1313.98 1437.99 t 0 r /Helvetica findfont 56.1323 sf 0 0 m ( Data) show NC gr  1259 1463 m 7 Y s 1259 1440 m -8 Y s 1259 1451 m20
 gsave  2268 1108 0 475 C 1777.56 1437.99 t 0 r /Helvetica findfont 56.1323 sf 0 0 m ( Fakes \(MM\)) show NC gr  0.4 0.6 0.4 c 1682 1429 m 79 X 44 Y -79 X f black
 gsave  2268 1108 0 475 C 1402.56 1375.98 t 0 r /Helvetica findfont 56.1323 sf 0 0 m (single\255top) show NC gr 
 gsave  2268 1108 0 475 C 1373.03 1375.98 t 0 r /Helvetica-Oblique findfont 56.1323 sf 0 0 m (/) show NC gr 
 gsave  2268 1108 0 475 C 1352.36 1375.98 t 0 r /Helvetica-Oblique findfont 56.1323 sf 0 0 m (t) show NC gr  6 lw 1352 1420 m 21 X s
 gsave  2268 1108 0 475 C 1331.69 1375.98 t 0 r /Helvetica-Oblique findfont 56.1323 sf 0 0 m (t) show NC gr 
 gsave  2268 1108 0 475 C 1313.98 1375.98 t 0 r /Helvetica findfont 56.1323 sf 0 0 m ( ) show NC gr  0.06 0.54 0.06 c 3 lw 1219 1366 m 79 X 44 Y -79 X f 6 lw black
 gsave  2268 1108 0 475 C 1907.48 1375.98 t 0 r /Helvetica findfont 56.1323 sf 0 0 m (+jets) show NC gr 
 gsave  2268 1108 0 475 C 1795.28 1375.98 t 0 r /Helvetica-Oblique findfont 56.1323 sf 0 0 m (W/Z) show NC gr 
 gsave  2268 1108 0 475 C 1777.56 1375.98 t 0 r /Helvetica findfont 56.1323 sf 0 0 m ( ) show NC gr  1 0.653333 0 c 3 lw 1682 1366 m 79 X 44 Y -79 X f black
 gsave  2268 1108 0 475 C 1511.81 1311.02 t 0 r /Helvetica findfont 56.1323 sf 0 0 m (+jets) show NC gr 
 gsave  2268 1108 0 475 C 1331.69 1311.02 t 0 r /Helvetica-Oblique findfont 56.1323 sf 0 0 m (WZ/ZZ) show NC gr 
 gsave  2268 1108 0 475 C 1313.98 1311.02 t 0 r /Helvetica findfont 56.1323 sf 0 0 m ( ) show NC gr  0.413333 1 0 c 3 lw 1219 1303 m 79 X 44 Y -79 X f black
 gsave  2268 1108 0 475 C 1836.61 1311.02 t 0 r /Helvetica-Oblique findfont 56.1323 sf 0 0 m (Z) show NC gr 
 gsave  2268 1108 0 475 C 1815.94 1311.02 t 0 r /Helvetica-Oblique findfont 56.1323 sf 0 0 m (t) show NC gr  6 lw 1816 1355 m 21 X s
 gsave  2268 1108 0 475 C 1795.28 1311.02 t 0 r /Helvetica-Oblique findfont 56.1323 sf 0 0 m (t) show NC gr 
 gsave  2268 1108 0 475 C 1777.56 1311.02 t 0 r /Helvetica findfont 56.1323 sf 0 0 m ( ) show NC gr  0.6 0.2 1 c 3 lw 1682 1303 m 79 X 44 Y -79 X f 6 lw black
 gsave  2268 1108 0 475 C 1373.03 1249.02 t 0 r /Helvetica-Oblique findfont 56.1323 sf 0 0 m (W) show NC gr 
 gsave  2268 1108 0 475 C 1352.36 1249.02 t 0 r /Helvetica-Oblique findfont 56.1323 sf 0 0 m (t) show NC gr  6 lw 1352 1293 m 21 X s
 gsave  2268 1108 0 475 C 1331.69 1249.02 t 0 r /Helvetica-Oblique findfont 56.1323 sf 0 0 m (t) show NC gr 
 gsave  2268 1108 0 475 C 1313.98 1249.02 t 0 r /Helvetica findfont 56.1323 sf 0 0 m ( ) show NC gr  0.54 0.06 0.06 c 3 lw 1219 1239 m 79 X 45 Y -79 X f 6 lw black
 gsave  2268 1108 0 475 C 1795.28 1249.02 t 0 r /Helvetica-Oblique findfont 56.1323 sf 0 0 m (tZq) show NC gr 
 gsave  2268 1108 0 475 C 1777.56 1249.02 t 0 r /Helvetica findfont 56.1323 sf 0 0 m ( ) show NC gr  1 0 1 c 3 lw 1682 1239 m 79 X 45 Y -79 X f black
 gsave  2268 1108 0 475 C 1373.03 1184.06 t 0 r /Helvetica-Oblique findfont 56.1323 sf 0 0 m (H) show NC gr 
 gsave  2268 1108 0 475 C 1352.36 1184.06 t 0 r /Helvetica-Oblique findfont 56.1323 sf 0 0 m (t) show NC gr  6 lw 1352 1228 m 21 X s
 gsave  2268 1108 0 475 C 1331.69 1184.06 t 0 r /Helvetica-Oblique findfont 56.1323 sf 0 0 m (t) show NC gr 
 gsave  2268 1108 0 475 C 1313.98 1184.06 t 0 r /Helvetica findfont 56.1323 sf 0 0 m ( ) show NC gr  0 0 1 c 3 lw 1219 1176 m 79 X 44 Y -79 X f 6 lw black
 gsave  2268 1108 0 475 C 1795.28 1184.06 t 0 r /Helvetica-Oblique findfont 56.1323 sf 0 0 m (tWZ/tWH) show NC gr 
 gsave  2268 1108 0 475 C 1777.56 1184.06 t 0 r /Helvetica findfont 56.1323 sf 0 0 m ( ) show NC gr  0.2 0.8 0.8 c 3 lw 1682 1176 m 79 X 44 Y -79 X f black
 gsave  2268 1108 0 475 C 1331.69 1122.05 t 0 r /Helvetica-Oblique findfont 56.1323 sf 0 0 m (tHq) show NC gr 
 gsave  2268 1108 0 475 C 1313.98 1122.05 t 0 r /Helvetica findfont 56.1323 sf 0 0 m ( ) show NC gr  1 0 0 c 3 lw 1219 1113 m 79 X 44 Y -79 X f black
 gsave  2268 1108 0 475 C 1777.56 1122.05 t 0 r /Helvetica findfont 56.1323 sf 0 0 m ( Other) show NC gr  1 0.84 0 c 3 lw 1682 1113 m 79 X 44 Y -79 X f black
 gsave  2268 1108 0 475 C 1313.98 1060.04 t 0 r /Helvetica findfont 56.1323 sf 0 0 m ( Uncertainty) show NC gr  0.6 0.6 0.6 c 3 lw 1298 1060 m -10 -11 d s 1298 1079 m -30 -30 d s 1294 1094 m -45 -45 d s 1274 1094 m -44 -45 d s 1255 1094 m -36 -37 d s
 1236 1094 m -17 -17 d s 1 0.84 0 c 0.6 0.6 0.6 c black
 gsave  2268 1108 0 475 C 894.685 1337.6 t 0 r /Helvetica findfont 41.3606 sf 0 0 m (\2551) show NC gr 
 gsave  2268 1108 0 475 C 401.575 1308.07 t 0 r /Helvetica findfont 62.0409 sf 0 0 m ( = 13 TeV,  139 fb) show NC gr 
 gsave  2268 1108 0 475 C 372.047 1308.07 t 0 r /Helvetica findfont 62.0409 sf 0 0 m (s) show NC gr  6 lw 351 1344 m 6 -39 d s 3 lw 357 1305 m 9 56 d s 366 1361 m 36 X s
 gsave  2268 1108 0 475 C 812.008 1207.68 t 0 r /Helvetica findfont 62.0409 sf 0 0 m (\)) show NC gr 
 gsave  2268 1108 0 475 C 785.433 1207.68 t 0 r /Helvetica-Oblique findfont 62.0409 sf 0 0 m (j) show NC gr 
 gsave  2268 1108 0 475 C 752.953 1207.68 t 0 r /Helvetica findfont 62.0409 sf 0 0 m (3) show NC gr 
 gsave  2268 1108 0 475 C 714.567 1207.68 t 0 r /Helvetica-Oblique findfont 62.0409 sf 0 0 m (b) show NC gr 
 gsave  2268 1108 0 475 C 339.567 1207.68 t 0 r /Helvetica findfont 62.0409 sf 0 0 m ( 2L\(SS\), VR\(1) show NC gr 
 gsave  2268 1108 0 475 C 339.567 1405.51 t 0 r /Helvetica-BoldOblique findfont 73.8583 sf 0 0 m (ATLAS) show NC gr 
 gsave  2268 1108 0 475 C 634.843 1405.51 t 0 r /Helvetica findfont 73.8583 sf 0 0 m (Internal) show NC gr 
 gr  gr showpage
end
%%EOF
