%!PS-Adobe-2.0 EPSF-2.0
%%BoundingBox:  0 0 567 394
%%Title: /lhome/ific/c/cardillo/tHq/Plots/Plots-30-05-22-PLIV-SF/2LSS_MM/LepPt2_CRttW.eps: LepPt2_CRttW
%%Creator: ROOT Version 6.20/06
%%CreationDate: Mon May 30 19:25:23 2022
%%DocumentNeededResources: ProcSet (FontSetInit)
%%EndComments
%%BeginProlog
80 dict begin
/s {stroke} def /l {lineto} def /m {moveto} def /t {translate} def
/r {rotate} def /rl {roll}  def /R {repeat} def
/d {rlineto} def /rm {rmoveto} def /gr {grestore} def /f {eofill} def
/c {setrgbcolor} def /black {0 setgray} def /sd {setdash} def
/cl {closepath} def /sf {scalefont setfont} def /lw {setlinewidth} def
/box {m dup 0 exch d exch 0 d 0 exch neg d cl} def
/NC{systemdict begin initclip end}def/C{NC box clip newpath}def
/bl {box s} def /bf {gsave box gsave f grestore 1 lw [] 0 sd s grestore} def /Y { 0 exch d} def /X { 0 d} def 
/K {{pop pop 0 moveto} exch kshow} bind def
/ita {/ang 15 def gsave [1 0 ang dup sin exch cos div 1 0 0] concat} def 
/mp {newpath /y exch def /x exch def} def
/side {[w .77 mul w .23 mul] .385 w mul sd w 0 l currentpoint t -144 r} def
/mr {mp x y w2 0 360 arc} def /m24 {mr s} def /m20 {mr f} def
/mb {mp x y w2 add m w2 neg 0 d 0 w neg d w 0 d 0 w d cl} def
/mt {mp x y w2 add m w2 neg w neg d w 0 d cl} def
/w4 {w 4 div} def
/w6 {w 6 div} def
/w8 {w 8 div} def
/m21 {mb f} def /m25 {mb s} def /m22 {mt f} def /m26{mt s} def
/m23 {mp x y w2 sub m w2 w d w neg 0 d cl f} def
/m27 {mp x y w2 add m w3 neg w2 neg d w3 w2 neg d w3 w2 d cl s} def
/m28 {mp x w2 sub y w2 sub w3 add m w3 0 d  0 w3 neg d w3 0 d 0 w3 d w3 0 d  0 w3 d w3 neg 0 d 0 w3 d w3 neg 0 d 0 w3 neg d w3 neg 0 d cl s } def
/m29 {mp gsave x w2 sub y w2 add w3 sub m currentpoint t 4 {side} repeat cl fill gr} def
/m30 {mp gsave x w2 sub y w2 add w3 sub m currentpoint t 4 {side} repeat cl s gr} def
/m31 {mp x y w2 sub m 0 w d x w2 sub y m w 0 d x w2 sub y w2 add m w w neg d x w2 sub y w2 sub m w w d s} def
/m32 {mp x y w2 sub m w2 w d w neg 0 d cl s} def
/m33 {mp x y w2 add m w3 neg w2 neg d w3 w2 neg d w3 w2 d cl f} def
/m34 {mp x w2 sub y w2 sub w3 add m w3 0 d  0 w3 neg d w3 0 d 0 w3 d w3 0 d  0 w3 d w3 neg 0 d 0 w3 d w3 neg 0 d 0 w3 neg d w3 neg 0 d cl f } def
/m35 {mp x y w2 add m w2 neg w2 neg d w2 w2 neg d w2 w2 d w2 neg w2 d x y w2 sub m 0 w d x w2 sub y m w 0 d s} def
/m36 {mb x w2 sub y w2 add m w w neg d x w2 sub y w2 sub m w w d s} def
/m37 {mp x y m w4 neg w2 d w4 neg w2 neg d w2 0 d  w4 neg w2 neg d w2 0 d w4 neg w2 d w2 0 d w4 neg w2 d w4 neg w2 neg d cl s} def
/m38 {mp x w4 sub y w2 add m w4 neg w4 neg d 0 w2 neg d w4 w4 neg d w2 0 d w4 w4 d 0 w2 d w4 neg w4 d w2 neg 0 d x y w2 sub m 0 w d x w2 sub y m w 0 d cl s} def
/m39 {mp x y m w4 neg w2 d w4 neg w2 neg d w2 0 d  w4 neg w2 neg d w2 0 d w4 neg w2 d w2 0 d w4 neg w2 d w4 neg w2 neg d cl f} def
/m40 {mp x y m w4 w2 d w4 w4 neg d w2 neg w4 neg d w2 w4 neg d w4 neg w4 neg d w4 neg w2 d w4 neg w2 neg d w4 neg w4 d w2 w4 d w2 neg w4 d w4 w4 d w4 w2 neg d cl s} def
/m41 {mp x y m w4 w2 d w4 w4 neg d w2 neg w4 neg d w2 w4 neg d w4 neg w4 neg d w4 neg w2 d w4 neg w2 neg d w4 neg w4 d w2 w4 d w2 neg w4 d w4 w4 d w4 w2 neg d cl f} def
/m42 {mp x y w2 add m w8 neg w2 -3 4 div mul d w2 -3 4 div mul w8 neg d w2 3 4 div mul w8 neg d w8 w2 -3 4 div mul d w8 w2 3 4 div mul d w2 3 4 div mul w8 d w2 -3 4 div mul w8 d w8 neg w2 3 4 div mul d cl s} def
/m43 {mp x y w2 add m w8 neg w2 -3 4 div mul d w2 -3 4 div mul w8 neg d w2 3 4 div mul w8 neg d w8 w2 -3 4 div mul d w8 w2 3 4 div mul d w2 3 4 div mul w8 d w2 -3 4 div mul w8 d w8 neg w2 3 4 div mul d cl f} def
/m44 {mp x y m w6 neg w2 d w2 2 3 div mul 0 d w6 neg w2 neg d w2 w6 d 0 w2 -2 3 div mul d w2 neg w6 d w6 w2 neg d w2 -2 3 div mul 0 d w6 w2 d w2 neg w6 neg d 0 w2 2 3 div mul d w2 w6 neg d cl s} def
/m45 {mp x y m w6 neg w2 d w2 2 3 div mul 0 d w6 neg w2 neg d w2 w6 d 0 w2 -2 3 div mul d w2 neg w6 d w6 w2 neg d w2 -2 3 div mul 0 d w6 w2 d w2 neg w6 neg d 0 w2 2 3 div mul d w2 w6 neg d cl f} def
/m46 {mp x y w4 add m w4 neg w4 d w4 neg w4 neg d  w4 w4 neg d w4 neg w4 neg d w4 w4 neg d w4 w4 d w4 w4 neg d w4 w4 d w4 neg w4 d w4 w4 d w4 neg w4 d w4 neg w4 neg d cl s} def
/m47 {mp x y w4 add m w4 neg w4 d w4 neg w4 neg d w4 w4 neg d w4 neg w4 neg d  w4 w4 neg d w4 w4 d w4 w4 neg d w4 w4 d w4 neg w4 d w4 w4 d w4 neg w4 d w4 neg w4 neg d cl f} def
/m48 {mp x y w4 add m w4 neg w4 d w4 neg w4 neg d w4 w4 neg d  w4 neg w4 neg d w4 w4 neg d w4 w4 d w4 w4 neg d w4 w4 d w4 neg w4 d w4 w4 d w4 neg w4 d w4 neg w4 neg d  w4 w4 neg d w4 neg w4 neg d w4 neg w4 d w4 w4 d cl f} def
/m49 {mp x w2 sub w3 add y w2 sub w3 add m  0 w3 neg d w3 0 d 0 w3 d w3 0 d 0 w3 d w3 neg 0 d 0 w3 d w3 neg 0 d 0 w3 neg d w3 neg 0 d 0 w3 neg d w3 0 d 0 w3 d w3 0 d 0 w3 neg d w3 neg 0 d cl f } def
/m2 {mp x y w2 sub m 0 w d x w2 sub y m w 0 d s} def
/m5 {mp x w2 sub y w2 sub m w w d x w2 sub y w2 add m w w neg d s} def
%%IncludeResource: ProcSet (FontSetInit)
%%IncludeResource: font Times-Roman
%%IncludeResource: font Times-Italic
%%IncludeResource: font Times-Bold
%%IncludeResource: font Times-BoldItalic
%%IncludeResource: font Helvetica
%%IncludeResource: font Helvetica-Oblique
%%IncludeResource: font Helvetica-Bold
%%IncludeResource: font Helvetica-BoldOblique
%%IncludeResource: font Courier
%%IncludeResource: font Courier-Oblique
%%IncludeResource: font Courier-Bold
%%IncludeResource: font Courier-BoldOblique
%%IncludeResource: font Symbol
%%IncludeResource: font ZapfDingbats
/reEncode {exch findfont dup length dict begin {1 index /FID eq  {pop pop} {def} ifelse } forall /Encoding exch def currentdict end dup /FontName get exch definefont pop } def [/Times-Bold /Times-Italic /Times-BoldItalic /Helvetica /Helvetica-Oblique
 /Helvetica-Bold /Helvetica-BoldOblique /Courier /Courier-Oblique /Courier-Bold /Courier-BoldOblique /Times-Roman /AvantGarde-Book /AvantGarde-BookOblique /AvantGarde-Demi /AvantGarde-DemiOblique /Bookman-Demi /Bookman-DemiItalic /Bookman-Light
 /Bookman-LightItalic /Helvetica-Narrow /Helvetica-Narrow-Bold /Helvetica-Narrow-BoldOblique /Helvetica-Narrow-Oblique /NewCenturySchlbk-Roman /NewCenturySchlbk-Bold /NewCenturySchlbk-BoldItalic /NewCenturySchlbk-Italic /Palatino-Bold
 /Palatino-BoldItalic /Palatino-Italic /Palatino-Roman ] {ISOLatin1Encoding reEncode } forall
%%EndProlog
%%BeginSetup
%%EndSetup
newpath  gsave  .25 .25 scale  gsave  0 0 t black[  ] 0 sd 3 lw 1 1 1 c 2268 1575 0 0 bf black 1 1 1 c 2268 472 0 0 bf black 1 1 1 c 1927 274 227 189 bf black 1927 274 227 189 bl 227 189 m 1927 X s 227 201 m -12 Y s 304 195 m -6 Y s 381 195 m -6 Y s
 458 195 m -6 Y s 535 195 m -6 Y s 612 201 m -12 Y s 689 195 m -6 Y s 766 195 m -6 Y s 844 195 m -6 Y s 921 195 m -6 Y s 998 201 m -12 Y s 1075 195 m -6 Y s 1152 195 m -6 Y s 1229 195 m -6 Y s 1306 195 m -6 Y s 1383 201 m -12 Y s 1460 195 m -6 Y s
 1538 195 m -6 Y s 1615 195 m -6 Y s 1692 195 m -6 Y s 1769 201 m -12 Y s 1846 195 m -6 Y s 1923 195 m -6 Y s 2000 195 m -6 Y s 2077 195 m -6 Y s 2154 201 m -12 Y s
 gsave  2268 472 0 0 C 210.193 127.3 t 0 r /Helvetica findfont 53.4895 sf 0 0 m (0) show NC gr 
 gsave  2268 472 0 0 C 580.251 127.3 t 0 r /Helvetica findfont 53.4895 sf 0 0 m (50) show NC gr 
 gsave  2268 472 0 0 C 953.27 127.3 t 0 r /Helvetica findfont 53.4895 sf 0 0 m (100) show NC gr 
 gsave  2268 472 0 0 C 1338.13 127.3 t 0 r /Helvetica findfont 53.4895 sf 0 0 m (150) show NC gr 
 gsave  2268 472 0 0 C 1722.99 127.3 t 0 r /Helvetica findfont 53.4895 sf 0 0 m (200) show NC gr 
 gsave  2268 472 0 0 C 2107.85 127.3 t 0 r /Helvetica findfont 53.4895 sf 0 0 m (250) show NC gr 
 gsave  2268 472 0 0 C 1977.59 53.2884 t 0 r /Helvetica findfont 56.4611 sf 0 0 m (\) [GeV]) show NC gr 
 gsave  2268 472 0 0 C 1956.87 20.7233 t 0 r /Helvetica findfont 38.6313 sf 0 0 m (2) show NC gr 
 gsave  2268 472 0 0 C 1862.13 53.2884 t 0 r /Helvetica findfont 56.4611 sf 0 0 m (\(lep) show NC gr 
 gsave  2268 472 0 0 C 1838.45 20.7233 t 0 r /Helvetica findfont 38.6313 sf 0 0 m (T) show NC gr 
 gsave  2268 472 0 0 C 1802.92 53.2884 t 0 r /Helvetica-Oblique findfont 56.4611 sf 0 0 m (p) show NC gr  227 463 m 1927 X s 227 451 m 12 Y s 304 457 m 6 Y s 381 457 m 6 Y s 458 457 m 6 Y s 535 457 m 6 Y s 612 451 m 12 Y s 689 457 m 6 Y s 766 457 m 6
 Y s 844 457 m 6 Y s 921 457 m 6 Y s 998 451 m 12 Y s 1075 457 m 6 Y s 1152 457 m 6 Y s 1229 457 m 6 Y s 1306 457 m 6 Y s 1383 451 m 12 Y s 1460 457 m 6 Y s 1538 457 m 6 Y s 1615 457 m 6 Y s 1692 457 m 6 Y s 1769 451 m 12 Y s 1846 457 m 6 Y s 1923
 457 m 6 Y s 2000 457 m 6 Y s 2077 457 m 6 Y s 2154 451 m 12 Y s 227 189 m 274 Y s 240 240 m -13 X s 240 326 m -13 X s 240 412 m -13 X s 240 240 m -13 X s 240 412 m -13 X s
 gsave  2268 472 0 0 C 118.419 222.035 t 0 r /Helvetica findfont 53.4895 sf 0 0 m (0.5) show NC gr 
 gsave  2268 472 0 0 C 171.707 307.888 t 0 r /Helvetica findfont 53.4895 sf 0 0 m (1) show NC gr 
 gsave  2268 472 0 0 C 118.419 393.742 t 0 r /Helvetica findfont 53.4895 sf 0 0 m (1.5) show NC gr 
 gsave  2268 472 0 0 C 71.0512 230.916 t 90 r /Helvetica findfont 53.4895 sf 0 0 m (Data / SM) show NC gr  2154 189 m 274 Y s 2141 240 m 13 X s 2141 326 m 13 X s 2141 412 m 13 X s 2141 240 m 13 X s 2141 412 m 13 X s 227 189 m 1927 X s 227 463 m 1927
 X s 227 189 m 274 Y s[ 4 8] 0 sd 2154 240 m -1927 X s 2154 326 m -1927 X s 2154 412 m -1927 X s 2154 240 m -1927 X s 2154 412 m -1927 X s[  ] 0 sd 2154 189 m 274 Y s 1 1 0.6 c 193 0 227 326 bf 192 0 420 326 bf 193 0 612 326 bf 193 0 805 326 bf 193 0
 998 326 bf 192 0 1191 326 bf 193 0 1383 326 bf 193 0 1576 326 bf 193 0 1769 326 bf 192 0 1962 326 bf black 0.6 0.6 0.6 c 420 325 m -4 -4 d s 407 331 m -10 -10 d s 388 331 m -10 -10 d s 368 331 m -10 -10 d s 349 331 m -10 -10 d s 330 331 m -10 -10 d
 s 311 331 m -10 -10 d s 291 331 m -10 -10 d s 272 331 m -10 -10 d s 253 331 m -10 -10 d s 234 331 m -7 -7 d s 612 325 m -1 Y s 596 328 m -3 -4 d s 577 328 m -4 -4 d s 557 328 m -3 -4 d s 538 328 m -3 -4 d s 519 328 m -3 -4 d s 500 328 m -4 -4 d s
 480 328 m -3 -4 d s 461 328 m -3 -4 d s 442 328 m -3 -4 d s 423 328 m -3 -3 d s 805 325 m -1 -1 d s 789 328 m -5 -4 d s 770 328 m -5 -4 d s 750 328 m -4 -4 d s 731 328 m -4 -4 d s 712 328 m -5 -4 d s 693 328 m -5 -4 d s 673 328 m -4 -4 d s 654 328 m
 -4 -4 d s 635 328 m -5 -4 d s 616 328 m -4 -3 d s 998 326 m -3 -3 d s 982 329 m -6 -6 d s 963 329 m -7 -6 d s 944 329 m -7 -6 d s 925 329 m -7 -6 d s 906 329 m -7 -6 d s 886 329 m -7 -6 d s 867 329 m -7 -6 d s 848 329 m -7 -6 d s 829 329 m -7 -6 d s
 809 329 m -4 -4 d s 1191 326 m -8 -8 d s 1179 334 m -15 -16 d s 1160 334 m -16 -16 d s 1141 334 m -16 -16 d s 1121 334 m -15 -16 d s 1102 334 m -15 -16 d s 1083 334 m -15 -16 d s 1064 334 m -16 -16 d s 1044 334 m -15 -16 d s 1025 334 m -15 -16 d s
 1006 334 m -8 -8 d s 1383 326 m -9 -9 d s 1373 335 m -18 -18 d s 1353 335 m -17 -18 d s 1334 335 m -17 -18 d s 1315 335 m -18 -18 d s 1296 335 m -18 -18 d s 1276 335 m -17 -18 d s 1257 335 m -17 -18 d s 1238 335 m -18 -18 d s 1219 335 m -18 -18 d s
 1199 335 m -8 -9 d s 1576 327 m -15 -16 d s 1571 341 m -30 -30 d s 1552 341 m -30 -30 d s 1533 341 m -30 -30 d s 1513 341 m -29 -30 d s 1494 341 m -30 -30 d s 1475 341 m -30 -30 d s 1456 341 m -30 -30 d s 1436 341 m -29 -30 d s 1417 341 m -30 -30 d
 s 1398 341 m -15 -15 d s 1769 308 m -16 -16 d s 1769 327 m -35 -35 d s 1769 346 m -54 -54 d s 1763 360 m -67 -68 d s 1744 360 m -68 -68 d s 1725 360 m -68 -68 d s 1705 360 m -67 -68 d s 1686 360 m -67 -68 d s 1667 360 m -67 -68 d s 1648 360 m -68
 -68 d s 1629 360 m -53 -53 d s 1609 360 m -33 -33 d s 1590 360 m -14 -14 d s 1962 308 m -13 -12 d s 1962 327 m -32 -31 d s 1962 347 m -51 -51 d s 1952 357 m -60 -61 d s 1933 357 m -61 -61 d s 1914 357 m -61 -61 d s 1895 357 m -61 -61 d s 1875 357 m
 -60 -61 d s 1856 357 m -61 -61 d s 1837 357 m -61 -61 d s 1818 357 m -49 -49 d s 1798 357 m -29 -30 d s 1779 357 m -10 -11 d s 2154 308 m -2 -2 d s 2154 328 m -21 -22 d s 2154 346 m -40 -40 d s 2134 346 m -40 -40 d s 2115 346 m -40 -40 d s 2096 346
 m -40 -40 d s 2077 346 m -40 -40 d s 2057 346 m -40 -40 d s 2038 346 m -40 -40 d s 2019 346 m -40 -40 d s 2000 346 m -38 -38 d s 1980 346 m -18 -19 d s black 1 1 1 c black 323 236 m 26 Y s 323 286 m 25 Y s /w 26 def /w2 {w 2 div} def /w3 {w 3 div}
 def 323 274 m20 516 337 m 3 Y s 516 364 m 4 Y s 516 352 m20 709 323 m 9 Y s 709 356 m 9 Y s 709 344 m20 901 309 m 27 Y s 901 360 m 27 Y s 901 348 m20 1094 189 m 23 Y s 1094 235 m 28 Y s 1094 224 m20 1287 189 m 16 Y s 1287 229 m 51 Y s 1287 217 m20
 227 326 m 1927 X s 227 189 m 1927 X s 227 201 m -12 Y s 304 195 m -6 Y s 381 195 m -6 Y s 458 195 m -6 Y s 535 195 m -6 Y s 612 201 m -12 Y s 689 195 m -6 Y s 766 195 m -6 Y s 844 195 m -6 Y s 921 195 m -6 Y s 998 201 m -12 Y s 1075 195 m -6 Y s
 1152 195 m -6 Y s 1229 195 m -6 Y s 1306 195 m -6 Y s 1383 201 m -12 Y s 1460 195 m -6 Y s 1538 195 m -6 Y s 1615 195 m -6 Y s 1692 195 m -6 Y s 1769 201 m -12 Y s 1846 195 m -6 Y s 1923 195 m -6 Y s 2000 195 m -6 Y s 2077 195 m -6 Y s 2154 201 m
 -12 Y s 227 463 m 1927 X s 227 451 m 12 Y s 304 457 m 6 Y s 381 457 m 6 Y s 458 457 m 6 Y s 535 457 m 6 Y s 612 451 m 12 Y s 689 457 m 6 Y s 766 457 m 6 Y s 844 457 m 6 Y s 921 457 m 6 Y s 998 451 m 12 Y s 1075 457 m 6 Y s 1152 457 m 6 Y s 1229 457
 m 6 Y s 1306 457 m 6 Y s 1383 451 m 12 Y s 1460 457 m 6 Y s 1538 457 m 6 Y s 1615 457 m 6 Y s 1692 457 m 6 Y s 1769 451 m 12 Y s 1846 457 m 6 Y s 1923 457 m 6 Y s 2000 457 m 6 Y s 2077 457 m 6 Y s 2154 451 m 12 Y s 227 189 m 274 Y s 240 240 m -13 X
 s 240 326 m -13 X s 240 412 m -13 X s 240 240 m -13 X s 240 412 m -13 X s 2154 189 m 274 Y s 2141 240 m 13 X s 2141 326 m 13 X s 2141 412 m 13 X s 2141 240 m 13 X s 2141 412 m 13 X s 1 1 1 c 2268 1103 0 472 bf black 1 1 1 c 1927 1036 227 484 bf
 black 1927 1036 227 484 bl 1 1 1 c black 3 lw 227 484 m 1927 X s 227 502 m -18 Y s 304 493 m -9 Y s 381 493 m -9 Y s 458 493 m -9 Y s 535 493 m -9 Y s 612 502 m -18 Y s 689 493 m -9 Y s 766 493 m -9 Y s 844 493 m -9 Y s 921 493 m -9 Y s 998 502 m
 -18 Y s 1075 493 m -9 Y s 1152 493 m -9 Y s 1229 493 m -9 Y s 1306 493 m -9 Y s 1383 502 m -18 Y s 1460 493 m -9 Y s 1538 493 m -9 Y s 1615 493 m -9 Y s 1692 493 m -9 Y s 1769 502 m -18 Y s 1846 493 m -9 Y s 1923 493 m -9 Y s 2000 493 m -9 Y s 2077
 493 m -9 Y s 2154 502 m -18 Y s
 gsave  2268 1103 0 472 C 2060.48 408.544 t 0 r /Helvetica findfont 29.6365 sf 0 0 m (\) [GeV]) show NC gr 
 gsave  2268 1103 0 472 C 2048.64 390.781 t 0 r /Helvetica findfont 20.7455 sf 0 0 m (2) show NC gr 
 gsave  2268 1103 0 472 C 1998.31 408.544 t 0 r /Helvetica findfont 29.6365 sf 0 0 m (\(lep) show NC gr 
 gsave  2268 1103 0 472 C 1983.51 387.821 t 0 r /Helvetica findfont 20.7455 sf 0 0 m (T) show NC gr 
 gsave  2268 1103 0 472 C 1965.75 408.544 t 0 r /Helvetica-Oblique findfont 29.6365 sf 0 0 m (p) show NC gr  227 1520 m 1927 X s 227 1501 m 19 Y s 304 1510 m 10 Y s 381 1510 m 10 Y s 458 1510 m 10 Y s 535 1510 m 10 Y s 612 1501 m 19 Y s 689 1510 m 10
 Y s 766 1510 m 10 Y s 844 1510 m 10 Y s 921 1510 m 10 Y s 998 1501 m 19 Y s 1075 1510 m 10 Y s 1152 1510 m 10 Y s 1229 1510 m 10 Y s 1306 1510 m 10 Y s 1383 1501 m 19 Y s 1460 1510 m 10 Y s 1538 1510 m 10 Y s 1615 1510 m 10 Y s 1692 1510 m 10 Y s
 1769 1501 m 19 Y s 1846 1510 m 10 Y s 1923 1510 m 10 Y s 2000 1510 m 10 Y s 2077 1510 m 10 Y s 2154 1501 m 19 Y s 227 484 m 1036 Y s 248 628 m -21 X s 237 657 m -10 X s 237 686 m -10 X s 237 715 m -10 X s 237 744 m -10 X s 248 773 m -21 X s 237 802
 m -10 X s 237 831 m -10 X s 237 860 m -10 X s 237 889 m -10 X s 248 918 m -21 X s 237 947 m -10 X s 237 976 m -10 X s 237 1005 m -10 X s 237 1034 m -10 X s 248 1063 m -21 X s 237 1092 m -10 X s 237 1121 m -10 X s 237 1150 m -10 X s 237 1179 m -10 X
 s 248 1208 m -21 X s 237 1237 m -10 X s 237 1266 m -10 X s 237 1295 m -10 X s 237 1324 m -10 X s 248 1353 m -21 X s 237 1382 m -10 X s 237 1411 m -10 X s 237 1440 m -10 X s 237 1469 m -10 X s 248 1498 m -21 X s 248 628 m -21 X s 237 599 m -10 X s
 237 570 m -10 X s 237 541 m -10 X s 237 512 m -10 X s 248 1498 m -21 X s
 gsave  2268 1103 0 472 C 145.063 609.856 t 0 r /Helvetica findfont 50.382 sf 0 0 m (50) show NC gr 
 gsave  2268 1103 0 472 C 118.419 754.919 t 0 r /Helvetica findfont 50.382 sf 0 0 m (100) show NC gr 
 gsave  2268 1103 0 472 C 118.419 899.982 t 0 r /Helvetica findfont 50.382 sf 0 0 m (150) show NC gr 
 gsave  2268 1103 0 472 C 118.419 1045.04 t 0 r /Helvetica findfont 50.382 sf 0 0 m (200) show NC gr 
 gsave  2268 1103 0 472 C 118.419 1190.11 t 0 r /Helvetica findfont 50.382 sf 0 0 m (250) show NC gr 
 gsave  2268 1103 0 472 C 118.419 1332.21 t 0 r /Helvetica findfont 50.382 sf 0 0 m (300) show NC gr 
 gsave  2268 1103 0 472 C 118.419 1477.27 t 0 r /Helvetica findfont 50.382 sf 0 0 m (350) show NC gr 
 gsave  2268 1103 0 472 C 62.1698 1154.58 t 90 r /Helvetica findfont 50.382 sf 0 0 m (Events / 25 GeV) show NC gr  2154 484 m 1036 Y s 2133 628 m 21 X s 2144 657 m 10 X s 2144 686 m 10 X s 2144 715 m 10 X s 2144 744 m 10 X s 2133 773 m 21 X s 2144
 802 m 10 X s 2144 831 m 10 X s 2144 860 m 10 X s 2144 889 m 10 X s 2133 918 m 21 X s 2144 947 m 10 X s 2144 976 m 10 X s 2144 1005 m 10 X s 2144 1034 m 10 X s 2133 1063 m 21 X s 2144 1092 m 10 X s 2144 1121 m 10 X s 2144 1150 m 10 X s 2144 1179 m 10
 X s 2133 1208 m 21 X s 2144 1237 m 10 X s 2144 1266 m 10 X s 2144 1295 m 10 X s 2144 1324 m 10 X s 2133 1353 m 21 X s 2144 1382 m 10 X s 2144 1411 m 10 X s 2144 1440 m 10 X s 2144 1469 m 10 X s 2133 1498 m 21 X s 2133 628 m 21 X s 2144 599 m 10 X s
 2144 570 m 10 X s 2144 541 m 10 X s 2144 512 m 10 X s 2133 1498 m 21 X s 0.4 0.6 0.4 c black 3 lw 0.4 0.6 0.4 c 227 484 m 41 Y 193 X 373 Y 192 X -200 Y 193 X -150 Y 193 X -43 Y 193 X -14 Y 192 X -4 Y 193 X -2 Y 193 X -1 Y 385 X f 0.06 0.54 0.06 c
 0.999 0.999 0.999 c black 3 lw 0.999 0.999 0.999 c 227 484 m 33 Y 193 X 337 Y 192 X -168 Y 193 X -140 Y 193 X -41 Y 193 X -14 Y 192 X -5 Y 193 X -1 Y 193 X -1 Y 385 X f 0.06 0.54 0.06 c 0.999 0.999 0.999 c 0.06 0.54 0.06 c 1 1 1 c black 0.06 0.54
 0.06 c black 3 lw 0.06 0.54 0.06 c 227 484 m 33 Y 193 X 337 Y 192 X -168 Y 193 X -140 Y 193 X -41 Y 193 X -14 Y 192 X -5 Y 193 X -1 Y 193 X -1 Y 385 X f 1 0.653333 0 c 0.999 0.999 0.999 c black 3 lw 0.999 0.999 0.999 c 227 484 m 32 Y 193 X 324 Y 192
 X -164 Y 193 X -131 Y 193 X -42 Y 193 X -12 Y 192 X -5 Y 193 X -1 Y 193 X -1 Y 385 X f 1 0.653333 0 c 0.999 0.999 0.999 c 1 0.653333 0 c 1 1 1 c black 1 0.653333 0 c black 3 lw 1 0.653333 0 c 227 484 m 32 Y 193 X 324 Y 192 X -164 Y 193 X -131 Y 193
 X -42 Y 193 X -12 Y 192 X -5 Y 193 X -1 Y 193 X -1 Y 385 X f 0.413333 1 0 c 0.999 0.999 0.999 c black 3 lw 0.999 0.999 0.999 c 227 484 m 32 Y 193 X 324 Y 192 X -164 Y 193 X -131 Y 193 X -42 Y 193 X -12 Y 192 X -5 Y 193 X -1 Y 193 X -1 Y 385 X f
 0.413333 1 0 c 0.999 0.999 0.999 c 0.413333 1 0 c 1 1 1 c black 0.413333 1 0 c black 3 lw 0.413333 1 0 c 227 484 m 32 Y 193 X 324 Y 192 X -164 Y 193 X -131 Y 193 X -42 Y 193 X -12 Y 192 X -5 Y 193 X -1 Y 193 X -1 Y 385 X f 0.6 0.2 1 c 0.999 0.999
 0.999 c black 3 lw 0.999 0.999 0.999 c 227 484 m 30 Y 193 X 307 Y 192 X -155 Y 193 X -124 Y 193 X -40 Y 193 X -11 Y 192 X -5 Y 193 X -1 Y 193 X -1 Y 385 X f 0.6 0.2 1 c 0.999 0.999 0.999 c 0.6 0.2 1 c 1 1 1 c black 0.6 0.2 1 c black 3 lw 0.6 0.2 1 c
 227 484 m 30 Y 193 X 307 Y 192 X -155 Y 193 X -124 Y 193 X -40 Y 193 X -11 Y 192 X -5 Y 193 X -1 Y 193 X -1 Y 385 X f 0.54 0.06 0.06 c 0.999 0.999 0.999 c black 3 lw 0.999 0.999 0.999 c 227 484 m 27 Y 193 X 272 Y 192 X -138 Y 193 X -110 Y 193 X -36
 Y 193 X -9 Y 192 X -4 Y 193 X -1 Y 193 X -1 Y 385 X f 0.54 0.06 0.06 c 0.999 0.999 0.999 c 0.54 0.06 0.06 c 1 1 1 c black 0.54 0.06 0.06 c black 3 lw 0.54 0.06 0.06 c 227 484 m 27 Y 193 X 272 Y 192 X -138 Y 193 X -110 Y 193 X -36 Y 193 X -9 Y 192 X
 -4 Y 193 X -1 Y 193 X -1 Y 385 X f 1 0 1 c 0.999 0.999 0.999 c black 3 lw 0.999 0.999 0.999 c 227 484 m 4 Y 193 X 51 Y 192 X -30 Y 193 X -18 Y 193 X -6 Y 193 X -1 Y 963 X f 1 0 1 c 0.999 0.999 0.999 c 1 0 1 c 1 1 1 c black 1 0 1 c black 3 lw 1 0 1 c
 227 484 m 4 Y 193 X 51 Y 192 X -30 Y 193 X -18 Y 193 X -6 Y 193 X -1 Y 963 X f 0 0 1 c 0.999 0.999 0.999 c black 3 lw 0.999 0.999 0.999 c 227 484 m 4 Y 193 X 47 Y 192 X -28 Y 193 X -17 Y 193 X -5 Y 193 X -1 Y 963 X f 0 0 1 c 0.999 0.999 0.999 c 0 0
 1 c 1 1 1 c black 0 0 1 c black 3 lw 0 0 1 c 227 484 m 4 Y 193 X 47 Y 192 X -28 Y 193 X -17 Y 193 X -5 Y 193 X -1 Y 963 X f 0.2 0.8 0.8 c 0.999 0.999 0.999 c black 3 lw 0.999 0.999 0.999 c 227 484 m 193 X 7 Y 192 X -3 Y 193 X -3 Y 193 X -1 Y 1156 X
 f 0.2 0.8 0.8 c 0.999 0.999 0.999 c 0.2 0.8 0.8 c 1 1 1 c black 0.2 0.8 0.8 c black 3 lw 0.2 0.8 0.8 c 227 484 m 193 X 7 Y 192 X -3 Y 193 X -3 Y 193 X -1 Y 1156 X f 1 0 0 c 0.999 0.999 0.999 c black 3 lw 0.999 0.999 0.999 c 227 484 m 193 X 3 Y 192 X
 -2 Y 193 X -1 Y 1349 X f 1 0 0 c 0.999 0.999 0.999 c 1 0 0 c 1 1 1 c black 1 0 0 c black 3 lw 1 0 0 c 227 484 m 193 X 3 Y 192 X -2 Y 193 X -1 Y 1349 X f 1 0.84 0 c 0.999 0.999 0.999 c black 3 lw 0.999 0.999 0.999 c 227 484 m 193 X 2 Y 192 X -1 Y 193
 X -1 Y 1349 X f 1 0.84 0 c 0.999 0.999 0.999 c 1 0.84 0 c 1 1 1 c black 1 0.84 0 c black 3 lw 1 0.84 0 c 227 484 m 193 X 2 Y 192 X -1 Y 193 X -1 Y 1349 X f black 1 1 1 c black 0.6 0.6 0.6 c 3 lw 420 526 m -3 -2 d s 400 526 m -2 -2 d s 381 526 m -2
 -2 d s 362 526 m -3 -2 d s 343 526 m -3 -2 d s 323 526 m -2 -2 d s 304 526 m -2 -2 d s 285 526 m -3 -2 d s 266 526 m -3 -2 d s 246 526 m -2 -2 d s 227 526 m s 3 lw 603 902 m -7 -8 d s 584 902 m -8 -8 d s 565 902 m -8 -8 d s 546 902 m -8 -8 d s 526
 902 m -7 -8 d s 507 902 m -8 -8 d s 488 902 m -8 -8 d s 469 902 m -8 -8 d s 449 902 m -7 -8 d s 430 902 m -8 -8 d s 3 lw 805 700 m -4 -4 d s 787 701 m -6 -5 d s 768 701 m -6 -5 d s 749 701 m -6 -5 d s 730 701 m -6 -5 d s 710 701 m -6 -5 d s 691 701
 m -6 -5 d s 672 701 m -6 -5 d s 653 701 m -6 -5 d s 633 701 m -6 -5 d s 614 701 m -2 -1 d s 3 lw 998 547 m -1 Y s 981 549 m -3 -3 d s 962 549 m -3 -3 d s 942 549 m -2 -3 d s 923 549 m -2 -3 d s 904 549 m -3 -3 d s 885 549 m -3 -3 d s 866 549 m -3 -3
 d s 846 549 m -2 -3 d s 827 549 m -3 -3 d s 808 549 m -3 -3 d s 3 lw 1188 506 m -2 -2 d s 1169 506 m -2 -2 d s 1150 506 m -2 -2 d s 1130 506 m -2 -2 d s 1111 506 m -2 -2 d s 1092 506 m -2 -2 d s 1073 506 m -2 -2 d s 1053 506 m -1 -2 d s 1034 506 m
 -2 -2 d s 1015 506 m -2 -2 d s 3 lw 1366 492 m -1 Y s 1347 492 m -1 -1 d s 1328 492 m -1 -1 d s 1309 492 m -1 -1 d s 1289 492 m -1 Y s 1270 492 m -1 -1 d s 1251 492 m -1 -1 d s 1232 492 m -1 -1 d s 1212 492 m -1 Y s 1193 492 m -1 -1 d s 3 lw 1573
 487 m -1 -1 d s 1554 487 m -1 -1 d s 1534 487 m -1 Y s 1515 487 m -1 Y s 1496 487 m -1 -1 d s 1477 487 m -1 -1 d s 1458 487 m -1 -1 d s 1438 487 m -1 Y s 1419 487 m -1 Y s 1400 487 m -1 -1 d s 3 lw 1764 486 m -1 Y s 1745 486 m -1 -1 d s 1726 486 m
 -1 -1 d s 1706 486 m -1 Y s 1687 486 m -1 Y s 1668 486 m -1 -1 d s 1649 486 m -1 -1 d s 1630 486 m -1 -1 d s 1610 486 m -1 Y s 1591 486 m -1 -1 d s 3 lw 1955 484 m s 1936 484 m s 1917 484 m s 1897 484 m s 1878 484 m s 1859 484 m s 1840 484 m s 1821
 484 m -1 X s 1801 484 m s 1782 484 m s 3 lw 2148 484 m s 2129 484 m -1 X s 2109 484 m s 2090 484 m s 2071 484 m s 2052 484 m -1 X s 2032 484 m s 2013 484 m s 1994 484 m s 1975 484 m -1 X s black 3 lw 1 1 1 c black /w 24 def /w2 {w 2 div} def /w3 {w
 3 div} def 323 512 m20 516 924 m 26 Y s 516 973 m 26 Y s 516 962 m20 709 695 m 14 Y s 709 733 m 14 Y s 709 721 m20 901 541 m 3 Y s 901 568 m 2 Y s 901 556 m20 1094 492 m20 1287 486 m20 1480 489 m20 1672 489 m20 227 484 m 1927 X s 227 502 m -18 Y s
 304 493 m -9 Y s 381 493 m -9 Y s 458 493 m -9 Y s 535 493 m -9 Y s 612 502 m -18 Y s 689 493 m -9 Y s 766 493 m -9 Y s 844 493 m -9 Y s 921 493 m -9 Y s 998 502 m -18 Y s 1075 493 m -9 Y s 1152 493 m -9 Y s 1229 493 m -9 Y s 1306 493 m -9 Y s 1383
 502 m -18 Y s 1460 493 m -9 Y s 1538 493 m -9 Y s 1615 493 m -9 Y s 1692 493 m -9 Y s 1769 502 m -18 Y s 1846 493 m -9 Y s 1923 493 m -9 Y s 2000 493 m -9 Y s 2077 493 m -9 Y s 2154 502 m -18 Y s 227 1520 m 1927 X s 227 1501 m 19 Y s 304 1510 m 10 Y
 s 381 1510 m 10 Y s 458 1510 m 10 Y s 535 1510 m 10 Y s 612 1501 m 19 Y s 689 1510 m 10 Y s 766 1510 m 10 Y s 844 1510 m 10 Y s 921 1510 m 10 Y s 998 1501 m 19 Y s 1075 1510 m 10 Y s 1152 1510 m 10 Y s 1229 1510 m 10 Y s 1306 1510 m 10 Y s 1383 1501
 m 19 Y s 1460 1510 m 10 Y s 1538 1510 m 10 Y s 1615 1510 m 10 Y s 1692 1510 m 10 Y s 1769 1501 m 19 Y s 1846 1510 m 10 Y s 1923 1510 m 10 Y s 2000 1510 m 10 Y s 2077 1510 m 10 Y s 2154 1501 m 19 Y s 227 484 m 1036 Y s 248 628 m -21 X s 237 657 m -10
 X s 237 686 m -10 X s 237 715 m -10 X s 237 744 m -10 X s 248 773 m -21 X s 237 802 m -10 X s 237 831 m -10 X s 237 860 m -10 X s 237 889 m -10 X s 248 918 m -21 X s 237 947 m -10 X s 237 976 m -10 X s 237 1005 m -10 X s 237 1034 m -10 X s 248 1063
 m -21 X s 237 1092 m -10 X s 237 1121 m -10 X s 237 1150 m -10 X s 237 1179 m -10 X s 248 1208 m -21 X s 237 1237 m -10 X s 237 1266 m -10 X s 237 1295 m -10 X s 237 1324 m -10 X s 248 1353 m -21 X s 237 1382 m -10 X s 237 1411 m -10 X s 237 1440 m
 -10 X s 237 1469 m -10 X s 248 1498 m -21 X s 248 628 m -21 X s 237 599 m -10 X s 237 570 m -10 X s 237 541 m -10 X s 237 512 m -10 X s 248 1498 m -21 X s 2154 484 m 1036 Y s 2133 628 m 21 X s 2144 657 m 10 X s 2144 686 m 10 X s 2144 715 m 10 X s
 2144 744 m 10 X s 2133 773 m 21 X s 2144 802 m 10 X s 2144 831 m 10 X s 2144 860 m 10 X s 2144 889 m 10 X s 2133 918 m 21 X s 2144 947 m 10 X s 2144 976 m 10 X s 2144 1005 m 10 X s 2144 1034 m 10 X s 2133 1063 m 21 X s 2144 1092 m 10 X s 2144 1121 m
 10 X s 2144 1150 m 10 X s 2144 1179 m 10 X s 2133 1208 m 21 X s 2144 1237 m 10 X s 2144 1266 m 10 X s 2144 1295 m 10 X s 2144 1324 m 10 X s 2133 1353 m 21 X s 2144 1382 m 10 X s 2144 1411 m 10 X s 2144 1440 m 10 X s 2144 1469 m 10 X s 2133 1498 m 21
 X s 2133 628 m 21 X s 2144 599 m 10 X s 2144 570 m 10 X s 2144 541 m 10 X s 2144 512 m 10 X s 2133 1498 m 21 X s
 gsave  2268 1103 0 472 C 1314.45 1432.87 t 0 r /Helvetica findfont 56.3093 sf 0 0 m ( Data) show NC gr  1259 1456 m 7 Y s 1259 1432 m -7 Y s 1259 1444 m20
 gsave  2268 1103 0 472 C 1776.28 1432.87 t 0 r /Helvetica findfont 56.3093 sf 0 0 m ( Fakes \(MM\)) show NC gr  0.4 0.6 0.4 c 1682 1422 m 79 X 44 Y -79 X f black
 gsave  2268 1103 0 472 C 1403.26 1367.74 t 0 r /Helvetica findfont 56.3093 sf 0 0 m (single\255top) show NC gr 
 gsave  2268 1103 0 472 C 1373.66 1367.74 t 0 r /Helvetica-Oblique findfont 56.3093 sf 0 0 m (/) show NC gr 
 gsave  2268 1103 0 472 C 1352.93 1367.74 t 0 r /Helvetica-Oblique findfont 56.3093 sf 0 0 m (t) show NC gr  6 lw 1353 1412 m 21 X s
 gsave  2268 1103 0 472 C 1332.21 1367.74 t 0 r /Helvetica-Oblique findfont 56.3093 sf 0 0 m (t) show NC gr 
 gsave  2268 1103 0 472 C 1314.45 1367.74 t 0 r /Helvetica findfont 56.3093 sf 0 0 m ( ) show NC gr  0.06 0.54 0.06 c 3 lw 1219 1359 m 79 X 44 Y -79 X f 6 lw black
 gsave  2268 1103 0 472 C 1906.54 1367.74 t 0 r /Helvetica findfont 56.3093 sf 0 0 m (+jets) show NC gr 
 gsave  2268 1103 0 472 C 1794.04 1367.74 t 0 r /Helvetica-Oblique findfont 56.3093 sf 0 0 m (W/Z) show NC gr 
 gsave  2268 1103 0 472 C 1776.28 1367.74 t 0 r /Helvetica findfont 56.3093 sf 0 0 m ( ) show NC gr  1 0.653333 0 c 3 lw 1682 1359 m 79 X 44 Y -79 X f black
 gsave  2268 1103 0 472 C 1512.8 1305.57 t 0 r /Helvetica findfont 56.3093 sf 0 0 m (+jets) show NC gr 
 gsave  2268 1103 0 472 C 1332.21 1305.57 t 0 r /Helvetica-Oblique findfont 56.3093 sf 0 0 m (WZ/ZZ) show NC gr 
 gsave  2268 1103 0 472 C 1314.45 1305.57 t 0 r /Helvetica findfont 56.3093 sf 0 0 m ( ) show NC gr  0.413333 1 0 c 3 lw 1219 1296 m 79 X 44 Y -79 X f black
 gsave  2268 1103 0 472 C 1835.49 1305.57 t 0 r /Helvetica-Oblique findfont 56.3093 sf 0 0 m (Z) show NC gr 
 gsave  2268 1103 0 472 C 1814.77 1305.57 t 0 r /Helvetica-Oblique findfont 56.3093 sf 0 0 m (t) show NC gr  6 lw 1815 1350 m 20 X s
 gsave  2268 1103 0 472 C 1794.04 1305.57 t 0 r /Helvetica-Oblique findfont 56.3093 sf 0 0 m (t) show NC gr 
 gsave  2268 1103 0 472 C 1776.28 1305.57 t 0 r /Helvetica findfont 56.3093 sf 0 0 m ( ) show NC gr  0.6 0.2 1 c 3 lw 1682 1296 m 79 X 44 Y -79 X f 6 lw black
 gsave  2268 1103 0 472 C 1373.66 1243.4 t 0 r /Helvetica-Oblique findfont 56.3093 sf 0 0 m (W) show NC gr 
 gsave  2268 1103 0 472 C 1352.93 1243.4 t 0 r /Helvetica-Oblique findfont 56.3093 sf 0 0 m (t) show NC gr  6 lw 1353 1288 m 21 X s
 gsave  2268 1103 0 472 C 1332.21 1243.4 t 0 r /Helvetica-Oblique findfont 56.3093 sf 0 0 m (t) show NC gr 
 gsave  2268 1103 0 472 C 1314.45 1243.4 t 0 r /Helvetica findfont 56.3093 sf 0 0 m ( ) show NC gr  0.54 0.06 0.06 c 3 lw 1219 1233 m 79 X 44 Y -79 X f 6 lw black
 gsave  2268 1103 0 472 C 1794.04 1243.4 t 0 r /Helvetica-Oblique findfont 56.3093 sf 0 0 m (tZq) show NC gr 
 gsave  2268 1103 0 472 C 1776.28 1243.4 t 0 r /Helvetica findfont 56.3093 sf 0 0 m ( ) show NC gr  1 0 1 c 3 lw 1682 1233 m 79 X 44 Y -79 X f black
 gsave  2268 1103 0 472 C 1373.66 1178.27 t 0 r /Helvetica-Oblique findfont 56.3093 sf 0 0 m (H) show NC gr 
 gsave  2268 1103 0 472 C 1352.93 1178.27 t 0 r /Helvetica-Oblique findfont 56.3093 sf 0 0 m (t) show NC gr  6 lw 1353 1223 m 21 X s
 gsave  2268 1103 0 472 C 1332.21 1178.27 t 0 r /Helvetica-Oblique findfont 56.3093 sf 0 0 m (t) show NC gr 
 gsave  2268 1103 0 472 C 1314.45 1178.27 t 0 r /Helvetica findfont 56.3093 sf 0 0 m ( ) show NC gr  0 0 1 c 3 lw 1219 1170 m 79 X 44 Y -79 X f 6 lw black
 gsave  2268 1103 0 472 C 1794.04 1178.27 t 0 r /Helvetica-Oblique findfont 56.3093 sf 0 0 m (tWZ/tWH) show NC gr 
 gsave  2268 1103 0 472 C 1776.28 1178.27 t 0 r /Helvetica findfont 56.3093 sf 0 0 m ( ) show NC gr  0.2 0.8 0.8 c 3 lw 1682 1170 m 79 X 44 Y -79 X f black
 gsave  2268 1103 0 472 C 1332.21 1116.1 t 0 r /Helvetica-Oblique findfont 56.3093 sf 0 0 m (tHq) show NC gr 
 gsave  2268 1103 0 472 C 1314.45 1116.1 t 0 r /Helvetica findfont 56.3093 sf 0 0 m ( ) show NC gr  1 0 0 c 3 lw 1219 1107 m 79 X 44 Y -79 X f black
 gsave  2268 1103 0 472 C 1776.28 1116.1 t 0 r /Helvetica findfont 56.3093 sf 0 0 m ( Other) show NC gr  1 0.84 0 c 3 lw 1682 1107 m 79 X 44 Y -79 X f black
 gsave  2268 1103 0 472 C 1314.45 1053.93 t 0 r /Helvetica findfont 56.3093 sf 0 0 m ( Uncertainty) show NC gr  0.6 0.6 0.6 c 3 lw 1298 1058 m -13 -14 d s 1298 1077 m -33 -33 d s 1290 1088 m -44 -44 d s 1271 1088 m -44 -44 d s 1252 1088 m -33 -33 d s
 1233 1088 m -14 -13 d s 1 0.84 0 c 0.6 0.6 0.6 c black
 gsave  2268 1103 0 472 C 894.061 1329.25 t 0 r /Helvetica findfont 41.4911 sf 0 0 m (\2551) show NC gr 
 gsave  2268 1103 0 472 C 399.663 1299.64 t 0 r /Helvetica findfont 62.2366 sf 0 0 m ( = 13 TeV,  139 fb) show NC gr 
 gsave  2268 1103 0 472 C 370.058 1299.64 t 0 r /Helvetica findfont 62.2366 sf 0 0 m (s) show NC gr  6 lw 349 1335 m 6 -38 d s 3 lw 355 1297 m 6 56 d s 361 1353 m 39 X s
 gsave  2268 1103 0 472 C 808.207 1201.95 t 0 r /Helvetica findfont 62.2366 sf 0 0 m (\)) show NC gr 
 gsave  2268 1103 0 472 C 740.116 1201.95 t 0 r /Helvetica-Oblique findfont 62.2366 sf 0 0 m (W) show NC gr 
 gsave  2268 1103 0 472 C 716.433 1201.95 t 0 r /Helvetica-Oblique findfont 62.2366 sf 0 0 m (t) show NC gr  6 lw 716 1252 m 24 X s
 gsave  2268 1103 0 472 C 692.749 1201.95 t 0 r /Helvetica-Oblique findfont 62.2366 sf 0 0 m (t) show NC gr 
 gsave  2268 1103 0 472 C 337.493 1201.95 t 0 r /Helvetica findfont 62.2366 sf 0 0 m ( 2L\(SS\), CR\() show NC gr 
 gsave  2268 1103 0 472 C 337.493 1400.3 t 0 r /Helvetica-BoldOblique findfont 71.1276 sf 0 0 m (ATLAS) show NC gr 
 gsave  2268 1103 0 472 C 633.54 1400.3 t 0 r /Helvetica findfont 71.1276 sf 0 0 m (Internal) show NC gr 
 gr  gr showpage
end
%%EOF
