%!PS-Adobe-2.0 EPSF-2.0
%%BoundingBox:  0 0 567 394
%%Title: /lhome/ific/c/cardillo/tHq/Plots/Plots-30-05-22-PLIV-SF/2LSS_MM/LepPt2_CRVV.eps: LepPt2_CRVV
%%Creator: ROOT Version 6.20/06
%%CreationDate: Mon May 30 19:25:23 2022
%%DocumentNeededResources: ProcSet (FontSetInit)
%%EndComments
%%BeginProlog
80 dict begin
/s {stroke} def /l {lineto} def /m {moveto} def /t {translate} def
/r {rotate} def /rl {roll}  def /R {repeat} def
/d {rlineto} def /rm {rmoveto} def /gr {grestore} def /f {eofill} def
/c {setrgbcolor} def /black {0 setgray} def /sd {setdash} def
/cl {closepath} def /sf {scalefont setfont} def /lw {setlinewidth} def
/box {m dup 0 exch d exch 0 d 0 exch neg d cl} def
/NC{systemdict begin initclip end}def/C{NC box clip newpath}def
/bl {box s} def /bf {gsave box gsave f grestore 1 lw [] 0 sd s grestore} def /Y { 0 exch d} def /X { 0 d} def 
/K {{pop pop 0 moveto} exch kshow} bind def
/ita {/ang 15 def gsave [1 0 ang dup sin exch cos div 1 0 0] concat} def 
/mp {newpath /y exch def /x exch def} def
/side {[w .77 mul w .23 mul] .385 w mul sd w 0 l currentpoint t -144 r} def
/mr {mp x y w2 0 360 arc} def /m24 {mr s} def /m20 {mr f} def
/mb {mp x y w2 add m w2 neg 0 d 0 w neg d w 0 d 0 w d cl} def
/mt {mp x y w2 add m w2 neg w neg d w 0 d cl} def
/w4 {w 4 div} def
/w6 {w 6 div} def
/w8 {w 8 div} def
/m21 {mb f} def /m25 {mb s} def /m22 {mt f} def /m26{mt s} def
/m23 {mp x y w2 sub m w2 w d w neg 0 d cl f} def
/m27 {mp x y w2 add m w3 neg w2 neg d w3 w2 neg d w3 w2 d cl s} def
/m28 {mp x w2 sub y w2 sub w3 add m w3 0 d  0 w3 neg d w3 0 d 0 w3 d w3 0 d  0 w3 d w3 neg 0 d 0 w3 d w3 neg 0 d 0 w3 neg d w3 neg 0 d cl s } def
/m29 {mp gsave x w2 sub y w2 add w3 sub m currentpoint t 4 {side} repeat cl fill gr} def
/m30 {mp gsave x w2 sub y w2 add w3 sub m currentpoint t 4 {side} repeat cl s gr} def
/m31 {mp x y w2 sub m 0 w d x w2 sub y m w 0 d x w2 sub y w2 add m w w neg d x w2 sub y w2 sub m w w d s} def
/m32 {mp x y w2 sub m w2 w d w neg 0 d cl s} def
/m33 {mp x y w2 add m w3 neg w2 neg d w3 w2 neg d w3 w2 d cl f} def
/m34 {mp x w2 sub y w2 sub w3 add m w3 0 d  0 w3 neg d w3 0 d 0 w3 d w3 0 d  0 w3 d w3 neg 0 d 0 w3 d w3 neg 0 d 0 w3 neg d w3 neg 0 d cl f } def
/m35 {mp x y w2 add m w2 neg w2 neg d w2 w2 neg d w2 w2 d w2 neg w2 d x y w2 sub m 0 w d x w2 sub y m w 0 d s} def
/m36 {mb x w2 sub y w2 add m w w neg d x w2 sub y w2 sub m w w d s} def
/m37 {mp x y m w4 neg w2 d w4 neg w2 neg d w2 0 d  w4 neg w2 neg d w2 0 d w4 neg w2 d w2 0 d w4 neg w2 d w4 neg w2 neg d cl s} def
/m38 {mp x w4 sub y w2 add m w4 neg w4 neg d 0 w2 neg d w4 w4 neg d w2 0 d w4 w4 d 0 w2 d w4 neg w4 d w2 neg 0 d x y w2 sub m 0 w d x w2 sub y m w 0 d cl s} def
/m39 {mp x y m w4 neg w2 d w4 neg w2 neg d w2 0 d  w4 neg w2 neg d w2 0 d w4 neg w2 d w2 0 d w4 neg w2 d w4 neg w2 neg d cl f} def
/m40 {mp x y m w4 w2 d w4 w4 neg d w2 neg w4 neg d w2 w4 neg d w4 neg w4 neg d w4 neg w2 d w4 neg w2 neg d w4 neg w4 d w2 w4 d w2 neg w4 d w4 w4 d w4 w2 neg d cl s} def
/m41 {mp x y m w4 w2 d w4 w4 neg d w2 neg w4 neg d w2 w4 neg d w4 neg w4 neg d w4 neg w2 d w4 neg w2 neg d w4 neg w4 d w2 w4 d w2 neg w4 d w4 w4 d w4 w2 neg d cl f} def
/m42 {mp x y w2 add m w8 neg w2 -3 4 div mul d w2 -3 4 div mul w8 neg d w2 3 4 div mul w8 neg d w8 w2 -3 4 div mul d w8 w2 3 4 div mul d w2 3 4 div mul w8 d w2 -3 4 div mul w8 d w8 neg w2 3 4 div mul d cl s} def
/m43 {mp x y w2 add m w8 neg w2 -3 4 div mul d w2 -3 4 div mul w8 neg d w2 3 4 div mul w8 neg d w8 w2 -3 4 div mul d w8 w2 3 4 div mul d w2 3 4 div mul w8 d w2 -3 4 div mul w8 d w8 neg w2 3 4 div mul d cl f} def
/m44 {mp x y m w6 neg w2 d w2 2 3 div mul 0 d w6 neg w2 neg d w2 w6 d 0 w2 -2 3 div mul d w2 neg w6 d w6 w2 neg d w2 -2 3 div mul 0 d w6 w2 d w2 neg w6 neg d 0 w2 2 3 div mul d w2 w6 neg d cl s} def
/m45 {mp x y m w6 neg w2 d w2 2 3 div mul 0 d w6 neg w2 neg d w2 w6 d 0 w2 -2 3 div mul d w2 neg w6 d w6 w2 neg d w2 -2 3 div mul 0 d w6 w2 d w2 neg w6 neg d 0 w2 2 3 div mul d w2 w6 neg d cl f} def
/m46 {mp x y w4 add m w4 neg w4 d w4 neg w4 neg d  w4 w4 neg d w4 neg w4 neg d w4 w4 neg d w4 w4 d w4 w4 neg d w4 w4 d w4 neg w4 d w4 w4 d w4 neg w4 d w4 neg w4 neg d cl s} def
/m47 {mp x y w4 add m w4 neg w4 d w4 neg w4 neg d w4 w4 neg d w4 neg w4 neg d  w4 w4 neg d w4 w4 d w4 w4 neg d w4 w4 d w4 neg w4 d w4 w4 d w4 neg w4 d w4 neg w4 neg d cl f} def
/m48 {mp x y w4 add m w4 neg w4 d w4 neg w4 neg d w4 w4 neg d  w4 neg w4 neg d w4 w4 neg d w4 w4 d w4 w4 neg d w4 w4 d w4 neg w4 d w4 w4 d w4 neg w4 d w4 neg w4 neg d  w4 w4 neg d w4 neg w4 neg d w4 neg w4 d w4 w4 d cl f} def
/m49 {mp x w2 sub w3 add y w2 sub w3 add m  0 w3 neg d w3 0 d 0 w3 d w3 0 d 0 w3 d w3 neg 0 d 0 w3 d w3 neg 0 d 0 w3 neg d w3 neg 0 d 0 w3 neg d w3 0 d 0 w3 d w3 0 d 0 w3 neg d w3 neg 0 d cl f } def
/m2 {mp x y w2 sub m 0 w d x w2 sub y m w 0 d s} def
/m5 {mp x w2 sub y w2 sub m w w d x w2 sub y w2 add m w w neg d s} def
%%IncludeResource: ProcSet (FontSetInit)
%%IncludeResource: font Times-Roman
%%IncludeResource: font Times-Italic
%%IncludeResource: font Times-Bold
%%IncludeResource: font Times-BoldItalic
%%IncludeResource: font Helvetica
%%IncludeResource: font Helvetica-Oblique
%%IncludeResource: font Helvetica-Bold
%%IncludeResource: font Helvetica-BoldOblique
%%IncludeResource: font Courier
%%IncludeResource: font Courier-Oblique
%%IncludeResource: font Courier-Bold
%%IncludeResource: font Courier-BoldOblique
%%IncludeResource: font Symbol
%%IncludeResource: font ZapfDingbats
/reEncode {exch findfont dup length dict begin {1 index /FID eq  {pop pop} {def} ifelse } forall /Encoding exch def currentdict end dup /FontName get exch definefont pop } def [/Times-Bold /Times-Italic /Times-BoldItalic /Helvetica /Helvetica-Oblique
 /Helvetica-Bold /Helvetica-BoldOblique /Courier /Courier-Oblique /Courier-Bold /Courier-BoldOblique /Times-Roman /AvantGarde-Book /AvantGarde-BookOblique /AvantGarde-Demi /AvantGarde-DemiOblique /Bookman-Demi /Bookman-DemiItalic /Bookman-Light
 /Bookman-LightItalic /Helvetica-Narrow /Helvetica-Narrow-Bold /Helvetica-Narrow-BoldOblique /Helvetica-Narrow-Oblique /NewCenturySchlbk-Roman /NewCenturySchlbk-Bold /NewCenturySchlbk-BoldItalic /NewCenturySchlbk-Italic /Palatino-Bold
 /Palatino-BoldItalic /Palatino-Italic /Palatino-Roman ] {ISOLatin1Encoding reEncode } forall
%%EndProlog
%%BeginSetup
%%EndSetup
newpath  gsave  .25 .25 scale  gsave  0 0 t black[  ] 0 sd 3 lw 1 1 1 c 2268 1575 0 0 bf black 1 1 1 c 2268 472 0 0 bf black 1 1 1 c 1927 274 227 189 bf black 1927 274 227 189 bl 227 189 m 1927 X s 227 201 m -12 Y s 304 195 m -6 Y s 381 195 m -6 Y s
 458 195 m -6 Y s 535 195 m -6 Y s 612 201 m -12 Y s 689 195 m -6 Y s 766 195 m -6 Y s 844 195 m -6 Y s 921 195 m -6 Y s 998 201 m -12 Y s 1075 195 m -6 Y s 1152 195 m -6 Y s 1229 195 m -6 Y s 1306 195 m -6 Y s 1383 201 m -12 Y s 1460 195 m -6 Y s
 1538 195 m -6 Y s 1615 195 m -6 Y s 1692 195 m -6 Y s 1769 201 m -12 Y s 1846 195 m -6 Y s 1923 195 m -6 Y s 2000 195 m -6 Y s 2077 195 m -6 Y s 2154 201 m -12 Y s
 gsave  2268 472 0 0 C 210.193 127.3 t 0 r /Helvetica findfont 53.4895 sf 0 0 m (0) show NC gr 
 gsave  2268 472 0 0 C 580.251 127.3 t 0 r /Helvetica findfont 53.4895 sf 0 0 m (50) show NC gr 
 gsave  2268 472 0 0 C 953.27 127.3 t 0 r /Helvetica findfont 53.4895 sf 0 0 m (100) show NC gr 
 gsave  2268 472 0 0 C 1338.13 127.3 t 0 r /Helvetica findfont 53.4895 sf 0 0 m (150) show NC gr 
 gsave  2268 472 0 0 C 1722.99 127.3 t 0 r /Helvetica findfont 53.4895 sf 0 0 m (200) show NC gr 
 gsave  2268 472 0 0 C 2107.85 127.3 t 0 r /Helvetica findfont 53.4895 sf 0 0 m (250) show NC gr 
 gsave  2268 472 0 0 C 1977.59 53.2884 t 0 r /Helvetica findfont 56.4611 sf 0 0 m (\) [GeV]) show NC gr 
 gsave  2268 472 0 0 C 1956.87 20.7233 t 0 r /Helvetica findfont 38.6313 sf 0 0 m (2) show NC gr 
 gsave  2268 472 0 0 C 1862.13 53.2884 t 0 r /Helvetica findfont 56.4611 sf 0 0 m (\(lep) show NC gr 
 gsave  2268 472 0 0 C 1838.45 20.7233 t 0 r /Helvetica findfont 38.6313 sf 0 0 m (T) show NC gr 
 gsave  2268 472 0 0 C 1802.92 53.2884 t 0 r /Helvetica-Oblique findfont 56.4611 sf 0 0 m (p) show NC gr  227 463 m 1927 X s 227 451 m 12 Y s 304 457 m 6 Y s 381 457 m 6 Y s 458 457 m 6 Y s 535 457 m 6 Y s 612 451 m 12 Y s 689 457 m 6 Y s 766 457 m 6
 Y s 844 457 m 6 Y s 921 457 m 6 Y s 998 451 m 12 Y s 1075 457 m 6 Y s 1152 457 m 6 Y s 1229 457 m 6 Y s 1306 457 m 6 Y s 1383 451 m 12 Y s 1460 457 m 6 Y s 1538 457 m 6 Y s 1615 457 m 6 Y s 1692 457 m 6 Y s 1769 451 m 12 Y s 1846 457 m 6 Y s 1923
 457 m 6 Y s 2000 457 m 6 Y s 2077 457 m 6 Y s 2154 451 m 12 Y s 227 189 m 274 Y s 240 240 m -13 X s 240 326 m -13 X s 240 412 m -13 X s 240 240 m -13 X s 240 412 m -13 X s
 gsave  2268 472 0 0 C 118.419 222.035 t 0 r /Helvetica findfont 53.4895 sf 0 0 m (0.5) show NC gr 
 gsave  2268 472 0 0 C 171.707 307.888 t 0 r /Helvetica findfont 53.4895 sf 0 0 m (1) show NC gr 
 gsave  2268 472 0 0 C 118.419 393.742 t 0 r /Helvetica findfont 53.4895 sf 0 0 m (1.5) show NC gr 
 gsave  2268 472 0 0 C 71.0512 230.916 t 90 r /Helvetica findfont 53.4895 sf 0 0 m (Data / SM) show NC gr  2154 189 m 274 Y s 2141 240 m 13 X s 2141 326 m 13 X s 2141 412 m 13 X s 2141 240 m 13 X s 2141 412 m 13 X s 227 189 m 1927 X s 227 463 m 1927
 X s 227 189 m 274 Y s[ 4 8] 0 sd 2154 240 m -1927 X s 2154 326 m -1927 X s 2154 412 m -1927 X s 2154 240 m -1927 X s 2154 412 m -1927 X s[  ] 0 sd 2154 189 m 274 Y s 1 1 0.6 c 193 0 227 326 bf 192 0 420 326 bf 193 0 612 326 bf 193 0 805 326 bf 193 0
 998 326 bf 192 0 1191 326 bf 193 0 1383 326 bf 193 0 1576 326 bf 193 0 1769 326 bf 192 0 1962 326 bf black 0.6 0.6 0.6 c 420 325 m -9 -9 d s 412 337 m -21 -21 d s 393 337 m -21 -21 d s 374 337 m -21 -21 d s 354 337 m -20 -21 d s 335 337 m -21 -21 d
 s 316 337 m -21 -21 d s 297 337 m -21 -21 d s 278 337 m -21 -21 d s 258 337 m -21 -21 d s 239 337 m -12 -13 d s 612 325 m -6 -7 d s 602 334 m -15 -16 d s 583 334 m -16 -16 d s 563 334 m -15 -16 d s 544 334 m -15 -16 d s 525 334 m -15 -16 d s 506 334
 m -16 -16 d s 486 334 m -15 -16 d s 467 334 m -15 -16 d s 448 334 m -15 -16 d s 429 334 m -9 -9 d s 805 325 m -12 -12 d s 800 339 m -27 -26 d s 781 339 m -27 -26 d s 761 339 m -26 -26 d s 742 339 m -26 -26 d s 723 339 m -27 -26 d s 704 339 m -27 -26
 d s 684 339 m -26 -26 d s 665 339 m -26 -26 d s 646 339 m -27 -26 d s 627 339 m -15 -14 d s 998 306 m -12 -12 d s 998 326 m -32 -32 d s 998 345 m -51 -51 d s 992 358 m -64 -64 d s 972 358 m -63 -64 d s 953 358 m -64 -64 d s 934 358 m -64 -64 d s 915
 358 m -64 -64 d s 895 358 m -63 -64 d s 876 358 m -64 -64 d s 857 358 m -52 -52 d s 838 358 m -33 -33 d s 818 358 m -13 -13 d s 1191 307 m -8 -8 d s 1191 326 m -27 -27 d s 1191 345 m -46 -46 d s 1179 353 m -54 -54 d s 1160 353 m -54 -54 d s 1141 353
 m -54 -54 d s 1121 353 m -53 -54 d s 1102 353 m -54 -54 d s 1083 353 m -54 -54 d s 1064 353 m -54 -54 d s 1044 353 m -46 -47 d s 1025 353 m -27 -27 d s 1006 353 m -8 -8 d s 1383 307 m -8 -8 d s 1383 326 m -27 -27 d s 1383 346 m -46 -47 d s 1372 353
 m -54 -54 d s 1352 353 m -54 -54 d s 1333 353 m -54 -54 d s 1314 353 m -54 -54 d s 1295 353 m -54 -54 d s 1275 353 m -54 -54 d s 1256 353 m -54 -54 d s 1237 353 m -46 -46 d s 1218 353 m -27 -27 d s 1198 353 m -7 -8 d s 1576 269 m -10 -11 d s 1576
 288 m -30 -30 d s 1576 307 m -49 -49 d s 1576 327 m -68 -69 d s 1576 346 m -87 -88 d s 1576 365 m -107 -107 d s 1576 384 m -126 -126 d s 1566 394 m -135 -136 d s 1547 394 m -135 -136 d s 1528 394 m -136 -136 d s 1509 394 m -126 -126 d s 1489 394 m
 -106 -106 d s 1470 394 m -87 -87 d s 1451 394 m -68 -68 d s 1432 394 m -49 -48 d s 1412 394 m -29 -29 d s 1393 394 m -10 -10 d s 1769 230 m -12 -12 d s 1769 250 m -31 -32 d s 1769 269 m -51 -51 d s 1769 288 m -70 -70 d s 1769 308 m -89 -90 d s 1769
 327 m -108 -109 d s 1769 346 m -128 -128 d s 1769 366 m -147 -148 d s 1769 385 m -166 -167 d s 1769 404 m -185 -186 d s 1769 423 m -193 -193 d s 1760 434 m -184 -185 d s 1740 434 m -164 -165 d s 1721 434 m -145 -146 d s 1702 434 m -126 -127 d s 1683
 434 m -107 -107 d s 1664 434 m -88 -88 d s 1644 434 m -68 -69 d s 1625 434 m -49 -50 d s 1606 434 m -30 -30 d s 1587 434 m -11 -11 d s 1962 289 m -5 -5 d s 1962 308 m -24 -24 d s 1962 327 m -44 -43 d s 1962 347 m -63 -63 d s 1962 366 m -82 -82 d s
 1945 368 m -84 -84 d s 1925 368 m -84 -84 d s 1906 368 m -84 -84 d s 1887 368 m -84 -84 d s 1868 368 m -84 -84 d s 1848 368 m -79 -80 d s 1829 368 m -60 -60 d s 1810 368 m -41 -41 d s 1791 368 m -22 -22 d s 1771 368 m -2 -2 d s 2154 308 m -9 -9 d s
 2154 328 m -28 -29 d s 2154 347 m -47 -48 d s 2141 353 m -53 -54 d s 2122 353 m -54 -54 d s 2103 353 m -54 -54 d s 2083 353 m -53 -54 d s 2064 353 m -53 -54 d s 2045 353 m -54 -54 d s 2026 353 m -54 -54 d s 2006 353 m -44 -45 d s 1987 353 m -25 -26
 d s 1968 353 m -6 -6 d s black 1 1 1 c black 323 302 m 25 Y s 323 350 m 25 Y s /w 26 def /w2 {w 2 div} def /w3 {w 3 div} def 323 338 m20 516 330 m 11 Y s 516 365 m 11 Y s 516 353 m20 709 330 m 40 Y s 709 394 m 41 Y s 709 382 m20 901 279 m 74 Y s 901
 377 m 74 Y s 901 365 m20 1094 189 m 47 Y s 1094 260 m 82 Y s 1094 248 m20 227 326 m 1927 X s 227 189 m 1927 X s 227 201 m -12 Y s 304 195 m -6 Y s 381 195 m -6 Y s 458 195 m -6 Y s 535 195 m -6 Y s 612 201 m -12 Y s 689 195 m -6 Y s 766 195 m -6 Y s
 844 195 m -6 Y s 921 195 m -6 Y s 998 201 m -12 Y s 1075 195 m -6 Y s 1152 195 m -6 Y s 1229 195 m -6 Y s 1306 195 m -6 Y s 1383 201 m -12 Y s 1460 195 m -6 Y s 1538 195 m -6 Y s 1615 195 m -6 Y s 1692 195 m -6 Y s 1769 201 m -12 Y s 1846 195 m -6 Y
 s 1923 195 m -6 Y s 2000 195 m -6 Y s 2077 195 m -6 Y s 2154 201 m -12 Y s 227 463 m 1927 X s 227 451 m 12 Y s 304 457 m 6 Y s 381 457 m 6 Y s 458 457 m 6 Y s 535 457 m 6 Y s 612 451 m 12 Y s 689 457 m 6 Y s 766 457 m 6 Y s 844 457 m 6 Y s 921 457 m
 6 Y s 998 451 m 12 Y s 1075 457 m 6 Y s 1152 457 m 6 Y s 1229 457 m 6 Y s 1306 457 m 6 Y s 1383 451 m 12 Y s 1460 457 m 6 Y s 1538 457 m 6 Y s 1615 457 m 6 Y s 1692 457 m 6 Y s 1769 451 m 12 Y s 1846 457 m 6 Y s 1923 457 m 6 Y s 2000 457 m 6 Y s
 2077 457 m 6 Y s 2154 451 m 12 Y s 227 189 m 274 Y s 240 240 m -13 X s 240 326 m -13 X s 240 412 m -13 X s 240 240 m -13 X s 240 412 m -13 X s 2154 189 m 274 Y s 2141 240 m 13 X s 2141 326 m 13 X s 2141 412 m 13 X s 2141 240 m 13 X s 2141 412 m 13 X
 s 1 1 1 c 2268 1103 0 472 bf black 1 1 1 c 1927 1036 227 484 bf black 1927 1036 227 484 bl 1 1 1 c black 3 lw 227 484 m 1927 X s 227 502 m -18 Y s 304 493 m -9 Y s 381 493 m -9 Y s 458 493 m -9 Y s 535 493 m -9 Y s 612 502 m -18 Y s 689 493 m -9 Y s
 766 493 m -9 Y s 844 493 m -9 Y s 921 493 m -9 Y s 998 502 m -18 Y s 1075 493 m -9 Y s 1152 493 m -9 Y s 1229 493 m -9 Y s 1306 493 m -9 Y s 1383 502 m -18 Y s 1460 493 m -9 Y s 1538 493 m -9 Y s 1615 493 m -9 Y s 1692 493 m -9 Y s 1769 502 m -18 Y
 s 1846 493 m -9 Y s 1923 493 m -9 Y s 2000 493 m -9 Y s 2077 493 m -9 Y s 2154 502 m -18 Y s
 gsave  2268 1103 0 472 C 2060.48 408.544 t 0 r /Helvetica findfont 29.6365 sf 0 0 m (\) [GeV]) show NC gr 
 gsave  2268 1103 0 472 C 2048.64 390.781 t 0 r /Helvetica findfont 20.7455 sf 0 0 m (2) show NC gr 
 gsave  2268 1103 0 472 C 1998.31 408.544 t 0 r /Helvetica findfont 29.6365 sf 0 0 m (\(lep) show NC gr 
 gsave  2268 1103 0 472 C 1983.51 387.821 t 0 r /Helvetica findfont 20.7455 sf 0 0 m (T) show NC gr 
 gsave  2268 1103 0 472 C 1965.75 408.544 t 0 r /Helvetica-Oblique findfont 29.6365 sf 0 0 m (p) show NC gr  227 1520 m 1927 X s 227 1501 m 19 Y s 304 1510 m 10 Y s 381 1510 m 10 Y s 458 1510 m 10 Y s 535 1510 m 10 Y s 612 1501 m 19 Y s 689 1510 m 10
 Y s 766 1510 m 10 Y s 844 1510 m 10 Y s 921 1510 m 10 Y s 998 1501 m 19 Y s 1075 1510 m 10 Y s 1152 1510 m 10 Y s 1229 1510 m 10 Y s 1306 1510 m 10 Y s 1383 1501 m 19 Y s 1460 1510 m 10 Y s 1538 1510 m 10 Y s 1615 1510 m 10 Y s 1692 1510 m 10 Y s
 1769 1501 m 19 Y s 1846 1510 m 10 Y s 1923 1510 m 10 Y s 2000 1510 m 10 Y s 2077 1510 m 10 Y s 2154 1501 m 19 Y s 227 484 m 1036 Y s 248 610 m -21 X s 237 641 m -10 X s 237 673 m -10 X s 237 704 m -10 X s 248 736 m -21 X s 237 767 m -10 X s 237 799
 m -10 X s 237 830 m -10 X s 248 862 m -21 X s 237 893 m -10 X s 237 925 m -10 X s 237 957 m -10 X s 248 988 m -21 X s 237 1020 m -10 X s 237 1051 m -10 X s 237 1083 m -10 X s 248 1114 m -21 X s 237 1146 m -10 X s 237 1177 m -10 X s 237 1209 m -10 X
 s 248 1240 m -21 X s 237 1272 m -10 X s 237 1303 m -10 X s 237 1335 m -10 X s 248 1367 m -21 X s 237 1398 m -10 X s 237 1430 m -10 X s 237 1461 m -10 X s 248 1493 m -21 X s 248 610 m -21 X s 237 578 m -10 X s 237 547 m -10 X s 237 515 m -10 X s 248
 1493 m -21 X s
 gsave  2268 1103 0 472 C 145.063 589.133 t 0 r /Helvetica findfont 50.382 sf 0 0 m (20) show NC gr 
 gsave  2268 1103 0 472 C 145.063 716.433 t 0 r /Helvetica findfont 50.382 sf 0 0 m (40) show NC gr 
 gsave  2268 1103 0 472 C 145.063 843.733 t 0 r /Helvetica findfont 50.382 sf 0 0 m (60) show NC gr 
 gsave  2268 1103 0 472 C 145.063 968.072 t 0 r /Helvetica findfont 50.382 sf 0 0 m (80) show NC gr 
 gsave  2268 1103 0 472 C 118.419 1095.37 t 0 r /Helvetica findfont 50.382 sf 0 0 m (100) show NC gr 
 gsave  2268 1103 0 472 C 118.419 1219.71 t 0 r /Helvetica findfont 50.382 sf 0 0 m (120) show NC gr 
 gsave  2268 1103 0 472 C 118.419 1347.01 t 0 r /Helvetica findfont 50.382 sf 0 0 m (140) show NC gr 
 gsave  2268 1103 0 472 C 118.419 1474.31 t 0 r /Helvetica findfont 50.382 sf 0 0 m (160) show NC gr 
 gsave  2268 1103 0 472 C 62.1698 1154.58 t 90 r /Helvetica findfont 50.382 sf 0 0 m (Events / 25 GeV) show NC gr  2154 484 m 1036 Y s 2133 610 m 21 X s 2144 641 m 10 X s 2144 673 m 10 X s 2144 704 m 10 X s 2133 736 m 21 X s 2144 767 m 10 X s 2144
 799 m 10 X s 2144 830 m 10 X s 2133 862 m 21 X s 2144 893 m 10 X s 2144 925 m 10 X s 2144 957 m 10 X s 2133 988 m 21 X s 2144 1020 m 10 X s 2144 1051 m 10 X s 2144 1083 m 10 X s 2133 1114 m 21 X s 2144 1146 m 10 X s 2144 1177 m 10 X s 2144 1209 m 10
 X s 2133 1240 m 21 X s 2144 1272 m 10 X s 2144 1303 m 10 X s 2144 1335 m 10 X s 2133 1367 m 21 X s 2144 1398 m 10 X s 2144 1430 m 10 X s 2144 1461 m 10 X s 2133 1493 m 21 X s 2133 610 m 21 X s 2144 578 m 10 X s 2144 547 m 10 X s 2144 515 m 10 X s
 2133 1493 m 21 X s 0.4 0.6 0.4 c black 3 lw 0.4 0.6 0.4 c 227 484 m 152 Y 193 X 262 Y 192 X -324 Y 193 X -60 Y 193 X -19 Y 193 X -7 Y 192 X -2 Y 193 X -2 Y 578 X f 0.06 0.54 0.06 c 0.999 0.999 0.999 c black 3 lw 0.999 0.999 0.999 c 227 484 m 80 Y
 193 X 217 Y 192 X -217 Y 193 X -51 Y 193 X -19 Y 193 X -6 Y 192 X -2 Y 193 X -2 Y 578 X f 0.06 0.54 0.06 c 0.999 0.999 0.999 c 0.06 0.54 0.06 c 1 1 1 c black 0.06 0.54 0.06 c black 3 lw 0.06 0.54 0.06 c 227 484 m 80 Y 193 X 217 Y 192 X -217 Y 193 X
 -51 Y 193 X -19 Y 193 X -6 Y 192 X -2 Y 193 X -2 Y 578 X f 1 0.653333 0 c 0.999 0.999 0.999 c black 3 lw 0.999 0.999 0.999 c 227 484 m 78 Y 193 X 209 Y 192 X -211 Y 193 X -47 Y 193 X -21 Y 193 X -4 Y 192 X -3 Y 193 X -1 Y 578 X f 1 0.653333 0 c
 0.999 0.999 0.999 c 1 0.653333 0 c 1 1 1 c black 1 0.653333 0 c black 3 lw 1 0.653333 0 c 227 484 m 78 Y 193 X 209 Y 192 X -211 Y 193 X -47 Y 193 X -21 Y 193 X -4 Y 192 X -3 Y 193 X -1 Y 578 X f 0.413333 1 0 c 0.999 0.999 0.999 c black 3 lw 0.999
 0.999 0.999 c 227 484 m 69 Y 193 X 198 Y 192 X -191 Y 193 X -47 Y 193 X -21 Y 193 X -4 Y 192 X -3 Y 193 X -1 Y 578 X f 0.413333 1 0 c 0.999 0.999 0.999 c 0.413333 1 0 c 1 1 1 c black 0.413333 1 0 c black 3 lw 0.413333 1 0 c 227 484 m 69 Y 193 X 198
 Y 192 X -191 Y 193 X -47 Y 193 X -21 Y 193 X -4 Y 192 X -3 Y 193 X -1 Y 578 X f 0.6 0.2 1 c 0.999 0.999 0.999 c black 3 lw 0.999 0.999 0.999 c 227 484 m 7 Y 193 X 35 Y 192 X -27 Y 193 X -7 Y 193 X -7 Y 193 X -1 Y 963 X f 0.6 0.2 1 c 0.999 0.999
 0.999 c 0.6 0.2 1 c 1 1 1 c black 0.6 0.2 1 c black 3 lw 0.6 0.2 1 c 227 484 m 7 Y 193 X 35 Y 192 X -27 Y 193 X -7 Y 193 X -7 Y 193 X -1 Y 963 X f 0.54 0.06 0.06 c 0.999 0.999 0.999 c black 3 lw 0.999 0.999 0.999 c 227 484 m 6 Y 193 X 34 Y 192 X -26
 Y 193 X -6 Y 193 X -8 Y 1156 X f 0.54 0.06 0.06 c 0.999 0.999 0.999 c 0.54 0.06 0.06 c 1 1 1 c black 0.54 0.06 0.06 c black 3 lw 0.54 0.06 0.06 c 227 484 m 6 Y 193 X 34 Y 192 X -26 Y 193 X -6 Y 193 X -8 Y 1156 X f 1 0 1 c 0.999 0.999 0.999 c black 3
 lw 0.999 0.999 0.999 c 227 484 m 4 Y 193 X 27 Y 192 X -23 Y 193 X -2 Y 193 X -6 Y 1156 X f 1 0 1 c 0.999 0.999 0.999 c 1 0 1 c 1 1 1 c black 1 0 1 c black 3 lw 1 0 1 c 227 484 m 4 Y 193 X 27 Y 192 X -23 Y 193 X -2 Y 193 X -6 Y 1156 X f 0 0 1 c 0.999
 0.999 0.999 c black 3 lw 0.999 0.999 0.999 c 227 484 m 3 Y 193 X 22 Y 192 X -19 Y 193 X -1 Y 193 X -5 Y 1156 X f 0 0 1 c 0.999 0.999 0.999 c 0 0 1 c 1 1 1 c black 0 0 1 c black 3 lw 0 0 1 c 227 484 m 3 Y 193 X 22 Y 192 X -19 Y 193 X -1 Y 193 X -5 Y
 1156 X f 0.2 0.8 0.8 c 0.999 0.999 0.999 c black 3 lw 0.999 0.999 0.999 c 227 484 m 3 Y 193 X 21 Y 192 X -18 Y 193 X -1 Y 193 X -5 Y 1156 X f 0.2 0.8 0.8 c 0.999 0.999 0.999 c 0.2 0.8 0.8 c 1 1 1 c black 0.2 0.8 0.8 c black 3 lw 0.2 0.8 0.8 c 227
 484 m 3 Y 193 X 21 Y 192 X -18 Y 193 X -1 Y 193 X -5 Y 1156 X f 1 0 0 c 0.999 0.999 0.999 c black 3 lw 0.999 0.999 0.999 c 227 484 m 3 Y 193 X 20 Y 192 X -17 Y 193 X -1 Y 193 X -5 Y 1156 X f 1 0 0 c 0.999 0.999 0.999 c 1 0 0 c 1 1 1 c black 1 0 0 c
 black 3 lw 1 0 0 c 227 484 m 3 Y 193 X 20 Y 192 X -17 Y 193 X -1 Y 193 X -5 Y 1156 X f 1 0.84 0 c 0.999 0.999 0.999 c black 3 lw 0.999 0.999 0.999 c 227 484 m 2 Y 193 X 20 Y 192 X -17 Y 386 X -5 Y 1156 X f 1 0.84 0 c 0.999 0.999 0.999 c 1 0.84 0 c 1
 1 1 c black 1 0.84 0 c black 3 lw 1 0.84 0 c 227 484 m 2 Y 193 X 20 Y 192 X -17 Y 386 X -5 Y 1156 X f black 1 1 1 c black 0.6 0.6 0.6 c 3 lw 420 642 m -15 -15 d s 404 646 m -18 -19 d s 385 646 m -19 -19 d s 366 646 m -19 -19 d s 347 646 m -19 -19 d
 s 327 646 m -18 -19 d s 308 646 m -19 -19 d s 289 646 m -19 -19 d s 270 646 m -19 -19 d s 250 646 m -18 -19 d s 231 646 m -4 -5 d s 3 lw 612 892 m -12 -13 d s 612 911 m -31 -32 d s 599 917 m -37 -38 d s 579 917 m -37 -38 d s 560 917 m -37 -38 d s
 541 917 m -37 -38 d s 522 917 m -37 -38 d s 503 917 m -38 -38 d s 483 917 m -37 -38 d s 464 917 m -37 -38 d s 445 917 m -25 -26 d s 426 917 m -6 -6 d s 3 lw 801 581 m -14 -14 d s 782 581 m -14 -14 d s 763 581 m -14 -14 d s 743 581 m -14 -14 d s 724
 581 m -14 -14 d s 705 581 m -14 -14 d s 686 581 m -14 -14 d s 666 581 m -14 -14 d s 647 581 m -14 -14 d s 628 581 m -14 -14 d s 3 lw 990 520 m -11 -11 d s 971 520 m -11 -11 d s 952 520 m -12 -11 d s 933 520 m -12 -11 d s 914 520 m -12 -11 d s 894
 520 m -11 -11 d s 875 520 m -11 -11 d s 856 520 m -12 -11 d s 837 520 m -12 -11 d s 817 520 m -11 -11 d s 3 lw 1179 497 m -4 -4 d s 1160 497 m -4 -4 d s 1140 497 m -3 -4 d s 1121 497 m -3 -4 d s 1102 497 m -4 -4 d s 1083 497 m -4 -4 d s 1063 497 m
 -3 -4 d s 1044 497 m -3 -4 d s 1025 497 m -4 -4 d s 1006 497 m -4 -4 d s 3 lw 1382 488 m -1 -1 d s 1363 488 m -1 -1 d s 1344 488 m -2 -1 d s 1324 488 m -1 -1 d s 1305 488 m -1 -1 d s 1286 488 m -1 -1 d s 1267 488 m -2 -1 d s 1247 488 m -1 -1 d s
 1228 488 m -1 -1 d s 1209 488 m -1 -1 d s 3 lw 1573 487 m -2 -2 d s 1554 487 m -2 -2 d s 1535 487 m -2 -2 d s 1516 487 m -3 -2 d s 1496 487 m -2 -2 d s 1477 487 m -2 -2 d s 1458 487 m -2 -2 d s 1439 487 m -3 -2 d s 1419 487 m -2 -2 d s 1400 487 m -2
 -2 d s 3 lw 1764 485 m -2 -1 d s 1744 485 m -1 -1 d s 1725 485 m -1 -1 d s 1706 485 m -1 -1 d s 1687 485 m -2 -1 d s 1667 485 m -1 -1 d s 1648 485 m -1 -1 d s 1629 485 m -1 -1 d s 1610 485 m -2 -1 d s 1590 485 m -1 -1 d s 3 lw 1955 484 m s 1936 484
 m -1 X s 1916 484 m s 1897 484 m s 1878 484 m s 1859 484 m -1 X s 1839 484 m s 1820 484 m s 1801 484 m s 1782 484 m -1 X s 3 lw 2148 484 m -1 X s 2128 484 m s 2109 484 m s 2090 484 m s 2071 484 m -1 X s 2051 484 m s 2032 484 m s 2013 484 m s 1994
 484 m -1 X s 1974 484 m s black 3 lw 1 1 1 c black 323 615 m 21 Y s 323 659 m 21 Y s /w 24 def /w2 {w 2 div} def /w3 {w 3 div} def 323 647 m20 516 908 m 43 Y s 516 975 m 43 Y s 516 963 m20 709 576 m 15 Y s 709 615 m 16 Y s 709 603 m20 901 506 m 3 Y
 s 901 533 m 4 Y s 901 521 m20 1094 490 m20 1480 490 m20 227 484 m 1927 X s 227 502 m -18 Y s 304 493 m -9 Y s 381 493 m -9 Y s 458 493 m -9 Y s 535 493 m -9 Y s 612 502 m -18 Y s 689 493 m -9 Y s 766 493 m -9 Y s 844 493 m -9 Y s 921 493 m -9 Y s
 998 502 m -18 Y s 1075 493 m -9 Y s 1152 493 m -9 Y s 1229 493 m -9 Y s 1306 493 m -9 Y s 1383 502 m -18 Y s 1460 493 m -9 Y s 1538 493 m -9 Y s 1615 493 m -9 Y s 1692 493 m -9 Y s 1769 502 m -18 Y s 1846 493 m -9 Y s 1923 493 m -9 Y s 2000 493 m -9
 Y s 2077 493 m -9 Y s 2154 502 m -18 Y s 227 1520 m 1927 X s 227 1501 m 19 Y s 304 1510 m 10 Y s 381 1510 m 10 Y s 458 1510 m 10 Y s 535 1510 m 10 Y s 612 1501 m 19 Y s 689 1510 m 10 Y s 766 1510 m 10 Y s 844 1510 m 10 Y s 921 1510 m 10 Y s 998 1501
 m 19 Y s 1075 1510 m 10 Y s 1152 1510 m 10 Y s 1229 1510 m 10 Y s 1306 1510 m 10 Y s 1383 1501 m 19 Y s 1460 1510 m 10 Y s 1538 1510 m 10 Y s 1615 1510 m 10 Y s 1692 1510 m 10 Y s 1769 1501 m 19 Y s 1846 1510 m 10 Y s 1923 1510 m 10 Y s 2000 1510 m
 10 Y s 2077 1510 m 10 Y s 2154 1501 m 19 Y s 227 484 m 1036 Y s 248 610 m -21 X s 237 641 m -10 X s 237 673 m -10 X s 237 704 m -10 X s 248 736 m -21 X s 237 767 m -10 X s 237 799 m -10 X s 237 830 m -10 X s 248 862 m -21 X s 237 893 m -10 X s 237
 925 m -10 X s 237 957 m -10 X s 248 988 m -21 X s 237 1020 m -10 X s 237 1051 m -10 X s 237 1083 m -10 X s 248 1114 m -21 X s 237 1146 m -10 X s 237 1177 m -10 X s 237 1209 m -10 X s 248 1240 m -21 X s 237 1272 m -10 X s 237 1303 m -10 X s 237 1335
 m -10 X s 248 1367 m -21 X s 237 1398 m -10 X s 237 1430 m -10 X s 237 1461 m -10 X s 248 1493 m -21 X s 248 610 m -21 X s 237 578 m -10 X s 237 547 m -10 X s 237 515 m -10 X s 248 1493 m -21 X s 2154 484 m 1036 Y s 2133 610 m 21 X s 2144 641 m 10 X
 s 2144 673 m 10 X s 2144 704 m 10 X s 2133 736 m 21 X s 2144 767 m 10 X s 2144 799 m 10 X s 2144 830 m 10 X s 2133 862 m 21 X s 2144 893 m 10 X s 2144 925 m 10 X s 2144 957 m 10 X s 2133 988 m 21 X s 2144 1020 m 10 X s 2144 1051 m 10 X s 2144 1083 m
 10 X s 2133 1114 m 21 X s 2144 1146 m 10 X s 2144 1177 m 10 X s 2144 1209 m 10 X s 2133 1240 m 21 X s 2144 1272 m 10 X s 2144 1303 m 10 X s 2144 1335 m 10 X s 2133 1367 m 21 X s 2144 1398 m 10 X s 2144 1430 m 10 X s 2144 1461 m 10 X s 2133 1493 m 21
 X s 2133 610 m 21 X s 2144 578 m 10 X s 2144 547 m 10 X s 2144 515 m 10 X s 2133 1493 m 21 X s
 gsave  2268 1103 0 472 C 1314.45 1432.87 t 0 r /Helvetica findfont 56.3093 sf 0 0 m ( Data) show NC gr  1259 1456 m 7 Y s 1259 1432 m -7 Y s 1259 1444 m20
 gsave  2268 1103 0 472 C 1776.28 1432.87 t 0 r /Helvetica findfont 56.3093 sf 0 0 m ( Fakes \(MM\)) show NC gr  0.4 0.6 0.4 c 1682 1422 m 79 X 44 Y -79 X f black
 gsave  2268 1103 0 472 C 1403.26 1367.74 t 0 r /Helvetica findfont 56.3093 sf 0 0 m (single\255top) show NC gr 
 gsave  2268 1103 0 472 C 1373.66 1367.74 t 0 r /Helvetica-Oblique findfont 56.3093 sf 0 0 m (/) show NC gr 
 gsave  2268 1103 0 472 C 1352.93 1367.74 t 0 r /Helvetica-Oblique findfont 56.3093 sf 0 0 m (t) show NC gr  6 lw 1353 1412 m 21 X s
 gsave  2268 1103 0 472 C 1332.21 1367.74 t 0 r /Helvetica-Oblique findfont 56.3093 sf 0 0 m (t) show NC gr 
 gsave  2268 1103 0 472 C 1314.45 1367.74 t 0 r /Helvetica findfont 56.3093 sf 0 0 m ( ) show NC gr  0.06 0.54 0.06 c 3 lw 1219 1359 m 79 X 44 Y -79 X f 6 lw black
 gsave  2268 1103 0 472 C 1906.54 1367.74 t 0 r /Helvetica findfont 56.3093 sf 0 0 m (+jets) show NC gr 
 gsave  2268 1103 0 472 C 1794.04 1367.74 t 0 r /Helvetica-Oblique findfont 56.3093 sf 0 0 m (W/Z) show NC gr 
 gsave  2268 1103 0 472 C 1776.28 1367.74 t 0 r /Helvetica findfont 56.3093 sf 0 0 m ( ) show NC gr  1 0.653333 0 c 3 lw 1682 1359 m 79 X 44 Y -79 X f black
 gsave  2268 1103 0 472 C 1512.8 1305.57 t 0 r /Helvetica findfont 56.3093 sf 0 0 m (+jets) show NC gr 
 gsave  2268 1103 0 472 C 1332.21 1305.57 t 0 r /Helvetica-Oblique findfont 56.3093 sf 0 0 m (WZ/ZZ) show NC gr 
 gsave  2268 1103 0 472 C 1314.45 1305.57 t 0 r /Helvetica findfont 56.3093 sf 0 0 m ( ) show NC gr  0.413333 1 0 c 3 lw 1219 1296 m 79 X 44 Y -79 X f black
 gsave  2268 1103 0 472 C 1835.49 1305.57 t 0 r /Helvetica-Oblique findfont 56.3093 sf 0 0 m (Z) show NC gr 
 gsave  2268 1103 0 472 C 1814.77 1305.57 t 0 r /Helvetica-Oblique findfont 56.3093 sf 0 0 m (t) show NC gr  6 lw 1815 1350 m 20 X s
 gsave  2268 1103 0 472 C 1794.04 1305.57 t 0 r /Helvetica-Oblique findfont 56.3093 sf 0 0 m (t) show NC gr 
 gsave  2268 1103 0 472 C 1776.28 1305.57 t 0 r /Helvetica findfont 56.3093 sf 0 0 m ( ) show NC gr  0.6 0.2 1 c 3 lw 1682 1296 m 79 X 44 Y -79 X f 6 lw black
 gsave  2268 1103 0 472 C 1373.66 1243.4 t 0 r /Helvetica-Oblique findfont 56.3093 sf 0 0 m (W) show NC gr 
 gsave  2268 1103 0 472 C 1352.93 1243.4 t 0 r /Helvetica-Oblique findfont 56.3093 sf 0 0 m (t) show NC gr  6 lw 1353 1288 m 21 X s
 gsave  2268 1103 0 472 C 1332.21 1243.4 t 0 r /Helvetica-Oblique findfont 56.3093 sf 0 0 m (t) show NC gr 
 gsave  2268 1103 0 472 C 1314.45 1243.4 t 0 r /Helvetica findfont 56.3093 sf 0 0 m ( ) show NC gr  0.54 0.06 0.06 c 3 lw 1219 1233 m 79 X 44 Y -79 X f 6 lw black
 gsave  2268 1103 0 472 C 1794.04 1243.4 t 0 r /Helvetica-Oblique findfont 56.3093 sf 0 0 m (tZq) show NC gr 
 gsave  2268 1103 0 472 C 1776.28 1243.4 t 0 r /Helvetica findfont 56.3093 sf 0 0 m ( ) show NC gr  1 0 1 c 3 lw 1682 1233 m 79 X 44 Y -79 X f black
 gsave  2268 1103 0 472 C 1373.66 1178.27 t 0 r /Helvetica-Oblique findfont 56.3093 sf 0 0 m (H) show NC gr 
 gsave  2268 1103 0 472 C 1352.93 1178.27 t 0 r /Helvetica-Oblique findfont 56.3093 sf 0 0 m (t) show NC gr  6 lw 1353 1223 m 21 X s
 gsave  2268 1103 0 472 C 1332.21 1178.27 t 0 r /Helvetica-Oblique findfont 56.3093 sf 0 0 m (t) show NC gr 
 gsave  2268 1103 0 472 C 1314.45 1178.27 t 0 r /Helvetica findfont 56.3093 sf 0 0 m ( ) show NC gr  0 0 1 c 3 lw 1219 1170 m 79 X 44 Y -79 X f 6 lw black
 gsave  2268 1103 0 472 C 1794.04 1178.27 t 0 r /Helvetica-Oblique findfont 56.3093 sf 0 0 m (tWZ/tWH) show NC gr 
 gsave  2268 1103 0 472 C 1776.28 1178.27 t 0 r /Helvetica findfont 56.3093 sf 0 0 m ( ) show NC gr  0.2 0.8 0.8 c 3 lw 1682 1170 m 79 X 44 Y -79 X f black
 gsave  2268 1103 0 472 C 1332.21 1116.1 t 0 r /Helvetica-Oblique findfont 56.3093 sf 0 0 m (tHq) show NC gr 
 gsave  2268 1103 0 472 C 1314.45 1116.1 t 0 r /Helvetica findfont 56.3093 sf 0 0 m ( ) show NC gr  1 0 0 c 3 lw 1219 1107 m 79 X 44 Y -79 X f black
 gsave  2268 1103 0 472 C 1776.28 1116.1 t 0 r /Helvetica findfont 56.3093 sf 0 0 m ( Other) show NC gr  1 0.84 0 c 3 lw 1682 1107 m 79 X 44 Y -79 X f black
 gsave  2268 1103 0 472 C 1314.45 1053.93 t 0 r /Helvetica findfont 56.3093 sf 0 0 m ( Uncertainty) show NC gr  0.6 0.6 0.6 c 3 lw 1298 1058 m -13 -14 d s 1298 1077 m -33 -33 d s 1290 1088 m -44 -44 d s 1271 1088 m -44 -44 d s 1252 1088 m -33 -33 d s
 1233 1088 m -14 -13 d s 1 0.84 0 c 0.6 0.6 0.6 c black
 gsave  2268 1103 0 472 C 894.061 1329.25 t 0 r /Helvetica findfont 41.4911 sf 0 0 m (\2551) show NC gr 
 gsave  2268 1103 0 472 C 399.663 1299.64 t 0 r /Helvetica findfont 62.2366 sf 0 0 m ( = 13 TeV,  139 fb) show NC gr 
 gsave  2268 1103 0 472 C 370.058 1299.64 t 0 r /Helvetica findfont 62.2366 sf 0 0 m (s) show NC gr  6 lw 349 1335 m 6 -38 d s 3 lw 355 1297 m 6 56 d s 361 1353 m 39 X s
 gsave  2268 1103 0 472 C 337.493 1201.95 t 0 r /Helvetica findfont 62.2366 sf 0 0 m ( 2L\(SS\), VR\(di\255boson\)) show NC gr 
 gsave  2268 1103 0 472 C 337.493 1400.3 t 0 r /Helvetica-BoldOblique findfont 71.1276 sf 0 0 m (ATLAS) show NC gr 
 gsave  2268 1103 0 472 C 633.54 1400.3 t 0 r /Helvetica findfont 71.1276 sf 0 0 m (Internal) show NC gr 
 gr  gr showpage
end
%%EOF
