%!PS-Adobe-2.0 EPSF-2.0
%%BoundingBox:  0 0 567 396
%%Title: : LepPt2_CRttbarMu
%%Creator: ROOT Version 6.20/06
%%CreationDate: Tue May 31 15:04:50 2022
%%DocumentNeededResources: ProcSet (FontSetInit)
%%EndComments
%%BeginProlog
80 dict begin
/s {stroke} def /l {lineto} def /m {moveto} def /t {translate} def
/r {rotate} def /rl {roll}  def /R {repeat} def
/d {rlineto} def /rm {rmoveto} def /gr {grestore} def /f {eofill} def
/c {setrgbcolor} def /black {0 setgray} def /sd {setdash} def
/cl {closepath} def /sf {scalefont setfont} def /lw {setlinewidth} def
/box {m dup 0 exch d exch 0 d 0 exch neg d cl} def
/NC{systemdict begin initclip end}def/C{NC box clip newpath}def
/bl {box s} def /bf {gsave box gsave f grestore 1 lw [] 0 sd s grestore} def /Y { 0 exch d} def /X { 0 d} def 
/K {{pop pop 0 moveto} exch kshow} bind def
/ita {/ang 15 def gsave [1 0 ang dup sin exch cos div 1 0 0] concat} def 
/mp {newpath /y exch def /x exch def} def
/side {[w .77 mul w .23 mul] .385 w mul sd w 0 l currentpoint t -144 r} def
/mr {mp x y w2 0 360 arc} def /m24 {mr s} def /m20 {mr f} def
/mb {mp x y w2 add m w2 neg 0 d 0 w neg d w 0 d 0 w d cl} def
/mt {mp x y w2 add m w2 neg w neg d w 0 d cl} def
/w4 {w 4 div} def
/w6 {w 6 div} def
/w8 {w 8 div} def
/m21 {mb f} def /m25 {mb s} def /m22 {mt f} def /m26{mt s} def
/m23 {mp x y w2 sub m w2 w d w neg 0 d cl f} def
/m27 {mp x y w2 add m w3 neg w2 neg d w3 w2 neg d w3 w2 d cl s} def
/m28 {mp x w2 sub y w2 sub w3 add m w3 0 d  0 w3 neg d w3 0 d 0 w3 d w3 0 d  0 w3 d w3 neg 0 d 0 w3 d w3 neg 0 d 0 w3 neg d w3 neg 0 d cl s } def
/m29 {mp gsave x w2 sub y w2 add w3 sub m currentpoint t 4 {side} repeat cl fill gr} def
/m30 {mp gsave x w2 sub y w2 add w3 sub m currentpoint t 4 {side} repeat cl s gr} def
/m31 {mp x y w2 sub m 0 w d x w2 sub y m w 0 d x w2 sub y w2 add m w w neg d x w2 sub y w2 sub m w w d s} def
/m32 {mp x y w2 sub m w2 w d w neg 0 d cl s} def
/m33 {mp x y w2 add m w3 neg w2 neg d w3 w2 neg d w3 w2 d cl f} def
/m34 {mp x w2 sub y w2 sub w3 add m w3 0 d  0 w3 neg d w3 0 d 0 w3 d w3 0 d  0 w3 d w3 neg 0 d 0 w3 d w3 neg 0 d 0 w3 neg d w3 neg 0 d cl f } def
/m35 {mp x y w2 add m w2 neg w2 neg d w2 w2 neg d w2 w2 d w2 neg w2 d x y w2 sub m 0 w d x w2 sub y m w 0 d s} def
/m36 {mb x w2 sub y w2 add m w w neg d x w2 sub y w2 sub m w w d s} def
/m37 {mp x y m w4 neg w2 d w4 neg w2 neg d w2 0 d  w4 neg w2 neg d w2 0 d w4 neg w2 d w2 0 d w4 neg w2 d w4 neg w2 neg d cl s} def
/m38 {mp x w4 sub y w2 add m w4 neg w4 neg d 0 w2 neg d w4 w4 neg d w2 0 d w4 w4 d 0 w2 d w4 neg w4 d w2 neg 0 d x y w2 sub m 0 w d x w2 sub y m w 0 d cl s} def
/m39 {mp x y m w4 neg w2 d w4 neg w2 neg d w2 0 d  w4 neg w2 neg d w2 0 d w4 neg w2 d w2 0 d w4 neg w2 d w4 neg w2 neg d cl f} def
/m40 {mp x y m w4 w2 d w4 w4 neg d w2 neg w4 neg d w2 w4 neg d w4 neg w4 neg d w4 neg w2 d w4 neg w2 neg d w4 neg w4 d w2 w4 d w2 neg w4 d w4 w4 d w4 w2 neg d cl s} def
/m41 {mp x y m w4 w2 d w4 w4 neg d w2 neg w4 neg d w2 w4 neg d w4 neg w4 neg d w4 neg w2 d w4 neg w2 neg d w4 neg w4 d w2 w4 d w2 neg w4 d w4 w4 d w4 w2 neg d cl f} def
/m42 {mp x y w2 add m w8 neg w2 -3 4 div mul d w2 -3 4 div mul w8 neg d w2 3 4 div mul w8 neg d w8 w2 -3 4 div mul d w8 w2 3 4 div mul d w2 3 4 div mul w8 d w2 -3 4 div mul w8 d w8 neg w2 3 4 div mul d cl s} def
/m43 {mp x y w2 add m w8 neg w2 -3 4 div mul d w2 -3 4 div mul w8 neg d w2 3 4 div mul w8 neg d w8 w2 -3 4 div mul d w8 w2 3 4 div mul d w2 3 4 div mul w8 d w2 -3 4 div mul w8 d w8 neg w2 3 4 div mul d cl f} def
/m44 {mp x y m w6 neg w2 d w2 2 3 div mul 0 d w6 neg w2 neg d w2 w6 d 0 w2 -2 3 div mul d w2 neg w6 d w6 w2 neg d w2 -2 3 div mul 0 d w6 w2 d w2 neg w6 neg d 0 w2 2 3 div mul d w2 w6 neg d cl s} def
/m45 {mp x y m w6 neg w2 d w2 2 3 div mul 0 d w6 neg w2 neg d w2 w6 d 0 w2 -2 3 div mul d w2 neg w6 d w6 w2 neg d w2 -2 3 div mul 0 d w6 w2 d w2 neg w6 neg d 0 w2 2 3 div mul d w2 w6 neg d cl f} def
/m46 {mp x y w4 add m w4 neg w4 d w4 neg w4 neg d  w4 w4 neg d w4 neg w4 neg d w4 w4 neg d w4 w4 d w4 w4 neg d w4 w4 d w4 neg w4 d w4 w4 d w4 neg w4 d w4 neg w4 neg d cl s} def
/m47 {mp x y w4 add m w4 neg w4 d w4 neg w4 neg d w4 w4 neg d w4 neg w4 neg d  w4 w4 neg d w4 w4 d w4 w4 neg d w4 w4 d w4 neg w4 d w4 w4 d w4 neg w4 d w4 neg w4 neg d cl f} def
/m48 {mp x y w4 add m w4 neg w4 d w4 neg w4 neg d w4 w4 neg d  w4 neg w4 neg d w4 w4 neg d w4 w4 d w4 w4 neg d w4 w4 d w4 neg w4 d w4 w4 d w4 neg w4 d w4 neg w4 neg d  w4 w4 neg d w4 neg w4 neg d w4 neg w4 d w4 w4 d cl f} def
/m49 {mp x w2 sub w3 add y w2 sub w3 add m  0 w3 neg d w3 0 d 0 w3 d w3 0 d 0 w3 d w3 neg 0 d 0 w3 d w3 neg 0 d 0 w3 neg d w3 neg 0 d 0 w3 neg d w3 0 d 0 w3 d w3 0 d 0 w3 neg d w3 neg 0 d cl f } def
/m2 {mp x y w2 sub m 0 w d x w2 sub y m w 0 d s} def
/m5 {mp x w2 sub y w2 sub m w w d x w2 sub y w2 add m w w neg d s} def
%%IncludeResource: ProcSet (FontSetInit)
%%IncludeResource: font Times-Roman
%%IncludeResource: font Times-Italic
%%IncludeResource: font Times-Bold
%%IncludeResource: font Times-BoldItalic
%%IncludeResource: font Helvetica
%%IncludeResource: font Helvetica-Oblique
%%IncludeResource: font Helvetica-Bold
%%IncludeResource: font Helvetica-BoldOblique
%%IncludeResource: font Courier
%%IncludeResource: font Courier-Oblique
%%IncludeResource: font Courier-Bold
%%IncludeResource: font Courier-BoldOblique
%%IncludeResource: font Symbol
%%IncludeResource: font ZapfDingbats
/reEncode {exch findfont dup length dict begin {1 index /FID eq  {pop pop} {def} ifelse } forall /Encoding exch def currentdict end dup /FontName get exch definefont pop } def [/Times-Bold /Times-Italic /Times-BoldItalic /Helvetica /Helvetica-Oblique
 /Helvetica-Bold /Helvetica-BoldOblique /Courier /Courier-Oblique /Courier-Bold /Courier-BoldOblique /Times-Roman /AvantGarde-Book /AvantGarde-BookOblique /AvantGarde-Demi /AvantGarde-DemiOblique /Bookman-Demi /Bookman-DemiItalic /Bookman-Light
 /Bookman-LightItalic /Helvetica-Narrow /Helvetica-Narrow-Bold /Helvetica-Narrow-BoldOblique /Helvetica-Narrow-Oblique /NewCenturySchlbk-Roman /NewCenturySchlbk-Bold /NewCenturySchlbk-BoldItalic /NewCenturySchlbk-Italic /Palatino-Bold
 /Palatino-BoldItalic /Palatino-Italic /Palatino-Roman ] {ISOLatin1Encoding reEncode } forall
%%EndProlog
%%BeginSetup
%%EndSetup
newpath  gsave  .25 .25 scale  gsave  0 0 t black[  ] 0 sd 3 lw 1 1 1 c 2268 1583 0 0 bf black 1 1 1 c 2268 475 0 0 bf black 1 1 1 c 1927 275 227 190 bf black 1927 275 227 190 bl 227 190 m 1927 X s 227 202 m -12 Y s 304 196 m -6 Y s 381 196 m -6 Y s
 458 196 m -6 Y s 535 196 m -6 Y s 612 202 m -12 Y s 689 196 m -6 Y s 766 196 m -6 Y s 844 196 m -6 Y s 921 196 m -6 Y s 998 202 m -12 Y s 1075 196 m -6 Y s 1152 196 m -6 Y s 1229 196 m -6 Y s 1306 196 m -6 Y s 1383 202 m -12 Y s 1460 196 m -6 Y s
 1538 196 m -6 Y s 1615 196 m -6 Y s 1692 196 m -6 Y s 1769 202 m -12 Y s 1846 196 m -6 Y s 1923 196 m -6 Y s 2000 196 m -6 Y s 2077 196 m -6 Y s 2154 202 m -12 Y s
 gsave  2268 475 0 0 C 209.646 126.968 t 0 r /Helvetica findfont 53.4154 sf 0 0 m (0) show NC gr 
 gsave  2268 475 0 0 C 581.693 126.968 t 0 r /Helvetica findfont 53.4154 sf 0 0 m (50) show NC gr 
 gsave  2268 475 0 0 C 950.787 126.968 t 0 r /Helvetica findfont 53.4154 sf 0 0 m (100) show NC gr 
 gsave  2268 475 0 0 C 1337.6 126.968 t 0 r /Helvetica findfont 53.4154 sf 0 0 m (150) show NC gr 
 gsave  2268 475 0 0 C 1724.41 126.968 t 0 r /Helvetica findfont 53.4154 sf 0 0 m (200) show NC gr 
 gsave  2268 475 0 0 C 2108.27 126.968 t 0 r /Helvetica findfont 53.4154 sf 0 0 m (250) show NC gr 
 gsave  2268 475 0 0 C 1978.35 53.1496 t 0 r /Helvetica findfont 56.3829 sf 0 0 m (\) [GeV]) show NC gr 
 gsave  2268 475 0 0 C 1957.68 20.6693 t 0 r /Helvetica findfont 38.5778 sf 0 0 m (2) show NC gr 
 gsave  2268 475 0 0 C 1863.19 53.1496 t 0 r /Helvetica findfont 56.3829 sf 0 0 m (\(lep) show NC gr 
 gsave  2268 475 0 0 C 1839.57 20.6693 t 0 r /Helvetica findfont 38.5778 sf 0 0 m (T) show NC gr 
 gsave  2268 475 0 0 C 1804.13 53.1496 t 0 r /Helvetica-Oblique findfont 56.3829 sf 0 0 m (p) show NC gr  227 465 m 1927 X s 227 453 m 12 Y s 304 459 m 6 Y s 381 459 m 6 Y s 458 459 m 6 Y s 535 459 m 6 Y s 612 453 m 12 Y s 689 459 m 6 Y s 766 459 m 6
 Y s 844 459 m 6 Y s 921 459 m 6 Y s 998 453 m 12 Y s 1075 459 m 6 Y s 1152 459 m 6 Y s 1229 459 m 6 Y s 1306 459 m 6 Y s 1383 453 m 12 Y s 1460 459 m 6 Y s 1538 459 m 6 Y s 1615 459 m 6 Y s 1692 459 m 6 Y s 1769 453 m 12 Y s 1846 459 m 6 Y s 1923
 459 m 6 Y s 2000 459 m 6 Y s 2077 459 m 6 Y s 2154 453 m 12 Y s 227 190 m 275 Y s 240 242 m -13 X s 240 328 m -13 X s 240 414 m -13 X s 240 242 m -13 X s 240 414 m -13 X s
 gsave  2268 475 0 0 C 118.11 221.457 t 0 r /Helvetica findfont 53.4154 sf 0 0 m (0.5) show NC gr 
 gsave  2268 475 0 0 C 171.26 307.087 t 0 r /Helvetica findfont 53.4154 sf 0 0 m (1) show NC gr 
 gsave  2268 475 0 0 C 118.11 395.669 t 0 r /Helvetica findfont 53.4154 sf 0 0 m (1.5) show NC gr 
 gsave  2268 475 0 0 C 70.8661 233.268 t 90 r /Helvetica findfont 53.4154 sf 0 0 m (Data / SM) show NC gr  2154 190 m 275 Y s 2141 242 m 13 X s 2141 328 m 13 X s 2141 414 m 13 X s 2141 242 m 13 X s 2141 414 m 13 X s 227 190 m 1927 X s 227 465 m 1927
 X s 227 190 m 275 Y s[ 4 8] 0 sd 2154 242 m -1927 X s 2154 328 m -1927 X s 2154 414 m -1927 X s 2154 242 m -1927 X s 2154 414 m -1927 X s[  ] 0 sd 2154 190 m 275 Y s 1 1 0.6 c 193 0 227 328 bf 192 0 420 328 bf 193 0 612 328 bf 193 0 805 328 bf 193 0
 998 328 bf 192 0 1191 328 bf 193 0 1383 328 bf 193 0 1576 328 bf 193 0 1769 328 bf 192 0 1962 328 bf black 0.6 0.6 0.6 c 420 325 m -1 X s 406 330 m -6 -5 d s 386 330 m -5 -5 d s 367 330 m -5 -5 d s 348 330 m -5 -5 d s 329 330 m -6 -5 d s 309 330 m
 -5 -5 d s 290 330 m -5 -5 d s 271 330 m -5 -5 d s 252 330 m -6 -5 d s 232 330 m -5 -5 d s 597 330 m -4 -4 d s 578 330 m -4 -4 d s 559 330 m -4 -4 d s 540 330 m -4 -4 d s 520 330 m -4 -4 d s 501 330 m -4 -4 d s 482 330 m -4 -4 d s 463 330 m -4 -4 d s
 443 330 m -4 -4 d s 424 330 m -4 -4 d s 805 326 m -5 -5 d s 795 335 m -14 -14 d s 776 335 m -14 -14 d s 756 335 m -14 -14 d s 737 335 m -14 -14 d s 718 335 m -14 -14 d s 699 335 m -14 -14 d s 679 335 m -14 -14 d s 660 335 m -14 -14 d s 641 335 m -14
 -14 d s 622 335 m -10 -10 d s 998 326 m -8 -8 d s 990 337 m -20 -19 d s 971 337 m -20 -19 d s 951 337 m -19 -19 d s 932 337 m -19 -19 d s 913 337 m -20 -19 d s 894 337 m -20 -19 d s 875 337 m -20 -19 d s 855 337 m -19 -19 d s 836 337 m -19 -19 d s
 817 337 m -12 -11 d s 1191 326 m -16 -16 d s 1190 345 m -35 -35 d s 1171 345 m -35 -35 d s 1151 345 m -34 -35 d s 1132 345 m -34 -35 d s 1113 345 m -35 -35 d s 1094 345 m -35 -35 d s 1074 345 m -34 -35 d s 1055 345 m -34 -35 d s 1036 345 m -35 -35 d
 s 1017 345 m -19 -19 d s 1383 307 m -12 -12 d s 1383 327 m -32 -32 d s 1383 346 m -51 -51 d s 1379 361 m -66 -66 d s 1359 361 m -65 -66 d s 1340 361 m -65 -66 d s 1321 361 m -66 -66 d s 1302 361 m -66 -66 d s 1282 361 m -65 -66 d s 1263 361 m -65
 -66 d s 1244 361 m -53 -54 d s 1225 361 m -34 -35 d s 1205 361 m -14 -15 d s 1576 308 m -12 -12 d s 1576 327 m -31 -31 d s 1576 346 m -50 -50 d s 1570 360 m -64 -64 d s 1551 360 m -64 -64 d s 1532 360 m -64 -64 d s 1512 360 m -63 -64 d s 1493 360 m
 -64 -64 d s 1474 360 m -64 -64 d s 1455 360 m -64 -64 d s 1435 360 m -52 -53 d s 1416 360 m -33 -33 d s 1397 360 m -14 -14 d s 1769 211 m -14 -14 d s 1769 231 m -33 -34 d s 1769 250 m -53 -53 d s 1769 269 m -72 -72 d s 1769 289 m -91 -92 d s 1769
 308 m -110 -111 d s 1769 327 m -129 -130 d s 1769 347 m -149 -150 d s 1769 366 m -168 -169 d s 1769 385 m -187 -188 d s 1769 405 m -193 -194 d s 1769 424 m -193 -194 d s 1769 443 m -193 -193 d s 1764 458 m -188 -189 d s 1745 458 m -169 -170 d s 1726
 458 m -150 -150 d s 1706 458 m -130 -131 d s 1687 458 m -111 -112 d s 1668 458 m -92 -92 d s 1649 458 m -73 -73 d s 1629 458 m -53 -54 d s 1610 458 m -34 -34 d s 1591 458 m -15 -15 d s 1962 270 m -1 -1 d s 1962 289 m -20 -20 d s 1962 308 m -39 -39 d
 s 1962 328 m -58 -59 d s 1962 347 m -78 -78 d s 1962 366 m -97 -97 d s 1962 386 m -116 -117 d s 1943 386 m -116 -117 d s 1923 386 m -116 -117 d s 1904 386 m -116 -117 d s 1885 386 m -116 -117 d s 1866 386 m -97 -97 d s 1846 386 m -77 -78 d s 1827
 386 m -58 -59 d s 1808 386 m -39 -39 d s 1789 386 m -20 -20 d s 1769 386 m -1 Y s 2154 289 m -9 -9 d s 2154 309 m -29 -29 d s 2154 328 m -48 -48 d s 2154 347 m -67 -67 d s 2154 367 m -86 -87 d s 2144 376 m -96 -96 d s 2125 376 m -96 -96 d s 2106 376
 m -96 -96 d s 2086 376 m -95 -96 d s 2067 376 m -96 -96 d s 2048 376 m -86 -87 d s 2029 376 m -67 -68 d s 2009 376 m -47 -48 d s 1990 376 m -28 -29 d s 1971 376 m -9 -10 d s black 1 1 1 c black 323 277 m 8 Y s 323 309 m 8 Y s /w 26 def /w2 {w 2 div}
 def /w3 {w 3 div} def 323 297 m20 516 306 m 6 Y s 516 336 m 7 Y s 516 324 m20 709 207 m 30 Y s 709 261 m 30 Y s 709 249 m20 901 250 m 117 Y s 901 390 m 75 Y s 901 379 m20 227 328 m 1927 X s 227 190 m 1927 X s 227 202 m -12 Y s 304 196 m -6 Y s 381
 196 m -6 Y s 458 196 m -6 Y s 535 196 m -6 Y s 612 202 m -12 Y s 689 196 m -6 Y s 766 196 m -6 Y s 844 196 m -6 Y s 921 196 m -6 Y s 998 202 m -12 Y s 1075 196 m -6 Y s 1152 196 m -6 Y s 1229 196 m -6 Y s 1306 196 m -6 Y s 1383 202 m -12 Y s 1460
 196 m -6 Y s 1538 196 m -6 Y s 1615 196 m -6 Y s 1692 196 m -6 Y s 1769 202 m -12 Y s 1846 196 m -6 Y s 1923 196 m -6 Y s 2000 196 m -6 Y s 2077 196 m -6 Y s 2154 202 m -12 Y s 227 465 m 1927 X s 227 453 m 12 Y s 304 459 m 6 Y s 381 459 m 6 Y s 458
 459 m 6 Y s 535 459 m 6 Y s 612 453 m 12 Y s 689 459 m 6 Y s 766 459 m 6 Y s 844 459 m 6 Y s 921 459 m 6 Y s 998 453 m 12 Y s 1075 459 m 6 Y s 1152 459 m 6 Y s 1229 459 m 6 Y s 1306 459 m 6 Y s 1383 453 m 12 Y s 1460 459 m 6 Y s 1538 459 m 6 Y s
 1615 459 m 6 Y s 1692 459 m 6 Y s 1769 453 m 12 Y s 1846 459 m 6 Y s 1923 459 m 6 Y s 2000 459 m 6 Y s 2077 459 m 6 Y s 2154 453 m 12 Y s 227 190 m 275 Y s 240 242 m -13 X s 240 328 m -13 X s 240 414 m -13 X s 240 242 m -13 X s 240 414 m -13 X s
 2154 190 m 275 Y s 2141 242 m 13 X s 2141 328 m 13 X s 2141 414 m 13 X s 2141 242 m 13 X s 2141 414 m 13 X s 1 1 1 c 2268 1108 0 475 bf black 1 1 1 c 1927 1041 227 486 bf black 1927 1041 227 486 bl 1 1 1 c black 3 lw 227 486 m 1927 X s 227 505 m -19
 Y s 304 495 m -9 Y s 381 495 m -9 Y s 458 495 m -9 Y s 535 495 m -9 Y s 612 505 m -19 Y s 689 495 m -9 Y s 766 495 m -9 Y s 844 495 m -9 Y s 921 495 m -9 Y s 998 505 m -19 Y s 1075 495 m -9 Y s 1152 495 m -9 Y s 1229 495 m -9 Y s 1306 495 m -9 Y s
 1383 505 m -19 Y s 1460 495 m -9 Y s 1538 495 m -9 Y s 1615 495 m -9 Y s 1692 495 m -9 Y s 1769 505 m -19 Y s 1846 495 m -9 Y s 1923 495 m -9 Y s 2000 495 m -9 Y s 2077 495 m -9 Y s 2154 505 m -19 Y s
 gsave  2268 1108 0 475 C 2049.21 407.48 t 0 r /Helvetica findfont 32.4976 sf 0 0 m (\) [GeV]) show NC gr 
 gsave  2268 1108 0 475 C 2037.4 389.764 t 0 r /Helvetica findfont 20.6803 sf 0 0 m (2) show NC gr 
 gsave  2268 1108 0 475 C 1981.3 407.48 t 0 r /Helvetica findfont 32.4976 sf 0 0 m (\(lep) show NC gr 
 gsave  2268 1108 0 475 C 1966.54 389.764 t 0 r /Helvetica findfont 20.6803 sf 0 0 m (T) show NC gr 
 gsave  2268 1108 0 475 C 1945.87 407.48 t 0 r /Helvetica-Oblique findfont 32.4976 sf 0 0 m (p) show NC gr  227 1527 m 1927 X s 227 1508 m 19 Y s 304 1518 m 9 Y s 381 1518 m 9 Y s 458 1518 m 9 Y s 535 1518 m 9 Y s 612 1508 m 19 Y s 689 1518 m 9 Y s
 766 1518 m 9 Y s 844 1518 m 9 Y s 921 1518 m 9 Y s 998 1508 m 19 Y s 1075 1518 m 9 Y s 1152 1518 m 9 Y s 1229 1518 m 9 Y s 1306 1518 m 9 Y s 1383 1508 m 19 Y s 1460 1518 m 9 Y s 1538 1518 m 9 Y s 1615 1518 m 9 Y s 1692 1518 m 9 Y s 1769 1508 m 19 Y
 s 1846 1518 m 9 Y s 1923 1518 m 9 Y s 2000 1518 m 9 Y s 2077 1518 m 9 Y s 2154 1508 m 19 Y s 227 486 m 1041 Y s 248 615 m -21 X s 237 648 m -10 X s 237 680 m -10 X s 237 712 m -10 X s 248 745 m -21 X s 237 777 m -10 X s 237 809 m -10 X s 237 842 m
 -10 X s 248 874 m -21 X s 237 906 m -10 X s 237 939 m -10 X s 237 971 m -10 X s 248 1003 m -21 X s 237 1036 m -10 X s 237 1068 m -10 X s 237 1100 m -10 X s 248 1133 m -21 X s 237 1165 m -10 X s 237 1197 m -10 X s 237 1230 m -10 X s 248 1262 m -21 X
 s 237 1295 m -10 X s 237 1327 m -10 X s 237 1359 m -10 X s 248 1392 m -21 X s 237 1424 m -10 X s 237 1456 m -10 X s 237 1489 m -10 X s 248 1521 m -21 X s 248 615 m -21 X s 237 583 m -10 X s 237 551 m -10 X s 237 518 m -10 X s 248 1521 m -21 X s
 gsave  2268 1108 0 475 C 141.732 596.457 t 0 r /Helvetica findfont 53.178 sf 0 0 m (20) show NC gr 
 gsave  2268 1108 0 475 C 141.732 726.378 t 0 r /Helvetica findfont 53.178 sf 0 0 m (40) show NC gr 
 gsave  2268 1108 0 475 C 141.732 853.346 t 0 r /Helvetica findfont 53.178 sf 0 0 m (60) show NC gr 
 gsave  2268 1108 0 475 C 141.732 983.268 t 0 r /Helvetica findfont 53.178 sf 0 0 m (80) show NC gr 
 gsave  2268 1108 0 475 C 112.205 1113.19 t 0 r /Helvetica findfont 53.178 sf 0 0 m (100) show NC gr 
 gsave  2268 1108 0 475 C 112.205 1243.11 t 0 r /Helvetica findfont 53.178 sf 0 0 m (120) show NC gr 
 gsave  2268 1108 0 475 C 112.205 1373.03 t 0 r /Helvetica findfont 53.178 sf 0 0 m (140) show NC gr 
 gsave  2268 1108 0 475 C 112.205 1502.95 t 0 r /Helvetica findfont 53.178 sf 0 0 m (160) show NC gr 
 gsave  2268 1108 0 475 C 64.9606 1142.72 t 90 r /Helvetica findfont 53.178 sf 0 0 m (Events / 25 GeV) show NC gr  2154 486 m 1041 Y s 2133 615 m 21 X s 2144 648 m 10 X s 2144 680 m 10 X s 2144 712 m 10 X s 2133 745 m 21 X s 2144 777 m 10 X s 2144
 809 m 10 X s 2144 842 m 10 X s 2133 874 m 21 X s 2144 906 m 10 X s 2144 939 m 10 X s 2144 971 m 10 X s 2133 1003 m 21 X s 2144 1036 m 10 X s 2144 1068 m 10 X s 2144 1100 m 10 X s 2133 1133 m 21 X s 2144 1165 m 10 X s 2144 1197 m 10 X s 2144 1230 m
 10 X s 2133 1262 m 21 X s 2144 1295 m 10 X s 2144 1327 m 10 X s 2144 1359 m 10 X s 2133 1392 m 21 X s 2144 1424 m 10 X s 2144 1456 m 10 X s 2144 1489 m 10 X s 2133 1521 m 21 X s 2133 615 m 21 X s 2144 583 m 10 X s 2144 551 m 10 X s 2144 518 m 10 X s
 2133 1521 m 21 X s 0.4 0.6 0.4 c black 3 lw 0.4 0.6 0.4 c 227 486 m 393 Y 193 X 155 Y 192 X -489 Y 193 X -44 Y 193 X -10 Y 193 X -3 Y 192 X -1 Y 193 X -1 Y 578 X f 0.06 0.54 0.06 c 0.999 0.999 0.999 c black 3 lw 0.999 0.999 0.999 c 227 486 m 105 Y
 193 X 125 Y 192 X -191 Y 193 X -27 Y 193 X -8 Y 193 X -3 Y 385 X -1 Y 578 X f 0.06 0.54 0.06 c 0.999 0.999 0.999 c 0.06 0.54 0.06 c 1 1 1 c black 0.06 0.54 0.06 c black 3 lw 0.06 0.54 0.06 c 227 486 m 105 Y 193 X 125 Y 192 X -191 Y 193 X -27 Y 193 X
 -8 Y 193 X -3 Y 385 X -1 Y 578 X f 1 0.653333 0 c 0.999 0.999 0.999 c black 3 lw 0.999 0.999 0.999 c 227 486 m 104 Y 193 X 126 Y 192 X -193 Y 193 X -25 Y 193 X -8 Y 193 X -3 Y 385 X -1 Y 578 X f 1 0.653333 0 c 0.999 0.999 0.999 c 1 0.653333 0 c 1 1
 1 c black 1 0.653333 0 c black 3 lw 1 0.653333 0 c 227 486 m 104 Y 193 X 126 Y 192 X -193 Y 193 X -25 Y 193 X -8 Y 193 X -3 Y 385 X -1 Y 578 X f 0.413333 1 0 c 0.999 0.999 0.999 c black 3 lw 0.999 0.999 0.999 c 227 486 m 104 Y 193 X 126 Y 192 X -193
 Y 193 X -25 Y 193 X -8 Y 193 X -3 Y 385 X -1 Y 578 X f 0.413333 1 0 c 0.999 0.999 0.999 c 0.413333 1 0 c 1 1 1 c black 0.413333 1 0 c black 3 lw 0.413333 1 0 c 227 486 m 104 Y 193 X 126 Y 192 X -193 Y 193 X -25 Y 193 X -8 Y 193 X -3 Y 385 X -1 Y 578
 X f 0.6 0.2 1 c 0.999 0.999 0.999 c black 3 lw 0.999 0.999 0.999 c 227 486 m 86 Y 193 X 111 Y 192 X -166 Y 193 X -20 Y 193 X -8 Y 193 X -2 Y 385 X -1 Y 578 X f 0.6 0.2 1 c 0.999 0.999 0.999 c 0.6 0.2 1 c 1 1 1 c black 0.6 0.2 1 c black 3 lw 0.6 0.2
 1 c 227 486 m 86 Y 193 X 111 Y 192 X -166 Y 193 X -20 Y 193 X -8 Y 193 X -2 Y 385 X -1 Y 578 X f 0.54 0.06 0.06 c 0.999 0.999 0.999 c black 3 lw 0.999 0.999 0.999 c 227 486 m 71 Y 193 X 98 Y 192 X -142 Y 193 X -18 Y 193 X -6 Y 193 X -2 Y 385 X -1 Y
 578 X f 0.54 0.06 0.06 c 0.999 0.999 0.999 c 0.54 0.06 0.06 c 1 1 1 c black 0.54 0.06 0.06 c black 3 lw 0.54 0.06 0.06 c 227 486 m 71 Y 193 X 98 Y 192 X -142 Y 193 X -18 Y 193 X -6 Y 193 X -2 Y 385 X -1 Y 578 X f 1 0 1 c 0.999 0.999 0.999 c black 3
 lw 0.999 0.999 0.999 c 227 486 m 21 Y 193 X 26 Y 192 X -40 Y 193 X -5 Y 193 X -1 Y 193 X -1 Y 963 X f 1 0 1 c 0.999 0.999 0.999 c 1 0 1 c 1 1 1 c black 1 0 1 c black 3 lw 1 0 1 c 227 486 m 21 Y 193 X 26 Y 192 X -40 Y 193 X -5 Y 193 X -1 Y 193 X -1 Y
 963 X f 0 0 1 c 0.999 0.999 0.999 c black 3 lw 0.999 0.999 0.999 c 227 486 m 16 Y 193 X 16 Y 192 X -28 Y 193 X -3 Y 193 X -1 Y 1156 X f 0 0 1 c 0.999 0.999 0.999 c 0 0 1 c 1 1 1 c black 0 0 1 c black 3 lw 0 0 1 c 227 486 m 16 Y 193 X 16 Y 192 X -28
 Y 193 X -3 Y 193 X -1 Y 1156 X f 0.2 0.8 0.8 c 0.999 0.999 0.999 c black 3 lw 0.999 0.999 0.999 c 227 486 m 2 Y 193 X 4 Y 192 X -5 Y 193 X -1 Y 1349 X f 0.2 0.8 0.8 c 0.999 0.999 0.999 c 0.2 0.8 0.8 c 1 1 1 c black 0.2 0.8 0.8 c black 3 lw 0.2 0.8
 0.8 c 227 486 m 2 Y 193 X 4 Y 192 X -5 Y 193 X -1 Y 1349 X f 1 0 0 c 0.999 0.999 0.999 c black 3 lw 0.999 0.999 0.999 c 227 486 m 1 Y 193 X 1 Y 192 X -2 Y 1542 X f 1 0 0 c 0.999 0.999 0.999 c 1 0 0 c 1 1 1 c black 1 0 0 c black 3 lw 1 0 0 c 227 486
 m 1 Y 193 X 1 Y 192 X -2 Y 1542 X f 1 0.84 0 c 0.999 0.999 0.999 c black 3 lw 0.999 0.999 0.999 c 227 486 m 1927 X f 1 0.84 0 c 0.999 0.999 0.999 c 1 0.84 0 c 1 1 1 c black 1 0.84 0 c black 3 lw 1 0.84 0 c 227 486 m 1927 X f black 1 1 1 c black 0.6
 0.6 0.6 c 3 lw 420 874 m -2 -2 d s 411 885 m -13 -13 d s 392 885 m -13 -13 d s 372 885 m -12 -13 d s 353 885 m -12 -13 d s 334 885 m -13 -13 d s 315 885 m -13 -13 d s 295 885 m -12 -13 d s 276 885 m -12 -13 d s 257 885 m -12 -13 d s 238 885 m -11
 -11 d s 3 lw 612 1028 m s 605 1040 m -12 -12 d s 586 1040 m -13 -12 d s 567 1040 m -13 -12 d s 547 1040 m -12 -12 d s 528 1040 m -12 -12 d s 509 1040 m -13 -12 d s 490 1040 m -13 -12 d s 470 1040 m -12 -12 d s 451 1040 m -12 -12 d s 432 1040 m -12
 -12 d s 3 lw 804 548 m -5 -5 d s 785 548 m -5 -5 d s 766 548 m -5 -5 d s 747 548 m -5 -5 d s 727 548 m -4 -5 d s 708 548 m -5 -5 d s 689 548 m -5 -5 d s 670 548 m -5 -5 d s 650 548 m -4 -5 d s 631 548 m -5 -5 d s 3 lw 989 502 m -2 -2 d s 970 502 m
 -2 -2 d s 951 502 m -2 -2 d s 931 502 m -1 -2 d s 912 502 m -2 -2 d s 893 502 m -2 -2 d s 874 502 m -2 -2 d s 854 502 m -1 -2 d s 835 502 m -2 -2 d s 816 502 m -2 -2 d s 3 lw 1190 491 m -1 -1 d s 1171 491 m -1 -1 d s 1152 491 m -1 -1 d s 1132 491 m
 -1 -1 d s 1113 491 m -1 -1 d s 1094 491 m -1 -1 d s 1075 491 m -1 -1 d s 1055 491 m -1 -1 d s 1036 491 m -1 -1 d s 1017 491 m -1 -1 d s 3 lw 1379 488 m -1 Y s 1360 488 m -1 -1 d s 1341 488 m -1 -1 d s 1322 488 m -1 -1 d s 1302 488 m -1 Y s 1283 488
 m -1 -1 d s 1264 488 m -1 -1 d s 1245 488 m -1 -1 d s 1225 488 m -1 Y s 1206 488 m -1 -1 d s 3 lw 1571 487 m s 1552 487 m -1 X s 1533 487 m -1 X s 1513 487 m s 1494 487 m s 1475 487 m -1 X s 1456 487 m -1 X s 1436 487 m s 1417 487 m s 1398 487 m -1
 X s 3 lw 1762 486 m s 1743 486 m s 1724 486 m s 1705 486 m -1 X s 1685 486 m s 1666 486 m s 1647 486 m s 1628 486 m -1 X s 1608 486 m s 1589 486 m s 3 lw 1955 486 m s 1936 486 m -1 X s 1916 486 m s 1897 486 m s 1878 486 m s 1859 486 m -1 X s 1839
 486 m s 1820 486 m s 1801 486 m s 1782 486 m -1 X s 3 lw 2147 486 m s 2128 486 m s 2109 486 m s 2090 486 m -1 X s 2070 486 m s 2051 486 m s 2032 486 m s 2013 486 m -1 X s 1993 486 m s 1974 486 m s black 3 lw 1 1 1 c black 323 764 m 33 Y s 323 821 m
 34 Y s /w 24 def /w2 {w 2 div} def /w3 {w 3 div} def 323 809 m20 516 964 m 47 Y s 516 1035 m 47 Y s 516 1023 m20 709 504 m 2 Y s 709 530 m 3 Y s 709 518 m20 901 505 m20 1094 499 m20 227 486 m 1927 X s 227 505 m -19 Y s 304 495 m -9 Y s 381 495 m -9
 Y s 458 495 m -9 Y s 535 495 m -9 Y s 612 505 m -19 Y s 689 495 m -9 Y s 766 495 m -9 Y s 844 495 m -9 Y s 921 495 m -9 Y s 998 505 m -19 Y s 1075 495 m -9 Y s 1152 495 m -9 Y s 1229 495 m -9 Y s 1306 495 m -9 Y s 1383 505 m -19 Y s 1460 495 m -9 Y
 s 1538 495 m -9 Y s 1615 495 m -9 Y s 1692 495 m -9 Y s 1769 505 m -19 Y s 1846 495 m -9 Y s 1923 495 m -9 Y s 2000 495 m -9 Y s 2077 495 m -9 Y s 2154 505 m -19 Y s 227 1527 m 1927 X s 227 1508 m 19 Y s 304 1518 m 9 Y s 381 1518 m 9 Y s 458 1518 m
 9 Y s 535 1518 m 9 Y s 612 1508 m 19 Y s 689 1518 m 9 Y s 766 1518 m 9 Y s 844 1518 m 9 Y s 921 1518 m 9 Y s 998 1508 m 19 Y s 1075 1518 m 9 Y s 1152 1518 m 9 Y s 1229 1518 m 9 Y s 1306 1518 m 9 Y s 1383 1508 m 19 Y s 1460 1518 m 9 Y s 1538 1518 m 9
 Y s 1615 1518 m 9 Y s 1692 1518 m 9 Y s 1769 1508 m 19 Y s 1846 1518 m 9 Y s 1923 1518 m 9 Y s 2000 1518 m 9 Y s 2077 1518 m 9 Y s 2154 1508 m 19 Y s 227 486 m 1041 Y s 248 615 m -21 X s 237 648 m -10 X s 237 680 m -10 X s 237 712 m -10 X s 248 745
 m -21 X s 237 777 m -10 X s 237 809 m -10 X s 237 842 m -10 X s 248 874 m -21 X s 237 906 m -10 X s 237 939 m -10 X s 237 971 m -10 X s 248 1003 m -21 X s 237 1036 m -10 X s 237 1068 m -10 X s 237 1100 m -10 X s 248 1133 m -21 X s 237 1165 m -10 X s
 237 1197 m -10 X s 237 1230 m -10 X s 248 1262 m -21 X s 237 1295 m -10 X s 237 1327 m -10 X s 237 1359 m -10 X s 248 1392 m -21 X s 237 1424 m -10 X s 237 1456 m -10 X s 237 1489 m -10 X s 248 1521 m -21 X s 248 615 m -21 X s 237 583 m -10 X s 237
 551 m -10 X s 237 518 m -10 X s 248 1521 m -21 X s 2154 486 m 1041 Y s 2133 615 m 21 X s 2144 648 m 10 X s 2144 680 m 10 X s 2144 712 m 10 X s 2133 745 m 21 X s 2144 777 m 10 X s 2144 809 m 10 X s 2144 842 m 10 X s 2133 874 m 21 X s 2144 906 m 10 X
 s 2144 939 m 10 X s 2144 971 m 10 X s 2133 1003 m 21 X s 2144 1036 m 10 X s 2144 1068 m 10 X s 2144 1100 m 10 X s 2133 1133 m 21 X s 2144 1165 m 10 X s 2144 1197 m 10 X s 2144 1230 m 10 X s 2133 1262 m 21 X s 2144 1295 m 10 X s 2144 1327 m 10 X s
 2144 1359 m 10 X s 2133 1392 m 21 X s 2144 1424 m 10 X s 2144 1456 m 10 X s 2144 1489 m 10 X s 2133 1521 m 21 X s 2133 615 m 21 X s 2144 583 m 10 X s 2144 551 m 10 X s 2144 518 m 10 X s 2133 1521 m 21 X s
 gsave  2268 1108 0 475 C 1313.98 1437.99 t 0 r /Helvetica findfont 56.1323 sf 0 0 m ( Data) show NC gr  1259 1463 m 7 Y s 1259 1440 m -8 Y s 1259 1451 m20
 gsave  2268 1108 0 475 C 1777.56 1437.99 t 0 r /Helvetica findfont 56.1323 sf 0 0 m ( Fakes \(MM\)) show NC gr  0.4 0.6 0.4 c 1682 1429 m 79 X 44 Y -79 X f black
 gsave  2268 1108 0 475 C 1402.56 1375.98 t 0 r /Helvetica findfont 56.1323 sf 0 0 m (single\255top) show NC gr 
 gsave  2268 1108 0 475 C 1373.03 1375.98 t 0 r /Helvetica-Oblique findfont 56.1323 sf 0 0 m (/) show NC gr 
 gsave  2268 1108 0 475 C 1352.36 1375.98 t 0 r /Helvetica-Oblique findfont 56.1323 sf 0 0 m (t) show NC gr  6 lw 1352 1420 m 21 X s
 gsave  2268 1108 0 475 C 1331.69 1375.98 t 0 r /Helvetica-Oblique findfont 56.1323 sf 0 0 m (t) show NC gr 
 gsave  2268 1108 0 475 C 1313.98 1375.98 t 0 r /Helvetica findfont 56.1323 sf 0 0 m ( ) show NC gr  0.06 0.54 0.06 c 3 lw 1219 1366 m 79 X 44 Y -79 X f 6 lw black
 gsave  2268 1108 0 475 C 1907.48 1375.98 t 0 r /Helvetica findfont 56.1323 sf 0 0 m (+jets) show NC gr 
 gsave  2268 1108 0 475 C 1795.28 1375.98 t 0 r /Helvetica-Oblique findfont 56.1323 sf 0 0 m (W/Z) show NC gr 
 gsave  2268 1108 0 475 C 1777.56 1375.98 t 0 r /Helvetica findfont 56.1323 sf 0 0 m ( ) show NC gr  1 0.653333 0 c 3 lw 1682 1366 m 79 X 44 Y -79 X f black
 gsave  2268 1108 0 475 C 1511.81 1311.02 t 0 r /Helvetica findfont 56.1323 sf 0 0 m (+jets) show NC gr 
 gsave  2268 1108 0 475 C 1331.69 1311.02 t 0 r /Helvetica-Oblique findfont 56.1323 sf 0 0 m (WZ/ZZ) show NC gr 
 gsave  2268 1108 0 475 C 1313.98 1311.02 t 0 r /Helvetica findfont 56.1323 sf 0 0 m ( ) show NC gr  0.413333 1 0 c 3 lw 1219 1303 m 79 X 44 Y -79 X f black
 gsave  2268 1108 0 475 C 1836.61 1311.02 t 0 r /Helvetica-Oblique findfont 56.1323 sf 0 0 m (Z) show NC gr 
 gsave  2268 1108 0 475 C 1815.94 1311.02 t 0 r /Helvetica-Oblique findfont 56.1323 sf 0 0 m (t) show NC gr  6 lw 1816 1355 m 21 X s
 gsave  2268 1108 0 475 C 1795.28 1311.02 t 0 r /Helvetica-Oblique findfont 56.1323 sf 0 0 m (t) show NC gr 
 gsave  2268 1108 0 475 C 1777.56 1311.02 t 0 r /Helvetica findfont 56.1323 sf 0 0 m ( ) show NC gr  0.6 0.2 1 c 3 lw 1682 1303 m 79 X 44 Y -79 X f 6 lw black
 gsave  2268 1108 0 475 C 1373.03 1249.02 t 0 r /Helvetica-Oblique findfont 56.1323 sf 0 0 m (W) show NC gr 
 gsave  2268 1108 0 475 C 1352.36 1249.02 t 0 r /Helvetica-Oblique findfont 56.1323 sf 0 0 m (t) show NC gr  6 lw 1352 1293 m 21 X s
 gsave  2268 1108 0 475 C 1331.69 1249.02 t 0 r /Helvetica-Oblique findfont 56.1323 sf 0 0 m (t) show NC gr 
 gsave  2268 1108 0 475 C 1313.98 1249.02 t 0 r /Helvetica findfont 56.1323 sf 0 0 m ( ) show NC gr  0.54 0.06 0.06 c 3 lw 1219 1239 m 79 X 45 Y -79 X f 6 lw black
 gsave  2268 1108 0 475 C 1795.28 1249.02 t 0 r /Helvetica-Oblique findfont 56.1323 sf 0 0 m (tZq) show NC gr 
 gsave  2268 1108 0 475 C 1777.56 1249.02 t 0 r /Helvetica findfont 56.1323 sf 0 0 m ( ) show NC gr  1 0 1 c 3 lw 1682 1239 m 79 X 45 Y -79 X f black
 gsave  2268 1108 0 475 C 1373.03 1184.06 t 0 r /Helvetica-Oblique findfont 56.1323 sf 0 0 m (H) show NC gr 
 gsave  2268 1108 0 475 C 1352.36 1184.06 t 0 r /Helvetica-Oblique findfont 56.1323 sf 0 0 m (t) show NC gr  6 lw 1352 1228 m 21 X s
 gsave  2268 1108 0 475 C 1331.69 1184.06 t 0 r /Helvetica-Oblique findfont 56.1323 sf 0 0 m (t) show NC gr 
 gsave  2268 1108 0 475 C 1313.98 1184.06 t 0 r /Helvetica findfont 56.1323 sf 0 0 m ( ) show NC gr  0 0 1 c 3 lw 1219 1176 m 79 X 44 Y -79 X f 6 lw black
 gsave  2268 1108 0 475 C 1795.28 1184.06 t 0 r /Helvetica-Oblique findfont 56.1323 sf 0 0 m (tWZ/tWH) show NC gr 
 gsave  2268 1108 0 475 C 1777.56 1184.06 t 0 r /Helvetica findfont 56.1323 sf 0 0 m ( ) show NC gr  0.2 0.8 0.8 c 3 lw 1682 1176 m 79 X 44 Y -79 X f black
 gsave  2268 1108 0 475 C 1331.69 1122.05 t 0 r /Helvetica-Oblique findfont 56.1323 sf 0 0 m (tHq) show NC gr 
 gsave  2268 1108 0 475 C 1313.98 1122.05 t 0 r /Helvetica findfont 56.1323 sf 0 0 m ( ) show NC gr  1 0 0 c 3 lw 1219 1113 m 79 X 44 Y -79 X f black
 gsave  2268 1108 0 475 C 1777.56 1122.05 t 0 r /Helvetica findfont 56.1323 sf 0 0 m ( Other) show NC gr  1 0.84 0 c 3 lw 1682 1113 m 79 X 44 Y -79 X f black
 gsave  2268 1108 0 475 C 1313.98 1060.04 t 0 r /Helvetica findfont 56.1323 sf 0 0 m ( Uncertainty) show NC gr  0.6 0.6 0.6 c 3 lw 1298 1060 m -10 -11 d s 1298 1079 m -30 -30 d s 1294 1094 m -45 -45 d s 1274 1094 m -44 -45 d s 1255 1094 m -36 -37 d s
 1236 1094 m -17 -17 d s 1 0.84 0 c 0.6 0.6 0.6 c black
 gsave  2268 1108 0 475 C 894.685 1337.6 t 0 r /Helvetica findfont 41.3606 sf 0 0 m (\2551) show NC gr 
 gsave  2268 1108 0 475 C 401.575 1308.07 t 0 r /Helvetica findfont 62.0409 sf 0 0 m ( = 13 TeV,  139 fb) show NC gr 
 gsave  2268 1108 0 475 C 372.047 1308.07 t 0 r /Helvetica findfont 62.0409 sf 0 0 m (s) show NC gr  6 lw 351 1344 m 6 -39 d s 3 lw 357 1305 m 9 56 d s 366 1361 m 36 X s
 gsave  2268 1108 0 475 C 832.677 1207.68 t 0 r /Helvetica findfont 62.0409 sf 0 0 m (\)) show NC gr 
 gsave  2268 1108 0 475 C 776.575 1175.2 t 0 r /Helvetica findfont 41.3606 sf 0 0 m (HF) show NC gr 
 gsave  2268 1108 0 475 C 339.567 1207.68 t 0 r /Helvetica findfont 62.0409 sf 0 0 m ( 2L\(SS\), CR\(mu) show NC gr 
 gsave  2268 1108 0 475 C 339.567 1405.51 t 0 r /Helvetica-BoldOblique findfont 73.8583 sf 0 0 m (ATLAS) show NC gr 
 gsave  2268 1108 0 475 C 634.843 1405.51 t 0 r /Helvetica findfont 73.8583 sf 0 0 m (Internal) show NC gr 
 gr  gr showpage
end
%%EOF
