%!PS-Adobe-2.0 EPSF-2.0
%%BoundingBox:  0 0 567 396
%%Title: : LepPt2_CR1b3jNoZ
%%Creator: ROOT Version 6.20/06
%%CreationDate: Tue May 31 15:04:48 2022
%%DocumentNeededResources: ProcSet (FontSetInit)
%%EndComments
%%BeginProlog
80 dict begin
/s {stroke} def /l {lineto} def /m {moveto} def /t {translate} def
/r {rotate} def /rl {roll}  def /R {repeat} def
/d {rlineto} def /rm {rmoveto} def /gr {grestore} def /f {eofill} def
/c {setrgbcolor} def /black {0 setgray} def /sd {setdash} def
/cl {closepath} def /sf {scalefont setfont} def /lw {setlinewidth} def
/box {m dup 0 exch d exch 0 d 0 exch neg d cl} def
/NC{systemdict begin initclip end}def/C{NC box clip newpath}def
/bl {box s} def /bf {gsave box gsave f grestore 1 lw [] 0 sd s grestore} def /Y { 0 exch d} def /X { 0 d} def 
/K {{pop pop 0 moveto} exch kshow} bind def
/ita {/ang 15 def gsave [1 0 ang dup sin exch cos div 1 0 0] concat} def 
/mp {newpath /y exch def /x exch def} def
/side {[w .77 mul w .23 mul] .385 w mul sd w 0 l currentpoint t -144 r} def
/mr {mp x y w2 0 360 arc} def /m24 {mr s} def /m20 {mr f} def
/mb {mp x y w2 add m w2 neg 0 d 0 w neg d w 0 d 0 w d cl} def
/mt {mp x y w2 add m w2 neg w neg d w 0 d cl} def
/w4 {w 4 div} def
/w6 {w 6 div} def
/w8 {w 8 div} def
/m21 {mb f} def /m25 {mb s} def /m22 {mt f} def /m26{mt s} def
/m23 {mp x y w2 sub m w2 w d w neg 0 d cl f} def
/m27 {mp x y w2 add m w3 neg w2 neg d w3 w2 neg d w3 w2 d cl s} def
/m28 {mp x w2 sub y w2 sub w3 add m w3 0 d  0 w3 neg d w3 0 d 0 w3 d w3 0 d  0 w3 d w3 neg 0 d 0 w3 d w3 neg 0 d 0 w3 neg d w3 neg 0 d cl s } def
/m29 {mp gsave x w2 sub y w2 add w3 sub m currentpoint t 4 {side} repeat cl fill gr} def
/m30 {mp gsave x w2 sub y w2 add w3 sub m currentpoint t 4 {side} repeat cl s gr} def
/m31 {mp x y w2 sub m 0 w d x w2 sub y m w 0 d x w2 sub y w2 add m w w neg d x w2 sub y w2 sub m w w d s} def
/m32 {mp x y w2 sub m w2 w d w neg 0 d cl s} def
/m33 {mp x y w2 add m w3 neg w2 neg d w3 w2 neg d w3 w2 d cl f} def
/m34 {mp x w2 sub y w2 sub w3 add m w3 0 d  0 w3 neg d w3 0 d 0 w3 d w3 0 d  0 w3 d w3 neg 0 d 0 w3 d w3 neg 0 d 0 w3 neg d w3 neg 0 d cl f } def
/m35 {mp x y w2 add m w2 neg w2 neg d w2 w2 neg d w2 w2 d w2 neg w2 d x y w2 sub m 0 w d x w2 sub y m w 0 d s} def
/m36 {mb x w2 sub y w2 add m w w neg d x w2 sub y w2 sub m w w d s} def
/m37 {mp x y m w4 neg w2 d w4 neg w2 neg d w2 0 d  w4 neg w2 neg d w2 0 d w4 neg w2 d w2 0 d w4 neg w2 d w4 neg w2 neg d cl s} def
/m38 {mp x w4 sub y w2 add m w4 neg w4 neg d 0 w2 neg d w4 w4 neg d w2 0 d w4 w4 d 0 w2 d w4 neg w4 d w2 neg 0 d x y w2 sub m 0 w d x w2 sub y m w 0 d cl s} def
/m39 {mp x y m w4 neg w2 d w4 neg w2 neg d w2 0 d  w4 neg w2 neg d w2 0 d w4 neg w2 d w2 0 d w4 neg w2 d w4 neg w2 neg d cl f} def
/m40 {mp x y m w4 w2 d w4 w4 neg d w2 neg w4 neg d w2 w4 neg d w4 neg w4 neg d w4 neg w2 d w4 neg w2 neg d w4 neg w4 d w2 w4 d w2 neg w4 d w4 w4 d w4 w2 neg d cl s} def
/m41 {mp x y m w4 w2 d w4 w4 neg d w2 neg w4 neg d w2 w4 neg d w4 neg w4 neg d w4 neg w2 d w4 neg w2 neg d w4 neg w4 d w2 w4 d w2 neg w4 d w4 w4 d w4 w2 neg d cl f} def
/m42 {mp x y w2 add m w8 neg w2 -3 4 div mul d w2 -3 4 div mul w8 neg d w2 3 4 div mul w8 neg d w8 w2 -3 4 div mul d w8 w2 3 4 div mul d w2 3 4 div mul w8 d w2 -3 4 div mul w8 d w8 neg w2 3 4 div mul d cl s} def
/m43 {mp x y w2 add m w8 neg w2 -3 4 div mul d w2 -3 4 div mul w8 neg d w2 3 4 div mul w8 neg d w8 w2 -3 4 div mul d w8 w2 3 4 div mul d w2 3 4 div mul w8 d w2 -3 4 div mul w8 d w8 neg w2 3 4 div mul d cl f} def
/m44 {mp x y m w6 neg w2 d w2 2 3 div mul 0 d w6 neg w2 neg d w2 w6 d 0 w2 -2 3 div mul d w2 neg w6 d w6 w2 neg d w2 -2 3 div mul 0 d w6 w2 d w2 neg w6 neg d 0 w2 2 3 div mul d w2 w6 neg d cl s} def
/m45 {mp x y m w6 neg w2 d w2 2 3 div mul 0 d w6 neg w2 neg d w2 w6 d 0 w2 -2 3 div mul d w2 neg w6 d w6 w2 neg d w2 -2 3 div mul 0 d w6 w2 d w2 neg w6 neg d 0 w2 2 3 div mul d w2 w6 neg d cl f} def
/m46 {mp x y w4 add m w4 neg w4 d w4 neg w4 neg d  w4 w4 neg d w4 neg w4 neg d w4 w4 neg d w4 w4 d w4 w4 neg d w4 w4 d w4 neg w4 d w4 w4 d w4 neg w4 d w4 neg w4 neg d cl s} def
/m47 {mp x y w4 add m w4 neg w4 d w4 neg w4 neg d w4 w4 neg d w4 neg w4 neg d  w4 w4 neg d w4 w4 d w4 w4 neg d w4 w4 d w4 neg w4 d w4 w4 d w4 neg w4 d w4 neg w4 neg d cl f} def
/m48 {mp x y w4 add m w4 neg w4 d w4 neg w4 neg d w4 w4 neg d  w4 neg w4 neg d w4 w4 neg d w4 w4 d w4 w4 neg d w4 w4 d w4 neg w4 d w4 w4 d w4 neg w4 d w4 neg w4 neg d  w4 w4 neg d w4 neg w4 neg d w4 neg w4 d w4 w4 d cl f} def
/m49 {mp x w2 sub w3 add y w2 sub w3 add m  0 w3 neg d w3 0 d 0 w3 d w3 0 d 0 w3 d w3 neg 0 d 0 w3 d w3 neg 0 d 0 w3 neg d w3 neg 0 d 0 w3 neg d w3 0 d 0 w3 d w3 0 d 0 w3 neg d w3 neg 0 d cl f } def
/m2 {mp x y w2 sub m 0 w d x w2 sub y m w 0 d s} def
/m5 {mp x w2 sub y w2 sub m w w d x w2 sub y w2 add m w w neg d s} def
%%IncludeResource: ProcSet (FontSetInit)
%%IncludeResource: font Times-Roman
%%IncludeResource: font Times-Italic
%%IncludeResource: font Times-Bold
%%IncludeResource: font Times-BoldItalic
%%IncludeResource: font Helvetica
%%IncludeResource: font Helvetica-Oblique
%%IncludeResource: font Helvetica-Bold
%%IncludeResource: font Helvetica-BoldOblique
%%IncludeResource: font Courier
%%IncludeResource: font Courier-Oblique
%%IncludeResource: font Courier-Bold
%%IncludeResource: font Courier-BoldOblique
%%IncludeResource: font Symbol
%%IncludeResource: font ZapfDingbats
/reEncode {exch findfont dup length dict begin {1 index /FID eq  {pop pop} {def} ifelse } forall /Encoding exch def currentdict end dup /FontName get exch definefont pop } def [/Times-Bold /Times-Italic /Times-BoldItalic /Helvetica /Helvetica-Oblique
 /Helvetica-Bold /Helvetica-BoldOblique /Courier /Courier-Oblique /Courier-Bold /Courier-BoldOblique /Times-Roman /AvantGarde-Book /AvantGarde-BookOblique /AvantGarde-Demi /AvantGarde-DemiOblique /Bookman-Demi /Bookman-DemiItalic /Bookman-Light
 /Bookman-LightItalic /Helvetica-Narrow /Helvetica-Narrow-Bold /Helvetica-Narrow-BoldOblique /Helvetica-Narrow-Oblique /NewCenturySchlbk-Roman /NewCenturySchlbk-Bold /NewCenturySchlbk-BoldItalic /NewCenturySchlbk-Italic /Palatino-Bold
 /Palatino-BoldItalic /Palatino-Italic /Palatino-Roman ] {ISOLatin1Encoding reEncode } forall
%%EndProlog
%%BeginSetup
%%EndSetup
newpath  gsave  .25 .25 scale  gsave  0 0 t black[  ] 0 sd 3 lw 1 1 1 c 2268 1583 0 0 bf black 1 1 1 c 2268 475 0 0 bf black 1 1 1 c 1927 275 227 190 bf black 1927 275 227 190 bl 227 190 m 1927 X s 227 202 m -12 Y s 304 196 m -6 Y s 381 196 m -6 Y s
 458 196 m -6 Y s 535 196 m -6 Y s 612 202 m -12 Y s 689 196 m -6 Y s 766 196 m -6 Y s 844 196 m -6 Y s 921 196 m -6 Y s 998 202 m -12 Y s 1075 196 m -6 Y s 1152 196 m -6 Y s 1229 196 m -6 Y s 1306 196 m -6 Y s 1383 202 m -12 Y s 1460 196 m -6 Y s
 1538 196 m -6 Y s 1615 196 m -6 Y s 1692 196 m -6 Y s 1769 202 m -12 Y s 1846 196 m -6 Y s 1923 196 m -6 Y s 2000 196 m -6 Y s 2077 196 m -6 Y s 2154 202 m -12 Y s
 gsave  2268 475 0 0 C 209.646 126.968 t 0 r /Helvetica findfont 53.4154 sf 0 0 m (0) show NC gr 
 gsave  2268 475 0 0 C 581.693 126.968 t 0 r /Helvetica findfont 53.4154 sf 0 0 m (50) show NC gr 
 gsave  2268 475 0 0 C 950.787 126.968 t 0 r /Helvetica findfont 53.4154 sf 0 0 m (100) show NC gr 
 gsave  2268 475 0 0 C 1337.6 126.968 t 0 r /Helvetica findfont 53.4154 sf 0 0 m (150) show NC gr 
 gsave  2268 475 0 0 C 1724.41 126.968 t 0 r /Helvetica findfont 53.4154 sf 0 0 m (200) show NC gr 
 gsave  2268 475 0 0 C 2108.27 126.968 t 0 r /Helvetica findfont 53.4154 sf 0 0 m (250) show NC gr 
 gsave  2268 475 0 0 C 1978.35 53.1496 t 0 r /Helvetica findfont 56.3829 sf 0 0 m (\) [GeV]) show NC gr 
 gsave  2268 475 0 0 C 1957.68 20.6693 t 0 r /Helvetica findfont 38.5778 sf 0 0 m (2) show NC gr 
 gsave  2268 475 0 0 C 1863.19 53.1496 t 0 r /Helvetica findfont 56.3829 sf 0 0 m (\(lep) show NC gr 
 gsave  2268 475 0 0 C 1839.57 20.6693 t 0 r /Helvetica findfont 38.5778 sf 0 0 m (T) show NC gr 
 gsave  2268 475 0 0 C 1804.13 53.1496 t 0 r /Helvetica-Oblique findfont 56.3829 sf 0 0 m (p) show NC gr  227 465 m 1927 X s 227 453 m 12 Y s 304 459 m 6 Y s 381 459 m 6 Y s 458 459 m 6 Y s 535 459 m 6 Y s 612 453 m 12 Y s 689 459 m 6 Y s 766 459 m 6
 Y s 844 459 m 6 Y s 921 459 m 6 Y s 998 453 m 12 Y s 1075 459 m 6 Y s 1152 459 m 6 Y s 1229 459 m 6 Y s 1306 459 m 6 Y s 1383 453 m 12 Y s 1460 459 m 6 Y s 1538 459 m 6 Y s 1615 459 m 6 Y s 1692 459 m 6 Y s 1769 453 m 12 Y s 1846 459 m 6 Y s 1923
 459 m 6 Y s 2000 459 m 6 Y s 2077 459 m 6 Y s 2154 453 m 12 Y s 227 190 m 275 Y s 240 242 m -13 X s 240 328 m -13 X s 240 414 m -13 X s 240 242 m -13 X s 240 414 m -13 X s
 gsave  2268 475 0 0 C 118.11 221.457 t 0 r /Helvetica findfont 53.4154 sf 0 0 m (0.5) show NC gr 
 gsave  2268 475 0 0 C 171.26 307.087 t 0 r /Helvetica findfont 53.4154 sf 0 0 m (1) show NC gr 
 gsave  2268 475 0 0 C 118.11 395.669 t 0 r /Helvetica findfont 53.4154 sf 0 0 m (1.5) show NC gr 
 gsave  2268 475 0 0 C 70.8661 233.268 t 90 r /Helvetica findfont 53.4154 sf 0 0 m (Data / SM) show NC gr  2154 190 m 275 Y s 2141 242 m 13 X s 2141 328 m 13 X s 2141 414 m 13 X s 2141 242 m 13 X s 2141 414 m 13 X s 227 190 m 1927 X s 227 465 m 1927
 X s 227 190 m 275 Y s[ 4 8] 0 sd 2154 242 m -1927 X s 2154 328 m -1927 X s 2154 414 m -1927 X s 2154 242 m -1927 X s 2154 414 m -1927 X s[  ] 0 sd 2154 190 m 275 Y s 1 1 0.6 c 193 0 227 328 bf 192 0 420 328 bf 193 0 612 328 bf 193 0 805 328 bf 193 0
 998 328 bf 192 0 1191 328 bf 193 0 1383 328 bf 193 0 1576 328 bf 193 0 1769 328 bf 192 0 1962 328 bf black 0.6 0.6 0.6 c 420 325 m -1 -1 d s 406 331 m -6 -7 d s 387 331 m -7 -7 d s 368 331 m -7 -7 d s 349 331 m -7 -7 d s 329 331 m -6 -7 d s 310 331
 m -7 -7 d s 291 331 m -7 -7 d s 272 331 m -7 -7 d s 252 331 m -6 -7 d s 233 331 m -6 -6 d s 612 325 m s 598 331 m -6 -6 d s 579 331 m -6 -6 d s 560 331 m -6 -6 d s 541 331 m -6 -6 d s 521 331 m -6 -6 d s 502 331 m -6 -6 d s 483 331 m -6 -6 d s 464
 331 m -6 -6 d s 444 331 m -6 -6 d s 425 331 m -5 -6 d s 805 326 m -3 -3 d s 792 332 m -9 -9 d s 773 332 m -9 -9 d s 754 332 m -9 -9 d s 735 332 m -10 -9 d s 715 332 m -9 -9 d s 696 332 m -9 -9 d s 677 332 m -9 -9 d s 658 332 m -10 -9 d s 639 332 m
 -10 -9 d s 619 332 m -7 -7 d s 998 326 m -7 -7 d s 988 336 m -16 -17 d s 969 336 m -16 -17 d s 950 336 m -16 -17 d s 931 336 m -17 -17 d s 911 336 m -16 -17 d s 892 336 m -16 -17 d s 873 336 m -16 -17 d s 854 336 m -17 -17 d s 834 336 m -16 -17 d s
 815 336 m -10 -10 d s 1191 326 m -12 -11 d s 1185 340 m -25 -25 d s 1166 340 m -25 -25 d s 1147 340 m -26 -25 d s 1128 340 m -26 -25 d s 1108 340 m -25 -25 d s 1089 340 m -25 -25 d s 1070 340 m -26 -25 d s 1051 340 m -26 -25 d s 1031 340 m -25 -25 d
 s 1012 340 m -14 -14 d s 1383 307 m s 1383 327 m -19 -20 d s 1383 346 m -38 -39 d s 1366 348 m -41 -41 d s 1347 348 m -41 -41 d s 1328 348 m -41 -41 d s 1309 348 m -41 -41 d s 1289 348 m -41 -41 d s 1270 348 m -41 -41 d s 1251 348 m -41 -41 d s 1232
 348 m -41 -41 d s 1212 348 m -21 -22 d s 1193 348 m -2 -2 d s 1576 308 m -7 -8 d s 1576 327 m -26 -27 d s 1576 346 m -46 -46 d s 1565 355 m -54 -55 d s 1546 355 m -54 -55 d s 1527 355 m -54 -55 d s 1508 355 m -55 -55 d s 1488 355 m -54 -55 d s 1469
 355 m -54 -55 d s 1450 355 m -54 -55 d s 1431 355 m -48 -48 d s 1411 355 m -28 -28 d s 1392 355 m -9 -9 d s 1769 289 m -4 -4 d s 1769 308 m -23 -23 d s 1769 327 m -43 -42 d s 1769 347 m -62 -62 d s 1769 366 m -81 -81 d s 1754 371 m -85 -86 d s 1735
 371 m -86 -86 d s 1716 371 m -86 -86 d s 1697 371 m -86 -86 d s 1677 371 m -85 -86 d s 1658 371 m -82 -83 d s 1639 371 m -63 -63 d s 1620 371 m -44 -44 d s 1600 371 m -24 -25 d s 1581 371 m -5 -5 d s 1962 289 m -9 -9 d s 1962 308 m -29 -28 d s 1962
 328 m -48 -48 d s 1962 347 m -67 -67 d s 1962 366 m -86 -86 d s 1951 375 m -95 -95 d s 1932 375 m -95 -95 d s 1913 375 m -95 -95 d s 1894 375 m -95 -95 d s 1874 375 m -95 -95 d s 1855 375 m -86 -86 d s 1836 375 m -67 -67 d s 1817 375 m -48 -48 d s
 1797 375 m -28 -28 d s 1778 375 m -9 -9 d s 2154 251 m -8 -9 d s 2154 270 m -27 -28 d s 2154 289 m -47 -47 d s 2154 309 m -66 -67 d s 2154 328 m -85 -86 d s 2154 347 m -104 -105 d s 2154 367 m -124 -125 d s 2154 386 m -143 -144 d s 2154 405 m -162
 -163 d s 2143 413 m -170 -171 d s 2124 413 m -162 -163 d s 2104 413 m -142 -143 d s 2085 413 m -123 -124 d s 2066 413 m -104 -105 d s 2047 413 m -85 -85 d s 2027 413 m -65 -66 d s 2008 413 m -46 -47 d s 1989 413 m -27 -27 d s 1970 413 m -8 -8 d s
 black 1 1 1 c black 323 272 m 5 Y s 323 300 m 5 Y s /w 26 def /w2 {w 2 div} def /w3 {w 3 div} def 323 289 m20 516 299 m20 709 321 m 7 Y s 709 352 m 7 Y s 709 340 m20 901 350 m 21 Y s 901 395 m 21 Y s 901 383 m20 1094 305 m 35 Y s 1094 363 m 35 Y s
 1094 351 m20 1287 190 m 32 Y s 1287 246 m 33 Y s 1287 234 m20 1480 244 m 77 Y s 1480 345 m 77 Y s 1480 333 m20 1672 190 m 58 Y s 1672 271 m 93 Y s 1672 260 m20 227 328 m 1927 X s 227 190 m 1927 X s 227 202 m -12 Y s 304 196 m -6 Y s 381 196 m -6 Y s
 458 196 m -6 Y s 535 196 m -6 Y s 612 202 m -12 Y s 689 196 m -6 Y s 766 196 m -6 Y s 844 196 m -6 Y s 921 196 m -6 Y s 998 202 m -12 Y s 1075 196 m -6 Y s 1152 196 m -6 Y s 1229 196 m -6 Y s 1306 196 m -6 Y s 1383 202 m -12 Y s 1460 196 m -6 Y s
 1538 196 m -6 Y s 1615 196 m -6 Y s 1692 196 m -6 Y s 1769 202 m -12 Y s 1846 196 m -6 Y s 1923 196 m -6 Y s 2000 196 m -6 Y s 2077 196 m -6 Y s 2154 202 m -12 Y s 227 465 m 1927 X s 227 453 m 12 Y s 304 459 m 6 Y s 381 459 m 6 Y s 458 459 m 6 Y s
 535 459 m 6 Y s 612 453 m 12 Y s 689 459 m 6 Y s 766 459 m 6 Y s 844 459 m 6 Y s 921 459 m 6 Y s 998 453 m 12 Y s 1075 459 m 6 Y s 1152 459 m 6 Y s 1229 459 m 6 Y s 1306 459 m 6 Y s 1383 453 m 12 Y s 1460 459 m 6 Y s 1538 459 m 6 Y s 1615 459 m 6 Y
 s 1692 459 m 6 Y s 1769 453 m 12 Y s 1846 459 m 6 Y s 1923 459 m 6 Y s 2000 459 m 6 Y s 2077 459 m 6 Y s 2154 453 m 12 Y s 227 190 m 275 Y s 240 242 m -13 X s 240 328 m -13 X s 240 414 m -13 X s 240 242 m -13 X s 240 414 m -13 X s 2154 190 m 275 Y s
 2141 242 m 13 X s 2141 328 m 13 X s 2141 414 m 13 X s 2141 242 m 13 X s 2141 414 m 13 X s 1 1 1 c 2268 1108 0 475 bf black 1 1 1 c 1927 1041 227 486 bf black 1927 1041 227 486 bl 1 1 1 c black 3 lw 227 486 m 1927 X s 227 505 m -19 Y s 304 495 m -9 Y
 s 381 495 m -9 Y s 458 495 m -9 Y s 535 495 m -9 Y s 612 505 m -19 Y s 689 495 m -9 Y s 766 495 m -9 Y s 844 495 m -9 Y s 921 495 m -9 Y s 998 505 m -19 Y s 1075 495 m -9 Y s 1152 495 m -9 Y s 1229 495 m -9 Y s 1306 495 m -9 Y s 1383 505 m -19 Y s
 1460 495 m -9 Y s 1538 495 m -9 Y s 1615 495 m -9 Y s 1692 495 m -9 Y s 1769 505 m -19 Y s 1846 495 m -9 Y s 1923 495 m -9 Y s 2000 495 m -9 Y s 2077 495 m -9 Y s 2154 505 m -19 Y s
 gsave  2268 1108 0 475 C 2049.21 407.48 t 0 r /Helvetica findfont 32.4976 sf 0 0 m (\) [GeV]) show NC gr 
 gsave  2268 1108 0 475 C 2037.4 389.764 t 0 r /Helvetica findfont 20.6803 sf 0 0 m (2) show NC gr 
 gsave  2268 1108 0 475 C 1981.3 407.48 t 0 r /Helvetica findfont 32.4976 sf 0 0 m (\(lep) show NC gr 
 gsave  2268 1108 0 475 C 1966.54 389.764 t 0 r /Helvetica findfont 20.6803 sf 0 0 m (T) show NC gr 
 gsave  2268 1108 0 475 C 1945.87 407.48 t 0 r /Helvetica-Oblique findfont 32.4976 sf 0 0 m (p) show NC gr  227 1527 m 1927 X s 227 1508 m 19 Y s 304 1518 m 9 Y s 381 1518 m 9 Y s 458 1518 m 9 Y s 535 1518 m 9 Y s 612 1508 m 19 Y s 689 1518 m 9 Y s
 766 1518 m 9 Y s 844 1518 m 9 Y s 921 1518 m 9 Y s 998 1508 m 19 Y s 1075 1518 m 9 Y s 1152 1518 m 9 Y s 1229 1518 m 9 Y s 1306 1518 m 9 Y s 1383 1508 m 19 Y s 1460 1518 m 9 Y s 1538 1518 m 9 Y s 1615 1518 m 9 Y s 1692 1518 m 9 Y s 1769 1508 m 19 Y
 s 1846 1518 m 9 Y s 1923 1518 m 9 Y s 2000 1518 m 9 Y s 2077 1518 m 9 Y s 2154 1508 m 19 Y s 227 486 m 1041 Y s 248 599 m -21 X s 237 622 m -10 X s 237 645 m -10 X s 237 667 m -10 X s 237 690 m -10 X s 248 713 m -21 X s 237 735 m -10 X s 237 758 m
 -10 X s 237 781 m -10 X s 237 803 m -10 X s 248 826 m -21 X s 237 849 m -10 X s 237 872 m -10 X s 237 894 m -10 X s 237 917 m -10 X s 248 940 m -21 X s 237 962 m -10 X s 237 985 m -10 X s 237 1008 m -10 X s 237 1030 m -10 X s 248 1053 m -21 X s 237
 1076 m -10 X s 237 1098 m -10 X s 237 1121 m -10 X s 237 1144 m -10 X s 248 1166 m -21 X s 237 1189 m -10 X s 237 1212 m -10 X s 237 1234 m -10 X s 237 1257 m -10 X s 248 1280 m -21 X s 237 1303 m -10 X s 237 1325 m -10 X s 237 1348 m -10 X s 237
 1371 m -10 X s 248 1393 m -21 X s 237 1416 m -10 X s 237 1439 m -10 X s 237 1461 m -10 X s 237 1484 m -10 X s 248 1507 m -21 X s 248 599 m -21 X s 237 577 m -10 X s 237 554 m -10 X s 237 531 m -10 X s 237 509 m -10 X s 248 1507 m -21 X s
 gsave  2268 1108 0 475 C 141.732 578.74 t 0 r /Helvetica findfont 53.178 sf 0 0 m (50) show NC gr 
 gsave  2268 1108 0 475 C 112.205 693.898 t 0 r /Helvetica findfont 53.178 sf 0 0 m (100) show NC gr 
 gsave  2268 1108 0 475 C 112.205 806.102 t 0 r /Helvetica findfont 53.178 sf 0 0 m (150) show NC gr 
 gsave  2268 1108 0 475 C 112.205 921.26 t 0 r /Helvetica findfont 53.178 sf 0 0 m (200) show NC gr 
 gsave  2268 1108 0 475 C 112.205 1033.46 t 0 r /Helvetica findfont 53.178 sf 0 0 m (250) show NC gr 
 gsave  2268 1108 0 475 C 112.205 1148.62 t 0 r /Helvetica findfont 53.178 sf 0 0 m (300) show NC gr 
 gsave  2268 1108 0 475 C 112.205 1260.83 t 0 r /Helvetica findfont 53.178 sf 0 0 m (350) show NC gr 
 gsave  2268 1108 0 475 C 112.205 1373.03 t 0 r /Helvetica findfont 53.178 sf 0 0 m (400) show NC gr 
 gsave  2268 1108 0 475 C 112.205 1488.19 t 0 r /Helvetica findfont 53.178 sf 0 0 m (450) show NC gr 
 gsave  2268 1108 0 475 C 64.9606 1142.72 t 90 r /Helvetica findfont 53.178 sf 0 0 m (Events / 25 GeV) show NC gr  2154 486 m 1041 Y s 2133 599 m 21 X s 2144 622 m 10 X s 2144 645 m 10 X s 2144 667 m 10 X s 2144 690 m 10 X s 2133 713 m 21 X s 2144
 735 m 10 X s 2144 758 m 10 X s 2144 781 m 10 X s 2144 803 m 10 X s 2133 826 m 21 X s 2144 849 m 10 X s 2144 872 m 10 X s 2144 894 m 10 X s 2144 917 m 10 X s 2133 940 m 21 X s 2144 962 m 10 X s 2144 985 m 10 X s 2144 1008 m 10 X s 2144 1030 m 10 X s
 2133 1053 m 21 X s 2144 1076 m 10 X s 2144 1098 m 10 X s 2144 1121 m 10 X s 2144 1144 m 10 X s 2133 1166 m 21 X s 2144 1189 m 10 X s 2144 1212 m 10 X s 2144 1234 m 10 X s 2144 1257 m 10 X s 2133 1280 m 21 X s 2144 1303 m 10 X s 2144 1325 m 10 X s
 2144 1348 m 10 X s 2144 1371 m 10 X s 2133 1393 m 21 X s 2144 1416 m 10 X s 2144 1439 m 10 X s 2144 1461 m 10 X s 2144 1484 m 10 X s 2133 1507 m 21 X s 2133 599 m 21 X s 2144 577 m 10 X s 2144 554 m 10 X s 2144 531 m 10 X s 2144 509 m 10 X s 2133
 1507 m 21 X s 0.4 0.6 0.4 c black 3 lw 0.4 0.6 0.4 c 227 486 m 191 Y 193 X 357 Y 192 X -349 Y 193 X -118 Y 193 X -45 Y 193 X -21 Y 192 X -6 Y 193 X -5 Y 193 X -1 Y 193 X 1 Y 192 X -4 Y f 0.06 0.54 0.06 c 0.999 0.999 0.999 c black 3 lw 0.999 0.999
 0.999 c 227 486 m 58 Y 193 X 219 Y 192 X -116 Y 193 X -86 Y 193 X -40 Y 193 X -21 Y 192 X -5 Y 193 X -5 Y 193 X -1 Y 385 X -3 Y f 0.06 0.54 0.06 c 0.999 0.999 0.999 c 0.06 0.54 0.06 c 1 1 1 c black 0.06 0.54 0.06 c black 3 lw 0.06 0.54 0.06 c 227
 486 m 58 Y 193 X 219 Y 192 X -116 Y 193 X -86 Y 193 X -40 Y 193 X -21 Y 192 X -5 Y 193 X -5 Y 193 X -1 Y 385 X -3 Y f 1 0.653333 0 c 0.999 0.999 0.999 c black 3 lw 0.999 0.999 0.999 c 227 486 m 45 Y 193 X 162 Y 192 X -112 Y 193 X -61 Y 193 X -21 Y
 193 X -8 Y 192 X -2 Y 193 X -2 Y 386 X 2 Y 192 X -3 Y f 1 0.653333 0 c 0.999 0.999 0.999 c 1 0.653333 0 c 1 1 1 c black 1 0.653333 0 c black 3 lw 1 0.653333 0 c 227 486 m 45 Y 193 X 162 Y 192 X -112 Y 193 X -61 Y 193 X -21 Y 193 X -8 Y 192 X -2 Y
 193 X -2 Y 386 X 2 Y 192 X -3 Y f 0.413333 1 0 c 0.999 0.999 0.999 c black 3 lw 0.999 0.999 0.999 c 227 486 m 41 Y 193 X 163 Y 192 X -109 Y 193 X -63 Y 193 X -20 Y 193 X -7 Y 192 X -2 Y 193 X -2 Y 578 X -1 Y f 0.413333 1 0 c 0.999 0.999 0.999 c
 0.413333 1 0 c 1 1 1 c black 0.413333 1 0 c black 3 lw 0.413333 1 0 c 227 486 m 41 Y 193 X 163 Y 192 X -109 Y 193 X -63 Y 193 X -20 Y 193 X -7 Y 192 X -2 Y 193 X -2 Y 578 X -1 Y f 0.6 0.2 1 c 0.999 0.999 0.999 c black 3 lw 0.999 0.999 0.999 c 227
 486 m 26 Y 193 X 106 Y 192 X -65 Y 193 X -44 Y 193 X -15 Y 193 X -5 Y 192 X -2 Y 386 X -1 Y 193 X 1 Y 192 X -1 Y f 0.6 0.2 1 c 0.999 0.999 0.999 c 0.6 0.2 1 c 1 1 1 c black 0.6 0.2 1 c black 3 lw 0.6 0.2 1 c 227 486 m 26 Y 193 X 106 Y 192 X -65 Y
 193 X -44 Y 193 X -15 Y 193 X -5 Y 192 X -2 Y 386 X -1 Y 193 X 1 Y 192 X -1 Y f 0.54 0.06 0.06 c 0.999 0.999 0.999 c black 3 lw 0.999 0.999 0.999 c 227 486 m 23 Y 193 X 96 Y 192 X -58 Y 193 X -41 Y 193 X -13 Y 193 X -4 Y 192 X -2 Y 193 X -1 Y 578 X
 f 0.54 0.06 0.06 c 0.999 0.999 0.999 c 0.54 0.06 0.06 c 1 1 1 c black 0.54 0.06 0.06 c black 3 lw 0.54 0.06 0.06 c 227 486 m 23 Y 193 X 96 Y 192 X -58 Y 193 X -41 Y 193 X -13 Y 193 X -4 Y 192 X -2 Y 193 X -1 Y 578 X f 1 0 1 c 0.999 0.999 0.999 c
 black 3 lw 0.999 0.999 0.999 c 227 486 m 8 Y 193 X 30 Y 192 X -22 Y 193 X -11 Y 193 X -4 Y 193 X -1 Y 963 X f 1 0 1 c 0.999 0.999 0.999 c 1 0 1 c 1 1 1 c black 1 0 1 c black 3 lw 1 0 1 c 227 486 m 8 Y 193 X 30 Y 192 X -22 Y 193 X -11 Y 193 X -4 Y
 193 X -1 Y 963 X f 0 0 1 c 0.999 0.999 0.999 c black 3 lw 0.999 0.999 0.999 c 227 486 m 4 Y 193 X 13 Y 192 X -9 Y 193 X -6 Y 193 X -1 Y 193 X -1 Y 963 X f 0 0 1 c 0.999 0.999 0.999 c 0 0 1 c 1 1 1 c black 0 0 1 c black 3 lw 0 0 1 c 227 486 m 4 Y 193
 X 13 Y 192 X -9 Y 193 X -6 Y 193 X -1 Y 193 X -1 Y 963 X f 0.2 0.8 0.8 c 0.999 0.999 0.999 c black 3 lw 0.999 0.999 0.999 c 227 486 m 2 Y 193 X 7 Y 192 X -4 Y 193 X -4 Y 193 X -1 Y 1156 X f 0.2 0.8 0.8 c 0.999 0.999 0.999 c 0.2 0.8 0.8 c 1 1 1 c
 black 0.2 0.8 0.8 c black 3 lw 0.2 0.8 0.8 c 227 486 m 2 Y 193 X 7 Y 192 X -4 Y 193 X -4 Y 193 X -1 Y 1156 X f 1 0 0 c 0.999 0.999 0.999 c black 3 lw 0.999 0.999 0.999 c 227 486 m 1 Y 193 X 5 Y 192 X -3 Y 193 X -3 Y 1349 X f 1 0 0 c 0.999 0.999
 0.999 c 1 0 0 c 1 1 1 c black 1 0 0 c black 3 lw 1 0 0 c 227 486 m 1 Y 193 X 5 Y 192 X -3 Y 193 X -3 Y 1349 X f 1 0.84 0 c 0.999 0.999 0.999 c black 3 lw 0.999 0.999 0.999 c 227 486 m 1 Y 193 X 3 Y 192 X -2 Y 193 X -2 Y 1349 X f 1 0.84 0 c 0.999
 0.999 0.999 c 1 0.84 0 c 1 1 1 c black 1 0.84 0 c black 3 lw 1 0.84 0 c 227 486 m 1 Y 193 X 3 Y 192 X -2 Y 193 X -2 Y 1349 X f black 1 1 1 c black 0.6 0.6 0.6 c 3 lw 418 680 m -8 -7 d s 398 680 m -7 -7 d s 379 680 m -7 -7 d s 360 680 m -7 -7 d s 341
 680 m -8 -7 d s 321 680 m -7 -7 d s 302 680 m -7 -7 d s 283 680 m -7 -7 d s 264 680 m -8 -7 d s 244 680 m -7 -7 d s 3 lw 612 1028 m -4 -4 d s 608 1044 m -19 -20 d s 589 1044 m -19 -20 d s 570 1044 m -19 -20 d s 551 1044 m -19 -20 d s 531 1044 m -19
 -20 d s 512 1044 m -19 -20 d s 493 1044 m -19 -20 d s 474 1044 m -19 -20 d s 455 1044 m -20 -20 d s 435 1044 m -15 -16 d s 3 lw 805 683 m -3 -4 d s 793 690 m -11 -11 d s 774 690 m -11 -11 d s 755 690 m -11 -11 d s 735 690 m -10 -11 d s 716 690 m -11
 -11 d s 697 690 m -11 -11 d s 678 690 m -11 -11 d s 659 690 m -11 -11 d s 639 690 m -11 -11 d s 620 690 m -8 -7 d s 3 lw 998 568 m -6 -5 d s 981 570 m -8 -7 d s 962 570 m -8 -7 d s 942 570 m -7 -7 d s 923 570 m -7 -7 d s 904 570 m -8 -7 d s 885 570
 m -8 -7 d s 865 570 m -7 -7 d s 846 570 m -7 -7 d s 827 570 m -8 -7 d s 808 570 m -3 -2 d s 3 lw 1185 524 m -5 -5 d s 1166 524 m -6 -5 d s 1147 524 m -6 -5 d s 1127 524 m -5 -5 d s 1108 524 m -5 -5 d s 1089 524 m -6 -5 d s 1070 524 m -6 -5 d s 1050
 524 m -5 -5 d s 1031 524 m -5 -5 d s 1012 524 m -6 -5 d s 3 lw 1375 503 m -4 -4 d s 1356 503 m -4 -4 d s 1336 503 m -3 -4 d s 1317 503 m -4 -4 d s 1298 503 m -4 -4 d s 1279 503 m -4 -4 d s 1259 503 m -3 -4 d s 1240 503 m -3 -4 d s 1221 503 m -4 -4 d
 s 1202 503 m -4 -4 d s 3 lw 1561 496 m -3 -3 d s 1541 496 m -2 -3 d s 1522 496 m -3 -3 d s 1503 496 m -3 -3 d s 1484 496 m -3 -3 d s 1464 496 m -2 -3 d s 1445 496 m -3 -3 d s 1426 496 m -3 -3 d s 1407 496 m -3 -3 d s 1387 496 m -2 -3 d s 3 lw 1767
 491 m -2 -2 d s 1748 491 m -2 -2 d s 1728 491 m -2 -2 d s 1709 491 m -2 -2 d s 1690 491 m -2 -2 d s 1671 491 m -2 -2 d s 1651 491 m -2 -2 d s 1632 491 m -2 -2 d s 1613 491 m -2 -2 d s 1594 491 m -2 -2 d s 3 lw 1958 489 m -1 -1 d s 1939 489 m -2 -1 d
 s 1920 489 m -2 -1 d s 1900 489 m -1 -1 d s 1881 489 m -1 -1 d s 1862 489 m -2 -1 d s 1843 489 m -2 -1 d s 1823 489 m -1 -1 d s 1804 489 m -1 -1 d s 1785 489 m -2 -1 d s 3 lw 2153 491 m -4 -3 d s 2133 491 m -3 -3 d s 2114 491 m -4 -3 d s 2095 491 m
 -4 -3 d s 2076 491 m -4 -3 d s 2056 491 m -3 -3 d s 2037 491 m -4 -3 d s 2018 491 m -4 -3 d s 1999 491 m -4 -3 d s 1979 491 m -3 -3 d s black 3 lw 1 1 1 c black 323 615 m 7 Y s 323 645 m 7 Y s /w 24 def /w2 {w 2 div} def /w3 {w 3 div} def 323 633
 m20 516 910 m 20 Y s 516 954 m 20 Y s 516 942 m20 709 677 m 10 Y s 709 711 m 10 Y s 709 699 m20 901 577 m 4 Y s 901 604 m 4 Y s 901 592 m20 1094 527 m20 1287 493 m20 1480 495 m20 1672 488 m20 1865 493 m20 227 486 m 1927 X s 227 505 m -19 Y s 304 495
 m -9 Y s 381 495 m -9 Y s 458 495 m -9 Y s 535 495 m -9 Y s 612 505 m -19 Y s 689 495 m -9 Y s 766 495 m -9 Y s 844 495 m -9 Y s 921 495 m -9 Y s 998 505 m -19 Y s 1075 495 m -9 Y s 1152 495 m -9 Y s 1229 495 m -9 Y s 1306 495 m -9 Y s 1383 505 m
 -19 Y s 1460 495 m -9 Y s 1538 495 m -9 Y s 1615 495 m -9 Y s 1692 495 m -9 Y s 1769 505 m -19 Y s 1846 495 m -9 Y s 1923 495 m -9 Y s 2000 495 m -9 Y s 2077 495 m -9 Y s 2154 505 m -19 Y s 227 1527 m 1927 X s 227 1508 m 19 Y s 304 1518 m 9 Y s 381
 1518 m 9 Y s 458 1518 m 9 Y s 535 1518 m 9 Y s 612 1508 m 19 Y s 689 1518 m 9 Y s 766 1518 m 9 Y s 844 1518 m 9 Y s 921 1518 m 9 Y s 998 1508 m 19 Y s 1075 1518 m 9 Y s 1152 1518 m 9 Y s 1229 1518 m 9 Y s 1306 1518 m 9 Y s 1383 1508 m 19 Y s 1460
 1518 m 9 Y s 1538 1518 m 9 Y s 1615 1518 m 9 Y s 1692 1518 m 9 Y s 1769 1508 m 19 Y s 1846 1518 m 9 Y s 1923 1518 m 9 Y s 2000 1518 m 9 Y s 2077 1518 m 9 Y s 2154 1508 m 19 Y s 227 486 m 1041 Y s 248 599 m -21 X s 237 622 m -10 X s 237 645 m -10 X s
 237 667 m -10 X s 237 690 m -10 X s 248 713 m -21 X s 237 735 m -10 X s 237 758 m -10 X s 237 781 m -10 X s 237 803 m -10 X s 248 826 m -21 X s 237 849 m -10 X s 237 872 m -10 X s 237 894 m -10 X s 237 917 m -10 X s 248 940 m -21 X s 237 962 m -10 X
 s 237 985 m -10 X s 237 1008 m -10 X s 237 1030 m -10 X s 248 1053 m -21 X s 237 1076 m -10 X s 237 1098 m -10 X s 237 1121 m -10 X s 237 1144 m -10 X s 248 1166 m -21 X s 237 1189 m -10 X s 237 1212 m -10 X s 237 1234 m -10 X s 237 1257 m -10 X s
 248 1280 m -21 X s 237 1303 m -10 X s 237 1325 m -10 X s 237 1348 m -10 X s 237 1371 m -10 X s 248 1393 m -21 X s 237 1416 m -10 X s 237 1439 m -10 X s 237 1461 m -10 X s 237 1484 m -10 X s 248 1507 m -21 X s 248 599 m -21 X s 237 577 m -10 X s 237
 554 m -10 X s 237 531 m -10 X s 237 509 m -10 X s 248 1507 m -21 X s 2154 486 m 1041 Y s 2133 599 m 21 X s 2144 622 m 10 X s 2144 645 m 10 X s 2144 667 m 10 X s 2144 690 m 10 X s 2133 713 m 21 X s 2144 735 m 10 X s 2144 758 m 10 X s 2144 781 m 10 X
 s 2144 803 m 10 X s 2133 826 m 21 X s 2144 849 m 10 X s 2144 872 m 10 X s 2144 894 m 10 X s 2144 917 m 10 X s 2133 940 m 21 X s 2144 962 m 10 X s 2144 985 m 10 X s 2144 1008 m 10 X s 2144 1030 m 10 X s 2133 1053 m 21 X s 2144 1076 m 10 X s 2144 1098
 m 10 X s 2144 1121 m 10 X s 2144 1144 m 10 X s 2133 1166 m 21 X s 2144 1189 m 10 X s 2144 1212 m 10 X s 2144 1234 m 10 X s 2144 1257 m 10 X s 2133 1280 m 21 X s 2144 1303 m 10 X s 2144 1325 m 10 X s 2144 1348 m 10 X s 2144 1371 m 10 X s 2133 1393 m
 21 X s 2144 1416 m 10 X s 2144 1439 m 10 X s 2144 1461 m 10 X s 2144 1484 m 10 X s 2133 1507 m 21 X s 2133 599 m 21 X s 2144 577 m 10 X s 2144 554 m 10 X s 2144 531 m 10 X s 2144 509 m 10 X s 2133 1507 m 21 X s
 gsave  2268 1108 0 475 C 1313.98 1437.99 t 0 r /Helvetica findfont 56.1323 sf 0 0 m ( Data) show NC gr  1259 1463 m 7 Y s 1259 1440 m -8 Y s 1259 1451 m20
 gsave  2268 1108 0 475 C 1777.56 1437.99 t 0 r /Helvetica findfont 56.1323 sf 0 0 m ( Fakes \(MM\)) show NC gr  0.4 0.6 0.4 c 1682 1429 m 79 X 44 Y -79 X f black
 gsave  2268 1108 0 475 C 1402.56 1375.98 t 0 r /Helvetica findfont 56.1323 sf 0 0 m (single\255top) show NC gr 
 gsave  2268 1108 0 475 C 1373.03 1375.98 t 0 r /Helvetica-Oblique findfont 56.1323 sf 0 0 m (/) show NC gr 
 gsave  2268 1108 0 475 C 1352.36 1375.98 t 0 r /Helvetica-Oblique findfont 56.1323 sf 0 0 m (t) show NC gr  6 lw 1352 1420 m 21 X s
 gsave  2268 1108 0 475 C 1331.69 1375.98 t 0 r /Helvetica-Oblique findfont 56.1323 sf 0 0 m (t) show NC gr 
 gsave  2268 1108 0 475 C 1313.98 1375.98 t 0 r /Helvetica findfont 56.1323 sf 0 0 m ( ) show NC gr  0.06 0.54 0.06 c 3 lw 1219 1366 m 79 X 44 Y -79 X f 6 lw black
 gsave  2268 1108 0 475 C 1907.48 1375.98 t 0 r /Helvetica findfont 56.1323 sf 0 0 m (+jets) show NC gr 
 gsave  2268 1108 0 475 C 1795.28 1375.98 t 0 r /Helvetica-Oblique findfont 56.1323 sf 0 0 m (W/Z) show NC gr 
 gsave  2268 1108 0 475 C 1777.56 1375.98 t 0 r /Helvetica findfont 56.1323 sf 0 0 m ( ) show NC gr  1 0.653333 0 c 3 lw 1682 1366 m 79 X 44 Y -79 X f black
 gsave  2268 1108 0 475 C 1511.81 1311.02 t 0 r /Helvetica findfont 56.1323 sf 0 0 m (+jets) show NC gr 
 gsave  2268 1108 0 475 C 1331.69 1311.02 t 0 r /Helvetica-Oblique findfont 56.1323 sf 0 0 m (WZ/ZZ) show NC gr 
 gsave  2268 1108 0 475 C 1313.98 1311.02 t 0 r /Helvetica findfont 56.1323 sf 0 0 m ( ) show NC gr  0.413333 1 0 c 3 lw 1219 1303 m 79 X 44 Y -79 X f black
 gsave  2268 1108 0 475 C 1836.61 1311.02 t 0 r /Helvetica-Oblique findfont 56.1323 sf 0 0 m (Z) show NC gr 
 gsave  2268 1108 0 475 C 1815.94 1311.02 t 0 r /Helvetica-Oblique findfont 56.1323 sf 0 0 m (t) show NC gr  6 lw 1816 1355 m 21 X s
 gsave  2268 1108 0 475 C 1795.28 1311.02 t 0 r /Helvetica-Oblique findfont 56.1323 sf 0 0 m (t) show NC gr 
 gsave  2268 1108 0 475 C 1777.56 1311.02 t 0 r /Helvetica findfont 56.1323 sf 0 0 m ( ) show NC gr  0.6 0.2 1 c 3 lw 1682 1303 m 79 X 44 Y -79 X f 6 lw black
 gsave  2268 1108 0 475 C 1373.03 1249.02 t 0 r /Helvetica-Oblique findfont 56.1323 sf 0 0 m (W) show NC gr 
 gsave  2268 1108 0 475 C 1352.36 1249.02 t 0 r /Helvetica-Oblique findfont 56.1323 sf 0 0 m (t) show NC gr  6 lw 1352 1293 m 21 X s
 gsave  2268 1108 0 475 C 1331.69 1249.02 t 0 r /Helvetica-Oblique findfont 56.1323 sf 0 0 m (t) show NC gr 
 gsave  2268 1108 0 475 C 1313.98 1249.02 t 0 r /Helvetica findfont 56.1323 sf 0 0 m ( ) show NC gr  0.54 0.06 0.06 c 3 lw 1219 1239 m 79 X 45 Y -79 X f 6 lw black
 gsave  2268 1108 0 475 C 1795.28 1249.02 t 0 r /Helvetica-Oblique findfont 56.1323 sf 0 0 m (tZq) show NC gr 
 gsave  2268 1108 0 475 C 1777.56 1249.02 t 0 r /Helvetica findfont 56.1323 sf 0 0 m ( ) show NC gr  1 0 1 c 3 lw 1682 1239 m 79 X 45 Y -79 X f black
 gsave  2268 1108 0 475 C 1373.03 1184.06 t 0 r /Helvetica-Oblique findfont 56.1323 sf 0 0 m (H) show NC gr 
 gsave  2268 1108 0 475 C 1352.36 1184.06 t 0 r /Helvetica-Oblique findfont 56.1323 sf 0 0 m (t) show NC gr  6 lw 1352 1228 m 21 X s
 gsave  2268 1108 0 475 C 1331.69 1184.06 t 0 r /Helvetica-Oblique findfont 56.1323 sf 0 0 m (t) show NC gr 
 gsave  2268 1108 0 475 C 1313.98 1184.06 t 0 r /Helvetica findfont 56.1323 sf 0 0 m ( ) show NC gr  0 0 1 c 3 lw 1219 1176 m 79 X 44 Y -79 X f 6 lw black
 gsave  2268 1108 0 475 C 1795.28 1184.06 t 0 r /Helvetica-Oblique findfont 56.1323 sf 0 0 m (tWZ/tWH) show NC gr 
 gsave  2268 1108 0 475 C 1777.56 1184.06 t 0 r /Helvetica findfont 56.1323 sf 0 0 m ( ) show NC gr  0.2 0.8 0.8 c 3 lw 1682 1176 m 79 X 44 Y -79 X f black
 gsave  2268 1108 0 475 C 1331.69 1122.05 t 0 r /Helvetica-Oblique findfont 56.1323 sf 0 0 m (tHq) show NC gr 
 gsave  2268 1108 0 475 C 1313.98 1122.05 t 0 r /Helvetica findfont 56.1323 sf 0 0 m ( ) show NC gr  1 0 0 c 3 lw 1219 1113 m 79 X 44 Y -79 X f black
 gsave  2268 1108 0 475 C 1777.56 1122.05 t 0 r /Helvetica findfont 56.1323 sf 0 0 m ( Other) show NC gr  1 0.84 0 c 3 lw 1682 1113 m 79 X 44 Y -79 X f black
 gsave  2268 1108 0 475 C 1313.98 1060.04 t 0 r /Helvetica findfont 56.1323 sf 0 0 m ( Uncertainty) show NC gr  0.6 0.6 0.6 c 3 lw 1298 1060 m -10 -11 d s 1298 1079 m -30 -30 d s 1294 1094 m -45 -45 d s 1274 1094 m -44 -45 d s 1255 1094 m -36 -37 d s
 1236 1094 m -17 -17 d s 1 0.84 0 c 0.6 0.6 0.6 c black
 gsave  2268 1108 0 475 C 894.685 1337.6 t 0 r /Helvetica findfont 41.3606 sf 0 0 m (\2551) show NC gr 
 gsave  2268 1108 0 475 C 401.575 1308.07 t 0 r /Helvetica findfont 62.0409 sf 0 0 m ( = 13 TeV,  139 fb) show NC gr 
 gsave  2268 1108 0 475 C 372.047 1308.07 t 0 r /Helvetica findfont 62.0409 sf 0 0 m (s) show NC gr  6 lw 351 1344 m 6 -39 d s 3 lw 357 1305 m 9 56 d s 366 1361 m 36 X s
 gsave  2268 1108 0 475 C 947.835 1207.68 t 0 r /Helvetica findfont 62.0409 sf 0 0 m (\)) show NC gr 
 gsave  2268 1108 0 475 C 900.591 1207.68 t 0 r /Helvetica-Oblique findfont 62.0409 sf 0 0 m (Z) show NC gr 
 gsave  2268 1108 0 475 C 812.008 1207.68 t 0 r /Helvetica findfont 62.0409 sf 0 0 m (\255no) show NC gr 
 gsave  2268 1108 0 475 C 785.433 1207.68 t 0 r /Helvetica-Oblique findfont 62.0409 sf 0 0 m (j) show NC gr 
 gsave  2268 1108 0 475 C 752.953 1207.68 t 0 r /Helvetica findfont 62.0409 sf 0 0 m (3) show NC gr 
 gsave  2268 1108 0 475 C 714.567 1207.68 t 0 r /Helvetica-Oblique findfont 62.0409 sf 0 0 m (b) show NC gr 
 gsave  2268 1108 0 475 C 339.567 1207.68 t 0 r /Helvetica findfont 62.0409 sf 0 0 m ( 2L\(SS\), VR\(1) show NC gr 
 gsave  2268 1108 0 475 C 339.567 1405.51 t 0 r /Helvetica-BoldOblique findfont 73.8583 sf 0 0 m (ATLAS) show NC gr 
 gsave  2268 1108 0 475 C 634.843 1405.51 t 0 r /Helvetica findfont 73.8583 sf 0 0 m (Internal) show NC gr 
 gr  gr showpage
end
%%EOF
