%!PS-Adobe-2.0 EPSF-2.0
%%BoundingBox:  0 0 567 394
%%Title: /lhome/ific/c/cardillo/tHq/Plots/Plots-30-05-22-PLIV-SF/2LSS_MM/Njets_SRtHq.eps: Njets_SRtHq
%%Creator: ROOT Version 6.20/06
%%CreationDate: Mon May 30 19:25:22 2022
%%DocumentNeededResources: ProcSet (FontSetInit)
%%EndComments
%%BeginProlog
80 dict begin
/s {stroke} def /l {lineto} def /m {moveto} def /t {translate} def
/r {rotate} def /rl {roll}  def /R {repeat} def
/d {rlineto} def /rm {rmoveto} def /gr {grestore} def /f {eofill} def
/c {setrgbcolor} def /black {0 setgray} def /sd {setdash} def
/cl {closepath} def /sf {scalefont setfont} def /lw {setlinewidth} def
/box {m dup 0 exch d exch 0 d 0 exch neg d cl} def
/NC{systemdict begin initclip end}def/C{NC box clip newpath}def
/bl {box s} def /bf {gsave box gsave f grestore 1 lw [] 0 sd s grestore} def /Y { 0 exch d} def /X { 0 d} def 
/K {{pop pop 0 moveto} exch kshow} bind def
/ita {/ang 15 def gsave [1 0 ang dup sin exch cos div 1 0 0] concat} def 
/mp {newpath /y exch def /x exch def} def
/side {[w .77 mul w .23 mul] .385 w mul sd w 0 l currentpoint t -144 r} def
/mr {mp x y w2 0 360 arc} def /m24 {mr s} def /m20 {mr f} def
/mb {mp x y w2 add m w2 neg 0 d 0 w neg d w 0 d 0 w d cl} def
/mt {mp x y w2 add m w2 neg w neg d w 0 d cl} def
/w4 {w 4 div} def
/w6 {w 6 div} def
/w8 {w 8 div} def
/m21 {mb f} def /m25 {mb s} def /m22 {mt f} def /m26{mt s} def
/m23 {mp x y w2 sub m w2 w d w neg 0 d cl f} def
/m27 {mp x y w2 add m w3 neg w2 neg d w3 w2 neg d w3 w2 d cl s} def
/m28 {mp x w2 sub y w2 sub w3 add m w3 0 d  0 w3 neg d w3 0 d 0 w3 d w3 0 d  0 w3 d w3 neg 0 d 0 w3 d w3 neg 0 d 0 w3 neg d w3 neg 0 d cl s } def
/m29 {mp gsave x w2 sub y w2 add w3 sub m currentpoint t 4 {side} repeat cl fill gr} def
/m30 {mp gsave x w2 sub y w2 add w3 sub m currentpoint t 4 {side} repeat cl s gr} def
/m31 {mp x y w2 sub m 0 w d x w2 sub y m w 0 d x w2 sub y w2 add m w w neg d x w2 sub y w2 sub m w w d s} def
/m32 {mp x y w2 sub m w2 w d w neg 0 d cl s} def
/m33 {mp x y w2 add m w3 neg w2 neg d w3 w2 neg d w3 w2 d cl f} def
/m34 {mp x w2 sub y w2 sub w3 add m w3 0 d  0 w3 neg d w3 0 d 0 w3 d w3 0 d  0 w3 d w3 neg 0 d 0 w3 d w3 neg 0 d 0 w3 neg d w3 neg 0 d cl f } def
/m35 {mp x y w2 add m w2 neg w2 neg d w2 w2 neg d w2 w2 d w2 neg w2 d x y w2 sub m 0 w d x w2 sub y m w 0 d s} def
/m36 {mb x w2 sub y w2 add m w w neg d x w2 sub y w2 sub m w w d s} def
/m37 {mp x y m w4 neg w2 d w4 neg w2 neg d w2 0 d  w4 neg w2 neg d w2 0 d w4 neg w2 d w2 0 d w4 neg w2 d w4 neg w2 neg d cl s} def
/m38 {mp x w4 sub y w2 add m w4 neg w4 neg d 0 w2 neg d w4 w4 neg d w2 0 d w4 w4 d 0 w2 d w4 neg w4 d w2 neg 0 d x y w2 sub m 0 w d x w2 sub y m w 0 d cl s} def
/m39 {mp x y m w4 neg w2 d w4 neg w2 neg d w2 0 d  w4 neg w2 neg d w2 0 d w4 neg w2 d w2 0 d w4 neg w2 d w4 neg w2 neg d cl f} def
/m40 {mp x y m w4 w2 d w4 w4 neg d w2 neg w4 neg d w2 w4 neg d w4 neg w4 neg d w4 neg w2 d w4 neg w2 neg d w4 neg w4 d w2 w4 d w2 neg w4 d w4 w4 d w4 w2 neg d cl s} def
/m41 {mp x y m w4 w2 d w4 w4 neg d w2 neg w4 neg d w2 w4 neg d w4 neg w4 neg d w4 neg w2 d w4 neg w2 neg d w4 neg w4 d w2 w4 d w2 neg w4 d w4 w4 d w4 w2 neg d cl f} def
/m42 {mp x y w2 add m w8 neg w2 -3 4 div mul d w2 -3 4 div mul w8 neg d w2 3 4 div mul w8 neg d w8 w2 -3 4 div mul d w8 w2 3 4 div mul d w2 3 4 div mul w8 d w2 -3 4 div mul w8 d w8 neg w2 3 4 div mul d cl s} def
/m43 {mp x y w2 add m w8 neg w2 -3 4 div mul d w2 -3 4 div mul w8 neg d w2 3 4 div mul w8 neg d w8 w2 -3 4 div mul d w8 w2 3 4 div mul d w2 3 4 div mul w8 d w2 -3 4 div mul w8 d w8 neg w2 3 4 div mul d cl f} def
/m44 {mp x y m w6 neg w2 d w2 2 3 div mul 0 d w6 neg w2 neg d w2 w6 d 0 w2 -2 3 div mul d w2 neg w6 d w6 w2 neg d w2 -2 3 div mul 0 d w6 w2 d w2 neg w6 neg d 0 w2 2 3 div mul d w2 w6 neg d cl s} def
/m45 {mp x y m w6 neg w2 d w2 2 3 div mul 0 d w6 neg w2 neg d w2 w6 d 0 w2 -2 3 div mul d w2 neg w6 d w6 w2 neg d w2 -2 3 div mul 0 d w6 w2 d w2 neg w6 neg d 0 w2 2 3 div mul d w2 w6 neg d cl f} def
/m46 {mp x y w4 add m w4 neg w4 d w4 neg w4 neg d  w4 w4 neg d w4 neg w4 neg d w4 w4 neg d w4 w4 d w4 w4 neg d w4 w4 d w4 neg w4 d w4 w4 d w4 neg w4 d w4 neg w4 neg d cl s} def
/m47 {mp x y w4 add m w4 neg w4 d w4 neg w4 neg d w4 w4 neg d w4 neg w4 neg d  w4 w4 neg d w4 w4 d w4 w4 neg d w4 w4 d w4 neg w4 d w4 w4 d w4 neg w4 d w4 neg w4 neg d cl f} def
/m48 {mp x y w4 add m w4 neg w4 d w4 neg w4 neg d w4 w4 neg d  w4 neg w4 neg d w4 w4 neg d w4 w4 d w4 w4 neg d w4 w4 d w4 neg w4 d w4 w4 d w4 neg w4 d w4 neg w4 neg d  w4 w4 neg d w4 neg w4 neg d w4 neg w4 d w4 w4 d cl f} def
/m49 {mp x w2 sub w3 add y w2 sub w3 add m  0 w3 neg d w3 0 d 0 w3 d w3 0 d 0 w3 d w3 neg 0 d 0 w3 d w3 neg 0 d 0 w3 neg d w3 neg 0 d 0 w3 neg d w3 0 d 0 w3 d w3 0 d 0 w3 neg d w3 neg 0 d cl f } def
/m2 {mp x y w2 sub m 0 w d x w2 sub y m w 0 d s} def
/m5 {mp x w2 sub y w2 sub m w w d x w2 sub y w2 add m w w neg d s} def
%%IncludeResource: ProcSet (FontSetInit)
%%IncludeResource: font Times-Roman
%%IncludeResource: font Times-Italic
%%IncludeResource: font Times-Bold
%%IncludeResource: font Times-BoldItalic
%%IncludeResource: font Helvetica
%%IncludeResource: font Helvetica-Oblique
%%IncludeResource: font Helvetica-Bold
%%IncludeResource: font Helvetica-BoldOblique
%%IncludeResource: font Courier
%%IncludeResource: font Courier-Oblique
%%IncludeResource: font Courier-Bold
%%IncludeResource: font Courier-BoldOblique
%%IncludeResource: font Symbol
%%IncludeResource: font ZapfDingbats
/reEncode {exch findfont dup length dict begin {1 index /FID eq  {pop pop} {def} ifelse } forall /Encoding exch def currentdict end dup /FontName get exch definefont pop } def [/Times-Bold /Times-Italic /Times-BoldItalic /Helvetica /Helvetica-Oblique
 /Helvetica-Bold /Helvetica-BoldOblique /Courier /Courier-Oblique /Courier-Bold /Courier-BoldOblique /Times-Roman /AvantGarde-Book /AvantGarde-BookOblique /AvantGarde-Demi /AvantGarde-DemiOblique /Bookman-Demi /Bookman-DemiItalic /Bookman-Light
 /Bookman-LightItalic /Helvetica-Narrow /Helvetica-Narrow-Bold /Helvetica-Narrow-BoldOblique /Helvetica-Narrow-Oblique /NewCenturySchlbk-Roman /NewCenturySchlbk-Bold /NewCenturySchlbk-BoldItalic /NewCenturySchlbk-Italic /Palatino-Bold
 /Palatino-BoldItalic /Palatino-Italic /Palatino-Roman ] {ISOLatin1Encoding reEncode } forall
%%EndProlog
%%BeginSetup
%%EndSetup
newpath  gsave  .25 .25 scale  gsave  0 0 t black[  ] 0 sd 3 lw 1 1 1 c 2268 1575 0 0 bf black 1 1 1 c 2268 472 0 0 bf black 1 1 1 c 1927 274 227 189 bf black 1927 274 227 189 bl 227 189 m 1927 X s 227 201 m -12 Y s 291 195 m -6 Y s 355 195 m -6 Y s
 420 195 m -6 Y s 484 195 m -6 Y s 548 201 m -12 Y s 612 195 m -6 Y s 677 195 m -6 Y s 741 195 m -6 Y s 805 195 m -6 Y s 869 201 m -12 Y s 934 195 m -6 Y s 998 195 m -6 Y s 1062 195 m -6 Y s 1126 195 m -6 Y s 1191 201 m -12 Y s 1255 195 m -6 Y s 1319
 195 m -6 Y s 1383 195 m -6 Y s 1448 195 m -6 Y s 1512 201 m -12 Y s 1576 195 m -6 Y s 1640 195 m -6 Y s 1705 195 m -6 Y s 1769 195 m -6 Y s 1833 201 m -12 Y s 1897 195 m -6 Y s 1962 195 m -6 Y s 2026 195 m -6 Y s 2090 195 m -6 Y s 2154 201 m -12 Y s
 gsave  2268 472 0 0 C 213.154 127.3 t 0 r /Helvetica findfont 53.4895 sf 0 0 m (1) show NC gr 
 gsave  2268 472 0 0 C 532.884 127.3 t 0 r /Helvetica findfont 53.4895 sf 0 0 m (2) show NC gr 
 gsave  2268 472 0 0 C 852.614 127.3 t 0 r /Helvetica findfont 53.4895 sf 0 0 m (3) show NC gr 
 gsave  2268 472 0 0 C 1175.3 127.3 t 0 r /Helvetica findfont 53.4895 sf 0 0 m (4) show NC gr 
 gsave  2268 472 0 0 C 1495.04 127.3 t 0 r /Helvetica findfont 53.4895 sf 0 0 m (5) show NC gr 
 gsave  2268 472 0 0 C 1817.73 127.3 t 0 r /Helvetica findfont 53.4895 sf 0 0 m (6) show NC gr 
 gsave  2268 472 0 0 C 2137.46 127.3 t 0 r /Helvetica findfont 53.4895 sf 0 0 m (7) show NC gr 
 gsave  2268 472 0 0 C 2090.09 35.5256 t 0 r /Helvetica findfont 38.6313 sf 0 0 m (jets) show NC gr 
 gsave  2268 472 0 0 C 2042.72 53.2884 t 0 r /Helvetica-Oblique findfont 56.4611 sf 0 0 m (N) show NC gr  227 463 m 1927 X s 227 451 m 12 Y s 291 457 m 6 Y s 355 457 m 6 Y s 420 457 m 6 Y s 484 457 m 6 Y s 548 451 m 12 Y s 612 457 m 6 Y s 677 457 m 6
 Y s 741 457 m 6 Y s 805 457 m 6 Y s 869 451 m 12 Y s 934 457 m 6 Y s 998 457 m 6 Y s 1062 457 m 6 Y s 1126 457 m 6 Y s 1191 451 m 12 Y s 1255 457 m 6 Y s 1319 457 m 6 Y s 1383 457 m 6 Y s 1448 457 m 6 Y s 1512 451 m 12 Y s 1576 457 m 6 Y s 1640 457
 m 6 Y s 1705 457 m 6 Y s 1769 457 m 6 Y s 1833 451 m 12 Y s 1897 457 m 6 Y s 1962 457 m 6 Y s 2026 457 m 6 Y s 2090 457 m 6 Y s 2154 451 m 12 Y s 227 189 m 274 Y s 240 240 m -13 X s 240 326 m -13 X s 240 412 m -13 X s 240 240 m -13 X s 240 412 m -13
 X s
 gsave  2268 472 0 0 C 118.419 222.035 t 0 r /Helvetica findfont 53.4895 sf 0 0 m (0.5) show NC gr 
 gsave  2268 472 0 0 C 171.707 307.888 t 0 r /Helvetica findfont 53.4895 sf 0 0 m (1) show NC gr 
 gsave  2268 472 0 0 C 118.419 393.742 t 0 r /Helvetica findfont 53.4895 sf 0 0 m (1.5) show NC gr 
 gsave  2268 472 0 0 C 71.0512 230.916 t 90 r /Helvetica findfont 53.4895 sf 0 0 m (Data / SM) show NC gr  2154 189 m 274 Y s 2141 240 m 13 X s 2141 326 m 13 X s 2141 412 m 13 X s 2141 240 m 13 X s 2141 412 m 13 X s 227 189 m 1927 X s 227 463 m 1927
 X s 227 189 m 274 Y s[ 4 8] 0 sd 2154 240 m -1927 X s 2154 326 m -1927 X s 2154 412 m -1927 X s 2154 240 m -1927 X s 2154 412 m -1927 X s[  ] 0 sd 2154 189 m 274 Y s 1 1 0.6 c 321 0 227 326 bf 321 0 548 326 bf 322 0 869 326 bf 321 0 1191 326 bf 321
 0 1512 326 bf 321 0 1833 326 bf black 0.6 0.6 0.6 c 548 280 m -1 -2 d s 548 299 m -21 -21 d s 548 318 m -40 -40 d s 548 338 m -59 -60 d s 548 357 m -78 -79 d s 546 374 m -96 -96 d s 526 374 m -95 -96 d s 507 374 m -95 -96 d s 488 374 m -95 -96 d s
 469 374 m -96 -96 d s 449 374 m -95 -96 d s 430 374 m -95 -96 d s 411 374 m -95 -96 d s 392 374 m -96 -96 d s 372 374 m -95 -96 d s 353 374 m -95 -96 d s 334 374 m -95 -96 d s 315 374 m -88 -88 d s 295 374 m -68 -69 d s 276 374 m -49 -50 d s 257 374
 m -30 -30 d s 238 374 m -11 -11 d s 869 312 m -1 X s 869 332 m -20 -20 d s 859 340 m -29 -28 d s 839 340 m -28 -28 d s 820 340 m -29 -28 d s 801 340 m -29 -28 d s 782 340 m -29 -28 d s 762 340 m -28 -28 d s 743 340 m -28 -28 d s 724 340 m -29 -28 d
 s 705 340 m -29 -28 d s 686 340 m -29 -28 d s 666 340 m -28 -28 d s 647 340 m -29 -28 d s 628 340 m -29 -28 d s 609 340 m -29 -28 d s 589 340 m -28 -28 d s 570 340 m -22 -22 d s 551 340 m -3 -2 d s 1191 326 m -7 -7 d s 1179 333 m -15 -14 d s 1159
 333 m -14 -14 d s 1140 333 m -14 -14 d s 1121 333 m -14 -14 d s 1102 333 m -15 -14 d s 1082 333 m -14 -14 d s 1063 333 m -14 -14 d s 1044 333 m -14 -14 d s 1025 333 m -15 -14 d s 1005 333 m -14 -14 d s 986 333 m -14 -14 d s 967 333 m -14 -14 d s 948
 333 m -15 -14 d s 928 333 m -14 -14 d s 909 333 m -14 -14 d s 890 333 m -14 -14 d s 871 333 m -2 -1 d s 1512 320 m -1 X s 1505 332 m -13 -12 d s 1486 332 m -13 -12 d s 1466 332 m -12 -12 d s 1447 332 m -13 -12 d s 1428 332 m -13 -12 d s 1409 332 m
 -13 -12 d s 1389 332 m -12 -12 d s 1370 332 m -12 -12 d s 1351 332 m -13 -12 d s 1332 332 m -13 -12 d s 1313 332 m -13 -12 d s 1293 332 m -12 -12 d s 1274 332 m -13 -12 d s 1255 332 m -13 -12 d s 1236 332 m -13 -12 d s 1216 332 m -12 -12 d s 1197
 332 m -6 -6 d s 1832 332 m -12 -12 d s 1812 332 m -12 -12 d s 1793 332 m -12 -12 d s 1774 332 m -12 -12 d s 1755 332 m -12 -12 d s 1736 332 m -13 -12 d s 1716 332 m -12 -12 d s 1697 332 m -12 -12 d s 1678 332 m -12 -12 d s 1659 332 m -13 -12 d s
 1639 332 m -12 -12 d s 1620 332 m -12 -12 d s 1601 332 m -12 -12 d s 1582 332 m -12 -12 d s 1562 332 m -12 -12 d s 1543 332 m -12 -12 d s 1524 332 m -12 -12 d s 2154 328 m -9 -10 d s 2142 334 m -16 -16 d s 2122 334 m -16 -16 d s 2103 334 m -16 -16 d
 s 2084 334 m -16 -16 d s 2065 334 m -16 -16 d s 2045 334 m -16 -16 d s 2026 334 m -16 -16 d s 2007 334 m -16 -16 d s 1988 334 m -16 -16 d s 1968 334 m -16 -16 d s 1949 334 m -16 -16 d s 1930 334 m -16 -16 d s 1911 334 m -16 -16 d s 1891 334 m -16
 -16 d s 1872 334 m -16 -16 d s 1853 334 m -16 -16 d s 1834 334 m -1 -1 d s black 1 1 1 c black 709 237 m 70 Y s 709 330 m 70 Y s /w 26 def /w2 {w 2 div} def /w3 {w 3 div} def 709 318 m20 1030 308 m 42 Y s 1030 373 m 42 Y s 1030 362 m20 1351 256 m 27
 Y s 1351 307 m 27 Y s 1351 295 m20 1672 218 m 26 Y s 1672 268 m 26 Y s 1672 256 m20 1994 278 m 56 Y s 1994 358 m 55 Y s 1994 346 m20 227 326 m 1927 X s 227 189 m 1927 X s 227 201 m -12 Y s 291 195 m -6 Y s 355 195 m -6 Y s 420 195 m -6 Y s 484 195 m
 -6 Y s 548 201 m -12 Y s 612 195 m -6 Y s 677 195 m -6 Y s 741 195 m -6 Y s 805 195 m -6 Y s 869 201 m -12 Y s 934 195 m -6 Y s 998 195 m -6 Y s 1062 195 m -6 Y s 1126 195 m -6 Y s 1191 201 m -12 Y s 1255 195 m -6 Y s 1319 195 m -6 Y s 1383 195 m -6
 Y s 1448 195 m -6 Y s 1512 201 m -12 Y s 1576 195 m -6 Y s 1640 195 m -6 Y s 1705 195 m -6 Y s 1769 195 m -6 Y s 1833 201 m -12 Y s 1897 195 m -6 Y s 1962 195 m -6 Y s 2026 195 m -6 Y s 2090 195 m -6 Y s 2154 201 m -12 Y s 227 463 m 1927 X s 227 451
 m 12 Y s 291 457 m 6 Y s 355 457 m 6 Y s 420 457 m 6 Y s 484 457 m 6 Y s 548 451 m 12 Y s 612 457 m 6 Y s 677 457 m 6 Y s 741 457 m 6 Y s 805 457 m 6 Y s 869 451 m 12 Y s 934 457 m 6 Y s 998 457 m 6 Y s 1062 457 m 6 Y s 1126 457 m 6 Y s 1191 451 m
 12 Y s 1255 457 m 6 Y s 1319 457 m 6 Y s 1383 457 m 6 Y s 1448 457 m 6 Y s 1512 451 m 12 Y s 1576 457 m 6 Y s 1640 457 m 6 Y s 1705 457 m 6 Y s 1769 457 m 6 Y s 1833 451 m 12 Y s 1897 457 m 6 Y s 1962 457 m 6 Y s 2026 457 m 6 Y s 2090 457 m 6 Y s
 2154 451 m 12 Y s 227 189 m 274 Y s 240 240 m -13 X s 240 326 m -13 X s 240 412 m -13 X s 240 240 m -13 X s 240 412 m -13 X s 2154 189 m 274 Y s 2141 240 m 13 X s 2141 326 m 13 X s 2141 412 m 13 X s 2141 240 m 13 X s 2141 412 m 13 X s 1 1 1 c 2268
 1103 0 472 bf black 1 1 1 c 1927 1036 227 484 bf black 1927 1036 227 484 bl 1 1 1 c black 3 lw 227 484 m 1927 X s 227 502 m -18 Y s 291 493 m -9 Y s 355 493 m -9 Y s 420 493 m -9 Y s 484 493 m -9 Y s 548 502 m -18 Y s 612 493 m -9 Y s 677 493 m -9 Y
 s 741 493 m -9 Y s 805 493 m -9 Y s 869 502 m -18 Y s 934 493 m -9 Y s 998 493 m -9 Y s 1062 493 m -9 Y s 1126 493 m -9 Y s 1191 502 m -18 Y s 1255 493 m -9 Y s 1319 493 m -9 Y s 1383 493 m -9 Y s 1448 493 m -9 Y s 1512 502 m -18 Y s 1576 493 m -9 Y
 s 1640 493 m -9 Y s 1705 493 m -9 Y s 1769 493 m -9 Y s 1833 502 m -18 Y s 1897 493 m -9 Y s 1962 493 m -9 Y s 2026 493 m -9 Y s 2090 493 m -9 Y s 2154 502 m -18 Y s
 gsave  2268 1103 0 472 C 2116.73 396.702 t 0 r /Helvetica findfont 20.7455 sf 0 0 m (jets) show NC gr 
 gsave  2268 1103 0 472 C 2090.09 405.584 t 0 r /Helvetica-Oblique findfont 29.6365 sf 0 0 m (N) show NC gr  227 1520 m 1927 X s 227 1501 m 19 Y s 291 1510 m 10 Y s 355 1510 m 10 Y s 420 1510 m 10 Y s 484 1510 m 10 Y s 548 1501 m 19 Y s 612 1510 m 10
 Y s 677 1510 m 10 Y s 741 1510 m 10 Y s 805 1510 m 10 Y s 869 1501 m 19 Y s 934 1510 m 10 Y s 998 1510 m 10 Y s 1062 1510 m 10 Y s 1126 1510 m 10 Y s 1191 1501 m 19 Y s 1255 1510 m 10 Y s 1319 1510 m 10 Y s 1383 1510 m 10 Y s 1448 1510 m 10 Y s 1512
 1501 m 19 Y s 1576 1510 m 10 Y s 1640 1510 m 10 Y s 1705 1510 m 10 Y s 1769 1510 m 10 Y s 1833 1501 m 19 Y s 1897 1510 m 10 Y s 1962 1510 m 10 Y s 2026 1510 m 10 Y s 2090 1510 m 10 Y s 2154 1501 m 19 Y s 227 484 m 1036 Y s 248 614 m -21 X s 237 640
 m -10 X s 237 666 m -10 X s 237 692 m -10 X s 237 718 m -10 X s 248 744 m -21 X s 237 770 m -10 X s 237 796 m -10 X s 237 822 m -10 X s 237 848 m -10 X s 248 874 m -21 X s 237 900 m -10 X s 237 926 m -10 X s 237 952 m -10 X s 237 978 m -10 X s 248
 1005 m -21 X s 237 1031 m -10 X s 237 1057 m -10 X s 237 1083 m -10 X s 237 1109 m -10 X s 248 1135 m -21 X s 237 1161 m -10 X s 237 1187 m -10 X s 237 1213 m -10 X s 237 1239 m -10 X s 248 1265 m -21 X s 237 1291 m -10 X s 237 1317 m -10 X s 237
 1343 m -10 X s 237 1369 m -10 X s 248 1395 m -21 X s 248 614 m -21 X s 237 588 m -10 X s 237 561 m -10 X s 237 535 m -10 X s 237 509 m -10 X s 248 1395 m -21 X s 237 1422 m -10 X s 237 1448 m -10 X s 237 1474 m -10 X s 237 1500 m -10 X s
 gsave  2268 1103 0 472 C 174.667 595.054 t 0 r /Helvetica findfont 50.382 sf 0 0 m (5) show NC gr 
 gsave  2268 1103 0 472 C 145.063 725.314 t 0 r /Helvetica findfont 50.382 sf 0 0 m (10) show NC gr 
 gsave  2268 1103 0 472 C 145.063 855.575 t 0 r /Helvetica findfont 50.382 sf 0 0 m (15) show NC gr 
 gsave  2268 1103 0 472 C 145.063 985.835 t 0 r /Helvetica findfont 50.382 sf 0 0 m (20) show NC gr 
 gsave  2268 1103 0 472 C 145.063 1116.1 t 0 r /Helvetica findfont 50.382 sf 0 0 m (25) show NC gr 
 gsave  2268 1103 0 472 C 145.063 1246.36 t 0 r /Helvetica findfont 50.382 sf 0 0 m (30) show NC gr 
 gsave  2268 1103 0 472 C 145.063 1376.62 t 0 r /Helvetica findfont 50.382 sf 0 0 m (35) show NC gr 
 gsave  2268 1103 0 472 C 62.1698 1367.74 t 90 r /Helvetica findfont 50.382 sf 0 0 m (Events) show NC gr  2154 484 m 1036 Y s 2133 614 m 21 X s 2144 640 m 10 X s 2144 666 m 10 X s 2144 692 m 10 X s 2144 718 m 10 X s 2133 744 m 21 X s 2144 770 m 10 X
 s 2144 796 m 10 X s 2144 822 m 10 X s 2144 848 m 10 X s 2133 874 m 21 X s 2144 900 m 10 X s 2144 926 m 10 X s 2144 952 m 10 X s 2144 978 m 10 X s 2133 1005 m 21 X s 2144 1031 m 10 X s 2144 1057 m 10 X s 2144 1083 m 10 X s 2144 1109 m 10 X s 2133
 1135 m 21 X s 2144 1161 m 10 X s 2144 1187 m 10 X s 2144 1213 m 10 X s 2144 1239 m 10 X s 2133 1265 m 21 X s 2144 1291 m 10 X s 2144 1317 m 10 X s 2144 1343 m 10 X s 2144 1369 m 10 X s 2133 1395 m 21 X s 2133 614 m 21 X s 2144 588 m 10 X s 2144 561
 m 10 X s 2144 535 m 10 X s 2144 509 m 10 X s 2133 1395 m 21 X s 2144 1422 m 10 X s 2144 1448 m 10 X s 2144 1474 m 10 X s 2144 1500 m 10 X s 0.4 0.6 0.4 c black 3 lw 0.4 0.6 0.4 c 227 484 m 5 Y 321 X 103 Y 321 X 215 Y 322 X 91 Y 321 X -106 Y 321 X
 -122 Y 321 X -186 Y f 0.06 0.54 0.06 c 0.999 0.999 0.999 c black 3 lw 0.999 0.999 0.999 c 227 484 m 2 Y 321 X 49 Y 321 X 111 Y 322 X 55 Y 321 X -54 Y 321 X -55 Y 321 X -108 Y f 0.06 0.54 0.06 c 0.999 0.999 0.999 c 0.06 0.54 0.06 c 1 1 1 c black 0.06
 0.54 0.06 c black 3 lw 0.06 0.54 0.06 c 227 484 m 2 Y 321 X 49 Y 321 X 111 Y 322 X 55 Y 321 X -54 Y 321 X -55 Y 321 X -108 Y f 1 0.653333 0 c 0.999 0.999 0.999 c black 3 lw 0.999 0.999 0.999 c 227 484 m 2 Y 321 X 38 Y 321 X 99 Y 322 X 51 Y 321 X -34
 Y 321 X -55 Y 321 X -101 Y f 1 0.653333 0 c 0.999 0.999 0.999 c 1 0.653333 0 c 1 1 1 c black 1 0.653333 0 c black 3 lw 1 0.653333 0 c 227 484 m 2 Y 321 X 38 Y 321 X 99 Y 322 X 51 Y 321 X -34 Y 321 X -55 Y 321 X -101 Y f 0.413333 1 0 c 0.999 0.999
 0.999 c black 3 lw 0.999 0.999 0.999 c 227 484 m 2 Y 321 X 38 Y 321 X 99 Y 322 X 51 Y 321 X -34 Y 321 X -55 Y 321 X -101 Y f 0.413333 1 0 c 0.999 0.999 0.999 c 0.413333 1 0 c 1 1 1 c black 0.413333 1 0 c black 3 lw 0.413333 1 0 c 227 484 m 2 Y 321 X
 38 Y 321 X 99 Y 322 X 51 Y 321 X -34 Y 321 X -55 Y 321 X -101 Y f 0.6 0.2 1 c 0.999 0.999 0.999 c black 3 lw 0.999 0.999 0.999 c 227 484 m 1 Y 321 X 26 Y 321 X 86 Y 322 X 46 Y 321 X -26 Y 321 X -41 Y 321 X -92 Y f 0.6 0.2 1 c 0.999 0.999 0.999 c 0.6
 0.2 1 c 1 1 1 c black 0.6 0.2 1 c black 3 lw 0.6 0.2 1 c 227 484 m 1 Y 321 X 26 Y 321 X 86 Y 322 X 46 Y 321 X -26 Y 321 X -41 Y 321 X -92 Y f 0.54 0.06 0.06 c 0.999 0.999 0.999 c black 3 lw 0.999 0.999 0.999 c 227 484 m 1 Y 321 X 25 Y 321 X 82 Y 322
 X 38 Y 321 X -29 Y 321 X -38 Y 321 X -79 Y f 0.54 0.06 0.06 c 0.999 0.999 0.999 c 0.54 0.06 0.06 c 1 1 1 c black 0.54 0.06 0.06 c black 3 lw 0.54 0.06 0.06 c 227 484 m 1 Y 321 X 25 Y 321 X 82 Y 322 X 38 Y 321 X -29 Y 321 X -38 Y 321 X -79 Y f 1 0 1
 c 0.999 0.999 0.999 c black 3 lw 0.999 0.999 0.999 c 227 484 m 321 X 23 Y 321 X 61 Y 322 X 14 Y 321 X -28 Y 321 X -32 Y 321 X -38 Y f 1 0 1 c 0.999 0.999 0.999 c 1 0 1 c 1 1 1 c black 1 0 1 c black 3 lw 1 0 1 c 227 484 m 321 X 23 Y 321 X 61 Y 322 X
 14 Y 321 X -28 Y 321 X -32 Y 321 X -38 Y f 0 0 1 c 0.999 0.999 0.999 c black 3 lw 0.999 0.999 0.999 c 227 484 m 321 X 4 Y 321 X 11 Y 322 X 12 Y 642 X -7 Y 321 X -20 Y f 0 0 1 c 0.999 0.999 0.999 c 0 0 1 c 1 1 1 c black 0 0 1 c black 3 lw 0 0 1 c 227
 484 m 321 X 4 Y 321 X 11 Y 322 X 12 Y 642 X -7 Y 321 X -20 Y f 0.2 0.8 0.8 c 0.999 0.999 0.999 c black 3 lw 0.999 0.999 0.999 c 227 484 m 321 X 4 Y 321 X 9 Y 322 X 6 Y 321 X -3 Y 321 X -8 Y 321 X -8 Y f 0.2 0.8 0.8 c 0.999 0.999 0.999 c 0.2 0.8 0.8
 c 1 1 1 c black 0.2 0.8 0.8 c black 3 lw 0.2 0.8 0.8 c 227 484 m 321 X 4 Y 321 X 9 Y 322 X 6 Y 321 X -3 Y 321 X -8 Y 321 X -8 Y f 1 0 0 c 0.999 0.999 0.999 c black 3 lw 0.999 0.999 0.999 c 227 484 m 321 X 4 Y 321 X 8 Y 322 X 5 Y 321 X -3 Y 321 X -7
 Y 321 X -7 Y f 1 0 0 c 0.999 0.999 0.999 c 1 0 0 c 1 1 1 c black 1 0 0 c black 3 lw 1 0 0 c 227 484 m 321 X 4 Y 321 X 8 Y 322 X 5 Y 321 X -3 Y 321 X -7 Y 321 X -7 Y f 1 0.84 0 c 0.999 0.999 0.999 c black 3 lw 0.999 0.999 0.999 c 227 484 m 1927 X f 1
 0.84 0 c 0.999 0.999 0.999 c 1 0.84 0 c 1 1 1 c black 1 0.84 0 c black 3 lw 1 0.84 0 c 227 484 m 1927 X f black 1 1 1 c black 0.6 0.6 0.6 c 3 lw 537 490 m -3 -3 d s 518 490 m -3 -3 d s 499 490 m -3 -3 d s 479 490 m -3 -3 d s 460 490 m -3 -3 d s 441
 490 m -3 -3 d s 422 490 m -3 -3 d s 403 490 m -3 -3 d s 383 490 m -3 -3 d s 364 490 m -3 -3 d s 345 490 m -3 -3 d s 326 490 m -3 -3 d s 306 490 m -3 -3 d s 287 490 m -3 -3 d s 268 490 m -3 -3 d s 249 490 m -3 -3 d s 229 490 m -2 -2 d s 3 lw 869 591
 m -8 -8 d s 860 602 m -18 -19 d s 841 602 m -18 -19 d s 822 602 m -18 -19 d s 803 602 m -19 -19 d s 784 602 m -19 -19 d s 764 602 m -18 -19 d s 745 602 m -18 -19 d s 726 602 m -19 -19 d s 707 602 m -19 -19 d s 687 602 m -18 -19 d s 668 602 m -18 -19
 d s 649 602 m -19 -19 d s 630 602 m -19 -19 d s 610 602 m -18 -19 d s 591 602 m -18 -19 d s 572 602 m -19 -19 d s 553 602 m -5 -5 d s 3 lw 1191 797 m -4 -4 d s 1191 816 m -23 -23 d s 1176 821 m -27 -28 d s 1157 821 m -27 -28 d s 1138 821 m -28 -28 d
 s 1118 821 m -27 -28 d s 1099 821 m -27 -28 d s 1080 821 m -27 -28 d s 1061 821 m -28 -28 d s 1042 821 m -28 -28 d s 1022 821 m -27 -28 d s 1003 821 m -27 -28 d s 984 821 m -28 -28 d s 965 821 m -28 -28 d s 945 821 m -27 -28 d s 926 821 m -27 -28 d
 s 907 821 m -27 -28 d s 888 821 m -19 -19 d s 3 lw 1512 887 m -5 -5 d s 1512 906 m -24 -24 d s 1500 913 m -31 -31 d s 1481 913 m -31 -31 d s 1461 913 m -31 -31 d s 1442 913 m -31 -31 d s 1423 913 m -31 -31 d s 1404 913 m -31 -31 d s 1384 913 m -31
 -31 d s 1365 913 m -31 -31 d s 1346 913 m -31 -31 d s 1327 913 m -31 -31 d s 1307 913 m -31 -31 d s 1288 913 m -31 -31 d s 1269 913 m -31 -31 d s 1250 913 m -31 -31 d s 1231 913 m -31 -31 d s 1211 913 m -20 -20 d s 1192 913 m -1 -1 d s 3 lw 1833 785
 m -4 -4 d s 1832 803 m -22 -22 d s 1813 803 m -22 -22 d s 1794 803 m -22 -22 d s 1774 803 m -22 -22 d s 1755 803 m -22 -22 d s 1736 803 m -22 -22 d s 1717 803 m -22 -22 d s 1697 803 m -21 -22 d s 1678 803 m -22 -22 d s 1659 803 m -22 -22 d s 1640
 803 m -22 -22 d s 1620 803 m -21 -22 d s 1601 803 m -22 -22 d s 1582 803 m -22 -22 d s 1563 803 m -22 -22 d s 1543 803 m -21 -22 d s 1524 803 m -12 -12 d s 3 lw 2154 664 m -2 -3 d s 2150 679 m -17 -18 d s 2131 679 m -18 -18 d s 2112 679 m -18 -18 d
 s 2092 679 m -17 -18 d s 2073 679 m -17 -18 d s 2054 679 m -18 -18 d s 2035 679 m -18 -18 d s 2015 679 m -17 -18 d s 1996 679 m -17 -18 d s 1977 679 m -17 -18 d s 1958 679 m -18 -18 d s 1939 679 m -18 -18 d s 1919 679 m -17 -18 d s 1900 679 m -17
 -18 d s 1881 679 m -18 -18 d s 1862 679 m -18 -18 d s 1842 679 m -9 -9 d s black 3 lw 1 1 1 c black 709 535 m 41 Y s 709 599 m 41 Y s /w 24 def /w2 {w 2 div} def /w3 {w 3 div} def 709 588 m20 1030 773 m 89 Y s 1030 886 m 89 Y s 1030 874 m20 1351 728
 m 82 Y s 1351 834 m 82 Y s 1351 822 m20 1672 597 m 57 Y s 1672 678 m 57 Y s 1672 666 m20 1994 618 m 62 Y s 1994 704 m 61 Y s 1994 692 m20 227 484 m 1927 X s 227 502 m -18 Y s 291 493 m -9 Y s 355 493 m -9 Y s 420 493 m -9 Y s 484 493 m -9 Y s 548
 502 m -18 Y s 612 493 m -9 Y s 677 493 m -9 Y s 741 493 m -9 Y s 805 493 m -9 Y s 869 502 m -18 Y s 934 493 m -9 Y s 998 493 m -9 Y s 1062 493 m -9 Y s 1126 493 m -9 Y s 1191 502 m -18 Y s 1255 493 m -9 Y s 1319 493 m -9 Y s 1383 493 m -9 Y s 1448
 493 m -9 Y s 1512 502 m -18 Y s 1576 493 m -9 Y s 1640 493 m -9 Y s 1705 493 m -9 Y s 1769 493 m -9 Y s 1833 502 m -18 Y s 1897 493 m -9 Y s 1962 493 m -9 Y s 2026 493 m -9 Y s 2090 493 m -9 Y s 2154 502 m -18 Y s 227 1520 m 1927 X s 227 1501 m 19 Y
 s 291 1510 m 10 Y s 355 1510 m 10 Y s 420 1510 m 10 Y s 484 1510 m 10 Y s 548 1501 m 19 Y s 612 1510 m 10 Y s 677 1510 m 10 Y s 741 1510 m 10 Y s 805 1510 m 10 Y s 869 1501 m 19 Y s 934 1510 m 10 Y s 998 1510 m 10 Y s 1062 1510 m 10 Y s 1126 1510 m
 10 Y s 1191 1501 m 19 Y s 1255 1510 m 10 Y s 1319 1510 m 10 Y s 1383 1510 m 10 Y s 1448 1510 m 10 Y s 1512 1501 m 19 Y s 1576 1510 m 10 Y s 1640 1510 m 10 Y s 1705 1510 m 10 Y s 1769 1510 m 10 Y s 1833 1501 m 19 Y s 1897 1510 m 10 Y s 1962 1510 m 10
 Y s 2026 1510 m 10 Y s 2090 1510 m 10 Y s 2154 1501 m 19 Y s 227 484 m 1036 Y s 248 614 m -21 X s 237 640 m -10 X s 237 666 m -10 X s 237 692 m -10 X s 237 718 m -10 X s 248 744 m -21 X s 237 770 m -10 X s 237 796 m -10 X s 237 822 m -10 X s 237 848
 m -10 X s 248 874 m -21 X s 237 900 m -10 X s 237 926 m -10 X s 237 952 m -10 X s 237 978 m -10 X s 248 1005 m -21 X s 237 1031 m -10 X s 237 1057 m -10 X s 237 1083 m -10 X s 237 1109 m -10 X s 248 1135 m -21 X s 237 1161 m -10 X s 237 1187 m -10 X
 s 237 1213 m -10 X s 237 1239 m -10 X s 248 1265 m -21 X s 237 1291 m -10 X s 237 1317 m -10 X s 237 1343 m -10 X s 237 1369 m -10 X s 248 1395 m -21 X s 248 614 m -21 X s 237 588 m -10 X s 237 561 m -10 X s 237 535 m -10 X s 237 509 m -10 X s 248
 1395 m -21 X s 237 1422 m -10 X s 237 1448 m -10 X s 237 1474 m -10 X s 237 1500 m -10 X s 2154 484 m 1036 Y s 2133 614 m 21 X s 2144 640 m 10 X s 2144 666 m 10 X s 2144 692 m 10 X s 2144 718 m 10 X s 2133 744 m 21 X s 2144 770 m 10 X s 2144 796 m
 10 X s 2144 822 m 10 X s 2144 848 m 10 X s 2133 874 m 21 X s 2144 900 m 10 X s 2144 926 m 10 X s 2144 952 m 10 X s 2144 978 m 10 X s 2133 1005 m 21 X s 2144 1031 m 10 X s 2144 1057 m 10 X s 2144 1083 m 10 X s 2144 1109 m 10 X s 2133 1135 m 21 X s
 2144 1161 m 10 X s 2144 1187 m 10 X s 2144 1213 m 10 X s 2144 1239 m 10 X s 2133 1265 m 21 X s 2144 1291 m 10 X s 2144 1317 m 10 X s 2144 1343 m 10 X s 2144 1369 m 10 X s 2133 1395 m 21 X s 2133 614 m 21 X s 2144 588 m 10 X s 2144 561 m 10 X s 2144
 535 m 10 X s 2144 509 m 10 X s 2133 1395 m 21 X s 2144 1422 m 10 X s 2144 1448 m 10 X s 2144 1474 m 10 X s 2144 1500 m 10 X s
 gsave  2268 1103 0 472 C 1314.45 1432.87 t 0 r /Helvetica findfont 56.3093 sf 0 0 m ( Data) show NC gr  1259 1456 m 7 Y s 1259 1432 m -7 Y s 1259 1444 m20
 gsave  2268 1103 0 472 C 1776.28 1432.87 t 0 r /Helvetica findfont 56.3093 sf 0 0 m ( Fakes \(MM\)) show NC gr  0.4 0.6 0.4 c 1682 1422 m 79 X 44 Y -79 X f black
 gsave  2268 1103 0 472 C 1403.26 1367.74 t 0 r /Helvetica findfont 56.3093 sf 0 0 m (single\255top) show NC gr 
 gsave  2268 1103 0 472 C 1373.66 1367.74 t 0 r /Helvetica-Oblique findfont 56.3093 sf 0 0 m (/) show NC gr 
 gsave  2268 1103 0 472 C 1352.93 1367.74 t 0 r /Helvetica-Oblique findfont 56.3093 sf 0 0 m (t) show NC gr  6 lw 1353 1412 m 21 X s
 gsave  2268 1103 0 472 C 1332.21 1367.74 t 0 r /Helvetica-Oblique findfont 56.3093 sf 0 0 m (t) show NC gr 
 gsave  2268 1103 0 472 C 1314.45 1367.74 t 0 r /Helvetica findfont 56.3093 sf 0 0 m ( ) show NC gr  0.06 0.54 0.06 c 3 lw 1219 1359 m 79 X 44 Y -79 X f 6 lw black
 gsave  2268 1103 0 472 C 1906.54 1367.74 t 0 r /Helvetica findfont 56.3093 sf 0 0 m (+jets) show NC gr 
 gsave  2268 1103 0 472 C 1794.04 1367.74 t 0 r /Helvetica-Oblique findfont 56.3093 sf 0 0 m (W/Z) show NC gr 
 gsave  2268 1103 0 472 C 1776.28 1367.74 t 0 r /Helvetica findfont 56.3093 sf 0 0 m ( ) show NC gr  1 0.653333 0 c 3 lw 1682 1359 m 79 X 44 Y -79 X f black
 gsave  2268 1103 0 472 C 1512.8 1305.57 t 0 r /Helvetica findfont 56.3093 sf 0 0 m (+jets) show NC gr 
 gsave  2268 1103 0 472 C 1332.21 1305.57 t 0 r /Helvetica-Oblique findfont 56.3093 sf 0 0 m (WZ/ZZ) show NC gr 
 gsave  2268 1103 0 472 C 1314.45 1305.57 t 0 r /Helvetica findfont 56.3093 sf 0 0 m ( ) show NC gr  0.413333 1 0 c 3 lw 1219 1296 m 79 X 44 Y -79 X f black
 gsave  2268 1103 0 472 C 1835.49 1305.57 t 0 r /Helvetica-Oblique findfont 56.3093 sf 0 0 m (Z) show NC gr 
 gsave  2268 1103 0 472 C 1814.77 1305.57 t 0 r /Helvetica-Oblique findfont 56.3093 sf 0 0 m (t) show NC gr  6 lw 1815 1350 m 20 X s
 gsave  2268 1103 0 472 C 1794.04 1305.57 t 0 r /Helvetica-Oblique findfont 56.3093 sf 0 0 m (t) show NC gr 
 gsave  2268 1103 0 472 C 1776.28 1305.57 t 0 r /Helvetica findfont 56.3093 sf 0 0 m ( ) show NC gr  0.6 0.2 1 c 3 lw 1682 1296 m 79 X 44 Y -79 X f 6 lw black
 gsave  2268 1103 0 472 C 1373.66 1243.4 t 0 r /Helvetica-Oblique findfont 56.3093 sf 0 0 m (W) show NC gr 
 gsave  2268 1103 0 472 C 1352.93 1243.4 t 0 r /Helvetica-Oblique findfont 56.3093 sf 0 0 m (t) show NC gr  6 lw 1353 1288 m 21 X s
 gsave  2268 1103 0 472 C 1332.21 1243.4 t 0 r /Helvetica-Oblique findfont 56.3093 sf 0 0 m (t) show NC gr 
 gsave  2268 1103 0 472 C 1314.45 1243.4 t 0 r /Helvetica findfont 56.3093 sf 0 0 m ( ) show NC gr  0.54 0.06 0.06 c 3 lw 1219 1233 m 79 X 44 Y -79 X f 6 lw black
 gsave  2268 1103 0 472 C 1794.04 1243.4 t 0 r /Helvetica-Oblique findfont 56.3093 sf 0 0 m (tZq) show NC gr 
 gsave  2268 1103 0 472 C 1776.28 1243.4 t 0 r /Helvetica findfont 56.3093 sf 0 0 m ( ) show NC gr  1 0 1 c 3 lw 1682 1233 m 79 X 44 Y -79 X f black
 gsave  2268 1103 0 472 C 1373.66 1178.27 t 0 r /Helvetica-Oblique findfont 56.3093 sf 0 0 m (H) show NC gr 
 gsave  2268 1103 0 472 C 1352.93 1178.27 t 0 r /Helvetica-Oblique findfont 56.3093 sf 0 0 m (t) show NC gr  6 lw 1353 1223 m 21 X s
 gsave  2268 1103 0 472 C 1332.21 1178.27 t 0 r /Helvetica-Oblique findfont 56.3093 sf 0 0 m (t) show NC gr 
 gsave  2268 1103 0 472 C 1314.45 1178.27 t 0 r /Helvetica findfont 56.3093 sf 0 0 m ( ) show NC gr  0 0 1 c 3 lw 1219 1170 m 79 X 44 Y -79 X f 6 lw black
 gsave  2268 1103 0 472 C 1794.04 1178.27 t 0 r /Helvetica-Oblique findfont 56.3093 sf 0 0 m (tWZ/tWH) show NC gr 
 gsave  2268 1103 0 472 C 1776.28 1178.27 t 0 r /Helvetica findfont 56.3093 sf 0 0 m ( ) show NC gr  0.2 0.8 0.8 c 3 lw 1682 1170 m 79 X 44 Y -79 X f black
 gsave  2268 1103 0 472 C 1332.21 1116.1 t 0 r /Helvetica-Oblique findfont 56.3093 sf 0 0 m (tHq) show NC gr 
 gsave  2268 1103 0 472 C 1314.45 1116.1 t 0 r /Helvetica findfont 56.3093 sf 0 0 m ( ) show NC gr  1 0 0 c 3 lw 1219 1107 m 79 X 44 Y -79 X f black
 gsave  2268 1103 0 472 C 1776.28 1116.1 t 0 r /Helvetica findfont 56.3093 sf 0 0 m ( Other) show NC gr  1 0.84 0 c 3 lw 1682 1107 m 79 X 44 Y -79 X f black
 gsave  2268 1103 0 472 C 1314.45 1053.93 t 0 r /Helvetica findfont 56.3093 sf 0 0 m ( Uncertainty) show NC gr  0.6 0.6 0.6 c 3 lw 1298 1058 m -13 -14 d s 1298 1077 m -33 -33 d s 1290 1088 m -44 -44 d s 1271 1088 m -44 -44 d s 1252 1088 m -33 -33 d s
 1233 1088 m -14 -13 d s 1 0.84 0 c 0.6 0.6 0.6 c black
 gsave  2268 1103 0 472 C 894.061 1329.25 t 0 r /Helvetica findfont 41.4911 sf 0 0 m (\2551) show NC gr 
 gsave  2268 1103 0 472 C 399.663 1299.64 t 0 r /Helvetica findfont 62.2366 sf 0 0 m ( = 13 TeV,  139 fb) show NC gr 
 gsave  2268 1103 0 472 C 370.058 1299.64 t 0 r /Helvetica findfont 62.2366 sf 0 0 m (s) show NC gr  6 lw 349 1335 m 6 -38 d s 3 lw 355 1297 m 6 56 d s 361 1353 m 39 X s
 gsave  2268 1103 0 472 C 337.493 1201.95 t 0 r /Helvetica findfont 62.2366 sf 0 0 m ( 2L\(SS\), SR) show NC gr 
 gsave  2268 1103 0 472 C 337.493 1400.3 t 0 r /Helvetica-BoldOblique findfont 71.1276 sf 0 0 m (ATLAS) show NC gr 
 gsave  2268 1103 0 472 C 633.54 1400.3 t 0 r /Helvetica findfont 71.1276 sf 0 0 m (Internal) show NC gr 
 gr  gr showpage
end
%%EOF
