%!PS-Adobe-2.0 EPSF-2.0
%%BoundingBox:  0 0 567 394
%%Title: /lhome/ific/c/cardillo/tHq/Plots/Plots-30-05-22-PLIV-SF/2LSS_MM/Njets_Pre.eps: Njets_Pre
%%Creator: ROOT Version 6.20/06
%%CreationDate: Mon May 30 19:25:21 2022
%%DocumentNeededResources: ProcSet (FontSetInit)
%%EndComments
%%BeginProlog
80 dict begin
/s {stroke} def /l {lineto} def /m {moveto} def /t {translate} def
/r {rotate} def /rl {roll}  def /R {repeat} def
/d {rlineto} def /rm {rmoveto} def /gr {grestore} def /f {eofill} def
/c {setrgbcolor} def /black {0 setgray} def /sd {setdash} def
/cl {closepath} def /sf {scalefont setfont} def /lw {setlinewidth} def
/box {m dup 0 exch d exch 0 d 0 exch neg d cl} def
/NC{systemdict begin initclip end}def/C{NC box clip newpath}def
/bl {box s} def /bf {gsave box gsave f grestore 1 lw [] 0 sd s grestore} def /Y { 0 exch d} def /X { 0 d} def 
/K {{pop pop 0 moveto} exch kshow} bind def
/ita {/ang 15 def gsave [1 0 ang dup sin exch cos div 1 0 0] concat} def 
/mp {newpath /y exch def /x exch def} def
/side {[w .77 mul w .23 mul] .385 w mul sd w 0 l currentpoint t -144 r} def
/mr {mp x y w2 0 360 arc} def /m24 {mr s} def /m20 {mr f} def
/mb {mp x y w2 add m w2 neg 0 d 0 w neg d w 0 d 0 w d cl} def
/mt {mp x y w2 add m w2 neg w neg d w 0 d cl} def
/w4 {w 4 div} def
/w6 {w 6 div} def
/w8 {w 8 div} def
/m21 {mb f} def /m25 {mb s} def /m22 {mt f} def /m26{mt s} def
/m23 {mp x y w2 sub m w2 w d w neg 0 d cl f} def
/m27 {mp x y w2 add m w3 neg w2 neg d w3 w2 neg d w3 w2 d cl s} def
/m28 {mp x w2 sub y w2 sub w3 add m w3 0 d  0 w3 neg d w3 0 d 0 w3 d w3 0 d  0 w3 d w3 neg 0 d 0 w3 d w3 neg 0 d 0 w3 neg d w3 neg 0 d cl s } def
/m29 {mp gsave x w2 sub y w2 add w3 sub m currentpoint t 4 {side} repeat cl fill gr} def
/m30 {mp gsave x w2 sub y w2 add w3 sub m currentpoint t 4 {side} repeat cl s gr} def
/m31 {mp x y w2 sub m 0 w d x w2 sub y m w 0 d x w2 sub y w2 add m w w neg d x w2 sub y w2 sub m w w d s} def
/m32 {mp x y w2 sub m w2 w d w neg 0 d cl s} def
/m33 {mp x y w2 add m w3 neg w2 neg d w3 w2 neg d w3 w2 d cl f} def
/m34 {mp x w2 sub y w2 sub w3 add m w3 0 d  0 w3 neg d w3 0 d 0 w3 d w3 0 d  0 w3 d w3 neg 0 d 0 w3 d w3 neg 0 d 0 w3 neg d w3 neg 0 d cl f } def
/m35 {mp x y w2 add m w2 neg w2 neg d w2 w2 neg d w2 w2 d w2 neg w2 d x y w2 sub m 0 w d x w2 sub y m w 0 d s} def
/m36 {mb x w2 sub y w2 add m w w neg d x w2 sub y w2 sub m w w d s} def
/m37 {mp x y m w4 neg w2 d w4 neg w2 neg d w2 0 d  w4 neg w2 neg d w2 0 d w4 neg w2 d w2 0 d w4 neg w2 d w4 neg w2 neg d cl s} def
/m38 {mp x w4 sub y w2 add m w4 neg w4 neg d 0 w2 neg d w4 w4 neg d w2 0 d w4 w4 d 0 w2 d w4 neg w4 d w2 neg 0 d x y w2 sub m 0 w d x w2 sub y m w 0 d cl s} def
/m39 {mp x y m w4 neg w2 d w4 neg w2 neg d w2 0 d  w4 neg w2 neg d w2 0 d w4 neg w2 d w2 0 d w4 neg w2 d w4 neg w2 neg d cl f} def
/m40 {mp x y m w4 w2 d w4 w4 neg d w2 neg w4 neg d w2 w4 neg d w4 neg w4 neg d w4 neg w2 d w4 neg w2 neg d w4 neg w4 d w2 w4 d w2 neg w4 d w4 w4 d w4 w2 neg d cl s} def
/m41 {mp x y m w4 w2 d w4 w4 neg d w2 neg w4 neg d w2 w4 neg d w4 neg w4 neg d w4 neg w2 d w4 neg w2 neg d w4 neg w4 d w2 w4 d w2 neg w4 d w4 w4 d w4 w2 neg d cl f} def
/m42 {mp x y w2 add m w8 neg w2 -3 4 div mul d w2 -3 4 div mul w8 neg d w2 3 4 div mul w8 neg d w8 w2 -3 4 div mul d w8 w2 3 4 div mul d w2 3 4 div mul w8 d w2 -3 4 div mul w8 d w8 neg w2 3 4 div mul d cl s} def
/m43 {mp x y w2 add m w8 neg w2 -3 4 div mul d w2 -3 4 div mul w8 neg d w2 3 4 div mul w8 neg d w8 w2 -3 4 div mul d w8 w2 3 4 div mul d w2 3 4 div mul w8 d w2 -3 4 div mul w8 d w8 neg w2 3 4 div mul d cl f} def
/m44 {mp x y m w6 neg w2 d w2 2 3 div mul 0 d w6 neg w2 neg d w2 w6 d 0 w2 -2 3 div mul d w2 neg w6 d w6 w2 neg d w2 -2 3 div mul 0 d w6 w2 d w2 neg w6 neg d 0 w2 2 3 div mul d w2 w6 neg d cl s} def
/m45 {mp x y m w6 neg w2 d w2 2 3 div mul 0 d w6 neg w2 neg d w2 w6 d 0 w2 -2 3 div mul d w2 neg w6 d w6 w2 neg d w2 -2 3 div mul 0 d w6 w2 d w2 neg w6 neg d 0 w2 2 3 div mul d w2 w6 neg d cl f} def
/m46 {mp x y w4 add m w4 neg w4 d w4 neg w4 neg d  w4 w4 neg d w4 neg w4 neg d w4 w4 neg d w4 w4 d w4 w4 neg d w4 w4 d w4 neg w4 d w4 w4 d w4 neg w4 d w4 neg w4 neg d cl s} def
/m47 {mp x y w4 add m w4 neg w4 d w4 neg w4 neg d w4 w4 neg d w4 neg w4 neg d  w4 w4 neg d w4 w4 d w4 w4 neg d w4 w4 d w4 neg w4 d w4 w4 d w4 neg w4 d w4 neg w4 neg d cl f} def
/m48 {mp x y w4 add m w4 neg w4 d w4 neg w4 neg d w4 w4 neg d  w4 neg w4 neg d w4 w4 neg d w4 w4 d w4 w4 neg d w4 w4 d w4 neg w4 d w4 w4 d w4 neg w4 d w4 neg w4 neg d  w4 w4 neg d w4 neg w4 neg d w4 neg w4 d w4 w4 d cl f} def
/m49 {mp x w2 sub w3 add y w2 sub w3 add m  0 w3 neg d w3 0 d 0 w3 d w3 0 d 0 w3 d w3 neg 0 d 0 w3 d w3 neg 0 d 0 w3 neg d w3 neg 0 d 0 w3 neg d w3 0 d 0 w3 d w3 0 d 0 w3 neg d w3 neg 0 d cl f } def
/m2 {mp x y w2 sub m 0 w d x w2 sub y m w 0 d s} def
/m5 {mp x w2 sub y w2 sub m w w d x w2 sub y w2 add m w w neg d s} def
%%IncludeResource: ProcSet (FontSetInit)
%%IncludeResource: font Times-Roman
%%IncludeResource: font Times-Italic
%%IncludeResource: font Times-Bold
%%IncludeResource: font Times-BoldItalic
%%IncludeResource: font Helvetica
%%IncludeResource: font Helvetica-Oblique
%%IncludeResource: font Helvetica-Bold
%%IncludeResource: font Helvetica-BoldOblique
%%IncludeResource: font Courier
%%IncludeResource: font Courier-Oblique
%%IncludeResource: font Courier-Bold
%%IncludeResource: font Courier-BoldOblique
%%IncludeResource: font Symbol
%%IncludeResource: font ZapfDingbats
/reEncode {exch findfont dup length dict begin {1 index /FID eq  {pop pop} {def} ifelse } forall /Encoding exch def currentdict end dup /FontName get exch definefont pop } def [/Times-Bold /Times-Italic /Times-BoldItalic /Helvetica /Helvetica-Oblique
 /Helvetica-Bold /Helvetica-BoldOblique /Courier /Courier-Oblique /Courier-Bold /Courier-BoldOblique /Times-Roman /AvantGarde-Book /AvantGarde-BookOblique /AvantGarde-Demi /AvantGarde-DemiOblique /Bookman-Demi /Bookman-DemiItalic /Bookman-Light
 /Bookman-LightItalic /Helvetica-Narrow /Helvetica-Narrow-Bold /Helvetica-Narrow-BoldOblique /Helvetica-Narrow-Oblique /NewCenturySchlbk-Roman /NewCenturySchlbk-Bold /NewCenturySchlbk-BoldItalic /NewCenturySchlbk-Italic /Palatino-Bold
 /Palatino-BoldItalic /Palatino-Italic /Palatino-Roman ] {ISOLatin1Encoding reEncode } forall
%%EndProlog
%%BeginSetup
%%EndSetup
newpath  gsave  .25 .25 scale  gsave  0 0 t black[  ] 0 sd 3 lw 1 1 1 c 2268 1575 0 0 bf black 1 1 1 c 2268 472 0 0 bf black 1 1 1 c 1927 274 227 189 bf black 1927 274 227 189 bl 227 189 m 1927 X s 227 201 m -12 Y s 291 195 m -6 Y s 355 195 m -6 Y s
 420 195 m -6 Y s 484 195 m -6 Y s 548 201 m -12 Y s 612 195 m -6 Y s 677 195 m -6 Y s 741 195 m -6 Y s 805 195 m -6 Y s 869 201 m -12 Y s 934 195 m -6 Y s 998 195 m -6 Y s 1062 195 m -6 Y s 1126 195 m -6 Y s 1191 201 m -12 Y s 1255 195 m -6 Y s 1319
 195 m -6 Y s 1383 195 m -6 Y s 1448 195 m -6 Y s 1512 201 m -12 Y s 1576 195 m -6 Y s 1640 195 m -6 Y s 1705 195 m -6 Y s 1769 195 m -6 Y s 1833 201 m -12 Y s 1897 195 m -6 Y s 1962 195 m -6 Y s 2026 195 m -6 Y s 2090 195 m -6 Y s 2154 201 m -12 Y s
 gsave  2268 472 0 0 C 213.154 127.3 t 0 r /Helvetica findfont 53.4895 sf 0 0 m (1) show NC gr 
 gsave  2268 472 0 0 C 532.884 127.3 t 0 r /Helvetica findfont 53.4895 sf 0 0 m (2) show NC gr 
 gsave  2268 472 0 0 C 852.614 127.3 t 0 r /Helvetica findfont 53.4895 sf 0 0 m (3) show NC gr 
 gsave  2268 472 0 0 C 1175.3 127.3 t 0 r /Helvetica findfont 53.4895 sf 0 0 m (4) show NC gr 
 gsave  2268 472 0 0 C 1495.04 127.3 t 0 r /Helvetica findfont 53.4895 sf 0 0 m (5) show NC gr 
 gsave  2268 472 0 0 C 1817.73 127.3 t 0 r /Helvetica findfont 53.4895 sf 0 0 m (6) show NC gr 
 gsave  2268 472 0 0 C 2137.46 127.3 t 0 r /Helvetica findfont 53.4895 sf 0 0 m (7) show NC gr 
 gsave  2268 472 0 0 C 2090.09 35.5256 t 0 r /Helvetica findfont 38.6313 sf 0 0 m (jets) show NC gr 
 gsave  2268 472 0 0 C 2042.72 53.2884 t 0 r /Helvetica-Oblique findfont 56.4611 sf 0 0 m (N) show NC gr  227 463 m 1927 X s 227 451 m 12 Y s 291 457 m 6 Y s 355 457 m 6 Y s 420 457 m 6 Y s 484 457 m 6 Y s 548 451 m 12 Y s 612 457 m 6 Y s 677 457 m 6
 Y s 741 457 m 6 Y s 805 457 m 6 Y s 869 451 m 12 Y s 934 457 m 6 Y s 998 457 m 6 Y s 1062 457 m 6 Y s 1126 457 m 6 Y s 1191 451 m 12 Y s 1255 457 m 6 Y s 1319 457 m 6 Y s 1383 457 m 6 Y s 1448 457 m 6 Y s 1512 451 m 12 Y s 1576 457 m 6 Y s 1640 457
 m 6 Y s 1705 457 m 6 Y s 1769 457 m 6 Y s 1833 451 m 12 Y s 1897 457 m 6 Y s 1962 457 m 6 Y s 2026 457 m 6 Y s 2090 457 m 6 Y s 2154 451 m 12 Y s 227 189 m 274 Y s 240 240 m -13 X s 240 326 m -13 X s 240 412 m -13 X s 240 240 m -13 X s 240 412 m -13
 X s
 gsave  2268 472 0 0 C 118.419 222.035 t 0 r /Helvetica findfont 53.4895 sf 0 0 m (0.5) show NC gr 
 gsave  2268 472 0 0 C 171.707 307.888 t 0 r /Helvetica findfont 53.4895 sf 0 0 m (1) show NC gr 
 gsave  2268 472 0 0 C 118.419 393.742 t 0 r /Helvetica findfont 53.4895 sf 0 0 m (1.5) show NC gr 
 gsave  2268 472 0 0 C 71.0512 230.916 t 90 r /Helvetica findfont 53.4895 sf 0 0 m (Data / SM) show NC gr  2154 189 m 274 Y s 2141 240 m 13 X s 2141 326 m 13 X s 2141 412 m 13 X s 2141 240 m 13 X s 2141 412 m 13 X s 227 189 m 1927 X s 227 463 m 1927
 X s 227 189 m 274 Y s[ 4 8] 0 sd 2154 240 m -1927 X s 2154 326 m -1927 X s 2154 412 m -1927 X s 2154 240 m -1927 X s 2154 412 m -1927 X s[  ] 0 sd 2154 189 m 274 Y s 1 1 0.6 c 321 0 227 326 bf 321 0 548 326 bf 322 0 869 326 bf 321 0 1191 326 bf 321
 0 1512 326 bf 321 0 1833 326 bf black 0.6 0.6 0.6 c 548 318 m -4 -4 d s 548 338 m -23 -24 d s 529 338 m -23 -24 d s 509 338 m -23 -24 d s 490 338 m -23 -24 d s 471 338 m -23 -24 d s 452 338 m -23 -24 d s 432 338 m -22 -24 d s 413 338 m -23 -24 d s
 394 338 m -23 -24 d s 375 338 m -23 -24 d s 356 338 m -23 -24 d s 336 338 m -23 -24 d s 317 338 m -23 -24 d s 298 338 m -23 -24 d s 279 338 m -23 -24 d s 259 338 m -23 -24 d s 240 338 m -13 -14 d s 868 330 m -9 -8 d s 849 330 m -9 -8 d s 829 330 m
 -8 -8 d s 810 330 m -8 -8 d s 791 330 m -9 -8 d s 772 330 m -9 -8 d s 752 330 m -8 -8 d s 733 330 m -8 -8 d s 714 330 m -9 -8 d s 695 330 m -9 -8 d s 675 330 m -8 -8 d s 656 330 m -8 -8 d s 637 330 m -9 -8 d s 618 330 m -9 -8 d s 598 330 m -8 -8 d s
 579 330 m -8 -8 d s 560 330 m -8 -8 d s 1191 326 m -2 -2 d s 1173 328 m -3 -4 d s 1154 328 m -4 -4 d s 1135 328 m -4 -4 d s 1116 328 m -4 -4 d s 1096 328 m -3 -4 d s 1077 328 m -4 -4 d s 1058 328 m -4 -4 d s 1039 328 m -4 -4 d s 1019 328 m -3 -4 d s
 1000 328 m -4 -4 d s 981 328 m -4 -4 d s 962 328 m -4 -4 d s 942 328 m -3 -4 d s 923 328 m -4 -4 d s 904 328 m -4 -4 d s 885 328 m -4 -4 d s 1500 328 m -3 -4 d s 1481 328 m -4 -4 d s 1462 328 m -4 -4 d s 1443 328 m -4 -4 d s 1423 328 m -3 -4 d s
 1404 328 m -4 -4 d s 1385 328 m -4 -4 d s 1366 328 m -4 -4 d s 1347 328 m -4 -4 d s 1327 328 m -3 -4 d s 1308 328 m -4 -4 d s 1289 328 m -4 -4 d s 1270 328 m -4 -4 d s 1250 328 m -3 -4 d s 1231 328 m -4 -4 d s 1212 328 m -4 -4 d s 1193 328 m -2 -2 d
 s 1827 327 m -3 -2 d s 1808 327 m -3 -2 d s 1788 327 m -2 -2 d s 1769 327 m -2 -2 d s 1750 327 m -3 -2 d s 1731 327 m -3 -2 d s 1711 327 m -2 -2 d s 1692 327 m -2 -2 d s 1673 327 m -2 -2 d s 1654 327 m -3 -2 d s 1635 327 m -3 -2 d s 1615 327 m -2 -2
 d s 1596 327 m -2 -2 d s 1577 327 m -3 -2 d s 1558 327 m -3 -2 d s 1538 327 m -2 -2 d s 1519 327 m -2 -2 d s 2154 327 m -3 -2 d s 2135 327 m -3 -2 d s 2116 327 m -3 -2 d s 2097 327 m -3 -2 d s 2077 327 m -3 -2 d s 2058 327 m -3 -2 d s 2039 327 m -3
 -2 d s 2020 327 m -3 -2 d s 2000 327 m -3 -2 d s 1981 327 m -3 -2 d s 1962 327 m -3 -2 d s 1943 327 m -3 -2 d s 1923 327 m -3 -2 d s 1904 327 m -3 -2 d s 1885 327 m -3 -2 d s 1866 327 m -3 -2 d s 1846 327 m -3 -2 d s black 1 1 1 c black /w 26 def
 /w2 {w 2 div} def /w3 {w 3 div} def 387 321 m20 709 335 m20 1030 320 m20 1351 317 m20 1672 320 m20 1994 334 m20 227 326 m 1927 X s 227 189 m 1927 X s 227 201 m -12 Y s 291 195 m -6 Y s 355 195 m -6 Y s 420 195 m -6 Y s 484 195 m -6 Y s 548 201 m -12
 Y s 612 195 m -6 Y s 677 195 m -6 Y s 741 195 m -6 Y s 805 195 m -6 Y s 869 201 m -12 Y s 934 195 m -6 Y s 998 195 m -6 Y s 1062 195 m -6 Y s 1126 195 m -6 Y s 1191 201 m -12 Y s 1255 195 m -6 Y s 1319 195 m -6 Y s 1383 195 m -6 Y s 1448 195 m -6 Y
 s 1512 201 m -12 Y s 1576 195 m -6 Y s 1640 195 m -6 Y s 1705 195 m -6 Y s 1769 195 m -6 Y s 1833 201 m -12 Y s 1897 195 m -6 Y s 1962 195 m -6 Y s 2026 195 m -6 Y s 2090 195 m -6 Y s 2154 201 m -12 Y s 227 463 m 1927 X s 227 451 m 12 Y s 291 457 m
 6 Y s 355 457 m 6 Y s 420 457 m 6 Y s 484 457 m 6 Y s 548 451 m 12 Y s 612 457 m 6 Y s 677 457 m 6 Y s 741 457 m 6 Y s 805 457 m 6 Y s 869 451 m 12 Y s 934 457 m 6 Y s 998 457 m 6 Y s 1062 457 m 6 Y s 1126 457 m 6 Y s 1191 451 m 12 Y s 1255 457 m 6
 Y s 1319 457 m 6 Y s 1383 457 m 6 Y s 1448 457 m 6 Y s 1512 451 m 12 Y s 1576 457 m 6 Y s 1640 457 m 6 Y s 1705 457 m 6 Y s 1769 457 m 6 Y s 1833 451 m 12 Y s 1897 457 m 6 Y s 1962 457 m 6 Y s 2026 457 m 6 Y s 2090 457 m 6 Y s 2154 451 m 12 Y s 227
 189 m 274 Y s 240 240 m -13 X s 240 326 m -13 X s 240 412 m -13 X s 240 240 m -13 X s 240 412 m -13 X s 2154 189 m 274 Y s 2141 240 m 13 X s 2141 326 m 13 X s 2141 412 m 13 X s 2141 240 m 13 X s 2141 412 m 13 X s 1 1 1 c 2268 1103 0 472 bf black 1 1
 1 c 1927 1036 227 484 bf black 1927 1036 227 484 bl 1 1 1 c black 3 lw 227 484 m 1927 X s 227 502 m -18 Y s 291 493 m -9 Y s 355 493 m -9 Y s 420 493 m -9 Y s 484 493 m -9 Y s 548 502 m -18 Y s 612 493 m -9 Y s 677 493 m -9 Y s 741 493 m -9 Y s 805
 493 m -9 Y s 869 502 m -18 Y s 934 493 m -9 Y s 998 493 m -9 Y s 1062 493 m -9 Y s 1126 493 m -9 Y s 1191 502 m -18 Y s 1255 493 m -9 Y s 1319 493 m -9 Y s 1383 493 m -9 Y s 1448 493 m -9 Y s 1512 502 m -18 Y s 1576 493 m -9 Y s 1640 493 m -9 Y s
 1705 493 m -9 Y s 1769 493 m -9 Y s 1833 502 m -18 Y s 1897 493 m -9 Y s 1962 493 m -9 Y s 2026 493 m -9 Y s 2090 493 m -9 Y s 2154 502 m -18 Y s
 gsave  2268 1103 0 472 C 2116.73 396.702 t 0 r /Helvetica findfont 20.7455 sf 0 0 m (jets) show NC gr 
 gsave  2268 1103 0 472 C 2090.09 405.584 t 0 r /Helvetica-Oblique findfont 29.6365 sf 0 0 m (N) show NC gr  227 1520 m 1927 X s 227 1501 m 19 Y s 291 1510 m 10 Y s 355 1510 m 10 Y s 420 1510 m 10 Y s 484 1510 m 10 Y s 548 1501 m 19 Y s 612 1510 m 10
 Y s 677 1510 m 10 Y s 741 1510 m 10 Y s 805 1510 m 10 Y s 869 1501 m 19 Y s 934 1510 m 10 Y s 998 1510 m 10 Y s 1062 1510 m 10 Y s 1126 1510 m 10 Y s 1191 1501 m 19 Y s 1255 1510 m 10 Y s 1319 1510 m 10 Y s 1383 1510 m 10 Y s 1448 1510 m 10 Y s 1512
 1501 m 19 Y s 1576 1510 m 10 Y s 1640 1510 m 10 Y s 1705 1510 m 10 Y s 1769 1510 m 10 Y s 1833 1501 m 19 Y s 1897 1510 m 10 Y s 1962 1510 m 10 Y s 2026 1510 m 10 Y s 2090 1510 m 10 Y s 2154 1501 m 19 Y s 227 484 m 1036 Y s 248 588 m -21 X s 237 614
 m -10 X s 237 641 m -10 X s 237 667 m -10 X s 248 693 m -21 X s 237 719 m -10 X s 237 745 m -10 X s 237 772 m -10 X s 248 798 m -21 X s 237 824 m -10 X s 237 850 m -10 X s 237 876 m -10 X s 248 903 m -21 X s 237 929 m -10 X s 237 955 m -10 X s 237
 981 m -10 X s 248 1007 m -21 X s 237 1033 m -10 X s 237 1060 m -10 X s 237 1086 m -10 X s 248 1112 m -21 X s 237 1138 m -10 X s 237 1164 m -10 X s 237 1191 m -10 X s 248 1217 m -21 X s 237 1243 m -10 X s 237 1269 m -10 X s 237 1295 m -10 X s 248
 1322 m -21 X s 237 1348 m -10 X s 237 1374 m -10 X s 237 1400 m -10 X s 248 1426 m -21 X s 248 588 m -21 X s 237 562 m -10 X s 237 536 m -10 X s 237 510 m -10 X s 248 1426 m -21 X s 237 1452 m -10 X s 237 1479 m -10 X s 237 1505 m -10 X s
 gsave  2268 1103 0 472 C 118.419 568.409 t 0 r /Helvetica findfont 50.382 sf 0 0 m (200) show NC gr 
 gsave  2268 1103 0 472 C 118.419 674.986 t 0 r /Helvetica findfont 50.382 sf 0 0 m (400) show NC gr 
 gsave  2268 1103 0 472 C 118.419 778.602 t 0 r /Helvetica findfont 50.382 sf 0 0 m (600) show NC gr 
 gsave  2268 1103 0 472 C 118.419 882.219 t 0 r /Helvetica findfont 50.382 sf 0 0 m (800) show NC gr 
 gsave  2268 1103 0 472 C 91.7744 988.795 t 0 r /Helvetica findfont 50.382 sf 0 0 m (1000) show NC gr 
 gsave  2268 1103 0 472 C 91.7744 1092.41 t 0 r /Helvetica findfont 50.382 sf 0 0 m (1200) show NC gr 
 gsave  2268 1103 0 472 C 91.7744 1198.99 t 0 r /Helvetica findfont 50.382 sf 0 0 m (1400) show NC gr 
 gsave  2268 1103 0 472 C 91.7744 1302.6 t 0 r /Helvetica findfont 50.382 sf 0 0 m (1600) show NC gr 
 gsave  2268 1103 0 472 C 91.7744 1406.22 t 0 r /Helvetica findfont 50.382 sf 0 0 m (1800) show NC gr 
 gsave  2268 1103 0 472 C 62.1698 1367.74 t 90 r /Helvetica findfont 50.382 sf 0 0 m (Events) show NC gr  2154 484 m 1036 Y s 2133 588 m 21 X s 2144 614 m 10 X s 2144 641 m 10 X s 2144 667 m 10 X s 2133 693 m 21 X s 2144 719 m 10 X s 2144 745 m 10 X
 s 2144 772 m 10 X s 2133 798 m 21 X s 2144 824 m 10 X s 2144 850 m 10 X s 2144 876 m 10 X s 2133 903 m 21 X s 2144 929 m 10 X s 2144 955 m 10 X s 2144 981 m 10 X s 2133 1007 m 21 X s 2144 1033 m 10 X s 2144 1060 m 10 X s 2144 1086 m 10 X s 2133 1112
 m 21 X s 2144 1138 m 10 X s 2144 1164 m 10 X s 2144 1191 m 10 X s 2133 1217 m 21 X s 2144 1243 m 10 X s 2144 1269 m 10 X s 2144 1295 m 10 X s 2133 1322 m 21 X s 2144 1348 m 10 X s 2144 1374 m 10 X s 2144 1400 m 10 X s 2133 1426 m 21 X s 2133 588 m
 21 X s 2144 562 m 10 X s 2144 536 m 10 X s 2144 510 m 10 X s 2133 1426 m 21 X s 2144 1452 m 10 X s 2144 1479 m 10 X s 2144 1505 m 10 X s 0.4 0.6 0.4 c black 3 lw 0.4 0.6 0.4 c 227 484 m 108 Y 321 X 157 Y 321 X 124 Y 322 X 25 Y 321 X -92 Y 321 X -114
 Y 321 X -208 Y f 0.06 0.54 0.06 c 0.999 0.999 0.999 c black 3 lw 0.999 0.999 0.999 c 227 484 m 83 Y 321 X 100 Y 321 X 69 Y 322 X 34 Y 321 X -53 Y 321 X -77 Y 321 X -156 Y f 0.06 0.54 0.06 c 0.999 0.999 0.999 c 0.06 0.54 0.06 c 1 1 1 c black 0.06
 0.54 0.06 c black 3 lw 0.06 0.54 0.06 c 227 484 m 83 Y 321 X 100 Y 321 X 69 Y 322 X 34 Y 321 X -53 Y 321 X -77 Y 321 X -156 Y f 1 0.653333 0 c 0.999 0.999 0.999 c black 3 lw 0.999 0.999 0.999 c 227 484 m 66 Y 321 X 44 Y 321 X 54 Y 322 X 53 Y 321 X
 -27 Y 321 X -58 Y 321 X -132 Y f 1 0.653333 0 c 0.999 0.999 0.999 c 1 0.653333 0 c 1 1 1 c black 1 0.653333 0 c black 3 lw 1 0.653333 0 c 227 484 m 66 Y 321 X 44 Y 321 X 54 Y 322 X 53 Y 321 X -27 Y 321 X -58 Y 321 X -132 Y f 0.413333 1 0 c 0.999
 0.999 0.999 c black 3 lw 0.999 0.999 0.999 c 227 484 m 24 Y 321 X 45 Y 321 X 68 Y 322 X 57 Y 321 X -16 Y 321 X -53 Y 321 X -125 Y f 0.413333 1 0 c 0.999 0.999 0.999 c 0.413333 1 0 c 1 1 1 c black 0.413333 1 0 c black 3 lw 0.413333 1 0 c 227 484 m 24
 Y 321 X 45 Y 321 X 68 Y 322 X 57 Y 321 X -16 Y 321 X -53 Y 321 X -125 Y f 0.6 0.2 1 c 0.999 0.999 0.999 c black 3 lw 0.999 0.999 0.999 c 227 484 m 6 Y 321 X 28 Y 321 X 66 Y 322 X 67 Y 321 X -7 Y 321 X -44 Y 321 X -116 Y f 0.6 0.2 1 c 0.999 0.999
 0.999 c 0.6 0.2 1 c 1 1 1 c black 0.6 0.2 1 c black 3 lw 0.6 0.2 1 c 227 484 m 6 Y 321 X 28 Y 321 X 66 Y 322 X 67 Y 321 X -7 Y 321 X -44 Y 321 X -116 Y f 0.54 0.06 0.06 c 0.999 0.999 0.999 c black 3 lw 0.999 0.999 0.999 c 227 484 m 6 Y 321 X 25 Y
 321 X 58 Y 322 X 57 Y 321 X -13 Y 321 X -39 Y 321 X -94 Y f 0.54 0.06 0.06 c 0.999 0.999 0.999 c 0.54 0.06 0.06 c 1 1 1 c black 0.54 0.06 0.06 c black 3 lw 0.54 0.06 0.06 c 227 484 m 6 Y 321 X 25 Y 321 X 58 Y 322 X 57 Y 321 X -13 Y 321 X -39 Y 321 X
 -94 Y f 1 0 1 c 0.999 0.999 0.999 c black 3 lw 0.999 0.999 0.999 c 227 484 m 4 Y 321 X 8 Y 321 X 11 Y 322 X 10 Y 642 X -5 Y 321 X -28 Y f 1 0 1 c 0.999 0.999 0.999 c 1 0 1 c 1 1 1 c black 1 0 1 c black 3 lw 1 0 1 c 227 484 m 4 Y 321 X 8 Y 321 X 11 Y
 322 X 10 Y 642 X -5 Y 321 X -28 Y f 0 0 1 c 0.999 0.999 0.999 c black 3 lw 0.999 0.999 0.999 c 227 484 m 3 Y 321 X 3 Y 321 X 5 Y 322 X 10 Y 321 X 5 Y 321 X -1 Y 321 X -25 Y f 0 0 1 c 0.999 0.999 0.999 c 0 0 1 c 1 1 1 c black 0 0 1 c black 3 lw 0 0 1
 c 227 484 m 3 Y 321 X 3 Y 321 X 5 Y 322 X 10 Y 321 X 5 Y 321 X -1 Y 321 X -25 Y f 0.2 0.8 0.8 c 0.999 0.999 0.999 c black 3 lw 0.999 0.999 0.999 c 227 484 m 3 Y 321 X 1 Y 321 X 1 Y 322 X 1 Y 321 X -1 Y 321 X -1 Y 321 X -4 Y f 0.2 0.8 0.8 c 0.999
 0.999 0.999 c 0.2 0.8 0.8 c 1 1 1 c black 0.2 0.8 0.8 c black 3 lw 0.2 0.8 0.8 c 227 484 m 3 Y 321 X 1 Y 321 X 1 Y 322 X 1 Y 321 X -1 Y 321 X -1 Y 321 X -4 Y f 1 0 0 c 0.999 0.999 0.999 c black 3 lw 0.999 0.999 0.999 c 227 484 m 3 Y 321 X 1 Y 321 X
 -1 Y 643 X -2 Y 321 X 1 Y 321 X -2 Y f 1 0 0 c 0.999 0.999 0.999 c 1 0 0 c 1 1 1 c black 1 0 0 c black 3 lw 1 0 0 c 227 484 m 3 Y 321 X 1 Y 321 X -1 Y 643 X -2 Y 321 X 1 Y 321 X -2 Y f 1 0.84 0 c 0.999 0.999 0.999 c black 3 lw 0.999 0.999 0.999 c
 227 484 m 2 Y 321 X 1 Y 321 X -2 Y 643 X -1 Y 321 X 1 Y 321 X -1 Y f 1 0.84 0 c 0.999 0.999 0.999 c 1 0.84 0 c 1 1 1 c black 1 0.84 0 c black 3 lw 1 0.84 0 c 227 484 m 2 Y 321 X 1 Y 321 X -2 Y 643 X -1 Y 321 X 1 Y 321 X -1 Y f black 1 1 1 c black
 0.6 0.6 0.6 c 3 lw 548 597 m -12 -12 d s 531 599 m -15 -14 d s 512 599 m -15 -14 d s 493 599 m -15 -14 d s 473 599 m -14 -14 d s 454 599 m -14 -14 d s 435 599 m -15 -14 d s 416 599 m -15 -14 d s 396 599 m -14 -14 d s 377 599 m -14 -14 d s 358 599 m
 -15 -14 d s 339 599 m -15 -14 d s 319 599 m -14 -14 d s 300 599 m -14 -14 d s 281 599 m -15 -14 d s 262 599 m -15 -14 d s 242 599 m -14 -14 d s 3 lw 869 745 m -2 -2 d s 861 756 m -13 -13 d s 842 756 m -13 -13 d s 822 756 m -13 -13 d s 803 756 m -13
 -13 d s 784 756 m -13 -13 d s 765 756 m -13 -13 d s 745 756 m -13 -13 d s 726 756 m -13 -13 d s 707 756 m -13 -13 d s 688 756 m -13 -13 d s 668 756 m -13 -13 d s 649 756 m -13 -13 d s 630 756 m -13 -13 d s 611 756 m -13 -13 d s 591 756 m -13 -13 d s
 572 756 m -13 -13 d s 553 756 m -5 -5 d s 3 lw 1191 873 m -5 -4 d s 1175 877 m -9 -8 d s 1156 877 m -9 -8 d s 1137 877 m -9 -8 d s 1118 877 m -9 -8 d s 1098 877 m -9 -8 d s 1079 877 m -9 -8 d s 1060 877 m -9 -8 d s 1041 877 m -9 -8 d s 1021 877 m -9
 -8 d s 1002 877 m -9 -8 d s 983 877 m -9 -8 d s 964 877 m -9 -8 d s 944 877 m -8 -8 d s 925 877 m -9 -8 d s 906 877 m -9 -8 d s 887 877 m -9 -8 d s 3 lw 1508 903 m -9 -10 d s 1489 903 m -9 -10 d s 1470 903 m -9 -10 d s 1451 903 m -10 -10 d s 1431
 903 m -9 -10 d s 1412 903 m -9 -10 d s 1393 903 m -9 -10 d s 1374 903 m -9 -10 d s 1354 903 m -9 -10 d s 1335 903 m -9 -10 d s 1316 903 m -9 -10 d s 1297 903 m -9 -10 d s 1277 903 m -9 -10 d s 1258 903 m -9 -10 d s 1239 903 m -9 -10 d s 1220 903 m
 -9 -10 d s 1201 903 m -10 -10 d s 3 lw 1833 804 m -1 -1 d s 1818 808 m -5 -5 d s 1798 808 m -4 -5 d s 1779 808 m -5 -5 d s 1760 808 m -5 -5 d s 1741 808 m -5 -5 d s 1721 808 m -4 -5 d s 1702 808 m -5 -5 d s 1683 808 m -5 -5 d s 1664 808 m -5 -5 d s
 1644 808 m -4 -5 d s 1625 808 m -5 -5 d s 1606 808 m -5 -5 d s 1587 808 m -5 -5 d s 1567 808 m -4 -5 d s 1548 808 m -5 -5 d s 1529 808 m -5 -5 d s 3 lw 2146 694 m -3 -4 d s 2127 694 m -4 -4 d s 2108 694 m -4 -4 d s 2088 694 m -3 -4 d s 2069 694 m -3
 -4 d s 2050 694 m -4 -4 d s 2031 694 m -4 -4 d s 2011 694 m -3 -4 d s 1992 694 m -3 -4 d s 1973 694 m -4 -4 d s 1954 694 m -4 -4 d s 1934 694 m -3 -4 d s 1915 694 m -3 -4 d s 1896 694 m -4 -4 d s 1877 694 m -4 -4 d s 1857 694 m -3 -4 d s 1838 694 m
 -3 -4 d s black 3 lw 1 1 1 c black /w 24 def /w2 {w 2 div} def /w3 {w 3 div} def 387 589 m20 709 751 m s 709 775 m s 709 763 m20 1030 845 m 2 Y s 1030 871 m 2 Y s 1030 859 m20 1351 862 m 2 Y s 1351 888 m 3 Y s 1351 876 m20 1672 781 m 1 Y s 1672 806
 m 1 Y s 1672 794 m20 1994 702 m20 227 484 m 1927 X s 227 502 m -18 Y s 291 493 m -9 Y s 355 493 m -9 Y s 420 493 m -9 Y s 484 493 m -9 Y s 548 502 m -18 Y s 612 493 m -9 Y s 677 493 m -9 Y s 741 493 m -9 Y s 805 493 m -9 Y s 869 502 m -18 Y s 934
 493 m -9 Y s 998 493 m -9 Y s 1062 493 m -9 Y s 1126 493 m -9 Y s 1191 502 m -18 Y s 1255 493 m -9 Y s 1319 493 m -9 Y s 1383 493 m -9 Y s 1448 493 m -9 Y s 1512 502 m -18 Y s 1576 493 m -9 Y s 1640 493 m -9 Y s 1705 493 m -9 Y s 1769 493 m -9 Y s
 1833 502 m -18 Y s 1897 493 m -9 Y s 1962 493 m -9 Y s 2026 493 m -9 Y s 2090 493 m -9 Y s 2154 502 m -18 Y s 227 1520 m 1927 X s 227 1501 m 19 Y s 291 1510 m 10 Y s 355 1510 m 10 Y s 420 1510 m 10 Y s 484 1510 m 10 Y s 548 1501 m 19 Y s 612 1510 m
 10 Y s 677 1510 m 10 Y s 741 1510 m 10 Y s 805 1510 m 10 Y s 869 1501 m 19 Y s 934 1510 m 10 Y s 998 1510 m 10 Y s 1062 1510 m 10 Y s 1126 1510 m 10 Y s 1191 1501 m 19 Y s 1255 1510 m 10 Y s 1319 1510 m 10 Y s 1383 1510 m 10 Y s 1448 1510 m 10 Y s
 1512 1501 m 19 Y s 1576 1510 m 10 Y s 1640 1510 m 10 Y s 1705 1510 m 10 Y s 1769 1510 m 10 Y s 1833 1501 m 19 Y s 1897 1510 m 10 Y s 1962 1510 m 10 Y s 2026 1510 m 10 Y s 2090 1510 m 10 Y s 2154 1501 m 19 Y s 227 484 m 1036 Y s 248 588 m -21 X s 237
 614 m -10 X s 237 641 m -10 X s 237 667 m -10 X s 248 693 m -21 X s 237 719 m -10 X s 237 745 m -10 X s 237 772 m -10 X s 248 798 m -21 X s 237 824 m -10 X s 237 850 m -10 X s 237 876 m -10 X s 248 903 m -21 X s 237 929 m -10 X s 237 955 m -10 X s
 237 981 m -10 X s 248 1007 m -21 X s 237 1033 m -10 X s 237 1060 m -10 X s 237 1086 m -10 X s 248 1112 m -21 X s 237 1138 m -10 X s 237 1164 m -10 X s 237 1191 m -10 X s 248 1217 m -21 X s 237 1243 m -10 X s 237 1269 m -10 X s 237 1295 m -10 X s 248
 1322 m -21 X s 237 1348 m -10 X s 237 1374 m -10 X s 237 1400 m -10 X s 248 1426 m -21 X s 248 588 m -21 X s 237 562 m -10 X s 237 536 m -10 X s 237 510 m -10 X s 248 1426 m -21 X s 237 1452 m -10 X s 237 1479 m -10 X s 237 1505 m -10 X s 2154 484 m
 1036 Y s 2133 588 m 21 X s 2144 614 m 10 X s 2144 641 m 10 X s 2144 667 m 10 X s 2133 693 m 21 X s 2144 719 m 10 X s 2144 745 m 10 X s 2144 772 m 10 X s 2133 798 m 21 X s 2144 824 m 10 X s 2144 850 m 10 X s 2144 876 m 10 X s 2133 903 m 21 X s 2144
 929 m 10 X s 2144 955 m 10 X s 2144 981 m 10 X s 2133 1007 m 21 X s 2144 1033 m 10 X s 2144 1060 m 10 X s 2144 1086 m 10 X s 2133 1112 m 21 X s 2144 1138 m 10 X s 2144 1164 m 10 X s 2144 1191 m 10 X s 2133 1217 m 21 X s 2144 1243 m 10 X s 2144 1269
 m 10 X s 2144 1295 m 10 X s 2133 1322 m 21 X s 2144 1348 m 10 X s 2144 1374 m 10 X s 2144 1400 m 10 X s 2133 1426 m 21 X s 2133 588 m 21 X s 2144 562 m 10 X s 2144 536 m 10 X s 2144 510 m 10 X s 2133 1426 m 21 X s 2144 1452 m 10 X s 2144 1479 m 10 X
 s 2144 1505 m 10 X s
 gsave  2268 1103 0 472 C 1314.45 1432.87 t 0 r /Helvetica findfont 56.3093 sf 0 0 m ( Data) show NC gr  1259 1456 m 7 Y s 1259 1432 m -7 Y s 1259 1444 m20
 gsave  2268 1103 0 472 C 1776.28 1432.87 t 0 r /Helvetica findfont 56.3093 sf 0 0 m ( Fakes \(MM\)) show NC gr  0.4 0.6 0.4 c 1682 1422 m 79 X 44 Y -79 X f black
 gsave  2268 1103 0 472 C 1403.26 1367.74 t 0 r /Helvetica findfont 56.3093 sf 0 0 m (single\255top) show NC gr 
 gsave  2268 1103 0 472 C 1373.66 1367.74 t 0 r /Helvetica-Oblique findfont 56.3093 sf 0 0 m (/) show NC gr 
 gsave  2268 1103 0 472 C 1352.93 1367.74 t 0 r /Helvetica-Oblique findfont 56.3093 sf 0 0 m (t) show NC gr  6 lw 1353 1412 m 21 X s
 gsave  2268 1103 0 472 C 1332.21 1367.74 t 0 r /Helvetica-Oblique findfont 56.3093 sf 0 0 m (t) show NC gr 
 gsave  2268 1103 0 472 C 1314.45 1367.74 t 0 r /Helvetica findfont 56.3093 sf 0 0 m ( ) show NC gr  0.06 0.54 0.06 c 3 lw 1219 1359 m 79 X 44 Y -79 X f 6 lw black
 gsave  2268 1103 0 472 C 1906.54 1367.74 t 0 r /Helvetica findfont 56.3093 sf 0 0 m (+jets) show NC gr 
 gsave  2268 1103 0 472 C 1794.04 1367.74 t 0 r /Helvetica-Oblique findfont 56.3093 sf 0 0 m (W/Z) show NC gr 
 gsave  2268 1103 0 472 C 1776.28 1367.74 t 0 r /Helvetica findfont 56.3093 sf 0 0 m ( ) show NC gr  1 0.653333 0 c 3 lw 1682 1359 m 79 X 44 Y -79 X f black
 gsave  2268 1103 0 472 C 1512.8 1305.57 t 0 r /Helvetica findfont 56.3093 sf 0 0 m (+jets) show NC gr 
 gsave  2268 1103 0 472 C 1332.21 1305.57 t 0 r /Helvetica-Oblique findfont 56.3093 sf 0 0 m (WZ/ZZ) show NC gr 
 gsave  2268 1103 0 472 C 1314.45 1305.57 t 0 r /Helvetica findfont 56.3093 sf 0 0 m ( ) show NC gr  0.413333 1 0 c 3 lw 1219 1296 m 79 X 44 Y -79 X f black
 gsave  2268 1103 0 472 C 1835.49 1305.57 t 0 r /Helvetica-Oblique findfont 56.3093 sf 0 0 m (Z) show NC gr 
 gsave  2268 1103 0 472 C 1814.77 1305.57 t 0 r /Helvetica-Oblique findfont 56.3093 sf 0 0 m (t) show NC gr  6 lw 1815 1350 m 20 X s
 gsave  2268 1103 0 472 C 1794.04 1305.57 t 0 r /Helvetica-Oblique findfont 56.3093 sf 0 0 m (t) show NC gr 
 gsave  2268 1103 0 472 C 1776.28 1305.57 t 0 r /Helvetica findfont 56.3093 sf 0 0 m ( ) show NC gr  0.6 0.2 1 c 3 lw 1682 1296 m 79 X 44 Y -79 X f 6 lw black
 gsave  2268 1103 0 472 C 1373.66 1243.4 t 0 r /Helvetica-Oblique findfont 56.3093 sf 0 0 m (W) show NC gr 
 gsave  2268 1103 0 472 C 1352.93 1243.4 t 0 r /Helvetica-Oblique findfont 56.3093 sf 0 0 m (t) show NC gr  6 lw 1353 1288 m 21 X s
 gsave  2268 1103 0 472 C 1332.21 1243.4 t 0 r /Helvetica-Oblique findfont 56.3093 sf 0 0 m (t) show NC gr 
 gsave  2268 1103 0 472 C 1314.45 1243.4 t 0 r /Helvetica findfont 56.3093 sf 0 0 m ( ) show NC gr  0.54 0.06 0.06 c 3 lw 1219 1233 m 79 X 44 Y -79 X f 6 lw black
 gsave  2268 1103 0 472 C 1794.04 1243.4 t 0 r /Helvetica-Oblique findfont 56.3093 sf 0 0 m (tZq) show NC gr 
 gsave  2268 1103 0 472 C 1776.28 1243.4 t 0 r /Helvetica findfont 56.3093 sf 0 0 m ( ) show NC gr  1 0 1 c 3 lw 1682 1233 m 79 X 44 Y -79 X f black
 gsave  2268 1103 0 472 C 1373.66 1178.27 t 0 r /Helvetica-Oblique findfont 56.3093 sf 0 0 m (H) show NC gr 
 gsave  2268 1103 0 472 C 1352.93 1178.27 t 0 r /Helvetica-Oblique findfont 56.3093 sf 0 0 m (t) show NC gr  6 lw 1353 1223 m 21 X s
 gsave  2268 1103 0 472 C 1332.21 1178.27 t 0 r /Helvetica-Oblique findfont 56.3093 sf 0 0 m (t) show NC gr 
 gsave  2268 1103 0 472 C 1314.45 1178.27 t 0 r /Helvetica findfont 56.3093 sf 0 0 m ( ) show NC gr  0 0 1 c 3 lw 1219 1170 m 79 X 44 Y -79 X f 6 lw black
 gsave  2268 1103 0 472 C 1794.04 1178.27 t 0 r /Helvetica-Oblique findfont 56.3093 sf 0 0 m (tWZ/tWH) show NC gr 
 gsave  2268 1103 0 472 C 1776.28 1178.27 t 0 r /Helvetica findfont 56.3093 sf 0 0 m ( ) show NC gr  0.2 0.8 0.8 c 3 lw 1682 1170 m 79 X 44 Y -79 X f black
 gsave  2268 1103 0 472 C 1332.21 1116.1 t 0 r /Helvetica-Oblique findfont 56.3093 sf 0 0 m (tHq) show NC gr 
 gsave  2268 1103 0 472 C 1314.45 1116.1 t 0 r /Helvetica findfont 56.3093 sf 0 0 m ( ) show NC gr  1 0 0 c 3 lw 1219 1107 m 79 X 44 Y -79 X f black
 gsave  2268 1103 0 472 C 1776.28 1116.1 t 0 r /Helvetica findfont 56.3093 sf 0 0 m ( Other) show NC gr  1 0.84 0 c 3 lw 1682 1107 m 79 X 44 Y -79 X f black
 gsave  2268 1103 0 472 C 1314.45 1053.93 t 0 r /Helvetica findfont 56.3093 sf 0 0 m ( Uncertainty) show NC gr  0.6 0.6 0.6 c 3 lw 1298 1058 m -13 -14 d s 1298 1077 m -33 -33 d s 1290 1088 m -44 -44 d s 1271 1088 m -44 -44 d s 1252 1088 m -33 -33 d s
 1233 1088 m -14 -13 d s 1 0.84 0 c 0.6 0.6 0.6 c black
 gsave  2268 1103 0 472 C 894.061 1329.25 t 0 r /Helvetica findfont 41.4911 sf 0 0 m (\2551) show NC gr 
 gsave  2268 1103 0 472 C 399.663 1299.64 t 0 r /Helvetica findfont 62.2366 sf 0 0 m ( = 13 TeV,  139 fb) show NC gr 
 gsave  2268 1103 0 472 C 370.058 1299.64 t 0 r /Helvetica findfont 62.2366 sf 0 0 m (s) show NC gr  6 lw 349 1335 m 6 -38 d s 3 lw 355 1297 m 6 56 d s 361 1353 m 39 X s
 gsave  2268 1103 0 472 C 337.493 1201.95 t 0 r /Helvetica findfont 62.2366 sf 0 0 m ( 2L\(SS\) pre\255selection) show NC gr 
 gsave  2268 1103 0 472 C 337.493 1400.3 t 0 r /Helvetica-BoldOblique findfont 71.1276 sf 0 0 m (ATLAS) show NC gr 
 gsave  2268 1103 0 472 C 633.54 1400.3 t 0 r /Helvetica findfont 71.1276 sf 0 0 m (Internal) show NC gr 
 gr  gr showpage
end
%%EOF
