%!PS-Adobe-2.0 EPSF-2.0
%%BoundingBox:  0 0 567 394
%%Title: /lhome/ific/c/cardillo/tHq/Plots/Plots-30-05-22-PLIV-SF/2LSS_MM/Njets_CRVV.eps: Njets_CRVV
%%Creator: ROOT Version 6.20/06
%%CreationDate: Mon May 30 19:25:23 2022
%%DocumentNeededResources: ProcSet (FontSetInit)
%%EndComments
%%BeginProlog
80 dict begin
/s {stroke} def /l {lineto} def /m {moveto} def /t {translate} def
/r {rotate} def /rl {roll}  def /R {repeat} def
/d {rlineto} def /rm {rmoveto} def /gr {grestore} def /f {eofill} def
/c {setrgbcolor} def /black {0 setgray} def /sd {setdash} def
/cl {closepath} def /sf {scalefont setfont} def /lw {setlinewidth} def
/box {m dup 0 exch d exch 0 d 0 exch neg d cl} def
/NC{systemdict begin initclip end}def/C{NC box clip newpath}def
/bl {box s} def /bf {gsave box gsave f grestore 1 lw [] 0 sd s grestore} def /Y { 0 exch d} def /X { 0 d} def 
/K {{pop pop 0 moveto} exch kshow} bind def
/ita {/ang 15 def gsave [1 0 ang dup sin exch cos div 1 0 0] concat} def 
/mp {newpath /y exch def /x exch def} def
/side {[w .77 mul w .23 mul] .385 w mul sd w 0 l currentpoint t -144 r} def
/mr {mp x y w2 0 360 arc} def /m24 {mr s} def /m20 {mr f} def
/mb {mp x y w2 add m w2 neg 0 d 0 w neg d w 0 d 0 w d cl} def
/mt {mp x y w2 add m w2 neg w neg d w 0 d cl} def
/w4 {w 4 div} def
/w6 {w 6 div} def
/w8 {w 8 div} def
/m21 {mb f} def /m25 {mb s} def /m22 {mt f} def /m26{mt s} def
/m23 {mp x y w2 sub m w2 w d w neg 0 d cl f} def
/m27 {mp x y w2 add m w3 neg w2 neg d w3 w2 neg d w3 w2 d cl s} def
/m28 {mp x w2 sub y w2 sub w3 add m w3 0 d  0 w3 neg d w3 0 d 0 w3 d w3 0 d  0 w3 d w3 neg 0 d 0 w3 d w3 neg 0 d 0 w3 neg d w3 neg 0 d cl s } def
/m29 {mp gsave x w2 sub y w2 add w3 sub m currentpoint t 4 {side} repeat cl fill gr} def
/m30 {mp gsave x w2 sub y w2 add w3 sub m currentpoint t 4 {side} repeat cl s gr} def
/m31 {mp x y w2 sub m 0 w d x w2 sub y m w 0 d x w2 sub y w2 add m w w neg d x w2 sub y w2 sub m w w d s} def
/m32 {mp x y w2 sub m w2 w d w neg 0 d cl s} def
/m33 {mp x y w2 add m w3 neg w2 neg d w3 w2 neg d w3 w2 d cl f} def
/m34 {mp x w2 sub y w2 sub w3 add m w3 0 d  0 w3 neg d w3 0 d 0 w3 d w3 0 d  0 w3 d w3 neg 0 d 0 w3 d w3 neg 0 d 0 w3 neg d w3 neg 0 d cl f } def
/m35 {mp x y w2 add m w2 neg w2 neg d w2 w2 neg d w2 w2 d w2 neg w2 d x y w2 sub m 0 w d x w2 sub y m w 0 d s} def
/m36 {mb x w2 sub y w2 add m w w neg d x w2 sub y w2 sub m w w d s} def
/m37 {mp x y m w4 neg w2 d w4 neg w2 neg d w2 0 d  w4 neg w2 neg d w2 0 d w4 neg w2 d w2 0 d w4 neg w2 d w4 neg w2 neg d cl s} def
/m38 {mp x w4 sub y w2 add m w4 neg w4 neg d 0 w2 neg d w4 w4 neg d w2 0 d w4 w4 d 0 w2 d w4 neg w4 d w2 neg 0 d x y w2 sub m 0 w d x w2 sub y m w 0 d cl s} def
/m39 {mp x y m w4 neg w2 d w4 neg w2 neg d w2 0 d  w4 neg w2 neg d w2 0 d w4 neg w2 d w2 0 d w4 neg w2 d w4 neg w2 neg d cl f} def
/m40 {mp x y m w4 w2 d w4 w4 neg d w2 neg w4 neg d w2 w4 neg d w4 neg w4 neg d w4 neg w2 d w4 neg w2 neg d w4 neg w4 d w2 w4 d w2 neg w4 d w4 w4 d w4 w2 neg d cl s} def
/m41 {mp x y m w4 w2 d w4 w4 neg d w2 neg w4 neg d w2 w4 neg d w4 neg w4 neg d w4 neg w2 d w4 neg w2 neg d w4 neg w4 d w2 w4 d w2 neg w4 d w4 w4 d w4 w2 neg d cl f} def
/m42 {mp x y w2 add m w8 neg w2 -3 4 div mul d w2 -3 4 div mul w8 neg d w2 3 4 div mul w8 neg d w8 w2 -3 4 div mul d w8 w2 3 4 div mul d w2 3 4 div mul w8 d w2 -3 4 div mul w8 d w8 neg w2 3 4 div mul d cl s} def
/m43 {mp x y w2 add m w8 neg w2 -3 4 div mul d w2 -3 4 div mul w8 neg d w2 3 4 div mul w8 neg d w8 w2 -3 4 div mul d w8 w2 3 4 div mul d w2 3 4 div mul w8 d w2 -3 4 div mul w8 d w8 neg w2 3 4 div mul d cl f} def
/m44 {mp x y m w6 neg w2 d w2 2 3 div mul 0 d w6 neg w2 neg d w2 w6 d 0 w2 -2 3 div mul d w2 neg w6 d w6 w2 neg d w2 -2 3 div mul 0 d w6 w2 d w2 neg w6 neg d 0 w2 2 3 div mul d w2 w6 neg d cl s} def
/m45 {mp x y m w6 neg w2 d w2 2 3 div mul 0 d w6 neg w2 neg d w2 w6 d 0 w2 -2 3 div mul d w2 neg w6 d w6 w2 neg d w2 -2 3 div mul 0 d w6 w2 d w2 neg w6 neg d 0 w2 2 3 div mul d w2 w6 neg d cl f} def
/m46 {mp x y w4 add m w4 neg w4 d w4 neg w4 neg d  w4 w4 neg d w4 neg w4 neg d w4 w4 neg d w4 w4 d w4 w4 neg d w4 w4 d w4 neg w4 d w4 w4 d w4 neg w4 d w4 neg w4 neg d cl s} def
/m47 {mp x y w4 add m w4 neg w4 d w4 neg w4 neg d w4 w4 neg d w4 neg w4 neg d  w4 w4 neg d w4 w4 d w4 w4 neg d w4 w4 d w4 neg w4 d w4 w4 d w4 neg w4 d w4 neg w4 neg d cl f} def
/m48 {mp x y w4 add m w4 neg w4 d w4 neg w4 neg d w4 w4 neg d  w4 neg w4 neg d w4 w4 neg d w4 w4 d w4 w4 neg d w4 w4 d w4 neg w4 d w4 w4 d w4 neg w4 d w4 neg w4 neg d  w4 w4 neg d w4 neg w4 neg d w4 neg w4 d w4 w4 d cl f} def
/m49 {mp x w2 sub w3 add y w2 sub w3 add m  0 w3 neg d w3 0 d 0 w3 d w3 0 d 0 w3 d w3 neg 0 d 0 w3 d w3 neg 0 d 0 w3 neg d w3 neg 0 d 0 w3 neg d w3 0 d 0 w3 d w3 0 d 0 w3 neg d w3 neg 0 d cl f } def
/m2 {mp x y w2 sub m 0 w d x w2 sub y m w 0 d s} def
/m5 {mp x w2 sub y w2 sub m w w d x w2 sub y w2 add m w w neg d s} def
%%IncludeResource: ProcSet (FontSetInit)
%%IncludeResource: font Times-Roman
%%IncludeResource: font Times-Italic
%%IncludeResource: font Times-Bold
%%IncludeResource: font Times-BoldItalic
%%IncludeResource: font Helvetica
%%IncludeResource: font Helvetica-Oblique
%%IncludeResource: font Helvetica-Bold
%%IncludeResource: font Helvetica-BoldOblique
%%IncludeResource: font Courier
%%IncludeResource: font Courier-Oblique
%%IncludeResource: font Courier-Bold
%%IncludeResource: font Courier-BoldOblique
%%IncludeResource: font Symbol
%%IncludeResource: font ZapfDingbats
/reEncode {exch findfont dup length dict begin {1 index /FID eq  {pop pop} {def} ifelse } forall /Encoding exch def currentdict end dup /FontName get exch definefont pop } def [/Times-Bold /Times-Italic /Times-BoldItalic /Helvetica /Helvetica-Oblique
 /Helvetica-Bold /Helvetica-BoldOblique /Courier /Courier-Oblique /Courier-Bold /Courier-BoldOblique /Times-Roman /AvantGarde-Book /AvantGarde-BookOblique /AvantGarde-Demi /AvantGarde-DemiOblique /Bookman-Demi /Bookman-DemiItalic /Bookman-Light
 /Bookman-LightItalic /Helvetica-Narrow /Helvetica-Narrow-Bold /Helvetica-Narrow-BoldOblique /Helvetica-Narrow-Oblique /NewCenturySchlbk-Roman /NewCenturySchlbk-Bold /NewCenturySchlbk-BoldItalic /NewCenturySchlbk-Italic /Palatino-Bold
 /Palatino-BoldItalic /Palatino-Italic /Palatino-Roman ] {ISOLatin1Encoding reEncode } forall
%%EndProlog
%%BeginSetup
%%EndSetup
newpath  gsave  .25 .25 scale  gsave  0 0 t black[  ] 0 sd 3 lw 1 1 1 c 2268 1575 0 0 bf black 1 1 1 c 2268 472 0 0 bf black 1 1 1 c 1927 274 227 189 bf black 1927 274 227 189 bl 227 189 m 1927 X s 227 201 m -12 Y s 291 195 m -6 Y s 355 195 m -6 Y s
 420 195 m -6 Y s 484 195 m -6 Y s 548 201 m -12 Y s 612 195 m -6 Y s 677 195 m -6 Y s 741 195 m -6 Y s 805 195 m -6 Y s 869 201 m -12 Y s 934 195 m -6 Y s 998 195 m -6 Y s 1062 195 m -6 Y s 1126 195 m -6 Y s 1191 201 m -12 Y s 1255 195 m -6 Y s 1319
 195 m -6 Y s 1383 195 m -6 Y s 1448 195 m -6 Y s 1512 201 m -12 Y s 1576 195 m -6 Y s 1640 195 m -6 Y s 1705 195 m -6 Y s 1769 195 m -6 Y s 1833 201 m -12 Y s 1897 195 m -6 Y s 1962 195 m -6 Y s 2026 195 m -6 Y s 2090 195 m -6 Y s 2154 201 m -12 Y s
 gsave  2268 472 0 0 C 213.154 127.3 t 0 r /Helvetica findfont 53.4895 sf 0 0 m (1) show NC gr 
 gsave  2268 472 0 0 C 532.884 127.3 t 0 r /Helvetica findfont 53.4895 sf 0 0 m (2) show NC gr 
 gsave  2268 472 0 0 C 852.614 127.3 t 0 r /Helvetica findfont 53.4895 sf 0 0 m (3) show NC gr 
 gsave  2268 472 0 0 C 1175.3 127.3 t 0 r /Helvetica findfont 53.4895 sf 0 0 m (4) show NC gr 
 gsave  2268 472 0 0 C 1495.04 127.3 t 0 r /Helvetica findfont 53.4895 sf 0 0 m (5) show NC gr 
 gsave  2268 472 0 0 C 1817.73 127.3 t 0 r /Helvetica findfont 53.4895 sf 0 0 m (6) show NC gr 
 gsave  2268 472 0 0 C 2137.46 127.3 t 0 r /Helvetica findfont 53.4895 sf 0 0 m (7) show NC gr 
 gsave  2268 472 0 0 C 2090.09 35.5256 t 0 r /Helvetica findfont 38.6313 sf 0 0 m (jets) show NC gr 
 gsave  2268 472 0 0 C 2042.72 53.2884 t 0 r /Helvetica-Oblique findfont 56.4611 sf 0 0 m (N) show NC gr  227 463 m 1927 X s 227 451 m 12 Y s 291 457 m 6 Y s 355 457 m 6 Y s 420 457 m 6 Y s 484 457 m 6 Y s 548 451 m 12 Y s 612 457 m 6 Y s 677 457 m 6
 Y s 741 457 m 6 Y s 805 457 m 6 Y s 869 451 m 12 Y s 934 457 m 6 Y s 998 457 m 6 Y s 1062 457 m 6 Y s 1126 457 m 6 Y s 1191 451 m 12 Y s 1255 457 m 6 Y s 1319 457 m 6 Y s 1383 457 m 6 Y s 1448 457 m 6 Y s 1512 451 m 12 Y s 1576 457 m 6 Y s 1640 457
 m 6 Y s 1705 457 m 6 Y s 1769 457 m 6 Y s 1833 451 m 12 Y s 1897 457 m 6 Y s 1962 457 m 6 Y s 2026 457 m 6 Y s 2090 457 m 6 Y s 2154 451 m 12 Y s 227 189 m 274 Y s 240 240 m -13 X s 240 326 m -13 X s 240 412 m -13 X s 240 240 m -13 X s 240 412 m -13
 X s
 gsave  2268 472 0 0 C 118.419 222.035 t 0 r /Helvetica findfont 53.4895 sf 0 0 m (0.5) show NC gr 
 gsave  2268 472 0 0 C 171.707 307.888 t 0 r /Helvetica findfont 53.4895 sf 0 0 m (1) show NC gr 
 gsave  2268 472 0 0 C 118.419 393.742 t 0 r /Helvetica findfont 53.4895 sf 0 0 m (1.5) show NC gr 
 gsave  2268 472 0 0 C 71.0512 230.916 t 90 r /Helvetica findfont 53.4895 sf 0 0 m (Data / SM) show NC gr  2154 189 m 274 Y s 2141 240 m 13 X s 2141 326 m 13 X s 2141 412 m 13 X s 2141 240 m 13 X s 2141 412 m 13 X s 227 189 m 1927 X s 227 463 m 1927
 X s 227 189 m 274 Y s[ 4 8] 0 sd 2154 240 m -1927 X s 2154 326 m -1927 X s 2154 412 m -1927 X s 2154 240 m -1927 X s 2154 412 m -1927 X s[  ] 0 sd 2154 189 m 274 Y s 1 1 0.6 c 321 0 227 326 bf 321 0 548 326 bf 322 0 869 326 bf 321 0 1191 326 bf 321
 0 1512 326 bf 321 0 1833 326 bf black 0.6 0.6 0.6 c 548 318 m -3 -3 d s 548 337 m -23 -22 d s 528 337 m -22 -22 d s 509 337 m -22 -22 d s 490 337 m -22 -22 d s 471 337 m -23 -22 d s 451 337 m -22 -22 d s 432 337 m -22 -22 d s 413 337 m -22 -22 d s
 394 337 m -23 -22 d s 374 337 m -22 -22 d s 355 337 m -22 -22 d s 336 337 m -22 -22 d s 317 337 m -23 -22 d s 297 337 m -22 -22 d s 278 337 m -22 -22 d s 259 337 m -22 -22 d s 240 337 m -13 -13 d s 869 332 m -14 -14 d s 852 334 m -16 -16 d s 833 334
 m -16 -16 d s 814 334 m -16 -16 d s 795 334 m -17 -16 d s 776 334 m -17 -16 d s 756 334 m -16 -16 d s 737 334 m -16 -16 d s 718 334 m -17 -16 d s 699 334 m -17 -16 d s 679 334 m -16 -16 d s 660 334 m -16 -16 d s 641 334 m -16 -16 d s 622 334 m -17
 -16 d s 602 334 m -16 -16 d s 583 334 m -16 -16 d s 564 334 m -16 -16 d s 1191 326 m -13 -13 d s 1185 339 m -27 -26 d s 1165 339 m -26 -26 d s 1146 339 m -26 -26 d s 1127 339 m -26 -26 d s 1108 339 m -27 -26 d s 1088 339 m -26 -26 d s 1069 339 m -26
 -26 d s 1050 339 m -26 -26 d s 1031 339 m -27 -26 d s 1011 339 m -26 -26 d s 992 339 m -26 -26 d s 973 339 m -26 -26 d s 954 339 m -27 -26 d s 934 339 m -26 -26 d s 915 339 m -26 -26 d s 896 339 m -26 -26 d s 877 339 m -8 -7 d s 1512 320 m -7 -7 d s
 1511 339 m -25 -26 d s 1492 339 m -25 -26 d s 1473 339 m -26 -26 d s 1453 339 m -25 -26 d s 1434 339 m -25 -26 d s 1415 339 m -25 -26 d s 1396 339 m -26 -26 d s 1377 339 m -26 -26 d s 1357 339 m -25 -26 d s 1338 339 m -25 -26 d s 1319 339 m -26 -26
 d s 1300 339 m -26 -26 d s 1280 339 m -25 -26 d s 1261 339 m -25 -26 d s 1242 339 m -25 -26 d s 1223 339 m -26 -26 d s 1203 339 m -12 -13 d s 1833 333 m -19 -18 d s 1818 337 m -23 -22 d s 1798 337 m -22 -22 d s 1779 337 m -22 -22 d s 1760 337 m -22
 -22 d s 1741 337 m -23 -22 d s 1721 337 m -22 -22 d s 1702 337 m -22 -22 d s 1683 337 m -22 -22 d s 1664 337 m -23 -22 d s 1644 337 m -22 -22 d s 1625 337 m -22 -22 d s 1606 337 m -22 -22 d s 1587 337 m -23 -22 d s 1568 337 m -23 -22 d s 1548 337 m
 -22 -22 d s 1529 337 m -17 -17 d s 2154 308 m s 2154 328 m -19 -20 d s 2151 344 m -35 -36 d s 2132 344 m -36 -36 d s 2113 344 m -36 -36 d s 2094 344 m -36 -36 d s 2074 344 m -35 -36 d s 2055 344 m -35 -36 d s 2036 344 m -36 -36 d s 2017 344 m -36
 -36 d s 1997 344 m -35 -36 d s 1978 344 m -35 -36 d s 1959 344 m -36 -36 d s 1940 344 m -36 -36 d s 1920 344 m -35 -36 d s 1901 344 m -35 -36 d s 1882 344 m -36 -36 d s 1863 344 m -30 -30 d s 1844 344 m -11 -11 d s black 1 1 1 c black 387 325 m 20 Y
 s 387 368 m 20 Y s /w 26 def /w2 {w 2 div} def /w3 {w 3 div} def 387 356 m20 709 360 m 18 Y s 709 402 m 19 Y s 709 390 m20 1030 256 m 20 Y s 1030 299 m 20 Y s 1030 288 m20 1351 257 m 50 Y s 1351 330 m 50 Y s 1351 318 m20 1672 196 m 89 Y s 1672 309 m
 88 Y s 1672 297 m20 1994 189 m 148 Y s 1994 360 m 103 Y s 1994 348 m20 227 326 m 1927 X s 227 189 m 1927 X s 227 201 m -12 Y s 291 195 m -6 Y s 355 195 m -6 Y s 420 195 m -6 Y s 484 195 m -6 Y s 548 201 m -12 Y s 612 195 m -6 Y s 677 195 m -6 Y s
 741 195 m -6 Y s 805 195 m -6 Y s 869 201 m -12 Y s 934 195 m -6 Y s 998 195 m -6 Y s 1062 195 m -6 Y s 1126 195 m -6 Y s 1191 201 m -12 Y s 1255 195 m -6 Y s 1319 195 m -6 Y s 1383 195 m -6 Y s 1448 195 m -6 Y s 1512 201 m -12 Y s 1576 195 m -6 Y s
 1640 195 m -6 Y s 1705 195 m -6 Y s 1769 195 m -6 Y s 1833 201 m -12 Y s 1897 195 m -6 Y s 1962 195 m -6 Y s 2026 195 m -6 Y s 2090 195 m -6 Y s 2154 201 m -12 Y s 227 463 m 1927 X s 227 451 m 12 Y s 291 457 m 6 Y s 355 457 m 6 Y s 420 457 m 6 Y s
 484 457 m 6 Y s 548 451 m 12 Y s 612 457 m 6 Y s 677 457 m 6 Y s 741 457 m 6 Y s 805 457 m 6 Y s 869 451 m 12 Y s 934 457 m 6 Y s 998 457 m 6 Y s 1062 457 m 6 Y s 1126 457 m 6 Y s 1191 451 m 12 Y s 1255 457 m 6 Y s 1319 457 m 6 Y s 1383 457 m 6 Y s
 1448 457 m 6 Y s 1512 451 m 12 Y s 1576 457 m 6 Y s 1640 457 m 6 Y s 1705 457 m 6 Y s 1769 457 m 6 Y s 1833 451 m 12 Y s 1897 457 m 6 Y s 1962 457 m 6 Y s 2026 457 m 6 Y s 2090 457 m 6 Y s 2154 451 m 12 Y s 227 189 m 274 Y s 240 240 m -13 X s 240
 326 m -13 X s 240 412 m -13 X s 240 240 m -13 X s 240 412 m -13 X s 2154 189 m 274 Y s 2141 240 m 13 X s 2141 326 m 13 X s 2141 412 m 13 X s 2141 240 m 13 X s 2141 412 m 13 X s 1 1 1 c 2268 1103 0 472 bf black 1 1 1 c 1927 1036 227 484 bf black 1927
 1036 227 484 bl 1 1 1 c black 3 lw 227 484 m 1927 X s 227 502 m -18 Y s 291 493 m -9 Y s 355 493 m -9 Y s 420 493 m -9 Y s 484 493 m -9 Y s 548 502 m -18 Y s 612 493 m -9 Y s 677 493 m -9 Y s 741 493 m -9 Y s 805 493 m -9 Y s 869 502 m -18 Y s 934
 493 m -9 Y s 998 493 m -9 Y s 1062 493 m -9 Y s 1126 493 m -9 Y s 1191 502 m -18 Y s 1255 493 m -9 Y s 1319 493 m -9 Y s 1383 493 m -9 Y s 1448 493 m -9 Y s 1512 502 m -18 Y s 1576 493 m -9 Y s 1640 493 m -9 Y s 1705 493 m -9 Y s 1769 493 m -9 Y s
 1833 502 m -18 Y s 1897 493 m -9 Y s 1962 493 m -9 Y s 2026 493 m -9 Y s 2090 493 m -9 Y s 2154 502 m -18 Y s
 gsave  2268 1103 0 472 C 2116.73 396.702 t 0 r /Helvetica findfont 20.7455 sf 0 0 m (jets) show NC gr 
 gsave  2268 1103 0 472 C 2090.09 405.584 t 0 r /Helvetica-Oblique findfont 29.6365 sf 0 0 m (N) show NC gr  227 1520 m 1927 X s 227 1501 m 19 Y s 291 1510 m 10 Y s 355 1510 m 10 Y s 420 1510 m 10 Y s 484 1510 m 10 Y s 548 1501 m 19 Y s 612 1510 m 10
 Y s 677 1510 m 10 Y s 741 1510 m 10 Y s 805 1510 m 10 Y s 869 1501 m 19 Y s 934 1510 m 10 Y s 998 1510 m 10 Y s 1062 1510 m 10 Y s 1126 1510 m 10 Y s 1191 1501 m 19 Y s 1255 1510 m 10 Y s 1319 1510 m 10 Y s 1383 1510 m 10 Y s 1448 1510 m 10 Y s 1512
 1501 m 19 Y s 1576 1510 m 10 Y s 1640 1510 m 10 Y s 1705 1510 m 10 Y s 1769 1510 m 10 Y s 1833 1501 m 19 Y s 1897 1510 m 10 Y s 1962 1510 m 10 Y s 2026 1510 m 10 Y s 2090 1510 m 10 Y s 2154 1501 m 19 Y s 227 484 m 1036 Y s 248 677 m -21 X s 237 725
 m -10 X s 237 773 m -10 X s 237 822 m -10 X s 248 870 m -21 X s 237 918 m -10 X s 237 967 m -10 X s 237 1015 m -10 X s 248 1063 m -21 X s 237 1112 m -10 X s 237 1160 m -10 X s 237 1208 m -10 X s 248 1257 m -21 X s 237 1305 m -10 X s 237 1353 m -10 X
 s 237 1402 m -10 X s 248 1450 m -21 X s 248 677 m -21 X s 237 628 m -10 X s 237 580 m -10 X s 237 532 m -10 X s 248 1450 m -21 X s 237 1498 m -10 X s
 gsave  2268 1103 0 472 C 145.063 657.223 t 0 r /Helvetica findfont 50.382 sf 0 0 m (20) show NC gr 
 gsave  2268 1103 0 472 C 145.063 849.654 t 0 r /Helvetica findfont 50.382 sf 0 0 m (40) show NC gr 
 gsave  2268 1103 0 472 C 145.063 1045.04 t 0 r /Helvetica findfont 50.382 sf 0 0 m (60) show NC gr 
 gsave  2268 1103 0 472 C 145.063 1237.47 t 0 r /Helvetica findfont 50.382 sf 0 0 m (80) show NC gr 
 gsave  2268 1103 0 472 C 118.419 1429.9 t 0 r /Helvetica findfont 50.382 sf 0 0 m (100) show NC gr 
 gsave  2268 1103 0 472 C 62.1698 1367.74 t 90 r /Helvetica findfont 50.382 sf 0 0 m (Events) show NC gr  2154 484 m 1036 Y s 2133 677 m 21 X s 2144 725 m 10 X s 2144 773 m 10 X s 2144 822 m 10 X s 2133 870 m 21 X s 2144 918 m 10 X s 2144 967 m 10 X
 s 2144 1015 m 10 X s 2133 1063 m 21 X s 2144 1112 m 10 X s 2144 1160 m 10 X s 2144 1208 m 10 X s 2133 1257 m 21 X s 2144 1305 m 10 X s 2144 1353 m 10 X s 2144 1402 m 10 X s 2133 1450 m 21 X s 2133 677 m 21 X s 2144 628 m 10 X s 2144 580 m 10 X s
 2144 532 m 10 X s 2133 1450 m 21 X s 2144 1498 m 10 X s 0.4 0.6 0.4 c black 3 lw 0.4 0.6 0.4 c 227 484 m 344 Y 321 X 70 Y 321 X -190 Y 322 X -154 Y 321 X -47 Y 321 X -15 Y 321 X -8 Y f 0.06 0.54 0.06 c 0.999 0.999 0.999 c black 3 lw 0.999 0.999
 0.999 c 227 484 m 246 Y 321 X 38 Y 321 X -120 Y 322 X -110 Y 321 X -34 Y 321 X -13 Y 321 X -7 Y f 0.06 0.54 0.06 c 0.999 0.999 0.999 c 0.06 0.54 0.06 c 1 1 1 c black 0.06 0.54 0.06 c black 3 lw 0.06 0.54 0.06 c 227 484 m 246 Y 321 X 38 Y 321 X -120
 Y 322 X -110 Y 321 X -34 Y 321 X -13 Y 321 X -7 Y f 1 0.653333 0 c 0.999 0.999 0.999 c black 3 lw 0.999 0.999 0.999 c 227 484 m 240 Y 321 X 28 Y 321 X -111 Y 322 X -103 Y 321 X -34 Y 321 X -13 Y 321 X -7 Y f 1 0.653333 0 c 0.999 0.999 0.999 c 1
 0.653333 0 c 1 1 1 c black 1 0.653333 0 c black 3 lw 1 0.653333 0 c 227 484 m 240 Y 321 X 28 Y 321 X -111 Y 322 X -103 Y 321 X -34 Y 321 X -13 Y 321 X -7 Y f 0.413333 1 0 c 0.999 0.999 0.999 c black 3 lw 0.999 0.999 0.999 c 227 484 m 216 Y 321 X 42
 Y 321 X -114 Y 322 X -90 Y 321 X -35 Y 321 X -12 Y 321 X -7 Y f 0.413333 1 0 c 0.999 0.999 0.999 c 0.413333 1 0 c 1 1 1 c black 0.413333 1 0 c black 3 lw 0.413333 1 0 c 227 484 m 216 Y 321 X 42 Y 321 X -114 Y 322 X -90 Y 321 X -35 Y 321 X -12 Y 321
 X -7 Y f 0.6 0.2 1 c 0.999 0.999 0.999 c black 3 lw 0.999 0.999 0.999 c 227 484 m 17 Y 321 X 28 Y 321 X -12 Y 322 X -20 Y 321 X -9 Y 321 X -2 Y 321 X -2 Y f 0.6 0.2 1 c 0.999 0.999 0.999 c 0.6 0.2 1 c 1 1 1 c black 0.6 0.2 1 c black 3 lw 0.6 0.2 1 c
 227 484 m 17 Y 321 X 28 Y 321 X -12 Y 322 X -20 Y 321 X -9 Y 321 X -2 Y 321 X -2 Y f 0.54 0.06 0.06 c 0.999 0.999 0.999 c black 3 lw 0.999 0.999 0.999 c 227 484 m 17 Y 321 X 27 Y 321 X -13 Y 322 X -19 Y 321 X -10 Y 321 X -1 Y 321 X -1 Y f 0.54 0.06
 0.06 c 0.999 0.999 0.999 c 0.54 0.06 0.06 c 1 1 1 c black 0.54 0.06 0.06 c black 3 lw 0.54 0.06 0.06 c 227 484 m 17 Y 321 X 27 Y 321 X -13 Y 322 X -19 Y 321 X -10 Y 321 X -1 Y 321 X -1 Y f 1 0 1 c 0.999 0.999 0.999 c black 3 lw 0.999 0.999 0.999 c
 227 484 m 15 Y 321 X 18 Y 321 X -13 Y 322 X -13 Y 321 X -6 Y 321 X -1 Y 321 X f 1 0 1 c 0.999 0.999 0.999 c 1 0 1 c 1 1 1 c black 1 0 1 c black 3 lw 1 0 1 c 227 484 m 15 Y 321 X 18 Y 321 X -13 Y 322 X -13 Y 321 X -6 Y 321 X -1 Y 321 X f 0 0 1 c
 0.999 0.999 0.999 c black 3 lw 0.999 0.999 0.999 c 227 484 m 12 Y 321 X 15 Y 321 X -10 Y 322 X -12 Y 321 X -5 Y 642 X f 0 0 1 c 0.999 0.999 0.999 c 0 0 1 c 1 1 1 c black 0 0 1 c black 3 lw 0 0 1 c 227 484 m 12 Y 321 X 15 Y 321 X -10 Y 322 X -12 Y
 321 X -5 Y 642 X f 0.2 0.8 0.8 c 0.999 0.999 0.999 c black 3 lw 0.999 0.999 0.999 c 227 484 m 12 Y 321 X 15 Y 321 X -11 Y 322 X -11 Y 321 X -5 Y 642 X f 0.2 0.8 0.8 c 0.999 0.999 0.999 c 0.2 0.8 0.8 c 1 1 1 c black 0.2 0.8 0.8 c black 3 lw 0.2 0.8
 0.8 c 227 484 m 12 Y 321 X 15 Y 321 X -11 Y 322 X -11 Y 321 X -5 Y 642 X f 1 0 0 c 0.999 0.999 0.999 c black 3 lw 0.999 0.999 0.999 c 227 484 m 12 Y 321 X 14 Y 321 X -11 Y 322 X -11 Y 321 X -4 Y 642 X f 1 0 0 c 0.999 0.999 0.999 c 1 0 0 c 1 1 1 c
 black 1 0 0 c black 3 lw 1 0 0 c 227 484 m 12 Y 321 X 14 Y 321 X -11 Y 322 X -11 Y 321 X -4 Y 642 X f 1 0.84 0 c 0.999 0.999 0.999 c black 3 lw 0.999 0.999 0.999 c 227 484 m 12 Y 321 X 13 Y 321 X -11 Y 322 X -10 Y 321 X -4 Y 642 X f 1 0.84 0 c 0.999
 0.999 0.999 c 1 0.84 0 c 1 1 1 c black 1 0.84 0 c black 3 lw 1 0.84 0 c 227 484 m 12 Y 321 X 13 Y 321 X -11 Y 322 X -10 Y 321 X -4 Y 642 X f black 1 1 1 c black 0.6 0.6 0.6 c 3 lw 548 808 m -3 -2 d s 548 828 m -22 -22 d s 548 847 m -41 -41 d s 532
 850 m -44 -44 d s 513 850 m -45 -44 d s 494 850 m -45 -44 d s 475 850 m -45 -44 d s 455 850 m -44 -44 d s 436 850 m -45 -44 d s 417 850 m -45 -44 d s 398 850 m -45 -44 d s 378 850 m -44 -44 d s 359 850 m -45 -44 d s 340 850 m -45 -44 d s 321 850 m
 -45 -44 d s 302 850 m -45 -44 d s 282 850 m -44 -44 d s 263 850 m -36 -36 d s 244 850 m -17 -17 d s 3 lw 869 879 m -1 -1 d s 869 899 m -20 -21 d s 869 918 m -39 -40 d s 850 918 m -40 -40 d s 831 918 m -40 -40 d s 812 918 m -40 -40 d s 792 918 m -39
 -40 d s 773 918 m -40 -40 d s 754 918 m -40 -40 d s 735 918 m -40 -40 d s 715 918 m -39 -40 d s 696 918 m -39 -40 d s 677 918 m -40 -40 d s 658 918 m -40 -40 d s 638 918 m -39 -40 d s 619 918 m -39 -40 d s 600 918 m -40 -40 d s 581 918 m -33 -33 d s
 561 918 m -13 -14 d s 3 lw 1191 701 m -11 -11 d s 1191 720 m -30 -30 d s 1176 725 m -34 -35 d s 1157 725 m -34 -35 d s 1138 725 m -35 -35 d s 1119 725 m -35 -35 d s 1099 725 m -34 -35 d s 1080 725 m -34 -35 d s 1061 725 m -35 -35 d s 1042 725 m -35
 -35 d s 1022 725 m -34 -35 d s 1003 725 m -34 -35 d s 984 725 m -35 -35 d s 965 725 m -35 -35 d s 946 725 m -35 -35 d s 926 725 m -34 -35 d s 907 725 m -35 -35 d s 888 725 m -19 -19 d s 3 lw 1511 559 m -10 -10 d s 1492 559 m -11 -10 d s 1473 559 m
 -11 -10 d s 1453 559 m -10 -10 d s 1434 559 m -10 -10 d s 1415 559 m -11 -10 d s 1396 559 m -11 -10 d s 1376 559 m -10 -10 d s 1357 559 m -10 -10 d s 1338 559 m -11 -10 d s 1319 559 m -11 -10 d s 1299 559 m -10 -10 d s 1280 559 m -10 -10 d s 1261
 559 m -11 -10 d s 1242 559 m -11 -10 d s 1222 559 m -10 -10 d s 1203 559 m -10 -10 d s 3 lw 1825 508 m -3 -3 d s 1806 508 m -3 -3 d s 1787 508 m -3 -3 d s 1768 508 m -3 -3 d s 1748 508 m -3 -3 d s 1729 508 m -3 -3 d s 1710 508 m -3 -3 d s 1691 508 m
 -3 -3 d s 1671 508 m -3 -3 d s 1652 508 m -3 -3 d s 1633 508 m -3 -3 d s 1614 508 m -3 -3 d s 1594 508 m -3 -3 d s 1575 508 m -3 -3 d s 1556 508 m -3 -3 d s 1537 508 m -3 -3 d s 1517 508 m -3 -3 d s 3 lw 2137 493 m -2 -2 d s 2118 493 m -2 -2 d s
 2099 493 m -2 -2 d s 2079 493 m -1 -2 d s 2060 493 m -2 -2 d s 2041 493 m -2 -2 d s 2022 493 m -2 -2 d s 2002 493 m -1 -2 d s 1983 493 m -2 -2 d s 1964 493 m -2 -2 d s 1945 493 m -2 -2 d s 1925 493 m -1 -2 d s 1906 493 m -2 -2 d s 1887 493 m -2 -2 d
 s 1868 493 m -2 -2 d s 1848 493 m -1 -2 d s black 3 lw 1 1 1 c black 387 827 m 50 Y s 387 901 m 51 Y s /w 24 def /w2 {w 2 div} def /w3 {w 3 div} def 387 889 m20 709 979 m 63 Y s 709 1065 m 63 Y s 709 1054 m20 1030 616 m 30 Y s 1030 669 m 29 Y s 1030
 657 m20 1351 526 m 13 Y s 1351 563 m 14 Y s 1351 551 m20 1672 489 m 2 Y s 1672 515 m 1 Y s 1672 503 m20 1994 493 m20 227 484 m 1927 X s 227 502 m -18 Y s 291 493 m -9 Y s 355 493 m -9 Y s 420 493 m -9 Y s 484 493 m -9 Y s 548 502 m -18 Y s 612 493 m
 -9 Y s 677 493 m -9 Y s 741 493 m -9 Y s 805 493 m -9 Y s 869 502 m -18 Y s 934 493 m -9 Y s 998 493 m -9 Y s 1062 493 m -9 Y s 1126 493 m -9 Y s 1191 502 m -18 Y s 1255 493 m -9 Y s 1319 493 m -9 Y s 1383 493 m -9 Y s 1448 493 m -9 Y s 1512 502 m
 -18 Y s 1576 493 m -9 Y s 1640 493 m -9 Y s 1705 493 m -9 Y s 1769 493 m -9 Y s 1833 502 m -18 Y s 1897 493 m -9 Y s 1962 493 m -9 Y s 2026 493 m -9 Y s 2090 493 m -9 Y s 2154 502 m -18 Y s 227 1520 m 1927 X s 227 1501 m 19 Y s 291 1510 m 10 Y s 355
 1510 m 10 Y s 420 1510 m 10 Y s 484 1510 m 10 Y s 548 1501 m 19 Y s 612 1510 m 10 Y s 677 1510 m 10 Y s 741 1510 m 10 Y s 805 1510 m 10 Y s 869 1501 m 19 Y s 934 1510 m 10 Y s 998 1510 m 10 Y s 1062 1510 m 10 Y s 1126 1510 m 10 Y s 1191 1501 m 19 Y
 s 1255 1510 m 10 Y s 1319 1510 m 10 Y s 1383 1510 m 10 Y s 1448 1510 m 10 Y s 1512 1501 m 19 Y s 1576 1510 m 10 Y s 1640 1510 m 10 Y s 1705 1510 m 10 Y s 1769 1510 m 10 Y s 1833 1501 m 19 Y s 1897 1510 m 10 Y s 1962 1510 m 10 Y s 2026 1510 m 10 Y s
 2090 1510 m 10 Y s 2154 1501 m 19 Y s 227 484 m 1036 Y s 248 677 m -21 X s 237 725 m -10 X s 237 773 m -10 X s 237 822 m -10 X s 248 870 m -21 X s 237 918 m -10 X s 237 967 m -10 X s 237 1015 m -10 X s 248 1063 m -21 X s 237 1112 m -10 X s 237 1160
 m -10 X s 237 1208 m -10 X s 248 1257 m -21 X s 237 1305 m -10 X s 237 1353 m -10 X s 237 1402 m -10 X s 248 1450 m -21 X s 248 677 m -21 X s 237 628 m -10 X s 237 580 m -10 X s 237 532 m -10 X s 248 1450 m -21 X s 237 1498 m -10 X s 2154 484 m 1036
 Y s 2133 677 m 21 X s 2144 725 m 10 X s 2144 773 m 10 X s 2144 822 m 10 X s 2133 870 m 21 X s 2144 918 m 10 X s 2144 967 m 10 X s 2144 1015 m 10 X s 2133 1063 m 21 X s 2144 1112 m 10 X s 2144 1160 m 10 X s 2144 1208 m 10 X s 2133 1257 m 21 X s 2144
 1305 m 10 X s 2144 1353 m 10 X s 2144 1402 m 10 X s 2133 1450 m 21 X s 2133 677 m 21 X s 2144 628 m 10 X s 2144 580 m 10 X s 2144 532 m 10 X s 2133 1450 m 21 X s 2144 1498 m 10 X s
 gsave  2268 1103 0 472 C 1314.45 1432.87 t 0 r /Helvetica findfont 56.3093 sf 0 0 m ( Data) show NC gr  1259 1456 m 7 Y s 1259 1432 m -7 Y s 1259 1444 m20
 gsave  2268 1103 0 472 C 1776.28 1432.87 t 0 r /Helvetica findfont 56.3093 sf 0 0 m ( Fakes \(MM\)) show NC gr  0.4 0.6 0.4 c 1682 1422 m 79 X 44 Y -79 X f black
 gsave  2268 1103 0 472 C 1403.26 1367.74 t 0 r /Helvetica findfont 56.3093 sf 0 0 m (single\255top) show NC gr 
 gsave  2268 1103 0 472 C 1373.66 1367.74 t 0 r /Helvetica-Oblique findfont 56.3093 sf 0 0 m (/) show NC gr 
 gsave  2268 1103 0 472 C 1352.93 1367.74 t 0 r /Helvetica-Oblique findfont 56.3093 sf 0 0 m (t) show NC gr  6 lw 1353 1412 m 21 X s
 gsave  2268 1103 0 472 C 1332.21 1367.74 t 0 r /Helvetica-Oblique findfont 56.3093 sf 0 0 m (t) show NC gr 
 gsave  2268 1103 0 472 C 1314.45 1367.74 t 0 r /Helvetica findfont 56.3093 sf 0 0 m ( ) show NC gr  0.06 0.54 0.06 c 3 lw 1219 1359 m 79 X 44 Y -79 X f 6 lw black
 gsave  2268 1103 0 472 C 1906.54 1367.74 t 0 r /Helvetica findfont 56.3093 sf 0 0 m (+jets) show NC gr 
 gsave  2268 1103 0 472 C 1794.04 1367.74 t 0 r /Helvetica-Oblique findfont 56.3093 sf 0 0 m (W/Z) show NC gr 
 gsave  2268 1103 0 472 C 1776.28 1367.74 t 0 r /Helvetica findfont 56.3093 sf 0 0 m ( ) show NC gr  1 0.653333 0 c 3 lw 1682 1359 m 79 X 44 Y -79 X f black
 gsave  2268 1103 0 472 C 1512.8 1305.57 t 0 r /Helvetica findfont 56.3093 sf 0 0 m (+jets) show NC gr 
 gsave  2268 1103 0 472 C 1332.21 1305.57 t 0 r /Helvetica-Oblique findfont 56.3093 sf 0 0 m (WZ/ZZ) show NC gr 
 gsave  2268 1103 0 472 C 1314.45 1305.57 t 0 r /Helvetica findfont 56.3093 sf 0 0 m ( ) show NC gr  0.413333 1 0 c 3 lw 1219 1296 m 79 X 44 Y -79 X f black
 gsave  2268 1103 0 472 C 1835.49 1305.57 t 0 r /Helvetica-Oblique findfont 56.3093 sf 0 0 m (Z) show NC gr 
 gsave  2268 1103 0 472 C 1814.77 1305.57 t 0 r /Helvetica-Oblique findfont 56.3093 sf 0 0 m (t) show NC gr  6 lw 1815 1350 m 20 X s
 gsave  2268 1103 0 472 C 1794.04 1305.57 t 0 r /Helvetica-Oblique findfont 56.3093 sf 0 0 m (t) show NC gr 
 gsave  2268 1103 0 472 C 1776.28 1305.57 t 0 r /Helvetica findfont 56.3093 sf 0 0 m ( ) show NC gr  0.6 0.2 1 c 3 lw 1682 1296 m 79 X 44 Y -79 X f 6 lw black
 gsave  2268 1103 0 472 C 1373.66 1243.4 t 0 r /Helvetica-Oblique findfont 56.3093 sf 0 0 m (W) show NC gr 
 gsave  2268 1103 0 472 C 1352.93 1243.4 t 0 r /Helvetica-Oblique findfont 56.3093 sf 0 0 m (t) show NC gr  6 lw 1353 1288 m 21 X s
 gsave  2268 1103 0 472 C 1332.21 1243.4 t 0 r /Helvetica-Oblique findfont 56.3093 sf 0 0 m (t) show NC gr 
 gsave  2268 1103 0 472 C 1314.45 1243.4 t 0 r /Helvetica findfont 56.3093 sf 0 0 m ( ) show NC gr  0.54 0.06 0.06 c 3 lw 1219 1233 m 79 X 44 Y -79 X f 6 lw black
 gsave  2268 1103 0 472 C 1794.04 1243.4 t 0 r /Helvetica-Oblique findfont 56.3093 sf 0 0 m (tZq) show NC gr 
 gsave  2268 1103 0 472 C 1776.28 1243.4 t 0 r /Helvetica findfont 56.3093 sf 0 0 m ( ) show NC gr  1 0 1 c 3 lw 1682 1233 m 79 X 44 Y -79 X f black
 gsave  2268 1103 0 472 C 1373.66 1178.27 t 0 r /Helvetica-Oblique findfont 56.3093 sf 0 0 m (H) show NC gr 
 gsave  2268 1103 0 472 C 1352.93 1178.27 t 0 r /Helvetica-Oblique findfont 56.3093 sf 0 0 m (t) show NC gr  6 lw 1353 1223 m 21 X s
 gsave  2268 1103 0 472 C 1332.21 1178.27 t 0 r /Helvetica-Oblique findfont 56.3093 sf 0 0 m (t) show NC gr 
 gsave  2268 1103 0 472 C 1314.45 1178.27 t 0 r /Helvetica findfont 56.3093 sf 0 0 m ( ) show NC gr  0 0 1 c 3 lw 1219 1170 m 79 X 44 Y -79 X f 6 lw black
 gsave  2268 1103 0 472 C 1794.04 1178.27 t 0 r /Helvetica-Oblique findfont 56.3093 sf 0 0 m (tWZ/tWH) show NC gr 
 gsave  2268 1103 0 472 C 1776.28 1178.27 t 0 r /Helvetica findfont 56.3093 sf 0 0 m ( ) show NC gr  0.2 0.8 0.8 c 3 lw 1682 1170 m 79 X 44 Y -79 X f black
 gsave  2268 1103 0 472 C 1332.21 1116.1 t 0 r /Helvetica-Oblique findfont 56.3093 sf 0 0 m (tHq) show NC gr 
 gsave  2268 1103 0 472 C 1314.45 1116.1 t 0 r /Helvetica findfont 56.3093 sf 0 0 m ( ) show NC gr  1 0 0 c 3 lw 1219 1107 m 79 X 44 Y -79 X f black
 gsave  2268 1103 0 472 C 1776.28 1116.1 t 0 r /Helvetica findfont 56.3093 sf 0 0 m ( Other) show NC gr  1 0.84 0 c 3 lw 1682 1107 m 79 X 44 Y -79 X f black
 gsave  2268 1103 0 472 C 1314.45 1053.93 t 0 r /Helvetica findfont 56.3093 sf 0 0 m ( Uncertainty) show NC gr  0.6 0.6 0.6 c 3 lw 1298 1058 m -13 -14 d s 1298 1077 m -33 -33 d s 1290 1088 m -44 -44 d s 1271 1088 m -44 -44 d s 1252 1088 m -33 -33 d s
 1233 1088 m -14 -13 d s 1 0.84 0 c 0.6 0.6 0.6 c black
 gsave  2268 1103 0 472 C 894.061 1329.25 t 0 r /Helvetica findfont 41.4911 sf 0 0 m (\2551) show NC gr 
 gsave  2268 1103 0 472 C 399.663 1299.64 t 0 r /Helvetica findfont 62.2366 sf 0 0 m ( = 13 TeV,  139 fb) show NC gr 
 gsave  2268 1103 0 472 C 370.058 1299.64 t 0 r /Helvetica findfont 62.2366 sf 0 0 m (s) show NC gr  6 lw 349 1335 m 6 -38 d s 3 lw 355 1297 m 6 56 d s 361 1353 m 39 X s
 gsave  2268 1103 0 472 C 337.493 1201.95 t 0 r /Helvetica findfont 62.2366 sf 0 0 m ( 2L\(SS\), VR\(di\255boson\)) show NC gr 
 gsave  2268 1103 0 472 C 337.493 1400.3 t 0 r /Helvetica-BoldOblique findfont 71.1276 sf 0 0 m (ATLAS) show NC gr 
 gsave  2268 1103 0 472 C 633.54 1400.3 t 0 r /Helvetica findfont 71.1276 sf 0 0 m (Internal) show NC gr 
 gr  gr showpage
end
%%EOF
