%!PS-Adobe-2.0 EPSF-2.0
%%BoundingBox:  0 0 567 394
%%Title: : Njets_CRttbarEl
%%Creator: ROOT Version 6.20/06
%%CreationDate: Mon May 30 19:25:22 2022
%%DocumentNeededResources: ProcSet (FontSetInit)
%%EndComments
%%BeginProlog
80 dict begin
/s {stroke} def /l {lineto} def /m {moveto} def /t {translate} def
/r {rotate} def /rl {roll}  def /R {repeat} def
/d {rlineto} def /rm {rmoveto} def /gr {grestore} def /f {eofill} def
/c {setrgbcolor} def /black {0 setgray} def /sd {setdash} def
/cl {closepath} def /sf {scalefont setfont} def /lw {setlinewidth} def
/box {m dup 0 exch d exch 0 d 0 exch neg d cl} def
/NC{systemdict begin initclip end}def/C{NC box clip newpath}def
/bl {box s} def /bf {gsave box gsave f grestore 1 lw [] 0 sd s grestore} def /Y { 0 exch d} def /X { 0 d} def 
/K {{pop pop 0 moveto} exch kshow} bind def
/ita {/ang 15 def gsave [1 0 ang dup sin exch cos div 1 0 0] concat} def 
/mp {newpath /y exch def /x exch def} def
/side {[w .77 mul w .23 mul] .385 w mul sd w 0 l currentpoint t -144 r} def
/mr {mp x y w2 0 360 arc} def /m24 {mr s} def /m20 {mr f} def
/mb {mp x y w2 add m w2 neg 0 d 0 w neg d w 0 d 0 w d cl} def
/mt {mp x y w2 add m w2 neg w neg d w 0 d cl} def
/w4 {w 4 div} def
/w6 {w 6 div} def
/w8 {w 8 div} def
/m21 {mb f} def /m25 {mb s} def /m22 {mt f} def /m26{mt s} def
/m23 {mp x y w2 sub m w2 w d w neg 0 d cl f} def
/m27 {mp x y w2 add m w3 neg w2 neg d w3 w2 neg d w3 w2 d cl s} def
/m28 {mp x w2 sub y w2 sub w3 add m w3 0 d  0 w3 neg d w3 0 d 0 w3 d w3 0 d  0 w3 d w3 neg 0 d 0 w3 d w3 neg 0 d 0 w3 neg d w3 neg 0 d cl s } def
/m29 {mp gsave x w2 sub y w2 add w3 sub m currentpoint t 4 {side} repeat cl fill gr} def
/m30 {mp gsave x w2 sub y w2 add w3 sub m currentpoint t 4 {side} repeat cl s gr} def
/m31 {mp x y w2 sub m 0 w d x w2 sub y m w 0 d x w2 sub y w2 add m w w neg d x w2 sub y w2 sub m w w d s} def
/m32 {mp x y w2 sub m w2 w d w neg 0 d cl s} def
/m33 {mp x y w2 add m w3 neg w2 neg d w3 w2 neg d w3 w2 d cl f} def
/m34 {mp x w2 sub y w2 sub w3 add m w3 0 d  0 w3 neg d w3 0 d 0 w3 d w3 0 d  0 w3 d w3 neg 0 d 0 w3 d w3 neg 0 d 0 w3 neg d w3 neg 0 d cl f } def
/m35 {mp x y w2 add m w2 neg w2 neg d w2 w2 neg d w2 w2 d w2 neg w2 d x y w2 sub m 0 w d x w2 sub y m w 0 d s} def
/m36 {mb x w2 sub y w2 add m w w neg d x w2 sub y w2 sub m w w d s} def
/m37 {mp x y m w4 neg w2 d w4 neg w2 neg d w2 0 d  w4 neg w2 neg d w2 0 d w4 neg w2 d w2 0 d w4 neg w2 d w4 neg w2 neg d cl s} def
/m38 {mp x w4 sub y w2 add m w4 neg w4 neg d 0 w2 neg d w4 w4 neg d w2 0 d w4 w4 d 0 w2 d w4 neg w4 d w2 neg 0 d x y w2 sub m 0 w d x w2 sub y m w 0 d cl s} def
/m39 {mp x y m w4 neg w2 d w4 neg w2 neg d w2 0 d  w4 neg w2 neg d w2 0 d w4 neg w2 d w2 0 d w4 neg w2 d w4 neg w2 neg d cl f} def
/m40 {mp x y m w4 w2 d w4 w4 neg d w2 neg w4 neg d w2 w4 neg d w4 neg w4 neg d w4 neg w2 d w4 neg w2 neg d w4 neg w4 d w2 w4 d w2 neg w4 d w4 w4 d w4 w2 neg d cl s} def
/m41 {mp x y m w4 w2 d w4 w4 neg d w2 neg w4 neg d w2 w4 neg d w4 neg w4 neg d w4 neg w2 d w4 neg w2 neg d w4 neg w4 d w2 w4 d w2 neg w4 d w4 w4 d w4 w2 neg d cl f} def
/m42 {mp x y w2 add m w8 neg w2 -3 4 div mul d w2 -3 4 div mul w8 neg d w2 3 4 div mul w8 neg d w8 w2 -3 4 div mul d w8 w2 3 4 div mul d w2 3 4 div mul w8 d w2 -3 4 div mul w8 d w8 neg w2 3 4 div mul d cl s} def
/m43 {mp x y w2 add m w8 neg w2 -3 4 div mul d w2 -3 4 div mul w8 neg d w2 3 4 div mul w8 neg d w8 w2 -3 4 div mul d w8 w2 3 4 div mul d w2 3 4 div mul w8 d w2 -3 4 div mul w8 d w8 neg w2 3 4 div mul d cl f} def
/m44 {mp x y m w6 neg w2 d w2 2 3 div mul 0 d w6 neg w2 neg d w2 w6 d 0 w2 -2 3 div mul d w2 neg w6 d w6 w2 neg d w2 -2 3 div mul 0 d w6 w2 d w2 neg w6 neg d 0 w2 2 3 div mul d w2 w6 neg d cl s} def
/m45 {mp x y m w6 neg w2 d w2 2 3 div mul 0 d w6 neg w2 neg d w2 w6 d 0 w2 -2 3 div mul d w2 neg w6 d w6 w2 neg d w2 -2 3 div mul 0 d w6 w2 d w2 neg w6 neg d 0 w2 2 3 div mul d w2 w6 neg d cl f} def
/m46 {mp x y w4 add m w4 neg w4 d w4 neg w4 neg d  w4 w4 neg d w4 neg w4 neg d w4 w4 neg d w4 w4 d w4 w4 neg d w4 w4 d w4 neg w4 d w4 w4 d w4 neg w4 d w4 neg w4 neg d cl s} def
/m47 {mp x y w4 add m w4 neg w4 d w4 neg w4 neg d w4 w4 neg d w4 neg w4 neg d  w4 w4 neg d w4 w4 d w4 w4 neg d w4 w4 d w4 neg w4 d w4 w4 d w4 neg w4 d w4 neg w4 neg d cl f} def
/m48 {mp x y w4 add m w4 neg w4 d w4 neg w4 neg d w4 w4 neg d  w4 neg w4 neg d w4 w4 neg d w4 w4 d w4 w4 neg d w4 w4 d w4 neg w4 d w4 w4 d w4 neg w4 d w4 neg w4 neg d  w4 w4 neg d w4 neg w4 neg d w4 neg w4 d w4 w4 d cl f} def
/m49 {mp x w2 sub w3 add y w2 sub w3 add m  0 w3 neg d w3 0 d 0 w3 d w3 0 d 0 w3 d w3 neg 0 d 0 w3 d w3 neg 0 d 0 w3 neg d w3 neg 0 d 0 w3 neg d w3 0 d 0 w3 d w3 0 d 0 w3 neg d w3 neg 0 d cl f } def
/m2 {mp x y w2 sub m 0 w d x w2 sub y m w 0 d s} def
/m5 {mp x w2 sub y w2 sub m w w d x w2 sub y w2 add m w w neg d s} def
%%IncludeResource: ProcSet (FontSetInit)
%%IncludeResource: font Times-Roman
%%IncludeResource: font Times-Italic
%%IncludeResource: font Times-Bold
%%IncludeResource: font Times-BoldItalic
%%IncludeResource: font Helvetica
%%IncludeResource: font Helvetica-Oblique
%%IncludeResource: font Helvetica-Bold
%%IncludeResource: font Helvetica-BoldOblique
%%IncludeResource: font Courier
%%IncludeResource: font Courier-Oblique
%%IncludeResource: font Courier-Bold
%%IncludeResource: font Courier-BoldOblique
%%IncludeResource: font Symbol
%%IncludeResource: font ZapfDingbats
/reEncode {exch findfont dup length dict begin {1 index /FID eq  {pop pop} {def} ifelse } forall /Encoding exch def currentdict end dup /FontName get exch definefont pop } def [/Times-Bold /Times-Italic /Times-BoldItalic /Helvetica /Helvetica-Oblique
 /Helvetica-Bold /Helvetica-BoldOblique /Courier /Courier-Oblique /Courier-Bold /Courier-BoldOblique /Times-Roman /AvantGarde-Book /AvantGarde-BookOblique /AvantGarde-Demi /AvantGarde-DemiOblique /Bookman-Demi /Bookman-DemiItalic /Bookman-Light
 /Bookman-LightItalic /Helvetica-Narrow /Helvetica-Narrow-Bold /Helvetica-Narrow-BoldOblique /Helvetica-Narrow-Oblique /NewCenturySchlbk-Roman /NewCenturySchlbk-Bold /NewCenturySchlbk-BoldItalic /NewCenturySchlbk-Italic /Palatino-Bold
 /Palatino-BoldItalic /Palatino-Italic /Palatino-Roman ] {ISOLatin1Encoding reEncode } forall
%%EndProlog
%%BeginSetup
%%EndSetup
newpath  gsave  .25 .25 scale  gsave  0 0 t black[  ] 0 sd 3 lw 1 1 1 c 2268 1575 0 0 bf black 1 1 1 c 2268 472 0 0 bf black 1 1 1 c 1927 274 227 189 bf black 1927 274 227 189 bl 227 189 m 1927 X s 227 201 m -12 Y s 291 195 m -6 Y s 355 195 m -6 Y s
 420 195 m -6 Y s 484 195 m -6 Y s 548 201 m -12 Y s 612 195 m -6 Y s 677 195 m -6 Y s 741 195 m -6 Y s 805 195 m -6 Y s 869 201 m -12 Y s 934 195 m -6 Y s 998 195 m -6 Y s 1062 195 m -6 Y s 1126 195 m -6 Y s 1191 201 m -12 Y s 1255 195 m -6 Y s 1319
 195 m -6 Y s 1383 195 m -6 Y s 1448 195 m -6 Y s 1512 201 m -12 Y s 1576 195 m -6 Y s 1640 195 m -6 Y s 1705 195 m -6 Y s 1769 195 m -6 Y s 1833 201 m -12 Y s 1897 195 m -6 Y s 1962 195 m -6 Y s 2026 195 m -6 Y s 2090 195 m -6 Y s 2154 201 m -12 Y s
 gsave  2268 472 0 0 C 213.154 127.3 t 0 r /Helvetica findfont 53.4895 sf 0 0 m (1) show NC gr 
 gsave  2268 472 0 0 C 532.884 127.3 t 0 r /Helvetica findfont 53.4895 sf 0 0 m (2) show NC gr 
 gsave  2268 472 0 0 C 852.614 127.3 t 0 r /Helvetica findfont 53.4895 sf 0 0 m (3) show NC gr 
 gsave  2268 472 0 0 C 1175.3 127.3 t 0 r /Helvetica findfont 53.4895 sf 0 0 m (4) show NC gr 
 gsave  2268 472 0 0 C 1495.04 127.3 t 0 r /Helvetica findfont 53.4895 sf 0 0 m (5) show NC gr 
 gsave  2268 472 0 0 C 1817.73 127.3 t 0 r /Helvetica findfont 53.4895 sf 0 0 m (6) show NC gr 
 gsave  2268 472 0 0 C 2137.46 127.3 t 0 r /Helvetica findfont 53.4895 sf 0 0 m (7) show NC gr 
 gsave  2268 472 0 0 C 2090.09 35.5256 t 0 r /Helvetica findfont 38.6313 sf 0 0 m (jets) show NC gr 
 gsave  2268 472 0 0 C 2042.72 53.2884 t 0 r /Helvetica-Oblique findfont 56.4611 sf 0 0 m (N) show NC gr  227 463 m 1927 X s 227 451 m 12 Y s 291 457 m 6 Y s 355 457 m 6 Y s 420 457 m 6 Y s 484 457 m 6 Y s 548 451 m 12 Y s 612 457 m 6 Y s 677 457 m 6
 Y s 741 457 m 6 Y s 805 457 m 6 Y s 869 451 m 12 Y s 934 457 m 6 Y s 998 457 m 6 Y s 1062 457 m 6 Y s 1126 457 m 6 Y s 1191 451 m 12 Y s 1255 457 m 6 Y s 1319 457 m 6 Y s 1383 457 m 6 Y s 1448 457 m 6 Y s 1512 451 m 12 Y s 1576 457 m 6 Y s 1640 457
 m 6 Y s 1705 457 m 6 Y s 1769 457 m 6 Y s 1833 451 m 12 Y s 1897 457 m 6 Y s 1962 457 m 6 Y s 2026 457 m 6 Y s 2090 457 m 6 Y s 2154 451 m 12 Y s 227 189 m 274 Y s 240 240 m -13 X s 240 326 m -13 X s 240 412 m -13 X s 240 240 m -13 X s 240 412 m -13
 X s
 gsave  2268 472 0 0 C 118.419 222.035 t 0 r /Helvetica findfont 53.4895 sf 0 0 m (0.5) show NC gr 
 gsave  2268 472 0 0 C 171.707 307.888 t 0 r /Helvetica findfont 53.4895 sf 0 0 m (1) show NC gr 
 gsave  2268 472 0 0 C 118.419 393.742 t 0 r /Helvetica findfont 53.4895 sf 0 0 m (1.5) show NC gr 
 gsave  2268 472 0 0 C 71.0512 230.916 t 90 r /Helvetica findfont 53.4895 sf 0 0 m (Data / SM) show NC gr  2154 189 m 274 Y s 2141 240 m 13 X s 2141 326 m 13 X s 2141 412 m 13 X s 2141 240 m 13 X s 2141 412 m 13 X s 227 189 m 1927 X s 227 463 m 1927
 X s 227 189 m 274 Y s[ 4 8] 0 sd 2154 240 m -1927 X s 2154 326 m -1927 X s 2154 412 m -1927 X s 2154 240 m -1927 X s 2154 412 m -1927 X s[  ] 0 sd 2154 189 m 274 Y s 1 1 0.6 c 321 0 227 326 bf 321 0 548 326 bf 322 0 869 326 bf 321 0 1191 326 bf 321
 0 1512 326 bf 321 0 1833 326 bf black 0.6 0.6 0.6 c 548 318 m -3 -3 d s 547 337 m -21 -22 d s 528 337 m -21 -22 d s 509 337 m -22 -22 d s 489 337 m -21 -22 d s 470 337 m -21 -22 d s 451 337 m -21 -22 d s 432 337 m -22 -22 d s 412 337 m -21 -22 d s
 393 337 m -21 -22 d s 374 337 m -21 -22 d s 355 337 m -22 -22 d s 335 337 m -21 -22 d s 316 337 m -21 -22 d s 297 337 m -21 -22 d s 278 337 m -22 -22 d s 258 337 m -21 -22 d s 239 337 m -12 -13 d s 868 330 m -9 -8 d s 849 330 m -9 -8 d s 829 330 m
 -8 -8 d s 810 330 m -9 -8 d s 791 330 m -9 -8 d s 772 330 m -9 -8 d s 752 330 m -8 -8 d s 733 330 m -8 -8 d s 714 330 m -9 -8 d s 695 330 m -9 -8 d s 676 330 m -9 -8 d s 656 330 m -8 -8 d s 637 330 m -9 -8 d s 618 330 m -9 -8 d s 599 330 m -9 -8 d s
 579 330 m -8 -8 d s 560 330 m -9 -8 d s 1191 326 m -3 -3 d s 1174 329 m -6 -6 d s 1155 329 m -6 -6 d s 1136 329 m -6 -6 d s 1117 329 m -6 -6 d s 1097 329 m -6 -6 d s 1078 329 m -6 -6 d s 1059 329 m -6 -6 d s 1040 329 m -6 -6 d s 1021 329 m -6 -6 d s
 1001 329 m -6 -6 d s 982 329 m -6 -6 d s 963 329 m -6 -6 d s 944 329 m -6 -6 d s 924 329 m -6 -6 d s 905 329 m -6 -6 d s 886 329 m -6 -6 d s 1501 329 m -5 -6 d s 1482 329 m -5 -6 d s 1463 329 m -6 -6 d s 1444 329 m -6 -6 d s 1424 329 m -5 -6 d s
 1405 329 m -5 -6 d s 1386 329 m -6 -6 d s 1367 329 m -6 -6 d s 1347 329 m -5 -6 d s 1328 329 m -5 -6 d s 1309 329 m -6 -6 d s 1290 329 m -6 -6 d s 1270 329 m -5 -6 d s 1251 329 m -5 -6 d s 1232 329 m -6 -6 d s 1213 329 m -6 -6 d s 1193 329 m -2 -3 d
 s 1828 329 m -5 -5 d s 1809 329 m -5 -5 d s 1790 329 m -5 -5 d s 1770 329 m -5 -5 d s 1751 329 m -5 -5 d s 1732 329 m -5 -5 d s 1713 329 m -5 -5 d s 1693 329 m -5 -5 d s 1674 329 m -5 -5 d s 1655 329 m -5 -5 d s 1636 329 m -5 -5 d s 1617 329 m -5 -5
 d s 1597 329 m -5 -5 d s 1578 329 m -5 -5 d s 1559 329 m -5 -5 d s 1540 329 m -5 -5 d s 1520 329 m -5 -5 d s 2154 328 m -4 -5 d s 2137 329 m -7 -6 d s 2117 329 m -6 -6 d s 2098 329 m -6 -6 d s 2079 329 m -6 -6 d s 2060 329 m -7 -6 d s 2040 329 m -6
 -6 d s 2021 329 m -6 -6 d s 2002 329 m -6 -6 d s 1983 329 m -6 -6 d s 1963 329 m -6 -6 d s 1944 329 m -6 -6 d s 1925 329 m -6 -6 d s 1906 329 m -6 -6 d s 1887 329 m -7 -6 d s 1867 329 m -6 -6 d s 1848 329 m -6 -6 d s black 1 1 1 c black 387 225 m 16
 Y s 387 265 m 16 Y s /w 26 def /w2 {w 2 div} def /w3 {w 3 div} def 387 253 m20 709 317 m 2 Y s 709 343 m 2 Y s 709 331 m20 1030 302 m20 1351 298 m20 1672 274 m 1 Y s 1672 298 m 1 Y s 1672 287 m20 1994 307 m 7 Y s 1994 337 m 7 Y s 1994 325 m20 227
 326 m 1927 X s 227 189 m 1927 X s 227 201 m -12 Y s 291 195 m -6 Y s 355 195 m -6 Y s 420 195 m -6 Y s 484 195 m -6 Y s 548 201 m -12 Y s 612 195 m -6 Y s 677 195 m -6 Y s 741 195 m -6 Y s 805 195 m -6 Y s 869 201 m -12 Y s 934 195 m -6 Y s 998 195
 m -6 Y s 1062 195 m -6 Y s 1126 195 m -6 Y s 1191 201 m -12 Y s 1255 195 m -6 Y s 1319 195 m -6 Y s 1383 195 m -6 Y s 1448 195 m -6 Y s 1512 201 m -12 Y s 1576 195 m -6 Y s 1640 195 m -6 Y s 1705 195 m -6 Y s 1769 195 m -6 Y s 1833 201 m -12 Y s
 1897 195 m -6 Y s 1962 195 m -6 Y s 2026 195 m -6 Y s 2090 195 m -6 Y s 2154 201 m -12 Y s 227 463 m 1927 X s 227 451 m 12 Y s 291 457 m 6 Y s 355 457 m 6 Y s 420 457 m 6 Y s 484 457 m 6 Y s 548 451 m 12 Y s 612 457 m 6 Y s 677 457 m 6 Y s 741 457 m
 6 Y s 805 457 m 6 Y s 869 451 m 12 Y s 934 457 m 6 Y s 998 457 m 6 Y s 1062 457 m 6 Y s 1126 457 m 6 Y s 1191 451 m 12 Y s 1255 457 m 6 Y s 1319 457 m 6 Y s 1383 457 m 6 Y s 1448 457 m 6 Y s 1512 451 m 12 Y s 1576 457 m 6 Y s 1640 457 m 6 Y s 1705
 457 m 6 Y s 1769 457 m 6 Y s 1833 451 m 12 Y s 1897 457 m 6 Y s 1962 457 m 6 Y s 2026 457 m 6 Y s 2090 457 m 6 Y s 2154 451 m 12 Y s 227 189 m 274 Y s 240 240 m -13 X s 240 326 m -13 X s 240 412 m -13 X s 240 240 m -13 X s 240 412 m -13 X s 2154 189
 m 274 Y s 2141 240 m 13 X s 2141 326 m 13 X s 2141 412 m 13 X s 2141 240 m 13 X s 2141 412 m 13 X s 1 1 1 c 2268 1103 0 472 bf black 1 1 1 c 1927 1036 227 484 bf black 1927 1036 227 484 bl 1 1 1 c black 3 lw 227 484 m 1927 X s 227 502 m -18 Y s 291
 493 m -9 Y s 355 493 m -9 Y s 420 493 m -9 Y s 484 493 m -9 Y s 548 502 m -18 Y s 612 493 m -9 Y s 677 493 m -9 Y s 741 493 m -9 Y s 805 493 m -9 Y s 869 502 m -18 Y s 934 493 m -9 Y s 998 493 m -9 Y s 1062 493 m -9 Y s 1126 493 m -9 Y s 1191 502 m
 -18 Y s 1255 493 m -9 Y s 1319 493 m -9 Y s 1383 493 m -9 Y s 1448 493 m -9 Y s 1512 502 m -18 Y s 1576 493 m -9 Y s 1640 493 m -9 Y s 1705 493 m -9 Y s 1769 493 m -9 Y s 1833 502 m -18 Y s 1897 493 m -9 Y s 1962 493 m -9 Y s 2026 493 m -9 Y s 2090
 493 m -9 Y s 2154 502 m -18 Y s
 gsave  2268 1103 0 472 C 2116.73 396.702 t 0 r /Helvetica findfont 20.7455 sf 0 0 m (jets) show NC gr 
 gsave  2268 1103 0 472 C 2090.09 405.584 t 0 r /Helvetica-Oblique findfont 29.6365 sf 0 0 m (N) show NC gr  227 1520 m 1927 X s 227 1501 m 19 Y s 291 1510 m 10 Y s 355 1510 m 10 Y s 420 1510 m 10 Y s 484 1510 m 10 Y s 548 1501 m 19 Y s 612 1510 m 10
 Y s 677 1510 m 10 Y s 741 1510 m 10 Y s 805 1510 m 10 Y s 869 1501 m 19 Y s 934 1510 m 10 Y s 998 1510 m 10 Y s 1062 1510 m 10 Y s 1126 1510 m 10 Y s 1191 1501 m 19 Y s 1255 1510 m 10 Y s 1319 1510 m 10 Y s 1383 1510 m 10 Y s 1448 1510 m 10 Y s 1512
 1501 m 19 Y s 1576 1510 m 10 Y s 1640 1510 m 10 Y s 1705 1510 m 10 Y s 1769 1510 m 10 Y s 1833 1501 m 19 Y s 1897 1510 m 10 Y s 1962 1510 m 10 Y s 2026 1510 m 10 Y s 2090 1510 m 10 Y s 2154 1501 m 19 Y s 227 484 m 1036 Y s 248 656 m -21 X s 237 690
 m -10 X s 237 725 m -10 X s 237 759 m -10 X s 237 793 m -10 X s 248 828 m -21 X s 237 862 m -10 X s 237 897 m -10 X s 237 931 m -10 X s 237 966 m -10 X s 248 1000 m -21 X s 237 1034 m -10 X s 237 1069 m -10 X s 237 1103 m -10 X s 237 1138 m -10 X s
 248 1172 m -21 X s 237 1207 m -10 X s 237 1241 m -10 X s 237 1275 m -10 X s 237 1310 m -10 X s 248 1344 m -21 X s 237 1379 m -10 X s 237 1413 m -10 X s 237 1448 m -10 X s 237 1482 m -10 X s 248 1516 m -21 X s 248 656 m -21 X s 237 621 m -10 X s 237
 587 m -10 X s 237 552 m -10 X s 237 518 m -10 X s 248 1516 m -21 X s
 gsave  2268 1103 0 472 C 118.419 636.5 t 0 r /Helvetica findfont 50.382 sf 0 0 m (100) show NC gr 
 gsave  2268 1103 0 472 C 118.419 808.207 t 0 r /Helvetica findfont 50.382 sf 0 0 m (200) show NC gr 
 gsave  2268 1103 0 472 C 118.419 979.914 t 0 r /Helvetica findfont 50.382 sf 0 0 m (300) show NC gr 
 gsave  2268 1103 0 472 C 118.419 1151.62 t 0 r /Helvetica findfont 50.382 sf 0 0 m (400) show NC gr 
 gsave  2268 1103 0 472 C 118.419 1326.29 t 0 r /Helvetica findfont 50.382 sf 0 0 m (500) show NC gr 
 gsave  2268 1103 0 472 C 118.419 1498 t 0 r /Helvetica findfont 50.382 sf 0 0 m (600) show NC gr 
 gsave  2268 1103 0 472 C 62.1698 1367.74 t 90 r /Helvetica findfont 50.382 sf 0 0 m (Events) show NC gr  2154 484 m 1036 Y s 2133 656 m 21 X s 2144 690 m 10 X s 2144 725 m 10 X s 2144 759 m 10 X s 2144 793 m 10 X s 2133 828 m 21 X s 2144 862 m 10 X
 s 2144 897 m 10 X s 2144 931 m 10 X s 2144 966 m 10 X s 2133 1000 m 21 X s 2144 1034 m 10 X s 2144 1069 m 10 X s 2144 1103 m 10 X s 2144 1138 m 10 X s 2133 1172 m 21 X s 2144 1207 m 10 X s 2144 1241 m 10 X s 2144 1275 m 10 X s 2144 1310 m 10 X s
 2133 1344 m 21 X s 2144 1379 m 10 X s 2144 1413 m 10 X s 2144 1448 m 10 X s 2144 1482 m 10 X s 2133 1516 m 21 X s 2133 656 m 21 X s 2144 621 m 10 X s 2144 587 m 10 X s 2144 552 m 10 X s 2144 518 m 10 X s 2133 1516 m 21 X s 0.4 0.6 0.4 c black 3 lw
 0.4 0.6 0.4 c 227 484 m 36 Y 321 X 215 Y 321 X 163 Y 322 X -28 Y 321 X -120 Y 321 X -120 Y 321 X -146 Y f 0.06 0.54 0.06 c 0.999 0.999 0.999 c black 3 lw 0.999 0.999 0.999 c 227 484 m 23 Y 321 X 126 Y 321 X 75 Y 322 X -9 Y 321 X -65 Y 321 X -65 Y
 321 X -85 Y f 0.06 0.54 0.06 c 0.999 0.999 0.999 c 0.06 0.54 0.06 c 1 1 1 c black 0.06 0.54 0.06 c black 3 lw 0.06 0.54 0.06 c 227 484 m 23 Y 321 X 126 Y 321 X 75 Y 322 X -9 Y 321 X -65 Y 321 X -65 Y 321 X -85 Y f 1 0.653333 0 c 0.999 0.999 0.999 c
 black 3 lw 0.999 0.999 0.999 c 227 484 m 7 Y 321 X 56 Y 321 X 55 Y 322 X 26 Y 321 X -38 Y 321 X -38 Y 321 X -68 Y f 1 0.653333 0 c 0.999 0.999 0.999 c 1 0.653333 0 c 1 1 1 c black 1 0.653333 0 c black 3 lw 1 0.653333 0 c 227 484 m 7 Y 321 X 56 Y 321
 X 55 Y 322 X 26 Y 321 X -38 Y 321 X -38 Y 321 X -68 Y f 0.413333 1 0 c 0.999 0.999 0.999 c black 3 lw 0.999 0.999 0.999 c 227 484 m 5 Y 321 X 48 Y 321 X 59 Y 322 X 20 Y 321 X -28 Y 321 X -36 Y 321 X -68 Y f 0.413333 1 0 c 0.999 0.999 0.999 c
 0.413333 1 0 c 1 1 1 c black 0.413333 1 0 c black 3 lw 0.413333 1 0 c 227 484 m 5 Y 321 X 48 Y 321 X 59 Y 322 X 20 Y 321 X -28 Y 321 X -36 Y 321 X -68 Y f 0.6 0.2 1 c 0.999 0.999 0.999 c black 3 lw 0.999 0.999 0.999 c 227 484 m 2 Y 321 X 31 Y 321 X
 53 Y 322 X 26 Y 321 X -18 Y 321 X -31 Y 321 X -63 Y f 0.6 0.2 1 c 0.999 0.999 0.999 c 0.6 0.2 1 c 1 1 1 c black 0.6 0.2 1 c black 3 lw 0.6 0.2 1 c 227 484 m 2 Y 321 X 31 Y 321 X 53 Y 322 X 26 Y 321 X -18 Y 321 X -31 Y 321 X -63 Y f 0.54 0.06 0.06 c
 0.999 0.999 0.999 c black 3 lw 0.999 0.999 0.999 c 227 484 m 1 Y 321 X 29 Y 321 X 46 Y 322 X 20 Y 321 X -20 Y 321 X -27 Y 321 X -49 Y f 0.54 0.06 0.06 c 0.999 0.999 0.999 c 0.54 0.06 0.06 c 1 1 1 c black 0.54 0.06 0.06 c black 3 lw 0.54 0.06 0.06 c
 227 484 m 1 Y 321 X 29 Y 321 X 46 Y 322 X 20 Y 321 X -20 Y 321 X -27 Y 321 X -49 Y f 1 0 1 c 0.999 0.999 0.999 c black 3 lw 0.999 0.999 0.999 c 227 484 m 321 X 11 Y 321 X 9 Y 322 X 6 Y 321 X -3 Y 321 X -5 Y 321 X -18 Y f 1 0 1 c 0.999 0.999 0.999 c
 1 0 1 c 1 1 1 c black 1 0 1 c black 3 lw 1 0 1 c 227 484 m 321 X 11 Y 321 X 9 Y 322 X 6 Y 321 X -3 Y 321 X -5 Y 321 X -18 Y f 0 0 1 c 0.999 0.999 0.999 c black 3 lw 0.999 0.999 0.999 c 227 484 m 321 X 5 Y 321 X 4 Y 322 X 6 Y 321 X 2 Y 321 X -2 Y 321
 X -15 Y f 0 0 1 c 0.999 0.999 0.999 c 0 0 1 c 1 1 1 c black 0 0 1 c black 3 lw 0 0 1 c 227 484 m 321 X 5 Y 321 X 4 Y 322 X 6 Y 321 X 2 Y 321 X -2 Y 321 X -15 Y f 0.2 0.8 0.8 c 0.999 0.999 0.999 c black 3 lw 0.999 0.999 0.999 c 227 484 m 321 X 4 Y
 321 X -1 Y 1285 X -3 Y f 0.2 0.8 0.8 c 0.999 0.999 0.999 c 0.2 0.8 0.8 c 1 1 1 c black 0.2 0.8 0.8 c black 3 lw 0.2 0.8 0.8 c 227 484 m 321 X 4 Y 321 X -1 Y 1285 X -3 Y f 1 0 0 c 0.999 0.999 0.999 c black 3 lw 0.999 0.999 0.999 c 227 484 m 321 X 3 Y
 321 X -2 Y 1285 X -1 Y f 1 0 0 c 0.999 0.999 0.999 c 1 0 0 c 1 1 1 c black 1 0 0 c black 3 lw 1 0 0 c 227 484 m 321 X 3 Y 321 X -2 Y 1285 X -1 Y f 1 0.84 0 c 0.999 0.999 0.999 c black 3 lw 0.999 0.999 0.999 c 227 484 m 321 X 3 Y 321 X -3 Y 964 X 1 Y
 321 X -1 Y f 1 0.84 0 c 0.999 0.999 0.999 c 1 0.84 0 c 1 1 1 c black 1 0.84 0 c black 3 lw 1 0.84 0 c 227 484 m 321 X 3 Y 321 X -3 Y 964 X 1 Y 321 X -1 Y f black 1 1 1 c black 0.6 0.6 0.6 c 3 lw 548 520 m -3 -3 d s 530 522 m -4 -5 d s 511 522 m -4
 -5 d s 492 522 m -5 -5 d s 473 522 m -5 -5 d s 453 522 m -4 -5 d s 434 522 m -4 -5 d s 415 522 m -5 -5 d s 396 522 m -5 -5 d s 377 522 m -5 -5 d s 357 522 m -4 -5 d s 338 522 m -4 -5 d s 319 522 m -5 -5 d s 300 522 m -5 -5 d s 280 522 m -4 -5 d s
 261 522 m -4 -5 d s 242 522 m -5 -5 d s 3 lw 865 741 m -12 -13 d s 846 741 m -13 -13 d s 827 741 m -13 -13 d s 808 741 m -13 -13 d s 788 741 m -12 -13 d s 769 741 m -13 -13 d s 750 741 m -13 -13 d s 731 741 m -13 -13 d s 711 741 m -12 -13 d s 692
 741 m -13 -13 d s 673 741 m -13 -13 d s 654 741 m -13 -13 d s 635 741 m -13 -13 d s 615 741 m -13 -13 d s 596 741 m -13 -13 d s 577 741 m -13 -13 d s 558 741 m -10 -10 d s 3 lw 1191 893 m -2 -2 d s 1184 905 m -15 -14 d s 1165 905 m -15 -14 d s 1145
 905 m -14 -14 d s 1126 905 m -14 -14 d s 1107 905 m -15 -14 d s 1088 905 m -15 -14 d s 1069 905 m -15 -14 d s 1049 905 m -14 -14 d s 1030 905 m -15 -14 d s 1011 905 m -15 -14 d s 992 905 m -15 -14 d s 972 905 m -14 -14 d s 953 905 m -15 -14 d s 934
 905 m -15 -14 d s 915 905 m -15 -14 d s 895 905 m -14 -14 d s 876 905 m -7 -6 d s 3 lw 1512 868 m -4 -4 d s 1501 876 m -12 -12 d s 1482 876 m -12 -12 d s 1463 876 m -12 -12 d s 1444 876 m -13 -12 d s 1424 876 m -12 -12 d s 1405 876 m -12 -12 d s
 1386 876 m -12 -12 d s 1367 876 m -13 -12 d s 1347 876 m -12 -12 d s 1328 876 m -12 -12 d s 1309 876 m -12 -12 d s 1290 876 m -13 -12 d s 1270 876 m -12 -12 d s 1251 876 m -12 -12 d s 1232 876 m -12 -12 d s 1213 876 m -13 -12 d s 1193 876 m -2 -3 d
 s 3 lw 1833 747 m -1 -1 d s 1821 754 m -8 -8 d s 1802 754 m -8 -8 d s 1782 754 m -7 -8 d s 1763 754 m -8 -8 d s 1744 754 m -8 -8 d s 1725 754 m -8 -8 d s 1705 754 m -7 -8 d s 1686 754 m -8 -8 d s 1667 754 m -8 -8 d s 1648 754 m -8 -8 d s 1629 754 m
 -8 -8 d s 1609 754 m -8 -8 d s 1590 754 m -8 -8 d s 1571 754 m -8 -8 d s 1552 754 m -8 -8 d s 1532 754 m -7 -8 d s 1513 754 m -1 -2 d s 3 lw 2143 633 m -6 -5 d s 2123 633 m -5 -5 d s 2104 633 m -5 -5 d s 2085 633 m -5 -5 d s 2066 633 m -6 -5 d s
 2046 633 m -5 -5 d s 2027 633 m -5 -5 d s 2008 633 m -5 -5 d s 1989 633 m -6 -5 d s 1969 633 m -5 -5 d s 1950 633 m -5 -5 d s 1931 633 m -5 -5 d s 1912 633 m -6 -5 d s 1893 633 m -6 -5 d s 1873 633 m -5 -5 d s 1854 633 m -5 -5 d s 1835 633 m -2 -2 d
 s black 3 lw 1 1 1 c black /w 24 def /w2 {w 2 div} def /w3 {w 3 div} def 387 504 m20 709 721 m 9 Y s 709 754 m 9 Y s 709 742 m20 1030 815 m 13 Y s 1030 852 m 13 Y s 1030 840 m20 1351 784 m 11 Y s 1351 819 m 12 Y s 1351 807 m20 1672 670 m 7 Y s 1672
 700 m 7 Y s 1672 688 m20 1994 614 m 4 Y s 1994 642 m 4 Y s 1994 630 m20 227 484 m 1927 X s 227 502 m -18 Y s 291 493 m -9 Y s 355 493 m -9 Y s 420 493 m -9 Y s 484 493 m -9 Y s 548 502 m -18 Y s 612 493 m -9 Y s 677 493 m -9 Y s 741 493 m -9 Y s 805
 493 m -9 Y s 869 502 m -18 Y s 934 493 m -9 Y s 998 493 m -9 Y s 1062 493 m -9 Y s 1126 493 m -9 Y s 1191 502 m -18 Y s 1255 493 m -9 Y s 1319 493 m -9 Y s 1383 493 m -9 Y s 1448 493 m -9 Y s 1512 502 m -18 Y s 1576 493 m -9 Y s 1640 493 m -9 Y s
 1705 493 m -9 Y s 1769 493 m -9 Y s 1833 502 m -18 Y s 1897 493 m -9 Y s 1962 493 m -9 Y s 2026 493 m -9 Y s 2090 493 m -9 Y s 2154 502 m -18 Y s 227 1520 m 1927 X s 227 1501 m 19 Y s 291 1510 m 10 Y s 355 1510 m 10 Y s 420 1510 m 10 Y s 484 1510 m
 10 Y s 548 1501 m 19 Y s 612 1510 m 10 Y s 677 1510 m 10 Y s 741 1510 m 10 Y s 805 1510 m 10 Y s 869 1501 m 19 Y s 934 1510 m 10 Y s 998 1510 m 10 Y s 1062 1510 m 10 Y s 1126 1510 m 10 Y s 1191 1501 m 19 Y s 1255 1510 m 10 Y s 1319 1510 m 10 Y s
 1383 1510 m 10 Y s 1448 1510 m 10 Y s 1512 1501 m 19 Y s 1576 1510 m 10 Y s 1640 1510 m 10 Y s 1705 1510 m 10 Y s 1769 1510 m 10 Y s 1833 1501 m 19 Y s 1897 1510 m 10 Y s 1962 1510 m 10 Y s 2026 1510 m 10 Y s 2090 1510 m 10 Y s 2154 1501 m 19 Y s
 227 484 m 1036 Y s 248 656 m -21 X s 237 690 m -10 X s 237 725 m -10 X s 237 759 m -10 X s 237 793 m -10 X s 248 828 m -21 X s 237 862 m -10 X s 237 897 m -10 X s 237 931 m -10 X s 237 966 m -10 X s 248 1000 m -21 X s 237 1034 m -10 X s 237 1069 m
 -10 X s 237 1103 m -10 X s 237 1138 m -10 X s 248 1172 m -21 X s 237 1207 m -10 X s 237 1241 m -10 X s 237 1275 m -10 X s 237 1310 m -10 X s 248 1344 m -21 X s 237 1379 m -10 X s 237 1413 m -10 X s 237 1448 m -10 X s 237 1482 m -10 X s 248 1516 m
 -21 X s 248 656 m -21 X s 237 621 m -10 X s 237 587 m -10 X s 237 552 m -10 X s 237 518 m -10 X s 248 1516 m -21 X s 2154 484 m 1036 Y s 2133 656 m 21 X s 2144 690 m 10 X s 2144 725 m 10 X s 2144 759 m 10 X s 2144 793 m 10 X s 2133 828 m 21 X s 2144
 862 m 10 X s 2144 897 m 10 X s 2144 931 m 10 X s 2144 966 m 10 X s 2133 1000 m 21 X s 2144 1034 m 10 X s 2144 1069 m 10 X s 2144 1103 m 10 X s 2144 1138 m 10 X s 2133 1172 m 21 X s 2144 1207 m 10 X s 2144 1241 m 10 X s 2144 1275 m 10 X s 2144 1310 m
 10 X s 2133 1344 m 21 X s 2144 1379 m 10 X s 2144 1413 m 10 X s 2144 1448 m 10 X s 2144 1482 m 10 X s 2133 1516 m 21 X s 2133 656 m 21 X s 2144 621 m 10 X s 2144 587 m 10 X s 2144 552 m 10 X s 2144 518 m 10 X s 2133 1516 m 21 X s
 gsave  2268 1103 0 472 C 1314.45 1432.87 t 0 r /Helvetica findfont 56.3093 sf 0 0 m ( Data) show NC gr  1259 1456 m 7 Y s 1259 1432 m -7 Y s 1259 1444 m20
 gsave  2268 1103 0 472 C 1776.28 1432.87 t 0 r /Helvetica findfont 56.3093 sf 0 0 m ( Fakes \(MM\)) show NC gr  0.4 0.6 0.4 c 1682 1422 m 79 X 44 Y -79 X f black
 gsave  2268 1103 0 472 C 1403.26 1367.74 t 0 r /Helvetica findfont 56.3093 sf 0 0 m (single\255top) show NC gr 
 gsave  2268 1103 0 472 C 1373.66 1367.74 t 0 r /Helvetica-Oblique findfont 56.3093 sf 0 0 m (/) show NC gr 
 gsave  2268 1103 0 472 C 1352.93 1367.74 t 0 r /Helvetica-Oblique findfont 56.3093 sf 0 0 m (t) show NC gr  6 lw 1353 1412 m 21 X s
 gsave  2268 1103 0 472 C 1332.21 1367.74 t 0 r /Helvetica-Oblique findfont 56.3093 sf 0 0 m (t) show NC gr 
 gsave  2268 1103 0 472 C 1314.45 1367.74 t 0 r /Helvetica findfont 56.3093 sf 0 0 m ( ) show NC gr  0.06 0.54 0.06 c 3 lw 1219 1359 m 79 X 44 Y -79 X f 6 lw black
 gsave  2268 1103 0 472 C 1906.54 1367.74 t 0 r /Helvetica findfont 56.3093 sf 0 0 m (+jets) show NC gr 
 gsave  2268 1103 0 472 C 1794.04 1367.74 t 0 r /Helvetica-Oblique findfont 56.3093 sf 0 0 m (W/Z) show NC gr 
 gsave  2268 1103 0 472 C 1776.28 1367.74 t 0 r /Helvetica findfont 56.3093 sf 0 0 m ( ) show NC gr  1 0.653333 0 c 3 lw 1682 1359 m 79 X 44 Y -79 X f black
 gsave  2268 1103 0 472 C 1512.8 1305.57 t 0 r /Helvetica findfont 56.3093 sf 0 0 m (+jets) show NC gr 
 gsave  2268 1103 0 472 C 1332.21 1305.57 t 0 r /Helvetica-Oblique findfont 56.3093 sf 0 0 m (WZ/ZZ) show NC gr 
 gsave  2268 1103 0 472 C 1314.45 1305.57 t 0 r /Helvetica findfont 56.3093 sf 0 0 m ( ) show NC gr  0.413333 1 0 c 3 lw 1219 1296 m 79 X 44 Y -79 X f black
 gsave  2268 1103 0 472 C 1835.49 1305.57 t 0 r /Helvetica-Oblique findfont 56.3093 sf 0 0 m (Z) show NC gr 
 gsave  2268 1103 0 472 C 1814.77 1305.57 t 0 r /Helvetica-Oblique findfont 56.3093 sf 0 0 m (t) show NC gr  6 lw 1815 1350 m 20 X s
 gsave  2268 1103 0 472 C 1794.04 1305.57 t 0 r /Helvetica-Oblique findfont 56.3093 sf 0 0 m (t) show NC gr 
 gsave  2268 1103 0 472 C 1776.28 1305.57 t 0 r /Helvetica findfont 56.3093 sf 0 0 m ( ) show NC gr  0.6 0.2 1 c 3 lw 1682 1296 m 79 X 44 Y -79 X f 6 lw black
 gsave  2268 1103 0 472 C 1373.66 1243.4 t 0 r /Helvetica-Oblique findfont 56.3093 sf 0 0 m (W) show NC gr 
 gsave  2268 1103 0 472 C 1352.93 1243.4 t 0 r /Helvetica-Oblique findfont 56.3093 sf 0 0 m (t) show NC gr  6 lw 1353 1288 m 21 X s
 gsave  2268 1103 0 472 C 1332.21 1243.4 t 0 r /Helvetica-Oblique findfont 56.3093 sf 0 0 m (t) show NC gr 
 gsave  2268 1103 0 472 C 1314.45 1243.4 t 0 r /Helvetica findfont 56.3093 sf 0 0 m ( ) show NC gr  0.54 0.06 0.06 c 3 lw 1219 1233 m 79 X 44 Y -79 X f 6 lw black
 gsave  2268 1103 0 472 C 1794.04 1243.4 t 0 r /Helvetica-Oblique findfont 56.3093 sf 0 0 m (tZq) show NC gr 
 gsave  2268 1103 0 472 C 1776.28 1243.4 t 0 r /Helvetica findfont 56.3093 sf 0 0 m ( ) show NC gr  1 0 1 c 3 lw 1682 1233 m 79 X 44 Y -79 X f black
 gsave  2268 1103 0 472 C 1373.66 1178.27 t 0 r /Helvetica-Oblique findfont 56.3093 sf 0 0 m (H) show NC gr 
 gsave  2268 1103 0 472 C 1352.93 1178.27 t 0 r /Helvetica-Oblique findfont 56.3093 sf 0 0 m (t) show NC gr  6 lw 1353 1223 m 21 X s
 gsave  2268 1103 0 472 C 1332.21 1178.27 t 0 r /Helvetica-Oblique findfont 56.3093 sf 0 0 m (t) show NC gr 
 gsave  2268 1103 0 472 C 1314.45 1178.27 t 0 r /Helvetica findfont 56.3093 sf 0 0 m ( ) show NC gr  0 0 1 c 3 lw 1219 1170 m 79 X 44 Y -79 X f 6 lw black
 gsave  2268 1103 0 472 C 1794.04 1178.27 t 0 r /Helvetica-Oblique findfont 56.3093 sf 0 0 m (tWZ/tWH) show NC gr 
 gsave  2268 1103 0 472 C 1776.28 1178.27 t 0 r /Helvetica findfont 56.3093 sf 0 0 m ( ) show NC gr  0.2 0.8 0.8 c 3 lw 1682 1170 m 79 X 44 Y -79 X f black
 gsave  2268 1103 0 472 C 1332.21 1116.1 t 0 r /Helvetica-Oblique findfont 56.3093 sf 0 0 m (tHq) show NC gr 
 gsave  2268 1103 0 472 C 1314.45 1116.1 t 0 r /Helvetica findfont 56.3093 sf 0 0 m ( ) show NC gr  1 0 0 c 3 lw 1219 1107 m 79 X 44 Y -79 X f black
 gsave  2268 1103 0 472 C 1776.28 1116.1 t 0 r /Helvetica findfont 56.3093 sf 0 0 m ( Other) show NC gr  1 0.84 0 c 3 lw 1682 1107 m 79 X 44 Y -79 X f black
 gsave  2268 1103 0 472 C 1314.45 1053.93 t 0 r /Helvetica findfont 56.3093 sf 0 0 m ( Uncertainty) show NC gr  0.6 0.6 0.6 c 3 lw 1298 1058 m -13 -14 d s 1298 1077 m -33 -33 d s 1290 1088 m -44 -44 d s 1271 1088 m -44 -44 d s 1252 1088 m -33 -33 d s
 1233 1088 m -14 -13 d s 1 0.84 0 c 0.6 0.6 0.6 c black
 gsave  2268 1103 0 472 C 894.061 1329.25 t 0 r /Helvetica findfont 41.4911 sf 0 0 m (\2551) show NC gr 
 gsave  2268 1103 0 472 C 399.663 1299.64 t 0 r /Helvetica findfont 62.2366 sf 0 0 m ( = 13 TeV,  139 fb) show NC gr 
 gsave  2268 1103 0 472 C 370.058 1299.64 t 0 r /Helvetica findfont 62.2366 sf 0 0 m (s) show NC gr  6 lw 349 1335 m 6 -38 d s 3 lw 355 1297 m 6 56 d s 361 1353 m 39 X s
 gsave  2268 1103 0 472 C 793.405 1201.95 t 0 r /Helvetica findfont 62.2366 sf 0 0 m (\)) show NC gr 
 gsave  2268 1103 0 472 C 737.156 1169.38 t 0 r /Helvetica findfont 41.4911 sf 0 0 m (HF) show NC gr 
 gsave  2268 1103 0 472 C 337.493 1201.95 t 0 r /Helvetica findfont 62.2366 sf 0 0 m ( 2L\(SS\), CR\(el) show NC gr 
 gsave  2268 1103 0 472 C 337.493 1400.3 t 0 r /Helvetica-BoldOblique findfont 71.1276 sf 0 0 m (ATLAS) show NC gr 
 gsave  2268 1103 0 472 C 633.54 1400.3 t 0 r /Helvetica findfont 71.1276 sf 0 0 m (Internal) show NC gr 
 gr  gr showpage
end
%%EOF
