%!PS-Adobe-2.0 EPSF-2.0
%%BoundingBox:  0 0 567 394
%%Title: : Njets_CRttbar
%%Creator: ROOT Version 6.20/06
%%CreationDate: Mon May 30 19:25:22 2022
%%DocumentNeededResources: ProcSet (FontSetInit)
%%EndComments
%%BeginProlog
80 dict begin
/s {stroke} def /l {lineto} def /m {moveto} def /t {translate} def
/r {rotate} def /rl {roll}  def /R {repeat} def
/d {rlineto} def /rm {rmoveto} def /gr {grestore} def /f {eofill} def
/c {setrgbcolor} def /black {0 setgray} def /sd {setdash} def
/cl {closepath} def /sf {scalefont setfont} def /lw {setlinewidth} def
/box {m dup 0 exch d exch 0 d 0 exch neg d cl} def
/NC{systemdict begin initclip end}def/C{NC box clip newpath}def
/bl {box s} def /bf {gsave box gsave f grestore 1 lw [] 0 sd s grestore} def /Y { 0 exch d} def /X { 0 d} def 
/K {{pop pop 0 moveto} exch kshow} bind def
/ita {/ang 15 def gsave [1 0 ang dup sin exch cos div 1 0 0] concat} def 
/mp {newpath /y exch def /x exch def} def
/side {[w .77 mul w .23 mul] .385 w mul sd w 0 l currentpoint t -144 r} def
/mr {mp x y w2 0 360 arc} def /m24 {mr s} def /m20 {mr f} def
/mb {mp x y w2 add m w2 neg 0 d 0 w neg d w 0 d 0 w d cl} def
/mt {mp x y w2 add m w2 neg w neg d w 0 d cl} def
/w4 {w 4 div} def
/w6 {w 6 div} def
/w8 {w 8 div} def
/m21 {mb f} def /m25 {mb s} def /m22 {mt f} def /m26{mt s} def
/m23 {mp x y w2 sub m w2 w d w neg 0 d cl f} def
/m27 {mp x y w2 add m w3 neg w2 neg d w3 w2 neg d w3 w2 d cl s} def
/m28 {mp x w2 sub y w2 sub w3 add m w3 0 d  0 w3 neg d w3 0 d 0 w3 d w3 0 d  0 w3 d w3 neg 0 d 0 w3 d w3 neg 0 d 0 w3 neg d w3 neg 0 d cl s } def
/m29 {mp gsave x w2 sub y w2 add w3 sub m currentpoint t 4 {side} repeat cl fill gr} def
/m30 {mp gsave x w2 sub y w2 add w3 sub m currentpoint t 4 {side} repeat cl s gr} def
/m31 {mp x y w2 sub m 0 w d x w2 sub y m w 0 d x w2 sub y w2 add m w w neg d x w2 sub y w2 sub m w w d s} def
/m32 {mp x y w2 sub m w2 w d w neg 0 d cl s} def
/m33 {mp x y w2 add m w3 neg w2 neg d w3 w2 neg d w3 w2 d cl f} def
/m34 {mp x w2 sub y w2 sub w3 add m w3 0 d  0 w3 neg d w3 0 d 0 w3 d w3 0 d  0 w3 d w3 neg 0 d 0 w3 d w3 neg 0 d 0 w3 neg d w3 neg 0 d cl f } def
/m35 {mp x y w2 add m w2 neg w2 neg d w2 w2 neg d w2 w2 d w2 neg w2 d x y w2 sub m 0 w d x w2 sub y m w 0 d s} def
/m36 {mb x w2 sub y w2 add m w w neg d x w2 sub y w2 sub m w w d s} def
/m37 {mp x y m w4 neg w2 d w4 neg w2 neg d w2 0 d  w4 neg w2 neg d w2 0 d w4 neg w2 d w2 0 d w4 neg w2 d w4 neg w2 neg d cl s} def
/m38 {mp x w4 sub y w2 add m w4 neg w4 neg d 0 w2 neg d w4 w4 neg d w2 0 d w4 w4 d 0 w2 d w4 neg w4 d w2 neg 0 d x y w2 sub m 0 w d x w2 sub y m w 0 d cl s} def
/m39 {mp x y m w4 neg w2 d w4 neg w2 neg d w2 0 d  w4 neg w2 neg d w2 0 d w4 neg w2 d w2 0 d w4 neg w2 d w4 neg w2 neg d cl f} def
/m40 {mp x y m w4 w2 d w4 w4 neg d w2 neg w4 neg d w2 w4 neg d w4 neg w4 neg d w4 neg w2 d w4 neg w2 neg d w4 neg w4 d w2 w4 d w2 neg w4 d w4 w4 d w4 w2 neg d cl s} def
/m41 {mp x y m w4 w2 d w4 w4 neg d w2 neg w4 neg d w2 w4 neg d w4 neg w4 neg d w4 neg w2 d w4 neg w2 neg d w4 neg w4 d w2 w4 d w2 neg w4 d w4 w4 d w4 w2 neg d cl f} def
/m42 {mp x y w2 add m w8 neg w2 -3 4 div mul d w2 -3 4 div mul w8 neg d w2 3 4 div mul w8 neg d w8 w2 -3 4 div mul d w8 w2 3 4 div mul d w2 3 4 div mul w8 d w2 -3 4 div mul w8 d w8 neg w2 3 4 div mul d cl s} def
/m43 {mp x y w2 add m w8 neg w2 -3 4 div mul d w2 -3 4 div mul w8 neg d w2 3 4 div mul w8 neg d w8 w2 -3 4 div mul d w8 w2 3 4 div mul d w2 3 4 div mul w8 d w2 -3 4 div mul w8 d w8 neg w2 3 4 div mul d cl f} def
/m44 {mp x y m w6 neg w2 d w2 2 3 div mul 0 d w6 neg w2 neg d w2 w6 d 0 w2 -2 3 div mul d w2 neg w6 d w6 w2 neg d w2 -2 3 div mul 0 d w6 w2 d w2 neg w6 neg d 0 w2 2 3 div mul d w2 w6 neg d cl s} def
/m45 {mp x y m w6 neg w2 d w2 2 3 div mul 0 d w6 neg w2 neg d w2 w6 d 0 w2 -2 3 div mul d w2 neg w6 d w6 w2 neg d w2 -2 3 div mul 0 d w6 w2 d w2 neg w6 neg d 0 w2 2 3 div mul d w2 w6 neg d cl f} def
/m46 {mp x y w4 add m w4 neg w4 d w4 neg w4 neg d  w4 w4 neg d w4 neg w4 neg d w4 w4 neg d w4 w4 d w4 w4 neg d w4 w4 d w4 neg w4 d w4 w4 d w4 neg w4 d w4 neg w4 neg d cl s} def
/m47 {mp x y w4 add m w4 neg w4 d w4 neg w4 neg d w4 w4 neg d w4 neg w4 neg d  w4 w4 neg d w4 w4 d w4 w4 neg d w4 w4 d w4 neg w4 d w4 w4 d w4 neg w4 d w4 neg w4 neg d cl f} def
/m48 {mp x y w4 add m w4 neg w4 d w4 neg w4 neg d w4 w4 neg d  w4 neg w4 neg d w4 w4 neg d w4 w4 d w4 w4 neg d w4 w4 d w4 neg w4 d w4 w4 d w4 neg w4 d w4 neg w4 neg d  w4 w4 neg d w4 neg w4 neg d w4 neg w4 d w4 w4 d cl f} def
/m49 {mp x w2 sub w3 add y w2 sub w3 add m  0 w3 neg d w3 0 d 0 w3 d w3 0 d 0 w3 d w3 neg 0 d 0 w3 d w3 neg 0 d 0 w3 neg d w3 neg 0 d 0 w3 neg d w3 0 d 0 w3 d w3 0 d 0 w3 neg d w3 neg 0 d cl f } def
/m2 {mp x y w2 sub m 0 w d x w2 sub y m w 0 d s} def
/m5 {mp x w2 sub y w2 sub m w w d x w2 sub y w2 add m w w neg d s} def
%%IncludeResource: ProcSet (FontSetInit)
%%IncludeResource: font Times-Roman
%%IncludeResource: font Times-Italic
%%IncludeResource: font Times-Bold
%%IncludeResource: font Times-BoldItalic
%%IncludeResource: font Helvetica
%%IncludeResource: font Helvetica-Oblique
%%IncludeResource: font Helvetica-Bold
%%IncludeResource: font Helvetica-BoldOblique
%%IncludeResource: font Courier
%%IncludeResource: font Courier-Oblique
%%IncludeResource: font Courier-Bold
%%IncludeResource: font Courier-BoldOblique
%%IncludeResource: font Symbol
%%IncludeResource: font ZapfDingbats
/reEncode {exch findfont dup length dict begin {1 index /FID eq  {pop pop} {def} ifelse } forall /Encoding exch def currentdict end dup /FontName get exch definefont pop } def [/Times-Bold /Times-Italic /Times-BoldItalic /Helvetica /Helvetica-Oblique
 /Helvetica-Bold /Helvetica-BoldOblique /Courier /Courier-Oblique /Courier-Bold /Courier-BoldOblique /Times-Roman /AvantGarde-Book /AvantGarde-BookOblique /AvantGarde-Demi /AvantGarde-DemiOblique /Bookman-Demi /Bookman-DemiItalic /Bookman-Light
 /Bookman-LightItalic /Helvetica-Narrow /Helvetica-Narrow-Bold /Helvetica-Narrow-BoldOblique /Helvetica-Narrow-Oblique /NewCenturySchlbk-Roman /NewCenturySchlbk-Bold /NewCenturySchlbk-BoldItalic /NewCenturySchlbk-Italic /Palatino-Bold
 /Palatino-BoldItalic /Palatino-Italic /Palatino-Roman ] {ISOLatin1Encoding reEncode } forall
%%EndProlog
%%BeginSetup
%%EndSetup
newpath  gsave  .25 .25 scale  gsave  0 0 t black[  ] 0 sd 3 lw 1 1 1 c 2268 1575 0 0 bf black 1 1 1 c 2268 472 0 0 bf black 1 1 1 c 1927 274 227 189 bf black 1927 274 227 189 bl 227 189 m 1927 X s 227 201 m -12 Y s 291 195 m -6 Y s 355 195 m -6 Y s
 420 195 m -6 Y s 484 195 m -6 Y s 548 201 m -12 Y s 612 195 m -6 Y s 677 195 m -6 Y s 741 195 m -6 Y s 805 195 m -6 Y s 869 201 m -12 Y s 934 195 m -6 Y s 998 195 m -6 Y s 1062 195 m -6 Y s 1126 195 m -6 Y s 1191 201 m -12 Y s 1255 195 m -6 Y s 1319
 195 m -6 Y s 1383 195 m -6 Y s 1448 195 m -6 Y s 1512 201 m -12 Y s 1576 195 m -6 Y s 1640 195 m -6 Y s 1705 195 m -6 Y s 1769 195 m -6 Y s 1833 201 m -12 Y s 1897 195 m -6 Y s 1962 195 m -6 Y s 2026 195 m -6 Y s 2090 195 m -6 Y s 2154 201 m -12 Y s
 gsave  2268 472 0 0 C 213.154 127.3 t 0 r /Helvetica findfont 53.4895 sf 0 0 m (1) show NC gr 
 gsave  2268 472 0 0 C 532.884 127.3 t 0 r /Helvetica findfont 53.4895 sf 0 0 m (2) show NC gr 
 gsave  2268 472 0 0 C 852.614 127.3 t 0 r /Helvetica findfont 53.4895 sf 0 0 m (3) show NC gr 
 gsave  2268 472 0 0 C 1175.3 127.3 t 0 r /Helvetica findfont 53.4895 sf 0 0 m (4) show NC gr 
 gsave  2268 472 0 0 C 1495.04 127.3 t 0 r /Helvetica findfont 53.4895 sf 0 0 m (5) show NC gr 
 gsave  2268 472 0 0 C 1817.73 127.3 t 0 r /Helvetica findfont 53.4895 sf 0 0 m (6) show NC gr 
 gsave  2268 472 0 0 C 2137.46 127.3 t 0 r /Helvetica findfont 53.4895 sf 0 0 m (7) show NC gr 
 gsave  2268 472 0 0 C 2090.09 35.5256 t 0 r /Helvetica findfont 38.6313 sf 0 0 m (jets) show NC gr 
 gsave  2268 472 0 0 C 2042.72 53.2884 t 0 r /Helvetica-Oblique findfont 56.4611 sf 0 0 m (N) show NC gr  227 463 m 1927 X s 227 451 m 12 Y s 291 457 m 6 Y s 355 457 m 6 Y s 420 457 m 6 Y s 484 457 m 6 Y s 548 451 m 12 Y s 612 457 m 6 Y s 677 457 m 6
 Y s 741 457 m 6 Y s 805 457 m 6 Y s 869 451 m 12 Y s 934 457 m 6 Y s 998 457 m 6 Y s 1062 457 m 6 Y s 1126 457 m 6 Y s 1191 451 m 12 Y s 1255 457 m 6 Y s 1319 457 m 6 Y s 1383 457 m 6 Y s 1448 457 m 6 Y s 1512 451 m 12 Y s 1576 457 m 6 Y s 1640 457
 m 6 Y s 1705 457 m 6 Y s 1769 457 m 6 Y s 1833 451 m 12 Y s 1897 457 m 6 Y s 1962 457 m 6 Y s 2026 457 m 6 Y s 2090 457 m 6 Y s 2154 451 m 12 Y s 227 189 m 274 Y s 240 240 m -13 X s 240 326 m -13 X s 240 412 m -13 X s 240 240 m -13 X s 240 412 m -13
 X s
 gsave  2268 472 0 0 C 118.419 222.035 t 0 r /Helvetica findfont 53.4895 sf 0 0 m (0.5) show NC gr 
 gsave  2268 472 0 0 C 171.707 307.888 t 0 r /Helvetica findfont 53.4895 sf 0 0 m (1) show NC gr 
 gsave  2268 472 0 0 C 118.419 393.742 t 0 r /Helvetica findfont 53.4895 sf 0 0 m (1.5) show NC gr 
 gsave  2268 472 0 0 C 71.0512 230.916 t 90 r /Helvetica findfont 53.4895 sf 0 0 m (Data / SM) show NC gr  2154 189 m 274 Y s 2141 240 m 13 X s 2141 326 m 13 X s 2141 412 m 13 X s 2141 240 m 13 X s 2141 412 m 13 X s 227 189 m 1927 X s 227 463 m 1927
 X s 227 189 m 274 Y s[ 4 8] 0 sd 2154 240 m -1927 X s 2154 326 m -1927 X s 2154 412 m -1927 X s 2154 240 m -1927 X s 2154 412 m -1927 X s[  ] 0 sd 2154 189 m 274 Y s 1 1 0.6 c 321 0 227 326 bf 321 0 548 326 bf 322 0 869 326 bf 321 0 1191 326 bf 321
 0 1512 326 bf 321 0 1833 326 bf black 0.6 0.6 0.6 c 548 318 m -3 -2 d s 547 336 m -21 -20 d s 528 336 m -21 -20 d s 508 336 m -20 -20 d s 489 336 m -21 -20 d s 470 336 m -21 -20 d s 451 336 m -21 -20 d s 431 336 m -20 -20 d s 412 336 m -21 -20 d s
 393 336 m -21 -20 d s 374 336 m -21 -20 d s 354 336 m -20 -20 d s 335 336 m -21 -20 d s 316 336 m -21 -20 d s 297 336 m -21 -20 d s 278 336 m -21 -20 d s 258 336 m -21 -20 d s 239 336 m -12 -12 d s 867 330 m -7 -8 d s 848 330 m -7 -8 d s 829 330 m
 -8 -8 d s 810 330 m -8 -8 d s 790 330 m -7 -8 d s 771 330 m -7 -8 d s 752 330 m -8 -8 d s 733 330 m -8 -8 d s 713 330 m -7 -8 d s 694 330 m -7 -8 d s 675 330 m -8 -8 d s 656 330 m -8 -8 d s 636 330 m -7 -8 d s 617 330 m -7 -8 d s 598 330 m -8 -8 d s
 579 330 m -8 -8 d s 560 330 m -8 -8 d s 1191 326 m -3 -3 d s 1174 329 m -5 -6 d s 1155 329 m -5 -6 d s 1135 329 m -5 -6 d s 1116 329 m -5 -6 d s 1097 329 m -5 -6 d s 1078 329 m -5 -6 d s 1059 329 m -6 -6 d s 1039 329 m -5 -6 d s 1020 329 m -5 -6 d s
 1001 329 m -5 -6 d s 982 329 m -5 -6 d s 962 329 m -5 -6 d s 943 329 m -5 -6 d s 924 329 m -5 -6 d s 905 329 m -5 -6 d s 885 329 m -5 -6 d s 1501 328 m -5 -4 d s 1482 328 m -5 -4 d s 1462 328 m -4 -4 d s 1443 328 m -4 -4 d s 1424 328 m -5 -4 d s
 1405 328 m -5 -4 d s 1385 328 m -4 -4 d s 1366 328 m -4 -4 d s 1347 328 m -5 -4 d s 1328 328 m -5 -4 d s 1308 328 m -4 -4 d s 1289 328 m -4 -4 d s 1270 328 m -5 -4 d s 1251 328 m -5 -4 d s 1231 328 m -4 -4 d s 1212 328 m -4 -4 d s 1193 328 m -2 -2 d
 s 1828 328 m -5 -4 d s 1809 328 m -5 -4 d s 1789 328 m -4 -4 d s 1770 328 m -4 -4 d s 1751 328 m -4 -4 d s 1732 328 m -5 -4 d s 1712 328 m -4 -4 d s 1693 328 m -4 -4 d s 1674 328 m -4 -4 d s 1655 328 m -5 -4 d s 1635 328 m -4 -4 d s 1616 328 m -4 -4
 d s 1597 328 m -4 -4 d s 1578 328 m -5 -4 d s 1558 328 m -4 -4 d s 1539 328 m -4 -4 d s 1520 328 m -4 -4 d s 2154 328 m -4 -5 d s 2136 329 m -5 -6 d s 2117 329 m -5 -6 d s 2098 329 m -6 -6 d s 2079 329 m -6 -6 d s 2059 329 m -5 -6 d s 2040 329 m -5
 -6 d s 2021 329 m -6 -6 d s 2002 329 m -6 -6 d s 1982 329 m -5 -6 d s 1963 329 m -5 -6 d s 1944 329 m -6 -6 d s 1925 329 m -6 -6 d s 1905 329 m -5 -6 d s 1886 329 m -5 -6 d s 1867 329 m -6 -6 d s 1848 329 m -6 -6 d s black 1 1 1 c black 387 237 m 18
 Y s 387 279 m 18 Y s /w 26 def /w2 {w 2 div} def /w3 {w 3 div} def 387 267 m20 709 321 m 2 Y s 709 347 m 1 Y s 709 335 m20 1030 300 m20 1351 300 m20 1672 292 m20 1994 298 m 5 Y s 1994 327 m 5 Y s 1994 315 m20 227 326 m 1927 X s 227 189 m 1927 X s
 227 201 m -12 Y s 291 195 m -6 Y s 355 195 m -6 Y s 420 195 m -6 Y s 484 195 m -6 Y s 548 201 m -12 Y s 612 195 m -6 Y s 677 195 m -6 Y s 741 195 m -6 Y s 805 195 m -6 Y s 869 201 m -12 Y s 934 195 m -6 Y s 998 195 m -6 Y s 1062 195 m -6 Y s 1126
 195 m -6 Y s 1191 201 m -12 Y s 1255 195 m -6 Y s 1319 195 m -6 Y s 1383 195 m -6 Y s 1448 195 m -6 Y s 1512 201 m -12 Y s 1576 195 m -6 Y s 1640 195 m -6 Y s 1705 195 m -6 Y s 1769 195 m -6 Y s 1833 201 m -12 Y s 1897 195 m -6 Y s 1962 195 m -6 Y s
 2026 195 m -6 Y s 2090 195 m -6 Y s 2154 201 m -12 Y s 227 463 m 1927 X s 227 451 m 12 Y s 291 457 m 6 Y s 355 457 m 6 Y s 420 457 m 6 Y s 484 457 m 6 Y s 548 451 m 12 Y s 612 457 m 6 Y s 677 457 m 6 Y s 741 457 m 6 Y s 805 457 m 6 Y s 869 451 m 12
 Y s 934 457 m 6 Y s 998 457 m 6 Y s 1062 457 m 6 Y s 1126 457 m 6 Y s 1191 451 m 12 Y s 1255 457 m 6 Y s 1319 457 m 6 Y s 1383 457 m 6 Y s 1448 457 m 6 Y s 1512 451 m 12 Y s 1576 457 m 6 Y s 1640 457 m 6 Y s 1705 457 m 6 Y s 1769 457 m 6 Y s 1833
 451 m 12 Y s 1897 457 m 6 Y s 1962 457 m 6 Y s 2026 457 m 6 Y s 2090 457 m 6 Y s 2154 451 m 12 Y s 227 189 m 274 Y s 240 240 m -13 X s 240 326 m -13 X s 240 412 m -13 X s 240 240 m -13 X s 240 412 m -13 X s 2154 189 m 274 Y s 2141 240 m 13 X s 2141
 326 m 13 X s 2141 412 m 13 X s 2141 240 m 13 X s 2141 412 m 13 X s 1 1 1 c 2268 1103 0 472 bf black 1 1 1 c 1927 1036 227 484 bf black 1927 1036 227 484 bl 1 1 1 c black 3 lw 227 484 m 1927 X s 227 502 m -18 Y s 291 493 m -9 Y s 355 493 m -9 Y s 420
 493 m -9 Y s 484 493 m -9 Y s 548 502 m -18 Y s 612 493 m -9 Y s 677 493 m -9 Y s 741 493 m -9 Y s 805 493 m -9 Y s 869 502 m -18 Y s 934 493 m -9 Y s 998 493 m -9 Y s 1062 493 m -9 Y s 1126 493 m -9 Y s 1191 502 m -18 Y s 1255 493 m -9 Y s 1319 493
 m -9 Y s 1383 493 m -9 Y s 1448 493 m -9 Y s 1512 502 m -18 Y s 1576 493 m -9 Y s 1640 493 m -9 Y s 1705 493 m -9 Y s 1769 493 m -9 Y s 1833 502 m -18 Y s 1897 493 m -9 Y s 1962 493 m -9 Y s 2026 493 m -9 Y s 2090 493 m -9 Y s 2154 502 m -18 Y s
 gsave  2268 1103 0 472 C 2116.73 396.702 t 0 r /Helvetica findfont 20.7455 sf 0 0 m (jets) show NC gr 
 gsave  2268 1103 0 472 C 2090.09 405.584 t 0 r /Helvetica-Oblique findfont 29.6365 sf 0 0 m (N) show NC gr  227 1520 m 1927 X s 227 1501 m 19 Y s 291 1510 m 10 Y s 355 1510 m 10 Y s 420 1510 m 10 Y s 484 1510 m 10 Y s 548 1501 m 19 Y s 612 1510 m 10
 Y s 677 1510 m 10 Y s 741 1510 m 10 Y s 805 1510 m 10 Y s 869 1501 m 19 Y s 934 1510 m 10 Y s 998 1510 m 10 Y s 1062 1510 m 10 Y s 1126 1510 m 10 Y s 1191 1501 m 19 Y s 1255 1510 m 10 Y s 1319 1510 m 10 Y s 1383 1510 m 10 Y s 1448 1510 m 10 Y s 1512
 1501 m 19 Y s 1576 1510 m 10 Y s 1640 1510 m 10 Y s 1705 1510 m 10 Y s 1769 1510 m 10 Y s 1833 1501 m 19 Y s 1897 1510 m 10 Y s 1962 1510 m 10 Y s 2026 1510 m 10 Y s 2090 1510 m 10 Y s 2154 1501 m 19 Y s 227 484 m 1036 Y s 248 626 m -21 X s 237 654
 m -10 X s 237 683 m -10 X s 237 711 m -10 X s 237 740 m -10 X s 248 768 m -21 X s 237 797 m -10 X s 237 825 m -10 X s 237 854 m -10 X s 237 882 m -10 X s 248 911 m -21 X s 237 939 m -10 X s 237 968 m -10 X s 237 996 m -10 X s 237 1025 m -10 X s 248
 1053 m -21 X s 237 1082 m -10 X s 237 1110 m -10 X s 237 1138 m -10 X s 237 1167 m -10 X s 248 1195 m -21 X s 237 1224 m -10 X s 237 1252 m -10 X s 237 1281 m -10 X s 237 1309 m -10 X s 248 1338 m -21 X s 237 1366 m -10 X s 237 1395 m -10 X s 237
 1423 m -10 X s 237 1452 m -10 X s 248 1480 m -21 X s 248 626 m -21 X s 237 597 m -10 X s 237 569 m -10 X s 237 540 m -10 X s 237 512 m -10 X s 248 1480 m -21 X s 237 1509 m -10 X s
 gsave  2268 1103 0 472 C 118.419 606.895 t 0 r /Helvetica findfont 50.382 sf 0 0 m (100) show NC gr 
 gsave  2268 1103 0 472 C 118.419 748.998 t 0 r /Helvetica findfont 50.382 sf 0 0 m (200) show NC gr 
 gsave  2268 1103 0 472 C 118.419 891.1 t 0 r /Helvetica findfont 50.382 sf 0 0 m (300) show NC gr 
 gsave  2268 1103 0 472 C 118.419 1033.2 t 0 r /Helvetica findfont 50.382 sf 0 0 m (400) show NC gr 
 gsave  2268 1103 0 472 C 118.419 1175.3 t 0 r /Helvetica findfont 50.382 sf 0 0 m (500) show NC gr 
 gsave  2268 1103 0 472 C 118.419 1317.41 t 0 r /Helvetica findfont 50.382 sf 0 0 m (600) show NC gr 
 gsave  2268 1103 0 472 C 118.419 1459.51 t 0 r /Helvetica findfont 50.382 sf 0 0 m (700) show NC gr 
 gsave  2268 1103 0 472 C 62.1698 1367.74 t 90 r /Helvetica findfont 50.382 sf 0 0 m (Events) show NC gr  2154 484 m 1036 Y s 2133 626 m 21 X s 2144 654 m 10 X s 2144 683 m 10 X s 2144 711 m 10 X s 2144 740 m 10 X s 2133 768 m 21 X s 2144 797 m 10 X
 s 2144 825 m 10 X s 2144 854 m 10 X s 2144 882 m 10 X s 2133 911 m 21 X s 2144 939 m 10 X s 2144 968 m 10 X s 2144 996 m 10 X s 2144 1025 m 10 X s 2133 1053 m 21 X s 2144 1082 m 10 X s 2144 1110 m 10 X s 2144 1138 m 10 X s 2144 1167 m 10 X s 2133
 1195 m 21 X s 2144 1224 m 10 X s 2144 1252 m 10 X s 2144 1281 m 10 X s 2144 1309 m 10 X s 2133 1338 m 21 X s 2144 1366 m 10 X s 2144 1395 m 10 X s 2144 1423 m 10 X s 2144 1452 m 10 X s 2133 1480 m 21 X s 2133 626 m 21 X s 2144 597 m 10 X s 2144 569
 m 10 X s 2144 540 m 10 X s 2144 512 m 10 X s 2133 1480 m 21 X s 2144 1509 m 10 X s 0.4 0.6 0.4 c black 3 lw 0.4 0.6 0.4 c 227 484 m 30 Y 321 X 208 Y 321 X 176 Y 322 X -30 Y 321 X -127 Y 321 X -116 Y 321 X -141 Y f 0.06 0.54 0.06 c 0.999 0.999 0.999
 c black 3 lw 0.999 0.999 0.999 c 227 484 m 19 Y 321 X 116 Y 321 X 76 Y 322 X -9 Y 321 X -63 Y 321 X -60 Y 321 X -79 Y f 0.06 0.54 0.06 c 0.999 0.999 0.999 c 0.06 0.54 0.06 c 1 1 1 c black 0.06 0.54 0.06 c black 3 lw 0.06 0.54 0.06 c 227 484 m 19 Y
 321 X 116 Y 321 X 76 Y 322 X -9 Y 321 X -63 Y 321 X -60 Y 321 X -79 Y f 1 0.653333 0 c 0.999 0.999 0.999 c black 3 lw 0.999 0.999 0.999 c 227 484 m 6 Y 321 X 58 Y 321 X 59 Y 322 X 20 Y 321 X -40 Y 321 X -38 Y 321 X -65 Y f 1 0.653333 0 c 0.999 0.999
 0.999 c 1 0.653333 0 c 1 1 1 c black 1 0.653333 0 c black 3 lw 1 0.653333 0 c 227 484 m 6 Y 321 X 58 Y 321 X 59 Y 322 X 20 Y 321 X -40 Y 321 X -38 Y 321 X -65 Y f 0.413333 1 0 c 0.999 0.999 0.999 c black 3 lw 0.999 0.999 0.999 c 227 484 m 4 Y 321 X
 51 Y 321 X 64 Y 322 X 14 Y 321 X -32 Y 321 X -37 Y 321 X -64 Y f 0.413333 1 0 c 0.999 0.999 0.999 c 0.413333 1 0 c 1 1 1 c black 0.413333 1 0 c black 3 lw 0.413333 1 0 c 227 484 m 4 Y 321 X 51 Y 321 X 64 Y 322 X 14 Y 321 X -32 Y 321 X -37 Y 321 X
 -64 Y f 0.6 0.2 1 c 0.999 0.999 0.999 c black 3 lw 0.999 0.999 0.999 c 227 484 m 1 Y 321 X 35 Y 321 X 56 Y 322 X 22 Y 321 X -22 Y 321 X -32 Y 321 X -60 Y f 0.6 0.2 1 c 0.999 0.999 0.999 c 0.6 0.2 1 c 1 1 1 c black 0.6 0.2 1 c black 3 lw 0.6 0.2 1 c
 227 484 m 1 Y 321 X 35 Y 321 X 56 Y 322 X 22 Y 321 X -22 Y 321 X -32 Y 321 X -60 Y f 0.54 0.06 0.06 c 0.999 0.999 0.999 c black 3 lw 0.999 0.999 0.999 c 227 484 m 1 Y 321 X 32 Y 321 X 48 Y 322 X 16 Y 321 X -23 Y 321 X -27 Y 321 X -47 Y f 0.54 0.06
 0.06 c 0.999 0.999 0.999 c 0.54 0.06 0.06 c 1 1 1 c black 0.54 0.06 0.06 c black 3 lw 0.54 0.06 0.06 c 227 484 m 1 Y 321 X 32 Y 321 X 48 Y 322 X 16 Y 321 X -23 Y 321 X -27 Y 321 X -47 Y f 1 0 1 c 0.999 0.999 0.999 c black 3 lw 0.999 0.999 0.999 c
 227 484 m 321 X 11 Y 321 X 10 Y 322 X 5 Y 321 X -4 Y 321 X -4 Y 321 X -18 Y f 1 0 1 c 0.999 0.999 0.999 c 1 0 1 c 1 1 1 c black 1 0 1 c black 3 lw 1 0 1 c 227 484 m 321 X 11 Y 321 X 10 Y 322 X 5 Y 321 X -4 Y 321 X -4 Y 321 X -18 Y f 0 0 1 c 0.999
 0.999 0.999 c black 3 lw 0.999 0.999 0.999 c 227 484 m 321 X 5 Y 321 X 5 Y 322 X 5 Y 321 X 2 Y 321 X -2 Y 321 X -15 Y f 0 0 1 c 0.999 0.999 0.999 c 0 0 1 c 1 1 1 c black 0 0 1 c black 3 lw 0 0 1 c 227 484 m 321 X 5 Y 321 X 5 Y 322 X 5 Y 321 X 2 Y
 321 X -2 Y 321 X -15 Y f 0.2 0.8 0.8 c 0.999 0.999 0.999 c black 3 lw 0.999 0.999 0.999 c 227 484 m 321 X 4 Y 321 X -1 Y 964 X -1 Y 321 X -2 Y f 0.2 0.8 0.8 c 0.999 0.999 0.999 c 0.2 0.8 0.8 c 1 1 1 c black 0.2 0.8 0.8 c black 3 lw 0.2 0.8 0.8 c 227
 484 m 321 X 4 Y 321 X -1 Y 964 X -1 Y 321 X -2 Y f 1 0 0 c 0.999 0.999 0.999 c black 3 lw 0.999 0.999 0.999 c 227 484 m 321 X 3 Y 321 X -2 Y 1285 X -1 Y f 1 0 0 c 0.999 0.999 0.999 c 1 0 0 c 1 1 1 c black 1 0 0 c black 3 lw 1 0 0 c 227 484 m 321 X 3
 Y 321 X -2 Y 1285 X -1 Y f 1 0.84 0 c 0.999 0.999 0.999 c black 3 lw 0.999 0.999 0.999 c 227 484 m 321 X 2 Y 321 X -2 Y 964 X 1 Y 321 X -1 Y f 1 0.84 0 c 0.999 0.999 0.999 c 1 0.84 0 c 1 1 1 c black 1 0.84 0 c black 3 lw 1 0.84 0 c 227 484 m 321 X 2
 Y 321 X -2 Y 964 X 1 Y 321 X -1 Y f black 1 1 1 c black 0.6 0.6 0.6 c 3 lw 544 516 m -4 -4 d s 524 516 m -3 -4 d s 505 516 m -4 -4 d s 486 516 m -4 -4 d s 467 516 m -4 -4 d s 447 516 m -3 -4 d s 428 516 m -4 -4 d s 409 516 m -4 -4 d s 390 516 m -4
 -4 d s 370 516 m -3 -4 d s 351 516 m -3 -4 d s 332 516 m -4 -4 d s 313 516 m -4 -4 d s 294 516 m -4 -4 d s 274 516 m -3 -4 d s 255 516 m -4 -4 d s 236 516 m -4 -4 d s 3 lw 869 726 m -9 -10 d s 852 727 m -11 -11 d s 832 727 m -10 -11 d s 813 727 m
 -11 -11 d s 794 727 m -11 -11 d s 775 727 m -11 -11 d s 755 727 m -10 -11 d s 736 727 m -11 -11 d s 717 727 m -11 -11 d s 698 727 m -11 -11 d s 678 727 m -10 -11 d s 659 727 m -11 -11 d s 640 727 m -11 -11 d s 621 727 m -11 -11 d s 601 727 m -10 -11
 d s 582 727 m -11 -11 d s 563 727 m -11 -11 d s 3 lw 1191 893 m -1 -1 d s 1183 904 m -12 -12 d s 1164 904 m -13 -12 d s 1144 904 m -12 -12 d s 1125 904 m -12 -12 d s 1106 904 m -12 -12 d s 1087 904 m -13 -12 d s 1067 904 m -12 -12 d s 1048 904 m -12
 -12 d s 1029 904 m -12 -12 d s 1010 904 m -13 -12 d s 990 904 m -12 -12 d s 971 904 m -12 -12 d s 952 904 m -12 -12 d s 933 904 m -13 -12 d s 913 904 m -12 -12 d s 894 904 m -12 -12 d s 875 904 m -6 -5 d s 3 lw 1512 868 m -5 -5 d s 1498 873 m -10
 -10 d s 1479 873 m -10 -10 d s 1460 873 m -11 -10 d s 1440 873 m -10 -10 d s 1421 873 m -10 -10 d s 1402 873 m -10 -10 d s 1383 873 m -11 -10 d s 1363 873 m -10 -10 d s 1344 873 m -10 -10 d s 1325 873 m -10 -10 d s 1306 873 m -11 -10 d s 1287 873 m
 -11 -10 d s 1267 873 m -10 -10 d s 1248 873 m -10 -10 d s 1229 873 m -11 -10 d s 1210 873 m -11 -10 d s 3 lw 1831 744 m -7 -7 d s 1811 744 m -6 -7 d s 1792 744 m -7 -7 d s 1773 744 m -7 -7 d s 1754 744 m -7 -7 d s 1734 744 m -6 -7 d s 1715 744 m -6
 -7 d s 1696 744 m -7 -7 d s 1677 744 m -7 -7 d s 1657 744 m -6 -7 d s 1638 744 m -6 -7 d s 1619 744 m -7 -7 d s 1600 744 m -7 -7 d s 1580 744 m -6 -7 d s 1561 744 m -6 -7 d s 1542 744 m -7 -7 d s 1523 744 m -7 -7 d s 3 lw 2154 625 m -2 -2 d s 2137
 627 m -5 -4 d s 2118 627 m -5 -4 d s 2098 627 m -4 -4 d s 2079 627 m -4 -4 d s 2060 627 m -5 -4 d s 2041 627 m -5 -4 d s 2021 627 m -4 -4 d s 2002 627 m -4 -4 d s 1983 627 m -5 -4 d s 1964 627 m -5 -4 d s 1945 627 m -5 -4 d s 1925 627 m -4 -4 d s
 1906 627 m -5 -4 d s 1887 627 m -5 -4 d s 1868 627 m -5 -4 d s 1848 627 m -4 -4 d s black 3 lw 1 1 1 c black /w 24 def /w2 {w 2 div} def /w3 {w 3 div} def 387 503 m20 709 715 m 7 Y s 709 746 m 7 Y s 709 734 m20 1030 813 m 10 Y s 1030 847 m 11 Y s
 1030 835 m20 1351 788 m 10 Y s 1351 821 m 10 Y s 1351 810 m20 1672 673 m 5 Y s 1672 702 m 5 Y s 1672 690 m20 1994 602 m 2 Y s 1994 628 m 2 Y s 1994 616 m20 227 484 m 1927 X s 227 502 m -18 Y s 291 493 m -9 Y s 355 493 m -9 Y s 420 493 m -9 Y s 484
 493 m -9 Y s 548 502 m -18 Y s 612 493 m -9 Y s 677 493 m -9 Y s 741 493 m -9 Y s 805 493 m -9 Y s 869 502 m -18 Y s 934 493 m -9 Y s 998 493 m -9 Y s 1062 493 m -9 Y s 1126 493 m -9 Y s 1191 502 m -18 Y s 1255 493 m -9 Y s 1319 493 m -9 Y s 1383
 493 m -9 Y s 1448 493 m -9 Y s 1512 502 m -18 Y s 1576 493 m -9 Y s 1640 493 m -9 Y s 1705 493 m -9 Y s 1769 493 m -9 Y s 1833 502 m -18 Y s 1897 493 m -9 Y s 1962 493 m -9 Y s 2026 493 m -9 Y s 2090 493 m -9 Y s 2154 502 m -18 Y s 227 1520 m 1927 X
 s 227 1501 m 19 Y s 291 1510 m 10 Y s 355 1510 m 10 Y s 420 1510 m 10 Y s 484 1510 m 10 Y s 548 1501 m 19 Y s 612 1510 m 10 Y s 677 1510 m 10 Y s 741 1510 m 10 Y s 805 1510 m 10 Y s 869 1501 m 19 Y s 934 1510 m 10 Y s 998 1510 m 10 Y s 1062 1510 m
 10 Y s 1126 1510 m 10 Y s 1191 1501 m 19 Y s 1255 1510 m 10 Y s 1319 1510 m 10 Y s 1383 1510 m 10 Y s 1448 1510 m 10 Y s 1512 1501 m 19 Y s 1576 1510 m 10 Y s 1640 1510 m 10 Y s 1705 1510 m 10 Y s 1769 1510 m 10 Y s 1833 1501 m 19 Y s 1897 1510 m 10
 Y s 1962 1510 m 10 Y s 2026 1510 m 10 Y s 2090 1510 m 10 Y s 2154 1501 m 19 Y s 227 484 m 1036 Y s 248 626 m -21 X s 237 654 m -10 X s 237 683 m -10 X s 237 711 m -10 X s 237 740 m -10 X s 248 768 m -21 X s 237 797 m -10 X s 237 825 m -10 X s 237
 854 m -10 X s 237 882 m -10 X s 248 911 m -21 X s 237 939 m -10 X s 237 968 m -10 X s 237 996 m -10 X s 237 1025 m -10 X s 248 1053 m -21 X s 237 1082 m -10 X s 237 1110 m -10 X s 237 1138 m -10 X s 237 1167 m -10 X s 248 1195 m -21 X s 237 1224 m
 -10 X s 237 1252 m -10 X s 237 1281 m -10 X s 237 1309 m -10 X s 248 1338 m -21 X s 237 1366 m -10 X s 237 1395 m -10 X s 237 1423 m -10 X s 237 1452 m -10 X s 248 1480 m -21 X s 248 626 m -21 X s 237 597 m -10 X s 237 569 m -10 X s 237 540 m -10 X
 s 237 512 m -10 X s 248 1480 m -21 X s 237 1509 m -10 X s 2154 484 m 1036 Y s 2133 626 m 21 X s 2144 654 m 10 X s 2144 683 m 10 X s 2144 711 m 10 X s 2144 740 m 10 X s 2133 768 m 21 X s 2144 797 m 10 X s 2144 825 m 10 X s 2144 854 m 10 X s 2144 882
 m 10 X s 2133 911 m 21 X s 2144 939 m 10 X s 2144 968 m 10 X s 2144 996 m 10 X s 2144 1025 m 10 X s 2133 1053 m 21 X s 2144 1082 m 10 X s 2144 1110 m 10 X s 2144 1138 m 10 X s 2144 1167 m 10 X s 2133 1195 m 21 X s 2144 1224 m 10 X s 2144 1252 m 10 X
 s 2144 1281 m 10 X s 2144 1309 m 10 X s 2133 1338 m 21 X s 2144 1366 m 10 X s 2144 1395 m 10 X s 2144 1423 m 10 X s 2144 1452 m 10 X s 2133 1480 m 21 X s 2133 626 m 21 X s 2144 597 m 10 X s 2144 569 m 10 X s 2144 540 m 10 X s 2144 512 m 10 X s 2133
 1480 m 21 X s 2144 1509 m 10 X s
 gsave  2268 1103 0 472 C 1314.45 1432.87 t 0 r /Helvetica findfont 56.3093 sf 0 0 m ( Data) show NC gr  1259 1456 m 7 Y s 1259 1432 m -7 Y s 1259 1444 m20
 gsave  2268 1103 0 472 C 1776.28 1432.87 t 0 r /Helvetica findfont 56.3093 sf 0 0 m ( Fakes \(MM\)) show NC gr  0.4 0.6 0.4 c 1682 1422 m 79 X 44 Y -79 X f black
 gsave  2268 1103 0 472 C 1403.26 1367.74 t 0 r /Helvetica findfont 56.3093 sf 0 0 m (single\255top) show NC gr 
 gsave  2268 1103 0 472 C 1373.66 1367.74 t 0 r /Helvetica-Oblique findfont 56.3093 sf 0 0 m (/) show NC gr 
 gsave  2268 1103 0 472 C 1352.93 1367.74 t 0 r /Helvetica-Oblique findfont 56.3093 sf 0 0 m (t) show NC gr  6 lw 1353 1412 m 21 X s
 gsave  2268 1103 0 472 C 1332.21 1367.74 t 0 r /Helvetica-Oblique findfont 56.3093 sf 0 0 m (t) show NC gr 
 gsave  2268 1103 0 472 C 1314.45 1367.74 t 0 r /Helvetica findfont 56.3093 sf 0 0 m ( ) show NC gr  0.06 0.54 0.06 c 3 lw 1219 1359 m 79 X 44 Y -79 X f 6 lw black
 gsave  2268 1103 0 472 C 1906.54 1367.74 t 0 r /Helvetica findfont 56.3093 sf 0 0 m (+jets) show NC gr 
 gsave  2268 1103 0 472 C 1794.04 1367.74 t 0 r /Helvetica-Oblique findfont 56.3093 sf 0 0 m (W/Z) show NC gr 
 gsave  2268 1103 0 472 C 1776.28 1367.74 t 0 r /Helvetica findfont 56.3093 sf 0 0 m ( ) show NC gr  1 0.653333 0 c 3 lw 1682 1359 m 79 X 44 Y -79 X f black
 gsave  2268 1103 0 472 C 1512.8 1305.57 t 0 r /Helvetica findfont 56.3093 sf 0 0 m (+jets) show NC gr 
 gsave  2268 1103 0 472 C 1332.21 1305.57 t 0 r /Helvetica-Oblique findfont 56.3093 sf 0 0 m (WZ/ZZ) show NC gr 
 gsave  2268 1103 0 472 C 1314.45 1305.57 t 0 r /Helvetica findfont 56.3093 sf 0 0 m ( ) show NC gr  0.413333 1 0 c 3 lw 1219 1296 m 79 X 44 Y -79 X f black
 gsave  2268 1103 0 472 C 1835.49 1305.57 t 0 r /Helvetica-Oblique findfont 56.3093 sf 0 0 m (Z) show NC gr 
 gsave  2268 1103 0 472 C 1814.77 1305.57 t 0 r /Helvetica-Oblique findfont 56.3093 sf 0 0 m (t) show NC gr  6 lw 1815 1350 m 20 X s
 gsave  2268 1103 0 472 C 1794.04 1305.57 t 0 r /Helvetica-Oblique findfont 56.3093 sf 0 0 m (t) show NC gr 
 gsave  2268 1103 0 472 C 1776.28 1305.57 t 0 r /Helvetica findfont 56.3093 sf 0 0 m ( ) show NC gr  0.6 0.2 1 c 3 lw 1682 1296 m 79 X 44 Y -79 X f 6 lw black
 gsave  2268 1103 0 472 C 1373.66 1243.4 t 0 r /Helvetica-Oblique findfont 56.3093 sf 0 0 m (W) show NC gr 
 gsave  2268 1103 0 472 C 1352.93 1243.4 t 0 r /Helvetica-Oblique findfont 56.3093 sf 0 0 m (t) show NC gr  6 lw 1353 1288 m 21 X s
 gsave  2268 1103 0 472 C 1332.21 1243.4 t 0 r /Helvetica-Oblique findfont 56.3093 sf 0 0 m (t) show NC gr 
 gsave  2268 1103 0 472 C 1314.45 1243.4 t 0 r /Helvetica findfont 56.3093 sf 0 0 m ( ) show NC gr  0.54 0.06 0.06 c 3 lw 1219 1233 m 79 X 44 Y -79 X f 6 lw black
 gsave  2268 1103 0 472 C 1794.04 1243.4 t 0 r /Helvetica-Oblique findfont 56.3093 sf 0 0 m (tZq) show NC gr 
 gsave  2268 1103 0 472 C 1776.28 1243.4 t 0 r /Helvetica findfont 56.3093 sf 0 0 m ( ) show NC gr  1 0 1 c 3 lw 1682 1233 m 79 X 44 Y -79 X f black
 gsave  2268 1103 0 472 C 1373.66 1178.27 t 0 r /Helvetica-Oblique findfont 56.3093 sf 0 0 m (H) show NC gr 
 gsave  2268 1103 0 472 C 1352.93 1178.27 t 0 r /Helvetica-Oblique findfont 56.3093 sf 0 0 m (t) show NC gr  6 lw 1353 1223 m 21 X s
 gsave  2268 1103 0 472 C 1332.21 1178.27 t 0 r /Helvetica-Oblique findfont 56.3093 sf 0 0 m (t) show NC gr 
 gsave  2268 1103 0 472 C 1314.45 1178.27 t 0 r /Helvetica findfont 56.3093 sf 0 0 m ( ) show NC gr  0 0 1 c 3 lw 1219 1170 m 79 X 44 Y -79 X f 6 lw black
 gsave  2268 1103 0 472 C 1794.04 1178.27 t 0 r /Helvetica-Oblique findfont 56.3093 sf 0 0 m (tWZ/tWH) show NC gr 
 gsave  2268 1103 0 472 C 1776.28 1178.27 t 0 r /Helvetica findfont 56.3093 sf 0 0 m ( ) show NC gr  0.2 0.8 0.8 c 3 lw 1682 1170 m 79 X 44 Y -79 X f black
 gsave  2268 1103 0 472 C 1332.21 1116.1 t 0 r /Helvetica-Oblique findfont 56.3093 sf 0 0 m (tHq) show NC gr 
 gsave  2268 1103 0 472 C 1314.45 1116.1 t 0 r /Helvetica findfont 56.3093 sf 0 0 m ( ) show NC gr  1 0 0 c 3 lw 1219 1107 m 79 X 44 Y -79 X f black
 gsave  2268 1103 0 472 C 1776.28 1116.1 t 0 r /Helvetica findfont 56.3093 sf 0 0 m ( Other) show NC gr  1 0.84 0 c 3 lw 1682 1107 m 79 X 44 Y -79 X f black
 gsave  2268 1103 0 472 C 1314.45 1053.93 t 0 r /Helvetica findfont 56.3093 sf 0 0 m ( Uncertainty) show NC gr  0.6 0.6 0.6 c 3 lw 1298 1058 m -13 -14 d s 1298 1077 m -33 -33 d s 1290 1088 m -44 -44 d s 1271 1088 m -44 -44 d s 1252 1088 m -33 -33 d s
 1233 1088 m -14 -13 d s 1 0.84 0 c 0.6 0.6 0.6 c black
 gsave  2268 1103 0 472 C 894.061 1329.25 t 0 r /Helvetica findfont 41.4911 sf 0 0 m (\2551) show NC gr 
 gsave  2268 1103 0 472 C 399.663 1299.64 t 0 r /Helvetica findfont 62.2366 sf 0 0 m ( = 13 TeV,  139 fb) show NC gr 
 gsave  2268 1103 0 472 C 370.058 1299.64 t 0 r /Helvetica findfont 62.2366 sf 0 0 m (s) show NC gr  6 lw 349 1335 m 6 -38 d s 3 lw 355 1297 m 6 56 d s 361 1353 m 39 X s
 gsave  2268 1103 0 472 C 899.982 1201.95 t 0 r /Helvetica findfont 62.2366 sf 0 0 m (\)) show NC gr 
 gsave  2268 1103 0 472 C 843.733 1169.38 t 0 r /Helvetica findfont 41.4911 sf 0 0 m (HF) show NC gr 
 gsave  2268 1103 0 472 C 337.493 1201.95 t 0 r /Helvetica findfont 62.2366 sf 0 0 m ( 2L\(SS\), CR\(el/mu) show NC gr 
 gsave  2268 1103 0 472 C 337.493 1400.3 t 0 r /Helvetica-BoldOblique findfont 71.1276 sf 0 0 m (ATLAS) show NC gr 
 gsave  2268 1103 0 472 C 633.54 1400.3 t 0 r /Helvetica findfont 71.1276 sf 0 0 m (Internal) show NC gr 
 gr  gr showpage
end
%%EOF
