%!PS-Adobe-2.0 EPSF-2.0
%%BoundingBox:  0 0 567 396
%%Title: : EffDiff_FakeEfficiency1D_mu_eta
%%Creator: ROOT Version 6.20/06
%%CreationDate: Tue Nov 30 11:55:41 2021
%%DocumentNeededResources: ProcSet (FontSetInit)
%%EndComments
%%BeginProlog
80 dict begin
/s {stroke} def /l {lineto} def /m {moveto} def /t {translate} def
/r {rotate} def /rl {roll}  def /R {repeat} def
/d {rlineto} def /rm {rmoveto} def /gr {grestore} def /f {eofill} def
/c {setrgbcolor} def /black {0 setgray} def /sd {setdash} def
/cl {closepath} def /sf {scalefont setfont} def /lw {setlinewidth} def
/box {m dup 0 exch d exch 0 d 0 exch neg d cl} def
/NC{systemdict begin initclip end}def/C{NC box clip newpath}def
/bl {box s} def /bf {gsave box gsave f grestore 1 lw [] 0 sd s grestore} def /Y { 0 exch d} def /X { 0 d} def 
/K {{pop pop 0 moveto} exch kshow} bind def
/ita {/ang 15 def gsave [1 0 ang dup sin exch cos div 1 0 0] concat} def 
/mp {newpath /y exch def /x exch def} def
/side {[w .77 mul w .23 mul] .385 w mul sd w 0 l currentpoint t -144 r} def
/mr {mp x y w2 0 360 arc} def /m24 {mr s} def /m20 {mr f} def
/mb {mp x y w2 add m w2 neg 0 d 0 w neg d w 0 d 0 w d cl} def
/mt {mp x y w2 add m w2 neg w neg d w 0 d cl} def
/w4 {w 4 div} def
/w6 {w 6 div} def
/w8 {w 8 div} def
/m21 {mb f} def /m25 {mb s} def /m22 {mt f} def /m26{mt s} def
/m23 {mp x y w2 sub m w2 w d w neg 0 d cl f} def
/m27 {mp x y w2 add m w3 neg w2 neg d w3 w2 neg d w3 w2 d cl s} def
/m28 {mp x w2 sub y w2 sub w3 add m w3 0 d  0 w3 neg d w3 0 d 0 w3 d w3 0 d  0 w3 d w3 neg 0 d 0 w3 d w3 neg 0 d 0 w3 neg d w3 neg 0 d cl s } def
/m29 {mp gsave x w2 sub y w2 add w3 sub m currentpoint t 4 {side} repeat cl fill gr} def
/m30 {mp gsave x w2 sub y w2 add w3 sub m currentpoint t 4 {side} repeat cl s gr} def
/m31 {mp x y w2 sub m 0 w d x w2 sub y m w 0 d x w2 sub y w2 add m w w neg d x w2 sub y w2 sub m w w d s} def
/m32 {mp x y w2 sub m w2 w d w neg 0 d cl s} def
/m33 {mp x y w2 add m w3 neg w2 neg d w3 w2 neg d w3 w2 d cl f} def
/m34 {mp x w2 sub y w2 sub w3 add m w3 0 d  0 w3 neg d w3 0 d 0 w3 d w3 0 d  0 w3 d w3 neg 0 d 0 w3 d w3 neg 0 d 0 w3 neg d w3 neg 0 d cl f } def
/m35 {mp x y w2 add m w2 neg w2 neg d w2 w2 neg d w2 w2 d w2 neg w2 d x y w2 sub m 0 w d x w2 sub y m w 0 d s} def
/m36 {mb x w2 sub y w2 add m w w neg d x w2 sub y w2 sub m w w d s} def
/m37 {mp x y m w4 neg w2 d w4 neg w2 neg d w2 0 d  w4 neg w2 neg d w2 0 d w4 neg w2 d w2 0 d w4 neg w2 d w4 neg w2 neg d cl s} def
/m38 {mp x w4 sub y w2 add m w4 neg w4 neg d 0 w2 neg d w4 w4 neg d w2 0 d w4 w4 d 0 w2 d w4 neg w4 d w2 neg 0 d x y w2 sub m 0 w d x w2 sub y m w 0 d cl s} def
/m39 {mp x y m w4 neg w2 d w4 neg w2 neg d w2 0 d  w4 neg w2 neg d w2 0 d w4 neg w2 d w2 0 d w4 neg w2 d w4 neg w2 neg d cl f} def
/m40 {mp x y m w4 w2 d w4 w4 neg d w2 neg w4 neg d w2 w4 neg d w4 neg w4 neg d w4 neg w2 d w4 neg w2 neg d w4 neg w4 d w2 w4 d w2 neg w4 d w4 w4 d w4 w2 neg d cl s} def
/m41 {mp x y m w4 w2 d w4 w4 neg d w2 neg w4 neg d w2 w4 neg d w4 neg w4 neg d w4 neg w2 d w4 neg w2 neg d w4 neg w4 d w2 w4 d w2 neg w4 d w4 w4 d w4 w2 neg d cl f} def
/m42 {mp x y w2 add m w8 neg w2 -3 4 div mul d w2 -3 4 div mul w8 neg d w2 3 4 div mul w8 neg d w8 w2 -3 4 div mul d w8 w2 3 4 div mul d w2 3 4 div mul w8 d w2 -3 4 div mul w8 d w8 neg w2 3 4 div mul d cl s} def
/m43 {mp x y w2 add m w8 neg w2 -3 4 div mul d w2 -3 4 div mul w8 neg d w2 3 4 div mul w8 neg d w8 w2 -3 4 div mul d w8 w2 3 4 div mul d w2 3 4 div mul w8 d w2 -3 4 div mul w8 d w8 neg w2 3 4 div mul d cl f} def
/m44 {mp x y m w6 neg w2 d w2 2 3 div mul 0 d w6 neg w2 neg d w2 w6 d 0 w2 -2 3 div mul d w2 neg w6 d w6 w2 neg d w2 -2 3 div mul 0 d w6 w2 d w2 neg w6 neg d 0 w2 2 3 div mul d w2 w6 neg d cl s} def
/m45 {mp x y m w6 neg w2 d w2 2 3 div mul 0 d w6 neg w2 neg d w2 w6 d 0 w2 -2 3 div mul d w2 neg w6 d w6 w2 neg d w2 -2 3 div mul 0 d w6 w2 d w2 neg w6 neg d 0 w2 2 3 div mul d w2 w6 neg d cl f} def
/m46 {mp x y w4 add m w4 neg w4 d w4 neg w4 neg d  w4 w4 neg d w4 neg w4 neg d w4 w4 neg d w4 w4 d w4 w4 neg d w4 w4 d w4 neg w4 d w4 w4 d w4 neg w4 d w4 neg w4 neg d cl s} def
/m47 {mp x y w4 add m w4 neg w4 d w4 neg w4 neg d w4 w4 neg d w4 neg w4 neg d  w4 w4 neg d w4 w4 d w4 w4 neg d w4 w4 d w4 neg w4 d w4 w4 d w4 neg w4 d w4 neg w4 neg d cl f} def
/m48 {mp x y w4 add m w4 neg w4 d w4 neg w4 neg d w4 w4 neg d  w4 neg w4 neg d w4 w4 neg d w4 w4 d w4 w4 neg d w4 w4 d w4 neg w4 d w4 w4 d w4 neg w4 d w4 neg w4 neg d  w4 w4 neg d w4 neg w4 neg d w4 neg w4 d w4 w4 d cl f} def
/m49 {mp x w2 sub w3 add y w2 sub w3 add m  0 w3 neg d w3 0 d 0 w3 d w3 0 d 0 w3 d w3 neg 0 d 0 w3 d w3 neg 0 d 0 w3 neg d w3 neg 0 d 0 w3 neg d w3 0 d 0 w3 d w3 0 d 0 w3 neg d w3 neg 0 d cl f } def
/m2 {mp x y w2 sub m 0 w d x w2 sub y m w 0 d s} def
/m5 {mp x w2 sub y w2 sub m w w d x w2 sub y w2 add m w w neg d s} def
%%IncludeResource: ProcSet (FontSetInit)
%%IncludeResource: font Times-Roman
%%IncludeResource: font Times-Italic
%%IncludeResource: font Times-Bold
%%IncludeResource: font Times-BoldItalic
%%IncludeResource: font Helvetica
%%IncludeResource: font Helvetica-Oblique
%%IncludeResource: font Helvetica-Bold
%%IncludeResource: font Helvetica-BoldOblique
%%IncludeResource: font Courier
%%IncludeResource: font Courier-Oblique
%%IncludeResource: font Courier-Bold
%%IncludeResource: font Courier-BoldOblique
%%IncludeResource: font Symbol
%%IncludeResource: font ZapfDingbats
/reEncode {exch findfont dup length dict begin {1 index /FID eq  {pop pop} {def} ifelse } forall /Encoding exch def currentdict end dup /FontName get exch definefont pop } def [/Times-Bold /Times-Italic /Times-BoldItalic /Helvetica /Helvetica-Oblique
 /Helvetica-Bold /Helvetica-BoldOblique /Courier /Courier-Oblique /Courier-Bold /Courier-BoldOblique /Times-Roman /AvantGarde-Book /AvantGarde-BookOblique /AvantGarde-Demi /AvantGarde-DemiOblique /Bookman-Demi /Bookman-DemiItalic /Bookman-Light
 /Bookman-LightItalic /Helvetica-Narrow /Helvetica-Narrow-Bold /Helvetica-Narrow-BoldOblique /Helvetica-Narrow-Oblique /NewCenturySchlbk-Roman /NewCenturySchlbk-Bold /NewCenturySchlbk-BoldItalic /NewCenturySchlbk-Italic /Palatino-Bold
 /Palatino-BoldItalic /Palatino-Italic /Palatino-Roman ] {ISOLatin1Encoding reEncode } forall
%%EndProlog
%%BeginSetup
%%EndSetup
newpath  gsave  .25 .25 scale  gsave  0 0 t black[  ] 0 sd 3 lw 1 1 1 c 2268 1583 0 0 bf black 1 1 1 c 2268 1583 0 0 bf black 1 1 1 c 1927 1187 227 237 bf black 1927 1187 227 237 bl 0.4 0.4 1 c 6 lw 1 1 1 c 0.4 0.4 1 c 227 300 m 955 X s 1199 300 m
 955 X s 3 lw /w 19 def /w2 {w 2 div} def /w3 {w 3 div} def 1191 300 m20 6 lw black 3 lw 227 237 m 1927 X s 227 278 m -41 Y s 304 258 m -21 Y s 381 258 m -21 Y s 458 258 m -21 Y s 535 258 m -21 Y s 612 278 m -41 Y s 689 258 m -21 Y s 766 258 m -21 Y
 s 844 258 m -21 Y s 921 258 m -21 Y s 998 278 m -41 Y s 1075 258 m -21 Y s 1152 258 m -21 Y s 1229 258 m -21 Y s 1306 258 m -21 Y s 1383 278 m -41 Y s 1460 258 m -21 Y s 1538 258 m -21 Y s 1615 258 m -21 Y s 1692 258 m -21 Y s 1769 278 m -41 Y s
 1846 258 m -21 Y s 1923 258 m -21 Y s 2000 258 m -21 Y s 2077 258 m -21 Y s 2154 278 m -41 Y s
 gsave  2268 1583 0 0 C 206.693 171.26 t 0 r /Helvetica findfont 59.0551 sf 0 0 m (0) show NC gr 
 gsave  2268 1583 0 0 C 569.882 171.26 t 0 r /Helvetica findfont 59.0551 sf 0 0 m (0.5) show NC gr 
 gsave  2268 1583 0 0 C 983.268 171.26 t 0 r /Helvetica findfont 59.0551 sf 0 0 m (1) show NC gr 
 gsave  2268 1583 0 0 C 1340.55 171.26 t 0 r /Helvetica findfont 59.0551 sf 0 0 m (1.5) show NC gr 
 gsave  2268 1583 0 0 C 1750.98 171.26 t 0 r /Helvetica findfont 59.0551 sf 0 0 m (2) show NC gr 
 gsave  2268 1583 0 0 C 2111.22 171.26 t 0 r /Helvetica findfont 59.0551 sf 0 0 m (2.5) show NC gr 
 gsave  2268 1583 0 0 C 2111.22 56.1024 t 0 r /Helvetica findfont 38.3858 sf 0 0 m (ev) show NC gr 
 gsave  2268 1583 0 0 C 1907.48 70.8661 t 0 r /Helvetica findfont 59.0551 sf 0 0 m (Muon N) show NC gr  227 1424 m 1927 X s 227 1384 m 40 Y s 304 1404 m 20 Y s 381 1404 m 20 Y s 458 1404 m 20 Y s 535 1404 m 20 Y s 612 1384 m 40 Y s 689 1404 m 20 Y s
 766 1404 m 20 Y s 844 1404 m 20 Y s 921 1404 m 20 Y s 998 1384 m 40 Y s 1075 1404 m 20 Y s 1152 1404 m 20 Y s 1229 1404 m 20 Y s 1306 1404 m 20 Y s 1383 1384 m 40 Y s 1460 1404 m 20 Y s 1538 1404 m 20 Y s 1615 1404 m 20 Y s 1692 1404 m 20 Y s 1769
 1384 m 40 Y s 1846 1404 m 20 Y s 1923 1404 m 20 Y s 2000 1404 m 20 Y s 2077 1404 m 20 Y s 2154 1384 m 40 Y s 227 237 m 1187 Y s 278 429 m -51 X s 252 467 m -25 X s 252 505 m -25 X s 252 543 m -25 X s 252 582 m -25 X s 278 620 m -51 X s 252 658 m -25
 X s 252 697 m -25 X s 252 735 m -25 X s 252 773 m -25 X s 278 812 m -51 X s 252 850 m -25 X s 252 888 m -25 X s 252 926 m -25 X s 252 965 m -25 X s 278 1003 m -51 X s 252 1041 m -25 X s 252 1080 m -25 X s 252 1118 m -25 X s 252 1156 m -25 X s 278
 1195 m -51 X s 252 1233 m -25 X s 252 1271 m -25 X s 252 1310 m -25 X s 252 1348 m -25 X s 278 1386 m -51 X s 278 429 m -51 X s 252 390 m -25 X s 252 352 m -25 X s 252 314 m -25 X s 252 275 m -25 X s 278 1386 m -51 X s 252 1424 m -25 X s
 gsave  2268 1583 0 0 C 88.5827 407.48 t 0 r /Helvetica findfont 59.0551 sf 0 0 m (0.05) show NC gr 
 gsave  2268 1583 0 0 C 132.874 596.457 t 0 r /Helvetica findfont 59.0551 sf 0 0 m (0.1) show NC gr 
 gsave  2268 1583 0 0 C 88.5827 788.386 t 0 r /Helvetica findfont 59.0551 sf 0 0 m (0.15) show NC gr 
 gsave  2268 1583 0 0 C 124.016 980.315 t 0 r /Helvetica findfont 59.0551 sf 0 0 m (0.2) show NC gr 
 gsave  2268 1583 0 0 C 88.5827 1172.24 t 0 r /Helvetica findfont 59.0551 sf 0 0 m (0.25) show NC gr 
 gsave  2268 1583 0 0 C 124.016 1364.17 t 0 r /Helvetica findfont 59.0551 sf 0 0 m (0.3) show NC gr 
 gsave  2268 1583 0 0 C 50.1968 1172.24 t 90 r /Helvetica findfont 59.0551 sf 0 0 m (Efficiency) show NC gr  2154 237 m 1187 Y s 2103 429 m 51 X s 2129 467 m 25 X s 2129 505 m 25 X s 2129 543 m 25 X s 2129 582 m 25 X s 2103 620 m 51 X s 2129 658 m 25
 X s 2129 697 m 25 X s 2129 735 m 25 X s 2129 773 m 25 X s 2103 812 m 51 X s 2129 850 m 25 X s 2129 888 m 25 X s 2129 926 m 25 X s 2129 965 m 25 X s 2103 1003 m 51 X s 2129 1041 m 25 X s 2129 1080 m 25 X s 2129 1118 m 25 X s 2129 1156 m 25 X s 2103
 1195 m 51 X s 2129 1233 m 25 X s 2129 1271 m 25 X s 2129 1310 m 25 X s 2129 1348 m 25 X s 2103 1386 m 51 X s 2103 429 m 51 X s 2129 390 m 25 X s 2129 352 m 25 X s 2129 314 m 25 X s 2129 275 m 25 X s 2103 1386 m 51 X s 2129 1424 m 25 X s 1 0.4 0.4 c
 6 lw 1 1 1 c 1 0.4 0.4 c 1191 267 m 9 Y s 1191 294 m 9 Y s 227 285 m 955 X s 1199 285 m 955 X s 3 lw 1191 285 m20 6 lw black 3 lw 1 1 1 c 771 190 1202 1171 bf black 1202 1171 m 771 X s 1973 1171 m 190 Y s 1973 1361 m -771 X s 1202 1361 m -190 Y s
 gsave  2268 1583 0 0 C 1393.7 1293.31 t 0 r /Helvetica findfont 53.1496 sf 0 0 m ( Truth rates 2L \(SS\) CR) show NC gr  1 1 1 c 1231 1280 m 135 X 67 Y -135 X f 0.4 0.4 1 c 6 lw 1231 1314 m 135 X s 3 lw 1298 1314 m20 6 lw black
 gsave  2268 1583 0 0 C 1393.7 1198.82 t 0 r /Helvetica findfont 53.1496 sf 0 0 m ( Truth rates 3L SR) show NC gr  1 1 1 c 3 lw 1231 1185 m 135 X 67 Y -135 X f 6 lw 1 0.4 0.4 c 1231 1219 m 135 X s 3 lw 1298 1219 m20 6 lw black 3 lw 1 1 1 c 589 206
 363 1155 bf black 363 1155 m 589 X s 952 1155 m 206 Y s 952 1361 m -589 X s 363 1361 m -206 Y s
 gsave  2268 1583 0 0 C 407.48 1187.01 t 0 r /Helvetica-Bold findfont 59.0551 sf 0 0 m (Muons) show NC gr 
 gsave  2268 1583 0 0 C 407.48 1284.45 t 0 r /Helvetica-BoldOblique findfont 59.0551 sf 0 0 m (ATLAS) show NC gr 
 gsave  2268 1583 0 0 C 655.512 1284.45 t 0 r /Helvetica findfont 59.0551 sf 0 0 m (Internal) show NC gr 
 gr  gr showpage
end
%%EOF
