%!PS-Adobe-2.0 EPSF-2.0
%%BoundingBox:  0 0 567 396
%%Title: /lhome/ific/c/cardillo/tHq/Plots/Eff-04-04-22-PLIV-SF//Sources_muTight_p0.eps: Sources_muTight_p0
%%Creator: ROOT Version 6.20/06
%%CreationDate: Fri Apr  8 19:55:54 2022
%%DocumentNeededResources: ProcSet (FontSetInit)
%%EndComments
%%BeginProlog
80 dict begin
/s {stroke} def /l {lineto} def /m {moveto} def /t {translate} def
/r {rotate} def /rl {roll}  def /R {repeat} def
/d {rlineto} def /rm {rmoveto} def /gr {grestore} def /f {eofill} def
/c {setrgbcolor} def /black {0 setgray} def /sd {setdash} def
/cl {closepath} def /sf {scalefont setfont} def /lw {setlinewidth} def
/box {m dup 0 exch d exch 0 d 0 exch neg d cl} def
/NC{systemdict begin initclip end}def/C{NC box clip newpath}def
/bl {box s} def /bf {gsave box gsave f grestore 1 lw [] 0 sd s grestore} def /Y { 0 exch d} def /X { 0 d} def 
/K {{pop pop 0 moveto} exch kshow} bind def
/ita {/ang 15 def gsave [1 0 ang dup sin exch cos div 1 0 0] concat} def 
/mp {newpath /y exch def /x exch def} def
/side {[w .77 mul w .23 mul] .385 w mul sd w 0 l currentpoint t -144 r} def
/mr {mp x y w2 0 360 arc} def /m24 {mr s} def /m20 {mr f} def
/mb {mp x y w2 add m w2 neg 0 d 0 w neg d w 0 d 0 w d cl} def
/mt {mp x y w2 add m w2 neg w neg d w 0 d cl} def
/w4 {w 4 div} def
/w6 {w 6 div} def
/w8 {w 8 div} def
/m21 {mb f} def /m25 {mb s} def /m22 {mt f} def /m26{mt s} def
/m23 {mp x y w2 sub m w2 w d w neg 0 d cl f} def
/m27 {mp x y w2 add m w3 neg w2 neg d w3 w2 neg d w3 w2 d cl s} def
/m28 {mp x w2 sub y w2 sub w3 add m w3 0 d  0 w3 neg d w3 0 d 0 w3 d w3 0 d  0 w3 d w3 neg 0 d 0 w3 d w3 neg 0 d 0 w3 neg d w3 neg 0 d cl s } def
/m29 {mp gsave x w2 sub y w2 add w3 sub m currentpoint t 4 {side} repeat cl fill gr} def
/m30 {mp gsave x w2 sub y w2 add w3 sub m currentpoint t 4 {side} repeat cl s gr} def
/m31 {mp x y w2 sub m 0 w d x w2 sub y m w 0 d x w2 sub y w2 add m w w neg d x w2 sub y w2 sub m w w d s} def
/m32 {mp x y w2 sub m w2 w d w neg 0 d cl s} def
/m33 {mp x y w2 add m w3 neg w2 neg d w3 w2 neg d w3 w2 d cl f} def
/m34 {mp x w2 sub y w2 sub w3 add m w3 0 d  0 w3 neg d w3 0 d 0 w3 d w3 0 d  0 w3 d w3 neg 0 d 0 w3 d w3 neg 0 d 0 w3 neg d w3 neg 0 d cl f } def
/m35 {mp x y w2 add m w2 neg w2 neg d w2 w2 neg d w2 w2 d w2 neg w2 d x y w2 sub m 0 w d x w2 sub y m w 0 d s} def
/m36 {mb x w2 sub y w2 add m w w neg d x w2 sub y w2 sub m w w d s} def
/m37 {mp x y m w4 neg w2 d w4 neg w2 neg d w2 0 d  w4 neg w2 neg d w2 0 d w4 neg w2 d w2 0 d w4 neg w2 d w4 neg w2 neg d cl s} def
/m38 {mp x w4 sub y w2 add m w4 neg w4 neg d 0 w2 neg d w4 w4 neg d w2 0 d w4 w4 d 0 w2 d w4 neg w4 d w2 neg 0 d x y w2 sub m 0 w d x w2 sub y m w 0 d cl s} def
/m39 {mp x y m w4 neg w2 d w4 neg w2 neg d w2 0 d  w4 neg w2 neg d w2 0 d w4 neg w2 d w2 0 d w4 neg w2 d w4 neg w2 neg d cl f} def
/m40 {mp x y m w4 w2 d w4 w4 neg d w2 neg w4 neg d w2 w4 neg d w4 neg w4 neg d w4 neg w2 d w4 neg w2 neg d w4 neg w4 d w2 w4 d w2 neg w4 d w4 w4 d w4 w2 neg d cl s} def
/m41 {mp x y m w4 w2 d w4 w4 neg d w2 neg w4 neg d w2 w4 neg d w4 neg w4 neg d w4 neg w2 d w4 neg w2 neg d w4 neg w4 d w2 w4 d w2 neg w4 d w4 w4 d w4 w2 neg d cl f} def
/m42 {mp x y w2 add m w8 neg w2 -3 4 div mul d w2 -3 4 div mul w8 neg d w2 3 4 div mul w8 neg d w8 w2 -3 4 div mul d w8 w2 3 4 div mul d w2 3 4 div mul w8 d w2 -3 4 div mul w8 d w8 neg w2 3 4 div mul d cl s} def
/m43 {mp x y w2 add m w8 neg w2 -3 4 div mul d w2 -3 4 div mul w8 neg d w2 3 4 div mul w8 neg d w8 w2 -3 4 div mul d w8 w2 3 4 div mul d w2 3 4 div mul w8 d w2 -3 4 div mul w8 d w8 neg w2 3 4 div mul d cl f} def
/m44 {mp x y m w6 neg w2 d w2 2 3 div mul 0 d w6 neg w2 neg d w2 w6 d 0 w2 -2 3 div mul d w2 neg w6 d w6 w2 neg d w2 -2 3 div mul 0 d w6 w2 d w2 neg w6 neg d 0 w2 2 3 div mul d w2 w6 neg d cl s} def
/m45 {mp x y m w6 neg w2 d w2 2 3 div mul 0 d w6 neg w2 neg d w2 w6 d 0 w2 -2 3 div mul d w2 neg w6 d w6 w2 neg d w2 -2 3 div mul 0 d w6 w2 d w2 neg w6 neg d 0 w2 2 3 div mul d w2 w6 neg d cl f} def
/m46 {mp x y w4 add m w4 neg w4 d w4 neg w4 neg d  w4 w4 neg d w4 neg w4 neg d w4 w4 neg d w4 w4 d w4 w4 neg d w4 w4 d w4 neg w4 d w4 w4 d w4 neg w4 d w4 neg w4 neg d cl s} def
/m47 {mp x y w4 add m w4 neg w4 d w4 neg w4 neg d w4 w4 neg d w4 neg w4 neg d  w4 w4 neg d w4 w4 d w4 w4 neg d w4 w4 d w4 neg w4 d w4 w4 d w4 neg w4 d w4 neg w4 neg d cl f} def
/m48 {mp x y w4 add m w4 neg w4 d w4 neg w4 neg d w4 w4 neg d  w4 neg w4 neg d w4 w4 neg d w4 w4 d w4 w4 neg d w4 w4 d w4 neg w4 d w4 w4 d w4 neg w4 d w4 neg w4 neg d  w4 w4 neg d w4 neg w4 neg d w4 neg w4 d w4 w4 d cl f} def
/m49 {mp x w2 sub w3 add y w2 sub w3 add m  0 w3 neg d w3 0 d 0 w3 d w3 0 d 0 w3 d w3 neg 0 d 0 w3 d w3 neg 0 d 0 w3 neg d w3 neg 0 d 0 w3 neg d w3 0 d 0 w3 d w3 0 d 0 w3 neg d w3 neg 0 d cl f } def
/m2 {mp x y w2 sub m 0 w d x w2 sub y m w 0 d s} def
/m5 {mp x w2 sub y w2 sub m w w d x w2 sub y w2 add m w w neg d s} def
%%IncludeResource: ProcSet (FontSetInit)
%%IncludeResource: font Times-Roman
%%IncludeResource: font Times-Italic
%%IncludeResource: font Times-Bold
%%IncludeResource: font Times-BoldItalic
%%IncludeResource: font Helvetica
%%IncludeResource: font Helvetica-Oblique
%%IncludeResource: font Helvetica-Bold
%%IncludeResource: font Helvetica-BoldOblique
%%IncludeResource: font Courier
%%IncludeResource: font Courier-Oblique
%%IncludeResource: font Courier-Bold
%%IncludeResource: font Courier-BoldOblique
%%IncludeResource: font Symbol
%%IncludeResource: font ZapfDingbats
/reEncode {exch findfont dup length dict begin {1 index /FID eq  {pop pop} {def} ifelse } forall /Encoding exch def currentdict end dup /FontName get exch definefont pop } def [/Times-Bold /Times-Italic /Times-BoldItalic /Helvetica /Helvetica-Oblique
 /Helvetica-Bold /Helvetica-BoldOblique /Courier /Courier-Oblique /Courier-Bold /Courier-BoldOblique /Times-Roman /AvantGarde-Book /AvantGarde-BookOblique /AvantGarde-Demi /AvantGarde-DemiOblique /Bookman-Demi /Bookman-DemiItalic /Bookman-Light
 /Bookman-LightItalic /Helvetica-Narrow /Helvetica-Narrow-Bold /Helvetica-Narrow-BoldOblique /Helvetica-Narrow-Oblique /NewCenturySchlbk-Roman /NewCenturySchlbk-Bold /NewCenturySchlbk-BoldItalic /NewCenturySchlbk-Italic /Palatino-Bold
 /Palatino-BoldItalic /Palatino-Italic /Palatino-Roman ] {ISOLatin1Encoding reEncode } forall
%%EndProlog
%%BeginSetup
%%EndSetup
newpath  gsave  .25 .25 scale  gsave  0 0 t black[  ] 0 sd 3 lw 1 1 1 c 2268 1583 0 0 bf black 1 1 1 c 1927 1251 227 253 bf black 1927 1251 227 253 bl 227 253 m 1927 X s 231 294 m -41 Y s
 gsave  2268 1583 0 0 C 197.835 165.354 t 0 r /Helvetica findfont 59.0551 sf 0 0 m (10) show NC gr  520 273 m -20 Y s 690 273 m -20 Y s 810 273 m -20 Y s 903 273 m -20 Y s 979 273 m -20 Y s 1044 273 m -20 Y s 1099 273 m -20 Y s 1149 273 m -20 Y s
 1193 294 m -41 Y s
 gsave  2268 1583 0 0 C 1210.63 191.929 t 0 r /Helvetica findfont 38.3858 sf 0 0 m (2) show NC gr 
 gsave  2268 1583 0 0 C 1145.67 165.354 t 0 r /Helvetica findfont 59.0551 sf 0 0 m (10) show NC gr  1482 273 m -20 Y s 1651 273 m -20 Y s 1772 273 m -20 Y s 1865 273 m -20 Y s 1941 273 m -20 Y s 2005 273 m -20 Y s 2061 273 m -20 Y s 2110 273 m -20 Y
 s 2154 294 m -41 Y s
 gsave  2268 1583 0 0 C 2173.23 194.882 t 0 r /Helvetica findfont 38.3858 sf 0 0 m (3) show NC gr 
 gsave  2268 1583 0 0 C 2108.27 165.354 t 0 r /Helvetica findfont 59.0551 sf 0 0 m (10) show NC gr 
 gsave  2268 1583 0 0 C 1987.2 82.6772 t 0 r /Helvetica findfont 59.0551 sf 0 0 m ( [GeV]) show NC gr 
 gsave  2268 1583 0 0 C 1963.58 50.1968 t 0 r /Helvetica findfont 38.3858 sf 0 0 m (T) show NC gr 
 gsave  2268 1583 0 0 C 1928.15 82.6772 t 0 r /Helvetica-Oblique findfont 59.0551 sf 0 0 m (p) show NC gr 
 gsave  2268 1583 0 0 C 1762.8 82.6772 t 0 r /Helvetica findfont 59.0551 sf 0 0 m (Muon ) show NC gr  227 1504 m 1927 X s 231 1463 m 41 Y s 520 1483 m 21 Y s 690 1483 m 21 Y s 810 1483 m 21 Y s 903 1483 m 21 Y s 979 1483 m 21 Y s 1044 1483 m 21 Y s
 1099 1483 m 21 Y s 1149 1483 m 21 Y s 1193 1463 m 41 Y s 1482 1483 m 21 Y s 1651 1483 m 21 Y s 1772 1483 m 21 Y s 1865 1483 m 21 Y s 1941 1483 m 21 Y s 2005 1483 m 21 Y s 2061 1483 m 21 Y s 2110 1483 m 21 Y s 2154 1463 m 41 Y s 227 253 m 1251 Y s
 281 253 m -54 X s
 gsave  2268 1583 0 0 C 177.165 250.984 t 0 r /Helvetica findfont 38.3858 sf 0 0 m (1) show NC gr 
 gsave  2268 1583 0 0 C 156.496 250.984 t 0 r /Symbol findfont 38.3858 sf 0 0 m (-) show NC gr 
 gsave  2268 1583 0 0 C 91.5354 224.409 t 0 r /Helvetica findfont 59.0551 sf 0 0 m (10) show NC gr  254 318 m -27 X s 254 355 m -27 X s 254 382 m -27 X s 254 403 m -27 X s 254 420 m -27 X s 254 434 m -27 X s 254 446 m -27 X s 254 457 m -27 X s 281
 467 m -54 X s
 gsave  2268 1583 0 0 C 174.213 445.866 t 0 r /Helvetica findfont 59.0551 sf 0 0 m (1) show NC gr  254 531 m -27 X s 254 569 m -27 X s 254 596 m -27 X s 254 616 m -27 X s 254 633 m -27 X s 254 648 m -27 X s 254 660 m -27 X s 254 671 m -27 X s 281 681
 m -54 X s
 gsave  2268 1583 0 0 C 129.921 658.465 t 0 r /Helvetica findfont 59.0551 sf 0 0 m (10) show NC gr  254 745 m -27 X s 254 783 m -27 X s 254 810 m -27 X s 254 830 m -27 X s 254 847 m -27 X s 254 862 m -27 X s 254 874 m -27 X s 254 885 m -27 X s 281
 895 m -54 X s
 gsave  2268 1583 0 0 C 174.213 891.732 t 0 r /Helvetica findfont 38.3858 sf 0 0 m (2) show NC gr 
 gsave  2268 1583 0 0 C 109.252 865.157 t 0 r /Helvetica findfont 59.0551 sf 0 0 m (10) show NC gr  254 959 m -27 X s 254 997 m -27 X s 254 1023 m -27 X s 254 1044 m -27 X s 254 1061 m -27 X s 254 1075 m -27 X s 254 1088 m -27 X s 254 1099 m -27 X s
 281 1108 m -54 X s
 gsave  2268 1583 0 0 C 174.213 1110.24 t 0 r /Helvetica findfont 38.3858 sf 0 0 m (3) show NC gr 
 gsave  2268 1583 0 0 C 109.252 1080.71 t 0 r /Helvetica findfont 59.0551 sf 0 0 m (10) show NC gr  254 1173 m -27 X s 254 1210 m -27 X s 254 1237 m -27 X s 254 1258 m -27 X s 254 1275 m -27 X s 254 1289 m -27 X s 254 1302 m -27 X s 254 1312 m -27 X
 s 281 1322 m -54 X s
 gsave  2268 1583 0 0 C 174.213 1319.88 t 0 r /Helvetica findfont 38.3858 sf 0 0 m (4) show NC gr 
 gsave  2268 1583 0 0 C 109.252 1293.31 t 0 r /Helvetica findfont 59.0551 sf 0 0 m (10) show NC gr  254 1387 m -27 X s 254 1424 m -27 X s 254 1451 m -27 X s 254 1472 m -27 X s 254 1489 m -27 X s 254 1503 m -27 X s
 gsave  2268 1583 0 0 C 50.1968 1325.79 t 90 r /Helvetica findfont 59.0551 sf 0 0 m (Events) show NC gr  2154 253 m 1251 Y s 2101 253 m 53 X s 2127 318 m 27 X s 2127 355 m 27 X s 2127 382 m 27 X s 2127 403 m 27 X s 2127 420 m 27 X s 2127 434 m 27 X s
 2127 446 m 27 X s 2127 457 m 27 X s 2101 467 m 53 X s 2127 531 m 27 X s 2127 569 m 27 X s 2127 596 m 27 X s 2127 616 m 27 X s 2127 633 m 27 X s 2127 648 m 27 X s 2127 660 m 27 X s 2127 671 m 27 X s 2101 681 m 53 X s 2127 745 m 27 X s 2127 783 m 27 X
 s 2127 810 m 27 X s 2127 830 m 27 X s 2127 847 m 27 X s 2127 862 m 27 X s 2127 874 m 27 X s 2127 885 m 27 X s 2101 895 m 53 X s 2127 959 m 27 X s 2127 997 m 27 X s 2127 1023 m 27 X s 2127 1044 m 27 X s 2127 1061 m 27 X s 2127 1075 m 27 X s 2127 1088
 m 27 X s 2127 1099 m 27 X s 2101 1108 m 53 X s 2127 1173 m 27 X s 2127 1210 m 27 X s 2127 1237 m 27 X s 2127 1258 m 27 X s 2127 1275 m 27 X s 2127 1289 m 27 X s 2127 1302 m 27 X s 2127 1312 m 27 X s 2101 1322 m 53 X s 2127 1387 m 27 X s 2127 1424 m
 27 X s 2127 1451 m 27 X s 2127 1472 m 27 X s 2127 1489 m 27 X s 2127 1503 m 27 X s 0.6 0.6 0.6 c[ 20 20] 0 sd 400 253 m 1251 Y s 520 253 m 1251 Y s 690 253 m 1251 Y s 1 1 1 c[  ] 0 sd 0.8 0.8 0.8 c 20 428 235 253 bf 1 1 1 c 0.8 0.8 0.8 c 14 469 406
 253 bf 1 1 1 c 0.8 0.8 0.8 c 19 553 529 253 bf 1 1 1 c 0.8 0.8 0.8 c 161 712 763 253 bf 1 1 1 c 0.8 0.8 0.8 c 1 1 1 c 0.4 0.4 1 c 19 242 255 253 bf 1 1 1 c 0.4 0.4 1 c 13 169 420 253 bf 1 1 1 c 0.4 0.4 1 c 18 93 548 253 bf 1 1 1 c 0.4 0.4 1 c 161
 154 924 253 bf 1 1 1 c 0.4 0.4 1 c 1 1 1 c 0.4 0.8 0.4 c 19 557 274 253 bf 1 1 1 c 0.4 0.8 0.4 c 13 448 433 253 bf 1 1 1 c 0.4 0.8 0.4 c 19 429 566 253 bf 1 1 1 c 0.4 0.8 0.4 c 161 467 1085 253 bf 1 1 1 c 0.4 0.8 0.4 c 1 1 1 c 0.6 0.4 0.8 c 19 185
 293 253 bf 1 1 1 c 0.6 0.4 0.8 c 13 100 446 253 bf 1 1 1 c 0.6 0.4 0.8 c 18 114 585 253 bf 1 1 1 c 0.6 0.4 0.8 c 161 181 1246 253 bf 1 1 1 c 0.6 0.4 0.8 c 1 1 1 c 1 0.8 0.6 c 19 354 312 253 bf 1 1 1 c 1 0.8 0.6 c 13 299 459 253 bf 1 1 1 c 1 0.8 0.6
 c 19 353 603 253 bf 1 1 1 c 1 0.8 0.6 c 162 456 1407 253 bf 1 1 1 c 1 0.8 0.6 c 1 1 1 c 0.4 0 0 c 19 571 331 253 bf 1 1 1 c 0.4 0 0 c 14 471 472 253 bf 1 1 1 c 0.4 0 0 c 19 467 622 253 bf 1 1 1 c 0.4 0 0 c 161 530 1569 253 bf 1 1 1 c 0.4 0 0 c 1 1 1
 c black 3 lw 1 1 1 c 499 364 1429 1076 bf black 1429 1076 m 499 X s 1928 1076 m 364 Y s 1928 1440 m -499 X s 1429 1440 m -364 Y s
 gsave  2268 1583 0 0 C 1553.15 1396.65 t 0 r /Helvetica findfont 44.2913 sf 0 0 m (Prompt) show NC gr  0.8 0.8 0.8 c 1447 1389 m 88 X 42 Y -88 X f 1 1 1 c black
 gsave  2268 1583 0 0 C 1553.15 1337.6 t 0 r /Helvetica findfont 44.2913 sf 0 0 m (Light flavor) show NC gr  0.4 0.4 1 c 3 lw 1447 1328 m 88 X 42 Y -88 X f 1 1 1 c black
 gsave  2268 1583 0 0 C 1553.15 1275.59 t 0 r /Helvetica findfont 44.2913 sf 0 0 m (Heavy flavor) show NC gr  0.4 0.8 0.4 c 3 lw 1447 1267 m 88 X 43 Y -88 X f 1 1 1 c black
 gsave  2268 1583 0 0 C 1553.15 1216.54 t 0 r /Helvetica findfont 44.2913 sf 0 0 m (Tau muon) show NC gr  0.6 0.4 0.8 c 3 lw 1447 1207 m 88 X 42 Y -88 X f 1 1 1 c black
 gsave  2268 1583 0 0 C 1553.15 1154.53 t 0 r /Helvetica findfont 44.2913 sf 0 0 m (Unclassified) show NC gr  1 0.8 0.6 c 3 lw 1447 1146 m 88 X 42 Y -88 X f 1 1 1 c black
 gsave  2268 1583 0 0 C 1553.15 1095.47 t 0 r /Helvetica findfont 44.2913 sf 0 0 m (All fakes) show NC gr  0.4 0 0 c 3 lw 1447 1085 m 88 X 43 Y -88 X f 1 1 1 c black 3 lw 1 1 1 c 544 222 408 1163 bf black 408 1163 m 544 X s 952 1163 m 222 Y s 952
 1385 m -544 X s 408 1385 m -222 Y s
 gsave  2268 1583 0 0 C 451.772 1204.72 t 0 r /Helvetica-Bold findfont 59.0551 sf 0 0 m (Muons) show NC gr 
 gsave  2268 1583 0 0 C 451.772 1299.21 t 0 r /Helvetica-BoldOblique findfont 59.0551 sf 0 0 m (ATLAS) show NC gr 
 gsave  2268 1583 0 0 C 702.756 1299.21 t 0 r /Helvetica findfont 59.0551 sf 0 0 m (Internal) show NC gr  227 253 m 1927 X s 231 294 m -41 Y s 520 273 m -20 Y s 690 273 m -20 Y s 810 273 m -20 Y s 903 273 m -20 Y s 979 273 m -20 Y s 1044 273 m -20 Y
 s 1099 273 m -20 Y s 1149 273 m -20 Y s 1193 294 m -41 Y s 1482 273 m -20 Y s 1651 273 m -20 Y s 1772 273 m -20 Y s 1865 273 m -20 Y s 1941 273 m -20 Y s 2005 273 m -20 Y s 2061 273 m -20 Y s 2110 273 m -20 Y s 2154 294 m -41 Y s 227 1504 m 1927 X s
 231 1463 m 41 Y s 520 1483 m 21 Y s 690 1483 m 21 Y s 810 1483 m 21 Y s 903 1483 m 21 Y s 979 1483 m 21 Y s 1044 1483 m 21 Y s 1099 1483 m 21 Y s 1149 1483 m 21 Y s 1193 1463 m 41 Y s 1482 1483 m 21 Y s 1651 1483 m 21 Y s 1772 1483 m 21 Y s 1865
 1483 m 21 Y s 1941 1483 m 21 Y s 2005 1483 m 21 Y s 2061 1483 m 21 Y s 2110 1483 m 21 Y s 2154 1463 m 41 Y s 227 253 m 1251 Y s 281 253 m -54 X s 254 318 m -27 X s 254 355 m -27 X s 254 382 m -27 X s 254 403 m -27 X s 254 420 m -27 X s 254 434 m -27
 X s 254 446 m -27 X s 254 457 m -27 X s 281 467 m -54 X s 254 531 m -27 X s 254 569 m -27 X s 254 596 m -27 X s 254 616 m -27 X s 254 633 m -27 X s 254 648 m -27 X s 254 660 m -27 X s 254 671 m -27 X s 281 681 m -54 X s 254 745 m -27 X s 254 783 m
 -27 X s 254 810 m -27 X s 254 830 m -27 X s 254 847 m -27 X s 254 862 m -27 X s 254 874 m -27 X s 254 885 m -27 X s 281 895 m -54 X s 254 959 m -27 X s 254 997 m -27 X s 254 1023 m -27 X s 254 1044 m -27 X s 254 1061 m -27 X s 254 1075 m -27 X s 254
 1088 m -27 X s 254 1099 m -27 X s 281 1108 m -54 X s 254 1173 m -27 X s 254 1210 m -27 X s 254 1237 m -27 X s 254 1258 m -27 X s 254 1275 m -27 X s 254 1289 m -27 X s 254 1302 m -27 X s 254 1312 m -27 X s 281 1322 m -54 X s 254 1387 m -27 X s 254
 1424 m -27 X s 254 1451 m -27 X s 254 1472 m -27 X s 254 1489 m -27 X s 254 1503 m -27 X s 2154 253 m 1251 Y s 2101 253 m 53 X s 2127 318 m 27 X s 2127 355 m 27 X s 2127 382 m 27 X s 2127 403 m 27 X s 2127 420 m 27 X s 2127 434 m 27 X s 2127 446 m
 27 X s 2127 457 m 27 X s 2101 467 m 53 X s 2127 531 m 27 X s 2127 569 m 27 X s 2127 596 m 27 X s 2127 616 m 27 X s 2127 633 m 27 X s 2127 648 m 27 X s 2127 660 m 27 X s 2127 671 m 27 X s 2101 681 m 53 X s 2127 745 m 27 X s 2127 783 m 27 X s 2127 810
 m 27 X s 2127 830 m 27 X s 2127 847 m 27 X s 2127 862 m 27 X s 2127 874 m 27 X s 2127 885 m 27 X s 2101 895 m 53 X s 2127 959 m 27 X s 2127 997 m 27 X s 2127 1023 m 27 X s 2127 1044 m 27 X s 2127 1061 m 27 X s 2127 1075 m 27 X s 2127 1088 m 27 X s
 2127 1099 m 27 X s 2101 1108 m 53 X s 2127 1173 m 27 X s 2127 1210 m 27 X s 2127 1237 m 27 X s 2127 1258 m 27 X s 2127 1275 m 27 X s 2127 1289 m 27 X s 2127 1302 m 27 X s 2127 1312 m 27 X s 2101 1322 m 53 X s 2127 1387 m 27 X s 2127 1424 m 27 X s
 2127 1451 m 27 X s 2127 1472 m 27 X s 2127 1489 m 27 X s 2127 1503 m 27 X s
 gr  gr showpage
end
%%EOF
