%!PS-Adobe-2.0 EPSF-2.0
%%BoundingBox:  0 0 567 396
%%Title: /lhome/ific/c/cardillo/tHq/Plots/Eff-04-04-22-PLIV-SF//Sources_muTight_p1.eps: Sources_muTight_p1
%%Creator: ROOT Version 6.20/06
%%CreationDate: Fri Apr  8 19:55:54 2022
%%DocumentNeededResources: ProcSet (FontSetInit)
%%EndComments
%%BeginProlog
80 dict begin
/s {stroke} def /l {lineto} def /m {moveto} def /t {translate} def
/r {rotate} def /rl {roll}  def /R {repeat} def
/d {rlineto} def /rm {rmoveto} def /gr {grestore} def /f {eofill} def
/c {setrgbcolor} def /black {0 setgray} def /sd {setdash} def
/cl {closepath} def /sf {scalefont setfont} def /lw {setlinewidth} def
/box {m dup 0 exch d exch 0 d 0 exch neg d cl} def
/NC{systemdict begin initclip end}def/C{NC box clip newpath}def
/bl {box s} def /bf {gsave box gsave f grestore 1 lw [] 0 sd s grestore} def /Y { 0 exch d} def /X { 0 d} def 
/K {{pop pop 0 moveto} exch kshow} bind def
/ita {/ang 15 def gsave [1 0 ang dup sin exch cos div 1 0 0] concat} def 
/mp {newpath /y exch def /x exch def} def
/side {[w .77 mul w .23 mul] .385 w mul sd w 0 l currentpoint t -144 r} def
/mr {mp x y w2 0 360 arc} def /m24 {mr s} def /m20 {mr f} def
/mb {mp x y w2 add m w2 neg 0 d 0 w neg d w 0 d 0 w d cl} def
/mt {mp x y w2 add m w2 neg w neg d w 0 d cl} def
/w4 {w 4 div} def
/w6 {w 6 div} def
/w8 {w 8 div} def
/m21 {mb f} def /m25 {mb s} def /m22 {mt f} def /m26{mt s} def
/m23 {mp x y w2 sub m w2 w d w neg 0 d cl f} def
/m27 {mp x y w2 add m w3 neg w2 neg d w3 w2 neg d w3 w2 d cl s} def
/m28 {mp x w2 sub y w2 sub w3 add m w3 0 d  0 w3 neg d w3 0 d 0 w3 d w3 0 d  0 w3 d w3 neg 0 d 0 w3 d w3 neg 0 d 0 w3 neg d w3 neg 0 d cl s } def
/m29 {mp gsave x w2 sub y w2 add w3 sub m currentpoint t 4 {side} repeat cl fill gr} def
/m30 {mp gsave x w2 sub y w2 add w3 sub m currentpoint t 4 {side} repeat cl s gr} def
/m31 {mp x y w2 sub m 0 w d x w2 sub y m w 0 d x w2 sub y w2 add m w w neg d x w2 sub y w2 sub m w w d s} def
/m32 {mp x y w2 sub m w2 w d w neg 0 d cl s} def
/m33 {mp x y w2 add m w3 neg w2 neg d w3 w2 neg d w3 w2 d cl f} def
/m34 {mp x w2 sub y w2 sub w3 add m w3 0 d  0 w3 neg d w3 0 d 0 w3 d w3 0 d  0 w3 d w3 neg 0 d 0 w3 d w3 neg 0 d 0 w3 neg d w3 neg 0 d cl f } def
/m35 {mp x y w2 add m w2 neg w2 neg d w2 w2 neg d w2 w2 d w2 neg w2 d x y w2 sub m 0 w d x w2 sub y m w 0 d s} def
/m36 {mb x w2 sub y w2 add m w w neg d x w2 sub y w2 sub m w w d s} def
/m37 {mp x y m w4 neg w2 d w4 neg w2 neg d w2 0 d  w4 neg w2 neg d w2 0 d w4 neg w2 d w2 0 d w4 neg w2 d w4 neg w2 neg d cl s} def
/m38 {mp x w4 sub y w2 add m w4 neg w4 neg d 0 w2 neg d w4 w4 neg d w2 0 d w4 w4 d 0 w2 d w4 neg w4 d w2 neg 0 d x y w2 sub m 0 w d x w2 sub y m w 0 d cl s} def
/m39 {mp x y m w4 neg w2 d w4 neg w2 neg d w2 0 d  w4 neg w2 neg d w2 0 d w4 neg w2 d w2 0 d w4 neg w2 d w4 neg w2 neg d cl f} def
/m40 {mp x y m w4 w2 d w4 w4 neg d w2 neg w4 neg d w2 w4 neg d w4 neg w4 neg d w4 neg w2 d w4 neg w2 neg d w4 neg w4 d w2 w4 d w2 neg w4 d w4 w4 d w4 w2 neg d cl s} def
/m41 {mp x y m w4 w2 d w4 w4 neg d w2 neg w4 neg d w2 w4 neg d w4 neg w4 neg d w4 neg w2 d w4 neg w2 neg d w4 neg w4 d w2 w4 d w2 neg w4 d w4 w4 d w4 w2 neg d cl f} def
/m42 {mp x y w2 add m w8 neg w2 -3 4 div mul d w2 -3 4 div mul w8 neg d w2 3 4 div mul w8 neg d w8 w2 -3 4 div mul d w8 w2 3 4 div mul d w2 3 4 div mul w8 d w2 -3 4 div mul w8 d w8 neg w2 3 4 div mul d cl s} def
/m43 {mp x y w2 add m w8 neg w2 -3 4 div mul d w2 -3 4 div mul w8 neg d w2 3 4 div mul w8 neg d w8 w2 -3 4 div mul d w8 w2 3 4 div mul d w2 3 4 div mul w8 d w2 -3 4 div mul w8 d w8 neg w2 3 4 div mul d cl f} def
/m44 {mp x y m w6 neg w2 d w2 2 3 div mul 0 d w6 neg w2 neg d w2 w6 d 0 w2 -2 3 div mul d w2 neg w6 d w6 w2 neg d w2 -2 3 div mul 0 d w6 w2 d w2 neg w6 neg d 0 w2 2 3 div mul d w2 w6 neg d cl s} def
/m45 {mp x y m w6 neg w2 d w2 2 3 div mul 0 d w6 neg w2 neg d w2 w6 d 0 w2 -2 3 div mul d w2 neg w6 d w6 w2 neg d w2 -2 3 div mul 0 d w6 w2 d w2 neg w6 neg d 0 w2 2 3 div mul d w2 w6 neg d cl f} def
/m46 {mp x y w4 add m w4 neg w4 d w4 neg w4 neg d  w4 w4 neg d w4 neg w4 neg d w4 w4 neg d w4 w4 d w4 w4 neg d w4 w4 d w4 neg w4 d w4 w4 d w4 neg w4 d w4 neg w4 neg d cl s} def
/m47 {mp x y w4 add m w4 neg w4 d w4 neg w4 neg d w4 w4 neg d w4 neg w4 neg d  w4 w4 neg d w4 w4 d w4 w4 neg d w4 w4 d w4 neg w4 d w4 w4 d w4 neg w4 d w4 neg w4 neg d cl f} def
/m48 {mp x y w4 add m w4 neg w4 d w4 neg w4 neg d w4 w4 neg d  w4 neg w4 neg d w4 w4 neg d w4 w4 d w4 w4 neg d w4 w4 d w4 neg w4 d w4 w4 d w4 neg w4 d w4 neg w4 neg d  w4 w4 neg d w4 neg w4 neg d w4 neg w4 d w4 w4 d cl f} def
/m49 {mp x w2 sub w3 add y w2 sub w3 add m  0 w3 neg d w3 0 d 0 w3 d w3 0 d 0 w3 d w3 neg 0 d 0 w3 d w3 neg 0 d 0 w3 neg d w3 neg 0 d 0 w3 neg d w3 0 d 0 w3 d w3 0 d 0 w3 neg d w3 neg 0 d cl f } def
/m2 {mp x y w2 sub m 0 w d x w2 sub y m w 0 d s} def
/m5 {mp x w2 sub y w2 sub m w w d x w2 sub y w2 add m w w neg d s} def
%%IncludeResource: ProcSet (FontSetInit)
%%IncludeResource: font Times-Roman
%%IncludeResource: font Times-Italic
%%IncludeResource: font Times-Bold
%%IncludeResource: font Times-BoldItalic
%%IncludeResource: font Helvetica
%%IncludeResource: font Helvetica-Oblique
%%IncludeResource: font Helvetica-Bold
%%IncludeResource: font Helvetica-BoldOblique
%%IncludeResource: font Courier
%%IncludeResource: font Courier-Oblique
%%IncludeResource: font Courier-Bold
%%IncludeResource: font Courier-BoldOblique
%%IncludeResource: font Symbol
%%IncludeResource: font ZapfDingbats
/reEncode {exch findfont dup length dict begin {1 index /FID eq  {pop pop} {def} ifelse } forall /Encoding exch def currentdict end dup /FontName get exch definefont pop } def [/Times-Bold /Times-Italic /Times-BoldItalic /Helvetica /Helvetica-Oblique
 /Helvetica-Bold /Helvetica-BoldOblique /Courier /Courier-Oblique /Courier-Bold /Courier-BoldOblique /Times-Roman /AvantGarde-Book /AvantGarde-BookOblique /AvantGarde-Demi /AvantGarde-DemiOblique /Bookman-Demi /Bookman-DemiItalic /Bookman-Light
 /Bookman-LightItalic /Helvetica-Narrow /Helvetica-Narrow-Bold /Helvetica-Narrow-BoldOblique /Helvetica-Narrow-Oblique /NewCenturySchlbk-Roman /NewCenturySchlbk-Bold /NewCenturySchlbk-BoldItalic /NewCenturySchlbk-Italic /Palatino-Bold
 /Palatino-BoldItalic /Palatino-Italic /Palatino-Roman ] {ISOLatin1Encoding reEncode } forall
%%EndProlog
%%BeginSetup
%%EndSetup
newpath  gsave  .25 .25 scale  gsave  0 0 t black[  ] 0 sd 3 lw 1 1 1 c 2268 1583 0 0 bf black 1 1 1 c 1927 1251 227 253 bf black 1927 1251 227 253 bl 227 253 m 1927 X s 227 294 m -41 Y s 304 273 m -20 Y s 381 273 m -20 Y s 458 273 m -20 Y s 535 273
 m -20 Y s 612 294 m -41 Y s 689 273 m -20 Y s 766 273 m -20 Y s 844 273 m -20 Y s 921 273 m -20 Y s 998 294 m -41 Y s 1075 273 m -20 Y s 1152 273 m -20 Y s 1229 273 m -20 Y s 1306 273 m -20 Y s 1383 294 m -41 Y s 1460 273 m -20 Y s 1538 273 m -20 Y
 s 1615 273 m -20 Y s 1692 273 m -20 Y s 1769 294 m -41 Y s 1846 273 m -20 Y s 1923 273 m -20 Y s 2000 273 m -20 Y s 2077 273 m -20 Y s 2154 294 m -41 Y s
 gsave  2268 1583 0 0 C 206.693 188.976 t 0 r /Helvetica findfont 59.0551 sf 0 0 m (0) show NC gr 
 gsave  2268 1583 0 0 C 569.882 188.976 t 0 r /Helvetica findfont 59.0551 sf 0 0 m (0.5) show NC gr 
 gsave  2268 1583 0 0 C 983.268 188.976 t 0 r /Helvetica findfont 59.0551 sf 0 0 m (1) show NC gr 
 gsave  2268 1583 0 0 C 1340.55 188.976 t 0 r /Helvetica findfont 59.0551 sf 0 0 m (1.5) show NC gr 
 gsave  2268 1583 0 0 C 1750.98 188.976 t 0 r /Helvetica findfont 59.0551 sf 0 0 m (2) show NC gr 
 gsave  2268 1583 0 0 C 2111.22 188.976 t 0 r /Helvetica findfont 59.0551 sf 0 0 m (2.5) show NC gr 
 gsave  2268 1583 0 0 C 2140.75 73.8189 t 0 r /Helvetica findfont 59.0551 sf 0 0 m (|) show NC gr 
 gsave  2268 1583 0 0 C 2102.36 73.8189 t 0 r /Symbol findfont 59.0551 sf 0 0 m ita (h) show gr NC gr 
 gsave  2268 1583 0 0 C 1928.15 73.8189 t 0 r /Helvetica findfont 59.0551 sf 0 0 m (Muon |) show NC gr  227 1504 m 1927 X s 227 1463 m 41 Y s 304 1483 m 21 Y s 381 1483 m 21 Y s 458 1483 m 21 Y s 535 1483 m 21 Y s 612 1463 m 41 Y s 689 1483 m 21 Y s
 766 1483 m 21 Y s 844 1483 m 21 Y s 921 1483 m 21 Y s 998 1463 m 41 Y s 1075 1483 m 21 Y s 1152 1483 m 21 Y s 1229 1483 m 21 Y s 1306 1483 m 21 Y s 1383 1463 m 41 Y s 1460 1483 m 21 Y s 1538 1483 m 21 Y s 1615 1483 m 21 Y s 1692 1483 m 21 Y s 1769
 1463 m 41 Y s 1846 1483 m 21 Y s 1923 1483 m 21 Y s 2000 1483 m 21 Y s 2077 1483 m 21 Y s 2154 1463 m 41 Y s 227 253 m 1251 Y s 281 253 m -54 X s
 gsave  2268 1583 0 0 C 177.165 250.984 t 0 r /Helvetica findfont 38.3858 sf 0 0 m (1) show NC gr 
 gsave  2268 1583 0 0 C 156.496 250.984 t 0 r /Symbol findfont 38.3858 sf 0 0 m (-) show NC gr 
 gsave  2268 1583 0 0 C 91.5354 224.409 t 0 r /Helvetica findfont 59.0551 sf 0 0 m (10) show NC gr  254 321 m -27 X s 254 361 m -27 X s 254 389 m -27 X s 254 411 m -27 X s 254 429 m -27 X s 254 444 m -27 X s 254 457 m -27 X s 254 468 m -27 X s 281
 479 m -54 X s
 gsave  2268 1583 0 0 C 174.213 457.677 t 0 r /Helvetica findfont 59.0551 sf 0 0 m (1) show NC gr  254 546 m -27 X s 254 586 m -27 X s 254 614 m -27 X s 254 636 m -27 X s 254 654 m -27 X s 254 669 m -27 X s 254 682 m -27 X s 254 694 m -27 X s 281 704
 m -54 X s
 gsave  2268 1583 0 0 C 129.921 682.087 t 0 r /Helvetica findfont 59.0551 sf 0 0 m (10) show NC gr  254 772 m -27 X s 254 811 m -27 X s 254 840 m -27 X s 254 861 m -27 X s 254 879 m -27 X s 254 894 m -27 X s 254 907 m -27 X s 254 919 m -27 X s 281
 929 m -54 X s
 gsave  2268 1583 0 0 C 174.213 927.165 t 0 r /Helvetica findfont 38.3858 sf 0 0 m (2) show NC gr 
 gsave  2268 1583 0 0 C 109.252 900.591 t 0 r /Helvetica findfont 59.0551 sf 0 0 m (10) show NC gr  254 997 m -27 X s 254 1037 m -27 X s 254 1065 m -27 X s 254 1087 m -27 X s 254 1105 m -27 X s 254 1120 m -27 X s 254 1133 m -27 X s 254 1144 m -27 X s
 281 1155 m -54 X s
 gsave  2268 1583 0 0 C 174.213 1157.48 t 0 r /Helvetica findfont 38.3858 sf 0 0 m (3) show NC gr 
 gsave  2268 1583 0 0 C 109.252 1127.95 t 0 r /Helvetica findfont 59.0551 sf 0 0 m (10) show NC gr  254 1223 m -27 X s 254 1262 m -27 X s 254 1290 m -27 X s 254 1312 m -27 X s 254 1330 m -27 X s 254 1345 m -27 X s 254 1358 m -27 X s 254 1370 m -27 X
 s 281 1380 m -54 X s
 gsave  2268 1583 0 0 C 174.213 1378.94 t 0 r /Helvetica findfont 38.3858 sf 0 0 m (4) show NC gr 
 gsave  2268 1583 0 0 C 109.252 1352.36 t 0 r /Helvetica findfont 59.0551 sf 0 0 m (10) show NC gr  254 1448 m -27 X s 254 1488 m -27 X s
 gsave  2268 1583 0 0 C 50.1968 1325.79 t 90 r /Helvetica findfont 59.0551 sf 0 0 m (Events) show NC gr  2154 253 m 1251 Y s 2101 253 m 53 X s 2127 321 m 27 X s 2127 361 m 27 X s 2127 389 m 27 X s 2127 411 m 27 X s 2127 429 m 27 X s 2127 444 m 27 X s
 2127 457 m 27 X s 2127 468 m 27 X s 2101 479 m 53 X s 2127 546 m 27 X s 2127 586 m 27 X s 2127 614 m 27 X s 2127 636 m 27 X s 2127 654 m 27 X s 2127 669 m 27 X s 2127 682 m 27 X s 2127 694 m 27 X s 2101 704 m 53 X s 2127 772 m 27 X s 2127 811 m 27 X
 s 2127 840 m 27 X s 2127 861 m 27 X s 2127 879 m 27 X s 2127 894 m 27 X s 2127 907 m 27 X s 2127 919 m 27 X s 2101 929 m 53 X s 2127 997 m 27 X s 2127 1037 m 27 X s 2127 1065 m 27 X s 2127 1087 m 27 X s 2127 1105 m 27 X s 2127 1120 m 27 X s 2127
 1133 m 27 X s 2127 1144 m 27 X s 2101 1155 m 53 X s 2127 1223 m 27 X s 2127 1262 m 27 X s 2127 1290 m 27 X s 2127 1312 m 27 X s 2127 1330 m 27 X s 2127 1345 m 27 X s 2127 1358 m 27 X s 2127 1370 m 27 X s 2101 1380 m 53 X s 2127 1448 m 27 X s 2127
 1488 m 27 X s 0.6 0.6 0.6 c[ 20 20] 0 sd 998 253 m 1251 Y s 1769 253 m 1251 Y s 1 1 1 c[  ] 0 sd 0.8 0.8 0.8 c 85 654 265 253 bf 1 1 1 c 0.8 0.8 0.8 c 85 607 1036 253 bf 1 1 1 c 0.8 0.8 0.8 c 43 465 1788 253 bf 1 1 1 c 0.8 0.8 0.8 c 1 1 1 c 0.4 0.4
 1 c 85 171 350 253 bf 1 1 1 c 0.4 0.4 1 c 85 235 1121 253 bf 1 1 1 c 0.4 0.4 1 c 1 1 1 c 0.4 0.8 0.4 c 85 492 435 253 bf 1 1 1 c 0.4 0.8 0.4 c 85 501 1206 253 bf 1 1 1 c 0.4 0.8 0.4 c 42 429 1873 253 bf 1 1 1 c 0.4 0.8 0.4 c 1 1 1 c 0.6 0.4 0.8 c 85
 170 520 253 bf 1 1 1 c 0.6 0.4 0.8 c 85 146 1291 253 bf 1 1 1 c 0.6 0.4 0.8 c 43 45 1915 253 bf 1 1 1 c 0.6 0.4 0.8 c 1 1 1 c 1 0.8 0.6 c 84 419 605 253 bf 1 1 1 c 1 0.8 0.6 c 84 354 1376 253 bf 1 1 1 c 1 0.8 0.6 c 42 287 1958 253 bf 1 1 1 c 1 0.8
 0.6 c 1 1 1 c 0.4 0 0 c 85 535 689 253 bf 1 1 1 c 0.4 0 0 c 85 528 1460 253 bf 1 1 1 c 0.4 0 0 c 43 451 2000 253 bf 1 1 1 c 0.4 0 0 c 1 1 1 c black 3 lw 1 1 1 c 499 364 1429 1076 bf black 1429 1076 m 499 X s 1928 1076 m 364 Y s 1928 1440 m -499 X s
 1429 1440 m -364 Y s
 gsave  2268 1583 0 0 C 1553.15 1396.65 t 0 r /Helvetica findfont 44.2913 sf 0 0 m (Prompt) show NC gr  0.8 0.8 0.8 c 1447 1389 m 88 X 42 Y -88 X f 1 1 1 c black
 gsave  2268 1583 0 0 C 1553.15 1337.6 t 0 r /Helvetica findfont 44.2913 sf 0 0 m (Light flavor) show NC gr  0.4 0.4 1 c 3 lw 1447 1328 m 88 X 42 Y -88 X f 1 1 1 c black
 gsave  2268 1583 0 0 C 1553.15 1275.59 t 0 r /Helvetica findfont 44.2913 sf 0 0 m (Heavy flavor) show NC gr  0.4 0.8 0.4 c 3 lw 1447 1267 m 88 X 43 Y -88 X f 1 1 1 c black
 gsave  2268 1583 0 0 C 1553.15 1216.54 t 0 r /Helvetica findfont 44.2913 sf 0 0 m (Tau muon) show NC gr  0.6 0.4 0.8 c 3 lw 1447 1207 m 88 X 42 Y -88 X f 1 1 1 c black
 gsave  2268 1583 0 0 C 1553.15 1154.53 t 0 r /Helvetica findfont 44.2913 sf 0 0 m (Unclassified) show NC gr  1 0.8 0.6 c 3 lw 1447 1146 m 88 X 42 Y -88 X f 1 1 1 c black
 gsave  2268 1583 0 0 C 1553.15 1095.47 t 0 r /Helvetica findfont 44.2913 sf 0 0 m (All fakes) show NC gr  0.4 0 0 c 3 lw 1447 1085 m 88 X 43 Y -88 X f 1 1 1 c black 3 lw 1 1 1 c 544 222 408 1163 bf black 408 1163 m 544 X s 952 1163 m 222 Y s 952
 1385 m -544 X s 408 1385 m -222 Y s
 gsave  2268 1583 0 0 C 451.772 1204.72 t 0 r /Helvetica-Bold findfont 59.0551 sf 0 0 m (Muons) show NC gr 
 gsave  2268 1583 0 0 C 451.772 1299.21 t 0 r /Helvetica-BoldOblique findfont 59.0551 sf 0 0 m (ATLAS) show NC gr 
 gsave  2268 1583 0 0 C 702.756 1299.21 t 0 r /Helvetica findfont 59.0551 sf 0 0 m (Internal) show NC gr  227 253 m 1927 X s 227 294 m -41 Y s 304 273 m -20 Y s 381 273 m -20 Y s 458 273 m -20 Y s 535 273 m -20 Y s 612 294 m -41 Y s 689 273 m -20 Y s
 766 273 m -20 Y s 844 273 m -20 Y s 921 273 m -20 Y s 998 294 m -41 Y s 1075 273 m -20 Y s 1152 273 m -20 Y s 1229 273 m -20 Y s 1306 273 m -20 Y s 1383 294 m -41 Y s 1460 273 m -20 Y s 1538 273 m -20 Y s 1615 273 m -20 Y s 1692 273 m -20 Y s 1769
 294 m -41 Y s 1846 273 m -20 Y s 1923 273 m -20 Y s 2000 273 m -20 Y s 2077 273 m -20 Y s 2154 294 m -41 Y s 227 1504 m 1927 X s 227 1463 m 41 Y s 304 1483 m 21 Y s 381 1483 m 21 Y s 458 1483 m 21 Y s 535 1483 m 21 Y s 612 1463 m 41 Y s 689 1483 m
 21 Y s 766 1483 m 21 Y s 844 1483 m 21 Y s 921 1483 m 21 Y s 998 1463 m 41 Y s 1075 1483 m 21 Y s 1152 1483 m 21 Y s 1229 1483 m 21 Y s 1306 1483 m 21 Y s 1383 1463 m 41 Y s 1460 1483 m 21 Y s 1538 1483 m 21 Y s 1615 1483 m 21 Y s 1692 1483 m 21 Y s
 1769 1463 m 41 Y s 1846 1483 m 21 Y s 1923 1483 m 21 Y s 2000 1483 m 21 Y s 2077 1483 m 21 Y s 2154 1463 m 41 Y s 227 253 m 1251 Y s 281 253 m -54 X s 254 321 m -27 X s 254 361 m -27 X s 254 389 m -27 X s 254 411 m -27 X s 254 429 m -27 X s 254 444
 m -27 X s 254 457 m -27 X s 254 468 m -27 X s 281 479 m -54 X s 254 546 m -27 X s 254 586 m -27 X s 254 614 m -27 X s 254 636 m -27 X s 254 654 m -27 X s 254 669 m -27 X s 254 682 m -27 X s 254 694 m -27 X s 281 704 m -54 X s 254 772 m -27 X s 254
 811 m -27 X s 254 840 m -27 X s 254 861 m -27 X s 254 879 m -27 X s 254 894 m -27 X s 254 907 m -27 X s 254 919 m -27 X s 281 929 m -54 X s 254 997 m -27 X s 254 1037 m -27 X s 254 1065 m -27 X s 254 1087 m -27 X s 254 1105 m -27 X s 254 1120 m -27
 X s 254 1133 m -27 X s 254 1144 m -27 X s 281 1155 m -54 X s 254 1223 m -27 X s 254 1262 m -27 X s 254 1290 m -27 X s 254 1312 m -27 X s 254 1330 m -27 X s 254 1345 m -27 X s 254 1358 m -27 X s 254 1370 m -27 X s 281 1380 m -54 X s 254 1448 m -27 X
 s 254 1488 m -27 X s 2154 253 m 1251 Y s 2101 253 m 53 X s 2127 321 m 27 X s 2127 361 m 27 X s 2127 389 m 27 X s 2127 411 m 27 X s 2127 429 m 27 X s 2127 444 m 27 X s 2127 457 m 27 X s 2127 468 m 27 X s 2101 479 m 53 X s 2127 546 m 27 X s 2127 586 m
 27 X s 2127 614 m 27 X s 2127 636 m 27 X s 2127 654 m 27 X s 2127 669 m 27 X s 2127 682 m 27 X s 2127 694 m 27 X s 2101 704 m 53 X s 2127 772 m 27 X s 2127 811 m 27 X s 2127 840 m 27 X s 2127 861 m 27 X s 2127 879 m 27 X s 2127 894 m 27 X s 2127 907
 m 27 X s 2127 919 m 27 X s 2101 929 m 53 X s 2127 997 m 27 X s 2127 1037 m 27 X s 2127 1065 m 27 X s 2127 1087 m 27 X s 2127 1105 m 27 X s 2127 1120 m 27 X s 2127 1133 m 27 X s 2127 1144 m 27 X s 2101 1155 m 53 X s 2127 1223 m 27 X s 2127 1262 m 27
 X s 2127 1290 m 27 X s 2127 1312 m 27 X s 2127 1330 m 27 X s 2127 1345 m 27 X s 2127 1358 m 27 X s 2127 1370 m 27 X s 2101 1380 m 53 X s 2127 1448 m 27 X s 2127 1488 m 27 X s
 gr  gr showpage
end
%%EOF
