%!PS-Adobe-2.0 EPSF-2.0
%%BoundingBox:  0 0 567 322
%%Title: : EffDiffRatio_FakeEfficiency1D_el_eta
%%Creator: ROOT Version 6.20/06
%%CreationDate: Tue Nov 30 12:30:07 2021
%%DocumentNeededResources: ProcSet (FontSetInit)
%%EndComments
%%BeginProlog
80 dict begin
/s {stroke} def /l {lineto} def /m {moveto} def /t {translate} def
/r {rotate} def /rl {roll}  def /R {repeat} def
/d {rlineto} def /rm {rmoveto} def /gr {grestore} def /f {eofill} def
/c {setrgbcolor} def /black {0 setgray} def /sd {setdash} def
/cl {closepath} def /sf {scalefont setfont} def /lw {setlinewidth} def
/box {m dup 0 exch d exch 0 d 0 exch neg d cl} def
/NC{systemdict begin initclip end}def/C{NC box clip newpath}def
/bl {box s} def /bf {gsave box gsave f grestore 1 lw [] 0 sd s grestore} def /Y { 0 exch d} def /X { 0 d} def 
/K {{pop pop 0 moveto} exch kshow} bind def
/ita {/ang 15 def gsave [1 0 ang dup sin exch cos div 1 0 0] concat} def 
/mp {newpath /y exch def /x exch def} def
/side {[w .77 mul w .23 mul] .385 w mul sd w 0 l currentpoint t -144 r} def
/mr {mp x y w2 0 360 arc} def /m24 {mr s} def /m20 {mr f} def
/mb {mp x y w2 add m w2 neg 0 d 0 w neg d w 0 d 0 w d cl} def
/mt {mp x y w2 add m w2 neg w neg d w 0 d cl} def
/w4 {w 4 div} def
/w6 {w 6 div} def
/w8 {w 8 div} def
/m21 {mb f} def /m25 {mb s} def /m22 {mt f} def /m26{mt s} def
/m23 {mp x y w2 sub m w2 w d w neg 0 d cl f} def
/m27 {mp x y w2 add m w3 neg w2 neg d w3 w2 neg d w3 w2 d cl s} def
/m28 {mp x w2 sub y w2 sub w3 add m w3 0 d  0 w3 neg d w3 0 d 0 w3 d w3 0 d  0 w3 d w3 neg 0 d 0 w3 d w3 neg 0 d 0 w3 neg d w3 neg 0 d cl s } def
/m29 {mp gsave x w2 sub y w2 add w3 sub m currentpoint t 4 {side} repeat cl fill gr} def
/m30 {mp gsave x w2 sub y w2 add w3 sub m currentpoint t 4 {side} repeat cl s gr} def
/m31 {mp x y w2 sub m 0 w d x w2 sub y m w 0 d x w2 sub y w2 add m w w neg d x w2 sub y w2 sub m w w d s} def
/m32 {mp x y w2 sub m w2 w d w neg 0 d cl s} def
/m33 {mp x y w2 add m w3 neg w2 neg d w3 w2 neg d w3 w2 d cl f} def
/m34 {mp x w2 sub y w2 sub w3 add m w3 0 d  0 w3 neg d w3 0 d 0 w3 d w3 0 d  0 w3 d w3 neg 0 d 0 w3 d w3 neg 0 d 0 w3 neg d w3 neg 0 d cl f } def
/m35 {mp x y w2 add m w2 neg w2 neg d w2 w2 neg d w2 w2 d w2 neg w2 d x y w2 sub m 0 w d x w2 sub y m w 0 d s} def
/m36 {mb x w2 sub y w2 add m w w neg d x w2 sub y w2 sub m w w d s} def
/m37 {mp x y m w4 neg w2 d w4 neg w2 neg d w2 0 d  w4 neg w2 neg d w2 0 d w4 neg w2 d w2 0 d w4 neg w2 d w4 neg w2 neg d cl s} def
/m38 {mp x w4 sub y w2 add m w4 neg w4 neg d 0 w2 neg d w4 w4 neg d w2 0 d w4 w4 d 0 w2 d w4 neg w4 d w2 neg 0 d x y w2 sub m 0 w d x w2 sub y m w 0 d cl s} def
/m39 {mp x y m w4 neg w2 d w4 neg w2 neg d w2 0 d  w4 neg w2 neg d w2 0 d w4 neg w2 d w2 0 d w4 neg w2 d w4 neg w2 neg d cl f} def
/m40 {mp x y m w4 w2 d w4 w4 neg d w2 neg w4 neg d w2 w4 neg d w4 neg w4 neg d w4 neg w2 d w4 neg w2 neg d w4 neg w4 d w2 w4 d w2 neg w4 d w4 w4 d w4 w2 neg d cl s} def
/m41 {mp x y m w4 w2 d w4 w4 neg d w2 neg w4 neg d w2 w4 neg d w4 neg w4 neg d w4 neg w2 d w4 neg w2 neg d w4 neg w4 d w2 w4 d w2 neg w4 d w4 w4 d w4 w2 neg d cl f} def
/m42 {mp x y w2 add m w8 neg w2 -3 4 div mul d w2 -3 4 div mul w8 neg d w2 3 4 div mul w8 neg d w8 w2 -3 4 div mul d w8 w2 3 4 div mul d w2 3 4 div mul w8 d w2 -3 4 div mul w8 d w8 neg w2 3 4 div mul d cl s} def
/m43 {mp x y w2 add m w8 neg w2 -3 4 div mul d w2 -3 4 div mul w8 neg d w2 3 4 div mul w8 neg d w8 w2 -3 4 div mul d w8 w2 3 4 div mul d w2 3 4 div mul w8 d w2 -3 4 div mul w8 d w8 neg w2 3 4 div mul d cl f} def
/m44 {mp x y m w6 neg w2 d w2 2 3 div mul 0 d w6 neg w2 neg d w2 w6 d 0 w2 -2 3 div mul d w2 neg w6 d w6 w2 neg d w2 -2 3 div mul 0 d w6 w2 d w2 neg w6 neg d 0 w2 2 3 div mul d w2 w6 neg d cl s} def
/m45 {mp x y m w6 neg w2 d w2 2 3 div mul 0 d w6 neg w2 neg d w2 w6 d 0 w2 -2 3 div mul d w2 neg w6 d w6 w2 neg d w2 -2 3 div mul 0 d w6 w2 d w2 neg w6 neg d 0 w2 2 3 div mul d w2 w6 neg d cl f} def
/m46 {mp x y w4 add m w4 neg w4 d w4 neg w4 neg d  w4 w4 neg d w4 neg w4 neg d w4 w4 neg d w4 w4 d w4 w4 neg d w4 w4 d w4 neg w4 d w4 w4 d w4 neg w4 d w4 neg w4 neg d cl s} def
/m47 {mp x y w4 add m w4 neg w4 d w4 neg w4 neg d w4 w4 neg d w4 neg w4 neg d  w4 w4 neg d w4 w4 d w4 w4 neg d w4 w4 d w4 neg w4 d w4 w4 d w4 neg w4 d w4 neg w4 neg d cl f} def
/m48 {mp x y w4 add m w4 neg w4 d w4 neg w4 neg d w4 w4 neg d  w4 neg w4 neg d w4 w4 neg d w4 w4 d w4 w4 neg d w4 w4 d w4 neg w4 d w4 w4 d w4 neg w4 d w4 neg w4 neg d  w4 w4 neg d w4 neg w4 neg d w4 neg w4 d w4 w4 d cl f} def
/m49 {mp x w2 sub w3 add y w2 sub w3 add m  0 w3 neg d w3 0 d 0 w3 d w3 0 d 0 w3 d w3 neg 0 d 0 w3 d w3 neg 0 d 0 w3 neg d w3 neg 0 d 0 w3 neg d w3 0 d 0 w3 d w3 0 d 0 w3 neg d w3 neg 0 d cl f } def
/m2 {mp x y w2 sub m 0 w d x w2 sub y m w 0 d s} def
/m5 {mp x w2 sub y w2 sub m w w d x w2 sub y w2 add m w w neg d s} def
%%IncludeResource: ProcSet (FontSetInit)
%%IncludeResource: font Times-Roman
%%IncludeResource: font Times-Italic
%%IncludeResource: font Times-Bold
%%IncludeResource: font Times-BoldItalic
%%IncludeResource: font Helvetica
%%IncludeResource: font Helvetica-Oblique
%%IncludeResource: font Helvetica-Bold
%%IncludeResource: font Helvetica-BoldOblique
%%IncludeResource: font Courier
%%IncludeResource: font Courier-Oblique
%%IncludeResource: font Courier-Bold
%%IncludeResource: font Courier-BoldOblique
%%IncludeResource: font Symbol
%%IncludeResource: font ZapfDingbats
/reEncode {exch findfont dup length dict begin {1 index /FID eq  {pop pop} {def} ifelse } forall /Encoding exch def currentdict end dup /FontName get exch definefont pop } def [/Times-Bold /Times-Italic /Times-BoldItalic /Helvetica /Helvetica-Oblique
 /Helvetica-Bold /Helvetica-BoldOblique /Courier /Courier-Oblique /Courier-Bold /Courier-BoldOblique /Times-Roman /AvantGarde-Book /AvantGarde-BookOblique /AvantGarde-Demi /AvantGarde-DemiOblique /Bookman-Demi /Bookman-DemiItalic /Bookman-Light
 /Bookman-LightItalic /Helvetica-Narrow /Helvetica-Narrow-Bold /Helvetica-Narrow-BoldOblique /Helvetica-Narrow-Oblique /NewCenturySchlbk-Roman /NewCenturySchlbk-Bold /NewCenturySchlbk-BoldItalic /NewCenturySchlbk-Italic /Palatino-Bold
 /Palatino-BoldItalic /Palatino-Italic /Palatino-Roman ] {ISOLatin1Encoding reEncode } forall
%%EndProlog
%%BeginSetup
%%EndSetup
newpath  gsave  .25 .25 scale  gsave  0 0 t black[  ] 0 sd 3 lw 1 1 1 c 2268 1287 0 0 bf black 1 1 1 c 2268 1287 0 0 bf black 1 1 1 c 1927 940 227 193 bf black 1927 940 227 193 bl 0.8 0.8 1 c 0.4 0.4 1 c 0.8 0.8 1 c 227 193 m 226 Y 1927 X -226 Y f
 227 419 m 1927 X s black 227 193 m 1927 X s 227 215 m -22 Y s 304 204 m -11 Y s 381 204 m -11 Y s 458 204 m -11 Y s 535 204 m -11 Y s 612 215 m -22 Y s 689 204 m -11 Y s 766 204 m -11 Y s 844 204 m -11 Y s 921 204 m -11 Y s 998 215 m -22 Y s 1075
 204 m -11 Y s 1152 204 m -11 Y s 1229 204 m -11 Y s 1306 204 m -11 Y s 1383 215 m -22 Y s 1460 204 m -11 Y s 1538 204 m -11 Y s 1615 204 m -11 Y s 1692 204 m -11 Y s 1769 215 m -22 Y s 1846 204 m -11 Y s 1923 204 m -11 Y s 2000 204 m -11 Y s 2077
 204 m -11 Y s 2154 215 m -22 Y s
 gsave  2268 1287 0 0 C 206.693 129.921 t 0 r /Helvetica findfont 59.0551 sf 0 0 m (0) show NC gr 
 gsave  2268 1287 0 0 C 569.882 129.921 t 0 r /Helvetica findfont 59.0551 sf 0 0 m (0.5) show NC gr 
 gsave  2268 1287 0 0 C 983.268 129.921 t 0 r /Helvetica findfont 59.0551 sf 0 0 m (1) show NC gr 
 gsave  2268 1287 0 0 C 1340.55 129.921 t 0 r /Helvetica findfont 59.0551 sf 0 0 m (1.5) show NC gr 
 gsave  2268 1287 0 0 C 1750.98 129.921 t 0 r /Helvetica findfont 59.0551 sf 0 0 m (2) show NC gr 
 gsave  2268 1287 0 0 C 2111.22 129.921 t 0 r /Helvetica findfont 59.0551 sf 0 0 m (2.5) show NC gr 
 gsave  2268 1287 0 0 C 2108.27 20.6693 t 0 r /Helvetica findfont 41.3386 sf 0 0 m (ev) show NC gr 
 gsave  2268 1287 0 0 C 1836.61 35.4331 t 0 r /Helvetica findfont 59.0551 sf 0 0 m (Electron N) show NC gr  227 1133 m 1927 X s 227 1111 m 22 Y s 304 1122 m 11 Y s 381 1122 m 11 Y s 458 1122 m 11 Y s 535 1122 m 11 Y s 612 1111 m 22 Y s 689 1122 m 11
 Y s 766 1122 m 11 Y s 844 1122 m 11 Y s 921 1122 m 11 Y s 998 1111 m 22 Y s 1075 1122 m 11 Y s 1152 1122 m 11 Y s 1229 1122 m 11 Y s 1306 1122 m 11 Y s 1383 1111 m 22 Y s 1460 1122 m 11 Y s 1538 1122 m 11 Y s 1615 1122 m 11 Y s 1692 1122 m 11 Y s
 1769 1111 m 22 Y s 1846 1122 m 11 Y s 1923 1122 m 11 Y s 2000 1122 m 11 Y s 2077 1122 m 11 Y s 2154 1111 m 22 Y s 227 193 m 940 Y s 260 287 m -33 X s 260 382 m -33 X s 260 477 m -33 X s 260 572 m -33 X s 260 667 m -33 X s 260 762 m -33 X s 260 857 m
 -33 X s 260 952 m -33 X s 260 1047 m -33 X s 260 287 m -33 X s 260 1047 m -33 X s
 gsave  2268 1287 0 0 C 138.78 265.748 t 0 r /Helvetica findfont 59.0551 sf 0 0 m (10) show NC gr 
 gsave  2268 1287 0 0 C 138.78 360.236 t 0 r /Helvetica findfont 59.0551 sf 0 0 m (20) show NC gr 
 gsave  2268 1287 0 0 C 138.78 454.724 t 0 r /Helvetica findfont 59.0551 sf 0 0 m (30) show NC gr 
 gsave  2268 1287 0 0 C 138.78 549.213 t 0 r /Helvetica findfont 59.0551 sf 0 0 m (40) show NC gr 
 gsave  2268 1287 0 0 C 138.78 643.701 t 0 r /Helvetica findfont 59.0551 sf 0 0 m (50) show NC gr 
 gsave  2268 1287 0 0 C 138.78 741.142 t 0 r /Helvetica findfont 59.0551 sf 0 0 m (60) show NC gr 
 gsave  2268 1287 0 0 C 138.78 835.63 t 0 r /Helvetica findfont 59.0551 sf 0 0 m (70) show NC gr 
 gsave  2268 1287 0 0 C 138.78 930.118 t 0 r /Helvetica findfont 59.0551 sf 0 0 m (80) show NC gr 
 gsave  2268 1287 0 0 C 138.78 1024.61 t 0 r /Helvetica findfont 59.0551 sf 0 0 m (90) show NC gr 
 gsave  2268 1287 0 0 C 85.6299 623.031 t 90 r /Helvetica findfont 59.0551 sf 0 0 m (Rel. uncertainty [%]) show NC gr  2154 193 m 940 Y s 2121 287 m 33 X s 2121 382 m 33 X s 2121 477 m 33 X s 2121 572 m 33 X s 2121 667 m 33 X s 2121 762 m 33 X s 2121
 857 m 33 X s 2121 952 m 33 X s 2121 1047 m 33 X s 2121 287 m 33 X s 2121 1047 m 33 X s 227 193 m 1927 X s 227 215 m -22 Y s 304 204 m -11 Y s 381 204 m -11 Y s 458 204 m -11 Y s 535 204 m -11 Y s 612 215 m -22 Y s 689 204 m -11 Y s 766 204 m -11 Y s
 844 204 m -11 Y s 921 204 m -11 Y s 998 215 m -22 Y s 1075 204 m -11 Y s 1152 204 m -11 Y s 1229 204 m -11 Y s 1306 204 m -11 Y s 1383 215 m -22 Y s 1460 204 m -11 Y s 1538 204 m -11 Y s 1615 204 m -11 Y s 1692 204 m -11 Y s 1769 215 m -22 Y s 1846
 204 m -11 Y s 1923 204 m -11 Y s 2000 204 m -11 Y s 2077 204 m -11 Y s 2154 215 m -22 Y s 227 1133 m 1927 X s 227 1111 m 22 Y s 304 1122 m 11 Y s 381 1122 m 11 Y s 458 1122 m 11 Y s 535 1122 m 11 Y s 612 1111 m 22 Y s 689 1122 m 11 Y s 766 1122 m 11
 Y s 844 1122 m 11 Y s 921 1122 m 11 Y s 998 1111 m 22 Y s 1075 1122 m 11 Y s 1152 1122 m 11 Y s 1229 1122 m 11 Y s 1306 1122 m 11 Y s 1383 1111 m 22 Y s 1460 1122 m 11 Y s 1538 1122 m 11 Y s 1615 1122 m 11 Y s 1692 1122 m 11 Y s 1769 1111 m 22 Y s
 1846 1122 m 11 Y s 1923 1122 m 11 Y s 2000 1122 m 11 Y s 2077 1122 m 11 Y s 2154 1111 m 22 Y s 227 193 m 940 Y s 260 287 m -33 X s 260 382 m -33 X s 260 477 m -33 X s 260 572 m -33 X s 260 667 m -33 X s 260 762 m -33 X s 260 857 m -33 X s 260 952 m
 -33 X s 260 1047 m -33 X s 260 287 m -33 X s 260 1047 m -33 X s 2154 193 m 940 Y s 2121 287 m 33 X s 2121 382 m 33 X s 2121 477 m 33 X s 2121 572 m 33 X s 2121 667 m 33 X s 2121 762 m 33 X s 2121 857 m 33 X s 2121 952 m 33 X s 2121 1047 m 33 X s
 2121 287 m 33 X s 2121 1047 m 33 X s
 gsave  2268 1287 0 0 C 271.654 1187.01 t 0 r /Helvetica-BoldOblique findfont 59.0551 sf 0 0 m (ATLAS) show NC gr 
 gsave  2268 1287 0 0 C 496.063 1187.01 t 0 r /Helvetica findfont 59.0551 sf 0 0 m (Internal) show NC gr 
 gsave  2268 1287 0 0 C 770.669 1187.01 t 0 r /Helvetica findfont 59.0551 sf 0 0 m (Rel. uncertainties of electron fake eff.) show NC gr 
 gr  gr showpage
end
%%EOF
